126
XYZ file of cluster: frame_4000_9b488.14ed.2a31 - created by MolEdiTo
 O      24.20000000       9.90600000       6.62900000
 H      23.31500000       9.76900000       6.36300000
 H      24.46100000       9.06400000       6.88800000
 O      29.11800000       0.63600000       9.30400000
 H      28.48300000       1.30700000       8.99300000
 H      29.97700000       0.99100000       8.89800000
 O      20.82800000       3.75000000       9.13100000
 H      20.52300000       3.06600000       9.74400000
 H      21.67100000       3.41700000       8.70700000
 O      28.63600000       5.65000000       9.10500000
 H      29.34500000       5.72500000       8.42600000
 H      29.04200000       5.94200000       9.94600000
 O      26.19700000       6.65400000       9.96700000
 H      26.10800000       6.08400000      10.76000000
 H      27.08400000       6.37400000       9.53500000
 O      29.28600000       1.66700000       6.00100000
 H      30.27600000       1.80700000       5.85600000
 H      29.00200000       2.57200000       6.17300000
 O      29.94700000       7.92000000       9.90000000
 H      30.01000000       8.84600000       9.59500000
 H      29.21500000       8.15400000      10.48000000
 O      23.47800000       0.85100000       3.94800000
 H      23.54000000       1.81700000       3.80000000
 H      22.84700000       0.76500000       4.71700000
 O      30.13600000       8.18100000       2.63300000
 H      29.93400000       8.35400000       1.65800000
 H      29.86900000       8.93700000       3.11800000
 O      27.22500000      10.39000000       6.60800000
 H      27.11500000      10.04400000       7.51400000
 H      26.32500000      10.49300000       6.21300000
 O      27.79900000       9.83200000       4.01200000
 H      27.21000000       9.08700000       3.96000000
 H      28.06600000      10.10200000       4.90500000
 O      27.12800000       2.80400000      10.56700000
 H      26.80900000       3.46900000      11.20900000
 H      27.68400000       3.36400000       9.95800000
 O      28.60800000       4.43100000       1.75800000
 H      29.18200000       4.03300000       2.50400000
 H      28.42200000       3.71300000       1.12000000
 O      26.27100000       7.48600000       4.66300000
 H      27.16800000       7.25100000       4.96200000
 H      25.63900000       6.96800000       5.20400000
 O      24.79900000       7.29400000       7.53200000
 H      25.41500000       7.37600000       8.28200000
 H      23.87600000       7.35700000       7.85600000
 O      27.44400000       9.68600000       9.69800000
 H      28.43300000       9.83200000       9.64700000
 H      27.20600000       9.25600000      10.58300000
 O      30.25900000       1.61700000       1.84900000
 H      29.85100000       0.79100000       2.28700000
 H      30.40600000       2.25800000       2.55600000
 O      22.41400000       1.77000000       6.42200000
 H      21.66300000       1.56500000       6.96100000
 H      23.20700000       1.62500000       6.94700000
 O      24.75700000       1.04900000       8.29400000
 H      24.57200000       0.72800000       9.18500000
 H      24.90900000       0.16800000       7.95100000
 O      24.69400000       4.81700000       1.25300000
 H      24.88600000       4.33500000       2.03200000
 H      24.89400000       5.73400000       1.57200000
 O      22.12400000      10.77100000       9.84800000
 H      21.40900000      11.13100000       9.24700000
 H      22.66100000      10.16700000       9.34800000
 O      30.50600000      10.61100000       2.10900000
 H      30.15200000      10.88700000       1.27900000
 H      29.70000000      10.33300000       2.51500000
 O      25.62700000       4.14500000       7.75400000
 H      25.43400000       5.03700000       8.20500000
 H      25.20100000       3.49900000       8.39200000
 O      24.82500000       9.49200000       3.61200000
 H      25.81500000       9.37400000       3.55900000
 H      24.60700000       9.09900000       4.42200000
 O      21.47800000       4.66000000       2.97500000
 H      22.02900000       4.30800000       3.71200000
 H      21.63500000       4.13500000       2.18600000
 O      29.27300000       6.82400000       5.17000000
 H      29.99700000       7.40900000       5.47700000
 H      29.36100000       7.07300000       4.16700000
 O      26.35200000       3.87900000       3.93800000
 H      26.99000000       4.12000000       3.13400000
 H      26.95200000       3.29500000       4.52800000
 O      24.41500000       8.90900000      10.43800000
 H      23.73200000       8.77100000      11.12000000
 H      25.16800000       8.27900000      10.54200000
 O      21.24600000       2.34100000       1.22200000
 H      20.53300000       2.38400000       1.91800000
 H      20.85600000       2.36700000       0.34200000
 O      26.67100000       6.74800000       2.16000000
 H      26.32200000       6.82100000       3.12200000
 H      27.45300000       6.14200000       2.28300000
 O      20.96400000       8.81100000       2.57300000
 H      21.35600000       9.25100000       1.78000000
 H      20.03400000       9.04300000       2.66900000
 O      23.51900000       3.65300000       4.46700000
 H      24.53400000       3.62000000       4.30900000
 H      23.48200000       4.40300000       5.12200000
 O      28.48600000       4.17700000       6.46700000
 H      28.86700000       5.05900000       6.26000000
 H      27.71400000       4.45100000       7.05600000
 O      23.44700000       3.02300000      10.06100000
 H      23.09000000       2.58900000      10.84400000
 H      24.38200000       2.61600000      10.11500000
 O      23.50400000       9.59700000       1.15700000
 H      23.76500000      10.34000000       1.80900000
 H      23.47400000       8.82400000       1.77200000
 O      30.40900000       3.48700000       3.73800000
 H      30.30300000       2.93800000       4.48400000
 H      31.37100000       3.63300000       3.62500000
 O      21.91800000       7.97600000       8.00600000
 H      21.55200000       7.49600000       8.78800000
 H      21.73300000       8.93000000       8.26300000
 O      23.13200000       5.76800000       9.61200000
 H      22.80100000       4.83800000       9.45000000
 H      22.94700000       6.00400000      10.46400000
 O      20.77800000      10.44300000       4.92300000
 H      21.24900000      10.28800000       5.78500000
 H      20.59300000       9.52200000       4.59100000
 O      22.35600000       5.53000000       6.61000000
 H      22.65300000       5.10400000       7.41600000
 H      22.30900000       6.48700000       6.85600000
 O      23.02900000       7.12100000       2.81000000
 H      22.23100000       7.71700000       2.94400000
 H      22.66100000       6.23400000       3.00000000
 O      30.59200000       9.74300000       9.07300000
 H      31.31900000      10.39600000       8.92700000
 H      30.28500000       9.79100000       8.20100000
