120
XYZ file of cluster: frame_4000_9a95f.c106e.750e0 - created by MolEdiTo
 O      29.92200000      29.71900000      20.55200000
 H      30.25800000      30.57000000      21.02500000
 H      29.73100000      29.21500000      21.35900000
 O      21.47000000      27.21900000      15.71300000
 H      22.30300000      27.65300000      15.59800000
 H      21.61700000      26.30900000      15.95800000
 O      25.16500000      25.38500000      26.46900000
 H      25.92000000      24.79600000      26.25700000
 H      25.20800000      26.13600000      25.84800000
 O      26.49900000      26.86200000      25.41400000
 H      26.46800000      27.74700000      24.93800000
 H      27.37000000      26.45100000      25.09900000
 O      21.27800000      28.69500000      19.83300000
 H      20.76800000      28.63900000      20.63500000
 H      20.85200000      28.09000000      19.17400000
 O      25.62600000      27.99800000      19.37400000
 H      25.11400000      27.43200000      19.96700000
 H      26.58900000      27.70400000      19.61800000
 O      29.96800000      30.12900000      15.40400000
 H      30.00000000      31.02400000      15.75900000
 H      29.27500000      29.62100000      15.90500000
 O      25.09300000      25.79200000      21.27200000
 H      24.64300000      26.20300000      22.06000000
 H      26.00700000      25.46900000      21.51200000
 O      20.16200000      26.29600000      21.33900000
 H      19.94400000      27.12800000      20.74400000
 H      21.00300000      25.87900000      21.03900000
 O      28.15900000      29.84600000      17.52500000
 H      28.12300000      30.76400000      17.77200000
 H      28.89100000      29.42600000      18.04800000
 O      25.18300000      28.74100000      23.61300000
 H      25.49800000      29.13900000      22.78800000
 H      24.33500000      29.20800000      23.68300000
 O      23.66400000      28.72500000      26.35100000
 H      23.53700000      29.23100000      25.54500000
 H      23.60600000      29.44100000      27.06000000
 O      30.61400000      25.84200000      18.21600000
 H      30.57100000      26.68500000      17.75200000
 H      29.69600000      25.55800000      18.02800000
 O      21.71600000      26.91800000      25.03100000
 H      20.97400000      27.43600000      25.36000000
 H      22.41400000      27.53400000      24.94100000
 O      30.22000000      28.07400000      22.84500000
 H      30.99200000      28.47200000      22.48200000
 H      30.61300000      27.24700000      23.29000000
 O      23.90700000      27.62400000      17.16600000
 H      24.50500000      27.52500000      17.95300000
 H      23.61200000      28.54300000      17.37600000
 O      23.41300000      29.91200000      18.63800000
 H      22.63100000      29.37700000      18.77600000
 H      24.13900000      29.39200000      19.09400000
 O      28.20300000      26.14200000      20.56800000
 H      28.10400000      26.44600000      21.48800000
 H      29.15700000      25.87900000      20.48700000
 O      26.83300000      29.06000000      26.40700000
 H      26.85300000      28.37100000      27.13500000
 H      26.73600000      28.52000000      25.63100000
 O      30.16200000      28.28600000      25.26500000
 H      29.20900000      28.25700000      25.57500000
 H      30.56500000      27.70500000      25.89800000
 O      23.87600000      25.87300000      24.19400000
 H      24.17900000      26.77900000      24.54600000
 H      24.77000000      25.54400000      24.17600000
 O      21.32200000      33.36100000      26.41800000
 H      20.44200000      33.46700000      25.90800000
 H      21.66900000      34.24600000      26.87100000
 O      28.24000000      35.74300000      26.03900000
 H      27.40300000      36.09500000      26.47600000
 H      28.66200000      35.43800000      26.87700000
 O      24.34200000      35.31500000      19.12900000
 H      24.52100000      36.24300000      19.36600000
 H      25.16600000      35.22100000      18.60900000
 O      25.78500000      36.35300000      27.11600000
 H      25.08900000      36.54000000      26.36800000
 H      25.65300000      35.40700000      27.34900000
 O      28.71600000      34.84000000      18.30900000
 H      28.08700000      35.33800000      18.80600000
 H      29.61400000      35.34900000      18.35700000
 O      26.65700000      34.79700000      16.17100000
 H      26.37600000      33.85700000      16.16700000
 H      27.44900000      34.84900000      16.73900000
 O      20.97700000      32.90100000      23.10700000
 H      21.40700000      33.34200000      22.36300000
 H      20.08100000      32.83500000      22.79600000
 O      22.87300000      32.41300000      25.23100000
 H      22.70000000      33.00200000      26.00900000
 H      22.14700000      32.54300000      24.55700000
 O      25.86600000      32.37900000      21.48800000
 H      25.21800000      32.45000000      20.75400000
 H      26.52000000      33.09100000      21.31300000
 O      26.94900000      35.18400000      23.44700000
 H      26.12100000      34.73000000      23.54000000
 H      27.60100000      34.53200000      23.83500000
 O      21.33000000      32.66300000      16.68500000
 H      22.25100000      32.33100000      16.78700000
 H      20.99400000      31.91600000      16.05500000
 O      30.61200000      33.81700000      25.00200000
 H      31.49800000      34.27600000      25.01400000
 H      30.17800000      34.25900000      25.77800000
 O      25.89500000      32.24300000      15.96400000
 H      26.39900000      31.87300000      16.75500000
 H      26.44000000      31.94900000      15.18100000
 O      22.70300000      33.58100000      20.89800000
 H      22.32000000      33.02800000      20.13000000
 H      23.34700000      34.22100000      20.50100000
 O      27.28100000      35.89700000      20.47000000
 H      26.98200000      36.61200000      21.04700000
 H      27.86400000      35.36200000      21.04400000
 O      28.55100000      33.15400000      23.78800000
 H      29.00300000      33.24500000      24.65500000
 H      29.20200000      32.72200000      23.17500000
 O      21.34200000      37.18700000      20.62900000
 H      21.09300000      36.91700000      21.56300000
 H      21.95800000      36.51300000      20.29300000
 O      23.75300000      35.71500000      26.03400000
 H      24.05300000      35.18400000      25.16200000
 H      23.29300000      36.52700000      25.79900000
 O      24.30600000      34.08500000      23.57800000
 H      23.93600000      33.28400000      24.02500000
 H      24.58600000      33.75500000      22.71700000
