93
XYZ file of cluster: frame_4000_4aedc.c14ea.0 - created by MolEdiTo
 O      18.83400000      29.30300000      10.18200000
 H      17.95000000      29.62000000      10.47900000
 H      18.90100000      28.30200000      10.16500000
 O      19.20500000      26.61100000      10.79900000
 H      19.29300000      26.17000000      11.67900000
 H      19.50600000      25.90100000      10.17900000
 O      21.37000000      28.48100000       4.66800000
 H      21.71400000      29.07100000       3.92900000
 H      20.84600000      27.80700000       4.36100000
 O      12.29700000      27.57000000       9.43100000
 H      11.81200000      28.22600000       8.87600000
 H      12.01900000      27.73100000      10.36400000
 O      18.70700000      29.80900000       3.24400000
 H      18.50000000      29.74300000       2.30000000
 H      19.64000000      29.50500000       3.30000000
 O      11.48200000      30.52000000       1.53300000
 H      11.67200000      31.07700000       2.30700000
 H      11.28700000      29.56400000       1.66100000
 O      15.81500000      28.90100000       5.93400000
 H      16.11500000      29.85000000       6.20300000
 H      16.62200000      28.48300000       5.61100000
 O      20.21800000      28.27600000       7.33700000
 H      21.01500000      28.10500000       6.71000000
 H      19.64400000      27.39700000       7.16800000
 O      11.54100000      25.86800000       3.74700000
 H      11.17400000      26.38400000       2.97400000
 H      11.90600000      26.64700000       4.29500000
 O      10.87300000      27.46000000       0.97900000
 H      11.86900000      27.44500000       1.24000000
 H      10.76600000      26.63700000       0.44700000
 O      13.06700000      29.60700000       6.63300000
 H      12.80900000      29.34900000       5.76200000
 H      13.99400000      29.67100000       6.59400000
 O      10.89300000      30.05500000       8.33300000
 H      11.29900000      30.05200000       7.50200000
 H      10.13100000      30.58300000       8.00900000
 O      18.91300000      25.67800000       1.37500000
 H      19.47600000      26.34800000       0.96500000
 H      19.26500000      24.83200000       0.94900000
 O      14.81900000      27.95400000       8.71900000
 H      14.80600000      27.92500000       7.74300000
 H      13.85400000      27.72000000       8.91800000
 O      14.08200000      32.28500000       0.98900000
 H      13.16400000      31.97700000       1.16800000
 H      14.15000000      32.38800000       0.00000000
 O      20.82800000      35.11200000       9.13100000
 H      20.52300000      34.42800000       9.74400000
 H      21.67100000      34.77900000       8.70700000
 O      10.45800000      34.58400000       8.49700000
 H      11.23200000      33.99200000       8.23100000
 H       9.66700000      34.02000000       8.60500000
 O      10.24800000      35.46900000       5.71900000
 H      10.85900000      35.28600000       6.51800000
 H       9.90800000      36.34400000       6.03200000
 O      13.01300000      34.00200000       7.33300000
 H      12.88400000      33.38700000       6.62400000
 H      13.98400000      34.22100000       7.40600000
 O      14.45100000      34.77200000       2.87600000
 H      14.73400000      35.43300000       2.19400000
 H      14.50500000      33.92200000       2.43000000
 O      15.93500000      33.69300000       7.60900000
 H      15.50900000      33.20300000       8.38500000
 H      16.62200000      33.05400000       7.38400000
 O      12.30300000      33.11800000       4.28100000
 H      11.93500000      33.96000000       4.07600000
 H      13.27300000      33.20300000       4.32300000
 O      19.02400000      34.62600000       6.59700000
 H      19.19200000      33.94500000       7.24900000
 H      19.70600000      35.26500000       6.89900000
 O      16.55000000      36.66300000       7.92300000
 H      17.07300000      36.61100000       8.68600000
 H      15.92800000      35.91300000       8.07900000
 O      20.31100000      32.23500000       8.18500000
 H      19.89000000      32.03800000       9.06100000
 H      20.20400000      31.37900000       7.70600000
 O      18.39200000      34.69000000       2.59700000
 H      17.93300000      34.24300000       3.28500000
 H      18.12800000      35.64200000       2.71900000
 O      14.86800000      37.22500000       4.74300000
 H      15.23600000      36.76900000       5.53400000
 H      14.82100000      36.49700000       4.05500000
 O      21.24600000      33.70300000       1.22200000
 H      20.53300000      33.74600000       1.91800000
 H      20.85600000      33.72900000       0.34200000
 O      11.18000000      37.19900000       7.83400000
 H      10.77400000      37.86800000       8.43200000
 H      11.03200000      36.35200000       8.25900000
 O      17.54700000      32.73000000       5.35900000
 H      18.08300000      33.47500000       5.74600000
 H      18.10800000      32.29200000       4.66800000
 O      15.74000000      32.02500000      10.18400000
 H      15.15100000      31.36200000       9.74700000
 H      15.25800000      32.68900000      10.73400000
