132
XYZ file of cluster: frame_4000_c2a88.9bdf0.7103a - created by MolEdiTo
 O      27.44500000      21.42600000      24.19200000
 H      27.54900000      21.93900000      25.00800000
 H      26.70500000      20.82200000      24.48200000
 O      29.92200000      29.71900000      20.55200000
 H      30.25800000      30.57000000      21.02500000
 H      29.73100000      29.21500000      21.35900000
 O      26.49900000      26.86200000      25.41400000
 H      26.46800000      27.74700000      24.93800000
 H      27.37000000      26.45100000      25.09900000
 O      27.86200000      25.29200000      17.64200000
 H      27.00800000      25.49100000      17.25700000
 H      27.69100000      25.57500000      18.57400000
 O      29.87000000      20.87300000      22.60700000
 H      29.23000000      21.61400000      22.68200000
 H      29.60000000      20.09600000      23.15600000
 O      27.19100000      22.87900000      25.53300000
 H      26.99800000      22.40100000      26.32400000
 H      27.89100000      23.51500000      25.84000000
 O      29.96800000      30.12900000      15.40400000
 H      30.00000000      31.02400000      15.75900000
 H      29.27500000      29.62100000      15.90500000
 O      28.15900000      29.84600000      17.52500000
 H      28.12300000      30.76400000      17.77200000
 H      28.89100000      29.42600000      18.04800000
 O      26.48500000      22.12000000      19.57900000
 H      26.11100000      22.80800000      20.18900000
 H      27.47800000      22.27000000      19.79500000
 O      26.85200000      23.59800000      21.95500000
 H      26.86300000      22.93700000      22.73400000
 H      27.73800000      23.39900000      21.69300000
 O      29.10200000      25.33600000      24.83400000
 H      30.08300000      25.59000000      24.78300000
 H      29.10800000      24.72300000      25.59700000
 O      30.61400000      25.84200000      18.21600000
 H      30.57100000      26.68500000      17.75200000
 H      29.69600000      25.55800000      18.02800000
 O      28.94900000      25.31200000      15.12600000
 H      29.96400000      25.14400000      15.13100000
 H      28.70600000      24.79900000      15.95500000
 O      29.15500000      22.33600000      20.62000000
 H      29.79500000      22.67900000      19.95200000
 H      29.66200000      21.68100000      21.11300000
 O      30.22000000      28.07400000      22.84500000
 H      30.99200000      28.47200000      22.48200000
 H      30.61300000      27.24700000      23.29000000
 O      28.30700000      21.90000000      16.65000000
 H      27.98200000      21.08000000      17.12000000
 H      29.26900000      21.81300000      16.72000000
 O      28.20300000      26.14200000      20.56800000
 H      28.10400000      26.44600000      21.48800000
 H      29.15700000      25.87900000      20.48700000
 O      26.83300000      29.06000000      26.40700000
 H      26.85300000      28.37100000      27.13500000
 H      26.73600000      28.52000000      25.63100000
 O      25.53700000      22.50800000      16.78700000
 H      25.41500000      22.35200000      17.78900000
 H      26.53900000      22.59600000      16.60900000
 O      30.16200000      28.28600000      25.26500000
 H      29.20900000      28.25700000      25.57500000
 H      30.56500000      27.70500000      25.89800000
 O      25.62600000      27.99800000      19.37400000
 H      25.11400000      27.43200000      19.96700000
 H      26.58900000      27.70400000      19.61800000
 O      32.16900000      22.85700000      25.71300000
 H      32.64200000      22.22800000      25.04900000
 H      31.92300000      22.17300000      26.36400000
 O      33.19200000      25.71700000      24.35900000
 H      33.10700000      24.84800000      23.85000000
 H      33.98000000      25.65400000      24.97400000
 O      33.65900000      23.01900000      21.81700000
 H      34.42900000      23.08300000      21.29700000
 H      33.69900000      22.12800000      22.19800000
 O      34.96100000      29.08800000      25.42700000
 H      35.85500000      29.20700000      25.81600000
 H      35.02000000      28.18400000      24.98500000
 O      36.61400000      21.71800000      25.80200000
 H      36.86600000      22.36200000      26.51600000
 H      37.50300000      21.41400000      25.60000000
 O      36.74000000      23.42300000      24.48200000
 H      36.55900000      22.49400000      24.71400000
 H      36.64800000      23.40100000      23.51500000
 O      36.46300000      22.72100000      15.98500000
 H      36.91600000      21.95900000      15.50200000
 H      35.98900000      23.31100000      15.35400000
 O      36.42800000      23.96200000      21.25600000
 H      36.78800000      24.27700000      20.43700000
 H      37.26900000      23.40200000      21.41400000
 O      36.84800000      24.85200000      18.18100000
 H      36.36600000      24.11600000      17.67500000
 H      37.67200000      24.50600000      18.47100000
 O      37.39000000      26.60600000      23.91000000
 H      36.53500000      26.86700000      23.52500000
 H      37.45100000      27.29100000      24.59700000
 O      36.94600000      29.42700000      23.36200000
 H      37.52300000      29.28500000      24.21500000
 H      36.29400000      30.09400000      23.64500000
 O      36.66800000      28.68200000      20.78000000
 H      37.04100000      29.04500000      21.67000000
 H      36.27000000      27.90600000      21.13900000
 O      34.81900000      21.02800000      17.69200000
 H      34.25100000      20.44800000      17.12800000
 H      35.28900000      21.63600000      17.11400000
 O      35.74700000      26.43900000      21.92600000
 H      34.89500000      26.21500000      22.31700000
 H      36.09300000      25.55400000      21.70400000
 O      33.66300000      24.00100000      26.63100000
 H      33.00700000      23.70300000      25.97400000
 H      34.10300000      23.18800000      26.84100000
 O      37.57500000      20.62900000      18.36100000
 H      36.71000000      21.04500000      18.38700000
 H      38.06200000      21.36400000      17.88800000
 O      33.22600000      28.64000000      18.08100000
 H      33.66500000      29.25300000      17.52300000
 H      33.06400000      29.00400000      18.95200000
 O      32.39900000      22.73700000      18.58000000
 H      33.03800000      22.10300000      18.23000000
 H      32.57800000      23.64300000      18.34500000
 O      34.25900000      20.88600000      25.18200000
 H      34.62000000      20.02300000      25.00400000
 H      34.93000000      21.19700000      25.87500000
 O      34.37000000      24.73800000      17.33300000
 H      35.03800000      25.32300000      17.69200000
 H      33.52000000      25.11700000      17.58700000
 O      35.40100000      25.26400000      25.12400000
 H      34.65700000      24.82700000      25.66400000
 H      35.86300000      24.57500000      24.54800000
 O      34.99200000      30.53100000      15.92600000
 H      35.00100000      29.71500000      15.36600000
 H      35.67700000      30.21200000      16.61600000
 O      32.96300000      23.34700000      15.58800000
 H      33.67700000      23.75600000      16.12500000
 H      33.21500000      23.49800000      14.65700000
