342
XYZ file of cluster: frame_16000_7623a.c5c62.9ac9f - created by MolEdiTo
 O      34.90600000      35.61700000      37.80600000
 H      35.10500000      34.98700000      37.11600000
 H      34.58100000      36.38300000      37.34000000
 O      22.23500000      36.57100000      40.01100000
 H      22.21200000      35.61300000      39.96800000
 H      23.07000000      36.84400000      39.63400000
 O      35.02200000      34.51300000      40.28900000
 H      36.00200000      34.57400000      40.47400000
 H      34.98400000      35.10300000      39.52700000
 O      21.42200000      34.25800000      32.85800000
 H      20.89700000      34.90900000      33.33600000
 H      22.08800000      34.69600000      32.33600000
 O      37.65500000      36.97700000      37.01700000
 H      36.95200000      36.20700000      37.00400000
 H      38.32500000      36.51400000      36.44400000
 O      39.86200000      35.65000000      35.88600000
 H      39.83200000      36.07100000      34.98500000
 H      39.75000000      34.70600000      35.58400000
 O      34.80100000      38.34900000      34.50200000
 H      35.42000000      39.09500000      34.42700000
 H      34.24200000      38.46700000      33.69400000
 O      26.07500000      36.18200000      29.07600000
 H      26.48000000      35.49500000      28.54800000
 H      25.52700000      35.64000000      29.68300000
 O      30.63000000      36.08500000      29.51400000
 H      29.77900000      36.46000000      29.21900000
 H      30.28800000      35.38700000      30.09700000
 O      32.89600000      37.78100000      29.88200000
 H      32.15500000      37.20900000      29.62600000
 H      32.99500000      38.25000000      29.00600000
 O      37.60800000      37.85400000      31.34300000
 H      38.07100000      37.02700000      30.99800000
 H      37.83200000      37.73400000      32.32500000
 O      21.17500000      38.46400000      31.88300000
 H      20.22500000      38.29700000      31.75900000
 H      21.14200000      39.40000000      31.57000000
 O      28.73400000      40.20200000      34.96900000
 H      28.22800000      39.30200000      35.02200000
 H      29.02700000      40.06700000      34.00300000
 O      22.72100000      35.23900000      27.69600000
 H      22.87300000      34.40200000      27.15800000
 H      22.15600000      34.80900000      28.41800000
 O      27.28700000      37.62800000      35.36700000
 H      27.13600000      37.00600000      34.63900000
 H      26.42300000      37.70900000      35.82600000
 O      27.25200000      35.68500000      33.60100000
 H      28.12500000      35.71000000      33.18200000
 H      27.44300000      35.26300000      34.50300000
 O      24.80600000      39.85100000      38.09300000
 H      25.12400000      39.07300000      38.66900000
 H      24.55300000      39.29500000      37.30500000
 O      30.36400000      39.76100000      29.34300000
 H      29.79300000      38.95000000      29.27900000
 H      31.22900000      39.47700000      29.35700000
 O      36.95400000      39.83500000      37.74300000
 H      36.31400000      39.53600000      38.41400000
 H      37.22800000      38.97300000      37.34100000
 O      30.91900000      37.16900000      33.03100000
 H      31.77700000      37.29000000      32.59700000
 H      30.95100000      36.24700000      33.25600000
 O      33.87800000      39.22100000      32.14800000
 H      33.30000000      38.87000000      31.38200000
 H      34.31700000      39.96000000      31.66400000
 O      34.69400000      35.91900000      31.14900000
 H      34.96600000      36.38700000      31.97200000
 H      34.26900000      36.71800000      30.70500000
 O      33.30200000      37.46500000      36.61200000
 H      33.83500000      37.91700000      35.87900000
 H      33.09400000      38.28500000      37.10800000
 O      20.55700000      38.73600000      36.61800000
 H      20.13500000      39.52500000      36.14400000
 H      21.17400000      39.21100000      37.16300000
 O      29.73900000      35.66400000      38.93700000
 H      30.31500000      35.32600000      38.18100000
 H      30.33500000      36.42200000      39.20700000
 O      40.44200000      37.31700000      37.96800000
 H      40.52300000      36.65200000      38.68700000
 H      40.12900000      36.82000000      37.21200000
 O      24.75600000      35.21100000      39.00400000
 H      25.64000000      34.78400000      38.93200000
 H      24.30100000      34.56000000      39.59800000
 O      40.37200000      40.03100000      31.63500000
 H      40.57100000      40.88000000      32.13400000
 H      39.67100000      39.70700000      32.17100000
 O      37.54700000      35.59100000      39.85200000
 H      37.71000000      36.38200000      39.29400000
 H      38.04600000      34.91400000      39.41400000
 O      39.80400000      36.27700000      33.21500000
 H      39.13000000      35.81600000      32.67600000
 H      40.50000000      36.52500000      32.54200000
 O      25.26800000      40.17100000      31.92200000
 H      24.45000000      40.04400000      32.50800000
 H      25.20700000      39.33000000      31.44600000
 O      38.40500000      39.90900000      33.78800000
 H      37.45600000      40.14900000      33.53000000
 H      38.52400000      40.48200000      34.53500000
 O      40.26300000      39.62700000      27.52100000
 H      40.88000000      38.99700000      27.89000000
 H      40.16200000      40.26400000      28.22900000
 O      31.48300000      37.62900000      39.09700000
 H      32.24200000      37.45000000      39.73400000
 H      31.79900000      38.47700000      38.71400000
 O      21.11400000      35.88000000      36.38900000
 H      21.01700000      36.86700000      36.26400000
 H      22.13600000      35.88000000      36.50400000
 O      22.11800000      39.48300000      27.99400000
 H      22.73900000      38.97000000      27.40300000
 H      21.30000000      38.92200000      27.93800000
 O      24.35600000      37.78500000      30.45400000
 H      24.94400000      37.22500000      29.99200000
 H      23.62700000      37.13200000      30.73000000
 O      22.30900000      36.25100000      31.06100000
 H      21.49400000      36.13000000      30.54800000
 H      22.12800000      37.09300000      31.52300000
 O      40.21100000      39.91200000      36.75500000
 H      40.80100000      39.62600000      36.00500000
 H      40.16800000      38.98200000      37.16300000
 O      28.91700000      38.95000000      32.32400000
 H      28.35200000      38.58500000      31.59400000
 H      29.49700000      38.22400000      32.55800000
 O      40.53200000      34.74700000      29.44800000
 H      40.96700000      35.55600000      29.06900000
 H      40.20800000      34.38500000      28.55700000
 O      28.90500000      39.87300000      39.15700000
 H      29.78000000      39.54700000      39.49100000
 H      28.55900000      39.01000000      38.83800000
 O      32.53200000      34.23000000      28.64400000
 H      32.02000000      35.07600000      28.85900000
 H      32.42800000      33.69700000      29.43400000
 O      27.67100000      37.40400000      38.21700000
 H      28.45400000      36.95700000      38.46500000
 H      27.80100000      37.64400000      37.27900000
 O      31.63200000      35.00400000      37.27100000
 H      32.37500000      34.44900000      36.97700000
 H      31.93900000      35.89500000      37.01300000
 O      24.50900000      38.25500000      35.80100000
 H      24.25600000      38.85700000      35.04600000
 H      23.87800000      37.49500000      35.60000000
 O      25.60900000      37.54900000      39.74200000
 H      26.43400000      37.22600000      39.22600000
 H      25.04500000      36.71500000      39.68400000
 O      23.07500000      39.68800000      33.49200000
 H      22.56500000      40.25400000      34.12300000
 H      22.32100000      39.39000000      32.93800000
 O      23.69300000      35.82000000      36.67100000
 H      24.11400000      35.56400000      37.53300000
 H      23.93100000      35.04900000      36.10300000
 O      31.85100000      34.80000000      33.71300000
 H      31.94500000      33.86500000      33.40900000
 H      32.36900000      34.87600000      34.48300000
 O      32.43600000      39.90200000      37.72900000
 H      33.15400000      40.50900000      37.41700000
 H      31.69000000      40.46600000      37.35400000
 O      28.43300000      37.70500000      28.64400000
 H      27.54100000      37.29900000      28.92100000
 H      28.11600000      38.01200000      27.75600000
 O      24.62700000      34.91400000      33.05900000
 H      24.46500000      34.43800000      33.90500000
 H      25.56000000      35.13100000      33.14100000
 O      35.92200000      39.06500000      40.10700000
 H      35.77800000      39.89600000      40.60800000
 H      35.00100000      38.64000000      40.28000000
 O      36.18600000      45.61600000      27.49600000
 H      35.80600000      46.33800000      28.05600000
 H      37.02400000      45.44800000      28.05600000
 O      21.80700000      42.63700000      30.87400000
 H      21.77900000      43.61000000      31.08700000
 H      22.70100000      42.64000000      30.46900000
 O      35.54900000      46.36500000      31.22500000
 H      34.87200000      46.76100000      31.80900000
 H      35.60500000      47.01400000      30.51100000
 O      30.55100000      43.25100000      36.39300000
 H      29.93500000      42.70100000      35.86200000
 H      30.28300000      44.15000000      36.16000000
 O      37.98800000      45.28200000      31.25200000
 H      37.16800000      45.75900000      31.44700000
 H      37.68400000      44.37700000      31.05200000
 O      33.95200000      47.47700000      33.18600000
 H      34.38500000      48.22800000      33.64400000
 H      33.02000000      47.61400000      33.52000000
 O      37.22800000      42.52100000      30.73200000
 H      37.61400000      41.64700000      30.66300000
 H      36.37200000      42.40400000      30.33200000
 O      23.85700000      43.71300000      39.84900000
 H      23.82200000      42.87800000      40.35500000
 H      24.80500000      43.72000000      39.57100000
 O      28.99800000      43.97400000      39.06900000
 H      29.08500000      42.96400000      39.18600000
 H      29.23000000      43.94700000      38.10300000
 O      35.91000000      42.75200000      33.57500000
 H      36.40400000      42.94500000      32.69100000
 H      35.98500000      43.62400000      33.98400000
 O      21.99400000      45.26200000      31.62000000
 H      22.67200000      45.06200000      32.34400000
 H      21.38400000      45.81300000      32.14200000
 O      32.48400000      43.23800000      40.80100000
 H      32.10900000      43.13000000      41.72300000
 H      32.07100000      44.12300000      40.59600000
 O      40.63400000      43.10700000      29.57000000
 H      41.53000000      43.31900000      29.76900000
 H      40.41900000      42.52700000      30.34300000
 O      30.45500000      43.24100000      32.56900000
 H      30.06200000      42.35100000      32.43800000
 H      31.21400000      42.99500000      33.10900000
 O      25.84600000      43.02000000      34.62300000
 H      25.90600000      42.49800000      33.80400000
 H      26.69500000      43.14200000      34.95500000
 O      26.22600000      43.79300000      38.17700000
 H      25.85500000      42.85900000      38.04300000
 H      27.15200000      43.57900000      38.43600000
 O      28.97400000      47.95500000      38.74200000
 H      28.12700000      47.47100000      38.49200000
 H      28.69300000      48.16200000      39.62900000
 O      32.80300000      42.52400000      34.33100000
 H      33.49100000      42.85800000      34.93700000
 H      33.36500000      42.06000000      33.68800000
 O      36.79700000      44.41800000      39.96100000
 H      37.06200000      44.83400000      40.80300000
 H      36.13200000      43.79600000      40.34700000
 O      26.71300000      46.64600000      38.30800000
 H      26.19400000      46.94100000      37.56900000
 H      26.58100000      45.70700000      38.30700000
 O      23.80700000      44.59200000      36.05800000
 H      23.09000000      43.93400000      35.86800000
 H      24.59400000      44.00200000      36.00300000
 O      37.24400000      45.62100000      37.46500000
 H      36.88200000      45.29600000      38.28800000
 H      37.54500000      44.86100000      37.02700000
 O      27.81400000      44.63300000      28.07900000
 H      28.14900000      44.31300000      28.93400000
 H      27.45500000      45.49000000      28.27300000
 O      27.00300000      44.19300000      32.25900000
 H      26.47100000      43.39400000      32.21400000
 H      27.44900000      44.22200000      31.40700000
 O      24.30000000      45.23700000      33.14200000
 H      24.47100000      44.37600000      33.67700000
 H      25.08300000      45.72900000      33.47200000
 O      29.47600000      45.54800000      35.21300000
 H      30.14900000      45.79800000      34.57300000
 H      28.67200000      45.48700000      34.71300000
 O      23.97200000      45.69500000      29.85400000
 H      23.23900000      45.64100000      30.50400000
 H      24.05600000      44.71400000      29.67000000
 O      37.04400000      48.34500000      38.39200000
 H      36.88300000      47.59300000      37.76700000
 H      37.75700000      48.84700000      37.94200000
 O      20.84500000      47.23200000      39.30200000
 H      20.45300000      46.72700000      40.05400000
 H      21.67900000      46.74300000      39.12900000
 O      33.35600000      45.56500000      35.40300000
 H      32.97900000      45.67100000      34.54700000
 H      32.80100000      44.90000000      35.85900000
 O      34.63600000      42.58900000      29.80700000
 H      34.27300000      43.53200000      29.58600000
 H      34.46000000      42.12200000      28.98300000
 O      39.55000000      46.55300000      38.93400000
 H      39.99000000      46.45700000      38.00900000
 H      38.75000000      46.07500000      38.61000000
 O      33.55800000      47.91400000      36.78400000
 H      32.64100000      47.76200000      37.20700000
 H      33.79200000      47.00900000      36.54300000
 O      22.53200000      48.31700000      28.94600000
 H      22.72200000      47.37000000      29.07800000
 H      22.30800000      48.60700000      29.87100000
 O      37.28200000      47.59100000      35.05100000
 H      37.07700000      48.49500000      34.72500000
 H      38.19000000      47.73400000      35.40700000
 O      33.55100000      47.29600000      27.74800000
 H      32.65700000      47.39200000      27.29900000
 H      33.34400000      47.71000000      28.59100000
 O      34.63700000      42.99900000      36.60300000
 H      35.43700000      42.49700000      36.89900000
 H      35.05900000      43.76600000      36.14700000
 O      30.52500000      46.33000000      29.60400000
 H      29.99600000      45.52400000      29.78000000
 H      31.41900000      45.93000000      29.46800000
 O      26.62500000      46.53300000      29.41300000
 H      26.38300000      47.36100000      28.96800000
 H      25.75500000      46.14400000      29.57800000
 O      26.74600000      46.26000000      33.88500000
 H      26.88600000      47.00300000      33.27000000
 H      26.98400000      45.51200000      33.35300000
 O      30.65700000      47.37500000      26.91400000
 H      30.37900000      47.06000000      27.82000000
 H      29.76000000      47.27300000      26.45300000
 O      21.52200000      42.98500000      34.94600000
 H      21.02500000      43.79800000      34.75800000
 H      20.83500000      42.51200000      35.51900000
 O      27.30100000      48.07900000      31.52400000
 H      27.12600000      47.42700000      30.82100000
 H      26.75200000      48.82700000      31.24300000
 O      39.36900000      43.36100000      38.86000000
 H      38.38500000      43.58400000      38.83100000
 H      39.31600000      42.42000000      38.54200000
 O      31.34500000      45.81200000      33.40700000
 H      31.23200000      46.13000000      32.49400000
 H      31.18500000      44.83800000      33.28400000
 O      35.95600000      45.05400000      34.72800000
 H      36.00100000      46.03100000      34.79500000
 H      35.00500000      44.90100000      34.88300000
 O      24.30900000      42.73200000      29.27400000
 H      25.02800000      42.45300000      29.93800000
 H      23.79500000      41.92600000      29.29100000
 O      23.57600000      48.64400000      37.38800000
 H      23.88200000      47.91700000      36.82600000
 H      22.90800000      48.21500000      37.95300000
 O      25.16300000      47.04600000      35.87100000
 H      24.64400000      46.18800000      35.74900000
 H      25.80900000      46.87600000      35.15400000
 O      31.45300000      47.85400000      31.47600000
 H      32.24500000      48.30800000      31.10400000
 H      31.07800000      47.47300000      30.65800000
 O      31.02900000      46.99700000      37.37000000
 H      30.49300000      46.87000000      36.53700000
 H      30.30800000      47.37700000      37.88600000
 O      22.81400000      45.60500000      38.31000000
 H      23.34800000      45.35000000      37.51400000
 H      23.22900000      45.04200000      38.98900000
 O      38.14500000      43.16300000      36.19100000
 H      37.62100000      42.50100000      36.77900000
 H      39.06600000      42.70300000      36.31000000
 O      39.01400000      45.46800000      34.63500000
 H      38.50800000      44.65400000      34.92800000
 H      38.19100000      46.06400000      34.49100000
 O      30.89600000      45.48900000      40.47000000
 H      30.10200000      44.95200000      40.14100000
 H      31.16400000      45.85900000      39.63200000
 O      32.57500000      44.58600000      28.86900000
 H      31.82900000      44.19400000      28.34900000
 H      33.07400000      44.99200000      28.15600000
 O      38.76900000      46.13500000      28.80800000
 H      38.94900000      46.94000000      29.33200000
 H      38.59100000      45.48600000      29.55300000
 O      22.05800000      42.40500000      38.19000000
 H      22.88800000      42.21200000      37.74300000
 H      22.30800000      43.03500000      38.83900000
 O      40.67700000      44.76500000      32.42700000
 H      40.26500000      45.16000000      33.19900000
 H      39.98100000      44.99300000      31.75000000
 O      29.52500000      43.81300000      30.05300000
 H      30.04000000      42.98600000      29.79600000
 H      29.88400000      43.83300000      30.98700000
