453
XYZ file of cluster: frame_16000_9c5bf.4a26c.c4efd - created by MolEdiTo
 O      34.90600000      35.61700000      37.80600000
 H      35.10500000      34.98700000      37.11600000
 H      34.58100000      36.38300000      37.34000000
 O      39.93300000      23.07300000      35.51200000
 H      40.07300000      22.27300000      34.97500000
 H      40.14000000      22.72900000      36.41800000
 O      37.75100000      13.42500000      34.86900000
 H      38.41700000      14.03400000      34.64100000
 H      37.14200000      13.48800000      34.14600000
 O      35.02200000      34.51300000      40.28900000
 H      36.00200000      34.57400000      40.47400000
 H      34.98400000      35.10300000      39.52700000
 O      30.73200000      26.35500000      39.90100000
 H      30.67800000      25.40300000      39.99800000
 H      30.85400000      26.44000000      38.91100000
 O      37.65500000      36.97700000      37.01700000
 H      36.95200000      36.20700000      37.00400000
 H      38.32500000      36.51400000      36.44400000
 O      33.40300000      33.10000000      36.03300000
 H      33.90000000      32.58100000      36.63000000
 H      33.36300000      32.55100000      35.24500000
 O      35.48200000      31.18000000      34.40900000
 H      35.48200000      30.61800000      35.21900000
 H      34.76200000      30.71300000      33.94200000
 O      39.86200000      35.65000000      35.88600000
 H      39.83200000      36.07100000      34.98500000
 H      39.75000000      34.70600000      35.58400000
 O      33.59900000      25.51700000      36.74900000
 H      34.14100000      24.66200000      36.51300000
 H      33.90100000      25.49000000      37.72700000
 O      35.09000000      30.99100000      37.22400000
 H      35.34100000      31.02700000      38.15900000
 H      34.30300000      30.39800000      37.28900000
 O      36.48900000      34.44200000      35.64300000
 H      36.30200000      34.23700000      34.71000000
 H      36.78800000      33.55500000      35.94600000
 O      30.95800000      22.67600000      34.57100000
 H      31.59100000      22.24800000      35.14700000
 H      30.39300000      21.91200000      34.27200000
 O      29.77800000      33.15400000      36.09900000
 H      30.14200000      32.38600000      36.58700000
 H      30.42900000      33.83400000      36.38700000
 O      38.78700000      28.87400000      37.97400000
 H      39.42400000      28.13100000      37.68800000
 H      39.33700000      29.26600000      38.71100000
 O      33.48400000      27.33900000      34.79800000
 H      33.28200000      26.72800000      35.53000000
 H      33.83900000      26.67700000      34.15100000
 O      29.93300000      31.03400000      34.09500000
 H      29.86700000      31.74000000      34.77000000
 H      29.68600000      30.23300000      34.58900000
 O      35.92200000      39.06500000      40.10700000
 H      35.77800000      39.89600000      40.60800000
 H      35.00100000      38.64000000      40.28000000
 O      40.45400000      29.76300000      39.90600000
 H      41.03500000      30.23400000      39.32400000
 H      41.06200000      29.38200000      40.59000000
 O      37.58600000      23.73800000      40.76500000
 H      37.18000000      23.41200000      39.95400000
 H      37.08300000      23.22000000      41.46100000
 O      28.73400000      40.20200000      34.96900000
 H      28.22800000      39.30200000      35.02200000
 H      29.02700000      40.06700000      34.00300000
 O      28.87200000      17.52500000      38.21000000
 H      28.23600000      17.40700000      37.47200000
 H      28.17300000      17.67200000      38.94000000
 O      30.87500000      26.54100000      36.91100000
 H      31.79800000      26.24800000      36.95500000
 H      30.53400000      25.99700000      36.15100000
 O      31.10400000      13.70800000      35.15400000
 H      30.32500000      14.35900000      35.05600000
 H      31.72900000      14.25800000      34.67600000
 O      35.20900000      20.52600000      36.88000000
 H      35.12500000      20.06700000      37.73900000
 H      35.74600000      19.84000000      36.40100000
 O      36.85600000      29.86400000      39.94600000
 H      37.49400000      29.42800000      40.48200000
 H      37.13000000      29.56700000      39.08400000
 O      27.81900000      13.28900000      36.14800000
 H      28.38700000      13.88500000      35.73700000
 H      27.58700000      12.63400000      35.41400000
 O      31.44400000      18.50400000      37.42000000
 H      30.58400000      18.41800000      37.85000000
 H      31.60200000      17.59200000      37.16400000
 O      36.95400000      39.83500000      37.74300000
 H      36.31400000      39.53600000      38.41400000
 H      37.22800000      38.97300000      37.34100000
 O      28.57100000      28.21300000      37.73500000
 H      28.90500000      28.74400000      37.03300000
 H      29.42600000      27.69600000      37.93600000
 O      28.76000000      15.37300000      40.31600000
 H      27.95700000      14.93100000      39.98200000
 H      28.94000000      15.93700000      39.52600000
 O      40.44200000      37.31700000      37.96800000
 H      40.52300000      36.65200000      38.68700000
 H      40.12900000      36.82000000      37.21200000
 O      33.30200000      37.46500000      36.61200000
 H      33.83500000      37.91700000      35.87900000
 H      33.09400000      38.28500000      37.10800000
 O      34.80100000      23.26700000      35.96100000
 H      34.79300000      22.33900000      36.29900000
 H      35.59700000      23.17100000      35.33700000
 O      39.84000000      17.38900000      40.17300000
 H      39.76700000      16.71900000      40.92600000
 H      40.75300000      17.17200000      39.83000000
 O      29.73900000      35.66400000      38.93700000
 H      30.31500000      35.32600000      38.18100000
 H      30.33500000      36.42200000      39.20700000
 O      37.95700000      32.33200000      36.65000000
 H      37.18600000      31.81700000      36.95300000
 H      38.19600000      31.87400000      35.84800000
 O      37.54700000      35.59100000      39.85200000
 H      37.71000000      36.38200000      39.29400000
 H      38.04600000      34.91400000      39.41400000
 O      33.45600000      32.18600000      39.57200000
 H      33.71300000      31.59700000      40.36500000
 H      33.83400000      32.99700000      39.82500000
 O      28.82000000      24.35200000      38.35900000
 H      28.52500000      24.73600000      39.21300000
 H      29.77400000      24.04400000      38.61500000
 O      28.73200000      33.50800000      40.04300000
 H      28.88200000      34.41100000      39.72000000
 H      29.48100000      33.41500000      40.64800000
 O      29.96100000      30.77700000      40.45500000
 H      30.33200000      30.82900000      39.50900000
 H      30.24900000      31.73500000      40.69700000
 O      34.97000000      24.97400000      39.27300000
 H      34.89600000      25.70700000      39.92700000
 H      35.92800000      25.06800000      39.06700000
 O      29.14600000      15.43700000      34.59700000
 H      29.03600000      15.78400000      33.65600000
 H      28.81600000      16.30100000      35.01400000
 O      37.26100000      29.37300000      35.79900000
 H      37.42200000      28.56000000      35.31400000
 H      37.65000000      29.13300000      36.65900000
 O      31.48300000      37.62900000      39.09700000
 H      32.24200000      37.45000000      39.73400000
 H      31.79900000      38.47700000      38.71400000
 O      31.29400000      31.46000000      37.96600000
 H      31.95300000      30.79800000      37.75200000
 H      31.81100000      32.09700000      38.51100000
 O      32.65400000      15.94100000      39.46400000
 H      33.59300000      15.97100000      39.13300000
 H      32.51600000      14.96200000      39.33300000
 O      27.28600000      34.00700000      35.96800000
 H      26.92600000      33.66300000      36.83000000
 H      28.26000000      33.82500000      36.14900000
 O      32.78200000      29.21400000      36.84400000
 H      33.33800000      28.60500000      36.30700000
 H      32.67900000      28.64200000      37.61200000
 O      28.94600000      24.69200000      35.01400000
 H      28.23000000      24.47400000      35.67900000
 H      29.44900000      23.84400000      34.94000000
 O      40.21100000      39.91200000      36.75500000
 H      40.80100000      39.62600000      36.00500000
 H      40.16800000      38.98200000      37.16300000
 O      31.26500000      23.41500000      38.75500000
 H      31.57300000      22.56800000      39.09600000
 H      31.90800000      23.62900000      38.06600000
 O      39.04400000      33.57900000      38.88900000
 H      39.99600000      33.48900000      38.74200000
 H      38.65300000      32.91700000      38.28200000
 O      40.20400000      26.54300000      37.54000000
 H      41.11800000      26.83400000      37.39200000
 H      40.31200000      25.95500000      38.30900000
 O      28.90500000      39.87300000      39.15700000
 H      29.78000000      39.54700000      39.49100000
 H      28.55900000      39.01000000      38.83800000
 O      29.71300000      28.22400000      35.03400000
 H      30.42200000      27.89700000      35.56400000
 H      29.73900000      27.67200000      34.24200000
 O      31.63200000      35.00400000      37.27100000
 H      32.37500000      34.44900000      36.97700000
 H      31.93900000      35.89500000      37.01300000
 O      27.67100000      37.40400000      38.21700000
 H      28.45400000      36.95700000      38.46500000
 H      27.80100000      37.64400000      37.27900000
 O      33.14000000      28.01600000      39.33700000
 H      32.28600000      27.58200000      39.62100000
 H      33.65900000      27.94700000      40.12900000
 O      37.49300000      25.11200000      37.63600000
 H      37.37000000      24.71400000      36.78600000
 H      38.38300000      25.43300000      37.58600000
 O      39.44800000      15.46800000      36.97900000
 H      40.13900000      14.82300000      37.02400000
 H      39.58200000      15.77700000      36.00000000
 O      36.88600000      18.49200000      35.85400000
 H      37.28600000      18.16800000      36.68200000
 H      36.40800000      17.74300000      35.48000000
 O      32.29100000      20.82800000      36.23800000
 H      33.03800000      21.16300000      36.72400000
 H      31.98400000      20.03400000      36.78200000
 O      35.38800000      16.84400000      39.12400000
 H      36.19800000      17.14400000      38.74500000
 H      35.59700000      16.42200000      39.96100000
 O      32.76700000      21.51800000      39.69900000
 H      33.50300000      20.81500000      39.57300000
 H      32.17600000      20.86000000      40.19600000
 O      33.98700000      19.24300000      39.02100000
 H      34.55900000      18.71600000      39.55400000
 H      33.26600000      18.65200000      38.73400000
 O      36.83200000      14.17900000      37.21500000
 H      37.64300000      14.37100000      37.79000000
 H      37.30100000      14.26700000      36.33500000
 O      32.43600000      39.90200000      37.72900000
 H      33.15400000      40.50900000      37.41700000
 H      31.69000000      40.46600000      37.35400000
 O      35.43000000      16.06600000      35.64600000
 H      35.40400000      15.47500000      36.44600000
 H      35.23600000      15.35700000      34.97500000
 O      39.96200000      24.37100000      39.53100000
 H      39.06700000      24.41100000      39.95000000
 H      40.47000000      24.30800000      40.37700000
 O      38.06800000      17.55500000      38.08100000
 H      38.64100000      17.61900000      38.85300000
 H      38.44600000      16.82200000      37.55100000
 O      39.34100000      25.82800000      34.94300000
 H      39.62000000      24.90800000      35.12000000
 H      39.93200000      26.33600000      35.56100000
 O      27.84300000      25.85800000      40.68100000
 H      28.48100000      26.46600000      41.12200000
 H      27.09000000      26.45900000      40.58800000
 O      35.20000000      30.67600000      43.58900000
 H      35.98000000      30.53300000      44.19400000
 H      35.54200000      30.32200000      42.74100000
 O      34.11400000      27.95000000      46.45800000
 H      34.30000000      28.70400000      47.03200000
 H      33.15800000      28.09100000      46.30800000
 O      37.30900000      29.15400000      47.00600000
 H      37.61400000      29.43500000      46.07700000
 H      38.03600000      29.62400000      47.50800000
 O      36.55100000      32.47900000      47.56400000
 H      36.63800000      33.21400000      46.89500000
 H      37.34000000      32.63500000      48.12300000
 O      36.91800000      18.67000000      44.70800000
 H      37.11300000      18.66800000      45.65100000
 H      36.10700000      19.21100000      44.64500000
 O      33.53900000      13.74200000      45.63100000
 H      33.81900000      14.30200000      46.40100000
 H      34.33000000      13.75000000      45.13700000
 O      29.61700000      15.78000000      48.41300000
 H      30.28300000      16.53100000      48.29900000
 H      30.24100000      15.12500000      48.81000000
 O      34.59200000      27.56300000      43.29800000
 H      35.27100000      28.23200000      43.12300000
 H      34.58300000      27.53100000      44.26700000
 O      38.01700000      30.34800000      44.62400000
 H      38.37600000      31.25400000      44.61100000
 H      38.21200000      30.07700000      43.70600000
 O      38.03000000      26.21000000      47.29100000
 H      38.89900000      26.64600000      47.28200000
 H      37.43000000      26.92500000      46.93000000
 O      33.37900000      23.77200000      43.03300000
 H      32.74000000      23.16400000      42.53200000
 H      33.83100000      24.15300000      42.23300000
 O      29.86800000      22.64800000      45.17800000
 H      29.28900000      23.06800000      45.84900000
 H      30.54500000      23.34100000      45.14100000
 O      37.30900000      13.53400000      47.54700000
 H      37.56700000      14.40000000      47.92100000
 H      36.70400000      13.86800000      46.86600000
 O      40.14200000      15.63400000      46.78100000
 H      40.66900000      14.78800000      47.00500000
 H      39.54200000      15.61000000      47.55800000
 O      38.18500000      25.66300000      44.20200000
 H      38.38800000      25.09800000      44.91700000
 H      37.91500000      25.06700000      43.48500000
 O      30.93100000      33.07800000      43.57400000
 H      31.30400000      33.91200000      43.32800000
 H      31.07500000      32.97200000      44.52000000
 O      29.45500000      28.14900000      43.24800000
 H      29.77400000      29.01800000      42.93500000
 H      30.01300000      27.53300000      42.73000000
 O      28.32100000      32.19000000      47.74100000
 H      28.25700000      32.93300000      48.40300000
 H      29.23600000      32.44500000      47.39500000
 O      27.87500000      17.40200000      47.42100000
 H      28.53100000      16.69500000      47.77100000
 H      27.59300000      16.94200000      46.63700000
 O      40.48200000      27.52500000      46.76600000
 H      41.18900000      28.00600000      47.29600000
 H      40.43500000      28.16700000      46.04200000
 O      34.69700000      36.00800000      47.17000000
 H      34.25900000      36.08100000      48.05700000
 H      34.12000000      35.37000000      46.76400000
 O      27.86700000      33.78200000      45.25900000
 H      28.13300000      32.94100000      44.87200000
 H      28.06400000      33.63700000      46.23700000
 O      32.80300000      18.21800000      45.01000000
 H      32.56500000      17.64400000      45.77300000
 H      32.23600000      17.76500000      44.33000000
 O      31.21100000      17.16800000      42.81700000
 H      30.39800000      16.71500000      42.62900000
 H      31.80600000      16.91500000      42.05000000
 O      28.51500000      38.53200000      44.48100000
 H      27.92200000      39.32400000      44.57600000
 H      28.13100000      37.98500000      45.18300000
 O      30.01700000      40.70400000      46.72800000
 H      30.09100000      39.94000000      47.37500000
 H      29.25700000      41.17900000      47.17200000
 O      31.79200000      30.77500000      45.36100000
 H      31.63500000      31.28300000      44.58300000
 H      32.61400000      31.21500000      45.69200000
 O      38.92400000      30.48100000      48.64900000
 H      39.75900000      31.00400000      48.47700000
 H      39.26000000      29.89200000      49.37000000
 O      34.66100000      20.06400000      45.06900000
 H      34.53900000      20.16800000      46.05700000
 H      33.95000000      19.41300000      44.94900000
 O      34.28400000      40.51800000      45.60800000
 H      34.65400000      40.34200000      46.51200000
 H      33.48200000      41.01700000      45.83900000
 O      37.46400000      36.34100000      48.46000000
 H      36.60500000      36.09100000      48.08400000
 H      37.77000000      35.50500000      48.83000000
 O      37.99800000      19.21800000      47.36000000
 H      38.38200000      20.08800000      47.60800000
 H      38.75800000      18.65900000      47.78600000
 O      38.14600000      15.91400000      48.47600000
 H      37.30500000      16.40800000      48.42500000
 H      38.73400000      16.66100000      48.83300000
 O      30.72900000      20.31700000      46.08400000
 H      30.40300000      21.11900000      45.53500000
 H      31.40900000      20.01600000      45.44100000
 O      36.04900000      25.31100000      48.88700000
 H      36.56700000      25.94300000      48.34000000
 H      35.96800000      24.60800000      48.22200000
 O      39.67100000      32.99500000      44.78600000
 H      39.96600000      33.41100000      45.68500000
 H      39.39800000      33.78300000      44.30400000
 O      38.19300000      28.05300000      42.89900000
 H      39.04500000      27.79000000      42.46500000
 H      38.14200000      27.31200000      43.58900000
 O      27.78200000      30.92400000      44.07700000
 H      27.07800000      30.67400000      43.50700000
 H      28.53600000      30.76300000      43.48000000
 O      32.22600000      35.25100000      45.84600000
 H      32.65300000      35.07900000      45.00400000
 H      31.98800000      36.16800000      45.77700000
 O      32.27200000      22.98300000      47.90600000
 H      32.45000000      23.24400000      47.00500000
 H      32.66400000      22.12800000      47.99200000
 O      31.20500000      20.12500000      42.90700000
 H      30.84500000      19.20500000      43.02300000
 H      30.42800000      20.67200000      42.86200000
 O      36.80400000      15.89400000      43.33300000
 H      36.73400000      16.84100000      43.63700000
 H      37.81000000      15.78000000      43.46800000
 O      29.77000000      26.46400000      45.44900000
 H      29.56600000      27.10000000      44.69100000
 H      30.11900000      27.11700000      46.08900000
 O      33.47100000      37.68600000      42.58400000
 H      34.15100000      37.58100000      43.29400000
 H      32.71100000      38.01400000      43.18600000
 O      36.30400000      21.61300000      48.44900000
 H      37.20600000      21.52900000      48.01400000
 H      36.01600000      22.47400000      48.20300000
 O      39.49900000      22.92300000      45.31500000
 H      40.18500000      23.53300000      44.88800000
 H      39.65400000      22.06600000      44.82800000
 O      33.97500000      32.25400000      45.39200000
 H      34.62200000      33.04800000      45.30900000
 H      34.52300000      31.63100000      44.75500000
 O      35.77100000      17.56900000      47.98300000
 H      36.27700000      18.31800000      47.55200000
 H      35.37900000      17.98900000      48.73100000
 O      31.21700000      38.45200000      44.95500000
 H      31.34800000      39.12700000      45.62500000
 H      30.33100000      38.52800000      44.60900000
 O      30.72200000      33.35700000      47.33900000
 H      31.29000000      32.85400000      47.94100000
 H      31.32700000      33.99500000      46.95400000
 O      38.85500000      21.75600000      47.48800000
 H      39.11700000      22.23200000      46.69000000
 H      39.42100000      22.22100000      48.14800000
 O      27.17600000      16.34900000      44.45500000
 H      28.02300000      15.94700000      44.21900000
 H      26.64900000      15.95200000      43.71900000
 O      28.02700000      19.68200000      45.82700000
 H      28.87500000      20.14800000      46.08200000
 H      28.13000000      18.85500000      46.35300000
 O      37.51500000      37.88400000      44.01500000
 H      36.62700000      37.59800000      44.40400000
 H      37.13700000      38.27300000      43.20800000
 O      31.26200000      18.34400000      47.72000000
 H      31.61800000      18.48400000      48.54700000
 H      31.23600000      19.21400000      47.28400000
 O      35.61200000      22.33300000      43.72800000
 H      35.25700000      21.42600000      43.96200000
 H      34.82500000      22.88400000      43.66700000
 O      33.94600000      15.63200000      47.67700000
 H      33.74700000      15.44900000      48.63300000
 H      34.62000000      16.35500000      47.83300000
 O      30.10100000      38.59400000      48.74300000
 H      29.21300000      38.14300000      48.49600000
 H      30.71100000      37.85900000      48.69100000
 O      31.00100000      14.30800000      44.74100000
 H      31.44500000      15.11500000      44.40400000
 H      31.54700000      14.21800000      45.55900000
 O      38.26800000      35.31600000      44.13700000
 H      38.24000000      36.23900000      44.43400000
 H      38.19000000      35.39400000      43.16000000
 O      35.98600000      34.22700000      45.37800000
 H      36.88900000      34.42300000      45.06200000
 H      35.69700000      35.13600000      45.68100000
 O      34.83800000      39.93500000      48.09700000
 H      34.22200000      40.22700000      48.85200000
 H      35.57300000      39.69600000      48.64900000
 O      34.71400000      30.21700000      47.84500000
 H      34.58400000      30.98900000      47.20600000
 H      35.66900000      30.05800000      47.66500000
 O      28.49100000      14.09500000      46.53500000
 H      28.86700000      14.50300000      47.36000000
 H      29.26400000      13.97700000      45.98200000
 O      35.80600000      23.69600000      46.52300000
 H      35.32700000      24.28500000      45.97100000
 H      36.15500000      23.03800000      45.92100000
 O      31.26700000      28.33600000      46.57100000
 H      31.51000000      28.65100000      47.51200000
 H      31.07200000      29.20000000      46.13400000
 O      39.96900000      19.23500000      43.83500000
 H      39.18000000      19.03000000      44.34000000
 H      40.01400000      18.62000000      43.14000000
 O      31.80800000      24.36500000      45.49000000
 H      32.35600000      24.36200000      44.71000000
 H      31.42900000      25.20600000      45.52500000
 O      28.23800000      19.69800000      49.30800000
 H      27.43400000      19.71000000      49.93100000
 H      27.85000000      19.20900000      48.60900000
 O      33.80800000      20.61900000      47.75700000
 H      34.53800000      21.14500000      48.12300000
 H      33.54800000      20.09700000      48.58200000
 O      40.34400000      37.56900000      44.69200000
 H      39.44200000      37.92700000      44.62400000
 H      40.69100000      37.94200000      45.49500000
 O      36.17200000      13.95000000      45.08500000
 H      36.35300000      14.89500000      44.71300000
 H      36.34600000      13.49600000      44.21100000
 O      32.71000000      34.97400000      42.99200000
 H      33.60000000      34.70200000      42.62300000
 H      32.67600000      35.85100000      42.63800000
 O      27.98900000      24.74700000      46.40900000
 H      27.67000000      25.27200000      47.15500000
 H      28.58700000      25.32600000      45.96900000
 O      40.41900000      34.62500000      46.63000000
 H      41.33100000      34.85800000      46.29400000
 H      39.97300000      35.51800000      46.50100000
 O      39.33100000      15.68500000      43.97600000
 H      39.88200000      14.82500000      43.79800000
 H      39.72800000      15.82300000      44.89100000
 O      34.86600000      37.70700000      44.98600000
 H      34.59600000      37.45300000      45.90600000
 H      34.80100000      38.65800000      45.02100000
