288
XYZ file of cluster: frame_16000_509c9.4c85c.90 - created by MolEdiTo
 O      27.38900000      20.87100000       1.47600000
 H      26.82800000      21.71600000       1.53900000
 H      27.68800000      20.79800000       2.39200000
 O      22.99200000      21.03300000       1.31800000
 H      22.51300000      20.22100000       1.35000000
 H      23.29400000      21.22800000       2.22400000
 O      13.85300000      15.56600000       3.47600000
 H      13.87700000      15.07600000       2.65100000
 H      14.53000000      14.97000000       3.96900000
 O      25.24700000      16.73700000       6.09000000
 H      26.09200000      17.23100000       6.09800000
 H      25.59700000      15.95500000       5.59100000
 O      18.02400000      25.49400000       8.03700000
 H      18.08200000      24.81200000       8.77700000
 H      18.68700000      25.09300000       7.36600000
 O      23.71100000      13.77000000       3.26500000
 H      24.18100000      14.04100000       2.43300000
 H      24.45900000      13.94500000       3.87900000
 O      18.99200000      18.50400000       5.29700000
 H      19.08200000      17.53300000       5.08700000
 H      18.02500000      18.52900000       5.48000000
 O      22.23000000      15.92100000      11.26100000
 H      21.95200000      16.17200000      12.13400000
 H      23.16800000      15.71300000      11.41500000
 O      15.53900000      14.11300000       4.81800000
 H      15.75300000      13.17200000       4.79400000
 H      15.81800000      14.31600000       5.70200000
 O      19.11600000      24.85800000      13.28200000
 H      18.52500000      25.27700000      13.93900000
 H      18.66700000      24.01500000      13.16400000
 O      19.53800000      20.23500000       7.53800000
 H      19.42100000      19.82900000       6.64800000
 H      18.67100000      20.29500000       7.90900000
 O      24.72200000      15.46000000      11.76100000
 H      25.46300000      15.06200000      11.17900000
 H      25.29300000      15.62600000      12.52200000
 O      21.85500000      16.31000000      13.77100000
 H      22.54300000      16.74500000      14.32000000
 H      21.04600000      16.62700000      14.23900000
 O      21.09700000      17.72400000       0.90000000
 H      21.75100000      17.48100000       0.27400000
 H      20.25800000      17.45900000       0.48800000
 O      19.82900000      27.76200000       8.06800000
 H      19.90800000      27.34900000       8.96500000
 H      19.44700000      27.05600000       7.53500000
 O      22.78000000      24.91200000       6.96200000
 H      23.31400000      24.94400000       7.73500000
 H      22.18200000      24.16300000       7.20500000
 O      18.95800000      19.82500000       1.27800000
 H      18.98900000      18.93500000       0.99700000
 H      19.79000000      19.96000000       1.81500000
 O      27.87500000      17.40200000       5.69800000
 H      28.53100000      16.69500000       6.04800000
 H      27.59300000      16.94200000       4.91400000
 O      25.81600000      14.37700000       4.96300000
 H      26.79500000      14.22600000       4.78200000
 H      25.76300000      13.86400000       5.79200000
 O      16.33600000      22.59300000       4.43500000
 H      16.47900000      23.27400000       3.79900000
 H      16.35400000      21.76800000       3.88900000
 O      13.92300000      17.54600000      13.09400000
 H      13.79400000      18.30700000      12.54100000
 H      14.82200000      17.73600000      13.43100000
 O      21.30900000      22.21400000       6.67800000
 H      20.61800000      22.89400000       6.34500000
 H      20.73500000      21.59800000       7.11000000
 O      20.03500000      15.92700000       3.79400000
 H      19.06600000      15.85000000       3.51500000
 H      20.47100000      15.86400000       2.95300000
 O      21.29200000      23.23400000       2.79900000
 H      22.06800000      23.60800000       3.31500000
 H      21.20800000      22.38700000       3.27000000
 O      23.47100000      18.03300000       2.92200000
 H      24.02300000      17.59900000       2.23500000
 H      22.57900000      17.80700000       2.55400000
 O      23.64000000      21.62200000       8.05200000
 H      24.19300000      21.67700000       7.22800000
 H      22.75200000      21.67400000       7.61300000
 O      23.09200000      27.72300000       6.73900000
 H      22.84400000      26.75100000       6.88600000
 H      23.76900000      27.67900000       6.05300000
 O      19.62800000      20.55600000      12.06800000
 H      18.96800000      19.94400000      11.79100000
 H      20.26300000      19.99100000      12.56400000
 O      16.36200000      17.64400000       5.66500000
 H      15.66200000      18.25800000       6.06800000
 H      16.08200000      16.82100000       6.01600000
 O      17.67200000      22.51400000      12.78600000
 H      18.07900000      21.70200000      13.01700000
 H      16.69900000      22.24300000      12.61100000
 O      19.64900000      17.13700000       9.52800000
 H      20.31000000      17.59700000       9.00800000
 H      19.99300000      16.24400000       9.51100000
 O      22.62900000      18.48200000      11.11500000
 H      22.28400000      18.65300000      10.24500000
 H      22.47500000      17.50400000      11.21100000
 O      21.71100000      13.80400000       9.19600000
 H      21.77100000      14.31200000      10.02400000
 H      22.19700000      14.30400000       8.57800000
 O      15.46600000      26.64900000       7.60800000
 H      15.36600000      26.09900000       6.79300000
 H      16.41500000      26.53100000       7.73400000
 O      19.27000000      14.94600000      13.08500000
 H      19.04200000      15.36600000      13.88400000
 H      20.24300000      14.73300000      13.24100000
 O      17.05700000      21.53500000       8.68200000
 H      17.32400000      22.39600000       9.11000000
 H      16.26700000      21.86400000       8.11900000
 O      24.15500000      20.65700000      12.00300000
 H      24.19700000      20.45600000      13.01400000
 H      23.59600000      19.92600000      11.71500000
 O      20.21400000      26.49700000       5.31000000
 H      20.83400000      27.17400000       5.01300000
 H      19.36500000      26.94300000       5.05200000
 O      26.40500000      23.45100000       1.16400000
 H      25.66200000      23.94100000       0.73000000
 H      27.14700000      24.06000000       0.98900000
 O      14.73100000      28.02600000       9.73600000
 H      15.49100000      27.67100000      10.17200000
 H      14.81700000      27.54100000       8.83600000
 O      25.56000000      23.66400000       4.09400000
 H      26.42100000      24.14900000       4.10900000
 H      25.57100000      23.52500000       3.07700000
 O      24.04200000      27.20700000       2.96900000
 H      23.81000000      26.32500000       3.44500000
 H      24.41500000      27.64400000       3.81100000
 O      17.45800000      24.94400000       3.56100000
 H      17.50500000      25.10800000       2.60600000
 H      17.45100000      25.79500000       3.96400000
 O      22.99500000      21.70600000       4.30100000
 H      23.89100000      21.39400000       4.52600000
 H      22.53000000      21.54500000       5.17500000
 O      24.02800000      25.24800000       9.38800000
 H      24.07100000      24.43100000      10.00000000
 H      24.23100000      25.93300000      10.00300000
 O      14.82300000      26.84100000      13.26800000
 H      15.03900000      26.58300000      12.37200000
 H      14.35300000      27.64300000      13.21900000
 O      15.56400000      15.53000000       7.23300000
 H      14.74300000      15.19300000       7.69100000
 H      16.20600000      15.37900000       7.88100000
 O      20.97600000      19.80400000       3.42400000
 H      20.40000000      19.06500000       3.77800000
 H      21.68700000      19.69900000       4.10500000
 O      20.34800000      22.36600000      10.17500000
 H      21.29100000      22.28800000      10.22200000
 H      20.07800000      21.68300000      10.79500000
 O      18.11300000      23.81100000      10.24900000
 H      19.06800000      23.40400000      10.29600000
 H      17.86100000      23.59900000      11.19200000
 O      21.64200000      28.18600000       1.74200000
 H      22.48700000      27.79700000       2.05100000
 H      21.16100000      27.34500000       1.55700000
 O      21.68200000      18.76900000       8.51700000
 H      21.01300000      19.42100000       8.20200000
 H      22.21700000      18.65100000       7.66400000
 O      16.31000000      18.01100000      13.84400000
 H      16.62100000      18.79200000      14.37500000
 H      17.13600000      17.83900000      13.31700000
 O      14.77400000      26.71600000       1.12000000
 H      15.17700000      27.47000000       0.61100000
 H      15.42700000      26.03200000       0.90000000
 O      17.17000000      14.17700000      11.76600000
 H      18.06800000      14.34000000      12.06700000
 H      17.04800000      13.24800000      12.01000000
 O      15.03400000      22.47800000       7.07300000
 H      15.41100000      21.99000000       6.31400000
 H      14.97500000      23.38500000       6.75500000
 O      19.46200000      23.93600000       5.84800000
 H      18.92600000      23.61500000       5.08300000
 H      19.84300000      24.75400000       5.41700000
 O      23.17500000      18.55400000       5.90900000
 H      23.95100000      18.03000000       6.28100000
 H      23.28400000      18.40500000       4.98000000
 O      22.05700000      23.86300000      13.33000000
 H      21.09000000      24.04000000      13.32600000
 H      22.18000000      23.66600000      12.34600000
 O      25.66000000      20.01700000       8.87800000
 H      25.55400000      19.09900000       9.11500000
 H      24.77900000      20.27400000       8.63700000
 O      25.31600000      19.73900000       4.33400000
 H      26.24100000      19.58600000       3.99900000
 H      24.83800000      19.07700000       3.83100000
 O      20.32700000      13.18000000       6.97600000
 H      20.67100000      14.03200000       6.68900000
 H      20.67800000      13.03800000       7.83700000
 O      16.96400000      14.12500000       9.32600000
 H      17.05600000      14.16000000      10.31300000
 H      17.70000000      13.55200000       9.09800000
 O      20.38400000      25.64000000       1.33500000
 H      21.13200000      25.56000000       0.74000000
 H      20.42500000      24.79800000       1.82000000
 O      16.62800000      18.75800000       9.30300000
 H      16.88500000      19.70900000       9.23500000
 H      17.26200000      18.49100000       9.99400000
 O      27.17600000      16.34900000       2.73200000
 H      28.02300000      15.94700000       2.49600000
 H      26.64900000      15.95200000       1.99600000
 O      15.15800000      21.78400000      12.17200000
 H      14.76400000      21.08200000      11.68100000
 H      14.50500000      22.50400000      12.07700000
 O      21.36800000      13.99700000       1.25500000
 H      21.46000000      13.64700000       0.37300000
 H      22.29900000      13.92700000       1.61100000
 O      17.82200000      25.84600000       0.91700000
 H      17.77100000      26.87700000       0.76700000
 H      18.82400000      25.76700000       0.95900000
 O      14.40400000      26.83400000       3.81000000
 H      14.64800000      26.53700000       2.88300000
 H      13.73900000      27.51000000       3.57900000
 O      26.64000000      23.15700000       8.15900000
 H      25.76600000      23.20500000       8.62600000
 H      26.51600000      22.59700000       7.44200000
 O      23.35300000      15.49400000       7.55700000
 H      23.92700000      16.11300000       7.02100000
 H      22.75500000      15.18900000       6.84300000
 O      24.80000000      16.42800000       1.00900000
 H      24.86700000      16.56000000       0.00600000
 H      24.75400000      15.46400000       1.03500000
 O      18.12300000      17.83100000      11.50100000
 H      18.77100000      17.77500000      10.77400000
 H      18.23100000      16.88500000      11.80100000
 O      26.80000000      21.18800000      11.13900000
 H      26.51800000      20.92500000      10.21500000
 H      25.94300000      21.07800000      11.62300000
 O      14.20500000      14.99800000      12.94300000
 H      14.50000000      14.96700000      11.99600000
 H      14.03400000      15.91200000      13.03000000
 O      27.39000000      25.90900000       7.48600000
 H      27.82000000      26.17300000       8.36600000
 H      27.08000000      25.02700000       7.75800000
 O      25.61700000      21.91100000       6.08200000
 H      25.69600000      22.65400000       5.40900000
 H      25.53500000      21.09100000       5.46100000
 O      21.91900000      14.63100000       5.23900000
 H      22.46500000      14.27600000       4.50100000
 H      21.23400000      15.13400000       4.71600000
 O      23.44500000      22.70200000      10.48200000
 H      23.84700000      22.08200000      11.10900000
 H      23.68800000      22.22800000       9.59100000
 O      28.06500000      18.37900000      11.14300000
 H      28.06900000      19.21600000      11.63800000
 H      27.13500000      18.13800000      11.12100000
 O      14.56300000      18.79800000       7.39300000
 H      14.08900000      19.56000000       7.74800000
 H      15.26600000      18.72300000       8.06300000
 O      17.48200000      15.94000000       3.24700000
 H      17.01900000      15.15700000       2.98800000
 H      16.72500000      16.37600000       3.71900000
 O      15.19300000      20.70000000       2.29100000
 H      14.72100000      21.39900000       2.72900000
 H      14.71400000      19.91100000       2.49000000
 O      14.74600000      24.73300000       5.55800000
 H      14.51300000      25.38200000       4.87600000
 H      15.60300000      24.40000000       5.22900000
 O      19.23400000      27.19400000      11.07000000
 H      19.35100000      27.04400000      12.08000000
 H      19.92600000      26.50500000      10.77100000
 O      14.35600000      19.54400000      10.68400000
 H      15.12700000      19.00000000      10.36200000
 H      14.12600000      20.02000000       9.83800000
 O      28.23800000      19.69800000       7.58500000
 H      27.43400000      19.71000000       8.20800000
 H      27.85000000      19.20900000       6.88600000
 O      21.55700000      26.20700000       9.83700000
 H      22.16000000      25.74700000       9.26500000
 H      22.01800000      27.05200000      10.00000000
 O      25.49600000      17.81600000      10.33800000
 H      25.89900000      16.94600000      10.00000000
 H      24.70200000      17.50700000      10.72800000
 O      27.01800000      28.64000000       7.32200000
 H      26.97400000      27.66400000       7.29400000
 H      27.18500000      28.91200000       6.41100000
 O      23.19100000      25.09500000       4.35100000
 H      22.63800000      24.99300000       5.14600000
 H      23.79800000      24.28600000       4.44500000
 O      27.98900000      24.74700000       4.68600000
 H      27.67000000      25.27200000       5.43200000
 H      28.58700000      25.32600000       4.24600000
 O      26.89800000      14.95000000       9.79700000
 H      27.88700000      15.20000000       9.82600000
 H      26.93500000      14.38000000       9.01300000
 O      24.51800000      27.16100000      11.55300000
 H      25.39500000      27.22400000      12.03600000
 H      23.92300000      27.16200000      12.31000000
 O      16.49400000      26.08700000      11.11700000
 H      17.44400000      26.33900000      10.84300000
 H      16.38800000      25.24400000      10.58900000
