291
XYZ file of cluster: frame_16000_0.4de25.48fac - created by MolEdiTo
 O       4.75300000      15.30200000      26.38900000
 H       5.45900000      14.70100000      26.75700000
 H       4.03200000      14.62400000      26.30100000
 O      12.93500000      17.48500000      16.36500000
 H      12.96000000      16.80000000      17.07100000
 H      13.61000000      18.09300000      16.73300000
 O      10.18400000      17.57200000      21.72000000
 H       9.99800000      18.40500000      22.24900000
 H      10.94900000      17.89100000      21.12600000
 O       3.42500000      18.57000000      18.34500000
 H       4.02400000      18.65400000      17.54200000
 H       3.91800000      19.11400000      18.97800000
 O       6.03700000      26.14300000      19.51900000
 H       6.51300000      25.75100000      18.76100000
 H       5.17300000      26.33200000      19.09200000
 O       2.91600000      16.05600000      19.39600000
 H       3.23400000      16.92700000      19.20200000
 H       1.93500000      16.26100000      19.52100000
 O       1.87000000      19.53600000      25.12300000
 H       1.93500000      18.71300000      25.71600000
 H       2.17400000      19.11200000      24.32700000
 O       4.53500000      28.39500000      16.84300000
 H       4.53300000      27.50900000      16.40100000
 H       4.22200000      28.05000000      17.73400000
 O       6.36100000      26.03100000      23.60100000
 H       7.02300000      25.38300000      24.03500000
 H       7.05800000      26.61400000      23.29600000
 O      13.15600000      27.92500000      19.46000000
 H      13.89800000      28.51300000      19.67400000
 H      13.58700000      27.14500000      19.15100000
 O       7.30700000      26.12900000      27.67200000
 H       7.62700000      26.73400000      26.97600000
 H       7.91700000      25.34400000      27.50300000
 O       2.39000000      16.31000000      23.10600000
 H       2.58800000      17.21100000      22.82000000
 H       2.56800000      16.35800000      24.02800000
 O       3.22200000      27.23200000      19.04900000
 H       3.04200000      26.33800000      19.42600000
 H       2.28300000      27.59900000      18.97800000
 O       8.51200000      14.36700000      24.03700000
 H       9.18400000      14.73400000      23.43800000
 H       8.23300000      15.23600000      24.41500000
 O       2.39600000      14.07800000      17.86500000
 H       2.79100000      14.87000000      18.37800000
 H       1.88800000      14.70000000      17.19100000
 O       9.43700000      17.00900000      19.01200000
 H       9.61100000      17.88300000      18.57300000
 H       9.86000000      17.20100000      19.88400000
 O      10.00900000      25.66700000      21.01200000
 H       9.87800000      25.25900000      20.10000000
 H       9.32100000      26.33800000      20.99000000
 O      10.74000000      22.38500000      18.45400000
 H      11.30500000      21.53400000      18.53800000
 H      11.48400000      23.05600000      18.63600000
 O       6.90300000      20.69300000      14.73400000
 H       7.58400000      21.29500000      14.97700000
 H       7.19900000      20.16500000      13.96200000
 O       1.16000000      19.90100000      18.33900000
 H       1.95700000      19.27600000      18.40300000
 H       0.79100000      19.74200000      19.25000000
 O      13.62200000      24.59800000      15.92800000
 H      13.79800000      23.71600000      15.59700000
 H      13.09400000      24.96500000      15.14800000
 O       6.80600000      22.53100000      26.07400000
 H       7.44200000      21.96400000      26.56500000
 H       6.06600000      22.54100000      26.70300000
 O       7.29200000      20.51600000      18.50700000
 H       8.11400000      20.05000000      18.19100000
 H       7.71900000      21.39500000      18.69800000
 O      12.64400000      18.00700000      26.16600000
 H      13.63200000      17.83600000      26.18800000
 H      12.66200000      18.78600000      25.57000000
 O       9.73000000      20.10300000      22.95100000
 H       9.46600000      21.01600000      22.77500000
 H       9.42000000      19.95100000      23.84300000
 O       9.03100000      25.34900000      18.18500000
 H       8.46600000      25.75600000      17.52000000
 H       9.87700000      25.21700000      17.68300000
 O      11.68100000      25.00500000      17.68600000
 H      12.27700000      24.78400000      18.44100000
 H      12.23100000      24.75300000      16.93000000
 O       8.19500000      24.56400000      24.64700000
 H       7.90800000      23.71500000      25.03100000
 H       9.11700000      24.67600000      24.95400000
 O      10.73900000      16.26900000      26.04200000
 H      10.93100000      16.17600000      25.07100000
 H      11.45900000      16.94100000      26.27600000
 O      10.53000000      18.29500000      15.49800000
 H      11.40100000      17.83500000      15.71700000
 H      10.70900000      18.67600000      14.63300000
 O       7.98800000      15.99000000      21.63500000
 H       8.13700000      15.67900000      20.68800000
 H       8.81300000      16.47700000      21.81700000
 O       3.98300000      14.73900000      21.42800000
 H       3.77000000      15.15200000      20.57700000
 H       3.44000000      15.27500000      22.00600000
 O       4.68900000      23.93500000      17.67000000
 H       3.93900000      23.29300000      17.48300000
 H       5.06200000      23.50700000      18.52200000
 O       2.95300000      24.29600000      14.14200000
 H       2.92600000      23.48500000      14.71300000
 H       2.00400000      24.48400000      14.07700000
 O       5.88200000      17.68200000      22.03200000
 H       6.57600000      17.00400000      22.01900000
 H       5.92000000      17.94300000      22.97100000
 O       6.70800000      13.62500000      22.20200000
 H       5.96700000      14.16800000      21.80100000
 H       7.31900000      14.36000000      22.45500000
 O      11.51800000      24.20300000      24.76200000
 H      11.56500000      23.82600000      23.89000000
 H      11.38200000      23.41900000      25.32500000
 O      12.44700000      14.14000000      20.72200000
 H      11.81000000      13.69900000      21.30000000
 H      13.07500000      13.44300000      20.49600000
 O      14.66600000      19.53400000      23.00100000
 H      15.04400000      20.40600000      23.12800000
 H      13.77200000      19.65000000      23.34800000
 O       2.80500000      17.10700000      25.78000000
 H       3.72800000      16.71600000      25.87800000
 H       2.39800000      16.48500000      26.42600000
 O       8.90100000      16.00800000      15.34000000
 H       9.08500000      16.92400000      15.48100000
 H       8.26400000      16.06300000      14.60800000
 O      12.24800000      19.96600000      24.18700000
 H      11.43200000      19.66500000      23.71300000
 H      11.83800000      20.63300000      24.81100000
 O       6.86000000      13.86100000      27.44600000
 H       7.48600000      14.53800000      27.62500000
 H       7.39000000      13.27000000      26.94000000
 O       4.87100000      25.87800000      15.94700000
 H       4.16000000      25.72200000      15.25600000
 H       4.77600000      25.09400000      16.53300000
 O      10.72900000      23.26100000      22.14900000
 H       9.83100000      22.99700000      21.90600000
 H      10.66600000      24.20300000      21.88600000
 O       6.06900000      24.05100000      21.76000000
 H       6.03600000      24.70000000      22.43700000
 H       6.55800000      24.43200000      21.01400000
 O      11.04700000      19.82400000      28.22000000
 H      11.02100000      19.05500000      27.58800000
 H      11.78800000      19.49300000      28.84900000
 O       5.48700000      19.56900000      16.76600000
 H       6.07600000      20.16600000      17.29900000
 H       6.03600000      19.61400000      15.89500000
 O       9.24300000      15.61300000      28.21500000
 H       9.87800000      15.82200000      27.49900000
 H       8.87800000      16.51700000      28.38300000
 O       0.79000000      15.73200000      16.58900000
 H       0.58700000      15.37000000      15.72900000
 H       1.10800000      16.60600000      16.30700000
 O      13.21700000      22.42200000      21.71700000
 H      12.29000000      22.47000000      21.89100000
 H      13.60100000      22.26100000      22.58100000
 O      13.99800000      28.05300000      26.78200000
 H      13.21500000      28.55700000      26.70200000
 H      13.81900000      27.26500000      26.21000000
 O      12.27900000      20.33700000      18.36800000
 H      12.33200000      19.55400000      19.00000000
 H      13.25200000      20.68400000      18.49000000
 O      13.24800000      24.76300000      19.85700000
 H      14.10100000      25.14900000      20.14300000
 H      13.16200000      24.02500000      20.49900000
 O       8.00100000      20.68300000      27.61200000
 H       8.92800000      20.71400000      27.76400000
 H       7.67700000      20.97500000      28.48900000
 O       2.97400000      18.82800000      22.76700000
 H       3.07200000      19.42100000      22.01100000
 H       3.94600000      18.54400000      22.85700000
 O       5.31500000      19.79800000      20.06800000
 H       6.12400000      19.99600000      19.51700000
 H       5.72000000      19.13000000      20.71300000
 O       8.19000000      23.08700000      19.42500000
 H       9.12700000      22.80300000      19.18100000
 H       8.09200000      23.92000000      18.93000000
 O       4.03800000      22.31400000      21.04300000
 H       4.54800000      21.47100000      21.00900000
 H       4.71200000      22.91300000      21.49600000
 O      10.52700000      27.88500000      17.98900000
 H      11.36500000      27.36000000      18.10800000
 H       9.90300000      27.40900000      18.51000000
 O       4.02300000      20.94600000      14.88900000
 H       5.05300000      20.83900000      14.77800000
 H       4.01500000      20.66400000      15.86700000
 O       3.86100000      27.50900000      22.22200000
 H       4.66700000      27.79100000      21.72500000
 H       4.18500000      26.69600000      22.55300000
 O       0.77500000      28.19600000      21.56200000
 H       0.43500000      27.39000000      21.12000000
 H       1.63100000      27.88300000      21.89600000
 O       1.53300000      21.82700000      22.62000000
 H       2.30000000      22.23000000      22.09200000
 H       1.94900000      21.94100000      23.49100000
 O       7.50500000      26.69500000      16.23100000
 H       7.68300000      27.43800000      15.61000000
 H       6.58800000      26.48700000      15.97600000
 O       9.71400000      14.70400000      17.60600000
 H       9.50100000      15.33100000      18.34600000
 H       9.42700000      15.23700000      16.87500000
 O      11.73200000      25.18900000      13.85400000
 H      11.61100000      26.14900000      13.67100000
 H      10.88900000      24.86500000      14.06600000
 O       1.48200000      21.25500000      13.29500000
 H       2.15400000      21.39100000      12.47200000
 H       2.09600000      20.89000000      13.94400000
 O      12.30600000      15.36400000      18.36400000
 H      12.35900000      14.71600000      19.09700000
 H      11.47900000      15.00000000      17.93400000
 O       9.86400000      19.44900000      17.94800000
 H      10.01400000      19.03300000      17.02500000
 H      10.80100000      19.72100000      18.08100000
 O      12.16400000      17.78600000      19.77000000
 H      12.07100000      17.06600000      19.10700000
 H      13.11900000      17.68900000      19.92700000
 O       7.44300000      16.67700000      25.50600000
 H       6.45800000      16.79600000      25.37000000
 H       7.47100000      16.89700000      26.47200000
 O       5.38400000      18.85400000      24.44100000
 H       4.75100000      18.87500000      25.20000000
 H       5.42000000      19.86500000      24.31100000
 O       4.10400000      25.65800000      24.81500000
 H       4.98700000      25.97200000      24.47600000
 H       4.11700000      25.95500000      25.72100000
 O       9.53600000      22.18100000      16.04200000
 H       9.99800000      22.22900000      16.83500000
 H       9.98100000      21.42300000      15.54800000
 O       4.49600000      26.30700000      27.67100000
 H       4.18900000      27.25500000      27.48500000
 H       5.39200000      26.51400000      28.00500000
 O      12.67200000      14.25200000      26.33800000
 H      11.98500000      14.91200000      26.26200000
 H      13.33700000      14.74300000      26.83400000
 O       2.67100000      21.97400000      17.48300000
 H       1.98900000      22.20800000      16.84900000
 H       2.14800000      21.31200000      18.02900000
 O       2.77700000      17.65000000      14.68700000
 H       3.66200000      18.08000000      14.36600000
 H       2.93300000      16.80200000      14.21700000
 O       9.70200000      24.95700000      27.14300000
 H       9.86300000      25.70700000      27.81800000
 H      10.41500000      25.22400000      26.50800000
 O       9.86300000      13.48200000      13.98900000
 H       9.72100000      13.52300000      14.93200000
 H      10.49900000      14.27200000      13.93900000
 O      13.58000000      22.86200000      27.32800000
 H      14.34400000      23.36600000      26.89400000
 H      14.16200000      22.55200000      28.10800000
 O      12.23100000      15.06400000      14.93000000
 H      13.09600000      14.97300000      14.39000000
 H      12.37300000      15.93000000      15.26800000
 O       2.27600000      24.69700000      19.91200000
 H       1.64600000      24.93300000      20.62700000
 H       2.40400000      23.74500000      20.18000000
 O       8.87300000      19.08600000      25.39300000
 H       8.35400000      19.53100000      26.10200000
 H       8.33400000      18.25600000      25.28900000
 O      12.48100000      26.59400000      21.86800000
 H      11.58900000      26.21700000      21.75000000
 H      12.69300000      26.96000000      20.97000000
 O       0.88200000      26.53600000      17.89000000
 H       1.33400000      25.83200000      18.42600000
 H       0.00000000      26.49500000      18.23300000
 O       2.54500000      23.30700000      27.22900000
 H       2.29400000      23.65100000      28.13100000
 H       3.50100000      23.21000000      27.42300000
 O      11.31000000      15.21300000      23.43700000
 H      11.92100000      14.44000000      23.49200000
 H      11.52300000      15.56600000      22.57700000
 O       9.22000000      24.68200000      14.71300000
 H       8.33900000      25.00900000      14.95600000
 H       9.20600000      23.84200000      15.24200000
 O      12.36700000      21.51900000      13.43900000
 H      13.08900000      21.58500000      13.99800000
 H      12.22700000      22.39100000      13.03300000
 O       6.18000000      28.38600000      20.85100000
 H       6.92300000      28.69500000      20.23100000
 H       6.05000000      27.46100000      20.41300000
 O       3.03100000      23.09400000      24.60300000
 H       2.78600000      23.06700000      25.59000000
 H       3.37800000      24.04700000      24.67500000
 O       8.20700000      22.39600000      22.08500000
 H       7.58100000      22.96000000      22.60100000
 H       7.78700000      22.39800000      21.20000000
 O       5.39400000      21.62600000      24.12100000
 H       4.81700000      22.40200000      24.28500000
 H       6.13200000      21.83400000      24.84500000
 O      13.43200000      26.10000000      24.53100000
 H      13.22800000      26.25400000      23.57800000
 H      12.75200000      25.40500000      24.65600000
 O      11.45000000      21.66200000      26.10100000
 H      12.26600000      21.96400000      26.51600000
 H      11.05700000      21.14200000      26.80700000
