120
XYZ file of cluster: frame_5500_9a550.26e93.c55a0 - created by MolEdiTo
 O      27.77800000      15.39600000      30.04700000
 H      27.77200000      16.11700000      30.66200000
 H      27.70500000      15.72900000      29.18700000
 O      21.75000000       8.64100000      26.67000000
 H      20.90000000       9.12100000      26.65300000
 H      22.11100000       8.65300000      27.54300000
 O      27.84800000      11.52900000      28.94100000
 H      27.66100000      11.06300000      29.80500000
 H      27.01600000      11.94100000      28.74600000
 O      30.55200000      11.18100000      28.02200000
 H      30.10400000      12.03000000      27.80700000
 H      29.86900000      10.76400000      28.53700000
 O      26.41000000      13.25500000      28.85900000
 H      26.08700000      14.18700000      28.93700000
 H      26.39200000      13.05000000      27.89500000
 O      24.56300000      15.58700000      29.08600000
 H      23.79500000      16.14000000      29.17900000
 H      25.24700000      16.10300000      28.59800000
 O      24.01800000       8.50500000      29.10800000
 H      23.81100000       8.80200000      30.02000000
 H      23.82400000       7.50600000      29.11500000
 O      29.73800000       6.90100000      26.45900000
 H      30.64400000       6.53900000      26.72500000
 H      29.80000000       6.60300000      25.55200000
 O      26.43500000      16.34400000      26.68600000
 H      26.41100000      15.76800000      25.85300000
 H      27.09500000      17.00300000      26.40600000
 O      24.01700000      12.80700000      30.45800000
 H      23.55000000      12.65400000      29.65000000
 H      24.80800000      13.30500000      30.08400000
 O      28.82500000      13.65800000      26.13800000
 H      29.05000000      13.60200000      27.14400000
 H      27.89000000      13.42900000      26.15600000
 O      29.75500000      13.43900000      28.62600000
 H      30.48900000      14.01800000      28.93400000
 H      29.00800000      13.80200000      29.14100000
 O      24.01800000       5.67600000      28.68800000
 H      23.32500000       5.14100000      29.22000000
 H      24.21800000       5.13800000      27.86900000
 O      22.44300000      13.98900000      28.07300000
 H      22.51600000      14.26200000      27.10700000
 H      23.24300000      14.41400000      28.51500000
 O      22.21000000      11.30500000      30.00100000
 H      21.22600000      11.26100000      30.25700000
 H      22.47000000      12.01600000      30.59400000
 O      23.79800000      11.55900000      27.49200000
 H      22.99500000      11.66800000      26.86300000
 H      23.33400000      11.28200000      28.35900000
 O      21.35800000      10.95000000      26.38900000
 H      20.66900000      10.46700000      25.86900000
 H      20.84600000      11.24200000      27.15500000
 O      27.25000000       6.00600000      26.73200000
 H      28.14800000       6.37300000      26.66100000
 H      27.19500000       5.46400000      27.55700000
 O      21.42600000       8.76100000      33.47500000
 H      20.91900000       8.99600000      34.25600000
 H      20.99300000       9.39500000      32.78500000
 O      26.44000000       7.25300000      32.39700000
 H      26.45800000       8.14500000      32.87100000
 H      25.71900000       7.25600000      31.73400000
 O      20.46000000      12.85900000      34.21100000
 H      19.96500000      12.03900000      34.49600000
 H      21.38900000      12.65800000      34.11500000
 O      29.35700000      10.97700000      35.79000000
 H      29.27000000      10.51500000      36.65500000
 H      29.52600000      10.30700000      35.06700000
 O      27.44900000      13.23100000      33.94500000
 H      26.50200000      12.93500000      34.02700000
 H      27.65500000      13.33300000      32.95200000
 O      24.21700000       5.89900000      35.56800000
 H      24.44500000       6.48400000      34.79900000
 H      24.61500000       5.04100000      35.35500000
 O      21.40100000       5.56000000      32.49800000
 H      21.72100000       6.41200000      32.90000000
 H      20.41200000       5.54000000      32.78400000
 O      27.02200000      10.42200000      33.09500000
 H      26.47900000      10.53100000      33.83900000
 H      27.94500000      10.10300000      33.36900000
 O      30.31500000       6.61000000      32.54100000
 H      30.43300000       5.81000000      31.98300000
 H      30.64700000       7.43700000      31.98900000
 O      27.17600000      12.64800000      36.54200000
 H      27.59700000      12.62600000      35.61400000
 H      26.46100000      13.28900000      36.41500000
 O      30.61100000      15.86900000      34.71700000
 H      31.56400000      16.19200000      34.81500000
 H      30.68800000      14.94200000      35.12800000
 O      22.95100000      14.09300000      36.83400000
 H      22.22600000      14.69200000      36.96200000
 H      22.82800000      13.47900000      37.65700000
 O      23.03400000       9.97600000      35.72500000
 H      23.05600000       9.51100000      34.90700000
 H      23.92300000      10.42400000      35.83600000
 O      29.95100000      10.98100000      32.58200000
 H      29.08400000      11.20100000      32.90600000
 H      29.77200000      10.75800000      31.61200000
 O      25.88600000      11.02400000      35.57900000
 H      25.44900000      11.91200000      35.23600000
 H      26.60000000      11.49200000      36.16700000
 O      28.85600000       5.91400000      36.56500000
 H      29.49800000       6.70400000      36.52100000
 H      28.64000000       5.73700000      37.48800000
 O      25.09400000      15.41000000      33.59500000
 H      25.89800000      14.79300000      33.76500000
 H      25.31200000      15.66600000      32.66600000
 O      25.42100000      14.90000000      36.46900000
 H      24.45200000      15.01600000      36.35400000
 H      25.79800000      15.80000000      36.50900000
 O      27.98200000       5.05100000      33.90700000
 H      28.16400000       5.99400000      33.66700000
 H      28.10000000       5.12600000      34.85800000
 O      24.88100000      12.50800000      34.53800000
 H      24.36200000      12.89900000      35.24200000
 H      24.33000000      12.58500000      33.71000000
 O      29.36500000       9.18800000      33.74200000
 H      30.18100000       9.46000000      33.22600000
 H      29.23000000       8.24300000      33.50400000
 O      29.96600000      13.00600000      35.64000000
 H      29.84000000      12.03500000      35.83500000
 H      29.66100000      13.04100000      34.73300000
