129
XYZ file of cluster: frame_5500_6eaa2.c1ba8.4d53f - created by MolEdiTo
 O      22.00700000      30.49200000      18.51000000
 H      22.66300000      30.94400000      17.92900000
 H      21.37600000      30.01100000      17.92700000
 O      15.11900000      26.66500000      20.42100000
 H      16.00700000      26.81300000      20.80700000
 H      14.62800000      27.46500000      20.70400000
 O      21.66900000      26.15800000      16.62500000
 H      22.19300000      26.93300000      16.61700000
 H      20.88700000      26.45700000      16.12100000
 O      15.84800000      26.65800000      15.04800000
 H      15.85800000      27.18700000      14.22000000
 H      15.67100000      27.41300000      15.71100000
 O      23.97100000      29.79400000      12.03900000
 H      24.35200000      30.66600000      11.98400000
 H      23.11900000      29.93700000      11.65000000
 O      24.34500000      27.19000000      11.22100000
 H      24.33100000      28.12500000      11.61000000
 H      25.31100000      27.12500000      11.12700000
 O      23.83000000      26.63900000      14.02500000
 H      23.53500000      26.05500000      13.33900000
 H      24.77500000      26.82700000      13.79400000
 O      25.44800000      27.52400000      18.57400000
 H      25.68500000      27.27000000      17.73200000
 H      25.64900000      28.47500000      18.60500000
 O      19.03500000      29.08200000      13.67800000
 H      19.81900000      28.63400000      13.27100000
 H      19.12700000      28.77700000      14.51800000
 O      19.99300000      29.32600000      19.56600000
 H      20.55600000      28.61200000      19.10800000
 H      20.52900000      30.14300000      19.59300000
 O      25.78000000      25.76600000      19.63300000
 H      25.29300000      25.09800000      19.04100000
 H      25.94300000      26.58400000      19.03600000
 O      19.60600000      26.35600000      21.21500000
 H      19.01400000      27.14100000      21.49500000
 H      20.01900000      26.80200000      20.48500000
 O      25.93500000      26.52400000      16.12500000
 H      26.40000000      27.15800000      15.61400000
 H      25.12900000      26.19100000      15.79900000
 O      20.42300000      29.57800000      16.34400000
 H      19.91800000      28.75100000      16.54600000
 H      19.76900000      30.29600000      16.06900000
 O      21.48900000      27.06400000      18.47300000
 H      21.33900000      26.26800000      17.91900000
 H      22.14900000      26.84100000      19.12200000
 O      21.72700000      27.38000000      10.26600000
 H      22.58800000      27.21200000      10.79000000
 H      21.51400000      26.47000000      10.01200000
 O      17.13900000      30.47700000      12.24500000
 H      16.43700000      29.83900000      12.01200000
 H      17.83100000      29.87600000      12.61600000
 O      18.39200000      27.39900000      16.91700000
 H      17.97200000      26.58300000      17.30600000
 H      17.55600000      27.95700000      16.91300000
 O      22.93100000      27.95400000      21.18900000
 H      23.47200000      27.36000000      21.80300000
 H      23.57600000      28.29800000      20.60000000
 O      24.16800000      30.46200000      19.54000000
 H      23.42400000      30.30500000      18.93800000
 H      24.83900000      31.07900000      18.96600000
 O      16.35600000      29.29900000      16.43600000
 H      15.82500000      30.17600000      16.34200000
 H      16.89900000      29.27600000      15.54500000
 O      17.18400000      28.51600000      18.91800000
 H      18.13100000      28.88400000      19.01400000
 H      17.27700000      27.55800000      18.88400000
 O      25.56200000      30.69500000      17.83100000
 H      24.87300000      31.24800000      17.52900000
 H      26.29600000      30.64700000      17.16100000
 O      21.14000000      27.05500000      13.65400000
 H      21.11100000      26.14300000      13.30900000
 H      22.07600000      27.06200000      13.97400000
 O      16.46200000      35.80200000      20.60800000
 H      17.17300000      36.52600000      20.81400000
 H      17.00000000      35.06400000      21.01700000
 O      21.76800000      36.95400000      19.06200000
 H      22.31400000      36.29600000      18.60900000
 H      21.61100000      37.76100000      18.53900000
 O      18.49200000      33.13600000      15.99700000
 H      18.56200000      33.67700000      16.83000000
 H      18.43200000      33.78500000      15.27700000
 O      25.53800000      37.41300000      14.89900000
 H      26.58500000      37.23600000      15.04100000
 H      25.07500000      36.87100000      15.56500000
 O      20.20200000      33.53600000      12.84800000
 H      19.37800000      33.11900000      13.11100000
 H      20.17400000      33.40800000      11.84600000
 O      17.02700000      35.34500000      10.94900000
 H      16.23500000      35.86000000      10.60600000
 H      16.84500000      34.51800000      10.47000000
 O      19.01100000      36.31700000      16.96100000
 H      18.84500000      35.82200000      17.80600000
 H      18.03400000      36.35800000      16.65500000
 O      18.05300000      35.89700000      13.47400000
 H      17.58500000      35.86900000      12.60200000
 H      18.95600000      35.54100000      13.30400000
 O      23.54700000      35.47900000      20.30300000
 H      23.89000000      35.40700000      21.26400000
 H      24.16500000      36.10900000      19.91100000
 O      15.02900000      33.34800000      13.32400000
 H      14.31600000      33.17200000      12.72100000
 H      15.79300000      33.32200000      12.65900000
 O      23.13700000      33.18300000      14.87100000
 H      22.44100000      32.53300000      14.75200000
 H      22.93000000      33.97000000      14.27600000
 O      16.59300000      35.61500000      15.97600000
 H      16.08300000      35.26300000      15.20100000
 H      16.50500000      34.88000000      16.62200000
 O      21.06600000      33.48200000      20.55300000
 H      21.66300000      33.75000000      19.77500000
 H      21.71500000      33.53500000      21.30700000
 O      18.87900000      34.31200000      17.90200000
 H      19.67500000      33.85700000      18.29300000
 H      18.22400000      33.60900000      18.08400000
 O      22.09400000      36.37000000      15.50300000
 H      21.19000000      36.57000000      15.78200000
 H      21.98400000      36.58900000      14.56500000
 O      25.61000000      33.04400000      13.94800000
 H      24.74400000      33.09300000      14.41200000
 H      25.56300000      32.10500000      13.62500000
 O      26.02400000      35.50900000      12.15700000
 H      25.86300000      34.66200000      11.66300000
 H      25.41000000      35.31900000      12.84700000
 O      21.44900000      35.92000000      12.68000000
 H      21.61900000      35.97700000      11.72100000
 H      21.08000000      34.99000000      12.70800000
 O      23.65200000      34.63400000      17.47500000
 H      23.20100000      34.66300000      16.56000000
 H      24.09400000      35.51200000      17.49800000
