52
XYZ file of cluster: frame_11000_5b66b.25f47.24758 - created by MolEdiTo
 O      14.91500000       4.82900000       8.02000000
 H      14.37100000       5.55700000       8.37200000
 H      15.51400000       4.57000000       8.75200000
 O      17.68200000      10.84000000       8.12600000
 H      17.36200000      11.53400000       8.74300000
 H      18.50400000      10.74600000       8.61400000
 O      14.75100000       6.85700000       6.01500000
 H      15.27800000       5.99200000       6.00200000
 H      14.88200000       7.14100000       6.96700000
 O      16.80700000       8.51800000       6.89600000
 H      16.09700000       8.45500000       6.26700000
 H      16.87900000       9.39200000       7.26600000
 O      13.38500000       8.41100000       3.92600000
 H      13.06400000       7.78500000       3.21700000
 H      13.35000000       7.82400000       4.71000000
 C       8.95500000      11.03500000      11.27000000
 C      10.45900000      11.23400000      11.79600000
 C      10.96800000       9.68200000       9.85000000
 H      11.37400000      11.78500000       9.91700000
 H       7.83500000      11.53300000       9.89400000
 O      12.75900000      10.92600000      11.10600000
 O       8.00000000      11.31600000      12.27300000
 O       8.68400000      11.86300000      10.19400000
 C      11.41600000      10.97600000      10.62500000
 O      10.63400000      12.49800000      12.36700000
 H      10.69700000      10.40900000      12.52800000
 O      12.03100000       9.21700000       9.02300000
 O      10.70400000       8.60900000      10.73500000
 H      10.54700000       7.86200000      10.07500000
 H      10.64000000      13.16800000      11.55600000
 H      12.92300000      11.89200000      11.31800000
 O      15.64500000       5.67400000      10.92400000
 H      16.16900000       6.33000000      10.33000000
 H      15.16900000       6.37700000      11.37600000
 O      16.50000000       4.27500000       4.96100000
 H      17.48600000       4.55700000       5.00900000
 H      16.27300000       4.69400000       4.14000000
 O      12.97600000       6.83900000       8.68300000
 H      12.18200000       6.55700000       9.23700000
 H      12.79000000       7.82700000       8.56700000
 O      10.97500000       9.50100000       5.99400000
 H      11.79100000       9.59700000       6.49500000
 H      11.25800000       8.99700000       5.24400000
 O      17.21000000       7.19700000       9.34400000
 H      18.04900000       7.36300000       9.75500000
 H      17.27600000       7.66800000       8.55400000
 O      11.92700000       6.82300000       6.03000000
 H      11.40200000       6.27300000       6.63800000
 H      12.84600000       6.69900000       6.31600000
 O      12.25700000       3.34400000       4.02600000
 H      13.02700000       3.67800000       3.43600000
 H      12.52600000       3.54400000       4.90200000
