117
XYZ file of cluster: frame_14500_1ffb.263.71f8a - created by MolEdiTo
 O       6.73600000       5.13100000      16.41900000
 H       6.70400000       5.68500000      17.24900000
 H       6.88600000       5.74600000      15.72800000
 O       6.88600000      10.00400000      21.83000000
 H       7.43600000       9.24400000      22.05300000
 H       6.16600000       9.67600000      21.21800000
 O       2.33300000       5.65500000      23.23800000
 H       2.19700000       4.92400000      22.58700000
 H       3.13800000       5.47500000      23.71500000
 O       5.66300000      10.81200000      15.64500000
 H       5.04100000      10.08700000      15.81200000
 H       5.66300000      10.94200000      14.69100000
 O      10.07200000       1.71700000      24.57100000
 H       9.52300000       2.41900000      25.04300000
 H      10.66800000       2.29900000      24.03500000
 O       9.02100000       7.70400000      25.32700000
 H       8.54500000       8.41400000      25.76000000
 H       8.29700000       7.00400000      25.15000000
 O       4.98900000       7.27800000      23.40800000
 H       5.01200000       7.39100000      24.36300000
 H       4.09300000       7.65200000      23.21000000
 O      10.37100000       7.72500000      22.57300000
 H       9.74700000       7.68800000      23.30400000
 H      11.01400000       6.98700000      22.79600000
 O       3.49900000       9.90900000      25.23000000
 H       4.19000000       9.77000000      24.51700000
 H       3.92500000       9.54900000      25.97300000
 O      11.40300000       2.98000000      18.70200000
 H      10.43300000       3.37300000      18.64000000
 H      11.74600000       3.28400000      17.79500000
 O       8.23100000       6.15000000      20.69400000
 H       7.28100000       6.49200000      20.75200000
 H       8.77400000       6.81300000      20.30800000
 O       3.07700000       8.96300000      21.99000000
 H       2.49700000       8.65900000      21.22400000
 H       3.38600000       9.85800000      21.70200000
 O       5.23500000       4.64600000      18.86200000
 H       5.30100000       4.17400000      19.63600000
 H       4.76100000       5.44800000      19.09900000
 O       1.27500000       3.71400000      21.80000000
 H       0.29400000       3.61400000      21.68800000
 H       1.62000000       2.85100000      21.89600000
 O       1.12600000       4.55500000      18.70400000
 H       1.16200000       4.49800000      17.71000000
 H       0.74800000       3.75700000      19.06300000
 O       3.46500000       0.69200000      24.02100000
 H       3.03900000       0.75800000      23.10000000
 H       4.38400000       0.97300000      23.90900000
 O       3.40400000       1.78600000      18.41800000
 H       3.15400000       2.73500000      18.51000000
 H       4.28100000       1.99600000      18.03800000
 O       0.81600000       7.81800000      25.17100000
 H       1.54500000       8.44800000      25.35000000
 H       1.02800000       7.55200000      24.22600000
 O       5.82100000       7.26400000      20.88300000
 H       5.09800000       7.37900000      20.25300000
 H       5.35500000       7.35100000      21.72500000
 O       8.63600000       4.22100000      18.48300000
 H       7.98900000       4.51200000      17.76700000
 H       8.75900000       4.83600000      19.27800000
 O       1.07900000      10.82600000      16.30000000
 H       1.65400000      10.17000000      15.93500000
 H       0.25800000      10.66400000      15.82300000
 O       3.85200000       7.42100000      16.65600000
 H       3.14500000       7.97600000      16.21200000
 H       4.64200000       7.67600000      16.18400000
 O       3.19700000       4.61000000      16.19800000
 H       2.95700000       5.54600000      15.98900000
 H       3.96500000       4.69700000      16.82900000
 O       6.22600000       1.65800000      17.90000000
 H       6.21400000       1.04200000      18.69100000
 H       6.55700000       2.51600000      18.17600000
 O       9.07200000       4.59900000      22.82900000
 H       9.37500000       3.81400000      22.29400000
 H       9.32200000       5.31700000      22.18300000
 O       7.79200000       5.14600000      25.36500000
 H       8.09500000       5.08600000      24.41200000
 H       6.96400000       4.62900000      25.24600000
 O       4.75900000       9.20900000      19.03900000
 H       4.55700000       8.41400000      18.42600000
 H       4.02600000       9.85700000      18.98300000
 O       3.11200000       1.63200000      21.21500000
 H       4.03400000       1.95100000      20.86400000
 H       2.61600000       1.49900000      20.36300000
 O       1.50900000       8.48800000      19.55800000
 H       1.28800000       8.46300000      18.63200000
 H       0.66900000       8.14100000      19.93500000
 O       5.49200000       4.60500000      22.11700000
 H       5.87500000       5.48500000      22.35600000
 H       5.45100000       4.25700000      23.02300000
 O       9.64800000       2.23500000      16.10800000
 H       8.68300000       2.38700000      16.04800000
 H       9.83600000       2.75400000      15.27000000
 O       6.07500000       1.04100000      25.67900000
 H       6.74100000       1.08000000      26.44700000
 H       5.75800000       0.03700000      25.71600000
 O       3.29500000       6.42800000      19.56600000
 H       2.63200000       5.68100000      19.55900000
 H       2.76700000       7.25200000      19.62500000
 O       6.04000000       2.11600000      20.93800000
 H       6.69900000       1.39100000      21.13800000
 H       6.35700000       2.95100000      21.37500000
 O      10.49000000      10.39600000      23.50700000
 H      10.45700000      11.20500000      23.04000000
 H      10.55100000       9.65000000      22.83000000
 O      10.01600000       8.61900000      17.01600000
 H      10.51800000       9.24000000      17.61300000
 H       9.09700000       9.05600000      16.87600000
 O       0.89200000       0.75700000      25.77100000
 H       0.44600000       0.01900000      25.30200000
 H       1.70100000       0.74600000      25.21400000
 O      10.25200000       2.67800000      21.38200000
 H      10.68100000       2.40400000      20.57200000
 H       9.89700000       1.83400000      21.76100000
 O       5.68400000       3.65800000      24.78700000
 H       4.78100000       3.64900000      25.14400000
 H       6.01300000       2.69900000      25.01300000
