135
XYZ file of cluster: frame_14500_46790.3d62.74b3b - created by MolEdiTo
 O      10.77000000       7.24200000      19.49600000
 H      11.41300000       7.91100000      19.75900000
 H      10.52100000       7.39900000      18.55700000
 O      19.94600000       4.03800000      16.24000000
 H      19.62500000       4.77900000      16.77400000
 H      20.94500000       4.17700000      16.14800000
 O      12.02900000       5.14900000      22.60800000
 H      12.36600000       4.64400000      21.87900000
 H      12.81100000       5.51300000      22.93400000
 O      10.07200000       1.71700000      24.57100000
 H       9.52300000       2.41900000      25.04300000
 H      10.66800000       2.29900000      24.03500000
 O      10.37100000       7.72500000      22.57300000
 H       9.74700000       7.68800000      23.30400000
 H      11.01400000       6.98700000      22.79600000
 O      18.07700000       9.03400000      20.78500000
 H      18.45000000       9.86800000      21.05200000
 H      18.02100000       8.54600000      21.70700000
 O      11.40300000       2.98000000      18.70200000
 H      10.43300000       3.37300000      18.64000000
 H      11.74600000       3.28400000      17.79500000
 O      13.41000000       7.61400000      23.57600000
 H      13.47500000       8.58500000      23.65300000
 H      12.76600000       7.29700000      24.20400000
 O      20.43300000       9.88500000      15.59300000
 H      20.65700000       8.93400000      15.47400000
 H      20.67700000      10.01700000      16.52800000
 O      18.31400000       5.68500000      17.81200000
 H      18.87000000       5.78800000      18.64700000
 H      17.47500000       5.69200000      18.22800000
 O      17.82300000       8.45500000      23.39900000
 H      18.69200000       8.41800000      23.80400000
 H      17.29100000       8.88500000      24.16900000
 O      15.62700000       5.80000000      18.46700000
 H      14.81800000       5.95200000      18.02100000
 H      15.43100000       6.03300000      19.35400000
 O      16.66900000       7.04100000      25.35100000
 H      16.22600000       6.15100000      25.23200000
 H      17.19300000       6.96900000      24.54400000
 O      14.88600000       8.89600000      16.53600000
 H      14.14800000       8.34500000      16.11500000
 H      15.50300000       8.91900000      15.78200000
 O      20.59300000       6.64100000      22.67500000
 H      21.05800000       7.41100000      22.69300000
 H      20.86300000       6.22200000      23.52700000
 O      19.13500000       3.80200000      21.16700000
 H      20.09900000       3.60300000      21.08100000
 H      18.93100000       4.52000000      20.48100000
 O      13.15000000       8.70900000      18.62300000
 H      13.61100000       8.59700000      19.47200000
 H      13.96100000       8.99200000      18.11600000
 O      17.56800000       2.53100000      17.46200000
 H      17.72700000       1.67700000      16.95000000
 H      18.30100000       3.11800000      17.17300000
 O      12.03000000       4.09200000      25.17400000
 H      11.31200000       4.00100000      25.81200000
 H      11.62200000       4.55000000      24.34800000
 O      13.37400000       3.95300000      15.69000000
 H      14.31100000       4.07300000      15.38700000
 H      13.33600000       4.56000000      16.45500000
 O      14.59100000       2.24200000      18.11300000
 H      15.10200000       1.73700000      18.74600000
 H      15.19100000       2.97600000      17.75100000
 O      18.31600000       7.58300000      15.36600000
 H      17.98200000       6.72000000      15.07600000
 H      18.49800000       7.48100000      16.40500000
 O      12.81400000       5.46200000      17.97600000
 H      12.16700000       5.65100000      17.30700000
 H      12.64700000       6.23400000      18.55500000
 O      19.87000000       6.31300000      25.93700000
 H      19.40100000       5.53000000      26.29800000
 H      20.27200000       6.80400000      26.64400000
 O      20.52100000       9.96300000      22.92600000
 H      20.89500000       9.33500000      23.58700000
 H      21.29600000      10.66400000      22.97700000
 O      17.17100000       1.93600000      25.75100000
 H      18.07100000       1.55900000      25.45000000
 H      16.61100000       1.20400000      25.99200000
 O      14.99500000       2.65900000      22.70900000
 H      15.84800000       2.39800000      22.36400000
 H      14.69700000       3.43400000      22.10800000
 O      15.90800000       5.46500000      15.77200000
 H      16.40600000       5.76400000      15.04300000
 H      16.28700000       5.87600000      16.59000000
 O      17.60500000       8.64000000      18.05400000
 H      16.73700000       8.48200000      17.67400000
 H      17.35300000       8.97100000      18.94900000
 O      15.11000000       7.40900000      20.98600000
 H      14.52200000       7.65800000      21.71600000
 H      15.93700000       7.89300000      21.11600000
 O      14.54500000       9.15000000      26.18700000
 H      13.89500000       8.48000000      26.43800000
 H      15.31700000       8.72700000      26.02600000
 O      17.26400000       1.76800000      20.38200000
 H      17.94500000       2.45400000      20.69800000
 H      17.34700000       1.95000000      19.40200000
 O      19.89700000       1.10400000      24.61000000
 H      20.46000000       0.90800000      25.42100000
 H      20.46200000       1.47700000      23.92500000
 O      10.49000000      10.39600000      23.50700000
 H      10.45700000      11.20500000      23.04000000
 H      10.55100000       9.65000000      22.83000000
 O      18.66300000       6.31700000      20.45300000
 H      19.15200000       6.34100000      21.35300000
 H      18.42500000       7.25500000      20.28600000
 O      20.51100000       0.96100000      20.26200000
 H      21.38900000       1.15800000      19.87100000
 H      19.96600000       0.48900000      19.64000000
 O      15.68300000       4.46500000      25.39600000
 H      14.98400000       3.92300000      24.94900000
 H      16.50800000       3.86000000      25.44400000
 O      11.55400000       8.58300000      25.64000000
 H      11.60100000       8.18100000      26.58000000
 H      10.74500000       8.14000000      25.26700000
 O      10.01600000       8.61900000      17.01600000
 H      10.51800000       9.24000000      17.61300000
 H       9.09700000       9.05600000      16.87600000
 O      13.01200000       0.83000000      23.34600000
 H      13.65400000       1.58600000      23.17200000
 H      12.40600000       0.85800000      22.56700000
 O      17.27100000      10.12100000      25.91000000
 H      16.66400000      10.10000000      26.64300000
 H      18.16100000       9.76800000      26.18700000
 O      10.25200000       2.67800000      21.38200000
 H      10.68100000       2.40400000      20.57200000
 H       9.89700000       1.83400000      21.76100000
 O      20.61400000       9.16000000      18.43200000
 H      20.88200000       8.26700000      18.75100000
 H      19.65200000       8.87500000      18.11200000
 O      13.32200000       3.84200000      20.42800000
 H      13.53600000       4.19800000      19.49000000
 H      12.56400000       3.32600000      20.14100000
 O      12.47100000       1.18000000      16.33200000
 H      11.96300000       1.86700000      15.99200000
 H      12.90800000       1.70700000      17.10000000
