126
XYZ file of cluster: frame_14500_4bfd1.1d497.c404c - created by MolEdiTo
 O      19.87000000       6.31300000      25.93700000
 H      19.40100000       5.53000000      26.29800000
 H      20.27200000       6.80400000      26.64400000
 O      11.27200000      11.36500000      27.36900000
 H      11.81500000      11.46700000      28.17600000
 H      12.00400000      11.33000000      26.70400000
 O      11.07300000       7.52300000      28.60300000
 H      11.01500000       6.56800000      28.65100000
 H      10.43400000       7.76300000      29.37300000
 O      11.35500000      15.35000000      27.47700000
 H      10.70100000      15.40600000      26.69100000
 H      11.71200000      14.41400000      27.45700000
 O      11.55400000       8.58300000      25.64000000
 H      11.60100000       8.18100000      26.58000000
 H      10.74500000       8.14000000      25.26700000
 O      17.03800000       6.17500000      28.46500000
 H      16.61800000       5.29100000      28.52400000
 H      16.64000000       6.50000000      27.58600000
 O      15.21700000      13.10500000      29.01400000
 H      15.28900000      12.11500000      28.96000000
 H      14.25300000      13.31300000      28.88700000
 O      12.56300000      12.61600000      29.49800000
 H      11.76900000      13.09100000      29.72700000
 H      12.70300000      12.16200000      30.33000000
 O      13.06000000       9.19500000      30.23000000
 H      12.20100000       9.22700000      29.73600000
 H      13.68600000       9.37000000      29.47100000
 O      17.27100000      10.12100000      25.91000000
 H      16.66400000      10.10000000      26.64300000
 H      18.16100000       9.76800000      26.18700000
 O      13.93900000       7.23900000      28.49800000
 H      14.46900000       6.50600000      28.92800000
 H      13.00000000       7.22100000      28.84900000
 O      15.99400000      10.46200000      28.64400000
 H      15.82700000       9.46700000      28.67900000
 H      16.90000000      10.64400000      29.03600000
 O      19.87000000       6.84800000      29.00100000
 H      18.85200000       6.76500000      28.89900000
 H      20.14400000       5.87000000      28.89000000
 O      14.54500000       9.15000000      26.18700000
 H      13.89500000       8.48000000      26.43800000
 H      15.31700000       8.72700000      26.02600000
 O      20.00800000       9.34400000      26.86300000
 H      20.91700000       9.66100000      27.05000000
 H      19.71900000       8.97300000      27.71800000
 O      20.72800000      14.34100000      28.84900000
 H      21.21100000      15.26600000      28.79300000
 H      19.88000000      14.41500000      28.33500000
 O      16.91300000      15.33600000      29.24200000
 H      16.39900000      14.46100000      29.32600000
 H      16.45500000      16.09800000      29.60800000
 O      10.42700000       4.47700000      27.75800000
 H      10.65300000       3.73300000      28.37900000
 H       9.80900000       5.18800000      28.13600000
 O      18.67700000      10.62000000      37.54700000
 H      18.93500000      10.45700000      36.63800000
 H      19.47400000      10.33900000      38.01300000
 O      18.23400000       7.64600000      33.44300000
 H      18.98200000       7.95800000      32.86900000
 H      17.61100000       8.38200000      33.43300000
 O      12.98700000       5.49200000      32.31600000
 H      12.93700000       4.84700000      33.01800000
 H      13.36800000       6.19300000      32.81200000
 O      12.66100000      10.62700000      37.20100000
 H      11.86500000      11.15800000      37.15200000
 H      13.30000000      11.20300000      36.68600000
 O      17.49400000      16.17400000      33.92100000
 H      16.58900000      16.40800000      33.62700000
 H      17.60100000      15.33900000      33.37800000
 O      14.60800000      14.93600000      33.75600000
 H      14.13700000      15.63200000      33.36500000
 H      13.90700000      14.30300000      34.00000000
 O      12.66500000       7.77100000      36.58600000
 H      13.13400000       7.78500000      35.70700000
 H      13.04500000       8.64200000      37.03000000
 O      10.71800000       9.26900000      34.12100000
 H      11.61200000       8.80100000      34.33600000
 H      10.41500000       9.03800000      33.19900000
 O      14.49100000      12.47500000      35.51900000
 H      14.99100000      13.27200000      35.51900000
 H      15.19100000      11.75200000      35.59200000
 O      15.41000000       6.85800000      35.57200000
 H      14.97200000       6.58400000      36.33700000
 H      16.27700000       6.33700000      35.60900000
 O      12.33100000      11.96200000      33.85000000
 H      13.01300000      12.07100000      34.59500000
 H      11.52400000      11.75300000      34.32600000
 O      15.65700000      15.16700000      36.77100000
 H      14.63900000      15.16300000      36.71900000
 H      15.85900000      15.86000000      36.04700000
 O      12.63700000       4.89400000      36.31300000
 H      12.70500000       5.84100000      36.51000000
 H      13.51200000       4.53000000      36.35700000
 O      20.99600000      10.28000000      35.69800000
 H      21.56000000       9.92900000      36.41600000
 H      21.11800000      11.23600000      35.70800000
 O      17.34600000      10.51200000      32.67200000
 H      16.80200000      11.30600000      32.34900000
 H      18.31300000      10.88900000      32.73400000
 O      18.36400000      13.60800000      36.40200000
 H      17.57400000      13.66000000      36.96700000
 H      19.10700000      13.85600000      36.91600000
 O      13.45300000       8.04200000      34.00800000
 H      14.38400000       7.63600000      34.16800000
 H      13.55700000       8.54300000      33.19300000
 O      20.08200000      11.30600000      32.79900000
 H      20.08400000      12.25100000      32.47200000
 H      20.54100000      11.34700000      33.67000000
 O      17.70500000       4.64200000      32.46800000
 H      17.35900000       5.55500000      32.51700000
 H      16.96500000       4.07800000      32.17900000
 O      18.65000000       5.31200000      35.26600000
 H      18.82700000       5.95300000      34.60600000
 H      18.36100000       4.51400000      34.67100000
 O      18.38000000      13.68200000      33.58500000
 H      17.56400000      13.12000000      33.41300000
 H      18.59300000      13.45600000      34.56500000
 O      11.67500000      14.42900000      34.56000000
 H      11.01300000      14.04400000      35.12900000
 H      11.84700000      13.66500000      33.94000000
 O      12.97400000      15.90100000      36.85800000
 H      12.72900000      15.81800000      35.89000000
 H      12.18800000      15.48600000      37.33600000
 O      15.78600000       9.92400000      35.74900000
 H      15.66800000       9.89000000      36.69200000
 H      16.21700000       9.11200000      35.39700000
