126
XYZ file of cluster: frame_14500_1d721.486bb.2301 - created by MolEdiTo
 O      12.66100000      10.62700000       5.73100000
 H      11.86500000      11.15800000       5.68200000
 H      13.30000000      11.20300000       5.21600000
 O       9.69100000      11.66700000       6.28800000
 H       8.76100000      11.30300000       6.28700000
 H      10.15100000      10.97900000       6.85800000
 O      14.60800000      14.93600000       2.28600000
 H      14.13700000      15.63200000       1.89500000
 H      13.90700000      14.30300000       2.53000000
 O       8.20100000      11.93400000       9.63600000
 H       7.85400000      12.20500000       8.74000000
 H       8.77000000      11.10900000       9.47300000
 O       9.93500000      12.29700000       3.40200000
 H       9.64500000      11.50400000       3.87000000
 H       9.09100000      12.65200000       3.07700000
 O      15.52400000      19.18200000       1.91600000
 H      15.29400000      19.92200000       1.35300000
 H      15.62700000      18.50000000       1.23600000
 O       7.12700000      10.16000000       3.78900000
 H       7.38000000      10.41700000       2.94500000
 H       7.42400000       9.23100000       3.69900000
 O       9.70200000      16.85600000       4.82200000
 H      10.28600000      17.54300000       5.11400000
 H       9.93600000      16.11500000       5.41200000
 O       7.40200000      18.05900000       9.08900000
 H       6.99500000      17.15500000       9.25400000
 H       8.32600000      18.05200000       9.44300000
 O       7.77700000      14.89500000       1.26600000
 H       8.63200000      15.43900000       1.45500000
 H       7.74900000      14.73300000       0.28200000
 O       9.91100000      16.41800000       1.78600000
 H      10.81900000      16.43500000       1.63800000
 H       9.82900000      16.43100000       2.73100000
 O       8.78300000      14.80900000       8.47400000
 H       8.84400000      14.13400000       9.20500000
 H       7.85500000      15.12200000       8.24700000
 O       9.97300000      17.47000000       9.82000000
 H       9.74600000      16.64000000       9.27100000
 H       9.46100000      17.17100000      10.59100000
 O      13.02700000      21.10200000       8.60200000
 H      12.39600000      21.62800000       8.03700000
 H      12.70600000      20.22700000       8.42700000
 O       5.73800000      16.01300000       9.82300000
 H       4.97800000      16.25100000       9.18800000
 H       5.40200000      16.35700000      10.73000000
 O      14.49100000      12.47500000       4.04900000
 H      14.99100000      13.27200000       4.04900000
 H      15.19100000      11.75200000       4.12200000
 O      16.22800000      20.41600000      10.72100000
 H      16.67100000      19.80200000      10.09300000
 H      15.30700000      20.25400000      10.63600000
 O      12.33100000      11.96200000       2.38000000
 H      13.01300000      12.07100000       3.12500000
 H      11.52400000      11.75300000       2.85600000
 O      12.86600000      17.28000000       1.26000000
 H      12.84300000      17.66400000       0.37800000
 H      12.19500000      17.80500000       1.71200000
 O      13.30500000      18.11400000       7.74600000
 H      13.18200000      17.36700000       8.51300000
 H      14.24800000      18.11500000       7.47200000
 O      15.65700000      15.16700000       5.30100000
 H      14.63900000      15.16300000       5.24900000
 H      15.85900000      15.86000000       4.57700000
 O       7.08200000      10.45800000       7.00300000
 H       7.18400000      10.17100000       6.04300000
 H       6.26900000       9.94500000       7.19100000
 O      11.51900000      18.85100000       5.77500000
 H      12.27900000      19.08800000       5.21500000
 H      12.01300000      18.74200000       6.58500000
 O      10.72100000      19.48500000       1.98200000
 H       9.96500000      20.06400000       1.74000000
 H      10.66000000      19.48800000       2.89500000
 O       5.14400000      15.74900000       6.03900000
 H       5.33400000      15.64700000       5.09100000
 H       5.40800000      16.71200000       5.98300000
 O      10.60200000      14.30400000       6.31400000
 H      10.21300000      14.33900000       7.19200000
 H      10.35900000      13.35400000       6.27100000
 O       4.82800000      15.75900000       3.27700000
 H       5.37400000      16.51000000       2.82500000
 H       5.43200000      14.99300000       3.21000000
 O       4.98900000      18.51400000       7.69100000
 H       5.71700000      18.61100000       8.35400000
 H       5.37800000      18.87000000       6.86000000
 O      13.29700000      19.56000000       3.63700000
 H      14.20000000      19.40600000       3.25300000
 H      13.00400000      20.34300000       3.11400000
 O       8.23800000      21.12800000       9.43300000
 H       9.11000000      21.46300000       9.13900000
 H       8.06900000      20.73200000       8.55000000
 O       8.68600000      20.49300000       5.82700000
 H       9.00700000      20.42900000       4.89500000
 H       9.18000000      19.72900000       6.22800000
 O       6.40000000      17.65200000       2.27700000
 H       7.20900000      17.68800000       2.89000000
 H       6.69300000      18.22300000       1.57400000
 O       5.58300000      20.14200000       5.63400000
 H       6.54000000      20.44400000       5.67700000
 H       5.44400000      20.25200000       4.69000000
 O      11.67500000      14.42900000       3.09000000
 H      11.01300000      14.04400000       3.65900000
 H      11.84700000      13.66500000       2.47000000
 O      16.37100000      21.30400000       4.80100000
 H      15.69100000      21.84700000       4.37800000
 H      15.73800000      20.67500000       5.19000000
 O       7.54100000      14.77000000       4.04200000
 H       8.24000000      15.52100000       4.25400000
 H       7.45800000      14.81500000       3.05500000
 O      12.97400000      15.90100000       5.38800000
 H      12.72900000      15.81800000       4.42000000
 H      12.18800000      15.48600000       5.86600000
 O      12.68600000      16.64700000      10.06300000
 H      12.93700000      16.21000000      10.88900000
 H      12.09200000      17.30200000      10.33900000
 O       4.91300000      12.62700000       5.29200000
 H       5.68300000      12.90700000       5.73800000
 H       5.08000000      12.46200000       4.38500000
 O       4.74900000      12.78600000       2.31100000
 H       3.80100000      12.57000000       2.33800000
 H       5.30000000      12.00900000       2.03200000
 O       8.19100000      11.88700000       0.99500000
 H       8.47200000      11.00700000       0.64400000
 H       9.00500000      12.37700000       1.03400000
 O      15.15700000      15.56100000       8.66400000
 H      14.40300000      15.59500000       9.28800000
 H      14.76600000      16.11600000       7.89300000
