135
XYZ file of cluster: frame_14500_46790.0.4b7ff - created by MolEdiTo
 O      10.77000000       7.24200000      19.49600000
 H      11.41300000       7.91100000      19.75900000
 H      10.52100000       7.39900000      18.55700000
 O      19.94600000       4.03800000      16.24000000
 H      19.62500000       4.77900000      16.77400000
 H      20.94500000       4.17700000      16.14800000
 O      14.94600000       7.29200000      10.50500000
 H      14.41700000       6.86100000       9.76400000
 H      15.28200000       6.61100000      11.13400000
 O      17.17400000       9.47300000      11.78700000
 H      17.53700000       9.11000000      11.01200000
 H      18.02700000       9.55900000      12.33900000
 O      10.88800000       0.64500000      12.75100000
 H      10.25200000       0.00000000      13.11500000
 H      11.75700000       0.22800000      12.87800000
 O      18.07700000       9.03400000      20.78500000
 H      18.45000000       9.86800000      21.05200000
 H      18.02100000       8.54600000      21.70700000
 O      11.40300000       2.98000000      18.70200000
 H      10.43300000       3.37300000      18.64000000
 H      11.74600000       3.28400000      17.79500000
 O      20.43300000       9.88500000      15.59300000
 H      20.65700000       8.93400000      15.47400000
 H      20.67700000      10.01700000      16.52800000
 O      18.31400000       5.68500000      17.81200000
 H      18.87000000       5.78800000      18.64700000
 H      17.47500000       5.69200000      18.22800000
 O      15.62700000       5.80000000      18.46700000
 H      14.81800000       5.95200000      18.02100000
 H      15.43100000       6.03300000      19.35400000
 O      13.43600000       1.64500000      10.90100000
 H      13.24300000       2.22400000      11.75700000
 H      12.49700000       1.38300000      10.69000000
 O      14.88600000       8.89600000      16.53600000
 H      14.14800000       8.34500000      16.11500000
 H      15.50300000       8.91900000      15.78200000
 O      19.13500000       3.80200000      21.16700000
 H      20.09900000       3.60300000      21.08100000
 H      18.93100000       4.52000000      20.48100000
 O      20.95700000       6.69400000      13.19800000
 H      21.77700000       6.92300000      12.68800000
 H      20.36700000       7.30400000      12.79200000
 O      13.15000000       8.70900000      18.62300000
 H      13.61100000       8.59700000      19.47200000
 H      13.96100000       8.99200000      18.11600000
 O      17.56800000       2.53100000      17.46200000
 H      17.72700000       1.67700000      16.95000000
 H      18.30100000       3.11800000      17.17300000
 O      16.49200000       1.44900000      10.52600000
 H      15.58500000       1.14600000      10.78100000
 H      16.48200000       2.43500000      10.40100000
 O      19.77600000       2.73400000      10.48500000
 H      20.68500000       2.70900000      10.95400000
 H      19.67700000       1.80800000      10.29600000
 O      13.37400000       3.95300000      15.69000000
 H      14.31100000       4.07300000      15.38700000
 H      13.33600000       4.56000000      16.45500000
 O      15.31300000       8.56900000      14.06600000
 H      15.98200000       8.81800000      13.41600000
 H      14.49300000       8.63600000      13.62600000
 O      14.59100000       2.24200000      18.11300000
 H      15.10200000       1.73700000      18.74600000
 H      15.19100000       2.97600000      17.75100000
 O      11.61100000       5.57900000      12.17500000
 H      11.83600000       5.80300000      13.11500000
 H      12.39500000       5.18700000      11.83200000
 O      18.31600000       7.58300000      15.36600000
 H      17.98200000       6.72000000      15.07600000
 H      18.49800000       7.48100000      16.40500000
 O      15.69200000       2.79600000      14.06100000
 H      16.21300000       1.99800000      13.99100000
 H      16.39700000       3.49000000      14.12400000
 O      12.81400000       5.46200000      17.97600000
 H      12.16700000       5.65100000      17.30700000
 H      12.64700000       6.23400000      18.55500000
 O      12.99200000       2.82000000      13.38500000
 H      12.65600000       3.56300000      13.94200000
 H      13.97800000       2.69800000      13.67700000
 O      19.66900000      10.05600000      12.65900000
 H      19.76200000       9.90000000      13.59400000
 H      20.55300000       9.90100000      12.22300000
 O      15.90800000       5.46500000      15.77200000
 H      16.40600000       5.76400000      15.04300000
 H      16.28700000       5.87600000      16.59000000
 O      17.60500000       8.64000000      18.05400000
 H      16.73700000       8.48200000      17.67400000
 H      17.35300000       8.97100000      18.94900000
 O      17.59800000      10.28600000      14.98000000
 H      18.29900000      10.94500000      15.00600000
 H      18.02600000       9.35800000      15.18400000
 O      12.36200000       7.71900000      15.02000000
 H      11.70300000       8.25200000      15.48600000
 H      11.95200000       6.84600000      15.19800000
 O      17.26400000       1.76800000      20.38200000
 H      17.94500000       2.45400000      20.69800000
 H      17.34700000       1.95000000      19.40200000
 O      18.92300000       2.55400000      13.82300000
 H      19.42700000       2.87700000      14.63000000
 H      18.76400000       3.32400000      13.30800000
 O      14.98700000       4.75500000      11.91800000
 H      15.08400000       3.88900000      11.91100000
 H      14.89200000       5.01300000      12.83000000
 O       9.93500000      10.18000000      12.68100000
 H      10.48000000      10.48300000      13.46200000
 H      10.58900000      10.24000000      11.91100000
 O      18.66300000       6.31700000      20.45300000
 H      19.15200000       6.34100000      21.35300000
 H      18.42500000       7.25500000      20.28600000
 O      20.51100000       0.96100000      20.26200000
 H      21.38900000       1.15800000      19.87100000
 H      19.96600000       0.48900000      19.64000000
 O      10.01600000       8.61900000      17.01600000
 H      10.51800000       9.24000000      17.61300000
 H       9.09700000       9.05600000      16.87600000
 O      18.15100000       5.36900000      13.12200000
 H      18.18700000       5.27900000      12.12900000
 H      19.08900000       5.64400000      13.28800000
 O      10.25200000       2.67800000      21.38200000
 H      10.68100000       2.40400000      20.57200000
 H       9.89700000       1.83400000      21.76100000
 O      18.62700000       5.98500000      10.55100000
 H      19.51900000       5.72900000      10.17400000
 H      18.10300000       6.26300000       9.73200000
 O      20.61400000       9.16000000      18.43200000
 H      20.88200000       8.26700000      18.75100000
 H      19.65200000       8.87500000      18.11200000
 O      13.32200000       3.84200000      20.42800000
 H      13.53600000       4.19800000      19.49000000
 H      12.56400000       3.32600000      20.14100000
 O      12.47100000       1.18000000      16.33200000
 H      11.96300000       1.86700000      15.99200000
 H      12.90800000       1.70700000      17.10000000
 O      10.76100000       5.53200000      15.21800000
 H      10.65200000       4.77200000      14.53200000
 H       9.98300000       6.04100000      15.13400000
