123
XYZ file of cluster: frame_16500_2483d.205b4.6604 - created by MolEdiTo
 O      13.00500000       8.41400000       7.55600000
 H      13.50100000       9.29800000       7.42800000
 H      12.13100000       8.54500000       7.16300000
 O       7.80900000      10.85400000       2.90500000
 H       8.49600000      11.50700000       3.29800000
 H       7.49000000      10.29000000       3.74800000
 O      13.48000000      11.02100000       6.77400000
 H      13.59100000      12.00700000       6.95000000
 H      13.18700000      10.87800000       5.79100000
 O       9.85000000       5.85300000       1.89300000
 H       9.27000000       6.63400000       1.74400000
 H       9.36100000       5.32800000       2.60000000
 O       9.82400000      14.05600000       7.60200000
 H       9.41300000      13.69400000       6.74300000
 H       9.19800000      14.69200000       7.92300000
 O       9.40100000       7.90700000      10.46700000
 H       9.89100000       7.38400000       9.82100000
 H       9.88600000       8.64600000      10.73500000
 O      14.26500000       6.17300000       8.73800000
 H      15.08000000       6.48900000       8.31900000
 H      13.62900000       6.85400000       8.44500000
 O       7.99400000       8.92600000       7.86800000
 H       8.60300000       8.14700000       7.74300000
 H       8.18300000       9.37900000       8.72700000
 O      13.42600000      13.98300000       7.65700000
 H      13.01400000      14.85600000       7.61400000
 H      14.16600000      14.11300000       7.05900000
 O      15.22600000       8.93300000      10.36000000
 H      15.99400000       9.13700000       9.73900000
 H      14.78100000       9.74800000      10.47200000
 O       6.97300000       6.11000000       8.86000000
 H       6.24200000       5.54400000       9.08400000
 H       6.87000000       6.71100000       9.55000000
 O      11.47800000      15.90100000       2.04300000
 H      12.42000000      16.30600000       2.18000000
 H      11.64300000      14.92700000       1.96000000
 O       6.94300000       9.40200000       5.08600000
 H       7.09300000       8.63300000       4.46800000
 H       7.60300000       9.22900000       5.82800000
 O       7.64000000       4.87300000       6.33200000
 H       7.34900000       5.65200000       6.88100000
 H       7.90800000       4.17900000       7.00400000
 O      15.10300000       5.41300000       5.58500000
 H      14.53000000       4.74200000       5.14000000
 H      14.86200000       6.30400000       5.14800000
 O       5.73000000       5.73600000       1.94900000
 H       6.58000000       5.75100000       1.43100000
 H       5.03600000       5.96800000       1.29600000
 O      10.08100000      12.43100000       3.37400000
 H       9.96000000      13.07200000       2.60600000
 H      10.72900000      11.80400000       3.04500000
 O      11.87600000      16.20400000       7.30600000
 H      12.23600000      16.37200000       6.37700000
 H      11.06400000      15.70900000       7.02700000
 O       7.81800000      14.36500000       2.80300000
 H       8.17200000      13.81300000       2.07900000
 H       7.58300000      15.14900000       2.22600000
 O       5.33100000      12.41900000       2.87100000
 H       4.69800000      11.67300000       3.12400000
 H       5.87200000      12.66800000       3.66300000
 O      13.09600000      10.22700000       3.95900000
 H      12.29500000       9.58800000       3.73400000
 H      13.74500000       9.77600000       3.42800000
 O      15.66400000       7.81000000       4.44100000
 H      16.35000000       7.88400000       3.78100000
 H      15.36900000       8.72700000       4.48700000
 O       7.95300000       7.76900000       2.95300000
 H       7.13100000       7.20500000       3.04300000
 H       7.77500000       8.42300000       2.18200000
 O      12.42900000       5.78900000       6.13200000
 H      13.29800000       5.58700000       6.51100000
 H      12.49900000       6.25600000       5.24900000
 O      16.14100000      10.81200000       6.03300000
 H      15.53300000      10.80100000       6.88500000
 H      16.99300000      10.32400000       6.35000000
 O       6.03700000      13.96400000       5.49300000
 H       5.94400000      14.73500000       4.95600000
 H       6.34100000      14.46000000       6.36200000
 O      15.25000000      14.02700000       1.73700000
 H      14.74200000      14.90700000       1.87400000
 H      15.45600000      13.68300000       2.65200000
 O      12.03300000      16.17900000       4.87600000
 H      11.58800000      16.29600000       4.07200000
 H      12.08700000      15.19800000       5.00100000
 O      12.48100000      13.30100000       4.73300000
 H      11.62200000      13.15000000       4.36900000
 H      12.98200000      12.70300000       4.14000000
 O      10.54300000       9.19000000       3.07700000
 H       9.91700000       8.48600000       3.07300000
 H      10.26200000       9.74700000       2.28000000
 O      10.51000000       9.54900000       6.08300000
 H      10.20600000       8.80800000       5.41200000
 H      10.36500000      10.49200000       5.78900000
 O      10.82200000       6.41700000       8.20800000
 H      11.22500000       6.22300000       7.37600000
 H      11.55100000       6.93000000       8.61800000
 O      10.90000000      14.46300000      10.59900000
 H      11.04100000      14.25300000       9.65400000
 H      11.33800000      15.36500000      10.77300000
 O       5.43600000      11.63700000       6.54900000
 H       6.22600000      11.09500000       6.34500000
 H       5.79700000      12.51200000       6.22100000
 O       8.40000000      12.67000000       5.70500000
 H       9.06700000      12.73500000       4.98200000
 H       7.58300000      13.05900000       5.27900000
 O      13.93200000       8.15300000       1.74800000
 H      13.45100000       7.51800000       1.15100000
 H      14.56700000       7.55600000       2.15100000
 O       6.04500000      16.25400000       3.93900000
 H       6.35800000      17.10900000       3.77400000
 H       6.34600000      15.63100000       3.24000000
 O       8.50200000      11.33200000       9.63700000
 H       9.45600000      11.22800000       9.48900000
 H       8.30900000      12.03700000       8.93200000
 O       6.22400000       6.27400000       4.70300000
 H       6.38700000       5.71300000       3.95700000
 H       6.51700000       5.72000000       5.46400000
 O      12.51400000      13.36000000       1.51500000
 H      13.40000000      13.20100000       1.88800000
 H      12.47000000      12.63000000       0.81300000
 O      10.94100000      11.03300000       8.63500000
 H      11.89300000      11.12600000       8.69200000
 H      10.82000000      10.72700000       7.66600000
