123
XYZ file of cluster: frame_16500_44c5.9a577.491de - created by MolEdiTo
 O       6.69700000      26.41200000      12.53700000
 H       7.48300000      26.87200000      13.07100000
 H       6.80000000      25.57200000      13.00000000
 O       6.32600000      22.00700000      20.99100000
 H       7.01700000      21.33400000      21.23700000
 H       5.92600000      21.47200000      20.24300000
 O       4.01000000      28.25100000      18.78500000
 H       3.41500000      29.01500000      18.80500000
 H       4.86600000      28.52700000      18.54500000
 O       7.22700000      25.24900000      19.99000000
 H       6.25100000      25.03100000      19.94200000
 H       7.24100000      26.05600000      19.35200000
 O       8.26600000      23.03200000      12.80800000
 H       8.10300000      22.84200000      11.86100000
 H       8.72200000      22.28600000      13.23900000
 O       7.71000000      27.91100000      18.95900000
 H       7.21200000      28.69000000      18.59600000
 H       8.46700000      28.15200000      19.46800000
 O       4.96500000      22.07200000      10.53300000
 H       5.36300000      22.96100000      10.76400000
 H       4.53200000      21.89600000      11.41600000
 O       5.57800000      20.79800000      14.34000000
 H       6.09500000      19.99600000      14.66100000
 H       6.27200000      21.22000000      13.75100000
 O       2.28000000      29.83300000      15.73100000
 H       2.80500000      30.28500000      16.41000000
 H       1.61200000      30.57300000      15.49900000
 O      10.38100000      24.88100000      19.71400000
 H       9.46700000      24.54700000      19.70600000
 H      10.56000000      24.87700000      20.67100000
 O       1.85700000      29.67400000      20.75500000
 H       1.69600000      29.43500000      21.69000000
 H       1.20800000      29.08300000      20.30300000
 O      10.33800000      28.99300000      16.30500000
 H      10.04400000      28.23800000      15.73000000
 H      10.02400000      28.95600000      17.19600000
 O       2.88900000      23.35800000      19.80200000
 H       3.47200000      23.33400000      18.98000000
 H       3.59000000      23.14600000      20.38300000
 O       1.05400000      26.98800000       9.93900000
 H       1.22200000      26.55100000      10.82200000
 H       0.55300000      26.41100000       9.32300000
 O       4.52200000      25.70900000      19.85200000
 H       4.40000000      26.67700000      19.71500000
 H       3.89200000      25.28200000      19.27100000
 O       7.71000000      30.37700000      15.32400000
 H       8.29200000      30.64800000      15.99000000
 H       8.42600000      30.42100000      14.58200000
 O       4.47900000      24.88900000      11.63100000
 H       4.56800000      24.21800000      12.37700000
 H       5.27300000      25.48800000      11.78600000
 O       8.47900000      22.90600000      19.34300000
 H       8.24100000      22.31100000      20.11500000
 H       7.71600000      23.59100000      19.42200000
 O      10.42000000      28.56500000      19.20400000
 H      11.26100000      28.18500000      19.09400000
 H      10.14700000      28.45700000      20.17900000
 O       6.16400000      25.69800000      15.93200000
 H       7.05400000      25.45300000      16.31300000
 H       6.08500000      26.63400000      16.12800000
 O       2.06200000      24.87200000      14.86100000
 H       2.48300000      25.56700000      15.39600000
 H       2.78300000      24.16200000      14.62600000
 O       8.39300000      27.43400000      14.58700000
 H       8.53800000      26.60700000      15.04000000
 H       8.45300000      28.01500000      15.35300000
 O       9.19000000      29.16800000      10.09800000
 H       9.72100000      28.93400000      10.89500000
 H       9.39300000      28.41100000       9.46400000
 O       3.55400000      26.49900000      16.69000000
 H       3.96000000      26.95900000      17.42900000
 H       4.22900000      25.79200000      16.57000000
 O      10.79400000      22.95200000      11.57000000
 H      11.10500000      22.53700000      10.73800000
 H       9.96300000      23.36400000      11.18200000
 O       8.78700000      25.66400000      16.75300000
 H       9.01300000      25.02900000      16.02500000
 H       9.39100000      25.30600000      17.47200000
 O       9.75300000      21.61300000      17.59600000
 H      10.17400000      20.87000000      18.08800000
 H       9.43800000      22.19900000      18.29900000
 O       6.49600000      21.84600000      17.74200000
 H       7.27200000      22.18500000      17.24800000
 H       6.94800000      21.44800000      18.56500000
 O       6.34500000      29.57200000      12.65700000
 H       5.79900000      28.73300000      12.70800000
 H       6.94600000      29.33800000      13.34900000
 O       9.84500000      24.50900000      14.60600000
 H      10.72800000      24.55500000      14.22200000
 H       9.38200000      23.80900000      14.11300000
 O       1.57600000      23.21800000      17.30400000
 H       0.67600000      23.38500000      17.55000000
 H       1.91400000      22.42000000      17.80800000
 O       8.97100000      20.93900000      14.63800000
 H       9.12100000      21.04600000      15.63500000
 H       8.73600000      19.93400000      14.56100000
 O       2.41200000      26.41500000      12.31000000
 H       3.39200000      26.15100000      12.16600000
 H       2.23300000      25.86700000      13.15500000
 O       8.17600000      21.73300000       9.94800000
 H       8.52000000      20.98300000      10.48700000
 H       7.18600000      21.60100000       9.99100000
 O       3.21800000      21.41300000      13.02800000
 H       3.97200000      20.98600000      13.45500000
 H       2.36000000      21.28600000      13.57500000
 O       3.80400000      28.36500000      13.83000000
 H       3.20700000      27.93200000      13.19000000
 H       3.17600000      28.86200000      14.35600000
 O       4.67800000      23.79000000      14.16500000
 H       4.68900000      22.83800000      14.49100000
 H       5.11400000      24.28500000      14.89000000
 O       4.63500000      23.60700000      17.42800000
 H       4.05300000      23.14900000      16.87600000
 H       5.39400000      23.04000000      17.63700000
 O      10.81700000      27.07800000      11.52400000
 H      10.03000000      26.72100000      11.05200000
 H      11.55000000      26.59400000      11.07100000
 O       9.65100000      29.85600000      13.43900000
 H       9.48900000      28.89500000      13.55300000
 H      10.66300000      29.81100000      13.53200000
 O       5.71900000      28.70000000      16.32100000
 H       6.24900000      29.49100000      15.96600000
 H       4.83300000      28.96400000      15.98700000
