141
XYZ file of cluster: frame_16500_21b78.45322.a1aaf - created by MolEdiTo
 O       9.18700000      13.64600000      30.49000000
 H       9.95100000      13.75900000      29.98200000
 H       8.58600000      13.57100000      29.69100000
 O      10.88300000      12.74400000      27.99000000
 H      10.32700000      12.24400000      27.38300000
 H      11.67400000      12.84800000      27.42000000
 O       5.11300000      15.81000000      24.19200000
 H       5.81300000      16.09500000      23.59100000
 H       4.33800000      15.63900000      23.57100000
 O      13.45500000      19.50200000      24.32900000
 H      14.27000000      19.76600000      24.58900000
 H      13.61400000      19.03300000      23.44000000
 O       8.30300000      11.75200000      24.27300000
 H       7.96400000      11.44000000      23.36900000
 H       7.69300000      12.49400000      24.50100000
 O      14.02600000      17.87800000      29.63900000
 H      13.25400000      18.10500000      28.99800000
 H      13.91300000      16.87500000      29.69000000
 O       5.50600000      11.51500000      30.23400000
 H       5.69400000      11.85100000      31.13000000
 H       6.13600000      10.78000000      30.24600000
 O      11.59500000      21.00300000      21.13700000
 H      12.53500000      20.96600000      21.30000000
 H      11.33700000      20.23200000      21.77000000
 O       6.15700000      14.36200000      29.29100000
 H       6.34900000      14.60200000      30.19300000
 H       5.39300000      13.73200000      29.46100000
 O      14.68800000       9.67100000      23.39000000
 H      15.08200000      10.51100000      22.96000000
 H      15.00600000       8.93700000      22.83200000
 O      13.28600000      15.17700000      22.38700000
 H      14.12800000      15.43800000      22.85700000
 H      12.73300000      15.79500000      22.90200000
 O      11.77400000      17.29400000      23.87200000
 H      11.70900000      16.58900000      24.45600000
 H      12.48200000      17.80000000      24.30700000
 O       6.61200000      14.04800000      25.71200000
 H       6.90300000      14.63000000      25.02700000
 H       5.82000000      13.71600000      25.28200000
 O      15.10800000      20.35400000      27.76200000
 H      14.29300000      19.87000000      28.08800000
 H      14.68500000      20.92000000      27.01600000
 O      13.88100000      10.75200000      29.67600000
 H      13.30400000       9.98200000      29.90900000
 H      14.70300000      10.62000000      30.16600000
 O       7.16700000      20.09200000      30.55000000
 H       7.16600000      21.02600000      30.87500000
 H       6.19900000      19.93800000      30.65800000
 O      15.80300000      13.20900000      25.37500000
 H      15.77500000      13.72100000      26.17000000
 H      15.26300000      12.42700000      25.52800000
 O      12.99000000      21.43200000      26.31100000
 H      12.83100000      20.75000000      25.56900000
 H      12.31800000      21.29900000      26.99900000
 O       7.42100000      19.81400000      25.25200000
 H       6.49400000      20.11000000      25.10500000
 H       7.59800000      20.34400000      26.07600000
 O       8.67400000      19.87400000      20.87800000
 H       8.06600000      19.05500000      21.02000000
 H       9.31500000      19.79500000      21.66900000
 O      15.52800000      11.78200000      21.74000000
 H      15.22400000      11.41900000      20.93100000
 H      15.89900000      12.65500000      21.54100000
 O      13.16500000      15.38000000      29.35000000
 H      13.42100000      14.98700000      28.51900000
 H      13.08500000      14.67100000      30.00200000
 O      10.88100000      11.08200000      30.74100000
 H      10.17000000      11.78200000      30.81600000
 H      11.15600000      11.17400000      29.79700000
 O       7.86600000      21.03600000      27.77000000
 H       7.28900000      20.51700000      28.38600000
 H       7.68400000      21.95200000      28.03800000
 O       6.62300000      10.16200000      22.57900000
 H       6.35400000      10.60100000      21.79100000
 H       5.98500000       9.30600000      22.71700000
 O       9.47400000      11.75700000      21.22900000
 H      10.54100000      11.65300000      21.02800000
 H       9.00500000      10.99900000      20.78400000
 O       7.63000000      17.55700000      22.71200000
 H       8.02500000      16.66300000      22.51500000
 H       8.03000000      17.84300000      23.56500000
 O      10.10300000      18.64000000      26.67600000
 H       9.69300000      19.53500000      26.49300000
 H       9.70500000      18.09600000      26.02500000
 O      12.24600000      11.37700000      21.21100000
 H      12.94600000      10.98700000      20.61400000
 H      12.73200000      11.84900000      21.92200000
 O      10.07600000      19.51400000      23.13500000
 H       9.51700000      19.71100000      23.88900000
 H      10.59200000      18.62700000      23.36200000
 O      14.82200000      13.03800000      27.96800000
 H      14.56400000      12.36000000      28.65400000
 H      15.27100000      13.65100000      28.59500000
 O       7.16500000      14.44600000      22.52900000
 H       7.10300000      14.66300000      21.55200000
 H       6.41700000      13.87100000      22.66200000
 O       8.92400000      18.46600000      29.33800000
 H       8.71000000      19.02500000      28.56400000
 H       8.50700000      18.97100000      30.05400000
 O      12.18300000      19.30000000      28.29200000
 H      12.03200000      19.71800000      29.15100000
 H      11.27300000      19.08000000      27.97600000
 O      11.40400000      15.67500000      26.06100000
 H      10.64000000      16.05100000      26.56000000
 H      12.24100000      16.15800000      26.29100000
 O      10.59900000      14.58000000      23.02000000
 H      11.44600000      14.14900000      22.67400000
 H       9.95100000      13.92400000      23.26600000
 O      10.88900000      11.80500000      25.43600000
 H      10.13500000      12.03500000      24.90600000
 H      11.62800000      12.25100000      24.96300000
 O      14.82900000      17.64800000      22.22800000
 H      14.80100000      17.07300000      21.43700000
 H      15.80200000      17.52900000      22.48600000
 O       8.73900000      16.53200000      25.20600000
 H       8.84100000      15.97800000      25.94100000
 H       9.44000000      16.11100000      24.65800000
 O       7.10600000      12.08900000      27.73300000
 H       6.37000000      12.44700000      28.15900000
 H       7.16800000      12.87800000      27.15300000
 O      12.92200000      12.63000000      23.51300000
 H      13.15800000      13.46000000      23.16900000
 H      13.75400000      12.16200000      23.34300000
 O       9.30800000      15.89000000      28.05700000
 H      10.03400000      15.53000000      28.66800000
 H       9.34600000      16.79600000      28.16900000
 O      14.36700000      20.53200000      21.74600000
 H      14.75800000      20.96600000      22.54200000
 H      14.94200000      19.74900000      21.64900000
 O       8.67200000       9.76800000      27.61400000
 H       8.07200000       9.53700000      26.91700000
 H       8.28700000      10.64600000      27.87700000
 O       4.86900000      15.97500000      27.17700000
 H       5.26000000      15.03200000      27.24100000
 H       5.09100000      16.19900000      26.22700000
 O       6.35100000       9.93100000      25.85500000
 H       6.55400000      10.87300000      26.19400000
 H       5.97000000      10.24300000      24.96600000
 O      13.58300000      17.12600000      26.78600000
 H      14.10300000      17.82300000      26.37300000
 H      14.19300000      17.02800000      27.57800000
