154
XYZ file of cluster: frame_13500_47fa9.20a01.4e679 - created by MolEdiTo
 O      14.09800000       8.35200000      16.73600000
 H      14.24100000       7.42900000      17.08000000
 H      13.61600000       8.19800000      15.91500000
 O      12.80500000       5.65200000      10.88000000
 H      12.98500000       5.03000000      10.13500000
 H      13.01400000       5.24100000      11.70800000
 O      15.35100000       8.52400000      13.19500000
 H      14.63000000       7.94600000      13.62600000
 H      15.15800000       8.28600000      12.24000000
 O      12.04200000      10.20800000      14.54600000
 H      11.49900000      11.01700000      14.59300000
 H      11.61400000       9.56700000      13.90800000
 O      19.88500000      12.80400000      17.04300000
 H      20.54400000      12.56800000      16.29900000
 H      19.13600000      12.23900000      16.64200000
 O      19.49700000       6.30300000      19.71100000
 H      19.89700000       7.07000000      20.23600000
 H      19.61500000       5.48100000      20.21700000
 O      16.15800000       7.45200000      19.04200000
 H      16.65000000       6.62200000      19.11600000
 H      16.45100000       7.94800000      19.84400000
 O      12.45400000      14.33600000      14.65100000
 H      12.16600000      15.14300000      14.07300000
 H      13.01900000      13.98900000      14.03200000
 O      18.68400000      15.08700000      18.59100000
 H      18.19900000      14.68900000      19.35400000
 H      19.01100000      14.20200000      18.22900000
 O      18.56400000      14.37700000      11.72000000
 H      19.34100000      14.22200000      12.31600000
 H      17.82700000      14.59900000      12.28600000
 O      19.57000000       7.87000000      15.36000000
 H      18.77500000       8.42400000      15.33500000
 H      19.80600000       7.97100000      16.26300000
 C      14.76000000      16.13600000      17.01000000
 C      15.49000000      14.93700000      16.32300000
 C      16.07200000      15.96000000      13.97800000
 H      17.02300000      16.39500000      15.84300000
 H      15.31900000      15.29400000      18.45800000
 O      17.48800000      14.43300000      15.22800000
 O      14.59800000      17.24400000      16.47500000
 O      14.81500000      16.08700000      18.32700000
 C      16.55200000      15.51800000      15.38500000
 O      16.10700000      14.01300000      17.30200000
 H      14.79200000      14.40100000      15.80400000
 O      14.99700000      15.66100000      13.40500000
 O      16.80500000      16.94500000      13.42000000
 H      17.30400000      17.33100000      14.18600000
 H      16.38200000      13.21300000      16.81000000
 H      18.38600000      14.73000000      15.09800000
 O      20.39500000      15.85500000      20.80500000
 H      20.76700000      16.74600000      20.91700000
 H      20.83000000      15.55400000      20.00400000
 O      17.30800000       7.63900000      10.26500000
 H      17.36900000       8.34600000      10.83400000
 H      17.35600000       6.91900000      10.97700000
 O      20.65000000       9.47200000      12.43300000
 H      21.07800000       9.84500000      13.29800000
 H      21.14000000       8.66900000      12.44900000
 O      18.26500000       4.88400000      17.29400000
 H      18.81400000       5.42900000      17.90000000
 H      17.83900000       4.18500000      17.78300000
 O      21.79300000       9.94700000      15.03500000
 H      20.93100000       9.53700000      14.80100000
 H      22.32300000       9.40100000      15.66400000
 O      14.17400000      12.22700000      18.85200000
 H      14.51500000      11.37600000      19.21300000
 H      13.87400000      12.73500000      19.64500000
 O      20.98900000      11.60500000      19.55700000
 H      20.56800000      12.05100000      18.75100000
 H      21.84100000      11.27600000      19.26300000
 O      15.43500000      14.52800000      20.75100000
 H      15.16800000      15.52800000      20.68700000
 H      15.91200000      14.43700000      21.60300000
 O      10.60200000      15.86000000      10.89800000
 H      11.36600000      15.32200000      11.12200000
 H       9.87200000      15.38600000      11.39500000
 O      14.34500000      11.73100000      15.75200000
 H      14.68300000      11.32700000      16.61500000
 H      13.60100000      11.15900000      15.45000000
 O      14.14500000       6.75300000      21.03000000
 H      13.79900000       7.01200000      20.18300000
 H      14.93000000       6.14500000      20.88000000
 O      18.26400000      11.49500000      14.83900000
 H      17.45700000      11.89100000      14.40000000
 H      17.76800000      10.77700000      15.22200000
 O      19.14200000       9.31500000      18.49800000
 H      20.12100000       9.37900000      18.65000000
 H      18.88200000       8.46100000      18.95500000
 O      10.79100000       6.29000000      15.46100000
 H      10.22000000       6.92800000      15.95600000
 H      10.32500000       6.17200000      14.55600000
 O      17.96900000      10.17000000      11.84200000
 H      18.68000000       9.92700000      12.36500000
 H      17.60900000      10.86600000      12.37700000
 O      13.17000000       6.70700000      13.70400000
 H      12.34900000       7.17900000      13.40500000
 H      12.85900000       5.91900000      14.29400000
 O      12.95400000       5.70300000      17.51600000
 H      12.23100000       5.82200000      16.86200000
 H      12.69600000       6.23700000      18.29300000
 O      10.12700000      12.19700000      16.86300000
 H       9.95400000      11.66500000      17.64800000
 H      10.63200000      12.97300000      17.19000000
 O      16.62700000       5.99500000      12.43600000
 H      16.13200000       5.20100000      12.22900000
 H      16.64700000       5.97900000      13.40500000
 O      16.56200000      12.66100000      12.68400000
 H      16.26000000      13.50700000      12.99100000
 H      15.72700000      12.16000000      12.68500000
 O      10.28900000      10.31700000      18.96500000
 H       9.34300000      10.03500000      19.09100000
 H      10.57500000       9.69000000      18.23200000
 O      19.56700000       5.11600000      11.07800000
 H      18.95500000       5.85400000      10.77900000
 H      18.92700000       4.36700000      11.02900000
 O      18.28100000      12.58800000      20.51400000
 H      19.28800000      12.53900000      20.48400000
 H      18.01700000      12.07700000      21.32000000
 O      14.17300000      11.09800000      12.53400000
 H      13.48400000      10.66400000      12.98100000
 H      14.74500000      10.38600000      12.11700000
 O      16.46200000       6.19900000      15.51700000
 H      16.37300000       7.14500000      15.58100000
 H      17.22200000       6.03900000      16.15300000
 O      14.50000000       8.28300000      10.59400000
 H      14.89400000       7.49200000      10.15400000
 H      13.70200000       7.95100000      11.05500000
 O      20.13800000      15.65400000      13.34900000
 H      20.92900000      15.29200000      13.76300000
 H      20.38700000      16.61300000      13.09500000
 O      11.11200000       8.46400000      12.79600000
 H      10.55300000       7.71500000      12.99300000
 H      10.99800000       8.62000000      11.83800000
 O      11.97300000       7.64400000      19.18300000
 H      11.76100000       8.57200000      19.47500000
 H      11.02700000       7.49000000      19.07500000
 O      12.10100000      14.09300000      17.42800000
 H      12.24600000      14.32100000      16.48800000
 H      12.78600000      13.38900000      17.65900000
 O      14.02400000       9.67900000      19.55400000
 H      14.70800000       9.19900000      20.04000000
 H      13.93200000       9.15000000      18.74700000
 O      17.19500000      11.31400000      17.70800000
 H      16.55600000      11.42200000      18.46700000
 H      17.94600000      10.72100000      17.97800000
 O      20.86800000       5.19600000      15.78700000
 H      19.89100000       5.41200000      15.89600000
 H      21.27700000       6.06400000      15.55200000
 O      12.72500000      13.35800000      12.00400000
 H      11.80500000      13.02300000      12.23000000
 H      13.27400000      12.50700000      12.18900000
 O      16.95300000       9.09800000      15.50500000
 H      16.47600000       9.24400000      14.65300000
 H      16.37000000       9.01900000      16.25100000
