102
XYZ file of cluster: frame_13500_9ec9a.4f786.c62c6 - created by MolEdiTo
 O      25.76400000      21.42800000      28.91100000
 H      25.42400000      20.50700000      28.87200000
 H      25.09100000      21.94000000      29.43200000
 O      22.49500000      16.04800000      26.78500000
 H      22.70800000      15.86200000      25.79900000
 H      22.43900000      17.04000000      26.78100000
 O      27.91900000      13.93000000      26.73100000
 H      28.27200000      14.57100000      26.05800000
 H      28.21600000      14.23500000      27.61700000
 O      26.84500000      19.74600000      27.10200000
 H      26.86400000      20.62300000      27.60500000
 H      26.79500000      19.98300000      26.16200000
 O      30.08500000      20.91500000      29.37900000
 H      30.09800000      21.31600000      28.44800000
 H      30.75800000      20.28700000      29.52200000
 O      29.38700000      17.73900000      28.50500000
 H      28.65200000      17.80900000      29.21800000
 H      28.89200000      17.36400000      27.69700000
 O      27.67700000      17.12900000      26.38500000
 H      27.16600000      16.72700000      25.61700000
 H      27.50800000      18.09300000      26.31900000
 O      23.66300000      10.19400000      27.65400000
 H      24.39900000      10.50100000      28.23200000
 H      23.07400000      11.01400000      27.66500000
 O      24.60400000      16.46300000      30.63000000
 H      24.17600000      17.29800000      30.34400000
 H      25.25800000      16.35900000      29.91000000
 O      30.17300000      21.48100000      26.85000000
 H      30.73900000      21.90800000      26.21000000
 H      30.59700000      20.57100000      26.79300000
 O      22.78200000      12.96300000      28.66300000
 H      23.30400000      13.68500000      28.13600000
 H      22.39000000      13.46200000      29.48300000
 O      20.88100000      16.85400000      29.22700000
 H      21.52100000      16.58000000      28.46400000
 H      21.06200000      16.11600000      29.78400000
 O      26.83800000      15.79300000      29.00700000
 H      26.26800000      15.03000000      28.90900000
 H      27.09300000      16.06200000      28.14200000
 O      29.16100000      11.28500000      30.17800000
 H      28.36400000      10.79700000      29.78400000
 H      29.64500000      10.49200000      30.59100000
 O      21.33400000      20.64800000      26.66000000
 H      20.96500000      20.95800000      27.42900000
 H      20.61100000      20.84400000      25.99600000
 O      29.01700000      14.17100000      29.19600000
 H      28.34200000      14.70000000      29.79200000
 H      28.97100000      13.31800000      29.68700000
 O      23.72600000      18.75800000      29.49600000
 H      23.46200000      18.65600000      28.57200000
 H      23.05600000      19.24700000      30.03200000
 O      25.24400000      13.95900000      27.39600000
 H      26.17500000      14.15800000      27.08900000
 H      24.77500000      14.28500000      26.54300000
 O      26.43000000      11.08000000      27.30400000
 H      27.02500000      11.60200000      27.88200000
 H      25.78200000      11.70900000      27.17100000
 O      25.18800000      12.04000000      37.16600000
 H      24.31600000      11.61500000      37.42600000
 H      25.72100000      11.41800000      36.69100000
 O      29.63100000      14.83200000      36.89700000
 H      29.19400000      15.58900000      36.41100000
 H      29.09500000      14.03100000      36.60500000
 O      21.59100000      17.21900000      36.05400000
 H      21.99700000      16.32700000      36.20500000
 H      20.63700000      16.92700000      36.16500000
 O      26.18000000      11.54000000      32.75400000
 H      26.45600000      11.04300000      33.55300000
 H      26.07000000      10.82200000      32.08400000
 O      28.65300000      20.99500000      36.10600000
 H      27.84800000      21.11600000      36.66700000
 H      28.37900000      20.81200000      35.15100000
 O      26.60100000      18.62300000      33.91200000
 H      26.23600000      18.48600000      34.82500000
 H      25.92000000      18.35900000      33.24400000
 O      24.28100000      12.89800000      34.29800000
 H      24.70600000      12.88300000      35.15300000
 H      25.01000000      12.52000000      33.73400000
 O      27.93500000      13.71200000      34.64300000
 H      27.37800000      12.95200000      34.33000000
 H      28.85200000      13.36900000      34.44900000
 O      26.04400000      15.65800000      35.02900000
 H      26.22900000      15.79000000      34.06800000
 H      26.55900000      14.84400000      35.22000000
 O      28.47100000      17.64400000      35.86500000
 H      28.05300000      18.36400000      35.31600000
 H      29.42000000      17.91300000      36.01500000
 O      22.60400000      14.30500000      32.48500000
 H      23.11200000      13.77400000      33.19300000
 H      23.12100000      15.15500000      32.54400000
 O      25.07900000      20.06200000      36.24600000
 H      24.32400000      20.17500000      36.83300000
 H      24.60300000      19.90400000      35.43100000
 O      23.15200000      14.74200000      36.77900000
 H      23.25700000      13.78700000      36.43600000
 H      23.97900000      15.10400000      37.09000000
 O      23.08900000      19.24400000      34.35500000
 H      22.30000000      19.83700000      34.29300000
 H      22.78300000      18.45400000      34.80200000
 O      28.19500000      20.56500000      33.29000000
 H      28.73500000      20.45000000      32.50300000
 H      27.61900000      19.80600000      33.32800000
