145
XYZ file of cluster: frame_13500_2151e.21c37.4c903 - created by MolEdiTo
 O      14.09800000       8.35200000      16.73600000
 H      14.24100000       7.42900000      17.08000000
 H      13.61600000       8.19800000      15.91500000
 O       5.69000000      11.16400000      14.60900000
 H       5.05800000      11.79100000      14.35400000
 H       6.44600000      11.61600000      14.96600000
 O      12.80500000       5.65200000      10.88000000
 H      12.98500000       5.03000000      10.13500000
 H      13.01400000       5.24100000      11.70800000
 O       9.60400000      15.23300000      17.88000000
 H      10.50000000      14.90000000      17.55000000
 H       9.50800000      14.94200000      18.82200000
 O       7.74100000       9.84900000      17.93100000
 H       7.06600000      10.42500000      17.41500000
 H       7.19900000       9.37800000      18.64200000
 O      15.35100000       8.52400000      13.19500000
 H      14.63000000       7.94600000      13.62600000
 H      15.15800000       8.28600000      12.24000000
 O       8.98400000       6.95300000      18.81800000
 H       8.74300000       7.60800000      19.57800000
 H       8.95000000       7.53900000      18.02900000
 O      12.04200000      10.20800000      14.54600000
 H      11.49900000      11.01700000      14.59300000
 H      11.61400000       9.56700000      13.90800000
 O       5.99700000      14.50600000      14.75000000
 H       5.15300000      14.37800000      15.16900000
 H       6.70500000      14.28400000      15.37400000
 O      12.45400000      14.33600000      14.65100000
 H      12.16600000      15.14300000      14.07300000
 H      13.01900000      13.98900000      14.03200000
 O       9.63400000       8.59700000      16.30900000
 H       8.91000000       8.72100000      15.67700000
 H      10.17900000       9.38500000      16.10900000
 C      14.76000000      16.13600000      17.01000000
 C      15.49000000      14.93700000      16.32300000
 C      16.07200000      15.96000000      13.97800000
 H      17.02300000      16.39500000      15.84300000
 H      15.31900000      15.29400000      18.45800000
 O      17.48800000      14.43300000      15.22800000
 O      14.59800000      17.24400000      16.47500000
 O      14.81500000      16.08700000      18.32700000
 C      16.55200000      15.51800000      15.38500000
 O      16.10700000      14.01300000      17.30200000
 H      14.79200000      14.40100000      15.80400000
 O      14.99700000      15.66100000      13.40500000
 O      16.80500000      16.94500000      13.42000000
 H      17.30400000      17.33100000      14.18600000
 H      16.38200000      13.21300000      16.81000000
 H      18.38600000      14.73000000      15.09800000
 O       8.37800000      13.06300000      19.83100000
 H       8.76200000      12.21700000      20.12500000
 H       7.71900000      13.36700000      20.47400000
 O      14.17400000      12.22700000      18.85200000
 H      14.51500000      11.37600000      19.21300000
 H      13.87400000      12.73500000      19.64500000
 O       8.80000000       5.29200000      21.16000000
 H       7.94600000       5.72200000      20.88100000
 H       9.33300000       5.32400000      20.35100000
 O      15.43500000      14.52800000      20.75100000
 H      15.16800000      15.52800000      20.68700000
 H      15.91200000      14.43700000      21.60300000
 O      10.19300000      11.47500000      12.24900000
 H       9.39400000      11.60100000      11.71900000
 H      10.09000000      10.57000000      12.51400000
 O       7.47300000       8.41900000      20.75200000
 H       6.53500000       8.33800000      20.52200000
 H       7.56500000       8.12600000      21.71200000
 O      10.60200000      15.86000000      10.89800000
 H      11.36600000      15.32200000      11.12200000
 H       9.87200000      15.38600000      11.39500000
 O       8.62600000       4.49700000      17.92400000
 H       8.67500000       5.45600000      17.98600000
 H       7.82000000       4.33100000      18.38800000
 O      14.34500000      11.73100000      15.75200000
 H      14.68300000      11.32700000      16.61500000
 H      13.60100000      11.15900000      15.45000000
 O      14.14500000       6.75300000      21.03000000
 H      13.79900000       7.01200000      20.18300000
 H      14.93000000       6.14500000      20.88000000
 O       8.41900000      12.47900000      14.49500000
 H       8.94000000      13.12600000      14.10200000
 H       8.92200000      12.04500000      15.18000000
 O       6.09000000       6.14300000      14.16600000
 H       5.76800000       5.46500000      14.76800000
 H       5.39300000       6.18400000      13.48600000
 O      10.79100000       6.29000000      15.46100000
 H      10.22000000       6.92800000      15.95600000
 H      10.32500000       6.17200000      14.55600000
 O      13.17000000       6.70700000      13.70400000
 H      12.34900000       7.17900000      13.40500000
 H      12.85900000       5.91900000      14.29400000
 O      12.95400000       5.70300000      17.51600000
 H      12.23100000       5.82200000      16.86200000
 H      12.69600000       6.23700000      18.29300000
 O       4.93000000       9.41400000      17.44800000
 H       4.32500000       9.49800000      16.64700000
 H       5.30400000       8.49100000      17.38200000
 O       9.13400000       6.30300000      13.03500000
 H       9.36900000       5.50200000      12.49700000
 H       8.16700000       6.11100000      13.15700000
 O      10.12700000      12.19700000      16.86300000
 H       9.95400000      11.66500000      17.64800000
 H      10.63200000      12.97300000      17.19000000
 O       8.52300000      14.12500000      11.97600000
 H       7.68400000      13.60600000      11.77600000
 H       8.22400000      14.83700000      12.62900000
 O      16.56200000      12.66100000      12.68400000
 H      16.26000000      13.50700000      12.99100000
 H      15.72700000      12.16000000      12.68500000
 O      10.28900000      10.31700000      18.96500000
 H       9.34300000      10.03500000      19.09100000
 H      10.57500000       9.69000000      18.23200000
 O      14.17300000      11.09800000      12.53400000
 H      13.48400000      10.66400000      12.98100000
 H      14.74500000      10.38600000      12.11700000
 O       6.41000000      12.80500000      17.72000000
 H       7.05500000      12.93700000      18.36900000
 H       5.74200000      13.53200000      17.77200000
 O      14.50000000       8.28300000      10.59400000
 H      14.89400000       7.49200000      10.15400000
 H      13.70200000       7.95100000      11.05500000
 O       6.12000000      14.48700000      10.71000000
 H       5.87000000      13.98200000       9.89700000
 H       6.93900000      15.04400000      10.57600000
 O       6.82000000      11.32600000      11.26100000
 H       6.74200000      10.59900000      10.62500000
 H       6.84200000      10.94000000      12.14200000
 O      11.97300000       7.64400000      19.18300000
 H      11.76100000       8.57200000      19.47500000
 H      11.02700000       7.49000000      19.07500000
 O      11.11200000       8.46400000      12.79600000
 H      10.55300000       7.71500000      12.99300000
 H      10.99800000       8.62000000      11.83800000
 O      14.02400000       9.67900000      19.55400000
 H      14.70800000       9.19900000      20.04000000
 H      13.93200000       9.15000000      18.74700000
 O      12.10100000      14.09300000      17.42800000
 H      12.24600000      14.32100000      16.48800000
 H      12.78600000      13.38900000      17.65900000
 O      12.72500000      13.35800000      12.00400000
 H      11.80500000      13.02300000      12.23000000
 H      13.27400000      12.50700000      12.18900000
 O       7.76700000       9.06500000      13.84500000
 H       6.99000000       9.62700000      13.91300000
 H       7.34100000       8.27600000      13.46800000
