169
XYZ file of cluster: frame_13500_7076a.20a01.4dd10 - created by MolEdiTo
 O      23.32600000      10.01400000      10.98400000
 H      23.87400000       9.48900000      11.53700000
 H      22.85900000       9.30200000      10.51300000
 O      24.46900000       5.13800000      12.80300000
 H      24.66500000       5.74700000      12.11700000
 H      25.23000000       5.30700000      13.43600000
 O      25.71400000      12.13400000      20.00100000
 H      26.53800000      12.28100000      19.50000000
 H      25.20600000      12.97900000      19.82000000
 O      19.88500000      12.80400000      17.04300000
 H      20.54400000      12.56800000      16.29900000
 H      19.13600000      12.23900000      16.64200000
 O      19.49700000       6.30300000      19.71100000
 H      19.89700000       7.07000000      20.23600000
 H      19.61500000       5.48100000      20.21700000
 O      16.15800000       7.45200000      19.04200000
 H      16.65000000       6.62200000      19.11600000
 H      16.45100000       7.94800000      19.84400000
 O      26.01300000       6.32700000      15.68400000
 H      25.53400000       5.57300000      16.12900000
 H      25.62000000       7.07500000      16.22400000
 O      22.47600000       8.89700000      19.89200000
 H      23.22400000       9.43400000      20.26100000
 H      22.06200000       8.61300000      20.70300000
 O      18.68400000      15.08700000      18.59100000
 H      18.19900000      14.68900000      19.35400000
 H      19.01100000      14.20200000      18.22900000
 O      21.89300000       7.92600000      17.23800000
 H      22.12600000       8.69500000      17.80000000
 H      22.07700000       7.13000000      17.79500000
 O      18.56400000      14.37700000      11.72000000
 H      19.34100000      14.22200000      12.31600000
 H      17.82700000      14.59900000      12.28600000
 O      19.57000000       7.87000000      15.36000000
 H      18.77500000       8.42400000      15.33500000
 H      19.80600000       7.97100000      16.26300000
 O      22.80000000      13.27900000      21.09100000
 H      22.35300000      12.42200000      20.84700000
 H      22.18000000      13.70500000      21.68000000
 O      23.76100000      11.83300000      14.54800000
 H      23.11100000      12.48600000      14.17800000
 H      23.10800000      11.07100000      14.83200000
 C      14.76000000      16.13600000      17.01000000
 C      15.49000000      14.93700000      16.32300000
 C      16.07200000      15.96000000      13.97800000
 H      17.02300000      16.39500000      15.84300000
 H      15.31900000      15.29400000      18.45800000
 O      17.48800000      14.43300000      15.22800000
 O      14.59800000      17.24400000      16.47500000
 O      14.81500000      16.08700000      18.32700000
 C      16.55200000      15.51800000      15.38500000
 O      16.10700000      14.01300000      17.30200000
 H      14.79200000      14.40100000      15.80400000
 O      14.99700000      15.66100000      13.40500000
 O      16.80500000      16.94500000      13.42000000
 H      17.30400000      17.33100000      14.18600000
 H      16.38200000      13.21300000      16.81000000
 H      18.38600000      14.73000000      15.09800000
 O      24.99300000       9.38500000      14.10700000
 H      25.33800000       9.37200000      13.17600000
 H      25.01700000      10.41000000      14.16600000
 O      23.48800000      13.12400000      11.71300000
 H      23.39200000      12.19700000      11.43500000
 H      24.23500000      13.52200000      11.18800000
 O      17.30800000       7.63900000      10.26500000
 H      17.36900000       8.34600000      10.83400000
 H      17.35600000       6.91900000      10.97700000
 O      20.39500000      15.85500000      20.80500000
 H      20.76700000      16.74600000      20.91700000
 H      20.83000000      15.55400000      20.00400000
 O      20.65000000       9.47200000      12.43300000
 H      21.07800000       9.84500000      13.29800000
 H      21.14000000       8.66900000      12.44900000
 O      18.26500000       4.88400000      17.29400000
 H      18.81400000       5.42900000      17.90000000
 H      17.83900000       4.18500000      17.78300000
 O      21.79300000       9.94700000      15.03500000
 H      20.93100000       9.53700000      14.80100000
 H      22.32300000       9.40100000      15.66400000
 O      20.98900000      11.60500000      19.55700000
 H      20.56800000      12.05100000      18.75100000
 H      21.84100000      11.27600000      19.26300000
 O      21.68100000      15.53100000      18.24100000
 H      21.95100000      16.41000000      18.70700000
 H      22.39400000      14.87800000      18.45700000
 O      26.59200000      10.89600000      17.12200000
 H      26.38600000      11.46200000      16.33400000
 H      27.30000000      11.41200000      17.65900000
 O      15.43500000      14.52800000      20.75100000
 H      15.16800000      15.52800000      20.68700000
 H      15.91200000      14.43700000      21.60300000
 O      22.41700000      15.03600000      15.35900000
 H      23.41000000      15.17600000      15.48000000
 H      22.17800000      14.81100000      16.29100000
 O      18.26400000      11.49500000      14.83900000
 H      17.45700000      11.89100000      14.40000000
 H      17.76800000      10.77700000      15.22200000
 O      26.11800000      15.29000000      13.78400000
 H      25.85800000      16.07400000      14.35300000
 H      26.50000000      15.76000000      12.99800000
 O      19.14200000       9.31500000      18.49800000
 H      20.12100000       9.37900000      18.65000000
 H      18.88200000       8.46100000      18.95500000
 O      17.96900000      10.17000000      11.84200000
 H      18.68000000       9.92700000      12.36500000
 H      17.60900000      10.86600000      12.37700000
 O      16.62700000       5.99500000      12.43600000
 H      16.13200000       5.20100000      12.22900000
 H      16.64700000       5.97900000      13.40500000
 O      22.73800000      15.87000000      10.64900000
 H      22.90600000      15.20900000      11.40400000
 H      22.07200000      16.51500000      10.96900000
 O      25.28100000       8.48400000      17.50400000
 H      25.85600000       9.33600000      17.32900000
 H      24.70000000       8.82900000      18.23400000
 O      24.61700000      14.33100000      17.72200000
 H      24.78000000      14.81700000      18.56600000
 H      25.48500000      14.33700000      17.21000000
 O      26.75100000       8.85900000      20.43600000
 H      26.34400000       9.70800000      20.69500000
 H      27.40300000       8.55600000      21.13800000
 O      16.56200000      12.66100000      12.68400000
 H      16.26000000      13.50700000      12.99100000
 H      15.72700000      12.16000000      12.68500000
 O      24.13500000      10.25600000      21.31800000
 H      24.61700000      10.84200000      20.68700000
 H      24.78800000       9.98100000      22.08100000
 O      22.88400000       7.65600000      13.20200000
 H      23.28100000       8.18300000      13.97400000
 H      23.19200000       6.72200000      13.53900000
 O      19.56700000       5.11600000      11.07800000
 H      18.95500000       5.85400000      10.77900000
 H      18.92700000       4.36700000      11.02900000
 O      18.28100000      12.58800000      20.51400000
 H      19.28800000      12.53900000      20.48400000
 H      18.01700000      12.07700000      21.32000000
 O      16.46200000       6.19900000      15.51700000
 H      16.37300000       7.14500000      15.58100000
 H      17.22200000       6.03900000      16.15300000
 O      22.50600000       4.81300000      18.25100000
 H      21.98000000       5.37500000      17.55200000
 H      23.23800000       5.30400000      18.70400000
 O      20.13800000      15.65400000      13.34900000
 H      20.92900000      15.29200000      13.76300000
 H      20.38700000      16.61300000      13.09500000
 O      26.34500000       9.54700000      11.63600000
 H      26.88600000       8.68000000      11.41800000
 H      27.02500000      10.13900000      12.10400000
 O      22.04000000       7.51200000      10.22700000
 H      22.10300000       7.70100000      11.21100000
 H      22.34700000       6.58700000      10.05900000
 O      24.42500000       6.62000000      19.63300000
 H      25.41200000       6.71100000      19.48300000
 H      24.29800000       6.86400000      20.59500000
 O      23.70600000      11.45200000      17.71900000
 H      23.62700000      12.47100000      17.67000000
 H      24.69600000      11.32600000      17.67600000
 O      17.19500000      11.31400000      17.70800000
 H      16.55600000      11.42200000      18.46700000
 H      17.94600000      10.72100000      17.97800000
 O      20.86800000       5.19600000      15.78700000
 H      19.89100000       5.41200000      15.89600000
 H      21.27700000       6.06400000      15.55200000
 O      26.26300000      12.84100000      15.14200000
 H      26.32700000      13.72800000      14.76900000
 H      25.38600000      12.51200000      14.85200000
 O      16.95300000       9.09800000      15.50500000
 H      16.47600000       9.24400000      14.65300000
 H      16.37000000       9.01900000      16.25100000
