120
XYZ file of cluster: frame_13500_c6a01.4c343.9bbdc - created by MolEdiTo
 O      27.91900000      13.93000000      26.73100000
 H      28.27200000      14.57100000      26.05800000
 H      28.21600000      14.23500000      27.61700000
 O      30.15300000       9.78000000      24.44800000
 H      30.38500000      10.76600000      24.57800000
 H      29.17000000       9.83200000      24.31700000
 O      26.84500000      19.74600000      27.10200000
 H      26.86400000      20.62300000      27.60500000
 H      26.79500000      19.98300000      26.16200000
 O      30.08500000      20.91500000      29.37900000
 H      30.09800000      21.31600000      28.44800000
 H      30.75800000      20.28700000      29.52200000
 O      29.38700000      17.73900000      28.50500000
 H      28.65200000      17.80900000      29.21800000
 H      28.89200000      17.36400000      27.69700000
 O      29.86200000      13.90000000      20.27900000
 H      29.37600000      14.09100000      21.18500000
 H      30.18000000      14.77900000      20.13200000
 O      27.67700000      17.12900000      26.38500000
 H      27.16600000      16.72700000      25.61700000
 H      27.50800000      18.09300000      26.31900000
 O      30.17300000      21.48100000      26.85000000
 H      30.73900000      21.90800000      26.21000000
 H      30.59700000      20.57100000      26.79300000
 O      26.64800000      16.07500000      23.92300000
 H      26.11300000      15.31600000      23.51400000
 H      26.30700000      16.93700000      23.60300000
 O      28.73900000      19.74000000      24.60000000
 H      29.36400000      19.33300000      25.25100000
 H      29.33700000      20.30700000      24.05000000
 O      26.71900000       9.97600000      23.22600000
 H      27.13500000      10.82200000      23.26100000
 H      26.43200000       9.77500000      24.07600000
 O      29.05200000      11.44200000      21.32900000
 H      29.49200000      12.23600000      20.98100000
 H      28.86900000      11.04400000      20.42700000
 O      26.83800000      15.79300000      29.00700000
 H      26.26800000      15.03000000      28.90900000
 H      27.09300000      16.06200000      28.14200000
 O      29.16100000      11.28500000      30.17800000
 H      28.36400000      10.79700000      29.78400000
 H      29.64500000      10.49200000      30.59100000
 O      29.01700000      14.17100000      29.19600000
 H      28.34200000      14.70000000      29.79200000
 H      28.97100000      13.31800000      29.68700000
 O      29.76800000      17.36400000      21.97700000
 H      30.30800000      17.94800000      22.63000000
 H      30.01700000      17.92500000      21.14200000
 O      28.05100000      14.70500000      22.09200000
 H      27.94100000      15.35700000      22.80900000
 H      27.86400000      15.10300000      21.21800000
 O      26.96300000      18.28500000      22.45500000
 H      26.95400000      18.76200000      21.56400000
 H      27.58200000      18.78000000      23.04200000
 O      28.14700000      12.31400000      24.07000000
 H      27.87300000      12.78600000      24.91300000
 H      28.03900000      13.03400000      23.31800000
 O      26.43000000      11.08000000      27.30400000
 H      27.02500000      11.60200000      27.88200000
 H      25.78200000      11.70900000      27.17100000
 O      29.49000000      15.49400000      24.62900000
 H      29.95900000      15.90700000      23.87500000
 H      28.97100000      16.20600000      25.02100000
 O      34.46300000      12.57000000      21.93500000
 H      34.84200000      11.71800000      22.21500000
 H      33.82600000      12.40100000      21.21700000
 O      32.65600000      18.84700000      26.50600000
 H      33.52200000      18.44200000      26.74500000
 H      31.97900000      18.30300000      26.91700000
 O      36.42900000      15.11100000      29.51200000
 H      37.15900000      15.67300000      29.89100000
 H      35.79200000      15.13900000      30.27100000
 O      33.15200000      18.56400000      23.87200000
 H      33.93300000      17.99800000      23.71300000
 H      32.91300000      18.52600000      24.78900000
 O      33.22600000      11.41700000      27.19100000
 H      32.87500000      12.15100000      26.58600000
 H      33.91800000      11.83600000      27.73900000
 O      34.72100000      15.42300000      22.10800000
 H      34.27000000      15.50400000      22.97500000
 H      34.83000000      14.43200000      21.94500000
 O      36.98700000      18.71700000      30.38800000
 H      37.37700000      19.16700000      29.53200000
 H      36.16500000      19.16900000      30.70900000
 O      33.13000000      14.81700000      27.93400000
 H      33.81100000      14.58500000      28.51000000
 H      32.36200000      14.28500000      28.19900000
 O      35.85000000      20.60900000      23.45200000
 H      36.15800000      20.33600000      22.54800000
 H      34.95600000      20.23700000      23.43900000
 O      36.39800000      17.09600000      20.58800000
 H      36.50500000      17.96200000      21.06800000
 H      35.89900000      16.53100000      21.20100000
 O      35.76500000      18.30300000      25.16700000
 H      35.70200000      19.21400000      25.59100000
 H      36.39600000      18.45800000      24.44500000
 O      36.84000000      15.19100000      26.70800000
 H      37.28700000      15.71800000      27.40500000
 H      36.85000000      14.25800000      27.01900000
 O      35.26500000      12.76700000      24.53600000
 H      34.55100000      13.23400000      24.99500000
 H      34.91600000      12.07200000      23.92700000
 O      34.65900000      12.34700000      29.61300000
 H      34.40500000      11.65000000      30.26600000
 H      35.09400000      11.83700000      28.87500000
 O      34.37000000      17.93900000      28.64000000
 H      34.94800000      17.19500000      28.65700000
 H      33.51000000      17.35200000      28.52000000
 O      34.57900000      21.05600000      28.15800000
 H      35.31400000      20.53000000      28.41500000
 H      34.32000000      21.50000000      28.99400000
 O      32.66100000      13.29600000      25.23900000
 H      32.23700000      12.98300000      24.45500000
 H      32.16300000      14.15500000      25.46700000
 O      36.40800000      12.12000000      27.34500000
 H      36.18200000      12.32000000      26.38700000
 H      37.36900000      11.81600000      27.31800000
 O      34.51800000      15.85400000      25.02500000
 H      34.83400000      15.47700000      25.88200000
 H      35.02000000      16.71200000      25.03900000
