96
XYZ file of cluster: frame_5000_cab7f.c440c.c85b2 - created by MolEdiTo
 O      26.35900000      28.38100000      26.98300000
 H      26.40900000      27.82200000      27.78300000
 H      27.27800000      28.59300000      26.78300000
 O      28.66400000      26.31200000      26.30800000
 H      28.69800000      27.24700000      26.05800000
 H      29.46000000      25.89800000      25.88600000
 O      30.13000000      30.50500000      28.94200000
 H      30.78700000      30.52900000      29.66600000
 H      29.22800000      30.86500000      29.21100000
 O      30.04200000      26.26400000      35.37300000
 H      30.35000000      26.87800000      36.11600000
 H      30.85400000      25.78100000      35.41500000
 O      27.73500000      26.65300000      37.26400000
 H      27.17000000      26.11500000      37.79500000
 H      28.33800000      26.05800000      36.72900000
 O      27.59200000      27.07700000      34.13100000
 H      27.09600000      26.23600000      34.25000000
 H      28.45900000      26.87300000      34.59300000
 O      26.62200000      29.82800000      34.43500000
 H      26.98900000      28.82800000      34.39200000
 H      27.12400000      30.31200000      33.73700000
 O      29.50700000      36.41400000      28.02200000
 H      29.27300000      35.45800000      27.82000000
 H      30.19800000      36.61100000      27.24900000
 O      27.92800000      34.22600000      26.95100000
 H      28.66600000      33.91600000      26.32500000
 H      27.10100000      33.79000000      26.72300000
 O      27.21900000      35.83100000      30.43900000
 H      27.02400000      36.60200000      31.04000000
 H      27.04800000      36.18800000      29.54700000
 O      28.12000000      35.36700000      37.20500000
 H      28.70400000      35.51200000      36.42700000
 H      28.55500000      34.71600000      37.79900000
 O      29.54900000      35.75700000      33.56400000
 H      30.17200000      35.26000000      32.93800000
 H      28.88900000      36.18300000      32.97300000
 O      27.90500000      33.32000000      32.50400000
 H      27.47800000      34.20100000      32.23000000
 H      28.52800000      33.59400000      33.19000000
 O      30.74900000      36.09300000      35.78300000
 H      31.40200000      36.83700000      35.68400000
 H      30.47800000      36.01000000      34.84200000
 O      33.38600000      27.10600000      27.05200000
 H      34.00800000      27.68900000      27.70400000
 H      32.55500000      27.62700000      27.10800000
 O      35.95900000      25.83400000      28.80900000
 H      36.08400000      26.78700000      29.13100000
 H      36.32000000      25.83600000      27.87600000
 O      35.20600000      30.91400000      27.06100000
 H      34.54100000      31.59800000      27.24600000
 H      35.88000000      31.31000000      26.47200000
 O      34.86900000      28.75600000      29.07600000
 H      34.69000000      29.58500000      28.60600000
 H      35.80700000      28.51900000      28.97500000
 O      34.93600000      25.90900000      32.95800000
 H      34.98500000      25.49900000      32.05800000
 H      35.65900000      26.58100000      32.97500000
 O      36.16100000      28.10700000      36.25000000
 H      36.20700000      28.40400000      35.30900000
 H      36.87500000      28.61700000      36.71100000
 O      33.41300000      28.49100000      33.43100000
 H      33.80200000      27.94900000      32.67900000
 H      33.33900000      27.79100000      34.14500000
 O      37.49800000      30.18800000      34.14100000
 H      36.69600000      30.64000000      34.10700000
 H      38.16300000      30.87300000      34.52600000
 O      37.22000000      34.56200000      26.76800000
 H      38.15200000      34.62800000      26.30800000
 H      36.78700000      35.46300000      26.85700000
 O      36.73500000      36.65200000      30.53300000
 H      37.46500000      36.71400000      29.83700000
 H      35.84000000      36.45800000      30.12000000
 O      33.74300000      36.68900000      29.36600000
 H      32.75400000      36.89800000      29.37700000
 H      34.08200000      37.41500000      29.96600000
 O      35.77100000      36.98600000      27.58400000
 H      35.12600000      37.66400000      27.98400000
 H      36.46000000      37.72600000      27.46300000
 O      35.32900000      34.23400000      29.42500000
 H      34.95100000      35.04000000      29.00700000
 H      36.06200000      34.11200000      28.76800000
 O      33.56100000      34.72300000      27.32300000
 H      33.39200000      35.56800000      27.79700000
 H      34.17800000      35.10500000      26.62700000
 O      35.44600000      35.12100000      35.07800000
 H      35.10500000      36.03300000      35.19600000
 H      34.93500000      34.72200000      34.29300000
 O      34.05200000      33.62800000      33.33800000
 H      34.36400000      33.98300000      32.48700000
 H      34.14900000      32.68900000      33.05500000
 O      37.27000000      33.96500000      37.06000000
 H      36.94400000      34.78100000      37.57000000
 H      36.66700000      33.93600000      36.28100000
 O      33.70000000      33.07700000      36.62800000
 H      33.01800000      32.71600000      36.05500000
 H      33.88100000      33.93800000      36.23700000
