145
XYZ file of cluster: frame_5000_27bed.20534.5379a - created by MolEdiTo
 O      11.93300000       9.52100000      14.09900000
 H      12.14500000      10.18400000      14.76500000
 H      11.20000000       9.97200000      13.63000000
 O      12.29400000       7.25900000      11.28000000
 H      11.38800000       7.24400000      11.64700000
 H      12.61100000       7.85900000      11.96000000
 O       6.91100000      15.97900000      18.08800000
 H       7.28500000      15.69000000      17.21500000
 H       6.99600000      15.27100000      18.81400000
 O      10.68400000       5.46400000      19.91400000
 H      10.72400000       6.33500000      20.33500000
 H      10.95800000       5.80000000      19.01200000
 O      15.36600000       8.93400000      18.95300000
 H      14.97300000       8.07900000      18.70000000
 H      16.01100000       8.48300000      19.63200000
 O      11.97900000      11.54100000      11.47800000
 H      12.90600000      11.29000000      11.88400000
 H      11.86700000      10.91600000      10.81800000
 O      13.44800000      11.21100000      15.96800000
 H      12.76800000      11.34700000      16.57500000
 H      14.24100000      11.07800000      16.58200000
 O      14.92700000       6.15100000      12.52000000
 H      15.29200000       5.87800000      11.67000000
 H      14.53000000       7.02300000      12.22200000
 O       5.58400000       7.84200000      16.87400000
 H       6.20900000       8.55300000      16.55600000
 H       5.35500000       7.25800000      16.15700000
 O       7.94400000      14.83200000      20.99200000
 H       8.47300000      15.44900000      21.54100000
 H       7.31300000      14.41800000      21.67000000
 O       7.29600000       7.21800000      19.59200000
 H       6.52000000       7.64200000      19.84200000
 H       7.83000000       7.97700000      19.37100000
 O       8.11900000      12.88600000      18.93900000
 H       9.05500000      12.82500000      18.63100000
 H       8.14800000      13.50700000      19.70700000
 C      17.15300000      16.99100000      15.74700000
 C      16.47300000      15.79600000      15.06000000
 C      14.83300000      15.11700000      16.95100000
 H      14.54800000      16.64500000      15.46900000
 H      18.57700000      16.67600000      14.65900000
 O      14.17900000      14.85800000      14.65100000
 O      16.61600000      17.70200000      16.51400000
 O      18.24200000      17.49000000      15.14300000
 C      14.97600000      15.63900000      15.49100000
 O      16.56800000      16.04800000      13.67700000
 H      17.07700000      14.90800000      15.30900000
 O      15.16700000      15.74000000      17.93900000
 O      14.17900000      13.91400000      17.01300000
 H      14.07300000      13.74100000      16.05500000
 H      16.81300000      15.20700000      13.22800000
 H      13.42800000      15.47200000      14.26700000
 O       9.05300000      11.97700000      13.16200000
 H       9.82800000      12.50300000      12.77700000
 H       9.17400000      11.99300000      14.17300000
 O      14.08800000       6.07100000      18.21800000
 H      14.20900000       5.83600000      17.30100000
 H      14.27800000       5.26600000      18.73200000
 O      11.31300000      11.65300000      18.68400000
 H      12.18300000      11.35300000      19.03300000
 H      11.04000000      12.35500000      19.34000000
 O      12.12500000       7.39400000      16.20400000
 H      11.96700000       8.19500000      15.71100000
 H      11.37400000       7.13000000      16.70000000
 O       8.04100000       7.22000000      14.49500000
 H       8.24200000       6.40700000      14.08300000
 H       7.08100000       7.43200000      14.34700000
 O      15.97500000      13.56700000      11.80600000
 H      16.32100000      13.36100000      10.87200000
 H      14.97000000      13.53500000      11.81200000
 O       7.75500000      15.42600000      15.50200000
 H       7.23200000      14.96100000      14.83600000
 H       8.37200000      16.06500000      14.99400000
 O       9.18800000       7.04400000      11.55600000
 H       9.10800000       7.52000000      10.78500000
 H       8.68200000       7.65900000      12.21500000
 O       6.88300000      10.17600000      15.16700000
 H       6.40700000      10.52300000      14.43400000
 H       7.71200000       9.79800000      14.76000000
 O      16.19500000       9.73600000      12.87800000
 H      15.64700000      10.51500000      12.59000000
 H      16.26500000       9.82100000      13.82200000
 O       7.26700000       4.53900000      18.91400000
 H       7.35000000       5.55300000      18.91200000
 H       7.32700000       4.20000000      17.97100000
 O       7.86600000       9.54000000      12.35700000
 H       8.32600000       9.69900000      11.48100000
 H       8.27600000      10.22000000      12.83400000
 O      13.13200000      11.60300000      21.22000000
 H      13.34800000      12.47500000      20.90100000
 H      13.78500000      11.46100000      21.94000000
 O      11.48100000      13.37400000      14.73800000
 H      11.65700000      14.32800000      14.88700000
 H      10.73400000      13.19000000      15.35900000
 O      13.04100000      14.24800000      11.63100000
 H      12.72400000      13.73700000      12.41300000
 H      12.87500000      15.18900000      11.88300000
 O      14.31900000      13.70000000      19.86800000
 H      15.03200000      13.25100000      19.41200000
 H      13.76700000      13.86800000      19.02900000
 O       9.15300000       6.53700000      17.19000000
 H       8.86000000       7.22100000      17.84300000
 H       8.94700000       6.93100000      16.29800000
 O      12.30100000       8.00400000      19.30300000
 H      12.79200000       8.52200000      19.94400000
 H      12.95500000       7.37300000      18.87600000
 O       7.72700000      10.17200000      20.55100000
 H       8.10000000      11.03800000      20.17400000
 H       6.95500000      10.16700000      19.98700000
 O      15.64000000       8.66200000      15.96600000
 H      14.93200000       7.99800000      15.96100000
 H      16.11600000       8.25900000      16.68800000
 O      14.17500000      11.69800000      13.20100000
 H      13.50900000      11.60600000      13.93300000
 H      14.56800000      12.52900000      13.59800000
 O       6.27300000      14.46900000      11.11100000
 H       5.56500000      15.10300000      10.93400000
 H       7.12400000      14.97000000      11.30600000
 O       9.66600000       9.02900000      18.55900000
 H      10.55900000       8.79700000      18.79500000
 H       9.53000000       9.69800000      19.26500000
 O       9.71600000      11.82400000      15.90200000
 H       8.95500000      11.17100000      16.03900000
 H      10.26600000      11.75500000      16.69600000
 O      14.63800000       6.01900000      15.39900000
 H      14.63300000       5.64400000      14.50300000
 H      13.66800000       6.28700000      15.41700000
 O      16.01900000      11.53600000      17.98500000
 H      15.96900000      11.39000000      17.02400000
 H      15.83800000      10.62400000      18.25400000
 O       5.88400000      10.22500000      18.74000000
 H       6.00600000      11.16900000      18.45400000
 H       5.16800000       9.87400000      18.21700000
 O       5.69700000      13.47200000      16.62300000
 H       6.51800000      13.51300000      16.17100000
 H       5.26600000      12.60800000      16.39600000
 O      11.12300000      14.32300000      20.34900000
 H      10.87300000      15.25500000      20.23100000
 H      12.03100000      14.48000000      20.66700000
 O       5.79800000      11.80600000      12.66200000
 H       6.51100000      11.72000000      11.99000000
 H       5.83000000      12.78400000      12.60300000
 O      10.19100000      14.71800000      17.29000000
 H       9.33200000      14.60700000      16.83300000
 H      10.10700000      15.36800000      18.06600000
