135
XYZ file of cluster: frame_5000_22e09.22616.c093c - created by MolEdiTo
 O       8.35800000      15.30500000      28.66500000
 H       7.95000000      15.73100000      29.42000000
 H       9.25100000      15.02800000      28.99000000
 O       7.41900000       8.26600000      27.76100000
 H       7.05100000       8.60000000      26.85900000
 H       8.23300000       7.73400000      27.48900000
 O       9.32900000       5.74700000      27.11400000
 H       9.51000000       4.78300000      27.15200000
 H      10.07200000       6.09000000      26.58300000
 O      11.57200000       7.86600000      30.00500000
 H      11.31200000       8.33000000      30.85200000
 H      10.72900000       7.83000000      29.46000000
 O      15.11700000       4.53800000      28.40700000
 H      15.09000000       5.52800000      28.16600000
 H      14.28100000       4.46700000      28.91800000
 O      15.69900000      14.52100000      27.35100000
 H      15.91000000      15.18300000      28.07600000
 H      16.39500000      13.87200000      27.54800000
 O       5.32500000      10.48700000      30.30200000
 H       5.60400000       9.51600000      30.34000000
 H       4.53500000      10.53400000      29.67700000
 O      14.64000000       7.31800000      27.69900000
 H      15.02600000       8.22200000      27.53600000
 H      14.59900000       7.01400000      26.73500000
 O      11.12300000      14.42200000      29.39600000
 H      11.74300000      13.73000000      29.34400000
 H      11.65600000      15.08900000      29.89700000
 O      12.22800000       5.80500000      27.16300000
 H      12.06100000       6.58100000      26.49300000
 H      12.76200000       6.21300000      27.85900000
 O       5.40700000      13.76100000      28.05700000
 H       6.09400000      14.42400000      27.77500000
 H       5.48500000      13.78800000      28.99400000
 O      15.81500000      11.58600000      30.66000000
 H      15.95300000      10.58100000      30.74900000
 H      16.27100000      11.68200000      29.86200000
 O      12.52800000      14.96000000      26.70200000
 H      11.78700000      14.33400000      26.46500000
 H      13.40300000      14.48400000      26.71500000
 O       6.80000000      12.96000000      25.52100000
 H       6.11400000      13.15600000      24.88100000
 H       6.26300000      12.75300000      26.32800000
 O      16.11300000       9.80800000      27.81500000
 H      15.78600000       9.91600000      28.77900000
 H      15.50400000      10.24800000      27.24900000
 O       8.32100000      10.51100000      29.13200000
 H       7.48000000      11.00200000      29.25800000
 H       8.02600000       9.98500000      28.34300000
 O      13.58000000      10.22600000      26.14700000
 H      13.12700000       9.87800000      25.35700000
 H      13.05000000      10.99400000      26.45000000
 O      15.42700000       8.53700000      30.34100000
 H      15.35700000       7.55400000      30.14800000
 H      14.74200000       8.72600000      31.01400000
 O      13.16400000      12.77900000      30.20500000
 H      14.08700000      13.29900000      30.19400000
 H      13.46900000      11.93100000      29.78300000
 O       8.97000000       7.14800000      30.16400000
 H       8.33000000       7.68600000      29.53900000
 H       8.74000000       6.22500000      29.88700000
 O       6.91700000       5.21800000      28.59600000
 H       7.76700000       4.78400000      28.48800000
 H       7.01200000       5.70600000      27.69400000
 O       9.45100000      10.75300000      26.40500000
 H       9.80300000      11.60600000      26.74900000
 H       8.46300000      10.84000000      26.18400000
 O      13.30600000      10.20900000      29.15500000
 H      13.82400000       9.37300000      29.13300000
 H      12.37800000       9.97400000      29.31000000
 O      10.65400000      15.70700000      33.96500000
 H      11.04500000      15.47400000      34.77300000
 H      10.55300000      14.81800000      33.54000000
 O      13.51800000      15.06400000      35.78300000
 H      13.05500000      14.71000000      36.55200000
 H      13.63500000      14.26900000      35.24800000
 O       7.40700000      10.29200000      36.18200000
 H       7.73400000       9.68000000      35.45100000
 H       6.46100000      10.00100000      36.29300000
 O      11.46100000       5.72800000      33.39200000
 H      11.52700000       6.62100000      32.87400000
 H      10.54100000       5.71400000      33.61600000
 O      10.29500000       7.24400000      36.90200000
 H       9.30400000       7.39000000      36.69000000
 H      10.29100000       6.63200000      37.63100000
 O      14.29200000       5.45500000      33.48400000
 H      13.28900000       5.56700000      33.53200000
 H      14.50400000       4.49300000      33.61400000
 O      15.63400000       9.53200000      35.59100000
 H      15.80900000       9.12200000      36.42100000
 H      14.66900000       9.64500000      35.52900000
 O       8.71100000       8.59200000      34.52500000
 H       8.19800000       7.74900000      34.34200000
 H       8.95500000       8.89200000      33.57800000
 O      12.10900000      13.01900000      37.29300000
 H      11.36100000      12.54900000      37.59100000
 H      12.33700000      12.72800000      36.39100000
 O      10.31500000      10.41200000      32.56700000
 H      10.28000000      11.12300000      33.29800000
 H       9.60400000      10.63200000      31.97500000
 O      12.68900000       8.41100000      35.80600000
 H      11.76300000       8.08800000      36.07500000
 H      13.18000000       7.60600000      36.19900000
 O       6.08200000       5.87900000      34.73100000
 H       5.54300000       5.25400000      35.33800000
 H       6.08900000       5.59400000      33.73100000
 O       6.09300000      12.95900000      34.97500000
 H       5.59100000      13.74800000      35.15500000
 H       5.93900000      12.72800000      34.04800000
 O      14.65600000       6.15700000      36.49400000
 H      15.62900000       6.08500000      36.11700000
 H      14.12100000       5.70600000      35.74900000
 O      15.69900000      12.90900000      34.53600000
 H      15.28100000      12.47300000      35.38700000
 H      15.84000000      12.12600000      33.91000000
 O      12.04500000       4.52200000      36.18200000
 H      11.90400000       5.33000000      35.58100000
 H      11.90200000       4.86900000      37.07400000
 O      10.68400000      15.79600000      36.78400000
 H      10.58400000      15.17900000      37.59300000
 H       9.83300000      16.35700000      36.81400000
 O      13.25500000       9.69700000      33.50900000
 H      12.37800000       9.84600000      33.02700000
 H      13.09000000       9.51100000      34.46400000
 O       9.25100000      12.67900000      34.53700000
 H       9.46800000      12.33200000      35.38600000
 H       8.24300000      12.62200000      34.65300000
 O      12.40800000      12.61300000      34.17600000
 H      12.66200000      12.53500000      33.20200000
 H      12.92200000      11.86100000      34.65600000
 O      10.12700000      10.71100000      37.16100000
 H       9.17400000      10.45200000      36.90200000
 H      10.57800000      10.09500000      36.53600000
 O       6.21300000       7.78900000      32.42400000
 H       6.18500000       7.08700000      33.01000000
 H       6.89000000       7.52100000      31.76300000
