102
XYZ file of cluster: frame_5000_c4366.263c7.9b90a - created by MolEdiTo
 O      29.69200000       7.18100000      30.52200000
 H      29.33100000       7.10900000      29.63600000
 H      30.55500000       7.56800000      30.41900000
 O      27.19200000       7.16700000      28.55000000
 H      27.57300000       7.11900000      27.66300000
 H      26.51200000       7.85500000      28.61900000
 O      30.82200000      15.43800000      27.97200000
 H      29.97000000      14.99200000      27.88800000
 H      30.51000000      16.37400000      28.20600000
 O      26.45700000      11.62600000      28.40400000
 H      26.23300000      12.53000000      28.02200000
 H      26.16700000      11.65100000      29.41800000
 O      25.95900000       8.49700000      23.71900000
 H      26.87100000       8.62400000      23.32400000
 H      25.51300000       9.23200000      23.26300000
 O      30.40000000       8.42900000      26.46600000
 H      29.82200000       7.73600000      26.08800000
 H      29.65900000       9.05400000      26.71000000
 O      29.97600000      13.54300000      22.36400000
 H      30.65200000      12.92000000      22.29800000
 H      29.78400000      13.52600000      23.32300000
 O      30.70400000      12.05000000      25.31600000
 H      30.15700000      11.39300000      25.68900000
 H      31.36100000      12.34600000      26.00800000
 O      27.72500000      14.14000000      25.25500000
 H      27.28100000      14.03800000      26.15100000
 H      28.36000000      14.84300000      25.45300000
 O      27.99500000       6.71000000      25.63900000
 H      27.46400000       6.73600000      24.78800000
 H      27.70000000       5.91700000      26.08600000
 O      30.17500000       7.15200000      23.39500000
 H      29.48800000       6.48400000      23.11900000
 H      30.15000000       7.79700000      22.64100000
 O      28.61900000      10.50900000      26.78200000
 H      28.18500000      10.58700000      25.85000000
 H      28.06800000      11.06400000      27.29200000
 O      27.29900000      13.92100000      21.52700000
 H      26.95600000      13.19300000      20.93600000
 H      28.27600000      13.82600000      21.57200000
 O      26.66600000      11.46200000      24.98800000
 H      25.69000000      11.61900000      24.94300000
 H      27.04400000      12.34900000      24.91800000
 O      29.07300000      12.11300000      30.45200000
 H      28.47300000      12.76300000      30.00700000
 H      28.84700000      12.34900000      31.39300000
 O      27.05100000       6.87800000      21.23100000
 H      27.50200000       6.56100000      22.04600000
 H      27.72700000       6.73800000      20.54000000
 O      36.35300000       8.49700000      20.83900000
 H      36.11200000       9.39400000      21.04900000
 H      35.46000000       8.10700000      20.92400000
 O      35.41000000      11.38600000      28.13100000
 H      35.37900000      12.33800000      27.89200000
 H      35.56600000      10.85000000      27.33600000
 O      35.91500000      13.60200000      24.61600000
 H      35.27700000      13.61000000      25.40100000
 H      35.60400000      14.41200000      24.24500000
 O      35.09000000       8.18600000      27.39300000
 H      34.07100000       8.07000000      27.28200000
 H      35.35700000       9.12800000      27.39000000
 O      34.68900000      15.67700000      22.63900000
 H      35.37200000      15.11400000      22.08400000
 H      35.19100000      16.48000000      22.80700000
 O      35.71100000      11.52200000      20.96400000
 H      35.10200000      11.69600000      21.70400000
 H      35.28400000      11.74700000      20.09900000
 O      32.82100000       5.70500000      26.19600000
 H      32.81700000       6.65800000      26.45900000
 H      33.52800000       5.60200000      25.46500000
 O      33.74300000       4.96800000      29.36600000
 H      32.75400000       5.17700000      29.37700000
 H      34.08200000       5.69400000      29.96600000
 O      34.51700000       7.93600000      23.65700000
 H      34.94500000       7.30900000      24.30600000
 H      33.58800000       7.70800000      23.80200000
 O      32.62000000       9.04100000      21.27100000
 H      31.74500000       9.53600000      21.11800000
 H      32.86500000       8.61500000      20.43700000
 O      35.83500000      10.44500000      25.36200000
 H      35.56100000       9.92600000      24.54000000
 H      35.82900000      11.34700000      25.13900000
 O      34.38800000      14.00100000      26.72700000
 H      34.98000000      14.36800000      27.42100000
 H      33.60400000      14.61900000      26.91400000
 O      35.77100000       5.26500000      27.58400000
 H      35.12600000       5.94300000      27.98400000
 H      36.46000000       6.00500000      27.46300000
 O      33.78700000      11.40000000      22.77300000
 H      33.53100000      10.48200000      22.49500000
 H      33.40400000      11.42400000      23.63000000
 O      34.67900000       5.92800000      21.28800000
 H      34.25900000       4.98500000      21.34300000
 H      34.82900000       6.18100000      22.25300000
 O      36.20500000      16.33500000      30.24700000
 H      35.88000000      15.35000000      30.03500000
 H      35.38800000      16.84300000      30.50600000
 O      37.07000000      10.48700000      30.30200000
 H      37.34900000       9.51600000      30.34000000
 H      36.28000000      10.53400000      29.67700000
 O      33.72100000      10.08600000      30.02900000
 H      33.83400000      10.12400000      29.07700000
 H      33.67600000      10.98900000      30.36800000
