99
XYZ file of cluster: frame_500_c641b.76de.9c607 - created by MolEdiTo
 O      27.02900000       7.45300000      30.65700000
 H      26.30700000       7.71200000      30.04100000
 H      26.52000000       7.18400000      31.46200000
 O      27.66200000       2.13400000      30.34900000
 H      27.39500000       1.26300000      30.77800000
 H      26.87700000       2.51100000      29.82500000
 O      26.56200000       6.90100000      20.85400000
 H      27.19800000       6.79100000      21.56800000
 H      25.65700000       6.59400000      21.18200000
 O      30.22600000       8.64700000      28.79800000
 H      29.96500000       8.64300000      29.76300000
 H      31.05600000       9.18600000      28.79800000
 O      30.03000000       3.09900000      29.70300000
 H      29.09100000       2.84500000      29.88100000
 H      30.03900000       4.07500000      29.76700000
 O      28.46700000       4.79600000      25.35600000
 H      28.96400000       5.41400000      24.71100000
 H      28.93200000       4.98400000      26.23800000
 O      30.21700000       2.09100000      23.37700000
 H      30.26300000       2.28100000      24.31000000
 H      29.31700000       1.90900000      23.02400000
 O      28.01200000       1.85400000      26.82300000
 H      27.56400000       2.65500000      27.18300000
 H      28.55700000       1.97300000      25.99000000
 O      28.14700000       7.56000000      22.93600000
 H      28.75200000       8.00300000      23.51300000
 H      27.29700000       7.58400000      23.38000000
 O      26.72500000       7.08600000      27.03000000
 H      27.13900000       7.98500000      26.93200000
 H      27.30900000       6.38200000      26.59000000
 O      29.01500000       9.62500000      24.54400000
 H      28.90500000      10.58400000      24.54700000
 H      28.31800000       9.33000000      25.15700000
 O      27.71800000       9.54500000      26.94600000
 H      28.62400000       9.30200000      27.21600000
 H      27.35800000      10.20800000      27.60000000
 O      26.26100000       3.83100000      26.85400000
 H      26.76400000       4.69100000      26.77400000
 H      25.89800000       3.61000000      25.93900000
 O      29.64300000       6.22400000      27.58000000
 H      29.13600000       5.80100000      28.27000000
 H      29.91100000       7.05100000      28.09400000
 O      28.22500000       5.20200000      30.21900000
 H      27.79300000       6.04700000      30.41400000
 H      27.63100000       4.47200000      30.52200000
 O      30.37700000       6.12700000      23.57400000
 H      29.89400000       6.85700000      23.05900000
 H      30.86100000       5.64000000      22.85400000
 O      27.13300000       4.61200000      22.81100000
 H      27.42800000       4.45200000      23.73200000
 H      27.51000000       3.97000000      22.20500000
 O      35.44500000       7.45800000      21.05700000
 H      35.60400000       7.12400000      20.15200000
 H      35.20600000       8.36600000      20.88000000
 O      35.05800000       2.76600000      24.12200000
 H      35.08800000       3.70300000      23.72900000
 H      34.68700000       2.26000000      23.33300000
 O      35.16400000       5.00600000      22.24400000
 H      36.10900000       4.89400000      22.49800000
 H      35.09000000       5.94100000      21.83900000
 O      35.83200000       2.10800000      30.53800000
 H      35.15400000       2.84100000      30.82700000
 H      36.05900000       2.16200000      29.59600000
 O      34.26200000       9.76100000      29.55200000
 H      34.34000000      10.01200000      30.50800000
 H      34.17800000      10.55400000      28.99900000
 O      36.26100000       5.75900000      29.79800000
 H      35.95300000       6.45800000      29.19900000
 H      37.15400000       5.47300000      29.47500000
 O      35.49600000       2.17200000      27.61900000
 H      34.89600000       1.41700000      27.51000000
 H      36.29900000       2.03700000      27.13300000
 O      33.81600000      10.93700000      21.99100000
 H      33.86400000      10.15000000      21.40800000
 H      34.55300000      11.48600000      21.69000000
 O      37.23800000       1.61100000      25.55900000
 H      37.86400000       1.18600000      24.98600000
 H      36.51000000       1.97800000      25.02500000
 O      32.55500000       2.23000000      26.85400000
 H      32.26700000       2.12800000      27.78400000
 H      33.24000000       2.95500000      26.69400000
 O      35.05900000       8.81900000      25.74200000
 H      34.29400000       9.34000000      25.39300000
 H      35.81000000       9.39700000      25.81000000
 O      34.61400000       5.97700000      25.10000000
 H      34.47500000       6.90800000      25.39700000
 H      33.69400000       5.70000000      24.73000000
 O      33.98000000       1.89400000      21.80700000
 H      34.36500000       0.95500000      21.82100000
 H      33.14800000       1.83800000      22.35500000
 O      34.94200000       7.42200000      28.13700000
 H      35.03800000       7.77200000      27.24700000
 H      34.52700000       8.17000000      28.63100000
 O      37.27000000       7.87300000      23.50600000
 H      36.30900000       8.02200000      23.29300000
 H      37.56700000       8.76100000      23.96500000
 O      37.05300000       4.89500000      25.02800000
 H      36.24200000       5.45200000      25.00900000
 H      36.85800000       4.27900000      25.69800000
