138
XYZ file of cluster: frame_500_9cf66.74e5b.22c7a - created by MolEdiTo
 O      24.16100000      15.89100000       6.49200000
 H      23.83300000      15.02700000       6.25300000
 H      24.72300000      15.73700000       7.30200000
 O      30.48800000      21.11100000      16.04000000
 H      31.38100000      21.40700000      16.40900000
 H      30.10800000      21.98200000      15.70800000
 O      28.66400000      22.76900000       5.09500000
 H      28.29900000      23.44700000       4.48200000
 H      28.01500000      22.79000000       5.88500000
 O      24.97900000      20.13900000      12.89900000
 H      25.05900000      21.05000000      13.15600000
 H      24.10700000      20.12400000      12.36500000
 O      30.74600000      16.83500000      11.34800000
 H      30.35600000      15.94000000      11.44500000
 H      30.89900000      17.15400000      12.23500000
 O      22.29100000      18.00600000      12.22600000
 H      23.07200000      17.35100000      12.34900000
 H      22.71200000      18.73600000      11.70400000
 O      24.33700000      20.36900000       7.08400000
 H      23.87100000      20.82300000       7.80600000
 H      24.29800000      20.86900000       6.26900000
 O      21.05600000      16.45100000       8.61200000
 H      20.70000000      17.15600000       9.11700000
 H      21.69500000      16.90500000       7.99400000
 O      26.03700000      18.42600000       8.14000000
 H      26.83800000      18.43300000       7.67600000
 H      25.36500000      18.93000000       7.64400000
 O      24.25200000      25.89500000       6.10000000
 H      25.01500000      25.33900000       6.13700000
 H      24.07500000      26.17200000       5.11500000
 O      21.77500000      20.99000000       8.94700000
 H      21.60500000      21.41700000       8.12400000
 H      21.24500000      21.49200000       9.57700000
 O      22.15800000      24.06100000       4.92100000
 H      22.98100000      24.60400000       5.15900000
 H      21.59200000      24.33400000       5.61600000
 O      26.41000000      22.81900000       7.61400000
 H      25.47100000      23.15200000       7.87300000
 H      26.71600000      22.28400000       8.35500000
 O      24.72700000      19.20800000      15.73200000
 H      24.90600000      19.07200000      14.81300000
 H      24.03900000      19.94600000      15.72400000
 O      24.26000000      24.08800000       8.60300000
 H      24.37100000      24.21700000       9.56600000
 H      23.99000000      24.97600000       8.19900000
 O      27.46900000      16.65700000      11.06000000
 H      27.32100000      16.05300000      11.79600000
 H      27.70800000      17.57000000      11.48200000
 O      28.46800000      21.25000000       9.45200000
 H      29.37500000      21.49400000       9.85100000
 H      28.61400000      20.30900000       9.17500000
 O      27.42800000      23.60300000      11.26700000
 H      28.26400000      23.64500000      10.74700000
 H      26.70300000      23.18300000      10.72400000
 O      23.48900000      23.89500000      13.84900000
 H      23.15000000      24.67000000      14.36100000
 H      22.72900000      23.28300000      13.64000000
 O      20.72900000      23.88600000      15.27400000
 H      21.36600000      24.02100000      16.04500000
 H      20.31300000      22.99600000      15.28000000
 O      28.16500000      18.16000000       6.11700000
 H      28.54500000      17.95600000       6.95200000
 H      27.75900000      17.26800000       5.75700000
 O      27.00300000      26.56800000      14.49800000
 H      27.48300000      25.88300000      15.02700000
 H      27.39000000      27.44500000      14.70200000
 O      27.25200000      25.76400000       6.92900000
 H      27.30000000      25.03100000       7.63500000
 H      28.25200000      25.92100000       6.65500000
 O      21.77500000      21.67200000       6.41800000
 H      21.34000000      22.43900000       5.96800000
 H      22.64800000      21.74700000       6.05800000
 O      30.63600000      26.17500000       9.76900000
 H      30.01000000      25.83400000       9.06800000
 H      30.74000000      27.10200000       9.40000000
 O      27.06100000      22.08900000      13.43900000
 H      27.33000000      22.54500000      12.59800000
 H      26.68600000      22.91200000      13.82800000
 O      27.75900000      19.28400000      15.16500000
 H      26.88300000      19.39400000      15.64300000
 H      28.04500000      20.10600000      14.79900000
 O      25.09600000      16.31900000       9.75400000
 H      25.28900000      17.14500000       9.13000000
 H      25.87500000      16.42600000      10.35300000
 O      29.90700000      18.68900000       9.27600000
 H      30.43200000      19.08900000       8.52700000
 H      30.48500000      18.02100000       9.77900000
 O      30.12400000      19.53400000      12.83000000
 H      29.14100000      19.44100000      12.87600000
 H      30.20700000      19.87900000      11.88900000
 O      30.68400000      15.87300000       7.16300000
 H      30.52100000      16.45500000       6.40800000
 H      29.80900000      15.39700000       7.36700000
 O      24.88200000      17.34300000      12.58800000
 H      25.62200000      16.79500000      12.99600000
 H      25.39800000      18.16400000      12.39800000
 O      24.51900000      24.23000000      11.41800000
 H      24.54200000      25.22300000      11.61100000
 H      24.22600000      23.96000000      12.28200000
 O      23.09000000      21.43500000      15.62400000
 H      23.68400000      21.75200000      16.30900000
 H      23.41500000      22.02100000      14.93300000
 O      26.96000000      16.31800000      13.86900000
 H      27.46800000      17.15100000      13.99200000
 H      27.37400000      15.58200000      14.34700000
 O      21.14300000      19.27100000      14.63100000
 H      21.51800000      18.78800000      13.90600000
 H      21.66800000      18.98200000      15.42500000
 O      29.70400000      23.82700000       8.00800000
 H      29.55900000      24.05600000       7.03800000
 H      29.97200000      22.83500000       8.14700000
 O      23.90300000      19.53300000      10.21500000
 H      24.57300000      18.95700000       9.81600000
 H      23.18600000      19.74000000       9.52400000
 O      26.49500000      26.15800000      10.24800000
 H      26.82000000      26.89000000      10.83200000
 H      26.62600000      25.32800000      10.77300000
 O      28.08700000      16.56500000       8.38400000
 H      27.57000000      17.27500000       8.95900000
 H      28.25300000      15.95200000       9.15800000
 O      20.88000000      23.97200000      10.20700000
 H      20.34700000      24.75300000       9.92100000
 H      21.14200000      24.17400000      11.10100000
 O      21.65300000      22.25600000      12.83000000
 H      20.84100000      22.12800000      13.39300000
 H      21.95900000      21.35500000      12.63000000
 O      30.27000000      18.24900000      15.97000000
 H      30.26700000      19.25700000      15.94300000
 H      29.72300000      17.98300000      15.19900000
 O      30.76300000      21.88500000      11.05800000
 H      31.44000000      22.14400000      10.50100000
 H      31.04000000      22.31800000      12.00100000
 O      28.38500000      24.24900000      15.61300000
 H      29.22900000      24.47000000      16.17200000
 H      28.04000000      23.42000000      16.05900000
 O      27.06900000      19.46100000      11.36100000
 H      26.31100000      19.98500000      11.89900000
 H      27.48000000      20.08400000      10.72900000
