96
XYZ file of cluster: frame_500_1447.595e.ca8e4 - created by MolEdiTo
 O       6.39900000       4.32000000      27.50300000
 H       6.76700000       3.43300000      27.75200000
 H       5.42100000       4.18600000      27.54200000
 O       8.39200000       8.59300000      27.00000000
 H       7.57200000       8.23600000      26.59600000
 H       8.19700000       8.88600000      27.90300000
 O       8.45300000       8.11800000      29.73300000
 H       9.14000000       8.16200000      30.46700000
 H       8.54900000       7.19400000      29.43200000
 O       8.70800000       5.70200000      28.81900000
 H       9.40600000       5.13200000      28.47800000
 H       7.91900000       5.63400000      28.23500000
 O       4.23700000       2.10800000      30.53800000
 H       3.55900000       2.84100000      30.82700000
 H       4.46400000       2.16200000      29.59600000
 O       2.66700000       9.76100000      29.55200000
 H       2.74500000      10.01200000      30.50800000
 H       2.58300000      10.55400000      28.99900000
 O       7.91800000       1.76800000      29.04500000
 H       7.22700000       1.05300000      29.03200000
 H       7.67500000       2.36900000      29.74800000
 O       4.66600000       5.75900000      29.79800000
 H       4.35800000       6.45800000      29.19900000
 H       5.55900000       5.47300000      29.47500000
 O       6.00400000       7.01500000      26.67600000
 H       5.33000000       7.43100000      26.10300000
 H       5.91600000       6.00100000      26.52000000
 O       3.90100000       2.17200000      27.61900000
 H       3.30100000       1.41700000      27.51000000
 H       4.70400000       2.03700000      27.13300000
 O      10.73200000       7.34500000      27.18000000
 H       9.82800000       7.77600000      27.13300000
 H      11.04100000       7.22500000      26.22500000
 O       0.96000000       2.23000000      26.85400000
 H       0.67200000       2.12800000      27.78400000
 H       1.64500000       2.95500000      26.69400000
 O       9.54700000       3.13500000      26.62800000
 H       9.00600000       2.43400000      26.98000000
 H      10.17600000       3.45000000      27.32100000
 O       3.34700000       7.42200000      28.13700000
 H       3.44300000       7.77200000      27.24700000
 H       2.93200000       8.17000000      28.63100000
 O       6.08900000       9.88300000      29.85700000
 H       5.60200000       9.17000000      30.26200000
 H       6.85000000       9.41200000      29.44500000
 O       5.82800000       7.86700000      33.44000000
 H       5.97500000       6.97000000      33.00900000
 H       4.86200000       7.93100000      33.60600000
 O       0.85900000       2.43500000      34.06300000
 H       0.16400000       3.05500000      34.42800000
 H       1.20700000       3.02600000      33.33100000
 O       6.46800000       3.49800000      32.64300000
 H       5.46200000       3.47500000      32.56800000
 H       6.56600000       3.95000000      33.50500000
 O       2.81300000       3.47300000      36.17500000
 H       2.05100000       3.67900000      36.75100000
 H       2.27500000       3.05600000      35.38500000
 O       9.69300000       4.85200000      33.04800000
 H       9.14800000       5.04000000      32.26900000
 H       9.24700000       5.39800000      33.76200000
 O       3.32900000       9.93100000      33.65400000
 H       4.18500000      10.13800000      34.08800000
 H       3.11900000       9.11700000      34.15700000
 O       3.20500000       7.39200000      34.53300000
 H       2.36600000       6.90200000      34.77200000
 H       3.73000000       7.11700000      35.23500000
 O       2.67200000       4.53100000      32.81500000
 H       3.20600000       5.02100000      32.06300000
 H       1.87900000       5.07900000      32.90000000
 O       7.72500000       1.45500000      34.86200000
 H       7.81300000       0.71800000      35.48600000
 H       6.86500000       1.23900000      34.44500000
 O       5.28400000       7.40400000      36.43600000
 H       5.61500000       7.76800000      37.32900000
 H       5.80300000       7.87800000      35.76300000
 O       9.07500000       2.84900000      36.61800000
 H       9.98400000       2.90000000      36.22900000
 H       8.37900000       2.83200000      35.88000000
 O       8.34300000       6.27300000      34.86800000
 H       7.38100000       6.47000000      35.06200000
 H       8.79600000       7.11500000      34.92400000
 O      10.22400000       8.38200000      33.23300000
 H      11.13400000       8.27600000      33.67000000
 H       9.91700000       9.27600000      33.38200000
 O       5.07800000       1.75000000      36.22300000
 H       4.18400000       2.14300000      36.54100000
 H       5.45700000       2.52000000      35.69300000
 O       5.42500000       4.67800000      35.24000000
 H       5.58200000       5.43400000      35.87600000
 H       4.39200000       4.65000000      35.31500000
 O       6.96700000       9.76500000      35.61500000
 H       7.45500000       9.48000000      34.77100000
 H       6.94600000      10.74300000      35.75400000
 O       9.87500000       2.00700000      33.51300000
 H       9.98000000       2.99100000      33.28700000
 H       9.09800000       1.90500000      34.12800000
