102
XYZ file of cluster: frame_14000_c9eeb.74c6f.c4c05 - created by MolEdiTo
 O      29.42400000      16.53200000      28.72500000
 H      30.31900000      16.12900000      28.51300000
 H      28.92100000      16.27100000      27.92500000
 O      29.68800000      21.58700000      29.60200000
 H      30.16200000      20.88400000      29.05400000
 H      29.17100000      21.07400000      30.25500000
 O      27.67700000      18.73400000      29.34400000
 H      27.85600000      17.74400000      29.22100000
 H      27.12000000      18.73700000      30.20800000
 O      30.33400000      25.02000000      30.03600000
 H      30.68100000      24.69400000      30.94500000
 H      29.37100000      25.00100000      30.14500000
 O      25.98300000      18.45200000      26.85300000
 H      26.44200000      19.04600000      26.23000000
 H      26.48800000      18.68400000      27.71500000
 O      27.10200000      25.27600000      26.20400000
 H      27.28300000      24.50500000      26.77800000
 H      26.48800000      24.96600000      25.49200000
 O      27.40500000      15.41100000      26.50400000
 H      26.65700000      15.75400000      25.96700000
 H      26.99000000      14.91400000      27.25100000
 O      29.34000000      23.11200000      27.27700000
 H      30.13900000      23.74500000      27.25800000
 H      29.55800000      22.48500000      28.11500000
 O      26.53800000      22.09500000      28.37500000
 H      26.63400000      21.61000000      27.52600000
 H      27.33100000      22.13600000      28.83700000
 O      26.75000000      26.83400000      34.10300000
 H      26.38200000      26.80600000      35.01400000
 H      27.00900000      25.96200000      33.89900000
 O      30.64200000      21.47000000      36.61800000
 H      30.74100000      21.33300000      35.63600000
 H      30.42800000      22.41900000      36.57700000
 O      30.16000000      24.69500000      34.65800000
 H      29.22400000      24.35500000      34.74400000
 H      30.15100000      25.67200000      34.74600000
 O      27.71400000      20.44300000      37.28300000
 H      28.45400000      20.24900000      36.67000000
 H      28.29800000      20.42100000      38.13400000
 O      29.52100000      19.31800000      33.24100000
 H      30.36900000      18.93000000      33.16200000
 H      29.03400000      18.99300000      32.40200000
 O      28.04800000      18.09500000      34.95400000
 H      28.68700000      18.02100000      35.68100000
 H      28.56600000      18.71300000      34.30800000
 O      27.25100000      23.91100000      34.53700000
 H      26.80200000      23.40800000      33.78600000
 H      26.97900000      23.31200000      35.28200000
 O      30.10400000      17.92700000      36.77500000
 H      30.60400000      18.53500000      36.17100000
 H      30.79300000      17.42300000      37.15200000
 O      32.36500000      19.10600000      28.86500000
 H      31.69500000      18.42500000      28.83000000
 H      33.15800000      18.66000000      29.23100000
 O      36.82800000      16.69000000      27.51300000
 H      36.10400000      16.91300000      28.24700000
 H      36.89900000      15.70900000      27.63800000
 O      36.89500000      21.87700000      27.44400000
 H      35.96100000      22.09600000      27.73500000
 H      37.58300000      22.47600000      27.97700000
 O      32.54800000      25.33900000      26.70100000
 H      32.19000000      26.15900000      27.18900000
 H      33.46000000      25.20900000      27.01000000
 O      34.75900000      24.05000000      27.77700000
 H      34.94400000      24.08000000      28.76100000
 H      35.60300000      24.52800000      27.54200000
 O      35.65900000      23.73600000      30.30900000
 H      35.27100000      22.92700000      30.65900000
 H      35.18400000      24.31900000      30.97300000
 O      35.34000000      16.79400000      29.88300000
 H      34.54500000      16.28500000      29.71300000
 H      35.57900000      16.51300000      30.75500000
 O      34.10900000      21.22100000      28.70000000
 H      33.69700000      22.12300000      28.52200000
 H      33.73900000      20.64900000      27.97100000
 O      33.76500000      19.87300000      26.33000000
 H      33.90600000      19.27200000      25.55500000
 H      33.01400000      19.45200000      26.82000000
 O      33.94600000      16.42400000      26.92700000
 H      33.21300000      16.46300000      26.30300000
 H      34.58300000      17.00600000      26.48800000
 O      35.91500000      20.08000000      30.47200000
 H      36.38900000      19.63800000      29.69800000
 H      35.24000000      20.56100000      29.92400000
 O      34.51100000      21.87900000      33.86400000
 H      34.92400000      21.74600000      34.72100000
 H      34.19100000      20.99300000      33.61400000
 O      33.94900000      19.06000000      33.85700000
 H      34.64600000      19.19400000      33.14700000
 H      34.44800000      19.09100000      34.72600000
 O      35.38600000      19.13600000      36.28000000
 H      36.26900000      19.13400000      36.60600000
 H      34.89300000      19.07000000      37.14000000
 O      34.81800000      22.79500000      36.87500000
 H      34.98600000      22.04900000      37.51600000
 H      33.96800000      23.22200000      37.00000000
 O      37.35500000      25.31700000      36.96700000
 H      37.44200000      25.93600000      36.20500000
 H      36.46100000      25.66000000      37.35100000
 O      34.61000000      24.71200000      34.64500000
 H      34.86200000      23.94800000      35.19200000
 H      33.68800000      24.48100000      34.41000000
