117
XYZ file of cluster: frame_14000_c32fc.c81ec.7374b - created by MolEdiTo
 O      26.75200000      30.26200000      15.95500000
 H      27.35900000      29.78200000      15.41400000
 H      26.55900000      31.18000000      15.58000000
 O      29.53300000      26.20300000      24.60800000
 H      28.71500000      26.08600000      25.19200000
 H      30.16000000      25.57500000      24.91000000
 O      25.77800000      26.69900000      19.66700000
 H      26.57400000      26.75500000      20.12400000
 H      25.11500000      26.71400000      20.41800000
 O      28.08900000      27.46400000      21.63200000
 H      27.27700000      27.96900000      21.80400000
 H      27.95500000      26.54600000      22.04400000
 O      29.68900000      28.26700000      15.96700000
 H      29.20500000      28.82600000      15.35400000
 H      29.25100000      27.38500000      15.90200000
 O      28.45500000      26.32100000      17.56000000
 H      28.50200000      27.13600000      18.12100000
 H      28.79300000      25.55800000      18.08200000
 O      27.09800000      28.21100000      25.30800000
 H      27.32200000      27.33200000      25.52000000
 H      26.14900000      28.11700000      25.04300000
 O      30.15600000      29.45300000      21.38500000
 H      30.98800000      29.00300000      21.68100000
 H      29.88500000      28.85100000      20.70500000
 O      28.95400000      33.41900000      15.89700000
 H      29.90000000      33.79200000      15.66800000
 H      28.66800000      33.09100000      15.00700000
 O      30.33600000      36.18400000      20.38000000
 H      30.63200000      35.34100000      20.86600000
 H      29.37900000      36.36600000      20.70700000
 O      28.11700000      35.35400000      25.84400000
 H      28.24400000      34.59100000      25.18100000
 H      27.34200000      35.08700000      26.36500000
 O      25.56100000      36.24600000      22.63100000
 H      26.48400000      36.05900000      22.40700000
 H      25.65300000      36.83000000      23.43300000
 O      27.79400000      32.13900000      24.14000000
 H      27.09200000      32.25500000      23.45000000
 H      27.48400000      31.45700000      24.76200000
 O      27.44500000      34.37700000      18.39200000
 H      27.50400000      33.44000000      18.92200000
 H      28.19300000      34.29800000      17.67600000
 O      27.96200000      32.06700000      20.22200000
 H      27.26900000      31.33500000      20.32600000
 H      28.78300000      31.65900000      20.66200000
 O      28.23300000      34.80800000      21.74300000
 H      28.21500000      34.03100000      22.35100000
 H      28.27000000      34.43600000      20.78200000
 O      30.66600000      36.51100000      23.77100000
 H      30.51800000      35.55500000      23.67000000
 H      31.30100000      36.75700000      24.50600000
 O      25.90600000      36.66600000      18.32400000
 H      26.45000000      35.89200000      18.14500000
 H      26.28000000      37.08500000      19.14700000
 O      30.37900000      35.87700000      17.32500000
 H      30.04700000      36.08900000      18.21300000
 H      30.64000000      34.91100000      17.45700000
 O      37.44600000      29.45500000      21.65800000
 H      36.46800000      29.45400000      21.82700000
 H      37.68100000      29.68500000      22.62600000
 O      35.04600000      29.82000000      25.60600000
 H      35.31600000      30.52100000      26.26200000
 H      34.30800000      29.40500000      26.19800000
 O      35.44200000      27.43700000      23.04700000
 H      34.48900000      27.39900000      23.00900000
 H      35.69600000      26.65200000      23.55700000
 O      33.12400000      30.10900000      16.73500000
 H      33.77000000      29.37800000      17.06400000
 H      32.44300000      29.50500000      16.49300000
 O      32.43500000      26.97900000      19.15500000
 H      33.34100000      27.26900000      19.46100000
 H      32.32900000      26.10400000      19.51500000
 O      36.66100000      30.22800000      17.86100000
 H      36.63000000      31.05300000      17.38600000
 H      37.34300000      30.28800000      18.58200000
 O      34.72700000      30.04000000      21.86300000
 H      34.35100000      29.93800000      22.78400000
 H      34.61600000      31.03400000      21.73500000
 O      35.11700000      27.84400000      20.10800000
 H      35.18200000      28.75600000      20.44900000
 H      35.33900000      27.28500000      20.88700000
 O      32.92300000      26.32700000      22.55500000
 H      32.38700000      26.55800000      21.77900000
 H      32.31200000      26.49100000      23.32300000
 O      34.20900000      26.64600000      16.75900000
 H      34.04700000      25.66500000      16.98200000
 H      33.51200000      27.05000000      17.31900000
 O      32.28700000      29.73500000      24.37200000
 H      31.62900000      29.09000000      23.98300000
 H      31.94900000      29.93900000      25.28200000
 O      37.01100000      27.80800000      16.70600000
 H      36.72600000      28.75600000      16.99900000
 H      36.19100000      27.22500000      16.58300000
 O      32.66900000      33.34100000      21.37400000
 H      32.65700000      33.58200000      22.36800000
 H      32.22500000      32.50200000      21.34200000
 O      32.40600000      33.22900000      18.54100000
 H      32.48800000      32.45200000      17.93100000
 H      32.79700000      32.98500000      19.38500000
 O      35.03200000      34.96300000      18.86100000
 H      34.61200000      35.87400000      18.77200000
 H      34.52600000      34.38800000      19.47000000
 O      36.80600000      33.75000000      15.88900000
 H      36.52600000      34.64300000      15.70600000
 H      36.82600000      33.28600000      14.95900000
 O      36.66400000      36.90100000      26.75500000
 H      36.36100000      37.47600000      26.07400000
 H      36.24100000      36.03900000      26.67000000
 O      35.55500000      36.02100000      16.02900000
 H      36.32700000      36.25400000      16.65300000
 H      34.77000000      36.51400000      16.48000000
 O      32.36500000      33.66300000      24.05000000
 H      31.89900000      32.77400000      24.22200000
 H      33.05100000      33.77300000      24.76300000
 O      36.51900000      33.87300000      24.95600000
 H      35.70000000      34.12400000      25.46900000
 H      36.48600000      34.41600000      24.14100000
