138
XYZ file of cluster: frame_14000_755c5.1f2be.c3cf4 - created by MolEdiTo
 O      17.93400000      15.52100000      27.78200000
 H      18.56300000      16.19300000      27.76800000
 H      17.03700000      15.88300000      27.72600000
 O      16.86300000       6.11500000      30.53800000
 H      17.56700000       6.58600000      31.07300000
 H      16.67200000       6.80400000      29.94100000
 O      25.79100000      13.85900000      28.32700000
 H      24.94300000      13.28000000      28.35200000
 H      26.43700000      13.18700000      28.67800000
 O      16.37900000      11.54800000      28.69500000
 H      15.65800000      10.93000000      29.09300000
 H      17.24900000      11.03700000      28.63200000
 O      24.23300000      12.03800000      29.83200000
 H      23.31200000      12.17800000      30.13400000
 H      24.45700000      11.05900000      29.98100000
 O      22.73800000       5.22800000      27.12300000
 H      22.46400000       4.31000000      26.81700000
 H      22.46100000       5.70000000      26.30300000
 O      24.88800000      14.41200000      25.65500000
 H      25.37700000      13.57000000      25.37000000
 H      24.31900000      14.10900000      26.49500000
 O      16.30300000       6.75000000      26.91700000
 H      15.75500000       7.25500000      26.30100000
 H      15.68700000       6.68000000      27.65600000
 O      16.01600000      11.79900000      25.60300000
 H      15.10100000      12.21300000      25.70900000
 H      16.26500000      11.62000000      26.53900000
 O      26.01800000       5.46300000      29.83400000
 H      25.03600000       5.49400000      29.86600000
 H      26.18600000       6.38500000      29.47700000
 O      25.59000000       6.26800000      26.20600000
 H      25.38900000       5.64100000      26.97000000
 H      24.85300000       6.15600000      25.53600000
 O      26.52100000      10.24600000      26.39300000
 H      26.57600000      10.20300000      25.38200000
 H      25.55000000      10.01700000      26.44100000
 O      21.34900000       6.78000000      28.97000000
 H      21.83300000       6.14400000      28.38400000
 H      21.31800000       7.56500000      28.50600000
 O      23.73500000      10.27400000      26.28200000
 H      23.03800000       9.77400000      26.77000000
 H      23.27000000      10.60700000      25.44700000
 O      20.26100000       9.32700000      30.16300000
 H      19.29800000       9.51200000      30.35900000
 H      20.68600000       9.20500000      31.02700000
 O      17.24000000       8.64700000      29.81100000
 H      17.88400000       8.61800000      29.08900000
 H      16.38400000       8.85100000      29.36800000
 O      18.06300000       9.69700000      26.45400000
 H      17.38500000       9.05000000      26.11800000
 H      17.84900000      10.37100000      25.75100000
 O      23.04100000      15.18300000      29.35400000
 H      22.43800000      15.17600000      30.15000000
 H      23.84300000      14.86400000      29.66900000
 O      18.06000000       5.00800000      25.80400000
 H      17.75800000       5.88800000      26.20300000
 H      17.78900000       4.33400000      26.45600000
 O      20.25700000      13.89200000      28.06900000
 H      19.50800000      14.47000000      27.91600000
 H      20.47000000      13.72100000      27.16100000
 O      22.97700000      13.30100000      27.39000000
 H      22.08900000      13.08100000      27.43600000
 H      23.07600000      14.08000000      27.96600000
 O      21.32100000      10.29100000      27.68300000
 H      20.96700000      10.11800000      28.58200000
 H      21.58900000      11.20300000      27.87500000
 O      23.87300000       9.36300000      30.36300000
 H      24.15800000       8.71500000      31.08800000
 H      23.23200000       8.82900000      29.87900000
 O      17.30400000      14.10000000      30.01300000
 H      17.78800000      14.47800000      29.26000000
 H      16.73700000      13.47100000      29.55300000
 O      21.61400000      12.26100000      29.93600000
 H      21.11200000      12.06000000      30.80000000
 H      21.14900000      13.01300000      29.53600000
 O      19.30300000      15.79700000      33.60100000
 H      20.28300000      15.72700000      33.60500000
 H      19.01200000      14.83300000      33.58300000
 O      16.54000000       7.34300000      37.13400000
 H      17.30200000       6.79100000      37.51300000
 H      16.38900000       6.74600000      36.34300000
 O      22.24300000       9.62300000      35.09400000
 H      23.19100000       9.82300000      35.23600000
 H      22.38900000       8.94200000      34.45600000
 O      24.83500000      11.02400000      34.52700000
 H      25.60100000      11.61100000      34.62200000
 H      24.50200000      11.29900000      33.63900000
 O      24.51600000       7.85100000      33.99100000
 H      24.29900000       6.94400000      34.29500000
 H      24.86900000       8.27200000      34.77500000
 O      21.69000000       7.28700000      33.57200000
 H      21.92100000       6.34900000      33.80600000
 H      21.35700000       7.12500000      32.64100000
 O      23.31400000      13.17400000      35.58600000
 H      23.58500000      12.21100000      35.59200000
 H      22.74500000      13.19400000      36.37300000
 O      25.38900000      14.86700000      32.53600000
 H      25.59100000      14.43300000      31.63200000
 H      26.15700000      14.49400000      33.05800000
 O      22.06500000      15.38400000      33.59900000
 H      22.79600000      15.95400000      33.63900000
 H      22.36700000      14.74500000      34.32000000
 O      19.12500000       5.01800000      36.57400000
 H      19.17200000       4.83400000      37.59400000
 H      20.00200000       5.29100000      36.34100000
 O      15.78700000       5.54900000      34.67800000
 H      15.91600000       4.73900000      35.07500000
 H      16.15400000       5.34700000      33.82000000
 O      26.68900000       5.62400000      34.51300000
 H      26.75100000       4.72100000      34.92000000
 H      25.89900000       5.53700000      33.85100000
 O      21.96100000       4.47700000      36.44600000
 H      22.03500000       5.35400000      36.97700000
 H      22.79500000       3.98100000      36.71500000
 O      16.39900000      10.23100000      34.27100000
 H      16.78600000       9.62200000      33.66800000
 H      17.11100000      10.47200000      34.92300000
 O      25.89600000      13.32600000      36.88000000
 H      25.23200000      13.34200000      36.04900000
 H      25.78200000      14.16100000      37.35000000
 O      25.04600000       8.61500000      36.61600000
 H      25.17800000       9.47100000      37.12400000
 H      24.33800000       8.16100000      37.07800000
 O      18.77600000       7.73100000      34.11100000
 H      19.66400000       7.32900000      34.09400000
 H      18.67300000       8.28200000      34.92200000
 O      17.94600000      15.11600000      36.30400000
 H      18.03800000      16.08200000      36.10500000
 H      17.86100000      14.66300000      35.46300000
 O      19.03000000       9.79900000      36.13700000
 H      18.68800000      10.31400000      36.86900000
 H      20.00700000       9.71300000      36.34800000
 O      19.84800000      11.62600000      33.91700000
 H      19.03700000      12.03200000      34.26100000
 H      20.10500000      10.96500000      34.60400000
 O      17.37300000      13.27900000      34.26600000
 H      16.52400000      12.83300000      34.44300000
 H      17.37100000      13.30700000      33.30600000
