117
XYZ file of cluster: frame_2000_753e9.c31c8.1dff - created by MolEdiTo
 O      21.64800000      29.10800000      10.94400000
 H      21.09600000      28.82100000      11.70500000
 H      21.03900000      29.59300000      10.42300000
 O      24.40700000      29.15600000       7.16600000
 H      24.29900000      28.87500000       8.15000000
 H      24.38700000      28.34100000       6.60900000
 O      17.29700000      27.35700000       7.95300000
 H      17.60000000      28.06600000       8.61400000
 H      16.34800000      27.31000000       8.19500000
 O      16.07800000      29.15000000       5.20700000
 H      16.71900000      28.79900000       4.55400000
 H      16.71400000      29.31500000       5.98600000
 O      24.85200000      30.09800000      10.39400000
 H      23.88100000      30.09200000      10.08700000
 H      25.16900000      29.17600000      10.35400000
 O      23.42400000      27.35000000       8.92400000
 H      24.08600000      26.71400000       8.60000000
 H      23.31900000      27.19200000       9.87900000
 O      22.07400000      30.60700000       5.99400000
 H      22.50900000      30.63800000       6.85700000
 H      22.67500000      29.95600000       5.55900000
 O      18.07100000      30.73900000       3.47500000
 H      18.21300000      31.21500000       2.61700000
 H      18.02300000      29.75900000       3.21900000
 O      15.27100000      26.29700000       5.37800000
 H      15.49800000      26.98500000       6.02300000
 H      16.08300000      25.75100000       5.36900000
 O      25.94300000      30.20800000       3.47000000
 H      25.14700000      30.61200000       3.05400000
 H      26.61000000      30.86300000       3.55600000
 O      17.77200000      29.95300000       9.31800000
 H      18.50000000      30.39400000       8.80400000
 H      18.04700000      29.91200000      10.27900000
 O      27.15000000      28.74900000       6.04300000
 H      26.35900000      28.66000000       6.60700000
 H      26.83000000      28.99800000       5.20700000
 O      23.88300000      28.30200000       2.29000000
 H      24.77800000      28.57600000       2.60300000
 H      24.06700000      27.37300000       2.44500000
 O      18.83100000      26.40700000       5.71700000
 H      18.22800000      26.64500000       6.43800000
 H      19.04400000      25.41300000       5.84800000
 O      21.47200000      29.55200000       1.82300000
 H      21.93400000      30.20900000       2.39000000
 H      22.22400000      28.90600000       1.80800000
 O      26.42400000      27.56600000      10.65800000
 H      27.13600000      27.58600000      11.28900000
 H      26.91000000      27.67200000       9.80000000
 O      22.12000000      27.41800000       6.42300000
 H      22.49300000      27.07600000       7.26900000
 H      21.30200000      27.68300000       6.71800000
 O      17.58500000      27.73500000       3.29100000
 H      18.14200000      27.66700000       2.47200000
 H      17.96500000      27.11400000       3.96400000
 O      20.62700000      26.69000000       3.48500000
 H      20.37500000      26.71900000       4.42600000
 H      20.94300000      27.61100000       3.33100000
 O      20.59300000      36.79200000       5.00000000
 H      20.64300000      35.87300000       5.25800000
 H      20.94600000      36.72400000       4.04300000
 O      20.01100000      32.97500000       8.05700000
 H      20.88600000      32.69000000       7.66100000
 H      20.05500000      33.98200000       7.99700000
 O      23.44200000      36.21500000       4.07400000
 H      24.01600000      36.81100000       4.55800000
 H      23.72200000      36.30800000       3.15300000
 O      15.59500000      33.81900000       1.38700000
 H      16.23200000      34.51100000       1.50200000
 H      15.25700000      33.65000000       2.25000000
 O      22.64800000      36.89500000       1.29200000
 H      23.06100000      37.49200000       0.67600000
 H      21.70000000      37.22500000       1.38700000
 O      19.57500000      35.90600000       1.06600000
 H      19.90600000      35.48300000       0.24200000
 H      18.65500000      35.72900000       0.93600000
 O      23.89800000      34.70700000       6.50700000
 H      23.15300000      34.83600000       5.94900000
 H      23.75900000      34.35700000       7.43500000
 O      22.57400000      33.61800000       9.12000000
 H      21.88700000      34.13700000       9.57100000
 H      23.46700000      33.93800000       9.52500000
 O      27.24400000      32.87200000       9.62500000
 H      27.50200000      31.94700000       9.79300000
 H      26.29000000      32.79400000       9.89100000
 O      21.43300000      35.55300000      10.60800000
 H      22.08700000      35.97600000       9.99700000
 H      21.64600000      35.99700000      11.44400000
 O      26.35200000      36.94300000       2.56200000
 H      26.35800000      37.07600000       3.52200000
 H      26.96700000      36.18100000       2.32300000
 O      23.32000000      36.81300000       8.18300000
 H      23.02100000      37.66500000       7.84100000
 H      23.79400000      36.29600000       7.47600000
 O      16.59100000      34.37100000       9.91500000
 H      16.86500000      35.28100000       9.63600000
 H      17.47400000      33.95600000      10.10100000
 O      22.67100000      33.25800000       3.36200000
 H      22.54300000      33.02000000       4.31600000
 H      23.09500000      34.18400000       3.35200000
 O      17.14600000      36.55200000       8.02500000
 H      16.88800000      36.90500000       7.16900000
 H      17.88000000      37.20200000       8.22400000
 O      19.73300000      33.99800000       5.33400000
 H      19.35700000      33.65700000       4.51400000
 H      20.53900000      33.45300000       5.55900000
 O      17.18800000      35.38300000       4.45500000
 H      16.81500000      34.53200000       4.23600000
 H      18.05300000      35.19800000       4.90400000
 O      26.72900000      35.57700000       5.40200000
 H      27.09500000      35.07400000       4.62900000
 H      26.03600000      35.05700000       5.85800000
 O      24.86700000      34.30600000       2.05900000
 H      25.02500000      33.60800000       1.41800000
 H      24.59500000      35.12200000       1.54200000
 O      24.76600000      35.01200000      10.77400000
 H      25.11700000      35.67100000      10.13100000
 H      24.97000000      35.43500000      11.65000000
