105
XYZ file of cluster: frame_10000_9faea.4a12.705df - created by MolEdiTo
 O      22.42000000       2.41700000      19.08200000
 H      22.11800000       2.69800000      19.99200000
 H      22.08500000       1.51400000      18.92100000
 O      25.07400000      10.84800000      16.87600000
 H      24.24400000      11.16400000      17.26200000
 H      24.77200000      10.26300000      16.14200000
 O      21.55000000       9.84200000      23.12900000
 H      21.59000000       9.22700000      23.95700000
 H      20.73200000       9.47300000      22.73500000
 O      21.48600000       9.26700000      18.12400000
 H      21.07400000       9.37400000      19.01300000
 H      20.70400000       9.34600000      17.56800000
 O      23.38800000       7.52000000      17.22400000
 H      23.10000000       7.19800000      16.38900000
 H      22.79800000       8.25500000      17.45500000
 O      27.68200000       5.44800000      17.78100000
 H      26.92100000       4.86300000      18.22100000
 H      27.23500000       6.33200000      17.46800000
 O      25.14200000       4.54200000      19.15100000
 H      24.33000000       4.08400000      18.92400000
 H      24.85700000       5.50200000      19.18900000
 O      21.42500000       4.49600000      15.46900000
 H      21.07100000       4.34300000      16.37700000
 H      22.32400000       4.05500000      15.50000000
 O      26.53000000       9.77100000      23.75200000
 H      26.63300000       9.13900000      22.99300000
 H      25.69300000      10.19700000      23.45500000
 O      23.19500000       3.87800000      21.42900000
 H      22.89300000       4.78200000      21.23700000
 H      24.08600000       3.94400000      20.89400000
 O      26.37700000       9.87400000      19.21800000
 H      27.21000000      10.17300000      18.80100000
 H      25.77300000       9.82800000      18.41700000
 O      28.82600000       3.98300000      16.12400000
 H      28.98800000       4.94200000      16.01300000
 H      28.22800000       3.73500000      15.44100000
 O      24.38300000       1.03000000      16.93000000
 H      23.44100000       0.66100000      16.80800000
 H      24.70800000       0.59500000      17.69000000
 O      29.47700000       7.88900000      19.77100000
 H      29.37900000       7.86700000      20.76600000
 H      29.37700000       8.83300000      19.51300000
 O      30.08300000       9.40600000      25.64900000
 H      30.79000000       8.91200000      26.01700000
 H      30.57900000      10.19500000      25.44500000
 O      26.03500000       4.87900000      25.07800000
 H      26.86800000       4.39300000      25.03700000
 H      25.99900000       5.12400000      26.02000000
 O      28.43400000       1.59200000      20.99900000
 H      27.92800000       1.94900000      20.19100000
 H      29.21200000       2.14600000      21.00700000
 O      21.59900000       4.83300000      24.41200000
 H      21.92100000       3.97200000      23.97100000
 H      20.74400000       5.13200000      23.95700000
 O      24.27100000       3.64900000      16.11600000
 H      24.45100000       2.77500000      16.44500000
 H      25.06700000       3.76400000      15.58100000
 O      23.48600000       7.28300000      25.13400000
 H      23.08700000       6.39700000      25.01500000
 H      22.78800000       7.92400000      25.27300000
 O      29.57200000      10.02500000      22.06200000
 H      28.60100000       9.82200000      21.74000000
 H      29.59300000       9.49100000      22.86200000
 O      26.42500000       7.41400000      16.68200000
 H      27.02700000       8.04500000      16.22700000
 H      25.64600000       7.88900000      17.14700000
 O      29.23700000       6.01100000      15.66500000
 H      29.17600000       6.91700000      15.28000000
 H      28.86400000       5.99500000      16.58000000
 O      27.37500000       2.46000000      18.63600000
 H      27.61400000       2.57600000      17.70800000
 H      26.38000000       2.70400000      18.77200000
 O      27.02100000       1.18400000      23.41100000
 H      27.87700000       1.71100000      23.57700000
 H      27.13200000       0.71900000      22.58300000
 O      26.77800000       7.48900000      21.64600000
 H      26.33500000       6.63400000      21.82900000
 H      26.70600000       7.56800000      20.63700000
 O      29.01200000       5.86300000      23.97900000
 H      28.08400000       6.04900000      23.67700000
 H      28.82100000       5.08500000      24.60500000
 O      22.01500000       2.71400000      23.62200000
 H      22.64800000       2.98400000      22.89900000
 H      22.56600000       2.28500000      24.30700000
 O      25.80600000       5.01400000      22.50500000
 H      24.83200000       5.01300000      22.50200000
 H      25.88000000       4.60300000      23.41500000
 O      21.37800000       9.62800000      14.90600000
 H      20.55900000       9.70400000      14.34800000
 H      21.21800000      10.26700000      15.64000000
 O      26.27500000       7.49600000      25.57700000
 H      26.35900000       8.13200000      24.78700000
 H      25.32100000       7.18700000      25.53500000
 O      23.75600000       6.20000000      19.62700000
 H      23.56300000       6.66100000      18.79700000
 H      22.93100000       6.40900000      20.05900000
 O      24.36700000       1.41500000      24.86700000
 H      24.90800000       1.11600000      24.07700000
 H      24.88000000       2.09000000      25.31100000
 O      30.18000000       5.27800000      18.60900000
 H      30.16700000       6.18000000      18.97700000
 H      29.26700000       5.05600000      18.60100000
 O      28.53600000       3.24400000      24.85200000
 H      28.00300000       2.68000000      25.40300000
 H      29.33200000       2.97300000      25.34800000
