142
XYZ file of cluster: frame_10000_66f9a.4da1f.6e0c8 - created by MolEdiTo
 O      16.73800000      14.84400000      22.18800000
 H      16.95700000      15.79800000      22.53700000
 H      17.09400000      14.85400000      21.28200000
 O      25.07400000      10.84800000      16.87600000
 H      24.24400000      11.16400000      17.26200000
 H      24.77200000      10.26300000      16.14200000
 O      18.21000000       9.97800000      23.23300000
 H      17.56400000      10.23500000      23.93500000
 H      18.32200000      10.80200000      22.69900000
 O      16.81600000      20.12700000      26.52200000
 H      16.45100000      20.88000000      27.03200000
 H      16.84700000      20.49200000      25.65400000
 O      20.61700000      11.67800000      16.51800000
 H      20.92900000      12.36300000      15.92100000
 H      21.13000000      11.82100000      17.32000000
 O      15.37200000      21.69400000      21.49900000
 H      16.15600000      21.93200000      21.01200000
 H      15.16800000      20.75500000      21.17500000
 O      23.15200000      19.93500000      24.18600000
 H      22.24100000      20.02500000      23.98200000
 H      23.47500000      19.03300000      23.95600000
 O      26.86500000      18.47600000      16.94800000
 H      27.03300000      19.05200000      16.19300000
 H      25.87500000      18.60200000      17.09000000
 O      21.88700000      16.01000000      23.49300000
 H      22.79900000      15.71300000      23.86800000
 H      21.92100000      15.41000000      22.68600000
 O      17.92300000      16.14800000      20.10200000
 H      17.46900000      16.87700000      19.73500000
 H      18.62800000      16.75800000      20.54700000
 O      17.40400000      11.71700000      25.44100000
 H      18.29900000      11.95000000      25.13000000
 H      16.78600000      12.38500000      25.20500000
 O      24.93600000      17.80600000      24.71900000
 H      24.28900000      17.65100000      25.46200000
 H      25.39800000      16.99900000      24.42700000
 O      24.28500000      19.57800000      17.29100000
 H      23.66800000      20.04900000      17.82200000
 H      23.69900000      19.09400000      16.65500000
 O      15.75900000      12.49000000      18.10900000
 H      16.62700000      12.93000000      18.19300000
 H      15.42800000      12.23900000      18.96600000
 O      17.59100000      20.85800000      16.42700000
 H      17.76800000      20.27600000      15.70600000
 H      18.45200000      21.38800000      16.56700000
 O      21.97400000      15.93000000      18.95400000
 H      22.12700000      16.11200000      18.00100000
 H      21.06100000      16.26600000      19.04700000
 O      18.59900000      21.20300000      23.84000000
 H      17.81300000      21.02900000      23.29200000
 H      18.99600000      20.32300000      23.95800000
 O      17.56700000      18.79900000      18.56700000
 H      17.38500000      19.66200000      18.09100000
 H      18.39400000      18.92500000      19.11400000
 O      26.21300000      14.05400000      21.16400000
 H      25.72100000      13.26400000      20.75700000
 H      26.58200000      13.51800000      21.95500000
 O      26.40600000      15.99800000      23.03000000
 H      26.06200000      15.63800000      22.16100000
 H      27.36400000      15.80100000      22.99900000
 O      18.68600000      13.29700000      18.13400000
 H      19.41700000      12.88900000      17.51000000
 H      19.18400000      13.45300000      18.97400000
 O      23.90100000      11.04200000      22.88500000
 H      24.08500000      11.32900000      21.94800000
 H      22.93700000      10.75500000      22.94000000
 O      26.75500000      19.26600000      26.43000000
 H      25.94400000      18.92900000      25.95700000
 H      26.29500000      19.71100000      27.18200000
 O      20.17400000      17.86100000      21.41900000
 H      20.69000000      17.26300000      21.99900000
 H      20.94200000      18.39100000      21.02800000
 O      15.47700000      17.83100000      26.00600000
 H      15.77600000      18.68300000      26.33500000
 H      14.80100000      18.11200000      25.35900000
 O      15.33700000      18.89700000      20.61100000
 H      15.38300000      18.01600000      21.12600000
 H      16.16100000      18.92900000      20.14000000
 O      21.49900000      20.53600000      15.92900000
 H      20.91800000      21.28900000      16.01100000
 H      22.09900000      20.75200000      16.63100000
 O      26.30000000      19.45000000      22.74500000
 H      25.76300000      18.82800000      23.27200000
 H      26.22900000      18.99800000      21.87500000
 O      22.04800000      13.10300000      18.33400000
 H      21.62500000      13.51600000      19.09100000
 H      22.89700000      13.53400000      18.31000000
 O      16.35200000      11.44600000      21.18000000
 H      16.06900000      10.49000000      21.28500000
 H      16.04400000      11.91100000      21.93800000
 C      17.29800000      15.83300000      15.55900000
 C      16.09600000      15.96600000      16.53800000
 C      14.06600000      16.48200000      15.01200000
 H      14.21700000      15.16500000      16.66200000
 H      17.77800000      14.39300000      16.71500000
 O      15.26400000      14.10800000      15.04200000
 O      17.56200000      16.68400000      14.70400000
 O      18.12400000      14.78200000      15.91300000
 C      14.88600000      15.36900000      15.81900000
 O      16.34800000      15.25200000      17.74000000
 H      15.96900000      16.98200000      16.81100000
 O      14.12300000      17.67000000      15.16600000
 O      13.25800000      15.99600000      14.05200000
 H      13.31000000      15.03400000      14.13200000
 H      15.67900000      15.34400000      18.51400000
 H      15.42400000      13.34700000      15.60500000
 O      24.23500000      11.81700000      25.46700000
 H      24.23300000      11.01900000      25.98300000
 H      24.25700000      11.45600000      24.57400000
 O      20.25800000      12.96200000      20.54300000
 H      19.88400000      12.09800000      20.87400000
 H      20.06700000      13.57600000      21.30700000
 O      25.42000000      13.92600000      17.83500000
 H      25.79400000      14.71900000      17.34700000
 H      26.09200000      13.22800000      17.50200000
 O      20.49100000      12.94700000      25.19700000
 H      20.48600000      13.07900000      26.17400000
 H      21.36700000      12.72600000      25.05800000
 O      19.98200000      17.34100000      16.73200000
 H      19.69700000      18.20900000      16.47000000
 H      19.21000000      16.67500000      16.46100000
 O      20.10400000      18.10300000      24.95600000
 H      20.58600000      17.24600000      25.00100000
 H      19.55000000      17.83300000      25.66400000
 O      24.61200000      12.15200000      19.88400000
 H      25.08600000      11.30800000      19.59800000
 H      24.82900000      12.88400000      19.25800000
 O      23.24800000      14.49400000      21.33700000
 H      23.34300000      14.98800000      20.48900000
 H      24.14200000      14.06000000      21.41300000
 O      22.38900000      16.87600000      15.32400000
 H      21.49800000      17.02000000      15.69900000
 H      22.56500000      17.72800000      14.90900000
 O      17.75000000      17.52600000      23.26700000
 H      18.64400000      17.92900000      23.55000000
 H      17.06700000      18.05000000      23.77300000
 O      24.23300000      14.80600000      24.76900000
 H      25.09100000      14.91200000      24.44100000
 H      24.29200000      13.86900000      25.13000000
 O      18.85200000      12.81600000      23.10200000
 H      18.23700000      13.52500000      23.48300000
 H      19.61000000      12.93200000      23.75000000
