123
XYZ file of cluster: frame_10000_569e.703d6.4db0 - created by MolEdiTo
 O       4.86700000      15.01500000       2.90400000
 H       4.66100000      14.42600000       3.69200000
 H       4.81400000      15.88000000       3.29500000
 O       8.35300000      22.56800000       6.78700000
 H       9.11800000      22.30200000       7.39200000
 H       8.84900000      22.53700000       5.89800000
 O       6.03100000      16.98000000       0.87400000
 H       5.67100000      16.16700000       1.31500000
 H       5.57000000      17.78800000       1.18000000
 O       8.55100000      19.08500000       1.57300000
 H       9.57900000      18.97900000       1.61300000
 H       8.34600000      18.94800000       0.62000000
 O       5.03000000      21.25100000       3.53600000
 H       5.72800000      21.33500000       4.17700000
 H       5.37800000      21.60600000       2.75600000
 O       9.38300000      19.95100000       8.41300000
 H       9.98100000      19.26900000       8.82000000
 H       9.04800000      19.42500000       7.74100000
 O       9.35700000      25.23300000       4.32300000
 H       8.71000000      25.30800000       5.07500000
 H       9.71200000      26.15300000       4.17300000
 O       1.20200000      22.25800000      10.13700000
 H       1.62500000      22.04200000      10.93600000
 H       0.92600000      21.33900000      10.01300000
 O       3.58700000      23.88000000       4.67400000
 H       3.70200000      23.15500000       4.03100000
 H       2.73300000      24.24400000       4.42700000
 O       7.43400000      15.01000000       7.17000000
 H       7.14400000      15.97100000       7.25700000
 H       8.19300000      14.94900000       6.54500000
 O       9.21000000      21.86900000       4.29200000
 H       9.38000000      22.28300000       3.38500000
 H       8.94600000      20.93200000       4.04500000
 O       3.12800000      16.05300000       5.36800000
 H       4.05500000      15.99700000       5.70400000
 H       2.68100000      16.62500000       6.03600000
 O       3.64500000      17.17800000       9.64800000
 H       4.38700000      17.25400000       8.95400000
 H       3.10700000      17.99000000       9.52400000
 O       3.12700000      21.67700000       1.13800000
 H       3.58100000      20.89500000       1.48800000
 H       2.18900000      21.29100000       1.01700000
 O       8.62300000      22.41500000       1.52300000
 H       8.40400000      21.43700000       1.43000000
 H       8.12100000      22.71600000       2.29800000
 O       5.45200000      18.02300000       4.03800000
 H       6.39300000      17.63600000       4.04900000
 H       5.64500000      18.93200000       4.33500000
 O       3.90400000      16.74800000       0.64300000
 H       4.14600000      17.66500000       1.02000000
 H       3.13100000      16.43600000       1.26900000
 O       5.19500000      25.99200000       4.07800000
 H       5.17700000      25.39800000       3.36100000
 H       4.53900000      25.56800000       4.69600000
 O       1.94700000      19.59700000       9.42900000
 H       0.95100000      19.63400000       9.36000000
 H       2.25500000      19.54800000      10.38100000
 O       6.76100000      23.34300000       8.54200000
 H       6.66700000      23.54900000       9.45200000
 H       5.92300000      23.59100000       8.09100000
 O       5.77700000      20.47400000       7.79800000
 H       6.13800000      21.38100000       7.88300000
 H       4.79600000      20.74700000       7.86900000
 O       1.18200000      25.40600000       2.94000000
 H       1.71900000      25.78900000       2.16900000
 H       0.80600000      24.60400000       2.51000000
 O       6.89600000      17.76300000       7.73800000
 H       6.55900000      18.69400000       7.78400000
 H       7.40100000      17.69900000       8.60200000
 O       7.90300000      16.90200000       3.63400000
 H       8.00500000      17.71300000       3.11900000
 H       7.61200000      16.23100000       2.98800000
 O       8.79400000      17.27600000       9.71900000
 H       9.72600000      17.15900000       9.48700000
 H       8.70100000      16.59700000      10.38900000
 O       2.05400000      26.61400000       6.76400000
 H       1.73700000      26.69200000       7.68500000
 H       2.28000000      25.67400000       6.61700000
 O       4.28600000      24.04800000       7.48900000
 H       3.46600000      23.74500000       7.88900000
 H       4.10800000      23.82300000       6.58900000
 O       4.06200000      21.32800000       8.16500000
 H       3.36700000      21.77900000       7.66200000
 H       3.56900000      20.69600000       8.73300000
 O       7.33300000      25.44000000       6.76700000
 H       7.67500000      25.66700000       7.62700000
 H       7.27200000      24.48200000       6.91100000
 O       9.07600000      20.76500000      11.06600000
 H       9.31500000      20.60400000      10.15600000
 H       9.37500000      20.05300000      11.60800000
 O       2.12300000      20.07600000       3.50000000
 H       2.27800000      21.05100000       3.68200000
 H       1.34600000      20.07100000       2.89300000
 O       7.82600000      25.74900000       9.73100000
 H       8.27800000      25.20900000      10.46800000
 H       7.50400000      26.59300000      10.17100000
 O       2.11300000      15.83200000       2.79000000
 H       1.17100000      15.80100000       2.97400000
 H       2.56000000      15.87500000       3.68500000
 O       5.36700000      26.75100000       8.48000000
 H       5.11500000      26.72200000       9.43600000
 H       5.37000000      25.76600000       8.16900000
 O       1.49800000      23.40600000       7.66600000
 H       1.03600000      22.88700000       8.37900000
 H       0.69700000      23.44600000       7.08300000
 O       5.23100000      16.63300000       7.14700000
 H       6.03100000      17.18600000       7.22600000
 H       5.53000000      15.72200000       6.90100000
 O       4.22500000      18.79800000       2.48100000
 H       3.48500000      19.31100000       2.94700000
 H       4.89900000      18.61100000       3.14000000
 O       6.59900000      20.80300000       5.10800000
 H       6.44400000      20.43500000       6.02700000
 H       7.31000000      21.45000000       5.22100000
 O      10.35200000      23.16500000       9.61300000
 H       9.64000000      22.94000000      10.24900000
 H      11.11400000      23.69600000       9.99500000
 O       3.71100000      24.27000000       1.87800000
 H       3.60500000      23.35100000       1.47400000
 H       3.92700000      24.76200000       1.00600000
 O       6.18200000      23.24600000       3.51800000
 H       5.81500000      22.48000000       3.87800000
 H       6.24200000      23.90200000       4.25900000
