132
XYZ file of cluster: frame_10000_4e569.c9158.c3b5e - created by MolEdiTo
 O      15.44900000      27.33400000      27.06200000
 H      14.87400000      26.97800000      27.79800000
 H      15.14000000      26.75800000      26.37600000
 O      13.61000000      29.52900000      28.18900000
 H      14.21100000      29.09500000      28.87900000
 H      12.93300000      28.79900000      27.99200000
 O      10.22500000      29.94000000      28.79500000
 H      10.08600000      28.99700000      29.29600000
 H      10.87700000      30.51700000      29.29100000
 O      20.91000000      27.37900000      29.75700000
 H      21.76200000      27.24700000      30.33200000
 H      21.41100000      27.59600000      28.96000000
 O      11.15500000      30.44700000      27.07700000
 H      10.59000000      30.36300000      27.88800000
 H      11.87600000      30.97800000      27.35600000
 O      16.08900000      30.17300000      27.36200000
 H      15.22400000      30.40100000      26.85000000
 H      16.21300000      29.21800000      27.38500000
 O      13.73900000      30.26700000      25.81600000
 H      13.00100000      29.67300000      26.18300000
 H      13.22000000      30.68300000      25.12400000
 O      19.40600000      29.71300000      27.26900000
 H      19.65800000      30.33700000      26.56700000
 H      18.92000000      29.01400000      26.81100000
 O      11.44100000      26.75200000      25.18300000
 H      11.76100000      25.84500000      24.99000000
 H      11.78800000      26.99400000      26.05900000
 O      14.16000000      26.88600000      30.10000000
 H      14.27900000      25.93600000      29.94000000
 H      13.47900000      27.04600000      30.82400000
 O      12.61200000      27.04600000      27.79600000
 H      13.13400000      26.21900000      27.65300000
 H      11.73000000      26.79200000      28.14000000
 O      17.88800000      27.19200000      28.63300000
 H      18.25000000      28.15400000      28.74400000
 H      17.25800000      27.10800000      27.90300000
 O      14.13500000      27.67400000      35.19700000
 H      13.94100000      27.66200000      34.19000000
 H      14.54100000      26.77300000      35.31600000
 O      13.22100000      30.27700000      32.35700000
 H      13.26300000      30.87900000      31.54900000
 H      13.51100000      30.90200000      33.10200000
 O      20.55200000      28.30200000      33.64300000
 H      20.45200000      27.62800000      33.01900000
 H      19.81300000      28.81400000      33.27600000
 O      11.93200000      27.79700000      32.94300000
 H      11.04300000      27.80300000      33.30100000
 H      12.22600000      28.69000000      33.04100000
 O      21.45500000      30.54100000      36.52500000
 H      20.83400000      30.79300000      35.81700000
 H      22.36900000      30.76200000      36.26800000
 O      15.86100000      28.90000000      31.75500000
 H      15.24300000      28.08500000      31.58400000
 H      15.17000000      29.55000000      31.98500000
 O      18.37200000      29.44900000      32.16100000
 H      18.44700000      30.07100000      31.43700000
 H      17.57000000      28.96000000      31.99100000
 O      12.53900000      30.68800000      36.26100000
 H      13.00800000      30.57800000      35.41000000
 H      11.78700000      31.37900000      36.23600000
 O      19.46000000      28.12700000      36.65100000
 H      20.28700000      28.68900000      36.72000000
 H      19.30100000      28.19400000      35.68800000
 O      17.18400000      27.70900000      34.74300000
 H      16.67800000      27.74700000      33.91700000
 H      16.91300000      28.39700000      35.36700000
 O      17.38100000      34.89700000      27.19600000
 H      17.57600000      35.08800000      26.24300000
 H      18.25700000      34.77300000      27.61800000
 O      15.46900000      34.01800000      28.75700000
 H      16.12000000      34.51600000      28.22600000
 H      15.58500000      33.08900000      28.33800000
 O      11.52400000      34.93000000      30.41500000
 H      12.44700000      35.18900000      30.46700000
 H      11.41400000      34.71200000      29.46600000
 O      20.08500000      34.93000000      28.01700000
 H      20.89200000      35.39400000      28.36200000
 H      20.59300000      34.38900000      27.41400000
 O      18.69000000      36.79400000      28.31600000
 H      17.84900000      37.04600000      27.86500000
 H      18.74100000      35.76600000      28.26200000
 O      18.84400000      32.66000000      28.80000000
 H      17.90700000      32.63400000      28.52000000
 H      19.29600000      32.22600000      27.99300000
 O      16.05300000      36.45600000      26.59900000
 H      16.40200000      35.58400000      26.99200000
 H      15.08900000      36.49300000      26.89700000
 O      14.74500000      35.33700000      30.17000000
 H      15.15800000      34.65800000      29.65600000
 H      15.39700000      36.14900000      30.33600000
 O      14.19400000      35.05100000      26.47400000
 H      14.36600000      34.67900000      27.34600000
 H      14.81500000      34.61700000      25.85500000
 O      11.08500000      36.17300000      27.99700000
 H      11.89100000      36.65400000      27.74900000
 H      11.03700000      35.47800000      27.32800000
 O      12.71100000      33.46100000      28.58800000
 H      13.51500000      33.94200000      28.85100000
 H      13.08600000      32.68100000      28.14100000
 O      10.76200000      34.47500000      36.18700000
 H      10.28500000      35.05100000      36.83100000
 H      11.16500000      35.05400000      35.49400000
 O      20.63200000      35.93600000      33.21500000
 H      20.64400000      35.98600000      32.27400000
 H      21.49800000      36.37300000      33.34400000
 O      16.91300000      33.55200000      33.54000000
 H      17.16700000      33.41200000      34.44800000
 H      17.41100000      32.95500000      32.86300000
 O      17.72500000      32.95600000      36.37400000
 H      18.45400000      33.38600000      35.98300000
 H      17.41800000      33.40900000      37.17100000
 O      20.56700000      35.81200000      36.45300000
 H      20.91600000      36.08900000      35.60400000
 H      20.86100000      36.58400000      36.94200000
 O      14.51900000      35.37700000      35.70500000
 H      14.75400000      36.23300000      35.30000000
 H      14.62200000      35.50500000      36.65600000
 O      10.97500000      35.35000000      34.01100000
 H      10.73600000      34.95900000      33.17400000
 H      10.93300000      36.37600000      33.94700000
 O      19.95400000      34.27300000      34.93800000
 H      20.09600000      35.12300000      35.49600000
 H      20.25900000      34.66300000      34.11500000
 O      14.10500000      33.53500000      34.01900000
 H      15.03700000      33.28500000      33.92400000
 H      14.01000000      34.50700000      34.25700000
 O      20.54600000      33.29500000      31.88800000
 H      20.65500000      34.13700000      31.48300000
 H      20.03600000      32.78200000      31.20700000
 O      17.14200000      36.08000000      32.52700000
 H      17.96400000      36.69900000      32.30300000
 H      17.56600000      35.22600000      32.95700000
