108
XYZ file of cluster: frame_10000_a11e7.c242b.9e207 - created by MolEdiTo
 O      27.93400000      30.08300000      28.52000000
 H      28.37800000      29.26100000      28.21400000
 H      27.02600000      29.79200000      28.40700000
 O      22.86500000      29.31600000      25.99300000
 H      23.01400000      30.12000000      25.49700000
 H      23.70400000      28.84400000      26.02500000
 O      23.71100000      29.73200000      28.94300000
 H      24.30800000      28.98800000      28.58900000
 H      23.46500000      29.33200000      29.78400000
 O      29.94400000      28.45100000      25.78000000
 H      30.37100000      29.19200000      25.29500000
 H      30.66800000      28.18900000      26.36500000
 O      21.64200000      25.83200000      24.18500000
 H      20.95100000      26.32000000      23.63200000
 H      21.25600000      24.96800000      24.47100000
 O      27.31100000      27.91200000      27.66500000
 H      26.88300000      27.06100000      27.29400000
 H      28.14200000      28.00000000      27.18200000
 O      30.51700000      28.68900000      28.59400000
 H      30.83200000      28.85100000      29.52200000
 H      31.12100000      29.25700000      28.07900000
 O      26.40800000      27.77300000      24.60700000
 H      26.68500000      28.58900000      24.96400000
 H      27.06000000      27.08400000      24.58800000
 O      28.38200000      25.85700000      25.14400000
 H      29.16300000      26.29500000      25.57700000
 H      28.75100000      25.47100000      24.34800000
 O      20.91000000      27.37900000      29.75700000
 H      21.76200000      27.24700000      30.33200000
 H      21.41100000      27.59600000      28.96000000
 O      20.93300000      29.72400000      22.78000000
 H      21.69100000      29.29000000      23.18500000
 H      21.11800000      30.70700000      22.82500000
 O      23.78500000      28.06100000      23.31500000
 H      24.61200000      27.87700000      23.74600000
 H      23.22500000      27.25900000      23.47900000
 O      21.37800000      26.95300000      27.78900000
 H      22.37600000      26.96300000      27.71700000
 H      21.27600000      27.83900000      27.38000000
 O      29.51700000      26.23500000      28.68100000
 H      29.82400000      27.08800000      28.97100000
 H      28.94300000      25.72500000      29.31500000
 O      23.97000000      26.34700000      28.63600000
 H      23.31400000      25.84500000      29.10000000
 H      24.54400000      25.74400000      28.24900000
 O      29.39400000      27.44900000      21.86500000
 H      28.87500000      27.03200000      21.16700000
 H      29.76500000      26.82600000      22.45800000
 O      22.34400000      26.38300000      21.07300000
 H      21.89900000      26.40600000      20.20300000
 H      22.21100000      27.23100000      21.60900000
 O      30.11000000      30.14300000      23.14100000
 H      30.14800000      30.85700000      22.42900000
 H      29.56300000      29.43500000      22.80600000
 O      29.01200000      37.24200000      23.97900000
 H      28.08400000      37.42800000      23.67700000
 H      28.82100000      36.46400000      24.60500000
 O      30.07300000      36.60500000      27.63200000
 H      29.37700000      35.88600000      27.71000000
 H      29.56200000      37.36000000      27.15700000
 O      23.40600000      36.37700000      28.15100000
 H      22.60600000      36.50200000      27.67700000
 H      23.90400000      37.17000000      27.93100000
 O      28.53600000      34.62300000      24.85200000
 H      28.00300000      34.05900000      25.40300000
 H      29.33200000      34.35200000      25.34800000
 O      26.03500000      36.25800000      25.07800000
 H      26.86800000      35.77200000      25.03700000
 H      25.99900000      36.50300000      26.02000000
 O      28.43400000      32.97100000      20.99900000
 H      27.92800000      33.32800000      20.19100000
 H      29.21200000      33.52500000      21.00700000
 O      21.59900000      36.21200000      24.41200000
 H      21.92100000      35.35100000      23.97100000
 H      20.74400000      36.51100000      23.95700000
 O      22.29500000      34.18400000      26.86200000
 H      22.91400000      33.49200000      27.18100000
 H      22.79700000      35.01000000      26.92600000
 O      27.53600000      35.39900000      29.99300000
 H      26.70900000      35.37800000      30.50600000
 H      27.99500000      34.69600000      30.51100000
 O      24.36700000      32.79400000      24.86700000
 H      24.90800000      32.49500000      24.07700000
 H      24.88000000      33.46900000      25.31100000
 O      22.01500000      34.09300000      23.62200000
 H      22.64800000      34.36300000      22.89900000
 H      22.56600000      33.66400000      24.30700000
 O      27.75700000      36.01500000      28.16800000
 H      26.96700000      36.64400000      28.25300000
 H      27.91000000      35.91700000      29.13500000
 O      25.80600000      36.39300000      22.50500000
 H      24.83200000      36.39200000      22.50200000
 H      25.88000000      35.98200000      23.41500000
 O      23.18800000      35.95500000      29.76100000
 H      23.46600000      36.45600000      28.96100000
 H      23.49600000      35.06000000      29.37900000
 O      23.19500000      35.25700000      21.42900000
 H      22.89300000      36.16100000      21.23700000
 H      24.08600000      35.32300000      20.89400000
 O      27.02100000      32.56300000      23.41100000
 H      27.87700000      33.09000000      23.57700000
 H      27.13200000      32.09800000      22.58300000
 O      27.57200000      33.45400000      27.23800000
 H      28.04200000      34.29300000      27.54100000
 H      28.01500000      32.75700000      27.75800000
 O      24.22100000      33.79200000      29.27900000
 H      25.07300000      33.83600000      28.73300000
 H      23.98300000      32.84400000      29.19900000
