120
XYZ file of cluster: frame_10000_7100a.1dee6.2c2 - created by MolEdiTo
 O      15.22300000      10.52900000       7.67300000
 H      14.62000000      11.11100000       8.19100000
 H      15.94900000      10.45400000       8.35700000
 O      23.08500000       8.44000000      10.11100000
 H      22.26200000       8.49500000      10.60600000
 H      23.04700000       9.13700000       9.41000000
 O      23.22600000       5.49900000       2.65700000
 H      23.63100000       6.14100000       2.04600000
 H      24.00300000       5.15500000       3.19300000
 O      26.99700000      11.79500000       9.62600000
 H      26.07900000      11.97100000      10.09300000
 H      27.66600000      12.42200000       9.98700000
 O      16.25000000      10.18600000       1.90700000
 H      16.47400000      10.54700000       2.79600000
 H      15.61400000       9.50900000       2.19200000
 O      20.54600000       8.80500000       3.97200000
 H      20.20300000       9.28400000       3.17600000
 H      20.10900000       9.23400000       4.70500000
 O      19.86600000       7.73100000       9.13300000
 H      19.55200000       7.05200000       9.78400000
 H      20.80700000       7.51900000       8.86400000
 O      16.60000000      13.27200000       6.26900000
 H      16.20700000      12.36600000       6.08400000
 H      16.87800000      13.12700000       7.18800000
 O      22.31300000      11.45500000       1.16800000
 H      22.19600000      12.38300000       1.01300000
 H      23.30700000      11.37900000       1.48200000
 O      25.50700000      16.00400000       9.33200000
 H      24.87900000      16.54400000       8.73100000
 H      24.88500000      15.62300000      10.00200000
 O      21.55400000      12.04000000       5.12000000
 H      21.16300000      12.37700000       4.28900000
 H      22.02500000      11.33800000       4.73500000
 O      17.55000000      12.99600000       8.94900000
 H      17.47200000      12.36900000       9.71700000
 H      18.35200000      12.52100000       8.53700000
 O      25.05800000      10.83100000       1.18200000
 H      25.61500000      11.63900000       0.97700000
 H      25.29300000      10.27400000       0.43100000
 O      25.45800000       6.77800000      10.30000000
 H      24.87500000       7.55600000      10.29400000
 H      25.03600000       6.22800000      11.05800000
 O      18.57400000      12.93700000       3.76500000
 H      17.81600000      13.34700000       4.22700000
 H      18.58900000      12.04300000       4.17700000
 O      26.60900000       5.31500000       8.03300000
 H      25.95700000       5.95200000       8.43900000
 H      27.44900000       5.63900000       8.40400000
 O      15.97600000      10.35000000       4.78400000
 H      15.18400000      10.31000000       5.29800000
 H      16.24200000       9.46000000       4.73300000
 O      25.08900000      15.64300000       3.57900000
 H      24.94900000      15.23400000       2.69700000
 H      24.56000000      16.43400000       3.49500000
 O      17.16000000       9.95500000       9.44400000
 H      16.83600000       9.96900000      10.36800000
 H      18.15600000       9.91700000       9.62300000
 O      21.89800000       6.97500000       5.93400000
 H      22.82800000       7.26200000       5.78600000
 H      21.43400000       7.24800000       5.12200000
 O      24.99500000       6.00400000       5.60300000
 H      25.12500000       5.14200000       5.24300000
 H      25.57000000       6.02800000       6.35500000
 O      15.32000000       7.55100000       3.20800000
 H      14.54900000       7.31400000       3.69400000
 H      15.89200000       6.74100000       3.22500000
 O      19.45800000      10.64800000       1.90700000
 H      18.84600000      11.00300000       1.27600000
 H      20.26300000      10.53100000       1.35600000
 O      26.17000000      13.27000000       5.26100000
 H      26.22500000      14.06500000       5.79800000
 H      25.56900000      13.46400000       4.53100000
 O      18.94600000       5.31200000      10.01900000
 H      18.22300000       5.66900000      10.50500000
 H      18.66100000       4.39600000       9.89800000
 O      24.57200000       7.84700000       1.53700000
 H      24.79900000       8.68100000       1.95800000
 H      23.83100000       7.98100000       0.90200000
 O      23.45400000      14.16600000      10.08300000
 H      23.32200000      13.42500000      10.67100000
 H      23.15900000      13.80800000       9.19100000
 O      19.69300000      11.30800000       8.04200000
 H      19.99700000      10.80200000       8.87900000
 H      20.45800000      11.98200000       7.96700000
 O      16.00200000       7.50200000       7.71400000
 H      16.37900000       7.80200000       8.61500000
 H      16.69500000       7.88000000       7.11800000
 O      24.16800000       9.93300000       7.28800000
 H      24.28400000      10.81400000       6.85300000
 H      25.06700000       9.44400000       7.01400000
 O      18.55500000      15.72900000       6.63900000
 H      18.00800000      15.01400000       6.36500000
 H      18.30900000      16.44800000       6.02500000
 O      20.69400000      14.31100000       2.72100000
 H      20.55700000      15.26100000       2.84600000
 H      19.91200000      13.98200000       3.27600000
 O      17.14200000       4.70100000       1.35300000
 H      17.96400000       5.32000000       1.12900000
 H      17.56600000       3.84700000       1.78300000
 O      21.89000000      13.33400000       7.44800000
 H      21.50700000      14.19400000       7.25900000
 H      21.97500000      12.92100000       6.62500000
 O      14.91900000      14.01200000       9.21000000
 H      15.89000000      13.96900000       9.01800000
 H      14.77100000      13.59000000      10.13600000
 O      18.45900000       8.21200000       6.44200000
 H      18.94600000       9.01500000       6.10200000
 H      18.88700000       8.06800000       7.28200000
 O      17.44800000       5.91400000       4.55000000
 H      18.37300000       5.62400000       4.40200000
 H      17.48700000       6.85500000       4.74400000
 O      18.61400000      10.80700000       5.66800000
 H      18.91900000      11.14700000       6.54300000
 H      17.60800000      10.90600000       5.83000000
 O      16.22100000      15.25800000       3.53700000
 H      15.51900000      15.30600000       2.86900000
 H      15.74300000      15.29400000       4.36900000
 O      24.78500000      14.98800000       0.60400000
 H      25.11300000      14.22400000       0.02200000
 H      23.98300000      15.26900000       0.24200000
