114
XYZ file of cluster: frame_10000_a2e1d.497a6.237c1 - created by MolEdiTo
 O      27.16900000      18.93400000       8.03700000
 H      27.98200000      18.49700000       7.80200000
 H      27.19700000      19.65300000       7.30400000
 O      30.63600000      14.29300000       5.95900000
 H      30.91500000      13.53000000       6.57500000
 H      30.26500000      15.06400000       6.46500000
 O      26.99700000      11.79500000       9.62600000
 H      26.07900000      11.97100000      10.09300000
 H      27.66600000      12.42200000       9.98700000
 O      25.50700000      16.00400000       9.33200000
 H      24.87900000      16.54400000       8.73100000
 H      24.88500000      15.62300000      10.00200000
 O      28.15300000      11.88200000       7.00800000
 H      27.83000000      11.80900000       7.95000000
 H      27.38700000      12.36700000       6.55900000
 O      27.84300000      14.39500000      10.09400000
 H      26.90200000      14.82900000       9.93200000
 H      27.97800000      14.52400000      11.04000000
 O      21.55800000      14.25400000      14.51300000
 H      22.59800000      14.26900000      14.61000000
 H      21.30500000      15.08400000      15.09000000
 O      27.32000000      20.72100000      15.18700000
 H      27.29000000      21.17300000      14.36400000
 H      28.28900000      20.79400000      15.16500000
 O      21.90600000      19.48500000       8.72500000
 H      22.09000000      18.50200000       8.70100000
 H      20.97100000      19.67000000       8.61200000
 O      29.27600000      15.27100000      14.32600000
 H      28.63600000      15.70600000      13.74200000
 H      30.17500000      15.66800000      14.18000000
 O      30.17900000      20.25300000      15.39700000
 H      31.08900000      19.80700000      15.16200000
 H      30.12200000      20.18700000      16.39900000
 O      24.19800000      13.38800000      14.84600000
 H      24.78800000      14.16000000      14.83900000
 H      24.66500000      12.82000000      15.45700000
 O      23.74100000      18.79300000       4.90300000
 H      23.09400000      19.39900000       5.34200000
 H      24.50800000      19.37700000       4.71600000
 O      26.17000000      13.27000000       5.26100000
 H      26.22500000      14.06500000       5.79800000
 H      25.56900000      13.46400000       4.53100000
 O      28.34000000      13.05500000      12.95600000
 H      27.69200000      12.48600000      13.33400000
 H      28.76900000      13.57600000      13.72700000
 O      29.78000000      15.76800000       8.53100000
 H      29.21000000      16.42900000       8.21500000
 H      29.18200000      15.21700000       9.06900000
 O      21.97000000      16.17200000       5.59400000
 H      21.04500000      16.36800000       5.60200000
 H      22.13900000      16.35200000       4.69900000
 O      23.45400000      14.16600000      10.08300000
 H      23.32200000      13.42500000      10.67100000
 H      23.15900000      13.80800000       9.19100000
 O      30.54800000      10.66200000      15.41000000
 H      30.44300000      11.61500000      15.66100000
 H      31.43300000      10.65900000      14.98400000
 O      26.30700000      18.27100000      13.94900000
 H      26.24600000      18.22100000      12.94900000
 H      25.36500000      18.40000000      14.05900000
 O      24.16800000       9.93300000       7.28800000
 H      24.28400000      10.81400000       6.85300000
 H      25.06700000       9.44400000       7.01400000
 O      26.48400000      21.36500000      11.26500000
 H      25.89800000      20.66700000      10.95600000
 H      27.24400000      20.88200000      11.59900000
 O      28.42800000      19.79700000      12.56600000
 H      29.31400000      19.29600000      12.74000000
 H      27.81300000      19.35700000      13.27400000
 O      30.64300000      13.71400000      10.30200000
 H      31.06400000      14.55800000      10.44400000
 H      29.97800000      13.69500000      11.01900000
 O      23.92500000      17.20000000       7.48500000
 H      24.21000000      17.95100000       6.90400000
 H      23.26200000      16.69000000       6.90700000
 O      21.19900000      15.13000000      11.26400000
 H      21.15000000      14.90700000      12.19200000
 H      22.05100000      14.71000000      10.97400000
 O      21.89000000      13.33400000       7.44800000
 H      21.50700000      14.19400000       7.25900000
 H      21.97500000      12.92100000       6.62500000
 O      25.75600000      18.57600000      11.08800000
 H      25.88100000      18.03900000      10.17900000
 H      24.89400000      18.35500000      11.39600000
 O      23.25300000      12.58600000      12.35600000
 H      24.18300000      12.33700000      12.02700000
 H      23.35100000      12.53500000      13.30600000
 O      23.37600000      19.06400000      13.71700000
 H      23.30400000      20.05700000      13.69500000
 H      22.77200000      18.68000000      13.10100000
 O      24.53600000      20.73300000       8.94900000
 H      23.91500000      20.05700000       9.37900000
 H      25.43200000      20.25600000       8.99700000
 O      22.38900000      16.87600000      15.32400000
 H      21.49800000      17.02000000      15.69900000
 H      22.56500000      17.72800000      14.90900000
 O      29.80800000      18.57900000       7.45900000
 H      30.43600000      17.81300000       7.28700000
 H      29.85400000      19.06100000       6.59300000
 O      27.07500000      15.95700000       7.16700000
 H      26.47200000      16.37100000       6.46200000
 H      26.57300000      16.06800000       7.99000000
 O      26.32500000      11.44100000      14.24600000
 H      26.07600000      11.49900000      13.32300000
 H      25.74200000      10.71200000      14.49000000
 O      29.29400000      20.11300000       9.98100000
 H      29.01300000      19.80900000      10.83900000
 H      28.84900000      19.41000000       9.42900000
 O      25.55500000      15.75700000      15.21500000
 H      25.98300000      16.64700000      15.25200000
 H      24.59200000      16.02800000      15.21000000
 O      22.88600000      17.60600000      11.14000000
 H      22.76000000      16.62200000      11.08500000
 H      22.05200000      18.04300000      10.82600000
