129
XYZ file of cluster: frame_10000_9225.20df4.46fa3 - created by MolEdiTo
 O       7.93000000       5.79900000      12.77500000
 H       7.67200000       6.71100000      12.53100000
 H       8.41800000       5.44000000      11.95900000
 O      10.32400000      15.06400000      19.13800000
 H      10.06000000      14.57000000      20.01200000
 H       9.75000000      14.65700000      18.50300000
 O       8.61200000       7.75000000       9.98500000
 H       9.52500000       7.40500000       9.75600000
 H       8.66800000       8.01800000      10.91100000
 O       6.12700000       4.87500000       9.89200000
 H       5.96700000       5.41400000      10.73600000
 H       5.39700000       4.22500000       9.77600000
 O       1.92100000      13.19200000      16.80500000
 H       1.22500000      13.62800000      17.31100000
 H       2.62100000      12.93100000      17.44500000
 O       4.69400000       6.59100000      20.96900000
 H       4.74700000       7.51300000      20.69700000
 H       3.75500000       6.47200000      21.28700000
 O       3.33600000      12.40500000      21.29800000
 H       3.66200000      12.31900000      20.34000000
 H       2.75400000      13.21900000      21.35400000
 O       3.40500000       8.89900000      18.41000000
 H       3.12100000       7.95700000      18.41300000
 H       2.96800000       9.08700000      19.24700000
 O       6.30300000       8.75900000      15.12500000
 H       6.03400000       8.74300000      14.20000000
 H       6.17200000       7.83900000      15.36400000
 O       6.48700000      13.48000000      17.71100000
 H       6.84500000      12.94100000      16.97600000
 H       5.54300000      13.68000000      17.33000000
 O       3.01800000       9.26000000      11.29000000
 H       3.43700000       8.58700000      10.70900000
 H       3.08500000      10.06600000      10.70800000
 O      10.47200000       6.80100000      16.78200000
 H      10.63300000       5.84700000      16.58900000
 H       9.88600000       6.69600000      17.58500000
 O       2.60500000       6.19100000      17.19500000
 H       1.88200000       5.77000000      16.69000000
 H       2.35100000       5.95400000      18.08100000
 O       4.17000000      10.34000000      15.74700000
 H       4.89700000      10.00500000      15.11700000
 H       3.57900000       9.62800000      15.94500000
 O       6.86300000      10.65500000      11.22000000
 H       6.87200000       9.80500000      10.66700000
 H       7.56400000      11.21200000      10.79200000
 O       2.96800000      11.88400000      10.07200000
 H       2.17100000      12.43900000      10.43200000
 H       3.03100000      11.92300000       9.06300000
 O       7.53300000      11.41900000      16.11700000
 H       6.82000000      10.73000000      15.74400000
 H       8.28900000      11.07900000      15.79300000
 O       4.96400000      13.30000000      11.37200000
 H       4.23000000      13.07600000      11.98300000
 H       4.72300000      13.01400000      10.46300000
 O       7.16400000      15.51400000      13.50600000
 H       7.68700000      14.68600000      13.67200000
 H       6.63000000      15.57300000      14.37900000
 O       9.93700000      11.98800000      13.94500000
 H      10.17700000      12.09500000      13.02100000
 H      10.51000000      11.23500000      14.24300000
 O       8.93700000       6.84600000      18.95200000
 H       9.34200000       7.72900000      19.03900000
 H       7.98100000       7.06100000      18.77500000
 O      10.67300000       4.90500000      13.81900000
 H       9.84500000       5.52800000      13.75400000
 H      10.74700000       4.45500000      13.01500000
 O      10.29200000       9.14500000      19.34100000
 H      10.14100000      10.08400000      19.18200000
 H      10.64800000       9.09400000      20.24900000
 O       4.42100000      12.86200000      18.70800000
 H       5.17800000      13.30600000      19.22400000
 H       4.82700000      12.86800000      17.75100000
 O       2.15200000       8.64500000      13.76000000
 H       2.60900000       8.71000000      12.89900000
 H       1.17600000       8.50200000      13.47100000
 O       5.03500000       9.88100000      20.92600000
 H       4.11600000      10.21600000      20.76300000
 H       5.49800000      10.74100000      21.17600000
 O       9.92800000      14.44400000      10.54500000
 H       9.18300000      13.79700000      10.42700000
 H      10.02600000      14.83700000       9.67200000
 O      10.11300000       9.27300000      15.85400000
 H       9.81100000       9.67000000      16.68900000
 H      10.19400000       8.36700000      16.12000000
 O       3.36400000      12.32800000      13.79900000
 H       3.20100000      11.97300000      14.75300000
 H       2.97000000      11.62100000      13.23300000
 O       4.22900000       6.87900000      15.22900000
 H       3.57800000       7.39500000      14.62200000
 H       3.66200000       6.66100000      16.08700000
 O       5.59300000      12.72300000      15.92500000
 H       5.04500000      11.91800000      15.91300000
 H       6.32100000      12.59000000      15.28000000
 O       6.06300000       7.12200000      19.44600000
 H       5.70000000       8.02800000      19.20800000
 H       5.41400000       6.56900000      19.91500000
 O       6.36500000       8.18500000      12.73600000
 H       6.03500000       7.46400000      12.10400000
 H       6.39400000       9.02400000      12.20700000
 O       6.71300000       6.09600000      16.04600000
 H       5.81500000       6.17000000      15.85200000
 H       6.73200000       5.94300000      17.00100000
 O       1.83200000      14.81100000      21.10800000
 H       2.06200000      15.48900000      20.41200000
 H       1.71200000      15.29600000      21.93600000
 O       6.39500000       9.51500000      18.15000000
 H       6.42800000       9.81000000      17.21100000
 H       5.46400000       9.85900000      18.39200000
 O       8.82400000       8.89500000      13.05100000
 H       8.83100000       9.92400000      13.16900000
 H       8.94200000       8.64200000      14.01700000
 O       2.15200000       6.33100000      11.20900000
 H       1.87700000       5.84300000      11.97700000
 H       2.36200000       5.67800000      10.51000000
 O       2.37400000      15.59000000      15.11300000
 H       2.84100000      15.41000000      14.19100000
 H       2.86800000      14.98000000      15.69700000
 O       7.43600000      11.44500000      19.67800000
 H       7.27400000      12.23200000      19.04800000
 H       7.16300000      10.64300000      19.15000000
 O       5.96200000      11.85800000      13.46800000
 H       5.16500000      12.14200000      13.14200000
 H       6.27400000      11.24200000      12.73200000
 O       5.27300000       5.76000000      12.36200000
 H       5.24700000       6.14900000      13.26700000
 H       4.31500000       5.40300000      12.30500000
 O       3.61600000      15.87900000      12.17100000
 H       4.36000000      15.22800000      12.02700000
 H       3.64000000      16.25200000      11.26400000
