120
XYZ file of cluster: frame_10000_c9ef4.c62c9.7196c - created by MolEdiTo
 O      26.40800000      27.77300000      24.60700000
 H      26.68500000      28.58900000      24.96400000
 H      27.06000000      27.08400000      24.58800000
 O      28.99000000      29.15000000      19.91500000
 H      28.54200000      29.99200000      20.40200000
 H      29.45400000      28.58800000      20.53000000
 O      28.38200000      25.85700000      25.14400000
 H      29.16300000      26.29500000      25.57700000
 H      28.75100000      25.47100000      24.34800000
 O      27.83800000      26.13400000      18.27600000
 H      27.19300000      26.88700000      18.16300000
 H      28.21400000      25.85200000      17.40100000
 O      27.40100000      28.79800000      17.55600000
 H      26.59300000      29.26800000      17.89100000
 H      27.94200000      28.79500000      18.35800000
 O      29.90200000      30.21700000      15.23100000
 H      30.06400000      30.65400000      16.12900000
 H      29.24800000      29.49300000      15.31000000
 O      29.94400000      28.45100000      25.78000000
 H      30.37100000      29.19200000      25.29500000
 H      30.66800000      28.18900000      26.36500000
 O      29.39400000      27.44900000      21.86500000
 H      28.87500000      27.03200000      21.16700000
 H      29.76500000      26.82600000      22.45800000
 O      30.11000000      30.14300000      23.14100000
 H      30.14800000      30.85700000      22.42900000
 H      29.56300000      29.43500000      22.80600000
 O      29.01200000      37.24200000      23.97900000
 H      28.08400000      37.42800000      23.67700000
 H      28.82100000      36.46400000      24.60500000
 O      28.53600000      34.62300000      24.85200000
 H      28.00300000      34.05900000      25.40300000
 H      29.33200000      34.35200000      25.34800000
 O      26.03500000      36.25800000      25.07800000
 H      26.86800000      35.77200000      25.03700000
 H      25.99900000      36.50300000      26.02000000
 O      28.43400000      32.97100000      20.99900000
 H      27.92800000      33.32800000      20.19100000
 H      29.21200000      33.52500000      21.00700000
 O      27.68200000      36.82700000      17.78100000
 H      26.92100000      36.24200000      18.22100000
 H      27.23500000      37.71100000      17.46800000
 O      27.37500000      33.83900000      18.63600000
 H      27.61400000      33.95500000      17.70800000
 H      26.38000000      34.08300000      18.77200000
 O      30.18000000      36.65700000      18.60900000
 H      30.16700000      37.55900000      18.97700000
 H      29.26700000      36.43500000      18.60100000
 O      27.02100000      32.56300000      23.41100000
 H      27.87700000      33.09000000      23.57700000
 H      27.13200000      32.09800000      22.58300000
 O      28.82600000      35.36200000      16.12400000
 H      28.98800000      36.32100000      16.01300000
 H      28.22800000      35.11400000      15.44100000
 O      35.28400000      29.16800000      20.06700000
 H      34.95200000      28.54900000      19.46500000
 H      34.77400000      29.94200000      20.03000000
 O      33.63400000      28.32800000      22.87300000
 H      32.82400000      28.71000000      23.32200000
 H      34.17500000      29.05900000      22.74300000
 O      33.14400000      25.66300000      23.34500000
 H      33.04900000      25.50700000      24.33900000
 H      33.23300000      26.70300000      23.32400000
 O      34.42200000      29.86500000      25.66200000
 H      35.24500000      29.76600000      26.16200000
 H      34.52900000      29.96700000      24.62200000
 O      33.47100000      27.01000000      18.42800000
 H      32.83900000      26.33000000      18.67600000
 H      32.93100000      27.80200000      18.61400000
 O      35.15000000      25.98600000      21.50700000
 H      35.54100000      26.90300000      21.68700000
 H      34.39600000      25.76800000      22.14600000
 O      34.96500000      30.53500000      23.00100000
 H      35.83500000      30.90700000      22.63800000
 H      34.35700000      31.19500000      22.72400000
 O      34.63400000      29.23900000      16.78400000
 H      35.52200000      28.76700000      16.75500000
 H      33.92700000      28.57000000      16.69700000
 O      35.77900000      26.63300000      15.30600000
 H      36.49100000      26.60900000      15.96800000
 H      36.27300000      26.96000000      14.50400000
 O      32.82100000      33.69500000      21.10500000
 H      33.14500000      34.30900000      21.78300000
 H      33.55400000      33.75200000      20.48400000
 O      35.35200000      36.49700000      24.07800000
 H      36.01200000      36.00300000      24.64800000
 H      34.52500000      36.45000000      24.61800000
 O      35.39000000      33.41000000      17.00300000
 H      35.32000000      33.97100000      17.81900000
 H      34.74100000      32.64900000      17.15200000
 O      32.37700000      32.60000000      17.68700000
 H      31.93100000      32.33700000      18.52700000
 H      32.09400000      33.48200000      17.47200000
 O      33.11400000      36.72500000      21.68000000
 H      32.41200000      37.33300000      21.44700000
 H      32.85500000      36.44500000      22.58700000
 O      37.32500000      36.13000000      18.73100000
 H      37.51000000      35.41900000      18.08600000
 H      36.42800000      35.92600000      19.13800000
 O      35.69800000      35.78900000      21.29700000
 H      36.46600000      36.40600000      21.21400000
 H      35.32600000      36.18800000      22.18800000
 O      33.53400000      34.44600000      23.67600000
 H      32.91100000      33.82000000      24.18700000
 H      33.67300000      35.28000000      24.17600000
 O      34.60700000      35.05100000      19.03000000
 H      34.64800000      35.48800000      19.97500000
 H      34.00100000      35.61900000      18.48200000
 O      32.85700000      35.68400000      16.51000000
 H      32.40100000      36.04100000      17.35500000
 H      32.17600000      35.43700000      15.79200000
 O      36.01200000      35.33100000      14.98300000
 H      35.66500000      34.79500000      15.74600000
 H      35.83500000      36.27400000      15.14200000
 O      36.99800000      33.79600000      17.32700000
 H      37.56200000      33.39500000      16.66100000
 H      36.14200000      33.74900000      16.87100000
 O      32.66200000      36.12200000      25.24800000
 H      32.48100000      36.62500000      26.08300000
 H      32.39600000      36.84900000      24.56900000
