36
XYZ file of cluster: frame_500_a4a5.952b4.46314 - created by MolEdiTo
 O       1.84200000      18.87700000       9.38200000
 H       1.28700000      19.68600000       9.50600000
 H       2.59600000      19.09600000      10.01700000
 O       1.99600000      17.50300000      13.04900000
 H       1.25900000      17.72400000      13.62200000
 H       2.75000000      17.58600000      13.61000000
 O       0.89900000      13.65300000       6.87100000
 H       1.29500000      12.73500000       6.81300000
 H       1.28900000      14.03700000       7.66400000
 O       4.07200000      14.39600000      14.61000000
 H       3.58300000      14.15300000      13.79400000
 H       4.43600000      13.53400000      14.91300000
 O       6.27200000      17.41500000       8.10000000
 H       6.06200000      18.31600000       7.67700000
 H       5.48300000      16.82600000       8.14900000
 O       4.82100000      14.09500000      11.51200000
 H       4.48700000      14.46400000      10.66400000
 H       4.97700000      14.91600000      12.02700000
 O       4.13900000      15.40100000       8.14500000
 H       3.33000000      15.38600000       8.75800000
 H       3.70400000      15.72200000       7.29800000
 O       7.30200000      16.23900000      13.20400000
 H       6.67300000      16.78100000      12.66200000
 H       7.37400000      16.71100000      14.11700000
 O       5.58700000      19.87200000       6.81800000
 H       5.04100000      20.32600000       6.18400000
 H       6.16000000      20.52300000       7.28300000
 O       5.67500000      17.85500000      11.54200000
 H       5.20200000      18.69600000      11.39300000
 H       5.81800000      17.45600000      10.67500000
 O       2.40800000      16.34000000      10.16700000
 H       2.27000000      16.76300000       9.29800000
 H       2.13300000      17.11000000      10.71400000
 O       1.28100000      16.90200000       7.38500000
 H       1.18300000      17.10700000       6.43600000
 H       1.72800000      17.73700000       7.76600000
