61
XYZ file of cluster: frame_500_261dd.5b7e2.43809 - created by MolEdiTo
 O       5.07000000       9.71500000      12.95300000
 H       4.09300000       9.83500000      12.60700000
 H       5.39600000      10.55700000      13.32900000
 O       9.96600000      14.74400000      11.90700000
 H       9.24500000      15.39200000      11.81200000
 H      10.36700000      15.02800000      12.79100000
 O       4.07200000      14.39600000      14.61000000
 H       3.58300000      14.15300000      13.79400000
 H       4.43600000      13.53400000      14.91300000
 O       5.40300000      11.43200000      10.59600000
 H       5.26500000      10.55700000      11.06600000
 H       5.16600000      12.11200000      11.23200000
 O       7.68600000      13.29400000      13.64300000
 H       8.31500000      12.98000000      12.96300000
 H       7.60500000      14.22000000      13.34500000
 O       6.27200000      17.41500000       8.10000000
 H       6.06200000      18.31600000       7.67700000
 H       5.48300000      16.82600000       8.14900000
 O       8.24800000      14.77500000       7.48900000
 H       8.80600000      14.33200000       8.21800000
 H       7.36500000      14.28400000       7.39000000
 O       9.40800000      11.32800000       6.72000000
 H       9.10700000      10.68200000       7.43300000
 H       9.50200000      10.75500000       5.94700000
 C      12.39400000      10.29000000      10.80000000
 C      11.15000000       9.49200000      11.28400000
 C       9.60000000      11.57600000      10.80100000
 H      10.11300000       9.86700000       9.51900000
 H      13.74500000      10.26500000       9.36600000
 O       8.69500000       9.27900000      10.87300000
 O      13.50100000      10.07500000      11.71200000
 O      12.80100000       9.97400000       9.46000000
 C       9.91600000      10.02300000      10.58100000
 O      11.19400000       8.03900000      11.19900000
 H      11.00200000       9.88100000      12.28100000
 O       9.45700000      11.79700000      12.22700000
 O       8.46500000      12.03400000      10.08400000
 H       7.71900000      11.52900000      10.51300000
 H      11.77100000       7.81100000      10.41500000
 H       8.63500000       9.18400000      11.85700000
 O       4.13900000      15.40100000       8.14500000
 H       3.33000000      15.38600000       8.75800000
 H       3.70400000      15.72200000       7.29800000
 O       4.82100000      14.09500000      11.51200000
 H       4.48700000      14.46400000      10.66400000
 H       4.97700000      14.91600000      12.02700000
 O       7.30200000      16.23900000      13.20400000
 H       6.67300000      16.78100000      12.66200000
 H       7.37400000      16.71100000      14.11700000
 O       8.73600000      16.75400000       9.87300000
 H       9.66400000      16.49700000       9.65300000
 H       8.22000000      16.55700000       9.13100000
 O       3.82300000      12.54100000       7.33300000
 H       4.72900000      12.21300000       7.64000000
 H       3.96800000      12.85000000       6.42900000
 O       6.67800000      12.20100000       7.65400000
 H       6.51700000      12.00100000       8.58400000
 H       7.60400000      12.06100000       7.44800000
 O      10.70400000      15.73200000      14.32700000
 H      10.49900000      16.68300000      14.23200000
 H      11.62900000      15.61300000      14.50900000
