33
XYZ file of cluster: frame_500_c49a9.c5fa8.490d8 - created by MolEdiTo
 O      19.00200000      20.15300000      12.74300000
 H      19.49000000      20.80800000      12.20500000
 H      18.84400000      19.45100000      12.07600000
 O      18.84500000      17.65300000       7.56500000
 H      19.82400000      17.51200000       7.61700000
 H      18.70200000      18.64600000       7.96800000
 O      18.13900000      18.84100000      10.45000000
 H      17.17600000      18.83000000      10.32300000
 H      18.39600000      19.26200000       9.57200000
 O      19.73500000      24.55200000      12.68500000
 H      20.50100000      24.75900000      12.11800000
 H      20.12400000      23.89200000      13.30500000
 O      18.10200000      21.27100000       7.88100000
 H      17.22100000      21.63500000       7.63000000
 H      18.74800000      21.75800000       7.30700000
 O      17.32500000      22.32800000      14.77100000
 H      18.03500000      22.67900000      15.25000000
 H      17.79400000      21.74900000      14.13200000
 O      23.17100000      18.87700000       9.38200000
 H      22.61600000      19.68600000       9.50600000
 H      23.92500000      19.09600000      10.01700000
 O      23.32500000      17.50300000      13.04900000
 H      22.58800000      17.72400000      13.62200000
 H      24.07900000      17.58600000      13.61000000
 O      22.61000000      16.90200000       7.38500000
 H      22.51200000      17.10700000       6.43600000
 H      23.05700000      17.73700000       7.76600000
 O      24.31200000      22.34400000       7.89800000
 H      24.42100000      21.54500000       8.49600000
 H      24.02700000      21.99200000       7.02100000
 O      22.06400000      22.06400000       9.87000000
 H      21.32900000      22.56800000       9.59800000
 H      22.72400000      22.70800000       9.74100000
