36
XYZ file of cluster: frame_500_c413c.75a00.6f53b - created by MolEdiTo
 O      20.55700000      13.63600000      17.51000000
 H      20.25200000      13.90900000      18.41600000
 H      19.62500000      13.27100000      17.15900000
 O      19.43100000      11.85100000      12.90800000
 H      18.89400000      11.33100000      13.63300000
 H      19.91800000      11.21300000      12.43500000
 O      20.51000000      15.15500000      13.15900000
 H      21.32900000      15.65600000      13.03800000
 H      20.00500000      15.95600000      13.50000000
 O      19.68700000      14.65400000      10.16600000
 H      20.60800000      14.69900000       9.80800000
 H      19.69400000      14.95700000      11.15600000
 O      20.35600000      16.59500000      17.46400000
 H      20.75700000      15.65500000      17.65300000
 H      20.76900000      17.11300000      18.15200000
 O      19.19100000      11.13400000      17.29100000
 H      19.67500000      10.88300000      16.43400000
 H      18.19500000      11.05000000      17.05300000
 O      17.93300000      15.08600000      16.81800000
 H      17.13000000      15.52700000      16.42500000
 H      18.49700000      15.64000000      17.38600000
 O      19.73100000      17.52600000      14.93600000
 H      18.85700000      17.97400000      15.08200000
 H      19.84800000      17.15600000      15.85900000
 O      25.27100000      17.15600000      16.86500000
 H      25.25800000      16.80300000      17.74600000
 H      24.80700000      16.48500000      16.45300000
 O      23.83000000      12.62400000      12.89900000
 H      23.60500000      13.28700000      12.13500000
 H      23.04700000      12.56400000      13.48300000
 O      23.64700000      11.96100000      15.90300000
 H      23.87200000      12.67000000      15.34100000
 H      23.22700000      12.55200000      16.65200000
 O      24.04200000      10.05700000      11.76800000
 H      23.92600000      10.94000000      12.05900000
 H      23.46900000      10.04200000      10.92600000
