36
XYZ file of cluster: frame_500_c55bf.c8f42.a0683 - created by MolEdiTo
 O      19.73100000      17.52600000      14.93600000
 H      18.85700000      17.97400000      15.08200000
 H      19.84800000      17.15600000      15.85900000
 O      19.92200000      21.42100000      17.09500000
 H      20.30100000      22.24400000      17.53200000
 H      20.52900000      21.19100000      16.35800000
 O      19.57800000      22.39200000      20.73100000
 H      19.03100000      21.55400000      20.75400000
 H      18.95600000      23.01500000      21.18800000
 O      17.24200000      22.08800000      18.35700000
 H      17.78100000      21.49400000      17.94300000
 H      17.62900000      22.90000000      17.95700000
 O      17.32500000      22.32800000      14.77100000
 H      18.03500000      22.67900000      15.25000000
 H      17.79400000      21.74900000      14.13200000
 O      18.95400000      24.06600000      16.47000000
 H      19.66700000      23.72300000      15.85500000
 H      18.90300000      25.00100000      16.32900000
 O      24.34200000      18.51400000      20.89100000
 H      23.97900000      17.69700000      21.16800000
 H      24.03700000      18.68800000      19.97300000
 O      23.70900000      19.12500000      18.25200000
 H      24.32600000      19.05600000      17.55000000
 H      22.98100000      19.70100000      17.97800000
 O      24.18300000      23.15100000      20.53300000
 H      23.71400000      22.80900000      21.31800000
 H      23.56100000      23.74000000      20.09400000
 O      24.14800000      21.54800000      15.84000000
 H      24.70500000      20.88600000      15.35500000
 H      24.82700000      22.18700000      16.04300000
 O      22.23100000      24.13700000      18.58200000
 H      21.45300000      24.14600000      17.94200000
 H      21.94600000      23.97000000      19.49000000
 O      22.32100000      23.35800000      15.02900000
 H      22.95300000      22.65900000      15.35300000
 H      23.02200000      23.95100000      14.68200000
