39
XYZ file of cluster: frame_500_9aacf.2359d.5d105 - created by MolEdiTo
 O      19.73500000       3.70900000      12.68500000
 H      20.50100000       3.91600000      12.11800000
 H      20.12400000       3.04900000      13.30500000
 O      14.79500000       3.48400000      14.02800000
 H      15.56500000       3.82500000      13.59900000
 H      15.27100000       3.01800000      14.74000000
 O      14.16600000       7.19100000      12.30200000
 H      14.95400000       7.26000000      11.68200000
 H      13.51300000       7.68700000      11.70400000
 O      17.00800000       4.73400000      12.96400000
 H      17.96600000       4.68200000      13.29000000
 H      17.06900000       5.77700000      12.84200000
 O      18.14200000       7.17400000      12.68800000
 H      18.36800000       7.98200000      13.15700000
 H      18.59500000       7.22100000      11.83300000
 O      14.87800000       3.75600000      11.09700000
 H      14.72400000       4.49600000      11.73200000
 H      15.55800000       3.23700000      11.56100000
 O      15.80400000       7.61900000      10.02600000
 H      15.99600000       8.54100000      10.00900000
 H      16.33400000       7.11000000       9.34900000
 O      18.57900000       3.72700000      10.23700000
 H      18.85900000       3.67600000      11.20800000
 H      19.49300000       4.02000000       9.87800000
 O      19.33600000       7.68400000      10.28500000
 H      19.93300000       7.54400000       9.49400000
 H      18.80000000       8.39500000      10.03000000
 O      20.64900000      10.40900000       9.82300000
 H      19.65800000      10.28500000       9.83500000
 H      20.89200000       9.71300000       9.15200000
 O      17.71500000       9.54700000       8.97000000
 H      17.37000000       8.96700000       8.19900000
 H      17.36400000      10.44600000       8.98800000
 O      15.15200000       9.27900000      14.57100000
 H      14.46500000       9.39100000      15.29900000
 H      14.69800000       8.68100000      13.90900000
 O      16.07300000       3.66400000       8.57500000
 H      16.92100000       3.54900000       9.04500000
 H      15.39200000       3.73000000       9.29600000
