151
XYZ file of cluster: frame_15000_4d600.20f8f.25082 - created by MolEdiTo
 O      13.92800000      12.23100000       7.73500000
 H      13.78000000      12.26400000       8.69500000
 H      14.52000000      11.41300000       7.80800000
 O      14.78700000       5.71000000       6.49200000
 H      13.90000000       6.11200000       6.35700000
 H      14.99200000       5.13400000       5.75300000
 O      20.13900000       9.65000000      13.90900000
 H      20.66900000       9.46700000      13.09000000
 H      19.47400000      10.34000000      13.64000000
 O      20.41800000       5.87700000       5.46600000
 H      20.39700000       6.44300000       6.27000000
 H      21.01100000       6.40500000       4.87200000
 O      16.55500000       7.51200000       8.22100000
 H      16.39900000       7.00300000       9.00900000
 H      16.22900000       6.99300000       7.49400000
 O      18.78700000      15.12600000       9.84500000
 H      18.55300000      15.98800000       9.41200000
 H      18.01300000      14.57400000       9.57200000
 O      18.38300000      11.20800000       6.20300000
 H      18.70800000      12.02700000       6.56400000
 H      18.19000000      10.69000000       7.03800000
 O      18.76300000      14.51300000      12.65800000
 H      18.67000000      15.44500000      12.96300000
 H      18.77200000      14.78800000      11.74300000
 O      13.92500000      12.61700000      11.97000000
 H      13.60000000      11.77900000      11.58100000
 H      13.73600000      12.59000000      12.94600000
 O      14.40600000       7.47900000      15.77300000
 H      15.05900000       7.50000000      15.06100000
 H      14.29100000       6.48400000      15.69000000
 O      16.01800000       9.51000000      12.88000000
 H      15.51600000       8.84500000      13.45500000
 H      16.31400000      10.13900000      13.56400000
 O      21.58700000      13.20800000      11.06000000
 H      20.95100000      13.91400000      10.84300000
 H      21.57600000      13.22900000      12.04600000
 O      19.47100000       7.63600000      15.68300000
 H      20.02800000       6.93500000      15.34300000
 H      19.61200000       8.36400000      15.03700000
 O      10.08400000       5.80200000      14.02400000
 H      10.23100000       5.80800000      12.99200000
 H      10.65200000       5.10000000      14.30700000
 O      13.16400000       7.59300000       9.04800000
 H      13.83900000       7.14900000       9.66300000
 H      13.46100000       8.40600000       8.75900000
 C      15.68400000      14.39200000      15.44900000
 C      15.29700000      15.33700000      16.57300000
 C      16.78600000      17.16600000      15.35900000
 H      14.63700000      17.12200000      15.54600000
 H      14.03100000      13.95200000      15.72800000
 O      15.52500000      17.58300000      17.37300000
 O      16.82200000      14.13100000      15.17600000
 O      14.64400000      13.78500000      14.94700000
 C      15.45200000      16.84200000      16.13800000
 O      13.95500000      15.08400000      17.06700000
 H      15.94100000      15.12300000      17.40300000
 O      16.90500000      17.19200000      14.15700000
 O      17.92200000      17.02600000      16.02500000
 H      17.62200000      16.74700000      16.88400000
 H      14.13600000      15.07000000      18.06800000
 H      14.90900000      17.19700000      18.08900000
 O      15.99600000      14.66700000      11.94100000
 H      16.60200000      14.56300000      12.67300000
 H      15.41600000      13.87200000      11.96300000
 O      10.86900000       7.63000000       6.34300000
 H      11.35500000       7.62700000       7.21200000
 H      10.33600000       6.82700000       6.53100000
 O      10.45900000      13.92400000      15.84200000
 H      11.17100000      13.42300000      16.29800000
 H      10.62000000      14.88800000      16.12200000
 O      20.03100000      13.60500000      15.77700000
 H      19.78000000      12.83600000      15.20600000
 H      20.47300000      14.21600000      15.15300000
 O      20.03100000       6.94800000      11.11500000
 H      20.59700000       6.11100000      11.15200000
 H      19.23800000       6.44000000      10.92900000
 O      11.88800000       8.33600000      16.11000000
 H      12.83200000       8.25900000      15.76500000
 H      11.29300000       8.20800000      15.32200000
 O      12.91500000      10.14000000      11.16400000
 H      13.50300000       9.49300000      11.53600000
 H      11.96400000       9.96000000      11.49300000
 O      17.79500000       5.45500000      10.18000000
 H      17.20900000       5.29500000      10.91800000
 H      17.63900000       4.59100000       9.66900000
 O      19.48700000       7.70100000       7.53300000
 H      18.54900000       7.44000000       7.36500000
 H      19.30900000       8.41800000       8.18000000
 O      12.95400000       6.39700000      12.79400000
 H      13.10100000       5.43700000      12.59100000
 H      12.61900000       6.38000000      13.73700000
 O      11.99200000      11.62800000      13.88100000
 H      11.83300000      12.11100000      14.71800000
 H      11.48200000      10.80500000      13.94300000
 O      21.38800000       9.29300000       6.46400000
 H      21.59500000      10.11800000       6.93900000
 H      20.86000000       8.78800000       7.17100000
 O      11.68100000       4.74600000      10.31700000
 H      11.50700000       5.60800000      10.66600000
 H      11.67300000       4.28300000      11.16300000
 O      14.97800000      15.76800000       7.94600000
 H      14.97500000      16.66200000       7.60400000
 H      14.10600000      15.52700000       7.91900000
 O      12.76000000      13.55000000       5.34400000
 H      13.47600000      14.06700000       4.88100000
 H      13.31900000      12.98700000       5.94300000
 O      20.40100000      14.14700000       7.67500000
 H      19.83600000      14.33900000       8.40600000
 H      21.29900000      13.95200000       8.20400000
 O      18.62100000      10.77600000       8.92000000
 H      19.41900000      10.43400000       9.39500000
 H      18.37500000      11.59200000       9.46000000
 O      19.85200000      10.40500000      16.74100000
 H      18.87900000      10.21800000      16.76600000
 H      20.19500000      10.24000000      15.83200000
 O      12.56400000      15.37300000      13.26500000
 H      13.01900000      14.53900000      13.47300000
 H      12.10700000      15.33500000      12.36800000
 O      16.31300000      10.48200000      15.69000000
 H      16.47300000       9.66300000      16.25600000
 H      15.84700000      11.11600000      16.35200000
 O      15.78100000      10.25900000       8.55600000
 H      16.22400000       9.42500000       8.27800000
 H      16.53700000      10.66500000       9.01300000
 O      17.09300000      11.61500000      10.96200000
 H      16.86800000      10.94200000      11.69900000
 H      16.54800000      12.41400000      11.08900000
 O      15.21600000       7.13700000      10.59800000
 H      16.01600000       7.59700000      10.90100000
 H      14.93800000       6.53200000      11.32800000
 O      20.81800000       9.31500000       9.96100000
 H      20.41200000       8.62700000      10.58300000
 H      21.47600000       9.72100000      10.58700000
 O      18.37000000      11.78900000      14.11400000
 H      17.61600000      11.77800000      14.60500000
 H      18.39100000      12.77200000      13.86000000
 O      10.95400000      11.59900000       9.65400000
 H      10.63700000      11.62500000       8.78000000
 H      11.77800000      11.09500000       9.65200000
 O      16.89200000      13.54500000       7.62700000
 H      16.37900000      13.29800000       6.77000000
 H      16.34200000      14.27000000       7.99800000
 O      12.35600000      15.59400000       7.28600000
 H      12.57300000      14.94400000       6.56500000
 H      11.53600000      15.33400000       7.71200000
 O      10.23900000      12.76900000       6.24600000
 H      10.06500000      12.75900000       5.28300000
 H      11.15600000      12.92200000       6.20800000
 O      20.49300000      13.69900000       4.81500000
 H      21.25400000      13.21900000       5.14400000
 H      20.06700000      13.89400000       5.61100000
