126
XYZ file of cluster: frame_15000_22f49.1e6ca.9d049 - created by MolEdiTo
 O       5.47700000       5.13100000      23.64000000
 H       5.24900000       5.80800000      24.31100000
 H       4.79900000       5.18700000      23.02600000
 O       5.74000000       9.28600000      29.38300000
 H       5.31100000       9.80100000      30.02800000
 H       5.12100000       9.24800000      28.63900000
 O       6.66700000      15.70100000      24.51300000
 H       7.54500000      15.41200000      24.04300000
 H       6.99400000      15.65900000      25.49600000
 O      12.00900000       7.22700000      23.02800000
 H      12.14500000       8.08700000      23.53300000
 H      11.42300000       7.42400000      22.28100000
 O      11.17100000      13.00500000      29.93900000
 H      11.14900000      12.60100000      30.84800000
 H      11.87100000      13.62400000      29.70600000
 O       6.81800000       8.77200000      23.29800000
 H       5.96300000       9.27400000      23.43800000
 H       7.49400000       9.38700000      23.54900000
 O       5.20600000       7.34800000      25.53000000
 H       4.54700000       8.01700000      25.81100000
 H       6.04200000       7.83800000      25.70800000
 O       4.85900000      13.35800000      24.80600000
 H       5.23400000      14.24900000      24.76500000
 H       5.61500000      12.82800000      24.46700000
 O      13.82600000      12.42400000      20.84300000
 H      13.83600000      12.09100000      21.78800000
 H      13.40900000      11.64700000      20.41600000
 O      10.77900000       6.63200000      27.26500000
 H      10.63500000       6.13700000      26.34500000
 H      11.66800000       6.33200000      27.54900000
 O      15.68500000      12.06100000      24.69300000
 H      15.37600000      13.02800000      24.75700000
 H      16.62700000      12.09700000      24.30700000
 O      10.15800000      13.63100000      27.28500000
 H      10.62300000      12.96500000      26.75600000
 H      10.17000000      13.20300000      28.17100000
 O       9.16600000       6.33500000      24.35000000
 H       9.59600000       6.40300000      23.47900000
 H       8.29100000       6.74000000      24.25300000
 O       9.88100000      11.22400000      21.65600000
 H      10.35000000      11.91200000      22.19800000
 H       9.71600000      11.66200000      20.82200000
 O      13.85100000      12.21300000      27.20100000
 H      14.39200000      12.00100000      28.01900000
 H      14.41300000      11.80600000      26.43400000
 O      12.72300000       9.63100000      24.59700000
 H      12.12900000       9.82100000      25.45200000
 H      13.65400000       9.55200000      24.96500000
 O       7.29900000      12.45800000      23.96900000
 H       8.04500000      13.16500000      23.88000000
 H       7.69100000      11.67000000      24.46700000
 O       6.23900000      11.22100000      21.40700000
 H       6.28200000      10.34700000      21.77000000
 H       6.28400000      11.76700000      22.23500000
 O      15.45700000      10.64300000      29.70800000
 H      15.54500000      11.35300000      30.40700000
 H      15.22800000       9.85600000      30.19000000
 O       8.16800000      16.23400000      29.18700000
 H       7.28900000      15.70500000      29.35400000
 H       8.19200000      16.87900000      29.88400000
 O      12.23200000      12.63900000      23.67200000
 H      12.80100000      13.41400000      23.36000000
 H      12.90800000      12.06700000      24.01300000
 O      15.43500000      15.12900000      29.38200000
 H      15.65800000      15.64000000      30.24400000
 H      14.90600000      15.72200000      28.75900000
 O      11.14300000      11.17300000      26.69700000
 H      10.57500000      10.69100000      27.34100000
 H      11.80000000      11.62300000      27.22000000
 O       7.08000000      14.22500000      27.08100000
 H       7.50100000      14.97800000      27.52000000
 H       7.80100000      13.53300000      27.24900000
 O      10.07500000       8.99900000      28.16500000
 H      10.02000000       8.83500000      29.15200000
 H      10.65200000       8.17600000      28.00900000
 O       6.34100000       6.18700000      28.92600000
 H       6.84200000       6.48900000      28.10800000
 H       5.92300000       7.02000000      29.22400000
 O      15.75800000       6.08100000      24.93000000
 H      16.27100000       5.96000000      25.79600000
 H      15.17600000       5.25300000      24.91500000
 O       7.30200000       6.64700000      21.82400000
 H       6.80900000       7.52700000      21.89400000
 H       6.87100000       6.03400000      22.49600000
 O      14.70900000       6.62600000      29.24500000
 H      13.98000000       6.98700000      29.80500000
 H      15.53500000       6.73200000      29.82800000
 O       9.14800000       9.74100000      24.49900000
 H      10.09100000       9.97200000      24.30900000
 H       9.17400000       9.15400000      25.29500000
 O       7.59200000       4.32200000      30.62300000
 H       7.46300000       5.29500000      30.43700000
 H       6.85000000       3.95200000      30.09900000
 O       8.09900000      11.55100000      28.19100000
 H       7.97000000      10.60600000      27.91400000
 H       8.65500000      11.38200000      29.01600000
 O      13.45200000       6.99200000      26.73400000
 H      13.79800000       6.50300000      27.53700000
 H      13.96500000       7.76200000      26.54000000
 O      13.41700000      14.98500000      23.27500000
 H      13.01900000      15.74500000      23.67000000
 H      14.36800000      14.99100000      23.63600000
 O      14.73500000       9.48200000      22.13900000
 H      14.10100000       9.90300000      22.78700000
 H      14.22600000       9.39600000      21.23500000
 O      12.79400000      15.00000000      27.38800000
 H      12.36700000      14.52300000      26.65400000
 H      13.01300000      14.23500000      28.00000000
 O       9.95400000       8.35000000      21.36800000
 H       9.76600000       9.34100000      21.31200000
 H       9.01900000       7.99700000      21.47600000
 O      15.37400000       9.08500000      26.63900000
 H      15.71600000       8.73000000      27.49600000
 H      16.11100000       9.17400000      25.96300000
 O       9.66200000      13.83700000      23.37900000
 H      10.10900000      14.51200000      22.85900000
 H      10.45200000      13.37500000      23.69900000
 O       6.69800000      13.45100000      30.06100000
 H       6.30800000      12.93600000      29.32000000
 H       7.40800000      12.80800000      30.50400000
 O      13.19700000       4.49100000      23.06800000
 H      12.45700000       3.97600000      23.47700000
 H      13.04400000       5.40000000      23.37100000
 O       8.07600000       7.75000000      26.98400000
 H       8.75600000       8.23600000      27.54800000
 H       8.59200000       6.93400000      26.76500000
