126
XYZ file of cluster: frame_15000_4d600.20f8f.55c5 - created by MolEdiTo
 O      14.19800000       8.61100000       5.07300000
 H      13.71700000       7.99500000       4.41500000
 H      15.18100000       8.66500000       4.76800000
 O      13.92800000      12.23100000       7.73500000
 H      13.78000000      12.26400000       8.69500000
 H      14.52000000      11.41300000       7.80800000
 O      17.35500000       6.85500000       3.80800000
 H      18.12300000       6.84600000       4.37200000
 H      17.80200000       7.00800000       2.87900000
 O      14.78700000       5.71000000       6.49200000
 H      13.90000000       6.11200000       6.35700000
 H      14.99200000       5.13400000       5.75300000
 O      14.26300000       6.41700000       2.61200000
 H      15.03100000       5.83400000       2.61600000
 H      13.48600000       5.93400000       2.96100000
 O      20.41800000       5.87700000       5.46600000
 H      20.39700000       6.44300000       6.27000000
 H      21.01100000       6.40500000       4.87200000
 O      16.55500000       7.51200000       8.22100000
 H      16.39900000       7.00300000       9.00900000
 H      16.22900000       6.99300000       7.49400000
 O      18.78700000      15.12600000       9.84500000
 H      18.55300000      15.98800000       9.41200000
 H      18.01300000      14.57400000       9.57200000
 O      19.98600000       7.22300000       2.34100000
 H      20.75300000       7.39600000       2.92500000
 H      20.31100000       6.36900000       1.97300000
 O      18.38300000      11.20800000       6.20300000
 H      18.70800000      12.02700000       6.56400000
 H      18.19000000      10.69000000       7.03800000
 O      15.85500000      10.75300000       3.93300000
 H      15.18300000      10.60100000       4.59900000
 H      16.49000000      11.32300000       4.38600000
 O      11.28000000       5.92300000       3.14700000
 H      11.07000000       5.17900000       2.49600000
 H      10.50900000       5.98600000       3.77300000
 O      13.16400000       7.59300000       9.04800000
 H      13.83900000       7.14900000       9.66300000
 H      13.46100000       8.40600000       8.75900000
 O      14.89200000       8.78900000       1.61900000
 H      15.54000000       9.15000000       2.29200000
 H      14.67700000       7.90100000       2.00200000
 O      10.86900000       7.63000000       6.34300000
 H      11.35500000       7.62700000       7.21200000
 H      10.33600000       6.82700000       6.53100000
 O      17.79500000       5.45500000      10.18000000
 H      17.20900000       5.29500000      10.91800000
 H      17.63900000       4.59100000       9.66900000
 O      20.20300000      10.95500000       3.95100000
 H      20.57200000      10.32300000       4.53400000
 H      19.39400000      11.26900000       4.41600000
 O      14.32500000      16.44200000       3.79100000
 H      14.88500000      15.65300000       3.75000000
 H      13.64400000      16.00100000       3.18600000
 O      16.41600000      13.35100000       1.39000000
 H      17.30000000      13.07600000       1.06400000
 H      16.13400000      13.93300000       0.69700000
 O      15.26400000      13.61500000       3.83400000
 H      16.16700000      13.98600000       3.77100000
 H      15.35000000      13.10900000       2.98500000
 O      19.48700000       7.70100000       7.53300000
 H      18.54900000       7.44000000       7.36500000
 H      19.30900000       8.41800000       8.18000000
 O      11.41500000       9.99100000       4.49400000
 H      10.95300000       9.38100000       5.10400000
 H      12.41100000       9.79600000       4.71200000
 O      21.38800000       9.29300000       6.46400000
 H      21.59500000      10.11800000       6.93900000
 H      20.86000000       8.78800000       7.17100000
 O      11.68100000       4.74600000      10.31700000
 H      11.50700000       5.60800000      10.66600000
 H      11.67300000       4.28300000      11.16300000
 O      19.19000000      12.60700000       1.66200000
 H      19.64800000      12.02100000       1.01200000
 H      19.86600000      12.43700000       2.43300000
 O      14.97800000      15.76800000       7.94600000
 H      14.97500000      16.66200000       7.60400000
 H      14.10600000      15.52700000       7.91900000
 O      12.76000000      13.55000000       5.34400000
 H      13.47600000      14.06700000       4.88100000
 H      13.31900000      12.98700000       5.94300000
 O      11.77700000      15.09200000       3.19300000
 H      11.37900000      14.37400000       3.69900000
 H      11.05800000      15.66800000       2.84700000
 O      20.40100000      14.14700000       7.67500000
 H      19.83600000      14.33900000       8.40600000
 H      21.29900000      13.95200000       8.20400000
 O      18.62100000      10.77600000       8.92000000
 H      19.41900000      10.43400000       9.39500000
 H      18.37500000      11.59200000       9.46000000
 O      18.11000000      14.46000000       3.78600000
 H      18.04400000      14.22500000       2.84200000
 H      18.95600000      13.97300000       4.03200000
 O      18.05100000       8.85600000       1.77800000
 H      18.94800000       8.37700000       1.90400000
 H      17.96600000       9.46000000       2.57800000
 O      15.78100000      10.25900000       8.55600000
 H      16.22400000       9.42500000       8.27800000
 H      16.53700000      10.66500000       9.01300000
 O      10.10900000       7.78500000       1.18900000
 H      10.49500000       7.10200000       1.73200000
 H      10.85600000       8.44200000       1.22800000
 O      12.34600000       9.69800000       1.03100000
 H      13.37700000       9.46600000       1.20800000
 H      12.21500000      10.64800000       1.34900000
 O      20.81800000       9.31500000       9.96100000
 H      20.41200000       8.62700000      10.58300000
 H      21.47600000       9.72100000      10.58700000
 O      11.56100000      11.93000000       2.57800000
 H      11.25300000      11.24500000       3.15200000
 H      12.27900000      12.22900000       3.11700000
 O      10.95400000      11.59900000       9.65400000
 H      10.63700000      11.62500000       8.78000000
 H      11.77800000      11.09500000       9.65200000
 O      16.89200000      13.54500000       7.62700000
 H      16.37900000      13.29800000       6.77000000
 H      16.34200000      14.27000000       7.99800000
 O      12.35600000      15.59400000       7.28600000
 H      12.57300000      14.94400000       6.56500000
 H      11.53600000      15.33400000       7.71200000
 O      10.23900000      12.76900000       6.24600000
 H      10.06500000      12.75900000       5.28300000
 H      11.15600000      12.92200000       6.20800000
 O      20.49300000      13.69900000       4.81500000
 H      21.25400000      13.21900000       5.14400000
 H      20.06700000      13.89400000       5.61100000
