42
XYZ file of cluster: frame_3000_2113e.59c56.9b849 - created by MolEdiTo
 O       5.79000000      13.03500000      16.76600000
 H       6.47900000      13.43600000      16.18100000
 H       5.73500000      13.59600000      17.58300000
 O       4.85000000      14.85800000      14.19600000
 H       5.66500000      14.60000000      14.68400000
 H       4.15200000      14.33400000      14.63200000
 O       3.62700000      11.33800000      16.15900000
 H       3.63300000      11.13500000      15.17900000
 H       4.48400000      11.68100000      16.29700000
 O       3.32900000      13.47700000      19.69900000
 H       3.93800000      13.96700000      19.07500000
 H       2.81500000      14.22000000      20.11300000
 O       3.84700000       9.12100000      18.82500000
 H       3.70400000       9.68900000      18.06700000
 H       3.50100000       9.57200000      19.59400000
 O      10.44100000       9.78700000      19.44300000
 H       9.49900000       9.64600000      19.54500000
 H      10.76000000       9.07600000      18.87100000
 O       9.34500000       8.91700000      15.94100000
 H       9.53900000       8.01900000      16.18000000
 H       8.55600000       8.96700000      15.41800000
 O       6.32400000      10.69300000      19.61100000
 H       5.71900000      10.27000000      18.96300000
 H       5.85000000      10.51800000      20.50600000
 O       8.02100000       8.53400000      20.49800000
 H       7.69100000       7.94200000      21.27800000
 H       7.25800000       9.16400000      20.29300000
 O       7.54600000      13.95700000      14.50500000
 H       7.56100000      14.55900000      13.72100000
 H       7.90100000      13.13500000      14.23400000
 O       6.31000000      14.48900000      19.12900000
 H       6.43400000      15.22300000      19.81400000
 H       6.50200000      13.64600000      19.72600000
 O       7.02500000       9.40800000      14.48100000
 H       6.31200000       9.56700000      13.83400000
 H       6.52300000       8.87400000      15.11000000
 O       8.75100000      12.12600000      19.02300000
 H       9.48400000      11.45200000      19.14900000
 H       7.94200000      11.60900000      19.20500000
 O       9.64700000      13.82900000      16.96000000
 H      10.01800000      13.00800000      16.53600000
 H       9.16600000      13.51500000      17.72000000
