30
XYZ file of cluster: frame_3000_c583c.2222d.cf50c - created by MolEdiTo
 O      19.90900000       3.21100000      18.92200000
 H      20.32900000       3.56900000      19.77600000
 H      19.83400000       3.99900000      18.29100000
 O      17.46700000       9.19000000      18.70700000
 H      17.65900000       9.91300000      19.30600000
 H      16.80900000       8.71200000      19.17000000
 O      20.03500000       6.27300000      20.02400000
 H      20.28600000       7.17100000      20.26600000
 H      19.07100000       6.44100000      19.72400000
 O      17.89000000       5.10400000      24.08000000
 H      18.80800000       4.97800000      23.86600000
 H      17.43900000       4.82800000      23.23400000
 O      18.67700000       8.83700000      23.53800000
 H      18.22900000       7.93100000      23.39700000
 H      17.94900000       9.39100000      23.32900000
 O      24.01700000       5.46200000      20.18100000
 H      24.33700000       6.21900000      20.81100000
 H      23.10200000       5.67800000      19.89800000
 O      21.77900000       9.43000000      19.93100000
 H      21.40400000      10.29900000      19.64300000
 H      21.65700000       9.49200000      20.93700000
 O      21.80700000       9.32500000      24.58500000
 H      20.88800000       9.30100000      24.24400000
 H      21.73900000       8.98700000      25.53800000
 O      21.30800000       3.76800000      23.65300000
 H      20.77700000       3.02000000      24.01700000
 H      22.29300000       3.55000000      23.55100000
 O      22.19900000       6.31800000      24.90000000
 H      21.97200000       5.54500000      24.34500000
 H      22.88200000       6.83600000      24.45700000
