33
XYZ file of cluster: frame_3000_a27f8.53bf1.9f81f - created by MolEdiTo
 O      16.59500000       7.83300000      15.61100000
 H      17.50800000       8.26400000      15.47200000
 H      16.21500000       8.11700000      16.48400000
 O      15.78500000       7.90400000      20.65800000
 H      15.32800000       7.40900000      21.40500000
 H      15.19400000       8.69700000      20.54300000
 O      16.01500000      12.04300000      18.06500000
 H      16.33200000      11.19000000      18.32200000
 H      15.64400000      12.38700000      18.87700000
 O      14.95000000      12.33600000      20.86600000
 H      14.12800000      11.87600000      21.09700000
 H      14.57200000      13.22400000      21.08600000
 O      14.34300000      10.02100000      17.19800000
 H      13.82900000       9.27300000      16.84400000
 H      14.08200000      10.09200000      18.14400000
 O      17.92800000      10.44100000      14.07300000
 H      18.78500000      10.54700000      14.58000000
 H      17.41600000      11.23000000      14.34900000
 O      17.31900000      10.96800000      20.92400000
 H      16.46600000      11.43500000      20.72600000
 H      17.71800000      11.57400000      21.54000000
 O      19.65500000       9.67500000      16.95000000
 H      20.21400000       9.22700000      17.60800000
 H      18.82800000       9.71200000      17.37800000
 O      20.30800000      12.08400000      19.35800000
 H      20.70800000      12.48300000      20.12800000
 H      19.45100000      12.63000000      19.24500000
 O      17.46700000       9.19000000      18.70700000
 H      17.65900000       9.91300000      19.30600000
 H      16.80900000       8.71200000      19.17000000
 O      16.15600000      12.67700000      15.32400000
 H      15.96300000      12.49600000      16.29800000
 H      16.60900000      13.51700000      15.23200000
