49
XYZ file of cluster: frame_3000_4a2b5.4b4d8.66197 - created by MolEdiTo
 O       7.04900000       9.47400000      11.12500000
 H       7.38400000      10.36000000      11.38700000
 H       6.82300000       9.08600000      12.01600000
 O       9.34500000       8.91700000      15.94100000
 H       9.53900000       8.01900000      16.18000000
 H       8.55600000       8.96700000      15.41800000
 O       7.54600000      13.95700000      14.50500000
 H       7.56100000      14.55900000      13.72100000
 H       7.90100000      13.13500000      14.23400000
 O      11.38700000      10.66400000      15.91000000
 H      11.84400000       9.94400000      15.40700000
 H      10.60500000      10.15000000      16.09500000
 O       7.02500000       9.40800000      14.48100000
 H       6.31200000       9.56700000      13.83400000
 H       6.52300000       8.87400000      15.11000000
 C      11.66700000      10.49800000      12.06100000
 C      10.56400000       9.98000000      11.05100000
 C       9.44900000      12.28900000      10.83800000
 H      10.85100000      11.46200000       9.48800000
 H      13.41500000      11.06100000      12.22100000
 O       9.12900000      10.40800000       9.24400000
 O      11.91900000       9.54300000      13.04800000
 O      12.83100000      10.93400000      11.46900000
 C      10.02600000      11.05000000      10.10800000
 O      11.12100000       8.78200000      10.30700000
 H       9.70800000       9.64900000      11.60600000
 O       8.60200000      11.84600000      11.91000000
 O       8.78200000      13.24400000      10.06500000
 H       7.95000000      13.39300000      10.57800000
 H      11.24200000       8.08600000      10.99800000
 H       9.74400000       9.69100000       9.00800000
 O      12.41900000      12.62700000      17.83600000
 H      12.07500000      12.01800000      17.13800000
 H      13.28800000      12.41400000      18.01500000
 O       9.64700000      13.82900000      16.96000000
 H      10.01800000      13.00800000      16.53600000
 H       9.16600000      13.51500000      17.72000000
 O      12.59300000       6.66200000      14.66700000
 H      12.17800000       6.74600000      15.52900000
 H      12.21500000       7.44200000      14.24800000
 O      12.36700000       7.82100000      17.27700000
 H      12.69400000       8.12300000      18.11600000
 H      11.83100000       6.99400000      17.41900000
 O      12.43000000      13.10800000      14.88000000
 H      12.28000000      12.13400000      15.15500000
 H      13.18100000      12.99100000      14.27800000
 O      14.34300000      10.02100000      17.19800000
 H      13.82900000       9.27300000      16.84400000
 H      14.08200000      10.09200000      18.14400000
