540
XYZ file of cluster: frame_13000_738ce.c4e78.73cbf - created by MolEdiTo
 O      40.49100000      38.81000000      34.84100000
 H      40.50800000      39.53200000      34.17400000
 H      39.94500000      39.15900000      35.54500000
 O      32.58100000      37.04900000      37.51400000
 H      32.48800000      37.91900000      37.15700000
 H      33.03200000      37.16800000      38.36100000
 O      40.68300000      40.73800000      22.50800000
 H      40.20500000      39.91200000      22.76300000
 H      41.55000000      40.58100000      22.96800000
 O      20.68600000      39.66600000      25.84900000
 H      20.82500000      40.61200000      25.82100000
 H      21.63400000      39.32600000      25.77500000
 O      29.13400000      37.92500000      35.39900000
 H      29.79500000      37.30400000      34.99900000
 H      29.41100000      37.83600000      36.33600000
 O      34.24500000      36.29400000      22.76800000
 H      33.92100000      36.67200000      23.60800000
 H      33.40500000      36.39200000      22.23800000
 O      40.30300000      39.88500000      40.12400000
 H      39.58400000      39.22200000      40.28200000
 H      39.88500000      40.37100000      39.35400000
 O      33.51300000      35.08500000      30.84500000
 H      33.96200000      34.66400000      31.62900000
 H      32.80200000      35.58300000      31.28100000
 O      29.95100000      37.20600000      37.85900000
 H      30.93300000      37.27900000      37.94300000
 H      29.76300000      37.66000000      38.69300000
 O      29.15200000      40.23800000      22.06600000
 H      29.80600000      40.81700000      21.58800000
 H      28.32500000      40.76200000      22.01300000
 O      22.64400000      38.86000000      21.70800000
 H      23.39400000      39.39900000      21.39100000
 H      21.96400000      39.52200000      21.88100000
 O      36.25300000      39.62300000      33.28200000
 H      35.59200000      39.66500000      33.97700000
 H      36.95700000      39.03900000      33.58800000
 O      26.92000000      39.53700000      38.93300000
 H      27.57900000      38.88600000      39.21200000
 H      26.10300000      39.15200000      39.28500000
 O      35.31600000      34.83900000      35.39300000
 H      34.73200000      34.18900000      35.75500000
 H      35.78100000      35.10400000      36.20600000
 O      35.24500000      34.75000000      27.01000000
 H      35.03900000      35.36000000      27.72800000
 H      34.49000000      34.96300000      26.37600000
 O      24.36600000      35.59800000      23.17500000
 H      24.86600000      36.30300000      22.74600000
 H      24.04100000      35.13000000      22.38900000
 O      40.53400000      40.74600000      33.04800000
 H      39.63800000      41.12400000      32.71400000
 H      40.78700000      40.26800000      32.24800000
 O      25.23200000      36.30300000      30.02600000
 H      25.05700000      35.62200000      29.37600000
 H      24.96000000      37.15600000      29.58400000
 O      38.88900000      35.88400000      21.12900000
 H      38.36600000      36.07000000      21.92100000
 H      38.83000000      36.74600000      20.65700000
 O      28.95400000      38.14600000      40.29300000
 H      29.38200000      38.95800000      40.59700000
 H      29.62800000      37.45800000      40.45700000
 O      22.67400000      36.52200000      33.13200000
 H      23.34800000      35.84400000      33.06300000
 H      21.90100000      36.03300000      33.34100000
 O      38.45600000      36.45500000      27.45300000
 H      38.24700000      35.83700000      28.19300000
 H      38.50100000      37.30300000      27.92800000
 O      26.36600000      38.27700000      32.33300000
 H      25.67000000      38.26600000      32.97700000
 H      25.94500000      38.08700000      31.49600000
 O      33.03600000      37.56700000      25.05200000
 H      32.24100000      38.15800000      25.33700000
 H      33.71300000      38.35400000      24.96300000
 O      28.41400000      39.79000000      24.82100000
 H      29.11000000      39.52000000      25.40100000
 H      28.90100000      39.91800000      23.95100000
 O      38.47600000      40.03600000      36.46000000
 H      38.78100000      40.51800000      37.25700000
 H      38.00900000      40.77600000      36.04500000
 O      38.15500000      38.01200000      40.35000000
 H      37.95700000      37.09200000      40.49700000
 H      37.69300000      38.43800000      41.10700000
 O      27.31000000      37.54200000      27.18600000
 H      27.80700000      37.30600000      26.40300000
 H      27.66400000      36.97600000      27.84900000
 O      32.98000000      34.99600000      25.43700000
 H      33.17300000      35.90500000      25.23300000
 H      32.04100000      34.93500000      25.16800000
 O      23.27500000      38.87200000      26.09600000
 H      23.98600000      38.91900000      25.44000000
 H      23.80400000      38.78800000      26.92300000
 O      24.85100000      35.36300000      37.29800000
 H      25.83500000      35.48000000      37.26500000
 H      24.54400000      36.24800000      36.98600000
 O      37.05500000      38.81500000      24.94500000
 H      37.70400000      39.19300000      25.62000000
 H      36.31300000      38.64500000      25.53700000
 O      33.96200000      39.90400000      23.97000000
 H      34.42900000      39.40700000      23.30100000
 H      34.58300000      40.63300000      24.22600000
 O      30.57900000      37.91600000      22.33500000
 H      31.49100000      38.25000000      22.04000000
 H      30.12800000      38.78200000      22.39000000
 O      25.62000000      38.39900000      24.78700000
 H      25.56100000      38.27200000      23.85900000
 H      26.41700000      37.90000000      25.01400000
 O      23.46700000      38.99500000      34.07700000
 H      24.05200000      38.57300000      34.73600000
 H      22.93600000      38.20600000      33.85100000
 O      21.92100000      36.73500000      39.56800000
 H      21.68800000      37.54800000      40.08100000
 H      22.15800000      36.11200000      40.20900000
 O      37.35000000      35.36100000      40.39900000
 H      37.66600000      34.59300000      40.90400000
 H      36.41800000      35.12400000      40.22400000
 O      31.06300000      34.70400000      23.63900000
 H      31.11300000      35.60000000      23.22000000
 H      30.33300000      34.29400000      23.09000000
 O      21.24400000      40.45500000      37.88700000
 H      20.85800000      39.95600000      37.14300000
 H      20.46200000      41.06100000      38.05000000
 O      29.36900000      37.63000000      32.46800000
 H      28.58700000      38.00000000      32.03400000
 H      29.09300000      37.75700000      33.39800000
 O      22.08500000      38.84800000      28.55700000
 H      23.00400000      38.76600000      28.23300000
 H      22.03600000      39.82700000      28.66700000
 O      32.26600000      37.64300000      29.20400000
 H      31.75700000      37.11000000      29.92100000
 H      31.95900000      38.52600000      29.57600000
 O      21.24800000      36.60800000      30.15500000
 H      21.37200000      36.84900000      29.25500000
 H      21.77500000      35.82200000      30.27900000
 O      28.37300000      36.16600000      21.74500000
 H      29.18300000      36.44200000      21.32100000
 H      28.54100000      35.21800000      21.82100000
 O      23.93000000      40.52300000      38.42300000
 H      23.80500000      41.43300000      38.64800000
 H      23.04100000      40.28800000      38.15200000
 O      20.36700000      40.67300000      21.75400000
 H      21.02400000      41.29800000      22.10800000
 H      19.68100000      40.65700000      22.45700000
 O      30.55400000      38.72400000      25.90300000
 H      30.96400000      39.60100000      26.17200000
 H      30.32000000      38.41400000      26.77900000
 O      27.55500000      34.86800000      38.08400000
 H      27.52000000      34.34000000      38.94200000
 H      28.48400000      35.28600000      38.26100000
 O      35.60400000      39.09600000      21.73000000
 H      34.67200000      39.04900000      21.40100000
 H      35.96100000      38.38900000      21.04000000
 O      28.29100000      39.92900000      31.06400000
 H      28.83600000      40.55100000      31.66800000
 H      27.57900000      39.64900000      31.68500000
 O      37.69500000      35.61300000      32.36700000
 H      37.10800000      35.48300000      31.60200000
 H      37.92300000      34.64500000      32.51400000
 O      23.14500000      35.67300000      25.58200000
 H      23.66900000      35.82900000      24.70100000
 H      23.05400000      36.60600000      25.87300000
 O      31.82800000      39.50900000      33.93700000
 H      31.78600000      39.64300000      34.88700000
 H      32.08600000      38.53400000      33.89800000
 O      31.71600000      39.15900000      39.74600000
 H      31.69900000      40.01200000      39.28400000
 H      32.61500000      39.07700000      40.06300000
 O      40.06900000      36.24700000      33.44400000
 H      39.21600000      36.23100000      33.03100000
 H      40.00400000      36.95100000      34.07800000
 O      37.81200000      33.81400000      23.43600000
 H      38.75500000      33.96700000      23.80000000
 H      37.53600000      34.74900000      23.39300000
 O      36.84200000      36.36500000      23.04500000
 H      36.97000000      36.88400000      23.91300000
 H      35.91600000      36.54100000      22.82500000
 O      23.86800000      38.28800000      36.78600000
 H      24.18800000      39.16300000      36.96200000
 H      22.97900000      38.48500000      36.50500000
 O      32.15900000      36.84300000      34.75800000
 H      32.16500000      35.88600000      34.54900000
 H      32.33800000      36.76900000      35.74800000
 O      33.55000000      40.58300000      28.81000000
 H      34.27800000      40.67800000      29.49300000
 H      32.95100000      39.96000000      29.20500000
 O      30.67800000      34.37500000      37.53200000
 H      30.83000000      35.36400000      37.68900000
 H      30.13300000      34.45700000      36.73200000
 O      36.42600000      38.12900000      37.12100000
 H      37.19700000      38.77300000      37.10200000
 H      36.53800000      37.73400000      36.22200000
 O      39.35600000      38.57500000      23.37600000
 H      38.42100000      38.68600000      23.59500000
 H      39.70000000      38.42000000      24.29800000
 O      38.80500000      39.16600000      29.01500000
 H      38.02500000      39.33400000      29.53800000
 H      38.61700000      39.50600000      28.16800000
 O      24.79300000      38.54800000      28.37200000
 H      25.04500000      39.34100000      28.90500000
 H      25.60200000      38.33900000      27.86000000
 O      29.07000000      34.42800000      35.51300000
 H      28.36100000      34.63300000      36.11800000
 H      28.55200000      34.11100000      34.72500000
 O      24.70900000      34.25800000      32.31200000
 H      25.02100000      34.96200000      31.70000000
 H      24.67400000      33.49800000      31.71300000
 O      21.50900000      38.83600000      31.50100000
 H      21.41300000      39.44400000      30.75000000
 H      21.36700000      37.98600000      31.04600000
 O      21.07300000      39.30100000      40.65700000
 H      21.33100000      39.57100000      39.73900000
 H      20.16300000      39.74500000      40.64900000
 O      31.13500000      39.37400000      30.86100000
 H      30.33400000      39.93400000      30.72700000
 H      30.88500000      38.99000000      31.71900000
 O      24.69800000      38.13400000      39.65700000
 H      23.88400000      37.64600000      39.40300000
 H      24.47400000      39.04100000      39.57300000
 O      35.82200000      38.64200000      29.32900000
 H      35.38400000      37.78100000      29.40500000
 H      36.14700000      38.57300000      28.40900000
 O      39.37900000      36.09300000      38.40900000
 H      38.70300000      35.91300000      39.07200000
 H      39.15300000      37.00800000      38.11300000
 O      34.55700000      36.46600000      28.72800000
 H      34.27900000      35.89300000      29.49700000
 H      33.64000000      36.93400000      28.64200000
 O      27.90100000      40.08600000      28.48500000
 H      27.71700000      39.15100000      28.11800000
 H      28.03800000      39.89900000      29.40900000
 O      36.96400000      37.16900000      34.45400000
 H      37.36300000      36.64600000      33.72900000
 H      36.15800000      36.63300000      34.64500000
 O      26.26900000      37.65200000      22.31400000
 H      27.16800000      37.26100000      22.05900000
 H      26.12700000      38.23600000      21.56500000
 O      25.61800000      40.43800000      36.47600000
 H      24.89600000      40.86000000      37.03600000
 H      26.18900000      40.18300000      37.22500000
 O      28.49900000      36.85700000      24.78600000
 H      29.46400000      36.97700000      24.87200000
 H      28.33300000      37.44300000      24.02000000
 O      32.48400000      39.65700000      36.51800000
 H      32.17900000      40.27400000      37.18500000
 H      33.21900000      40.08300000      36.06900000
 O      24.87300000      40.66700000      20.73300000
 H      25.61600000      41.09400000      21.15500000
 H      25.15000000      40.74300000      19.80500000
 O      29.36900000      36.42200000      28.85200000
 H      28.92200000      35.57100000      28.62300000
 H      30.06800000      36.16000000      29.46400000
 O      35.00300000      39.61100000      26.58300000
 H      34.74100000      40.47300000      26.29700000
 H      34.55600000      39.60500000      27.46600000
 O      20.83100000      36.15100000      37.29600000
 H      21.50000000      35.49100000      37.06600000
 H      21.26700000      36.45800000      38.17600000
 O      40.69700000      38.99700000      30.97200000
 H      39.94600000      38.91000000      30.25000000
 H      41.42500000      38.54700000      30.42500000
 O      30.89100000      36.00300000      31.00500000
 H      30.25100000      36.52000000      31.63200000
 H      30.71800000      35.10200000      31.51000000
 O      20.96600000      36.29000000      21.93600000
 H      20.47700000      36.91100000      22.52300000
 H      21.51000000      36.84200000      21.46800000
 O      39.93600000      35.23700000      24.85200000
 H      39.31300000      35.87500000      25.27100000
 H      40.41300000      34.88100000      25.63800000
 O      34.21700000      40.21700000      40.39600000
 H      34.79000000      40.87700000      39.93000000
 H      34.20400000      40.57200000      41.26300000
 O      34.58100000      37.63600000      39.27800000
 H      35.36500000      37.84500000      38.70900000
 H      34.44600000      38.52300000      39.72400000
 O      38.82800000      40.09300000      26.43100000
 H      39.81600000      40.05400000      26.33700000
 H      38.71000000      40.99400000      26.06500000
 O      29.16400000      40.65700000      36.26000000
 H      28.22700000      40.84900000      36.21600000
 H      29.18900000      39.75900000      35.83000000
 O      35.77900000      42.47100000      30.88900000
 H      35.70900000      42.26500000      31.83800000
 H      35.88300000      41.53400000      30.51200000
 O      37.97800000      46.24800000      30.47900000
 H      37.62500000      47.14200000      30.31800000
 H      37.35600000      45.64100000      30.00500000
 O      31.62700000      48.33800000      40.40100000
 H      31.55200000      48.65800000      41.29500000
 H      32.40800000      47.70300000      40.53100000
 O      29.32600000      46.40200000      31.62600000
 H      28.85500000      45.54000000      31.66400000
 H      29.16700000      46.77600000      32.50700000
 O      29.78500000      42.94100000      33.00100000
 H      30.61200000      42.52700000      33.32100000
 H      29.74500000      43.72400000      33.61300000
 O      34.68400000      45.12000000      32.61900000
 H      35.02600000      44.74100000      33.43000000
 H      34.02300000      44.50700000      32.35700000
 O      26.84900000      46.47500000      27.48700000
 H      27.11500000      45.76300000      28.09100000
 H      26.37700000      47.06000000      28.14600000
 O      20.77100000      46.97100000      23.33200000
 H      20.27500000      46.32500000      22.74500000
 H      21.60300000      46.54400000      23.36700000
 O      28.83500000      44.14500000      25.98700000
 H      29.48100000      44.46800000      25.37800000
 H      29.13500000      43.25600000      26.26900000
 O      39.11200000      44.27600000      21.77300000
 H      38.36000000      43.84900000      22.22800000
 H      39.86100000      43.63700000      21.91400000
 O      20.75900000      46.66200000      30.16500000
 H      21.09600000      47.55100000      30.08400000
 H      20.36200000      46.74200000      31.07200000
 O      38.14800000      43.99300000      25.19600000
 H      38.78600000      44.70900000      24.87200000
 H      37.75800000      44.47200000      25.92300000
 O      22.34200000      44.38100000      27.03000000
 H      22.45900000      45.36700000      27.15400000
 H      22.84400000      44.20600000      26.22900000
 O      32.18300000      48.47200000      31.29600000
 H      31.46600000      48.31400000      30.65300000
 H      32.49800000      49.34300000      30.94300000
 O      25.78500000      44.87900000      38.39300000
 H      24.79600000      45.14800000      38.49600000
 H      25.86600000      44.96100000      37.41100000
 O      29.84400000      47.35600000      23.59700000
 H      29.79300000      46.42700000      23.78800000
 H      29.24000000      47.69600000      24.30500000
 O      26.42400000      44.13000000      35.30700000
 H      26.15600000      43.24300000      35.52900000
 H      25.76300000      44.42000000      34.66600000
 O      27.10900000      47.25200000      38.59400000
 H      26.57900000      47.43800000      37.83400000
 H      26.78200000      46.40700000      38.87700000
 O      32.07100000      46.86000000      33.97500000
 H      31.45900000      47.52700000      34.35500000
 H      31.86200000      46.95200000      33.02700000
 O      33.87800000      45.04500000      38.63500000
 H      33.49500000      45.47600000      39.43500000
 H      33.12400000      44.49700000      38.34900000
 O      23.89200000      43.76700000      24.97800000
 H      24.65500000      43.18900000      25.17700000
 H      24.29200000      44.64700000      25.15400000
 O      37.14600000      47.23300000      22.90000000
 H      36.87700000      46.99700000      21.98200000
 H      37.58500000      46.42000000      23.18600000
 O      29.99800000      45.76400000      28.30400000
 H      30.26400000      45.28300000      27.46200000
 H      29.28500000      45.16000000      28.65200000
 O      36.36600000      43.38500000      36.13200000
 H      35.53900000      43.25300000      35.64200000
 H      36.51300000      44.34800000      36.00200000
 O      33.28700000      46.55400000      29.45900000
 H      33.27500000      47.39400000      28.91500000
 H      32.82100000      46.87400000      30.25600000
 O      31.11000000      43.08500000      38.13900000
 H      30.37900000      43.21300000      37.50900000
 H      30.68200000      43.54500000      38.89300000
 O      27.37500000      48.17200000      33.97900000
 H      26.86400000      49.01500000      34.02000000
 H      28.28800000      48.44900000      34.07500000
 O      32.78500000      43.74600000      23.27000000
 H      33.12300000      42.82500000      23.44700000
 H      33.53300000      44.03000000      22.67400000
 O      31.38700000      44.34900000      30.49100000
 H      32.04800000      44.58300000      29.77400000
 H      30.63000000      44.89100000      30.24300000
 O      28.14700000      44.29500000      29.33200000
 H      27.66800000      44.28900000      30.19400000
 H      28.25500000      43.35200000      29.21000000
 O      34.02300000      42.72400000      34.90500000
 H      33.63000000      42.60400000      34.04600000
 H      33.51100000      43.50800000      35.23000000
 O      36.46900000      46.04400000      35.51800000
 H      37.29600000      46.42200000      35.95700000
 H      36.66300000      46.22400000      34.56900000
 O      32.87800000      43.08000000      32.20900000
 H      32.70500000      42.11700000      31.98100000
 H      32.16500000      43.51600000      31.69000000
 O      22.58200000      47.07300000      27.12000000
 H      22.95200000      47.48000000      27.94300000
 H      21.75100000      47.62300000      26.98500000
 O      28.13800000      43.28800000      39.29000000
 H      27.74300000      42.42700000      39.08800000
 H      27.39300000      43.86800000      39.08300000
 O      38.18900000      43.22900000      32.26800000
 H      37.60300000      42.70600000      32.82600000
 H      37.59900000      43.69300000      31.71400000
 O      34.99300000      47.74200000      32.27200000
 H      34.17900000      47.90500000      31.73800000
 H      34.81500000      46.81300000      32.50100000
 O      26.20800000      42.82100000      25.55200000
 H      26.48200000      41.91900000      25.23000000
 H      27.08500000      43.16800000      25.82900000
 O      30.00600000      48.51400000      34.74400000
 H      29.47500000      48.03700000      35.36400000
 H      30.07700000      49.40400000      35.04500000
 O      26.11600000      47.06400000      20.82600000
 H      26.40700000      46.15600000      20.78100000
 H      26.64500000      47.45900000      21.51800000
 O      36.32800000      47.47600000      37.92000000
 H      35.68400000      46.89900000      37.47300000
 H      36.88400000      47.67500000      37.09500000
 O      35.87600000      44.85100000      29.34100000
 H      35.77600000      44.25000000      30.10000000
 H      34.96900000      45.26600000      29.39100000
 O      34.87600000      43.93200000      21.37100000
 H      34.89200000      43.50300000      20.49500000
 H      35.73100000      43.57100000      21.77200000
 O      38.79400000      46.26400000      38.83500000
 H      39.46100000      46.93700000      38.54900000
 H      37.97300000      46.56700000      38.44200000
 O      29.36700000      46.99600000      37.07400000
 H      29.87000000      47.41600000      37.79400000
 H      28.42100000      47.03200000      37.50300000
 O      39.49300000      46.08800000      24.02100000
 H      39.90700000      45.74700000      23.16300000
 H      40.32300000      46.37600000      24.44600000
 O      21.83900000      44.14700000      23.37700000
 H      22.49600000      43.61700000      23.93000000
 H      22.51200000      44.74500000      22.96900000
 O      37.85800000      46.14400000      33.12200000
 H      37.71300000      46.20400000      32.13400000
 H      38.46100000      45.40200000      33.10800000
 O      29.82400000      44.80000000      35.40000000
 H      29.47800000      45.55100000      35.93600000
 H      29.24300000      44.05900000      35.72400000
 O      22.44800000      42.60300000      32.72500000
 H      22.04900000      41.72100000      32.37600000
 H      23.04200000      42.10400000      33.46400000
 O      30.21800000      44.76000000      23.58500000
 H      29.97500000      44.56600000      22.64900000
 H      31.17700000      44.41300000      23.53400000
 O      23.91900000      48.26400000      29.60700000
 H      24.82600000      47.94200000      29.65400000
 H      23.74100000      48.36400000      30.58100000
 O      25.01200000      46.00300000      25.57900000
 H      24.19000000      46.30700000      26.04500000
 H      25.67500000      46.18000000      26.28700000
 O      37.26800000      42.64000000      22.86000000
 H      37.74700000      42.45700000      23.70800000
 H      36.82300000      41.74800000      22.77600000
 O      31.44400000      42.59400000      26.92900000
 H      31.93700000      43.32600000      26.54900000
 H      32.07500000      42.28500000      27.62200000
 O      34.63600000      48.57000000      23.56200000
 H      34.66800000      48.78100000      22.57200000
 H      35.44500000      48.04200000      23.65800000
 O      36.41900000      48.09100000      40.55500000
 H      35.52900000      47.75000000      40.85500000
 H      36.29400000      48.16700000      39.60900000
 O      38.46300000      47.83900000      36.23600000
 H      38.32300000      48.62300000      35.67400000
 H      39.42700000      47.93200000      36.40300000
 O      30.14500000      47.97900000      29.68400000
 H      30.12500000      47.19100000      29.12400000
 H      29.90000000      47.57200000      30.54800000
 O      31.25300000      46.68500000      21.24700000
 H      30.86800000      47.01400000      22.11200000
 H      30.76200000      47.28700000      20.63400000
 O      23.67500000      46.38100000      22.51900000
 H      24.55300000      46.00300000      22.48000000
 H      23.83100000      47.29500000      22.82000000
 O      39.51900000      43.23600000      38.09700000
 H      39.11300000      44.10100000      38.17200000
 H      40.44100000      43.53300000      37.90900000
 O      38.27200000      44.32500000      40.84100000
 H      37.71500000      43.72300000      40.31800000
 H      38.58200000      44.97300000      40.16200000
 O      36.02100000      43.43800000      38.87100000
 H      36.07900000      43.29400000      37.89000000
 H      35.21700000      44.09400000      38.81500000
 O      25.13100000      43.15000000      31.72200000
 H      25.00300000      43.16200000      30.75800000
 H      24.16800000      42.87800000      31.89500000
 O      32.47300000      44.59200000      35.41800000
 H      31.45900000      44.63000000      35.48400000
 H      32.56300000      45.35600000      34.79600000
 O      26.95100000      45.96800000      23.48800000
 H      26.19600000      45.69400000      24.17900000
 H      27.40700000      46.55600000      24.15700000
 O      35.15200000      43.55200000      25.31200000
 H      35.85900000      43.95100000      24.75900000
 H      35.28800000      44.10400000      26.15300000
 O      28.10400000      47.85500000      25.45400000
 H      27.78400000      47.22800000      26.07800000
 H      28.79000000      48.35700000      26.00300000
 O      37.29600000      49.05400000      32.02700000
 H      36.35300000      48.68200000      31.98400000
 H      37.70000000      48.33800000      32.55000000
 O      21.16700000      42.97000000      28.95200000
 H      20.65800000      43.50600000      29.57900000
 H      21.55400000      43.63500000      28.38800000
 O      39.40600000      48.95700000      23.17900000
 H      40.15400000      48.31500000      22.89700000
 H      38.68600000      48.24500000      23.14500000
 O      26.29900000      47.37500000      30.04500000
 H      27.02300000      48.01000000      30.17400000
 H      26.33200000      46.74700000      30.79600000
 O      26.75200000      45.22300000      31.89000000
 H      26.60500000      45.56700000      32.80400000
 H      26.14100000      44.42300000      31.90000000
 O      27.52900000      44.27400000      21.65500000
 H      28.36100000      44.62400000      21.32800000
 H      27.48200000      44.76200000      22.51700000
 O      38.40500000      47.17400000      26.60600000
 H      39.30200000      47.05500000      26.94200000
 H      38.60700000      47.57600000      25.71400000
 O      36.63400000      48.10500000      28.84700000
 H      36.94000000      48.15700000      27.93500000
 H      35.77600000      47.76500000      28.79900000
 O      25.95500000      46.94500000      36.20100000
 H      26.06600000      47.56200000      35.48300000
 H      25.68900000      46.17200000      35.71400000
 O      24.12800000      45.02800000      33.87400000
 H      23.47800000      44.60500000      33.21800000
 H      23.47600000      45.51200000      34.39800000
 O      32.63800000      44.79300000      26.10300000
 H      33.03200000      44.51300000      25.23400000
 H      32.64400000      45.78300000      25.91500000
 O      22.18500000      46.73000000      34.89100000
 H      21.61500000      47.27800000      34.27000000
 H      21.84600000      46.91200000      35.78700000
 O      30.30100000      44.01000000      20.91400000
 H      30.89400000      44.77300000      20.89700000
 H      30.94600000      43.40300000      20.40100000
 O      25.32200000      42.80000000      28.98800000
 H      24.96300000      43.30900000      28.30200000
 H      26.27000000      42.71700000      28.64900000
 O      22.97400000      44.88700000      38.49300000
 H      22.69600000      44.98000000      39.43700000
 H      22.26000000      45.41100000      38.10200000
 O      34.03000000      47.51600000      36.32700000
 H      33.86100000      46.60600000      36.53400000
 H      34.33700000      47.57300000      35.43100000
 O      32.80700000      47.42900000      25.15400000
 H      32.05700000      47.37200000      24.55400000
 H      33.45900000      47.95800000      24.63100000
 O      36.34800000      45.44000000      26.87200000
 H      37.05500000      46.23000000      26.91800000
 H      36.33000000      45.27800000      27.82400000
