261
XYZ file of cluster: frame_13000_4eed1.7438c.5da5 - created by MolEdiTo
 O      21.59200000      32.88100000       5.81100000
 H      21.37300000      31.99900000       5.37100000
 H      22.59500000      32.80300000       5.86200000
 O      14.13600000      33.02500000      12.29700000
 H      13.82200000      32.63000000      13.13700000
 H      14.33400000      32.16000000      11.80500000
 O      26.36700000      30.33400000      12.80900000
 H      26.00900000      31.22000000      12.66200000
 H      26.95300000      30.48300000      13.58900000
 O      14.90900000      27.21100000      13.24500000
 H      14.97800000      26.81200000      14.09500000
 H      14.28300000      26.60900000      12.80300000
 O      20.87300000      22.96000000       3.87300000
 H      21.68200000      22.43700000       3.60300000
 H      21.25600000      23.85200000       3.86400000
 O      25.12900000      23.03000000       7.84600000
 H      24.85400000      22.77200000       6.92900000
 H      26.10000000      22.79200000       7.84100000
 O      22.53700000      26.74700000      13.68300000
 H      23.08000000      25.95500000      13.36200000
 H      21.88100000      26.76700000      12.96100000
 O      27.18900000      22.24800000      10.92200000
 H      27.79900000      22.15500000      11.73300000
 H      26.69400000      21.42200000      11.10100000
 O      15.37300000      27.43200000       6.70900000
 H      14.81500000      27.21200000       7.51500000
 H      16.23500000      27.59400000       7.13700000
 O      26.66300000      31.20400000       5.32700000
 H      26.24300000      30.87600000       4.50800000
 H      27.46600000      31.65400000       5.03700000
 O      17.69900000      23.79700000       4.52500000
 H      18.51500000      24.04200000       5.04600000
 H      17.25200000      24.65400000       4.62300000
 O      22.35800000      21.39600000       2.07500000
 H      23.29200000      21.16500000       1.80000000
 H      21.97900000      21.83000000       1.33600000
 O      18.37000000      29.91000000       5.93200000
 H      18.69100000      30.76500000       6.28900000
 H      18.46000000      29.37200000       6.75700000
 O      17.98600000      28.12600000       3.71300000
 H      18.23100000      28.83000000       3.09400000
 H      17.83700000      28.70400000       4.52100000
 O      18.99900000      30.29500000      14.14500000
 H      19.48700000      31.15900000      14.04600000
 H      18.11200000      30.50700000      13.91000000
 O      15.73600000      25.85700000       4.40100000
 H      15.37600000      26.39100000       5.13800000
 H      16.11500000      26.59400000       3.84100000
 O      24.31500000      26.80600000       9.44300000
 H      24.49400000      27.01400000      10.39900000
 H      24.54000000      25.86900000       9.30100000
 O      14.19200000      26.25800000       9.00800000
 H      15.01000000      26.52100000       9.52900000
 H      13.61800000      25.90800000       9.67700000
 O      25.55500000      29.91300000       3.13000000
 H      25.47300000      29.97200000       2.16900000
 H      24.95500000      29.14000000       3.25800000
 O      22.86400000      34.98700000       1.44100000
 H      23.48400000      34.35600000       1.87500000
 H      22.23200000      35.04900000       2.23400000
 O      24.81900000      27.96500000      12.06200000
 H      25.48300000      28.65300000      12.35500000
 H      24.34800000      27.78900000      12.89700000
 O      22.25500000      25.58000000       6.61500000
 H      21.52200000      25.08800000       6.23400000
 H      21.85600000      26.02000000       7.37500000
 O      20.83200000      34.25300000       9.04300000
 H      20.11500000      34.92000000       8.98100000
 H      21.33600000      34.34100000       8.31500000
 O      28.29300000      34.25700000      11.25000000
 H      27.62800000      34.78800000      10.76300000
 H      27.71900000      33.65300000      11.75300000
 O      23.61600000      33.70700000      11.71300000
 H      23.57400000      34.21800000      10.84700000
 H      22.82300000      33.14000000      11.69700000
 O      28.04900000      27.08300000      12.92700000
 H      27.40200000      26.64100000      12.39600000
 H      27.43900000      27.70600000      13.39900000
 O      20.78300000      32.91100000      11.43600000
 H      20.87500000      33.11700000      10.47100000
 H      19.85400000      33.27000000      11.57900000
 O      14.92600000      23.06100000      11.00100000
 H      14.26400000      22.33900000      10.88800000
 H      15.41300000      22.98400000      10.20300000
 O      18.75800000      31.06300000       2.69500000
 H      18.80200000      31.30600000       1.71700000
 H      19.59000000      31.32900000       3.05400000
 O      23.59300000      23.29400000      10.06500000
 H      24.18600000      23.16200000       9.31200000
 H      22.86900000      22.65100000       9.87200000
 O      26.55900000      25.43700000      11.58600000
 H      26.33600000      24.50700000      11.30300000
 H      25.87000000      25.55500000      12.25700000
 O      22.27400000      25.02800000       2.26300000
 H      21.65900000      25.73800000       1.97900000
 H      22.16900000      24.42100000       1.48200000
 O      24.50400000      30.45100000       6.48700000
 H      25.26600000      30.77900000       6.01900000
 H      24.90300000      29.74100000       7.01200000
 O      20.66300000      32.34100000      14.10600000
 H      20.59800000      32.88000000      13.25900000
 H      21.57200000      31.96300000      13.95000000
 O      19.81700000      27.36100000      13.73700000
 H      19.65800000      28.33400000      13.93100000
 H      19.36900000      27.00000000      14.51400000
 O      23.01000000      29.96200000      10.60700000
 H      23.70800000      29.29100000      10.80900000
 H      22.86800000      30.31100000      11.49500000
 O      19.69900000      26.33400000       4.97400000
 H      19.06100000      26.93200000       4.50700000
 H      20.26000000      27.00800000       5.37200000
 O      19.34800000      25.58300000       9.63300000
 H      19.54900000      25.22500000      10.55100000
 H      19.99400000      26.29300000       9.64600000
 O      15.15600000      22.63200000       5.61300000
 H      15.69800000      21.93800000       6.04800000
 H      15.93900000      23.05000000       5.10000000
 O      26.12000000      33.18400000      12.54300000
 H      25.17800000      33.51400000      12.38300000
 H      25.98300000      33.04800000      13.53800000
 O      21.35900000      21.64800000      13.64200000
 H      20.99800000      22.55500000      13.61500000
 H      20.75000000      21.30500000      14.36300000
 O      27.11400000      31.51600000       9.66200000
 H      26.34000000      32.03100000      10.06200000
 H      26.65000000      30.85600000       9.08800000
 O      13.44300000      24.28400000       7.40500000
 H      13.88200000      24.96800000       7.96300000
 H      14.11200000      23.89000000       6.89100000
 O      22.90600000      30.71500000      13.49200000
 H      22.47700000      29.86800000      13.79300000
 H      23.59700000      30.84100000      14.13200000
 O      26.85900000      22.17100000       2.33600000
 H      26.21300000      22.84300000       2.73000000
 H      26.14700000      21.52900000       1.96200000
 O      19.99200000      23.71400000       7.76400000
 H      19.64600000      24.47000000       8.29800000
 H      20.40700000      23.16600000       8.45800000
 O      28.66700000      30.68900000       2.06100000
 H      27.71900000      30.77000000       1.81500000
 H      28.85900000      29.77300000       1.81200000
 O      24.11500000      34.32900000       9.00900000
 H      23.96700000      33.31300000       9.00700000
 H      23.54100000      34.61800000       8.31400000
 O      24.05300000      32.88100000       2.84700000
 H      24.08000000      33.24700000       3.78300000
 H      23.93800000      31.95900000       2.99200000
 O      15.69100000      30.37900000      13.75300000
 H      15.51700000      29.47600000      13.74300000
 H      15.65600000      30.67600000      12.79200000
 O      18.37600000      34.63500000       2.48100000
 H      18.09700000      35.27300000       1.77400000
 H      17.53900000      34.43800000       2.88600000
 O      17.96300000      27.38800000       8.21900000
 H      18.13300000      26.49100000       8.53900000
 H      18.20600000      27.85300000       9.08600000
 O      20.99600000      22.16800000      10.02200000
 H      20.20000000      21.63000000       9.88400000
 H      20.82500000      22.62100000      10.80700000
 O      22.72200000      28.35300000       5.38000000
 H      23.22900000      29.16200000       5.60600000
 H      22.64300000      27.92300000       6.25800000
 O      23.84600000      27.36400000       3.11600000
 H      23.41100000      27.55500000       4.01300000
 H      23.50600000      26.51500000       2.98600000
 O      18.72500000      22.41600000       2.27600000
 H      19.59000000      22.65600000       2.56300000
 H      18.09600000      22.63800000       2.96900000
 O      27.85400000      25.82900000       2.73700000
 H      27.27800000      25.08500000       2.99100000
 H      27.15700000      26.54800000       2.75800000
 O      19.02000000      28.48300000      10.32900000
 H      19.42800000      28.75700000      11.13600000
 H      18.82900000      29.38400000       9.87700000
 O      21.71700000      27.18900000       8.94500000
 H      22.60900000      26.93300000       9.23700000
 H      21.59800000      28.00700000       9.38900000
 O      21.05600000      34.84900000       3.81600000
 H      20.88000000      34.15000000       4.50400000
 H      20.20900000      34.77500000       3.27100000
 O      20.28300000      26.76700000       1.89800000
 H      20.02900000      27.64900000       1.57000000
 H      20.16400000      26.87400000       2.86500000
 O      13.69300000      33.93100000       3.22500000
 H      13.67600000      32.96400000       3.44600000
 H      13.91500000      33.93000000       2.26200000
 O      19.86900000      24.89100000      12.31300000
 H      19.81900000      25.56600000      13.00800000
 H      18.92700000      24.52800000      12.42400000
 O      19.40100000      21.66500000       5.95600000
 H      19.26600000      22.60000000       6.31300000
 H      19.95300000      21.95500000       5.14100000
 O      25.20000000      24.44300000       2.71900000
 H      24.94300000      24.43400000       3.63900000
 H      24.31900000      24.70200000       2.29700000
 O      16.84100000      21.20500000       9.11300000
 H      17.78700000      20.96100000       9.28300000
 H      16.84900000      21.26200000       8.14100000
 O      15.51600000      35.14700000      12.52000000
 H      15.83400000      35.21600000      13.46500000
 H      14.98500000      34.32700000      12.56000000
 O      16.86300000      24.24000000      12.74400000
 H      16.27600000      24.29700000      13.51700000
 H      16.17300000      23.89700000      12.09100000
 O      15.26700000      30.15800000       8.21200000
 H      15.26600000      29.42200000       7.55700000
 H      14.61200000      30.72900000       7.74700000
 O      21.20300000      30.76000000       4.09500000
 H      21.63800000      29.97600000       4.53800000
 H      21.57400000      30.67300000       3.21300000
 O      21.89100000      30.10800000       1.56300000
 H      21.15300000      29.81100000       1.00100000
 H      22.09400000      31.02400000       1.11500000
 O      16.07500000      20.50100000      12.45400000
 H      15.43100000      19.77200000      12.34000000
 H      15.61900000      21.25300000      12.06100000
 O      15.97700000      27.28000000      10.71800000
 H      15.72500000      27.00000000      11.60100000
 H      16.88200000      27.68200000      10.96100000
 O      27.85400000      22.38600000       8.21500000
 H      27.65000000      22.53000000       9.17000000
 H      28.21700000      21.44400000       8.25300000
 O      18.14800000      31.02900000       8.99700000
 H      18.28600000      31.74300000       8.34700000
 H      17.31800000      30.67200000       8.70200000
 O      14.12000000      25.03400000       2.34300000
 H      14.57000000      24.66600000       3.14400000
 H      13.78400000      25.87200000       2.71200000
 O      18.97200000      32.52000000       6.75700000
 H      18.64300000      33.37900000       6.49800000
 H      19.83100000      32.42900000       6.29200000
 O      24.52100000      24.84600000       5.48100000
 H      23.72800000      25.24700000       5.91900000
 H      25.16800000      25.06800000       6.17500000
 O      18.59700000      33.95900000      12.52200000
 H      18.29800000      33.63100000      13.38200000
 H      17.90700000      34.66300000      12.30500000
 O      15.10600000      32.84900000       6.48400000
 H      15.24100000      32.26100000       5.75600000
 H      15.75500000      33.53500000       6.30700000
 O      23.97000000      31.73300000       8.90300000
 H      24.06000000      31.20100000       8.12400000
 H      23.63000000      31.07500000       9.53300000
 O      15.66100000      31.66700000       4.05800000
 H      15.08200000      30.98400000       3.55900000
 H      16.44300000      31.53600000       3.59000000
 O      24.30500000      33.65400000       5.40300000
 H      25.09200000      33.52300000       5.94900000
 H      23.97600000      34.50400000       5.88700000
 O      23.94300000      24.62400000      12.47800000
 H      23.83700000      24.11700000      11.62500000
 H      24.01900000      23.86000000      13.10500000
 O      15.20700000      30.60100000      10.95900000
 H      15.34300000      31.20700000      10.20600000
 H      15.06100000      29.72500000      10.52600000
 O      25.98300000      28.57800000       8.22500000
 H      25.59100000      28.00900000       8.88500000
 H      26.89700000      28.25500000       8.17300000
 O      26.20800000      34.86000000       3.56300000
 H      25.90900000      33.90700000       3.61200000
 H      26.11800000      35.04200000       2.60700000
