313
XYZ file of cluster: frame_13000_4b5b4.230b9.4c353 - created by MolEdiTo
 O      22.84000000      16.11700000      18.11400000
 H      22.61900000      16.85700000      17.51900000
 H      23.24300000      16.55900000      18.87600000
 O      25.88900000      15.71800000      15.97800000
 H      25.44200000      14.96000000      16.45800000
 H      26.61800000      15.91500000      16.55800000
 O      28.50000000      15.41200000      18.36600000
 H      28.65800000      14.49100000      18.66700000
 H      27.61700000      15.55700000      18.72600000
 O      23.60500000      19.78700000      17.60400000
 H      24.37100000      20.23700000      17.29700000
 H      23.74600000      19.63300000      18.56100000
 O      26.60700000      13.11500000      25.48700000
 H      26.61800000      12.58500000      26.24400000
 H      26.90000000      12.59000000      24.74000000
 O      23.92600000      17.56000000      20.00600000
 H      24.81700000      17.78400000      19.74900000
 H      24.06100000      17.07800000      20.88600000
 O      26.12600000      15.18000000      19.48300000
 H      25.52400000      14.45400000      19.75800000
 H      26.29500000      15.65000000      20.32100000
 O      20.06400000      20.71400000      16.04400000
 H      19.08300000      20.71900000      15.85700000
 H      20.14300000      19.73300000      16.20900000
 O      23.75900000      12.79000000      22.73600000
 H      23.97000000      12.54100000      21.79500000
 H      24.45900000      12.24900000      23.21900000
 O      20.43400000      16.04700000      26.54100000
 H      19.56200000      15.64600000      26.24300000
 H      20.60000000      16.72800000      25.85900000
 O      21.97600000       8.85700000      23.18600000
 H      21.12200000       8.42300000      23.32800000
 H      21.78000000       9.25000000      22.30600000
 O      19.16900000       9.26000000      20.44000000
 H      18.28300000       9.65800000      20.39600000
 H      19.02600000       8.28800000      20.38000000
 O      16.21800000      17.95300000      15.80900000
 H      16.11100000      17.85500000      14.87300000
 H      16.70600000      18.79100000      15.78100000
 O      22.42500000      12.17700000      14.67200000
 H      22.95600000      12.67500000      15.30400000
 H      22.36100000      12.82500000      13.96500000
 O      17.16800000       7.29500000      24.90100000
 H      17.49200000       7.99100000      25.57800000
 H      17.11900000       6.56700000      25.63200000
 O      21.82000000       9.74900000      20.64500000
 H      20.86000000       9.63000000      20.43700000
 H      21.96600000      10.64100000      20.24300000
 O      16.83200000      13.47100000      17.63000000
 H      15.92500000      13.87200000      17.43400000
 H      16.84300000      13.79900000      18.59400000
 O      14.90200000      19.11200000      25.39300000
 H      15.68800000      19.77400000      25.45300000
 H      14.18100000      19.70500000      25.55800000
 O      14.96800000      15.08900000      28.01000000
 H      14.58700000      15.80600000      27.51100000
 H      14.23400000      14.40400000      28.00900000
 O      17.77500000       6.82400000      15.11200000
 H      17.83100000       7.75500000      15.30000000
 H      17.96000000       6.42200000      15.98600000
 O      28.44100000      15.55800000      23.62400000
 H      28.97800000      14.70300000      23.76100000
 H      27.54700000      15.11500000      23.57600000
 O      23.77000000      11.58500000      18.38600000
 H      23.29300000      10.82100000      18.77700000
 H      24.41100000      11.17100000      17.85300000
 O      17.54200000       9.62200000      15.38800000
 H      17.19100000      10.18900000      16.05400000
 H      18.48800000      10.00100000      15.27700000
 C      22.40400000      21.51900000      19.98000000
 C      21.50500000      20.56400000      20.80500000
 C      19.18800000      20.15800000      21.65400000
 H      19.88500000      22.00000000      21.03100000
 H      23.51000000      22.27500000      20.69400000
 O      19.40300000      20.90500000      19.32200000
 O      23.76000000      21.43100000      20.50700000
 O      22.57900000      22.74700000      20.55200000
 C      19.99400000      21.00400000      20.66900000
 O      21.58500000      19.19600000      20.42500000
 H      21.70200000      20.67400000      21.87200000
 O      19.60800000      20.26000000      23.01100000
 O      17.99400000      20.76400000      22.04000000
 H      18.34000000      20.88000000      22.87200000
 H      22.45000000      18.81400000      20.62100000
 H      19.67900000      21.54300000      18.63000000
 O      27.52900000       6.73700000      17.67600000
 H      27.59800000       7.73500000      17.89100000
 H      26.59300000       6.73000000      17.48100000
 O      26.35500000      18.80700000      19.23100000
 H      26.84300000      18.21900000      19.75000000
 H      26.98000000      19.44600000      18.89800000
 O      13.76000000      20.71100000      19.20600000
 H      14.23500000      21.48900000      19.52900000
 H      14.47400000      20.04700000      19.27900000
 O      16.47700000      17.24300000      20.63000000
 H      15.91000000      17.48500000      21.40800000
 H      15.93100000      17.77100000      19.92800000
 O      15.23100000       8.43400000      22.86500000
 H      15.80700000       8.09100000      23.56300000
 H      14.76400000       7.62400000      22.60600000
 O      24.37900000       7.24300000      19.82700000
 H      25.10100000       6.69800000      20.25300000
 H      24.46500000       6.94500000      18.90600000
 O      13.52800000      16.95300000      26.44500000
 H      12.83500000      17.26900000      25.87400000
 H      14.26400000      17.48300000      26.01400000
 O      14.36000000      14.40800000      17.39200000
 H      14.46200000      15.17600000      16.83200000
 H      13.93400000      13.80000000      16.74800000
 O      25.49100000      15.39200000      24.55400000
 H      25.74300000      14.48500000      24.81200000
 H      24.62100000      15.44900000      25.03200000
 O      20.10700000       6.66700000      26.53200000
 H      20.23800000       7.53700000      26.89100000
 H      20.25500000       6.85800000      25.58100000
 O      24.97300000      12.84600000      20.35200000
 H      24.50000000      12.51800000      19.57900000
 H      25.76800000      12.31400000      20.38900000
 O      21.03300000      13.75900000      28.44500000
 H      20.77300000      14.51900000      27.90400000
 H      21.07400000      13.04400000      27.76100000
 O      23.50000000       8.57200000      27.76100000
 H      23.68300000       7.73900000      28.32300000
 H      24.42700000       8.90400000      27.55000000
 O      22.33100000       7.30500000      16.47200000
 H      22.38100000       8.23000000      16.12000000
 H      21.95100000       6.83700000      15.69500000
 O      26.86300000      10.79100000      20.16700000
 H      27.32600000      10.43100000      19.37200000
 H      26.40300000      10.02400000      20.49300000
 O      17.01800000      14.60200000      20.14200000
 H      16.82400000      15.47200000      20.51500000
 H      17.69600000      14.25300000      20.80200000
 O      20.71600000       8.95900000      27.57400000
 H      21.68200000       8.85600000      27.64200000
 H      20.64600000       9.89500000      27.44600000
 O      21.33200000       6.85400000      19.01300000
 H      21.68800000       7.00300000      18.10200000
 H      21.83100000       7.50400000      19.52000000
 O      15.32600000      12.99400000      25.30900000
 H      14.35400000      12.90400000      25.28900000
 H      15.52700000      13.78000000      24.73900000
 O      14.65700000       7.39800000      13.81300000
 H      14.08300000       6.71200000      14.12300000
 H      15.51900000       6.99600000      13.81200000
 O      20.07100000      11.11500000      15.70500000
 H      20.97500000      11.44900000      15.44200000
 H      19.99500000      11.60500000      16.58600000
 O      17.46800000      20.50400000      15.36200000
 H      17.27400000      20.62600000      14.42300000
 H      16.74400000      21.12900000      15.75200000
 O      15.23100000      18.29300000      18.54300000
 H      14.32100000      17.89000000      18.46800000
 H      15.58300000      18.24900000      17.64500000
 O      23.12500000      15.53100000      26.00800000
 H      22.21200000      15.65600000      26.18200000
 H      23.52000000      15.75900000      26.92100000
 O      18.85800000      16.00200000      23.73500000
 H      18.39000000      15.55000000      24.46200000
 H      19.29600000      15.19900000      23.26500000
 O      23.19600000      20.53000000      25.17800000
 H      22.75700000      20.25500000      25.99800000
 H      22.86900000      21.40800000      25.04000000
 O      23.93500000      13.78900000      16.83800000
 H      23.74300000      14.67700000      17.25400000
 H      23.91400000      13.23900000      17.66000000
 O      19.39700000      12.70800000      24.66200000
 H      19.28600000      11.91300000      24.10300000
 H      20.18300000      13.10600000      24.20600000
 O      14.56000000      10.41800000      14.13100000
 H      14.35700000       9.51800000      13.83600000
 H      15.51800000      10.39800000      14.14900000
 O      25.64200000      21.07500000      15.92600000
 H      26.58600000      20.97100000      15.74300000
 H      25.30700000      20.37600000      15.30000000
 O      21.83700000      20.80500000      27.66300000
 H      22.01400000      20.39300000      28.55100000
 H      20.97200000      20.47200000      27.52900000
 O      22.57000000      17.95300000      16.18200000
 H      22.98600000      18.73900000      16.62900000
 H      21.70200000      18.25200000      16.21500000
 O      27.65500000      11.66400000      22.67400000
 H      27.62700000      11.41900000      21.71500000
 H      26.79600000      11.42300000      22.94200000
 O      19.94800000      12.92600000      17.53600000
 H      18.94800000      13.01000000      17.40300000
 H      20.18900000      13.70400000      18.05900000
 O      22.79000000      18.61700000      23.08400000
 H      22.00800000      18.12800000      23.44600000
 H      22.90800000      19.27200000      23.75100000
 O      19.87000000      18.21200000      16.56800000
 H      19.53800000      17.76900000      17.35900000
 H      19.64300000      17.63000000      15.85000000
 O      24.93900000       9.52100000      21.68700000
 H      24.92000000       8.52200000      21.53100000
 H      24.05700000       9.75200000      21.30700000
 O      18.35100000      16.00400000      15.80200000
 H      17.64500000      16.67500000      15.87700000
 H      17.96900000      15.28300000      16.31900000
 O      25.88300000      18.06300000      26.06400000
 H      25.30700000      17.47600000      26.66000000
 H      25.96300000      17.40500000      25.31100000
 O      25.64700000      18.50200000      22.81400000
 H      25.83400000      19.24300000      23.46300000
 H      24.64700000      18.51300000      22.86400000
 O      19.69200000      14.34500000      21.81700000
 H      20.51900000      14.04400000      22.26300000
 H      20.14700000      14.83400000      21.09300000
 O      27.38000000      12.60900000      14.21300000
 H      28.28100000      12.13200000      14.17100000
 H      27.71700000      13.48700000      14.48000000
 O      27.63800000      11.59800000      27.63300000
 H      28.39500000      11.95400000      28.10100000
 H      26.94500000      11.78900000      28.30600000
 O      15.67100000       9.75400000      20.68000000
 H      15.46000000      10.72000000      20.88000000
 H      15.39400000       9.38900000      21.56300000
 O      15.35900000      13.80400000      13.79500000
 H      14.65600000      14.07300000      14.39600000
 H      14.84600000      13.00300000      13.35400000
 O      27.23000000      20.42800000      26.14200000
 H      26.70400000      20.58400000      25.30500000
 H      26.88600000      19.51400000      26.29900000
 O      13.65400000      16.21800000      14.93100000
 H      14.06000000      16.35300000      14.09100000
 H      12.87300000      15.59400000      14.67200000
 O      14.92100000       6.59400000      28.13200000
 H      15.59100000       7.15000000      28.48100000
 H      15.34700000       5.96200000      27.53100000
 O      18.12400000      14.77400000      26.04200000
 H      17.16800000      14.64400000      25.86800000
 H      18.51600000      14.00900000      25.58300000
 O      19.36000000      17.30600000      19.34400000
 H      19.63400000      18.18600000      19.70600000
 H      18.52400000      17.24900000      19.92100000
 O      20.48000000      17.91100000      24.40500000
 H      20.01100000      18.73700000      24.00300000
 H      19.78700000      17.25200000      24.16600000
 O      25.35800000      10.83800000      23.97500000
 H      25.55800000      10.03900000      24.52200000
 H      25.19400000      10.35800000      23.12600000
 O      22.91500000      10.94400000      25.07600000
 H      22.56500000      10.23900000      24.43000000
 H      23.80800000      11.01700000      24.56500000
 O      23.34700000      16.12400000      13.75400000
 H      22.94400000      16.67400000      14.41500000
 H      24.17900000      15.80100000      14.13700000
 O      16.24300000      10.94000000      17.53300000
 H      16.54800000      11.86700000      17.46500000
 H      15.63900000      10.87700000      18.25700000
 O      27.39300000      17.04100000      21.32900000
 H      26.82300000      17.66100000      21.83300000
 H      28.03700000      16.77500000      22.03200000
 O      21.08400000      11.64000000      26.84800000
 H      20.37500000      11.57900000      26.20600000
 H      21.87000000      11.51200000      26.18400000
 O      26.11300000       8.33800000      25.28800000
 H      26.30400000       8.53200000      26.23600000
 H      26.54900000       7.52600000      25.12200000
 O      24.81100000      19.28200000      13.94900000
 H      25.11400000      18.39500000      13.84300000
 H      24.37200000      19.33700000      13.03400000
 O      19.20600000      19.76800000      27.35100000
 H      18.63000000      19.00800000      27.16100000
 H      18.84100000      20.07500000      28.19000000
 O      14.13400000       8.98500000      18.56700000
 H      14.82200000       9.05200000      19.23500000
 H      14.56200000       9.43800000      17.79700000
 O      15.22000000      12.29100000      20.64800000
 H      14.33700000      12.49600000      20.37700000
 H      15.67300000      13.21600000      20.59400000
 O      24.38200000      15.95600000      22.11700000
 H      24.04300000      15.11900000      22.44700000
 H      25.13400000      16.04500000      22.72300000
 O      17.34100000       8.52000000      27.27900000
 H      17.66700000       8.58800000      28.16800000
 H      17.07300000       9.43500000      27.08700000
 O      25.39200000      10.30600000      16.13000000
 H      25.24800000      11.06100000      15.53800000
 H      24.58700000       9.74400000      15.82300000
 O      21.63100000      14.09900000      23.79800000
 H      22.32800000      13.45300000      23.48500000
 H      22.17000000      14.85100000      24.07400000
 O      19.31000000      10.56600000      23.24500000
 H      19.20600000       9.80000000      23.77900000
 H      19.22900000      10.23300000      22.34400000
 O      21.18400000      12.30800000      19.94400000
 H      20.37800000      12.18900000      19.34600000
 H      21.27900000      13.28800000      19.77600000
 O      24.10200000       7.18300000      23.68400000
 H      23.41200000       7.79600000      23.62600000
 H      24.72800000       7.64000000      24.28800000
 O      20.66000000      14.82700000      19.29600000
 H      21.48100000      15.18900000      18.82200000
 H      20.15900000      15.69800000      19.34400000
 O      19.56100000       7.79200000      23.70400000
 H      19.98400000       6.91500000      23.31700000
 H      18.74900000       7.32600000      24.13900000
 O      27.79100000       9.49600000      17.66700000
 H      27.21900000       9.54300000      16.86700000
 H      28.46700000      10.17300000      17.57800000
 O      17.33100000      11.20200000      26.37600000
 H      16.80100000      11.89500000      25.88600000
 H      18.17100000      11.22500000      25.86000000
 O      23.04800000       9.51300000      14.59100000
 H      22.82500000       9.12300000      13.70600000
 H      22.71300000      10.44000000      14.43600000
 O      15.10100000      18.05400000      22.88800000
 H      15.16400000      19.02700000      22.72600000
 H      15.39700000      17.99200000      23.82100000
 O      15.76200000      15.11900000      23.89900000
 H      15.99300000      15.99100000      23.41500000
 H      14.91500000      14.97500000      23.45800000
