705
XYZ file of cluster: frame_13000_1191.9b197.c4d9f - created by MolEdiTo
 O      22.48600000      28.12800000      36.21000000
 H      23.26900000      28.75100000      36.13700000
 H      21.91100000      28.51400000      35.54700000
 O      40.49100000      38.81000000      34.84100000
 H      40.50800000      39.53200000      34.17400000
 H      39.94500000      39.15900000      35.54500000
 O      32.58100000      37.04900000      37.51400000
 H      32.48800000      37.91900000      37.15700000
 H      33.03200000      37.16800000      38.36100000
 O      29.13400000      37.92500000      35.39900000
 H      29.79500000      37.30400000      34.99900000
 H      29.41100000      37.83600000      36.33600000
 O      24.87900000      32.98500000      35.90200000
 H      25.77200000      32.59700000      36.06600000
 H      24.87600000      33.74300000      36.45800000
 O       7.05400000      33.08900000      37.56800000
 H       6.76600000      33.06500000      36.62200000
 H       7.99500000      33.24300000      37.43900000
 O      15.87900000      30.88400000      35.19100000
 H      15.49300000      30.12100000      35.60100000
 H      16.42300000      30.49300000      34.50200000
 O      17.05000000      33.47200000      39.33600000
 H      16.49500000      33.48300000      38.56100000
 H      17.83700000      34.01500000      39.01500000
 O      40.30300000      39.88500000      40.12400000
 H      39.58400000      39.22200000      40.28200000
 H      39.88500000      40.37100000      39.35400000
 O       9.38900000      28.20500000      37.19400000
 H       8.67200000      27.52100000      37.33100000
 H       8.72200000      28.94200000      37.01300000
 O      13.86200000      37.26300000      36.42200000
 H      13.25900000      37.40200000      35.63400000
 H      13.38700000      37.98800000      36.97000000
 O      32.94300000      30.46000000      34.57600000
 H      32.14000000      29.95600000      34.94200000
 H      33.65400000      30.16700000      35.22200000
 O      29.95100000      37.20600000      37.85900000
 H      30.93300000      37.27900000      37.94300000
 H      29.76300000      37.66000000      38.69300000
 O       6.91200000      31.24600000      39.86600000
 H       6.36500000      31.39500000      40.63800000
 H       6.64900000      32.04200000      39.30800000
 O      15.03300000      40.10400000      37.81400000
 H      14.36700000      40.67200000      38.25900000
 H      14.79100000      40.24600000      36.88300000
 O       6.63200000      40.48300000      36.81500000
 H       7.49600000      40.14600000      37.05200000
 H       6.48800000      40.98700000      37.62400000
 O      24.20200000      30.43700000      35.79000000
 H      24.39400000      31.35400000      36.01000000
 H      24.80700000      30.29000000      35.06600000
 O       9.46100000      37.11400000      37.34400000
 H       9.41900000      38.05600000      36.96300000
 H       8.70000000      36.74100000      36.82900000
 O      30.61600000      29.45400000      35.32800000
 H      30.28500000      29.27100000      36.18700000
 H      29.94300000      30.13100000      34.99000000
 O       7.73200000      30.60300000      36.36900000
 H       7.94700000      30.85100000      35.43400000
 H       8.08900000      31.41900000      36.81600000
 O      40.44300000      33.60500000      37.87400000
 H      40.05900000      34.31200000      38.40300000
 H      40.45100000      34.06300000      36.95500000
 O       7.54900000      40.24900000      39.64900000
 H       8.22100000      39.72200000      40.17900000
 H       6.75900000      39.93000000      40.11400000
 O       1.87100000      35.93300000      39.37500000
 H       1.00000000      36.02800000      38.96600000
 H       2.34400000      36.74300000      39.02600000
 O      29.46700000      28.80500000      38.24200000
 H      28.94800000      27.97800000      38.34100000
 H      28.93100000      29.42200000      38.72700000
 O      26.92000000      39.53700000      38.93300000
 H      27.57900000      38.88600000      39.21200000
 H      26.10300000      39.15200000      39.28500000
 O       9.79700000      33.86800000      37.12800000
 H       9.61200000      34.81500000      37.27400000
 H      10.67800000      33.92400000      36.66600000
 O      12.27300000      34.21200000      36.15000000
 H      12.97900000      33.63500000      36.55800000
 H      12.77200000      34.63700000      35.40900000
 O      35.31600000      34.83900000      35.39300000
 H      34.73200000      34.18900000      35.75500000
 H      35.78100000      35.10400000      36.20600000
 O      31.87000000      29.64100000      40.87500000
 H      31.53600000      29.38200000      41.75600000
 H      31.41000000      29.04500000      40.29200000
 O      11.63600000      28.49800000      35.86500000
 H      10.82800000      28.41800000      36.35100000
 H      12.03400000      27.63700000      36.09500000
 O      28.95400000      38.14600000      40.29300000
 H      29.38200000      38.95800000      40.59700000
 H      29.62800000      37.45800000      40.45700000
 O      14.40400000      34.17900000      40.72300000
 H      15.30000000      33.89000000      40.57700000
 H      13.96200000      33.57300000      40.10400000
 O      16.85500000      38.76800000      39.09600000
 H      16.87900000      38.39200000      38.18500000
 H      16.17900000      39.45000000      38.95200000
 O       1.87900000      29.24700000      38.21000000
 H       2.64800000      28.78200000      38.49100000
 H       2.01500000      30.15300000      38.53100000
 O       7.28500000      35.91900000      36.02000000
 H       7.33900000      35.10000000      35.44500000
 H       6.49600000      36.30600000      35.58700000
 O       3.95700000      40.36600000      39.03600000
 H       4.52000000      41.08500000      39.12600000
 H       3.99300000      39.88600000      39.93200000
 O      32.03900000      32.94000000      34.38600000
 H      32.36700000      33.32900000      35.24200000
 H      32.34900000      32.02500000      34.48000000
 O      33.60100000      31.52300000      40.11900000
 H      32.71700000      31.67500000      39.62500000
 H      33.18300000      30.99200000      40.87500000
 O      19.61100000      29.18000000      39.82500000
 H      19.00100000      28.93300000      39.11600000
 H      19.53200000      30.15400000      39.81000000
 O       9.62100000      39.87800000      36.62400000
 H      10.19900000      40.16300000      35.94900000
 H       9.81100000      40.46900000      37.38200000
 O      13.22300000      32.75100000      38.77700000
 H      13.25000000      32.46000000      37.83900000
 H      13.41700000      31.87300000      39.18700000
 O      21.98300000      33.66400000      36.96300000
 H      21.48600000      33.39300000      36.17600000
 H      22.90400000      33.48900000      36.65800000
 O      38.47600000      40.03600000      36.46000000
 H      38.78100000      40.51800000      37.25700000
 H      38.00900000      40.77600000      36.04500000
 O      38.15500000      38.01200000      40.35000000
 H      37.95700000      37.09200000      40.49700000
 H      37.69300000      38.43800000      41.10700000
 O       3.82400000      40.43200000      36.08300000
 H       4.77100000      40.34700000      35.80200000
 H       3.90800000      40.16900000      37.02200000
 O      35.00400000      34.02300000      40.13300000
 H      35.77000000      33.55000000      40.28700000
 H      34.32700000      33.34700000      39.90900000
 O      39.50000000      31.22200000      38.54500000
 H      39.80600000      31.02800000      39.44100000
 H      39.87000000      32.18600000      38.46500000
 O       9.51100000      31.78300000      40.27100000
 H       9.97800000      31.19900000      39.67700000
 H       8.57700000      31.66500000      39.97200000
 O       7.27800000      27.78600000      39.98600000
 H       7.32600000      28.70400000      39.70800000
 H       7.64400000      27.26300000      39.30600000
 O      24.73900000      33.53000000      39.22600000
 H      24.07800000      33.79100000      39.85100000
 H      24.84800000      34.27500000      38.62500000
 O      35.34800000      29.53000000      35.92100000
 H      35.54500000      28.79900000      35.29400000
 H      36.20700000      30.07100000      35.80300000
 O      24.85100000      35.36300000      37.29800000
 H      25.83500000      35.48000000      37.26500000
 H      24.54400000      36.24800000      36.98600000
 O      28.97700000      34.03000000      40.66100000
 H      29.76400000      34.61100000      40.44400000
 H      29.18200000      33.83100000      41.56600000
 O      14.10700000      40.15400000      35.08900000
 H      13.39100000      40.77500000      35.05300000
 H      13.87100000      39.45900000      34.44500000
 O      24.51200000      29.14700000      40.70300000
 H      23.65000000      29.22800000      41.12300000
 H      24.42100000      28.18800000      40.44400000
 O      21.92100000      36.73500000      39.56800000
 H      21.68800000      37.54800000      40.08100000
 H      22.15800000      36.11200000      40.20900000
 O      26.57000000      27.99300000      36.49500000
 H      26.35500000      27.96200000      35.54100000
 H      25.94100000      28.57800000      36.86100000
 O      37.35000000      35.36100000      40.39900000
 H      37.66600000      34.59300000      40.90400000
 H      36.41800000      35.12400000      40.22400000
 O      39.61600000      32.16600000      34.95000000
 H      40.28900000      31.47400000      35.28000000
 H      40.17300000      32.97700000      35.20700000
 O      21.24400000      40.45500000      37.88700000
 H      20.85800000      39.95600000      37.14300000
 H      20.46200000      41.06100000      38.05000000
 O      15.12800000      28.19600000      36.71900000
 H      14.36100000      27.89700000      36.15700000
 H      14.79900000      27.99400000      37.63300000
 O      27.29300000      31.79200000      36.70000000
 H      27.73900000      31.82700000      37.52800000
 H      28.04700000      31.51300000      36.10300000
 O      18.45200000      27.94400000      37.18100000
 H      17.48100000      28.10400000      36.90700000
 H      18.77200000      27.53700000      36.37200000
 O      31.40200000      32.08900000      38.59400000
 H      30.62600000      31.55900000      38.79200000
 H      31.06600000      32.84100000      38.10500000
 O      36.34500000      31.20900000      40.14000000
 H      36.38500000      30.30200000      40.52500000
 H      35.30900000      31.20400000      40.24200000
 O       3.95800000      27.04500000      37.97200000
 H       4.51600000      27.78000000      37.74900000
 H       3.94300000      26.53300000      37.15900000
 O      36.01500000      32.75300000      37.53800000
 H      36.74000000      32.29600000      36.99300000
 H      36.19500000      32.24400000      38.38800000
 O       9.03700000      36.22500000      40.18700000
 H       9.52600000      35.39700000      40.03200000
 H       9.37300000      36.73800000      39.41600000
 O       2.18700000      36.96100000      36.22400000
 H       1.92600000      37.85400000      35.83900000
 H       1.96200000      37.17100000      37.13800000
 O      23.93000000      40.52300000      38.42300000
 H      23.80500000      41.43300000      38.64800000
 H      23.04100000      40.28800000      38.15200000
 O      27.55500000      34.86800000      38.08400000
 H      27.52000000      34.34000000      38.94200000
 H      28.48400000      35.28600000      38.26100000
 O      19.06400000      31.93000000      40.26900000
 H      18.33400000      32.64900000      40.11500000
 H      19.81200000      32.47600000      39.95400000
 O      18.68400000      40.59300000      40.49900000
 H      18.73700000      40.98300000      39.59400000
 H      18.31700000      39.70000000      40.32800000
 O      16.60700000      37.37100000      36.68500000
 H      15.66300000      37.33900000      36.48100000
 H      16.86300000      38.02900000      36.02400000
 O       4.38700000      31.57000000      35.96800000
 H       4.30400000      32.47100000      35.49800000
 H       4.14900000      31.88200000      36.87800000
 O      31.82800000      39.50900000      33.93700000
 H      31.78600000      39.64300000      34.88700000
 H      32.08600000      38.53400000      33.89800000
 O      31.71600000      39.15900000      39.74600000
 H      31.69900000      40.01200000      39.28400000
 H      32.61500000      39.07700000      40.06300000
 O      28.61800000      31.58600000      39.00200000
 H      27.80400000      31.43400000      39.63500000
 H      28.93700000      32.36900000      39.52000000
 O       6.69300000      27.49300000      34.42700000
 H       6.07400000      27.82500000      35.07200000
 H       6.21800000      27.29100000      33.66800000
 O      23.86800000      38.28800000      36.78600000
 H      24.18800000      39.16300000      36.96200000
 H      22.97900000      38.48500000      36.50500000
 O      32.15900000      36.84300000      34.75800000
 H      32.16500000      35.88600000      34.54900000
 H      32.33800000      36.76900000      35.74800000
 O      18.58500000      35.20300000      38.02500000
 H      19.49700000      35.37700000      37.67700000
 H      18.13700000      35.94400000      37.55500000
 O      30.67800000      34.37500000      37.53200000
 H      30.83000000      35.36400000      37.68900000
 H      30.13300000      34.45700000      36.73200000
 O      36.42600000      38.12900000      37.12100000
 H      37.19700000      38.77300000      37.10200000
 H      36.53800000      37.73400000      36.22200000
 O      29.07000000      34.42800000      35.51300000
 H      28.36100000      34.63300000      36.11800000
 H      28.55200000      34.11100000      34.72500000
 O      32.06500000      26.95000000      36.28300000
 H      31.85600000      27.80500000      35.76600000
 H      31.38600000      26.38600000      35.90900000
 O       2.63400000      32.25300000      37.88600000
 H       1.82400000      32.80400000      37.82800000
 H       3.08800000      32.68800000      38.61700000
 O      19.77500000      38.36200000      36.63000000
 H      20.12000000      37.45700000      36.94200000
 H      19.89600000      38.23400000      35.64000000
 O      10.92400000      29.31900000      39.21000000
 H      10.39600000      28.88100000      38.48800000
 H      10.81700000      28.69200000      39.93300000
 O      21.07300000      39.30100000      40.65700000
 H      21.33100000      39.57100000      39.73900000
 H      20.16300000      39.74500000      40.64900000
 O      24.69800000      38.13400000      39.65700000
 H      23.88400000      37.64600000      39.40300000
 H      24.47400000      39.04100000      39.57300000
 O       5.45400000      29.31000000      36.56200000
 H       4.91000000      30.10600000      36.32300000
 H       6.32100000      29.76800000      36.57900000
 O      38.27200000      28.68900000      40.58000000
 H      38.95000000      29.29400000      41.05100000
 H      37.73700000      28.44400000      41.38200000
 O      39.37900000      36.09300000      38.40900000
 H      38.70300000      35.91300000      39.07200000
 H      39.15300000      37.00800000      38.11300000
 O      13.63700000      31.78700000      36.42400000
 H      14.51400000      31.74700000      35.99600000
 H      13.14300000      31.13000000      35.87000000
 O       1.57600000      30.48900000      35.79800000
 H       2.23100000      31.11700000      36.04600000
 H       1.57200000      29.87600000      36.56800000
 O      37.64600000      30.91000000      36.44400000
 H      38.35800000      31.15200000      35.84700000
 H      38.13000000      30.88300000      37.30900000
 O       0.85500000      34.58200000      35.38100000
 H       0.31900000      34.95200000      34.64400000
 H       1.47100000      35.33800000      35.47200000
 O      25.61800000      40.43800000      36.47600000
 H      24.89600000      40.86000000      37.03600000
 H      26.18900000      40.18300000      37.22500000
 O      12.19200000      38.61400000      38.46800000
 H      12.81400000      38.00300000      38.84800000
 H      11.58200000      38.06200000      38.01800000
 O       5.86000000      35.07300000      38.77800000
 H       6.02200000      35.85000000      38.32300000
 H       6.29800000      34.35600000      38.37000000
 O      32.48400000      39.65700000      36.51800000
 H      32.17900000      40.27400000      37.18500000
 H      33.21900000      40.08300000      36.06900000
 O      33.44400000      33.16500000      36.62300000
 H      32.91500000      32.59500000      37.16200000
 H      34.36400000      33.04100000      37.01900000
 O      17.52700000      36.32300000      40.36500000
 H      17.99500000      35.84000000      39.62600000
 H      17.34800000      37.16700000      39.87200000
 O      20.83100000      36.15100000      37.29600000
 H      21.50000000      35.49100000      37.06600000
 H      21.26700000      36.45800000      38.17600000
 O      26.22400000      31.59500000      40.35900000
 H      25.67500000      32.39100000      40.05300000
 H      25.57300000      30.92500000      40.51600000
 O      13.49900000      30.10400000      39.91800000
 H      12.51600000      29.98500000      39.59400000
 H      13.85200000      29.21600000      39.70000000
 O       3.76900000      33.77000000      39.98000000
 H       2.89700000      34.21600000      40.07400000
 H       4.31700000      34.42200000      39.51800000
 O      10.91300000      34.12600000      40.21700000
 H      10.22300000      33.45900000      39.96300000
 H      11.55800000      33.96100000      39.48500000
 O      39.40700000      27.61400000      38.15600000
 H      39.02800000      28.23900000      38.77400000
 H      40.33100000      27.93000000      38.10000000
 O       4.25400000      34.18200000      35.25100000
 H       3.56600000      34.75700000      35.64300000
 H       5.01100000      34.81800000      35.20300000
 O      13.34000000      36.59400000      40.48600000
 H      13.84500000      35.73400000      40.43200000
 H      14.00500000      37.05900000      41.06400000
 O       1.91600000      38.47400000      38.54300000
 H       1.25800000      39.02800000      39.12200000
 H       2.56500000      39.17000000      38.40000000
 O      19.93400000      32.59200000      35.17400000
 H      19.08600000      32.15800000      35.39000000
 H      19.69500000      33.03500000      34.37500000
 O      21.66800000      32.83900000      39.59100000
 H      21.70600000      32.88300000      38.58700000
 H      22.23600000      33.55700000      39.83700000
 O      34.21700000      40.21700000      40.39600000
 H      34.79000000      40.87700000      39.93000000
 H      34.20400000      40.57200000      41.26300000
 O      34.58100000      37.63600000      39.27800000
 H      35.36500000      37.84500000      38.70900000
 H      34.44600000      38.52300000      39.72400000
 O      34.61000000      29.33000000      38.63400000
 H      34.86800000      29.47600000      37.67400000
 H      34.03500000      30.12900000      38.75700000
 O      29.16400000      40.65700000      36.26000000
 H      28.22700000      40.84900000      36.21600000
 H      29.18900000      39.75900000      35.83000000
 O      16.72900000      39.35700000      34.50700000
 H      15.79900000      39.44400000      34.84100000
 H      17.23200000      39.96200000      35.00200000
 O      21.59200000      32.88100000      47.56700000
 H      21.37300000      31.99900000      47.12700000
 H      22.59500000      32.80300000      47.61800000
 O      26.80900000      39.50700000      46.37300000
 H      26.66800000      39.83700000      45.47000000
 H      27.12600000      38.59900000      46.11900000
 O      27.81200000      36.81600000      45.86400000
 H      27.54200000      36.08200000      45.27100000
 H      28.23200000      36.32400000      46.58600000
 O      33.98700000      33.12300000      45.48800000
 H      34.81700000      32.59100000      45.35700000
 H      33.37900000      32.50300000      45.93700000
 O      24.10600000      37.92400000      44.86400000
 H      24.01400000      37.24500000      44.16700000
 H      23.88800000      38.78800000      44.43000000
 O      29.60600000      35.99000000      48.09300000
 H      30.22700000      35.21400000      48.07500000
 H      28.87300000      35.50700000      48.61300000
 O      37.05400000      35.90200000      47.12800000
 H      36.37500000      35.91000000      46.42900000
 H      36.70800000      35.23800000      47.74400000
 O       6.26600000      36.23800000      43.03900000
 H       5.87000000      35.54100000      42.44600000
 H       7.14300000      36.29700000      42.60000000
 O       7.96300000      33.48600000      44.86900000
 H       7.98200000      32.51300000      44.89000000
 H       7.12700000      33.64800000      45.31800000
 O      15.36600000      37.22100000      43.70100000
 H      16.22800000      37.06900000      43.29100000
 H      15.50100000      38.08900000      44.13500000
 O      33.56900000      35.97300000      42.81400000
 H      33.94500000      36.64000000      42.19100000
 H      34.17600000      35.20400000      42.56900000
 O      38.87500000      33.80300000      46.37600000
 H      38.78000000      33.11300000      47.02500000
 H      38.00100000      34.20600000      46.35000000
 O       9.93400000      40.60600000      44.53600000
 H       9.71700000      39.81100000      44.00800000
 H       9.13400000      40.65800000      45.13100000
 O      26.66300000      31.20400000      47.08300000
 H      26.24300000      30.87600000      46.26400000
 H      27.46600000      31.65400000      46.79300000
 O      21.13200000      37.51100000      45.52000000
 H      20.95100000      36.56400000      45.55600000
 H      22.10500000      37.57300000      45.30900000
 O      39.96300000      40.42900000      48.63900000
 H      39.92200000      39.46400000      48.57900000
 H      39.62700000      40.53800000      49.56600000
 O      33.18000000      37.84400000      47.26700000
 H      32.35800000      37.55500000      46.82200000
 H      33.82900000      37.27300000      46.82500000
 O      11.06500000      35.59000000      49.01900000
 H      11.44800000      35.17000000      48.26600000
 H      10.21400000      35.86500000      48.64900000
 O      18.37000000      29.91000000      47.68800000
 H      18.69100000      30.76500000      48.04500000
 H      18.46000000      29.37200000      48.51300000
 O       5.11400000      29.53000000      46.41200000
 H       4.89600000      28.84700000      47.07700000
 H       4.27700000      30.01800000      46.29200000
 O      39.04200000      37.47500000      47.16900000
 H      38.36100000      36.73900000      47.01800000
 H      38.65900000      37.95000000      47.91400000
 O      36.82600000      39.22300000      47.33600000
 H      37.41100000      40.00300000      47.56500000
 H      36.95400000      38.68800000      48.11800000
 O      17.98600000      28.12600000      45.46900000
 H      18.23100000      28.83000000      44.85000000
 H      17.83700000      28.70400000      46.27700000
 O      13.04600000      31.68600000      49.21500000
 H      13.60600000      32.30200000      48.64100000
 H      13.05200000      32.27600000      50.04200000
 O      25.55500000      29.91300000      44.88600000
 H      25.47300000      29.97200000      43.92500000
 H      24.95500000      29.14000000      45.01400000
 O      22.86400000      34.98700000      43.19700000
 H      23.48400000      34.35600000      43.63100000
 H      22.23200000      35.04900000      43.99000000
 O       5.15800000      31.92800000      43.47500000
 H       4.83700000      32.59300000      42.85400000
 H       4.75700000      32.19700000      44.28200000
 O      28.85500000      40.70000000      43.36700000
 H      27.93000000      40.47700000      43.53500000
 H      28.78600000      41.02100000      42.44500000
 O      34.96000000      28.98200000      43.79700000
 H      34.14100000      28.55800000      43.50800000
 H      35.29600000      28.42400000      44.53600000
 O      18.67000000      38.73600000      48.49800000
 H      17.79500000      38.85400000      47.98700000
 H      18.20700000      38.80900000      49.39000000
 O      26.04700000      36.46900000      48.09600000
 H      26.01100000      36.32000000      47.15000000
 H      25.33300000      37.13500000      48.23200000
 O       7.47600000      37.63200000      45.24600000
 H       6.74900000      37.52200000      45.90500000
 H       7.25800000      36.98400000      44.53300000
 O       8.74500000      38.60000000      43.19700000
 H       8.34600000      38.27000000      44.04500000
 H       9.02400000      37.72200000      42.77600000
 O       2.43700000      39.24600000      43.87300000
 H       1.85800000      39.64900000      43.17800000
 H       1.87400000      38.65700000      44.35300000
 O      31.29600000      39.97800000      44.74300000
 H      31.39400000      39.02300000      44.73800000
 H      30.55100000      40.19600000      44.23000000
 O      11.77800000      40.56700000      46.93900000
 H      11.38500000      40.78500000      46.06300000
 H      12.15900000      39.71100000      46.81400000
 O       9.09500000      39.50400000      47.87200000
 H       9.98700000      39.84800000      47.88000000
 H       8.68800000      40.11600000      47.19100000
 O      18.75800000      31.06300000      44.45100000
 H      18.80200000      31.30600000      43.47300000
 H      19.59000000      31.32900000      44.81000000
 O      18.55000000      38.81900000      44.74100000
 H      18.42200000      39.41900000      45.47200000
 H      19.42200000      38.42700000      44.94000000
 O      10.87700000      28.50900000      45.75200000
 H      10.40400000      29.06600000      45.18800000
 H      10.42700000      28.39900000      46.56100000
 O      16.22800000      39.74200000      46.96700000
 H      15.77700000      39.76000000      46.06600000
 H      15.59100000      39.20800000      47.45500000
 O      24.50400000      30.45100000      48.24300000
 H      25.26600000      30.77900000      47.77500000
 H      24.90300000      29.74100000      48.76800000
 O      28.37100000      40.65900000      48.18800000
 H      27.68100000      40.22500000      47.55600000
 H      28.46900000      41.52200000      47.82000000
 O      15.70800000      35.75800000      45.99500000
 H      15.42700000      36.40800000      45.28600000
 H      15.19900000      34.98600000      45.60600000
 O      13.73600000      30.29500000      44.45600000
 H      12.92900000      30.78100000      44.70400000
 H      13.64700000      30.23100000      43.47100000
 O      12.08800000      35.28900000      46.48700000
 H      12.86800000      34.79500000      46.18100000
 H      11.56500000      35.25600000      45.62900000
 O      32.66900000      28.82300000      47.53600000
 H      33.30100000      28.48900000      48.16600000
 H      31.95000000      28.12400000      47.58400000
 O      12.53700000      40.54900000      43.62600000
 H      11.64700000      40.68200000      43.99700000
 H      12.68500000      39.58000000      43.70700000
 O      12.05500000      37.92000000      46.41400000
 H      12.04000000      36.97900000      46.72300000
 H      11.71000000      37.79900000      45.49000000
 O       5.68500000      30.86700000      49.38600000
 H       6.15400000      31.69400000      49.66400000
 H       6.21600000      30.71100000      48.52700000
 O      40.44100000      30.77900000      42.87500000
 H      41.32200000      30.33400000      43.00400000
 H      40.46600000      31.39300000      43.67400000
 O      22.89300000      35.48300000      48.60000000
 H      21.93700000      35.54800000      48.59900000
 H      23.21300000      36.33700000      48.37200000
 O      23.81500000      38.04600000      47.72300000
 H      23.87800000      39.02400000      47.77600000
 H      23.90500000      37.92100000      46.73800000
 O      26.10200000      35.85900000      42.79700000
 H      27.03300000      35.90700000      42.47500000
 H      25.73800000      36.65100000      42.39700000
 O       2.89200000      33.10700000      45.46400000
 H       2.16700000      33.30400000      44.82300000
 H       2.41200000      33.49600000      46.28500000
 O      10.82100000      31.89900000      44.54200000
 H      10.72100000      32.70000000      45.00400000
 H      10.14300000      31.88900000      43.80600000
 O      36.08100000      31.39700000      45.39000000
 H      36.39100000      30.82800000      46.14700000
 H      35.55300000      30.70600000      44.95600000
 O       2.02300000      35.59000000      43.85200000
 H       1.97100000      35.79900000      42.85900000
 H       1.38300000      34.85800000      43.85000000
 O      32.35200000      31.71000000      46.94100000
 H      32.65900000      30.78200000      47.00000000
 H      31.91000000      31.83400000      47.85400000
 O      37.62100000      39.15600000      44.72200000
 H      36.99400000      39.16800000      45.53800000
 H      38.28200000      38.53000000      45.13900000
 O      34.38000000      40.16600000      46.77400000
 H      35.23800000      39.87100000      47.11300000
 H      33.83100000      39.41300000      46.99900000
 O      15.39800000      39.82400000      44.40000000
 H      15.14600000      40.77400000      44.19500000
 H      16.36300000      39.89800000      44.23600000
 O       1.19900000      29.41300000      48.11000000
 H       1.02800000      30.14800000      48.72100000
 H       1.76700000      28.83300000      48.75000000
 O      28.66700000      30.68900000      43.81700000
 H      27.71900000      30.77000000      43.57100000
 H      28.85900000      29.77300000      43.56800000
 O      30.82700000      35.99500000      42.74300000
 H      31.76000000      36.27000000      42.54800000
 H      30.94100000      35.64300000      43.65800000
 O       3.23500000      40.12100000      46.35600000
 H       2.93500000      39.97400000      45.41400000
 H       2.57300000      40.81800000      46.62000000
 O       5.52100000      33.53100000      46.10600000
 H       4.60700000      33.51100000      45.67800000
 H       5.39500000      34.24500000      46.74700000
 O       5.14700000      39.43300000      43.06400000
 H       5.65900000      38.81400000      43.66400000
 H       4.31000000      39.48200000      43.57500000
 O      13.08900000      27.20100000      45.09500000
 H      12.25300000      27.61200000      45.41000000
 H      13.53900000      28.05600000      44.87700000
 O      39.80700000      27.90000000      46.19000000
 H      40.47800000      27.28000000      45.93600000
 H      40.30800000      28.48700000      46.83700000
 O       8.17400000      27.47000000      48.26700000
 H       8.55200000      28.36100000      48.22700000
 H       7.70700000      27.46000000      49.16000000
 O      24.05300000      32.88100000      44.60300000
 H      24.08000000      33.24700000      45.53900000
 H      23.93800000      31.95900000      44.74800000
 O      18.37600000      34.63500000      44.23700000
 H      18.09700000      35.27300000      43.53000000
 H      17.53900000      34.43800000      44.64200000
 O      10.30500000      34.95500000      44.38000000
 H      10.35900000      34.65500000      43.40300000
 H       9.49100000      34.47200000      44.63100000
 O      30.90400000      37.29000000      45.73700000
 H      30.19600000      37.18400000      46.37100000
 H      31.02700000      36.30800000      45.56900000
 O      40.61200000      37.63400000      44.90300000
 H      41.09400000      36.78900000      44.78100000
 H      40.27000000      37.49300000      45.79600000
 O       2.63500000      30.47400000      45.59100000
 H       2.96200000      31.37600000      45.75400000
 H       2.02500000      30.34800000      46.32900000
 O      34.99000000      35.86400000      45.33000000
 H      34.70500000      34.91200000      45.39900000
 H      34.47000000      36.07800000      44.47000000
 O      22.72200000      28.35300000      47.13600000
 H      23.22900000      29.16200000      47.36200000
 H      22.64300000      27.92300000      48.01400000
 O      26.00300000      40.57400000      43.78900000
 H      25.84700000      41.51500000      43.64000000
 H      25.07300000      40.21500000      43.69000000
 O      21.05600000      34.84900000      45.57200000
 H      20.88000000      34.15000000      46.26000000
 H      20.20900000      34.77500000      45.02700000
 O      20.54600000      40.14900000      47.04700000
 H      20.02600000      39.59600000      47.60200000
 H      20.81200000      39.63100000      46.30700000
 O      29.71000000      32.73900000      44.80800000
 H      30.48100000      32.24200000      45.17800000
 H      29.29400000      31.93600000      44.36700000
 O       1.77600000      33.80500000      47.75900000
 H       1.59900000      34.78700000      47.78800000
 H       1.41900000      33.60600000      48.64400000
 O       7.16700000      31.25400000      47.06700000
 H       6.76700000      32.08500000      46.77600000
 H       6.41000000      30.63600000      46.74400000
 O      13.69300000      33.93100000      44.98100000
 H      13.67600000      32.96400000      45.20200000
 H      13.91500000      33.93000000      44.01800000
 O      36.59600000      30.38500000      47.74000000
 H      35.97300000      30.59500000      48.44000000
 H      37.18600000      29.74000000      48.14900000
 O      17.73700000      34.93400000      47.91700000
 H      18.30800000      35.66000000      47.95400000
 H      17.18200000      35.02100000      47.12100000
 O      28.74900000      27.69500000      42.72200000
 H      28.58800000      27.01900000      42.01100000
 H      28.79900000      27.06100000      43.51200000
 O      23.43300000      40.34800000      43.65900000
 H      22.61600000      40.03600000      43.17000000
 H      22.94800000      41.09200000      44.11200000
 O      31.40600000      34.77000000      45.13400000
 H      32.26100000      34.21500000      45.06800000
 H      30.79200000      33.97300000      45.10800000
 O       1.04100000      36.07100000      48.83500000
 H       0.18700000      36.40100000      48.54400000
 H       1.66000000      36.74800000      48.55500000
 O      37.63000000      28.01700000      44.71700000
 H      36.96600000      27.57600000      45.25400000
 H      38.43000000      28.03700000      45.26900000
 O       5.68500000      36.88400000      47.30500000
 H       5.27100000      36.21900000      47.90700000
 H       4.92700000      36.97200000      46.62400000
 O      13.94600000      38.73700000      48.10200000
 H      13.47700000      38.51000000      48.99800000
 H      13.22300000      38.34800000      47.55200000
 O      11.50200000      37.58100000      43.85300000
 H      12.12400000      37.05800000      43.23700000
 H      10.83000000      36.88000000      43.96600000
 O       9.63000000      30.20000000      47.96600000
 H      10.21900000      30.93600000      48.08800000
 H       8.85800000      30.57900000      47.57800000
 O       8.62400000      36.74400000      47.71100000
 H       8.50300000      36.89800000      46.75200000
 H       8.59200000      37.70800000      48.03200000
 O      37.59700000      32.83600000      43.23800000
 H      37.42400000      32.08900000      42.59600000
 H      37.09900000      32.49100000      44.01300000
 O      21.20300000      30.76000000      45.85100000
 H      21.63800000      29.97600000      46.29400000
 H      21.57400000      30.67300000      44.96900000
 O       4.03900000      36.88500000      45.23800000
 H       3.23500000      36.41900000      44.88000000
 H       4.67000000      36.65800000      44.51900000
 O      21.89100000      30.10800000      43.31900000
 H      21.15300000      29.81100000      42.75700000
 H      22.09400000      31.02400000      42.87100000
 O      39.94000000      33.76600000      43.84600000
 H      39.62900000      33.70600000      44.76500000
 H      39.12600000      33.42800000      43.36500000
 O      30.44600000      33.18200000      48.26600000
 H      29.95500000      32.75600000      47.57100000
 H      30.14200000      32.84100000      49.08500000
 O       6.37200000      38.65100000      49.45200000
 H       5.44400000      39.06600000      49.68200000
 H       6.11700000      38.41400000      48.51300000
 O       2.69600000      38.11500000      48.02600000
 H       3.01200000      38.50000000      47.09300000
 H       3.08300000      38.80000000      48.54500000
 O      31.09200000      28.70500000      45.14100000
 H      31.93000000      28.69400000      45.66300000
 H      30.42800000      29.02700000      45.79600000
 O      29.37200000      29.85200000      47.23000000
 H      29.73400000      29.02200000      47.48900000
 H      28.47900000      29.76200000      47.61700000
 O      18.97200000      32.52000000      48.51300000
 H      18.64300000      33.37900000      48.25400000
 H      19.83100000      32.42900000      48.04800000
 O      15.10600000      32.84900000      48.24000000
 H      15.24100000      32.26100000      47.51200000
 H      15.75500000      33.53500000      48.06300000
 O      38.33700000      28.40400000      48.91200000
 H      39.19500000      28.80100000      48.66900000
 H      38.01500000      28.96600000      49.61800000
 O      15.66100000      31.66700000      45.81400000
 H      15.08200000      30.98400000      45.31500000
 H      16.44300000      31.53600000      45.34600000
 O      24.30500000      33.65400000      47.15900000
 H      25.09200000      33.52300000      47.70500000
 H      23.97600000      34.50400000      47.64300000
 O       2.59800000      28.76700000      43.23700000
 H       2.81500000      29.13800000      44.10200000
 H       3.54500000      28.40300000      43.03200000
 O      26.20800000      34.86000000      45.31900000
 H      25.90900000      33.90700000      45.36800000
 H      26.11800000      35.04200000      44.36300000
