1278
XYZ file of cluster: frame_13000_2433a.4cac8.9a5fc - created by MolEdiTo
 O      26.17200000      16.28400000      31.78400000
 H      26.39400000      17.16800000      31.95800000
 H      26.78200000      16.12700000      30.98000000
 O      40.49100000      38.81000000      34.84100000
 H      40.50800000      39.53200000      34.17400000
 H      39.94500000      39.15900000      35.54500000
 O      32.58100000      37.04900000      37.51400000
 H      32.48800000      37.91900000      37.15700000
 H      33.03200000      37.16800000      38.36100000
 O      29.13400000      37.92500000      35.39900000
 H      29.79500000      37.30400000      34.99900000
 H      29.41100000      37.83600000      36.33600000
 O      28.51700000      25.15800000      32.70800000
 H      27.95100000      24.82200000      33.44800000
 H      28.02300000      26.01800000      32.53000000
 O      28.08500000      18.16800000      39.58600000
 H      28.62000000      18.19600000      38.73000000
 H      28.52200000      18.85900000      40.09000000
 O      35.15300000      22.67000000      32.03200000
 H      34.31200000      22.24100000      31.74100000
 H      35.06100000      23.52400000      31.54900000
 O      18.26400000      33.66600000      32.95600000
 H      17.33100000      33.68900000      33.13000000
 H      18.47800000      34.62400000      32.78700000
 O      26.94300000      29.58500000      29.81200000
 H      27.32900000      28.67400000      30.12000000
 H      27.64000000      29.80700000      29.16800000
 O      18.34200000      16.15600000      32.32300000
 H      17.49500000      16.65400000      32.21900000
 H      18.87800000      16.88200000      32.74500000
 O      18.34300000      27.71700000      28.32800000
 H      17.84900000      26.97500000      27.84600000
 H      18.57700000      28.30900000      27.61800000
 O      18.42000000      24.48700000      31.58600000
 H      18.12500000      24.15300000      30.69300000
 H      19.04800000      25.16700000      31.34100000
 O      11.69100000      25.57400000      38.60300000
 H      10.99700000      25.79000000      37.93000000
 H      11.51900000      24.62400000      38.72300000
 O      15.03300000      40.10400000      37.81400000
 H      14.36700000      40.67200000      38.25900000
 H      14.79100000      40.24600000      36.88300000
 O       6.63200000      40.48300000      36.81500000
 H       7.49600000      40.14600000      37.05200000
 H       6.48800000      40.98700000      37.62400000
 O      24.20200000      30.43700000      35.79000000
 H      24.39400000      31.35400000      36.01000000
 H      24.80700000      30.29000000      35.06600000
 O      18.75900000      19.46800000      30.54500000
 H      18.92700000      20.36500000      30.90000000
 H      19.50700000      19.00100000      30.95200000
 O      11.73500000      31.06700000      28.97700000
 H      12.55300000      31.11200000      28.43000000
 H      11.67600000      31.99800000      29.24300000
 O      23.20800000      25.66400000      35.37900000
 H      22.87100000      26.40900000      35.86100000
 H      22.38400000      25.14300000      35.29700000
 O      35.86200000      16.44600000      37.01300000
 H      35.61500000      17.27600000      36.68900000
 H      36.77800000      16.30700000      36.66400000
 O       7.54900000      40.24900000      39.64900000
 H       8.22100000      39.72200000      40.17900000
 H       6.75900000      39.93000000      40.11400000
 O      23.05300000      30.20300000      30.63000000
 H      22.79700000      30.38300000      31.54900000
 H      22.28500000      29.66200000      30.36800000
 O      25.12800000      25.08200000      37.23000000
 H      25.06000000      24.11100000      37.45100000
 H      24.37200000      25.22000000      36.69400000
 O      37.77500000      15.96400000      31.27200000
 H      38.31400000      15.30400000      30.80700000
 H      38.45100000      16.42500000      31.82300000
 O      19.83100000      16.85100000      29.60100000
 H      20.01100000      16.24600000      28.86500000
 H      18.98000000      16.56100000      29.94500000
 O       7.13800000      23.42400000      33.85400000
 H       6.16600000      23.27200000      33.61600000
 H       7.20500000      23.00400000      34.74100000
 O      26.92000000      39.53700000      38.93300000
 H      27.57900000      38.88600000      39.21200000
 H      26.10300000      39.15200000      39.28500000
 O      12.27300000      34.21200000      36.15000000
 H      12.97900000      33.63500000      36.55800000
 H      12.77200000      34.63700000      35.40900000
 O       9.08800000      23.64600000      29.91000000
 H       8.73600000      22.80000000      29.55500000
 H      10.02900000      23.60000000      29.52900000
 O      21.20300000      18.81600000      32.19500000
 H      20.70700000      18.54900000      33.00600000
 H      22.12200000      18.60100000      32.58800000
 O      24.51200000      26.67700000      39.60900000
 H      23.59800000      26.78300000      39.26500000
 H      24.95500000      26.22700000      38.87300000
 O      11.63600000      28.49800000      35.86500000
 H      10.82800000      28.41800000      36.35100000
 H      12.03400000      27.63700000      36.09500000
 O      27.63600000      24.43700000      35.23900000
 H      26.95700000      24.93200000      35.71200000
 H      27.54800000      23.53200000      35.62000000
 O      28.48000000      31.22900000      34.10400000
 H      28.20400000      32.18300000      34.01700000
 H      27.52500000      30.82900000      34.10000000
 O      22.67400000      36.52200000      33.13200000
 H      23.34800000      35.84400000      33.06300000
 H      21.90100000      36.03300000      33.34100000
 O      38.45600000      36.45500000      27.45300000
 H      38.24700000      35.83700000      28.19300000
 H      38.50100000      37.30300000      27.92800000
 O      26.23600000      18.67600000      34.61500000
 H      26.62100000      19.54900000      34.79600000
 H      26.07800000      18.82700000      33.63000000
 O      16.61400000      16.65800000      35.62100000
 H      17.16700000      16.44600000      36.37600000
 H      15.79900000      16.16600000      35.73800000
 O      19.38200000      17.97000000      34.02300000
 H      19.84700000      17.41600000      34.70700000
 H      18.46200000      17.91600000      34.32900000
 O      12.01300000      28.13000000      29.46600000
 H      11.50600000      28.17900000      30.33000000
 H      12.26900000      29.07300000      29.43400000
 O      32.03900000      32.94000000      34.38600000
 H      32.36700000      33.32900000      35.24200000
 H      32.34900000      32.02500000      34.48000000
 O      38.12700000      27.53500000      29.15500000
 H      37.97900000      28.09200000      28.33400000
 H      39.05200000      27.83600000      29.35300000
 O      12.69900000      35.52200000      32.76400000
 H      11.89000000      35.40800000      32.29800000
 H      12.89800000      34.58100000      33.06800000
 O      38.15500000      38.01200000      40.35000000
 H      37.95700000      37.09200000      40.49700000
 H      37.69300000      38.43800000      41.10700000
 O      14.91200000      26.79800000      29.22500000
 H      14.15000000      26.46100000      28.82300000
 H      15.59900000      26.17400000      28.91600000
 O      39.50000000      31.22200000      38.54500000
 H      39.80600000      31.02800000      39.44100000
 H      39.87000000      32.18600000      38.46500000
 O       9.51100000      31.78300000      40.27100000
 H       9.97800000      31.19900000      39.67700000
 H       8.57700000      31.66500000      39.97200000
 O      28.11800000      26.32900000      37.97600000
 H      27.38600000      26.91800000      37.64600000
 H      27.56100000      25.45900000      37.92500000
 O      25.40200000      19.12100000      31.89900000
 H      25.11200000      18.78500000      31.01900000
 H      26.28400000      19.50500000      31.67600000
 O      10.28500000      36.09800000      30.66700000
 H      10.83200000      36.79600000      31.09100000
 H       9.46000000      36.58600000      30.35900000
 O      36.61300000      33.17800000      30.39000000
 H      37.34300000      32.59400000      30.64500000
 H      36.13200000      33.37100000      31.18400000
 O       8.41600000      40.09000000      32.03200000
 H       7.57000000      39.56900000      31.83800000
 H       8.20900000      40.96400000      31.73300000
 O      27.98900000      15.38800000      39.57400000
 H      27.51000000      14.95900000      38.82500000
 H      27.95300000      16.32900000      39.33500000
 O      39.18800000      28.38800000      32.18200000
 H      38.57400000      29.16900000      32.26300000
 H      39.19400000      28.31600000      31.22100000
 O      21.92100000      36.73500000      39.56800000
 H      21.68800000      37.54800000      40.08100000
 H      22.15800000      36.11200000      40.20900000
 O      37.14100000      25.80400000      30.82100000
 H      37.95800000      25.26700000      30.58800000
 H      37.32500000      26.57900000      30.25300000
 O      12.89600000      38.02700000      30.76800000
 H      13.31600000      38.86400000      30.55000000
 H      11.96800000      38.24800000      30.52000000
 O      38.84900000      13.68800000      40.51900000
 H      39.09400000      13.15700000      41.26400000
 H      38.29600000      14.36500000      40.89400000
 O      29.36900000      37.63000000      32.46800000
 H      28.58700000      38.00000000      32.03400000
 H      29.09300000      37.75700000      33.39800000
 O      37.62600000      21.13600000      31.81800000
 H      36.98000000      20.62200000      31.27900000
 H      37.02400000      21.88100000      32.07100000
 O      16.75800000      17.41900000      40.68200000
 H      15.77700000      17.61300000      40.75600000
 H      17.08800000      18.31200000      41.00500000
 O       7.06600000      28.50600000      30.23100000
 H       6.69800000      27.65700000      29.85100000
 H       7.67400000      28.65800000      29.41200000
 O      27.55500000      34.86800000      38.08400000
 H      27.52000000      34.34000000      38.94200000
 H      28.48400000      35.28600000      38.26100000
 O      20.15900000      38.42700000      33.90700000
 H      19.31700000      38.60500000      33.46200000
 H      20.74800000      38.42800000      33.11100000
 O      22.30000000      34.20100000      29.92500000
 H      21.59300000      33.71500000      30.39600000
 H      21.88700000      34.29600000      29.01000000
 O      31.71600000      39.15900000      39.74600000
 H      31.69900000      40.01200000      39.28400000
 H      32.61500000      39.07700000      40.06300000
 O      40.06900000      36.24700000      33.44400000
 H      39.21600000      36.23100000      33.03100000
 H      40.00400000      36.95100000      34.07800000
 O      13.06100000      28.27700000      27.00500000
 H      13.43100000      29.18300000      27.14500000
 H      12.77500000      28.07600000      27.89600000
 O      15.49400000      19.64900000      30.42500000
 H      15.40600000      18.76400000      30.84200000
 H      16.47300000      19.71200000      30.34200000
 O      35.09900000      20.85100000      28.13300000
 H      35.80200000      21.51100000      28.05400000
 H      34.93000000      20.66500000      27.19400000
 O      32.15900000      36.84300000      34.75800000
 H      32.16500000      35.88600000      34.54900000
 H      32.33800000      36.76900000      35.74800000
 O      32.76400000      21.32900000      29.72600000
 H      32.43300000      22.19500000      29.41700000
 H      33.42800000      21.12100000      29.04200000
 O       8.20300000      23.23200000      37.03000000
 H       7.35400000      23.76300000      37.16600000
 H       8.29100000      22.91000000      37.93900000
 O      15.32400000      33.03100000      33.84400000
 H      14.34000000      32.96700000      33.91400000
 H      15.60400000      32.25300000      34.33100000
 O      32.06500000      26.95000000      36.28300000
 H      31.85600000      27.80500000      35.76600000
 H      31.38600000      26.38600000      35.90900000
 O      24.70900000      34.25800000      32.31200000
 H      25.02100000      34.96200000      31.70000000
 H      24.67400000      33.49800000      31.71300000
 O      32.26500000      23.73200000      28.93000000
 H      33.09200000      24.12100000      29.23700000
 H      31.60100000      24.28100000      29.45200000
 O      18.23100000      24.73100000      34.34000000
 H      18.60900000      25.58000000      34.37400000
 H      18.34100000      24.48300000      33.39600000
 O      12.78500000      24.18600000      30.92700000
 H      13.62300000      24.51900000      31.29800000
 H      12.15200000      24.86800000      31.25200000
 O      12.88600000      17.09100000      36.12400000
 H      12.07100000      16.59200000      36.23600000
 H      13.56500000      16.38400000      36.10000000
 O      23.70800000      32.23500000      28.93400000
 H      23.21800000      32.90300000      29.48600000
 H      23.60200000      31.47500000      29.46500000
 O      38.27200000      28.68900000      40.58000000
 H      38.95000000      29.29400000      41.05100000
 H      37.73700000      28.44400000      41.38200000
 O      20.82400000      20.28200000      39.42000000
 H      20.24200000      19.72500000      38.91000000
 H      20.37500000      21.11800000      39.58400000
 O      22.60400000      23.35600000      40.06600000
 H      23.53100000      23.55100000      39.95400000
 H      22.28200000      23.60200000      39.15400000
 O      31.13800000      19.28100000      30.73700000
 H      30.63000000      19.87100000      31.34000000
 H      31.74800000      19.89100000      30.31800000
 O      13.63700000      31.78700000      36.42400000
 H      14.51400000      31.74700000      35.99600000
 H      13.14300000      31.13000000      35.87000000
 O      24.54400000      16.57500000      35.34700000
 H      25.25600000      17.20300000      35.22800000
 H      24.76000000      15.79100000      34.83700000
 O       7.23700000      34.52200000      32.15600000
 H       7.70200000      34.58100000      31.30100000
 H       6.42900000      34.97600000      32.03400000
 O      37.35900000      17.96500000      28.71500000
 H      37.54500000      18.38800000      27.86800000
 H      36.47700000      17.57700000      28.47200000
 O      21.94900000      24.69500000      28.77500000
 H      22.49300000      24.49400000      29.52600000
 H      22.54400000      24.37800000      28.01500000
 O       8.65700000      24.94100000      39.71600000
 H       7.89200000      24.40800000      40.07100000
 H       9.37700000      24.26500000      39.81800000
 O      29.36900000      36.42200000      28.85200000
 H      28.92200000      35.57100000      28.62300000
 H      30.06800000      36.16000000      29.46400000
 O      26.01100000      20.53300000      37.64000000
 H      25.13100000      20.99300000      37.43300000
 H      26.51900000      20.74700000      36.84500000
 O      19.20600000      19.76800000      27.35100000
 H      18.63000000      19.00800000      27.16100000
 H      18.84100000      20.07500000      28.19000000
 O      27.97000000      32.66800000      30.62700000
 H      28.05000000      33.05900000      29.72400000
 H      28.84500000      32.36900000      30.79300000
 O      22.00700000      27.29700000      38.69300000
 H      21.09300000      27.58300000      38.71700000
 H      22.25100000      27.58300000      37.78700000
 O      14.53200000      21.65600000      37.22800000
 H      14.56600000      21.69300000      38.16600000
 H      15.29800000      22.27800000      37.00400000
 O      13.49900000      30.10400000      39.91800000
 H      12.51600000      29.98500000      39.59400000
 H      13.85200000      29.21600000      39.70000000
 O      10.91300000      34.12600000      40.21700000
 H      10.22300000      33.45900000      39.96300000
 H      11.55800000      33.96100000      39.48500000
 O      39.40700000      27.61400000      38.15600000
 H      39.02800000      28.23900000      38.77400000
 H      40.33100000      27.93000000      38.10000000
 O      13.34000000      36.59400000      40.48600000
 H      13.84500000      35.73400000      40.43200000
 H      14.00500000      37.05900000      41.06400000
 O      30.60100000      33.20500000      32.12000000
 H      31.07600000      33.40000000      32.93800000
 H      30.53000000      32.24800000      32.12000000
 O      12.50400000      29.40100000      33.47400000
 H      12.04000000      28.96800000      34.27300000
 H      12.82300000      28.53300000      33.03700000
 O      35.78900000      14.67700000      34.02200000
 H      35.20800000      15.42700000      34.06900000
 H      35.55700000      14.25700000      33.21200000
 O      19.93400000      32.59200000      35.17400000
 H      19.08600000      32.15800000      35.39000000
 H      19.69500000      33.03500000      34.37500000
 O      34.21700000      40.21700000      40.39600000
 H      34.79000000      40.87700000      39.93000000
 H      34.20400000      40.57200000      41.26300000
 O      34.61000000      29.33000000      38.63400000
 H      34.86800000      29.47600000      37.67400000
 H      34.03500000      30.12900000      38.75700000
 O      38.84500000      14.04300000      29.45500000
 H      39.55200000      13.53000000      29.09300000
 H      38.27800000      13.42800000      29.88700000
 O      34.56900000      13.71500000      31.43200000
 H      34.49400000      14.52400000      30.92000000
 H      33.79100000      13.83700000      32.02100000
 O      29.16400000      40.65700000      36.26000000
 H      28.22700000      40.84900000      36.21600000
 H      29.18900000      39.75900000      35.83000000
 O      12.68600000      19.72800000      37.56900000
 H      13.22000000      18.90100000      37.66700000
 H      13.45500000      20.35100000      37.50900000
 O       8.59100000      18.14100000      36.50200000
 H       9.23200000      17.49900000      36.33000000
 H       8.66000000      18.69100000      35.70000000
 O      39.31600000      19.72900000      29.60900000
 H      38.89300000      20.35200000      30.23400000
 H      38.68200000      18.98900000      29.64900000
 O      40.30300000      39.88500000      40.12400000
 H      39.58400000      39.22200000      40.28200000
 H      39.88500000      40.37100000      39.35400000
 O      10.19400000      32.88800000      32.27400000
 H       9.96900000      32.36600000      31.45700000
 H       9.36300000      32.88100000      32.78600000
 O      13.86200000      37.26300000      36.42200000
 H      13.25900000      37.40200000      35.63400000
 H      13.38700000      37.98800000      36.97000000
 O      17.63700000      32.48700000      29.75200000
 H      16.81100000      32.32300000      30.27500000
 H      17.41200000      33.32100000      29.26200000
 O      10.45600000      24.86200000      36.20300000
 H       9.82000000      24.33200000      36.70500000
 H      10.02900000      24.77500000      35.31100000
 O      32.94300000      30.46000000      34.57600000
 H      32.14000000      29.95600000      34.94200000
 H      33.65400000      30.16700000      35.22200000
 O      29.95100000      37.20600000      37.85900000
 H      30.93300000      37.27900000      37.94300000
 H      29.76300000      37.66000000      38.69300000
 O       8.34700000      16.41300000      40.09900000
 H       7.92000000      15.67600000      39.72200000
 H       9.12300000      16.06200000      40.57100000
 O      39.16200000      34.09400000      29.00100000
 H      39.90400000      34.00900000      29.68400000
 H      38.56600000      33.38500000      29.26200000
 O      38.27100000      21.16000000      36.79900000
 H      38.40200000      21.02600000      35.81400000
 H      37.84400000      22.05000000      36.80800000
 O       9.46100000      37.11400000      37.34400000
 H       9.41900000      38.05600000      36.96300000
 H       8.70000000      36.74100000      36.82900000
 O      21.63700000      22.27900000      32.79500000
 H      20.89200000      21.81300000      32.29000000
 H      22.04700000      22.84400000      32.06000000
 O      14.85200000      15.11900000      37.36900000
 H      15.19500000      15.17500000      38.29500000
 H      15.54000000      14.54000000      36.96000000
 O      30.61600000      29.45400000      35.32800000
 H      30.28500000      29.27100000      36.18700000
 H      29.94300000      30.13100000      34.99000000
 O      40.44300000      33.60500000      37.87400000
 H      40.05900000      34.31200000      38.40300000
 H      40.45100000      34.06300000      36.95500000
 O      20.18600000      25.92200000      30.11200000
 H      20.87700000      25.44200000      29.65300000
 H      19.85700000      26.41800000      29.29100000
 O      13.06900000      22.09800000      28.98200000
 H      13.01500000      22.88800000      29.55300000
 H      12.20200000      22.20200000      28.48500000
 O      14.15500000      21.27300000      40.04800000
 H      14.84600000      21.97900000      40.22700000
 H      13.45900000      21.67800000      40.62400000
 O      39.19200000      17.13000000      36.76800000
 H      39.59900000      16.81200000      37.59400000
 H      38.90900000      18.02800000      37.12700000
 O       7.55100000      26.39900000      37.51800000
 H       6.70400000      25.90300000      37.52300000
 H       8.01700000      25.91600000      38.22100000
 O      29.46700000      28.80500000      38.24200000
 H      28.94800000      27.97800000      38.34100000
 H      28.93100000      29.42200000      38.72700000
 O      35.31600000      34.83900000      35.39300000
 H      34.73200000      34.18900000      35.75500000
 H      35.78100000      35.10400000      36.20600000
 O      27.29800000      33.52700000      33.44500000
 H      26.43700000      33.92800000      33.61300000
 H      27.34600000      33.47100000      32.49300000
 O      18.24100000      16.22000000      37.96100000
 H      17.85700000      16.18900000      38.83600000
 H      18.85800000      15.48700000      37.92800000
 O      25.97800000      29.77700000      33.61900000
 H      25.77500000      30.33700000      32.88900000
 H      26.01000000      28.92300000      33.21400000
 O      25.23200000      36.30300000      30.02600000
 H      25.05700000      35.62200000      29.37600000
 H      24.96000000      37.15600000      29.58400000
 O       8.01300000      36.99700000      30.01600000
 H       7.46200000      37.51200000      30.65700000
 H       7.33800000      36.43100000      29.62900000
 O      31.87000000      29.64100000      40.87500000
 H      31.53600000      29.38200000      41.75600000
 H      31.41000000      29.04500000      40.29200000
 O      27.36000000      16.64700000      29.38600000
 H      27.97200000      17.33200000      29.19100000
 H      27.98300000      15.89100000      29.60000000
 O      14.72800000      24.69700000      37.83900000
 H      15.24600000      24.08200000      37.28900000
 H      14.91000000      24.33400000      38.71600000
 O      14.15800000      34.00100000      29.85700000
 H      14.52600000      34.81000000      30.18500000
 H      14.39900000      33.28800000      30.50300000
 O      24.10500000      14.44800000      30.08200000
 H      23.19900000      14.71600000      30.38700000
 H      24.60300000      14.84000000      30.82700000
 O      24.47900000      28.42300000      28.63200000
 H      25.24900000      28.34700000      29.21000000
 H      23.87000000      28.96600000      29.17900000
 O      18.75100000      40.45500000      30.66200000
 H      18.33300000      40.28700000      29.79200000
 H      18.44700000      39.76500000      31.23900000
 O      14.90700000      28.39400000      31.47000000
 H      14.48100000      27.83200000      32.13300000
 H      14.80200000      27.88300000      30.66700000
 O       9.24700000      31.17100000      30.39700000
 H       9.78100000      31.18400000      29.55600000
 H       9.52700000      30.37300000      30.82400000
 O      33.60100000      31.52300000      40.11900000
 H      32.71700000      31.67500000      39.62500000
 H      33.18300000      30.99200000      40.87500000
 O      32.37500000      14.02300000      33.11800000
 H      32.41700000      14.72700000      33.81100000
 H      31.51000000      14.26200000      32.68500000
 O      31.40900000      16.13000000      34.64600000
 H      30.45400000      15.99100000      34.45900000
 H      31.38400000      17.13800000      34.72400000
 O       8.84200000      15.61200000      30.34500000
 H       8.50800000      15.77000000      31.29400000
 H       8.90200000      16.55900000      30.12200000
 O      24.73900000      33.53000000      39.22600000
 H      24.07800000      33.79100000      39.85100000
 H      24.84800000      34.27500000      38.62500000
 O      29.54300000      17.12000000      32.73400000
 H      30.28800000      17.23400000      32.09200000
 H      29.00100000      17.93700000      32.51000000
 O      35.34800000      29.53000000      35.92100000
 H      35.54500000      28.79900000      35.29400000
 H      36.20700000      30.07100000      35.80300000
 O      13.11000000      19.29500000      34.08300000
 H      12.88800000      18.79500000      33.32000000
 H      13.01500000      18.72100000      34.85300000
 O      10.52900000      39.35300000      30.30700000
 H      10.08100000      39.79000000      31.05800000
 H      10.60700000      40.16700000      29.73000000
 O      17.20300000      24.22800000      29.13300000
 H      16.85200000      23.35300000      28.89700000
 H      17.67400000      24.47900000      28.33900000
 O      39.61600000      32.16600000      34.95000000
 H      40.28900000      31.47400000      35.28000000
 H      40.17300000      32.97700000      35.20700000
 O      21.24400000      40.45500000      37.88700000
 H      20.85800000      39.95600000      37.14300000
 H      20.46200000      41.06100000      38.05000000
 O       7.04400000      32.42200000      28.90900000
 H       7.81300000      32.05000000      29.49500000
 H       7.58700000      33.18700000      28.54500000
 O      27.29300000      31.79200000      36.70000000
 H      27.73900000      31.82700000      37.52800000
 H      28.04700000      31.51300000      36.10300000
 O      38.80700000      16.11700000      27.61900000
 H      38.43200000      15.45500000      28.27300000
 H      38.33800000      16.92100000      27.90100000
 O      15.20400000      16.93100000      31.14300000
 H      15.24300000      16.11500000      30.59100000
 H      14.30400000      16.85900000      31.45000000
 O      20.91200000      29.29100000      33.66700000
 H      21.52800000      30.04600000      33.68800000
 H      21.02300000      28.95600000      32.75600000
 O      31.40200000      32.08900000      38.59400000
 H      30.62600000      31.55900000      38.79200000
 H      31.06600000      32.84100000      38.10500000
 O      28.74800000      27.30600000      29.77700000
 H      29.47100000      27.45100000      29.04700000
 H      28.38500000      26.44200000      29.43000000
 O      36.01500000      32.75300000      37.53800000
 H      36.74000000      32.29600000      36.99300000
 H      36.19500000      32.24400000      38.38800000
 O      20.99100000      23.79700000      35.16600000
 H      20.05900000      23.92100000      34.87200000
 H      21.35000000      23.34600000      34.38400000
 O      22.08500000      38.84800000      28.55700000
 H      23.00400000      38.76600000      28.23300000
 H      22.03600000      39.82700000      28.66700000
 O      29.66300000      30.79300000      28.48700000
 H      29.57200000      31.12300000      27.54400000
 H      30.27100000      31.48900000      28.86100000
 O      24.49500000      18.49100000      29.58300000
 H      24.78800000      18.21800000      28.70200000
 H      23.56100000      18.71800000      29.43800000
 O      21.24800000      36.60800000      30.15500000
 H      21.37200000      36.84900000      29.25500000
 H      21.77500000      35.82200000      30.27900000
 O      23.12100000      19.27800000      38.49700000
 H      23.68600000      20.05100000      38.36600000
 H      22.37200000      19.69000000      39.05600000
 O      28.61800000      31.58600000      39.00200000
 H      27.80400000      31.43400000      39.63500000
 H      28.93700000      32.36900000      39.52000000
 O      12.54500000      19.25800000      29.90300000
 H      12.25400000      20.16100000      29.88100000
 H      13.49600000      19.36700000      30.00100000
 O      18.14300000      20.90900000      34.14100000
 H      17.26300000      20.48500000      34.32900000
 H      18.53200000      20.68500000      35.00100000
 O      32.16800000      16.90200000      31.69900000
 H      32.79800000      16.51100000      31.08000000
 H      32.13600000      17.79800000      31.37400000
 O      31.66100000      24.31700000      39.22900000
 H      31.34800000      25.22500000      39.16800000
 H      31.27900000      23.92000000      38.35800000
 O       7.45100000      33.61700000      34.66400000
 H       7.31100000      33.92300000      33.74400000
 H       7.58200000      32.63800000      34.41300000
 O      34.56100000      27.70300000      28.64700000
 H      33.72200000      27.64100000      28.11100000
 H      35.16000000      28.06400000      28.01700000
 O      29.07000000      34.42800000      35.51300000
 H      28.36100000      34.63300000      36.11800000
 H      28.55200000      34.11100000      34.72500000
 O      10.74300000      14.13100000      29.42200000
 H      11.51000000      14.72900000      29.39300000
 H      10.04700000      14.80300000      29.77900000
 O      21.07300000      39.30100000      40.65700000
 H      21.33100000      39.57100000      39.73900000
 H      20.16300000      39.74500000      40.64900000
 O      34.19000000      23.01300000      38.99200000
 H      33.21700000      23.30200000      38.97800000
 H      34.38000000      22.94200000      39.92300000
 O      37.38900000      25.88300000      40.70200000
 H      37.75700000      26.54200000      41.27800000
 H      37.57300000      26.27600000      39.81700000
 O      34.55700000      36.46600000      28.72800000
 H      34.27900000      35.89300000      29.49700000
 H      33.64000000      36.93400000      28.64200000
 O      29.71200000      21.40700000      33.11600000
 H      30.62800000      21.46600000      33.18200000
 H      29.45100000      22.07400000      32.39700000
 O       6.45900000      24.65600000      30.37500000
 H       7.43800000      24.75600000      30.48900000
 H       6.36800000      23.71400000      30.19600000
 O      27.90100000      40.08600000      28.48500000
 H      27.71700000      39.15100000      28.11800000
 H      28.03800000      39.89900000      29.40900000
 O      37.64600000      30.91000000      36.44400000
 H      38.35800000      31.15200000      35.84700000
 H      38.13000000      30.88300000      37.30900000
 O       9.46600000      18.00600000      29.16400000
 H      10.23600000      18.36000000      29.58400000
 H       9.74600000      17.88600000      28.20400000
 O      25.61800000      40.43800000      36.47600000
 H      24.89600000      40.86000000      37.03600000
 H      26.18900000      40.18300000      37.22500000
 O      39.85600000      17.71900000      32.38200000
 H      39.01500000      17.92200000      32.92900000
 H      40.33500000      17.29400000      33.14800000
 O      32.48400000      39.65700000      36.51800000
 H      32.17900000      40.27400000      37.18500000
 H      33.21900000      40.08300000      36.06900000
 O      14.88800000      37.13600000      32.27400000
 H      14.41100000      36.45500000      32.74900000
 H      14.20400000      37.50800000      31.69400000
 O      40.69700000      38.99700000      30.97200000
 H      39.94600000      38.91000000      30.25000000
 H      41.42500000      38.54700000      30.42500000
 O      34.31900000      16.78600000      33.64000000
 H      34.66300000      17.38300000      34.28300000
 H      33.38500000      16.88200000      33.71900000
 O      34.90000000      16.48500000      30.82000000
 H      35.87200000      16.33700000      30.72800000
 H      34.86400000      16.86700000      31.69900000
 O      21.66800000      32.83900000      39.59100000
 H      21.70600000      32.88300000      38.58700000
 H      22.23600000      33.55700000      39.83700000
 O      34.58100000      37.63600000      39.27800000
 H      35.36500000      37.84500000      38.70900000
 H      34.44600000      38.52300000      39.72400000
 O       8.44800000      18.89700000      39.09000000
 H       8.17900000      18.70400000      38.16800000
 H       8.31100000      18.01000000      39.49200000
 O      23.09600000      20.73900000      34.91800000
 H      22.76800000      19.81600000      34.75500000
 H      22.72400000      21.16100000      34.12200000
 O       7.58400000      14.32500000      38.22600000
 H       8.37800000      13.75000000      38.13900000
 H       6.94600000      13.64400000      38.41100000
 O      11.23700000      33.89200000      29.68800000
 H      12.13400000      34.01900000      30.17900000
 H      10.82100000      34.68000000      30.08100000
 O      37.48700000      17.77400000      40.40500000
 H      36.86100000      17.43000000      39.74000000
 H      37.78400000      18.56400000      40.02600000
 O      12.85800000      26.22100000      35.88300000
 H      13.38900000      25.81400000      36.68500000
 H      12.12700000      25.54100000      35.95600000
 O      24.87900000      32.98500000      35.90200000
 H      25.77200000      32.59700000      36.06600000
 H      24.87600000      33.74300000      36.45800000
 O       7.05400000      33.08900000      37.56800000
 H       6.76600000      33.06500000      36.62200000
 H       7.99500000      33.24300000      37.43900000
 O      37.55400000      16.87300000      34.46800000
 H      38.31500000      16.85100000      35.09200000
 H      37.22000000      15.95300000      34.50000000
 O      21.53100000      14.63600000      33.59400000
 H      21.58700000      14.98700000      32.71600000
 H      21.28700000      15.37300000      34.16600000
 O      30.83900000      20.46800000      39.42800000
 H      31.17100000      20.79700000      40.30400000
 H      31.50100000      19.78200000      39.24700000
 O      33.51300000      35.08500000      30.84500000
 H      33.96200000      34.66400000      31.62900000
 H      32.80200000      35.58300000      31.28100000
 O      21.67000000      15.01000000      30.81500000
 H      20.99000000      15.70900000      30.74300000
 H      21.39500000      14.40100000      30.02600000
 O      12.77600000      32.69300000      33.29500000
 H      11.78400000      32.70000000      32.86600000
 H      12.85700000      31.77200000      33.41800000
 O      16.87900000      23.16000000      36.40300000
 H      17.24400000      23.81800000      35.77000000
 H      17.67300000      22.60300000      36.62300000
 O      31.60000000      16.38100000      38.56900000
 H      31.27200000      16.72400000      39.39400000
 H      31.09100000      16.92500000      37.92000000
 O      15.79200000      21.95600000      28.53800000
 H      15.96900000      21.25300000      29.23700000
 H      14.80800000      21.91000000      28.53400000
 O      36.25300000      39.62300000      33.28200000
 H      35.59200000      39.66500000      33.97700000
 H      36.95700000      39.03900000      33.58800000
 O      25.09000000      16.12900000      28.08600000
 H      24.97700000      15.27600000      28.62400000
 H      25.85500000      16.52000000      28.59400000
 O      14.92400000      22.40700000      32.02400000
 H      15.18500000      21.47400000      31.91400000
 H      14.32200000      22.36200000      32.78100000
 O      10.55100000      28.84700000      31.66000000
 H      11.20800000      29.26900000      32.23000000
 H       9.97200000      28.41700000      32.40700000
 O       9.79700000      33.86800000      37.12800000
 H       9.61200000      34.81500000      37.27400000
 H      10.67800000      33.92400000      36.66600000
 O       9.23300000      14.22900000      33.18500000
 H       9.19800000      15.18300000      33.42100000
 H      10.17200000      14.17900000      32.93300000
 O      17.38300000      34.84300000      28.68000000
 H      17.71300000      35.58000000      29.18700000
 H      17.93100000      34.87500000      27.88200000
 O      33.32300000      18.74000000      38.72400000
 H      32.98900000      17.84800000      38.94300000
 H      34.24500000      18.65400000      38.94900000
 O      40.53400000      40.74600000      33.04800000
 H      39.63800000      41.12400000      32.71400000
 H      40.78700000      40.26800000      32.24800000
 O      31.20900000      18.66900000      35.07300000
 H      30.94700000      19.35400000      34.43200000
 H      32.15400000      18.76500000      35.06800000
 O      27.92700000      24.90500000      28.57800000
 H      27.85200000      23.85500000      28.57700000
 H      28.35700000      24.95900000      27.66500000
 O      13.85400000      15.34000000      33.97900000
 H      13.31900000      14.63400000      33.52200000
 H      13.22900000      16.07900000      33.84800000
 O      16.85500000      38.76800000      39.09600000
 H      16.87900000      38.39200000      38.18500000
 H      16.17900000      39.45000000      38.95200000
 O      19.50400000      38.04200000      27.73600000
 H      19.73300000      38.54200000      26.89700000
 H      20.40700000      38.03300000      28.08700000
 O      25.29600000      34.12200000      28.05700000
 H      24.82600000      33.38400000      28.48900000
 H      24.80100000      34.04200000      27.18700000
 O      14.96800000      15.08900000      28.01000000
 H      14.58700000      15.80600000      27.51100000
 H      14.23400000      14.40400000      28.00900000
 O      25.65200000      22.09500000      34.63300000
 H      25.16500000      21.28100000      34.50700000
 H      26.55000000      21.67200000      34.55400000
 O      29.35700000      18.28700000      28.73400000
 H      30.22800000      18.43400000      29.19300000
 H      29.70100000      18.25700000      27.79100000
 O       8.67500000      17.02900000      32.98600000
 H       9.07300000      17.90800000      33.20100000
 H       7.75000000      17.21600000      33.33800000
 O       8.05400000      31.13300000      33.86000000
 H       7.29700000      30.78700000      33.21500000
 H       8.69800000      30.47100000      33.53900000
 O      19.61100000      29.18000000      39.82500000
 H      19.00100000      28.93300000      39.11600000
 H      19.53200000      30.15400000      39.81000000
 O      29.62600000      21.32100000      37.09300000
 H      30.24300000      22.06800000      36.76500000
 H      30.06800000      21.21800000      37.97600000
 O      13.22300000      32.75100000      38.77700000
 H      13.25000000      32.46000000      37.83900000
 H      13.41700000      31.87300000      39.18700000
 O      40.74200000      24.67000000      32.89100000
 H      39.97100000      25.28700000      33.18000000
 H      41.48600000      25.26000000      33.28600000
 O      35.00400000      34.02300000      40.13300000
 H      35.77000000      33.55000000      40.28700000
 H      34.32700000      33.34700000      39.90900000
 O       7.27800000      27.78600000      39.98600000
 H       7.32600000      28.70400000      39.70800000
 H       7.64400000      27.26300000      39.30600000
 O      38.02300000      14.23700000      35.68600000
 H      37.11900000      13.96700000      35.46900000
 H      38.05400000      14.00400000      36.64400000
 O      24.85100000      35.36300000      37.29800000
 H      25.83500000      35.48000000      37.26500000
 H      24.54400000      36.24800000      36.98600000
 O      40.46400000      33.66600000      31.15000000
 H      39.86200000      33.24200000      31.79100000
 H      41.28000000      33.71600000      31.70800000
 O      14.10700000      40.15400000      35.08900000
 H      13.39100000      40.77500000      35.05300000
 H      13.87100000      39.45900000      34.44500000
 O      38.47400000      25.92400000      33.51600000
 H      37.98000000      26.39100000      32.87300000
 H      37.91600000      25.21100000      33.79900000
 O      14.16800000      27.20500000      39.20100000
 H      13.26200000      26.93300000      38.93400000
 H      14.62400000      26.38000000      38.99900000
 O      25.74000000      19.28100000      40.03800000
 H      26.57000000      18.79900000      39.98200000
 H      25.75600000      19.73100000      39.14700000
 O       7.00500000      19.88600000      30.14400000
 H       6.97900000      18.91100000      29.84500000
 H       7.94300000      19.90200000      30.39900000
 O      21.03300000      13.75900000      28.44500000
 H      20.77300000      14.51900000      27.90400000
 H      21.07400000      13.04400000      27.76100000
 O      23.46700000      38.99500000      34.07700000
 H      24.05200000      38.57300000      34.73600000
 H      22.93600000      38.20600000      33.85100000
 O      26.57000000      27.99300000      36.49500000
 H      26.35500000      27.96200000      35.54100000
 H      25.94100000      28.57800000      36.86100000
 O      22.27800000      31.51400000      33.06400000
 H      22.70800000      32.28700000      33.46600000
 H      21.94800000      31.86700000      32.23800000
 O      37.35000000      35.36100000      40.39900000
 H      37.66600000      34.59300000      40.90400000
 H      36.41800000      35.12400000      40.22400000
 O      31.44000000      26.96900000      38.96700000
 H      31.69900000      27.08000000      38.05000000
 H      30.62000000      27.50700000      38.95800000
 O      12.26600000      15.02300000      38.53700000
 H      12.26500000      15.21600000      39.52700000
 H      13.18300000      15.30100000      38.29000000
 O      33.02700000      14.32000000      40.63700000
 H      33.70000000      14.89200000      40.24400000
 H      32.19000000      14.67100000      40.43100000
 O      15.12800000      28.19600000      36.71900000
 H      14.36100000      27.89700000      36.15700000
 H      14.79900000      27.99400000      37.63300000
 O      20.63300000      16.33600000      35.73000000
 H      21.44600000      16.61600000      36.30600000
 H      20.28900000      15.70000000      36.38000000
 O      36.34500000      31.20900000      40.14000000
 H      36.38500000      30.30200000      40.52500000
 H      35.30900000      31.20400000      40.24200000
 O      25.79600000      31.45300000      31.56200000
 H      25.98500000      30.76600000      30.91000000
 H      26.59000000      32.02700000      31.44900000
 O      27.43300000      23.05000000      38.20100000
 H      26.90100000      22.26000000      38.25100000
 H      28.27300000      22.64200000      37.92300000
 O      23.81300000      21.87300000      37.08600000
 H      23.62700000      21.55800000      36.16500000
 H      22.94300000      22.17800000      37.34900000
 O       9.03700000      36.22500000      40.18700000
 H       9.52600000      35.39700000      40.03200000
 H       9.37300000      36.73800000      39.41600000
 O      32.26600000      37.64300000      29.20400000
 H      31.75700000      37.11000000      29.92100000
 H      31.95900000      38.52600000      29.57600000
 O      18.74400000      18.91700000      38.56200000
 H      18.88000000      17.98900000      38.35500000
 H      17.88800000      18.94900000      38.92000000
 O      18.96300000      21.73600000      31.77400000
 H      18.71100000      21.44800000      32.66200000
 H      18.58600000      22.60500000      31.74200000
 O      19.06400000      31.93000000      40.26900000
 H      18.33400000      32.64900000      40.11500000
 H      19.81200000      32.47600000      39.95400000
 O      16.60700000      37.37100000      36.68500000
 H      15.66300000      37.33900000      36.48100000
 H      16.86300000      38.02900000      36.02400000
 O      28.29100000      39.92900000      31.06400000
 H      28.83600000      40.55100000      31.66800000
 H      27.57900000      39.64900000      31.68500000
 O      31.82800000      39.50900000      33.93700000
 H      31.78600000      39.64300000      34.88700000
 H      32.08600000      38.53400000      33.89800000
 O      20.40000000      32.67700000      31.02400000
 H      20.02900000      32.42800000      30.16400000
 H      19.55500000      32.90400000      31.50700000
 O      31.01900000      32.74700000      29.63100000
 H      31.95600000      32.94700000      29.72500000
 H      30.64000000      33.17100000      30.41100000
 O      26.71500000      14.31900000      37.21900000
 H      27.21400000      13.54800000      36.77500000
 H      26.04100000      13.80400000      37.68600000
 O      37.11000000      30.24100000      32.81800000
 H      36.92800000      29.32500000      33.21100000
 H      36.22100000      30.53900000      32.66700000
 O      33.55000000      40.58300000      28.81000000
 H      34.27800000      40.67800000      29.49300000
 H      32.95100000      39.96000000      29.20500000
 O      27.93200000      21.99600000      28.23000000
 H      27.72100000      21.46600000      27.39400000
 H      28.86200000      22.16500000      27.98900000
 O      18.58500000      35.20300000      38.02500000
 H      19.49700000      35.37700000      37.67700000
 H      18.13700000      35.94400000      37.55500000
 O       9.78300000      38.01600000      32.94200000
 H       9.02200000      37.67400000      33.41600000
 H       9.36900000      38.74600000      32.41100000
 O      30.67800000      34.37500000      37.53200000
 H      30.83000000      35.36400000      37.68900000
 H      30.13300000      34.45700000      36.73200000
 O      39.18000000      19.25300000      38.40900000
 H      40.10600000      19.39600000      38.65300000
 H      38.95900000      20.09100000      37.95000000
 O      38.80500000      39.16600000      29.01500000
 H      38.02500000      39.33400000      29.53800000
 H      38.61700000      39.50600000      28.16800000
 O      24.03100000      17.05000000      40.84700000
 H      24.93300000      16.53400000      40.88100000
 H      24.41800000      17.93400000      40.64800000
 O      19.05400000      22.67200000      39.55700000
 H      19.05400000      22.66500000      40.56700000
 H      18.93100000      23.62200000      39.39900000
 O      36.21500000      19.10900000      34.58300000
 H      36.75700000      18.29300000      34.60700000
 H      36.96600000      19.73100000      34.41500000
 O      29.43600000      30.01900000      31.76600000
 H      29.14800000      30.35300000      32.64900000
 H      28.61500000      29.71100000      31.42500000
 O       9.87600000      37.57500000      27.53000000
 H      10.76700000      37.93900000      27.24700000
 H       9.91000000      37.95900000      28.48000000
 O      21.50900000      38.83600000      31.50100000
 H      21.41300000      39.44400000      30.75000000
 H      21.36700000      37.98600000      31.04600000
 O      34.49100000      25.06600000      35.85900000
 H      34.02600000      25.91500000      35.63500000
 H      34.86600000      25.32400000      36.78500000
 O      24.69800000      38.13400000      39.65700000
 H      23.88400000      37.64600000      39.40300000
 H      24.47400000      39.04100000      39.57300000
 O      35.82200000      38.64200000      29.32900000
 H      35.38400000      37.78100000      29.40500000
 H      36.14700000      38.57300000      28.40900000
 O      39.37900000      36.09300000      38.40900000
 H      38.70300000      35.91300000      39.07200000
 H      39.15300000      37.00800000      38.11300000
 O       9.31800000      21.49900000      31.81400000
 H       8.75800000      22.28400000      31.80100000
 H      10.20300000      21.77000000      32.11900000
 O      40.20000000      15.65100000      38.93200000
 H      40.81800000      15.72000000      39.75000000
 H      39.60100000      14.90700000      39.30100000
 O      18.32800000      25.36400000      39.88700000
 H      18.41200000      26.03700000      39.18500000
 H      19.03200000      25.68000000      40.48200000
 O      12.19200000      38.61400000      38.46800000
 H      12.81400000      38.00300000      38.84800000
 H      11.58200000      38.06200000      38.01800000
 O      27.44200000      21.78900000      31.01900000
 H      27.51900000      21.99300000      30.06200000
 H      26.90000000      22.54500000      31.29900000
 O      15.08800000      25.00900000      32.21500000
 H      15.13600000      24.03500000      32.12500000
 H      15.99600000      25.26800000      32.22700000
 O      17.52700000      36.32300000      40.36500000
 H      17.99500000      35.84000000      39.62600000
 H      17.34800000      37.16700000      39.87200000
 O      37.42000000      24.92800000      28.03900000
 H      37.67200000      25.91600000      28.09500000
 H      38.25300000      24.58200000      27.70400000
 O      22.57500000      15.03000000      39.73300000
 H      22.81300000      15.89400000      40.16500000
 H      22.23500000      15.36700000      38.89200000
 O      20.83100000      36.15100000      37.29600000
 H      21.50000000      35.49100000      37.06600000
 H      21.26700000      36.45800000      38.17600000
 O      26.22400000      31.59500000      40.35900000
 H      25.67500000      32.39100000      40.05300000
 H      25.57300000      30.92500000      40.51600000
 O      14.93700000      31.62600000      31.32400000
 H      14.72500000      31.92600000      32.18700000
 H      14.87300000      30.66100000      31.38700000
 O      19.03600000      27.37200000      34.59700000
 H      19.85200000      27.89400000      34.27300000
 H      18.35400000      27.84100000      34.04500000
 O      25.85700000      25.61000000      30.17000000
 H      26.70600000      25.38100000      29.71800000
 H      25.25600000      25.07900000      29.63100000
 O      30.89100000      36.00300000      31.00500000
 H      30.25100000      36.52000000      31.63200000
 H      30.71800000      35.10200000      31.51000000
 O       9.21700000      27.38400000      33.55200000
 H       9.15100000      26.39100000      33.64100000
 H       8.26900000      27.57000000      33.82400000
 O      20.53100000      34.22400000      27.84100000
 H      20.11300000      34.72000000      27.09600000
 H      20.53300000      33.28900000      27.42700000
 O      23.19600000      23.77500000      31.22700000
 H      23.81400000      24.18600000      31.80700000
 H      23.80700000      23.26500000      30.67700000
 O      16.03500000      14.16800000      39.65500000
 H      16.57600000      13.59400000      40.28600000
 H      15.61600000      14.73800000      40.36500000
 O      10.74800000      20.65100000      38.90900000
 H      11.49700000      20.21500000      38.47500000
 H      10.36800000      19.89400000      39.38300000
 O      17.73300000      14.57700000      28.79100000
 H      18.18200000      14.68000000      27.93800000
 H      16.78200000      14.79300000      28.47700000
 O      33.83600000      18.63400000      36.04400000
 H      33.70400000      18.77500000      36.97000000
 H      34.37800000      19.50800000      35.87600000
 O      22.48600000      28.12800000      36.21000000
 H      23.26900000      28.75100000      36.13700000
 H      21.91100000      28.51400000      35.54700000
 O       9.61000000      19.51600000      33.55400000
 H       9.76100000      20.23400000      32.93700000
 H      10.17700000      19.68200000      34.26900000
 O      40.54100000      28.28900000      29.46500000
 H      40.96800000      28.52400000      28.65100000
 H      41.23000000      27.92300000      30.00900000
 O      21.72900000      19.11900000      29.72200000
 H      21.53300000      19.09400000      30.66900000
 H      21.11600000      18.40900000      29.41600000
 O      33.98300000      22.09300000      36.04400000
 H      34.66600000      22.81100000      35.90900000
 H      33.96600000      22.06600000      37.04800000
 O      35.02300000      33.90200000      32.76500000
 H      34.84400000      34.25000000      33.65700000
 H      34.75100000      32.94300000      32.95800000
 O      34.08200000      30.10900000      30.07700000
 H      34.30600000      29.25500000      29.68700000
 H      34.51100000      30.69900000      29.39900000
 O       8.87500000      28.48000000      28.29900000
 H       9.01500000      27.78000000      27.59900000
 H       9.83100000      28.70900000      28.44100000
 O      39.59300000      24.14600000      30.28300000
 H      40.42400000      24.34200000      29.84700000
 H      39.94100000      24.29300000      31.23100000
 O      15.87900000      30.88400000      35.19100000
 H      15.49300000      30.12100000      35.60100000
 H      16.42300000      30.49300000      34.50200000
 O      17.05000000      33.47200000      39.33600000
 H      16.49500000      33.48300000      38.56100000
 H      17.83700000      34.01500000      39.01500000
 O      23.31300000      18.27600000      33.46400000
 H      23.83300000      17.69900000      34.02600000
 H      23.95200000      18.85700000      33.04600000
 O       9.38900000      28.20500000      37.19400000
 H       8.67200000      27.52100000      37.33100000
 H       8.72200000      28.94200000      37.01300000
 O      15.85200000      19.27400000      35.15500000
 H      14.91100000      19.23000000      35.11300000
 H      16.09100000      18.35700000      35.34200000
 O      11.81600000      25.67700000      28.55900000
 H      11.94400000      25.01700000      29.26300000
 H      11.92300000      26.51900000      29.05800000
 O      32.50300000      14.19800000      29.25100000
 H      32.01100000      14.81200000      29.76300000
 H      32.15300000      14.35500000      28.36200000
 O      17.52400000      28.80800000      32.96400000
 H      16.73800000      28.40000000      32.54900000
 H      17.91300000      29.26800000      32.17500000
 O      35.60900000      27.65600000      33.69800000
 H      34.65100000      27.36900000      33.68700000
 H      36.05000000      26.82100000      33.54200000
 O      13.49000000      21.98500000      34.66400000
 H      13.90000000      21.98200000      35.55200000
 H      13.41300000      21.03500000      34.49300000
 O      27.96600000      20.82400000      35.06400000
 H      28.54400000      20.95200000      35.84100000
 H      28.65700000      20.95000000      34.35500000
 O       7.73200000      30.60300000      36.36900000
 H       7.94700000      30.85100000      35.43400000
 H       8.08900000      31.41900000      36.81600000
 O      20.74600000      28.40000000      31.00400000
 H      20.56300000      27.43700000      30.77400000
 H      19.75700000      28.62000000      30.99600000
 O       9.51000000      24.42500000      33.11400000
 H      10.04000000      23.66600000      33.42100000
 H       8.58700000      24.10000000      33.39900000
 O      37.10100000      22.36300000      28.73800000
 H      37.51500000      22.11800000      29.57900000
 H      37.03800000      23.32600000      28.87300000
 O      17.67600000      38.43600000      32.11000000
 H      17.46300000      38.70400000      33.01900000
 H      16.85000000      37.94600000      31.96900000
 O      34.15300000      19.74200000      32.48600000
 H      34.65200000      19.65600000      31.66200000
 H      34.89700000      19.68600000      33.10700000
 O      30.59400000      25.44500000      30.90200000
 H      29.88600000      25.26000000      31.53400000
 H      30.70900000      26.41600000      31.01000000
 O      38.09000000      23.18000000      39.19800000
 H      37.75900000      23.41600000      38.34500000
 H      38.76200000      23.91600000      39.36300000
 O      10.31800000      21.22900000      36.30200000
 H       9.68800000      21.71300000      36.87400000
 H      10.78100000      20.72800000      36.97700000
 O      40.21000000      26.82700000      35.25400000
 H      40.01200000      27.53900000      35.84400000
 H      39.35100000      26.61100000      34.78800000
 O      28.95400000      38.14600000      40.29300000
 H      29.38200000      38.95800000      40.59700000
 H      29.62800000      37.45800000      40.45700000
 O      14.40400000      34.17900000      40.72300000
 H      15.30000000      33.89000000      40.57700000
 H      13.96200000      33.57300000      40.10400000
 O      30.17100000      25.23900000      34.96800000
 H      30.16300000      25.26500000      33.99500000
 H      29.23300000      25.21700000      35.25700000
 O      28.99900000      14.24900000      29.54000000
 H      29.20400000      14.63000000      28.67000000
 H      29.38800000      13.39800000      29.52000000
 O      24.88900000      22.34800000      29.67200000
 H      24.95100000      21.33700000      29.73500000
 H      24.58600000      22.37300000      28.69900000
 O      26.45300000      26.91500000      32.32600000
 H      26.49600000      26.42100000      31.43200000
 H      25.69100000      26.50900000      32.65800000
 O      26.36600000      38.27700000      32.33300000
 H      25.67000000      38.26600000      32.97700000
 H      25.94500000      38.08700000      31.49600000
 O       7.28500000      35.91900000      36.02000000
 H       7.33900000      35.10000000      35.44500000
 H       6.49600000      36.30600000      35.58700000
 O       9.62100000      39.87800000      36.62400000
 H      10.19900000      40.16300000      35.94900000
 H       9.81100000      40.46900000      37.38200000
 O      38.81000000      20.49200000      34.28900000
 H      38.48300000      20.59700000      33.37700000
 H      39.61500000      21.02200000      34.20000000
 O      21.98300000      33.66400000      36.96300000
 H      21.48600000      33.39300000      36.17600000
 H      22.90400000      33.48900000      36.65800000
 O      38.47600000      40.03600000      36.46000000
 H      38.78100000      40.51800000      37.25700000
 H      38.00900000      40.77600000      36.04500000
 O      27.31000000      37.54200000      27.18600000
 H      27.80700000      37.30600000      26.40300000
 H      27.66400000      36.97600000      27.84900000
 O      11.95200000      16.49300000      28.79100000
 H      11.57400000      16.58500000      27.87600000
 H      12.28800000      17.41300000      28.87600000
 O      29.24900000      14.45200000      32.54800000
 H      29.37200000      15.41000000      32.62600000
 H      28.50500000      14.40100000      31.93300000
 O      13.91700000      26.89600000      33.40400000
 H      14.32100000      26.19400000      32.91000000
 H      13.51000000      26.46700000      34.16000000
 O      24.80100000      24.58500000      33.28700000
 H      25.01600000      23.71800000      33.80000000
 H      24.09700000      24.90300000      33.84900000
 O      36.70300000      26.84200000      37.38400000
 H      36.22500000      27.66100000      37.42300000
 H      37.64500000      27.08600000      37.60800000
 O      28.97700000      34.03000000      40.66100000
 H      29.76400000      34.61100000      40.44400000
 H      29.18200000      33.83100000      41.56600000
 O      10.55800000      15.75300000      36.42600000
 H       9.98600000      15.08900000      36.02800000
 H      10.90300000      15.28200000      37.21100000
 O      24.51200000      29.14700000      40.70300000
 H      23.65000000      29.22800000      41.12300000
 H      24.42100000      28.18800000      40.44400000
 O      34.86300000      32.43800000      28.48400000
 H      35.57700000      32.61200000      29.21000000
 H      35.01300000      33.23500000      27.94600000
 O      19.05100000      35.91500000      31.65400000
 H      19.69500000      36.01500000      30.99100000
 H      18.56400000      36.81600000      31.58200000
 O      31.21500000      23.36900000      36.67500000
 H      31.95000000      23.05200000      36.10400000
 H      30.80600000      24.03200000      36.08500000
 O      32.33700000      14.41100000      36.72500000
 H      31.96800000      15.06000000      36.09100000
 H      32.13000000      14.83200000      37.58500000
 O      10.89000000      22.32000000      33.88600000
 H      11.81100000      22.28200000      34.06800000
 H      10.56000000      21.88400000      34.71900000
 O      36.10700000      24.13900000      34.14700000
 H      35.32400000      24.40700000      34.72800000
 H      35.61900000      23.81000000      33.36700000
 O      35.09400000      16.45700000      28.04000000
 H      34.26700000      16.68000000      27.53500000
 H      34.71700000      16.00600000      28.82100000
 O      18.06000000      13.68000000      33.63600000
 H      18.30800000      14.60800000      33.46000000
 H      18.20100000      13.32600000      32.73300000
 O      18.45200000      27.94400000      37.18100000
 H      17.48100000      28.10400000      36.90700000
 H      18.77200000      27.53700000      36.37200000
 O      35.13100000      15.47600000      39.39100000
 H      35.31300000      15.95200000      38.56100000
 H      35.68500000      14.65500000      39.21200000
 O      19.74200000      14.06100000      37.58600000
 H      18.87100000      13.72600000      37.21100000
 H      20.23500000      13.20800000      37.55600000
 O      40.07300000      25.24200000      39.05600000
 H      40.40100000      25.70500000      39.85600000
 H      39.74900000      26.03100000      38.55300000
 O      18.84000000      21.32700000      37.06500000
 H      18.84500000      21.70400000      37.96600000
 H      18.87200000      20.37400000      37.24000000
 O      23.93000000      40.52300000      38.42300000
 H      23.80500000      41.43300000      38.64800000
 H      23.04100000      40.28800000      38.15200000
 O      18.68400000      40.59300000      40.49900000
 H      18.73700000      40.98300000      39.59400000
 H      18.31700000      39.70000000      40.32800000
 O      22.75600000      16.88800000      37.34300000
 H      22.89800000      17.84500000      37.64100000
 H      23.41900000      16.78800000      36.60000000
 O      37.69500000      35.61300000      32.36700000
 H      37.10800000      35.48300000      31.60200000
 H      37.92300000      34.64500000      32.51400000
 O      29.60300000      17.96800000      37.12400000
 H      30.06800000      18.59500000      36.54000000
 H      29.00900000      17.58600000      36.44600000
 O      32.84200000      27.00200000      33.05100000
 H      32.27100000      27.64600000      32.55500000
 H      32.65500000      26.22600000      32.49500000
 O      28.17100000      34.07900000      28.20600000
 H      27.17400000      34.17400000      28.27700000
 H      28.24200000      33.92700000      27.22000000
 O      23.86800000      38.28800000      36.78600000
 H      24.18800000      39.16300000      36.96200000
 H      22.97900000      38.48500000      36.50500000
 O      34.51700000      25.20900000      30.84400000
 H      34.18700000      26.08900000      30.56300000
 H      35.47800000      25.46600000      30.80300000
 O      12.16400000      37.97200000      34.48000000
 H      12.39700000      37.22300000      33.86300000
 H      11.30900000      38.24000000      34.10600000
 O      36.42600000      38.12900000      37.12100000
 H      37.19700000      38.77300000      37.10200000
 H      36.53800000      37.73400000      36.22200000
 O      10.87100000      25.91600000      31.24900000
 H      10.24100000      26.55500000      30.90400000
 H      10.40400000      25.45200000      31.87800000
 O       8.92800000      34.23800000      28.21100000
 H       8.80700000      35.05200000      27.80200000
 H       9.91000000      34.20000000      28.43200000
 O      24.79300000      38.54800000      28.37200000
 H      25.04500000      39.34100000      28.90500000
 H      25.60200000      38.33900000      27.86000000
 O      36.12800000      19.36900000      38.14400000
 H      36.22100000      19.94500000      38.93800000
 H      36.98800000      19.62000000      37.70900000
 O      34.47300000      31.11400000      32.53400000
 H      34.23300000      30.72900000      31.68600000
 H      33.73900000      30.80900000      33.12900000
 O      38.61900000      31.24500000      29.00400000
 H      39.55700000      31.17200000      29.15400000
 H      38.48700000      30.69600000      28.21100000
 O      36.73400000      21.02100000      40.24900000
 H      35.95300000      21.55200000      40.42200000
 H      37.36700000      21.72000000      39.91500000
 O      19.77500000      38.36200000      36.63000000
 H      20.12000000      37.45700000      36.94200000
 H      19.89600000      38.23400000      35.64000000
 O      10.92400000      29.31900000      39.21000000
 H      10.39600000      28.88100000      38.48800000
 H      10.81700000      28.69200000      39.93300000
 O      21.39200000      23.71600000      37.72800000
 H      21.16500000      23.59800000      36.76400000
 H      20.50700000      23.98000000      38.05200000
 O      21.83700000      20.80500000      27.66300000
 H      22.01400000      20.39300000      28.55100000
 H      20.97200000      20.47200000      27.52900000
 O      37.11500000      23.80700000      36.66100000
 H      36.84500000      23.83900000      35.67800000
 H      36.95900000      24.79600000      36.86000000
 O      31.13500000      39.37400000      30.86100000
 H      30.33400000      39.93400000      30.72700000
 H      30.88500000      38.99000000      31.71900000
 O      18.42000000      29.78600000      30.45800000
 H      17.95400000      30.59800000      30.21700000
 H      18.34000000      29.19600000      29.75900000
 O      28.23300000      19.20000000      31.27100000
 H      28.29000000      20.16700000      31.38200000
 H      28.42800000      19.11700000      30.32500000
 O      10.80300000      23.29000000      39.69600000
 H      11.30200000      23.03100000      40.50700000
 H      10.74800000      22.41400000      39.28400000
 O      25.41400000      14.50300000      33.85900000
 H      25.93900000      13.74800000      34.05700000
 H      25.92500000      14.92300000      33.11200000
 O      36.96400000      37.16900000      34.45400000
 H      37.36300000      36.64600000      33.72900000
 H      36.15800000      36.63300000      34.64500000
 O      15.66600000      24.04900000      40.27100000
 H      16.51500000      24.56500000      40.29500000
 H      15.29100000      24.41000000      41.09900000
 O      12.42800000      17.49900000      31.96700000
 H      12.41800000      18.26500000      31.33100000
 H      11.79300000      16.89600000      31.55100000
 O      28.07900000      16.25200000      35.76000000
 H      27.55600000      15.59200000      36.23700000
 H      27.66800000      16.21800000      34.94500000
 O      33.44400000      33.16500000      36.62300000
 H      32.91500000      32.59500000      37.16200000
 H      34.36400000      33.04100000      37.01900000
 O      14.40100000      18.40900000      40.65900000
 H      13.57100000      18.04100000      41.00900000
 H      14.16100000      19.37000000      40.47400000
 O      35.94300000      19.68300000      30.44900000
 H      36.30000000      18.91600000      29.91700000
 H      35.57100000      20.25400000      29.73400000
 O      30.17700000      14.16000000      40.44400000
 H      29.40400000      14.69600000      40.18500000
 H      30.34400000      13.70400000      39.55800000
 O      31.62400000      28.28100000      30.98000000
 H      30.76700000      28.81100000      30.93600000
 H      32.23200000      28.93200000      30.57700000
 O      38.32100000      32.86800000      32.58300000
 H      37.71200000      32.11000000      32.61600000
 H      38.88300000      32.81700000      33.37600000
 O      23.46500000      13.41900000      35.37000000
 H      24.10100000      13.87400000      34.77400000
 H      22.62000000      13.67500000      34.89200000
 O       7.91300000      21.47100000      39.49500000
 H       8.49800000      21.83400000      40.23200000
 H       8.58200000      20.72000000      39.24900000
 O      32.27800000      21.01200000      33.96400000
 H      32.93300000      21.50000000      34.52700000
 H      32.90500000      20.39400000      33.49200000
 O      33.74300000      26.90900000      40.44500000
 H      32.86900000      26.84900000      40.00800000
 H      34.09100000      27.67700000      39.95100000
 O      25.29700000      23.87100000      39.78000000
 H      26.00500000      23.52200000      39.19500000
 H      25.72200000      24.30300000      40.48900000
 O      16.72900000      39.35700000      34.50700000
 H      15.79900000      39.44400000      34.84100000
 H      17.23200000      39.96200000      35.00200000
