759
XYZ file of cluster: frame_13000_c5fcc.7317d.4b085 - created by MolEdiTo
 O      38.17500000      29.48100000      27.07100000
 H      37.88200000      29.55900000      26.13500000
 H      39.09900000      29.12300000      26.96500000
 O      35.32400000      23.94500000      26.82200000
 H      36.05800000      24.39900000      27.34200000
 H      35.87600000      23.23000000      26.38600000
 O      35.79300000      35.10800000      13.97800000
 H      36.43200000      34.54700000      14.42900000
 H      35.03700000      34.52900000      13.82300000
 O      40.49100000      38.81000000      34.84100000
 H      40.50800000      39.53200000      34.17400000
 H      39.94500000      39.15900000      35.54500000
 O      40.54100000      28.28900000      29.46500000
 H      40.96800000      28.52400000      28.65100000
 H      41.23000000      27.92300000      30.00900000
 O      37.41500000      21.83200000      20.94100000
 H      37.05300000      21.72500000      21.85300000
 H      36.71400000      21.32400000      20.44600000
 O      40.68300000      40.73800000      22.50800000
 H      40.20500000      39.91200000      22.76300000
 H      41.55000000      40.58100000      22.96800000
 O      33.98300000      22.09300000      36.04400000
 H      34.66600000      22.81100000      35.90900000
 H      33.96600000      22.06600000      37.04800000
 O      35.02300000      33.90200000      32.76500000
 H      34.84400000      34.25000000      33.65700000
 H      34.75100000      32.94300000      32.95800000
 O      39.59300000      24.14600000      30.28300000
 H      40.42400000      24.34200000      29.84700000
 H      39.94100000      24.29300000      31.23100000
 O      35.15300000      22.67000000      32.03200000
 H      34.31200000      22.24100000      31.74100000
 H      35.06100000      23.52400000      31.54900000
 O      40.66500000      27.85300000      26.28600000
 H      41.27200000      27.09800000      26.37300000
 H      41.33600000      28.44300000      25.87400000
 O      40.30300000      39.88500000      40.12400000
 H      39.58400000      39.22200000      40.28200000
 H      39.88500000      40.37100000      39.35400000
 O      37.63800000      26.80600000      14.38700000
 H      37.27900000      26.90100000      13.45000000
 H      38.13500000      27.63800000      14.44700000
 O      37.57300000      26.86000000      18.60300000
 H      37.28400000      26.04700000      19.17300000
 H      38.33100000      27.12700000      19.10600000
 O      39.52300000      20.52400000      19.84300000
 H      39.42700000      19.58000000      20.23200000
 H      38.70100000      20.86500000      20.28400000
 O      39.16200000      34.09400000      29.00100000
 H      39.90400000      34.00900000      29.68400000
 H      38.56600000      33.38500000      29.26200000
 O      35.60900000      27.65600000      33.69800000
 H      34.65100000      27.36900000      33.68700000
 H      36.05000000      26.82100000      33.54200000
 O      38.27100000      21.16000000      36.79900000
 H      38.40200000      21.02600000      35.81400000
 H      37.84400000      22.05000000      36.80800000
 O      35.47500000      32.46300000      17.52200000
 H      36.36400000      32.39700000      17.94800000
 H      35.60100000      32.10100000      16.64200000
 O      40.44300000      33.60500000      37.87400000
 H      40.05900000      34.31200000      38.40300000
 H      40.45100000      34.06300000      36.95500000
 O      38.06000000      37.41100000      17.03500000
 H      37.78800000      36.55000000      17.39500000
 H      37.21000000      37.64800000      16.53500000
 O      39.48500000      27.37600000      23.81300000
 H      39.92400000      27.39200000      24.70200000
 H      39.80400000      26.56400000      23.37900000
 O      38.09800000      39.54000000      14.24900000
 H      37.72900000      40.46300000      14.44400000
 H      37.37700000      39.01500000      14.63900000
 O      37.10100000      22.36300000      28.73800000
 H      37.51500000      22.11800000      29.57900000
 H      37.03800000      23.32600000      28.87300000
 O      36.25300000      39.62300000      33.28200000
 H      35.59200000      39.66500000      33.97700000
 H      36.95700000      39.03900000      33.58800000
 O      39.46200000      21.24900000      24.31100000
 H      40.40600000      21.29000000      23.96200000
 H      39.49100000      20.39200000      24.78700000
 O      37.28100000      29.87100000      24.60700000
 H      37.44100000      29.55100000      23.68500000
 H      38.02300000      30.55200000      24.64200000
 O      35.70200000      30.82100000      14.79100000
 H      35.05200000      30.27600000      15.30000000
 H      35.12400000      31.40800000      14.34800000
 O      35.31600000      34.83900000      35.39300000
 H      34.73200000      34.18900000      35.75500000
 H      35.78100000      35.10400000      36.20600000
 O      39.76400000      39.35200000      17.95500000
 H      40.55500000      38.85900000      18.23100000
 H      39.36800000      38.64500000      17.33300000
 O      35.24500000      34.75000000      27.01000000
 H      35.03900000      35.36000000      27.72800000
 H      34.49000000      34.96300000      26.37600000
 O      38.09000000      23.18000000      39.19800000
 H      37.75900000      23.41600000      38.34500000
 H      38.76200000      23.91600000      39.36300000
 O      40.53400000      40.74600000      33.04800000
 H      39.63800000      41.12400000      32.71400000
 H      40.78700000      40.26800000      32.24800000
 O      40.80600000      24.65300000      23.91900000
 H      40.30100000      23.94500000      23.43700000
 H      41.58300000      24.06200000      24.15000000
 O      38.88900000      35.88400000      21.12900000
 H      38.36600000      36.07000000      21.92100000
 H      38.83000000      36.74600000      20.65700000
 O      40.21000000      26.82700000      35.25400000
 H      40.01200000      27.53900000      35.84400000
 H      39.35100000      26.61100000      34.78800000
 O      36.07700000      37.72500000      15.34400000
 H      35.87000000      36.83100000      15.08600000
 H      35.20300000      38.01900000      15.61600000
 O      38.45600000      36.45500000      27.45300000
 H      38.24700000      35.83700000      28.19300000
 H      38.50100000      37.30300000      27.92800000
 O      34.88800000      28.45400000      24.98600000
 H      35.22700000      27.71200000      24.45200000
 H      35.62800000      29.04300000      24.88900000
 O      36.89600000      31.21300000      21.75700000
 H      36.44300000      31.51600000      22.55700000
 H      36.32000000      30.51100000      21.39800000
 O      37.93100000      30.40100000      13.53200000
 H      36.98000000      30.49700000      13.98900000
 H      38.42500000      30.57400000      14.37500000
 O      38.81000000      20.49200000      34.28900000
 H      38.48300000      20.59700000      33.37700000
 H      39.61500000      21.02200000      34.20000000
 O      38.12700000      27.53500000      29.15500000
 H      37.97900000      28.09200000      28.33400000
 H      39.05200000      27.83600000      29.35300000
 O      40.74200000      24.67000000      32.89100000
 H      39.97100000      25.28700000      33.18000000
 H      41.48600000      25.26000000      33.28600000
 O      38.15500000      38.01200000      40.35000000
 H      37.95700000      37.09200000      40.49700000
 H      37.69300000      38.43800000      41.10700000
 O      35.65000000      32.32300000      24.12000000
 H      35.80600000      32.26900000      25.12800000
 H      36.36500000      32.90000000      23.90300000
 O      35.00400000      34.02300000      40.13300000
 H      35.77000000      33.55000000      40.28700000
 H      34.32700000      33.34700000      39.90900000
 O      37.46600000      33.17100000      26.78200000
 H      37.68000000      33.14300000      27.67700000
 H      36.83900000      33.91300000      26.72100000
 O      39.50000000      31.22200000      38.54500000
 H      39.80600000      31.02800000      39.44100000
 H      39.87000000      32.18600000      38.46500000
 O      38.47600000      40.03600000      36.46000000
 H      38.78100000      40.51800000      37.25700000
 H      38.00900000      40.77600000      36.04500000
 O      36.70300000      26.84200000      37.38400000
 H      36.22500000      27.66100000      37.42300000
 H      37.64500000      27.08600000      37.60800000
 O      35.34800000      29.53000000      35.92100000
 H      35.54500000      28.79900000      35.29400000
 H      36.20700000      30.07100000      35.80300000
 O      40.46400000      33.66600000      31.15000000
 H      39.86200000      33.24200000      31.79100000
 H      41.28000000      33.71600000      31.70800000
 O      37.05500000      38.81500000      24.94500000
 H      37.70400000      39.19300000      25.62000000
 H      36.31300000      38.64500000      25.53700000
 O      38.47400000      25.92400000      33.51600000
 H      37.98000000      26.39100000      32.87300000
 H      37.91600000      25.21100000      33.79900000
 O      36.61300000      33.17800000      30.39000000
 H      37.34300000      32.59400000      30.64500000
 H      36.13200000      33.37100000      31.18400000
 O      34.86300000      32.43800000      28.48400000
 H      35.57700000      32.61200000      29.21000000
 H      35.01300000      33.23500000      27.94600000
 O      39.95200000      32.20000000      19.46200000
 H      40.67000000      31.55100000      19.70000000
 H      39.78300000      32.63200000      20.29200000
 O      39.39800000      24.27000000      26.43900000
 H      39.78500000      24.62700000      25.63200000
 H      40.17100000      23.85500000      26.86500000
 O      39.18800000      28.38800000      32.18200000
 H      38.57400000      29.16900000      32.26300000
 H      39.19400000      28.31600000      31.22100000
 O      37.14100000      25.80400000      30.82100000
 H      37.95800000      25.26700000      30.58800000
 H      37.32500000      26.57900000      30.25300000
 O      37.35000000      35.36100000      40.39900000
 H      37.66600000      34.59300000      40.90400000
 H      36.41800000      35.12400000      40.22400000
 O      39.61600000      32.16600000      34.95000000
 H      40.28900000      31.47400000      35.28000000
 H      40.17300000      32.97700000      35.20700000
 O      35.27600000      35.05200000      19.11400000
 H      35.69700000      34.40000000      19.68100000
 H      35.14800000      34.51500000      18.30800000
 O      36.10700000      24.13900000      34.14700000
 H      35.32400000      24.40700000      34.72800000
 H      35.61900000      23.81000000      33.36700000
 O      37.62600000      21.13600000      31.81800000
 H      36.98000000      20.62200000      31.27900000
 H      37.02400000      21.88100000      32.07100000
 O      37.06100000      27.89000000      22.34200000
 H      37.95900000      27.61900000      22.50900000
 H      36.60800000      27.02000000      22.38800000
 O      36.34500000      31.20900000      40.14000000
 H      36.38500000      30.30200000      40.52500000
 H      35.30900000      31.20400000      40.24200000
 O      36.01500000      32.75300000      37.53800000
 H      36.74000000      32.29600000      36.99300000
 H      36.19500000      32.24400000      38.38800000
 O      40.07300000      25.24200000      39.05600000
 H      40.40100000      25.70500000      39.85600000
 H      39.74900000      26.03100000      38.55300000
 O      35.82400000      25.30000000      22.11400000
 H      34.99600000      25.42400000      22.68900000
 H      36.12100000      24.44500000      22.40200000
 O      35.60400000      39.09600000      21.73000000
 H      34.67200000      39.04900000      21.40100000
 H      35.96100000      38.38900000      21.04000000
 O      35.98800000      22.58400000      23.13400000
 H      36.53400000      22.34200000      23.92100000
 H      35.13700000      22.16800000      23.44800000
 O      37.69500000      35.61300000      32.36700000
 H      37.10800000      35.48300000      31.60200000
 H      37.92300000      34.64500000      32.51400000
 O      37.81200000      33.81400000      23.43600000
 H      38.75500000      33.96700000      23.80000000
 H      37.53600000      34.74900000      23.39300000
 O      40.06900000      36.24700000      33.44400000
 H      39.21600000      36.23100000      33.03100000
 H      40.00400000      36.95100000      34.07800000
 O      35.09900000      20.85100000      28.13300000
 H      35.80200000      21.51100000      28.05400000
 H      34.93000000      20.66500000      27.19400000
 O      36.84200000      36.36500000      23.04500000
 H      36.97000000      36.88400000      23.91300000
 H      35.91600000      36.54100000      22.82500000
 O      37.11000000      30.24100000      32.81800000
 H      36.92800000      29.32500000      33.21100000
 H      36.22100000      30.53900000      32.66700000
 O      39.06400000      35.59900000      13.68600000
 H      38.86400000      35.14800000      12.83300000
 H      38.35100000      35.20800000      14.19800000
 O      39.41300000      31.70400000      25.43100000
 H      38.71600000      32.23400000      25.85100000
 H      40.14300000      31.89000000      26.04100000
 O      34.51700000      25.20900000      30.84400000
 H      34.18700000      26.08900000      30.56300000
 H      35.47800000      25.46600000      30.80300000
 O      36.42600000      38.12900000      37.12100000
 H      37.19700000      38.77300000      37.10200000
 H      36.53800000      37.73400000      36.22200000
 O      38.82600000      22.67000000      15.71000000
 H      38.36200000      22.86800000      14.91900000
 H      38.71200000      23.55300000      16.16200000
 O      34.56100000      27.70300000      28.64700000
 H      33.72200000      27.64100000      28.11100000
 H      35.16000000      28.06400000      28.01700000
 O      39.35600000      38.57500000      23.37600000
 H      38.42100000      38.68600000      23.59500000
 H      39.70000000      38.42000000      24.29800000
 O      37.64800000      38.24300000      20.01200000
 H      38.01700000      38.24300000      19.12400000
 H      38.07700000      38.97600000      20.47000000
 O      38.80500000      39.16600000      29.01500000
 H      38.02500000      39.33400000      29.53800000
 H      38.61700000      39.50600000      28.16800000
 O      39.47500000      30.52400000      15.90600000
 H      39.97800000      31.24600000      16.39300000
 H      40.26900000      29.90800000      15.80800000
 O      38.61900000      31.24500000      29.00400000
 H      39.55700000      31.17200000      29.15400000
 H      38.48700000      30.69600000      28.21100000
 O      36.73400000      21.02100000      40.24900000
 H      35.95300000      21.55200000      40.42200000
 H      37.36700000      21.72000000      39.91500000
 O      40.21900000      26.65600000      21.08200000
 H      41.03100000      26.28700000      20.64500000
 H      39.64300000      25.85300000      21.09700000
 O      39.07500000      24.08800000      21.03900000
 H      39.94700000      23.63400000      21.02400000
 H      38.46600000      23.30000000      21.02500000
 O      37.11500000      23.80700000      36.66100000
 H      36.84500000      23.83900000      35.67800000
 H      36.95900000      24.79600000      36.86000000
 O      38.27400000      34.09800000      17.87000000
 H      39.23900000      33.85300000      18.03000000
 H      38.00700000      34.15900000      18.79900000
 O      34.49100000      25.06600000      35.85900000
 H      34.02600000      25.91500000      35.63500000
 H      34.86600000      25.32400000      36.78500000
 O      38.54200000      25.09200000      16.33000000
 H      37.89600000      25.38100000      16.99900000
 H      38.25700000      25.79200000      15.63300000
 O      35.82200000      38.64200000      29.32900000
 H      35.38400000      37.78100000      29.40500000
 H      36.14700000      38.57300000      28.40900000
 O      38.27200000      28.68900000      40.58000000
 H      38.95000000      29.29400000      41.05100000
 H      37.73700000      28.44400000      41.38200000
 O      39.37900000      36.09300000      38.40900000
 H      38.70300000      35.91300000      39.07200000
 H      39.15300000      37.00800000      38.11300000
 O      35.82300000      28.86900000      19.93800000
 H      36.71000000      29.11100000      19.56400000
 H      36.12900000      28.15800000      20.61000000
 O      37.38900000      25.88300000      40.70200000
 H      37.75700000      26.54200000      41.27800000
 H      37.57300000      26.27600000      39.81700000
 O      36.16200000      24.51100000      19.30300000
 H      35.83700000      24.65600000      20.23100000
 H      36.77500000      23.74500000      19.44800000
 O      36.90400000      33.45800000      20.39800000
 H      37.03700000      34.13600000      21.03900000
 H      36.92000000      32.62500000      20.95300000
 O      36.96400000      37.16900000      34.45400000
 H      37.36300000      36.64600000      33.72900000
 H      36.15800000      36.63300000      34.64500000
 O      37.64600000      30.91000000      36.44400000
 H      38.35800000      31.15200000      35.84700000
 H      38.13000000      30.88300000      37.30900000
 O      35.56700000      27.61400000      16.48700000
 H      36.26700000      27.46200000      17.13000000
 H      35.99200000      27.40700000      15.63000000
 O      34.99700000      21.94700000      16.57400000
 H      35.14300000      21.83800000      15.59500000
 H      34.88400000      22.90500000      16.60400000
 O      37.86800000      33.62100000      15.37600000
 H      38.37500000      32.76600000      15.39000000
 H      37.85600000      33.79800000      16.36500000
 O      37.42000000      24.92800000      28.03900000
 H      37.67200000      25.91600000      28.09500000
 H      38.25300000      24.58200000      27.70400000
 O      35.00300000      39.61100000      26.58300000
 H      34.74100000      40.47300000      26.29700000
 H      34.55600000      39.60500000      27.46600000
 O      35.48200000      21.32100000      19.31400000
 H      34.84900000      20.64700000      19.50000000
 H      35.61300000      21.24400000      18.31300000
 O      39.66200000      31.24200000      22.42800000
 H      39.47800000      31.39500000      23.37800000
 H      38.78700000      31.09800000      22.06100000
 O      40.69700000      38.99700000      30.97200000
 H      39.94600000      38.91000000      30.25000000
 H      41.42500000      38.54700000      30.42500000
 O      38.32100000      32.86800000      32.58300000
 H      37.71200000      32.11000000      32.61600000
 H      38.88300000      32.81700000      33.37600000
 O      39.40700000      27.61400000      38.15600000
 H      39.02800000      28.23900000      38.77400000
 H      40.33100000      27.93000000      38.10000000
 O      37.93700000      30.92500000      18.32200000
 H      38.65900000      31.41700000      18.63600000
 H      38.14300000      30.73600000      17.42300000
 O      39.93600000      35.23700000      24.85200000
 H      39.31300000      35.87500000      25.27100000
 H      40.41300000      34.88100000      25.63800000
 O      39.15500000      20.38000000      16.81800000
 H      39.17700000      21.35300000      16.43900000
 H      39.66900000      20.55600000      17.66600000
 O      37.44900000      22.72300000      25.28900000
 H      38.11300000      22.08500000      25.00000000
 H      37.95900000      23.27200000      25.89100000
 O      34.21700000      40.21700000      40.39600000
 H      34.79000000      40.87700000      39.93000000
 H      34.20400000      40.57200000      41.26300000
 O      34.58100000      37.63600000      39.27800000
 H      35.36500000      37.84500000      38.70900000
 H      34.44600000      38.52300000      39.72400000
 O      34.61000000      29.33000000      38.63400000
 H      34.86800000      29.47600000      37.67400000
 H      34.03500000      30.12900000      38.75700000
 O      38.82800000      40.09300000      26.43100000
 H      39.81600000      40.05400000      26.33700000
 H      38.71000000      40.99400000      26.06500000
 O      35.29300000      24.67000000      15.99900000
 H      35.28000000      24.80700000      15.04200000
 H      34.81100000      25.43700000      16.36500000
 O      43.49500000      20.80500000      18.73800000
 H      43.99500000      20.04600000      19.09000000
 H      42.66700000      20.73400000      19.29000000
 O      43.91600000      24.36300000      29.60000000
 H      44.12300000      25.09700000      30.26000000
 H      44.30600000      23.62500000      30.14000000
 O      44.67400000      26.51700000      24.27100000
 H      44.52500000      26.60700000      25.22400000
 H      43.91400000      25.95200000      24.06800000
 O      48.63700000      33.08900000      37.56800000
 H      48.34900000      33.06500000      36.62200000
 H      49.57800000      33.24300000      37.43900000
 O      43.38400000      28.63500000      33.33500000
 H      42.45300000      28.66000000      33.20600000
 H      43.41900000      28.93500000      34.30000000
 O      45.00200000      28.52100000      28.32200000
 H      45.86100000      28.13800000      28.14700000
 H      45.01200000      29.20900000      27.59400000
 O      43.96700000      21.12900000      36.47100000
 H      44.51300000      21.93200000      36.22900000
 H      43.35000000      21.11400000      35.73100000
 O      48.49500000      31.24600000      39.86600000
 H      47.94800000      31.39500000      40.63800000
 H      48.23200000      32.04200000      39.30800000
 O      44.06700000      25.34200000      20.36500000
 H      43.89200000      24.35500000      20.52500000
 H      44.96400000      25.42900000      20.63400000
 O      42.55300000      39.40700000      14.46900000
 H      42.32900000      38.52600000      14.07500000
 H      41.61600000      39.73700000      14.46200000
 O      45.64800000      32.95300000      15.77900000
 H      46.35000000      32.46400000      15.25200000
 H      45.57100000      32.27500000      16.47500000
 O      46.98100000      22.06700000      18.87700000
 H      47.33800000      21.34900000      18.35500000
 H      46.57400000      22.55800000      18.11300000
 O      44.61700000      27.19900000      30.79400000
 H      44.34100000      27.79600000      31.49700000
 H      44.84100000      27.70900000      30.06000000
 O      48.21500000      40.48300000      36.81500000
 H      49.07900000      40.14600000      37.05200000
 H      48.07100000      40.98700000      37.62400000
 O      42.55200000      38.36700000      25.68600000
 H      43.32600000      38.58900000      25.16900000
 H      42.82500000      37.48200000      25.99500000
 O      43.32700000      22.94500000      27.24800000
 H      43.16900000      22.04000000      27.67500000
 H      43.68800000      23.42100000      28.01300000
 O      44.49700000      38.07700000      29.36000000
 H      44.32500000      37.70800000      28.44900000
 H      45.49500000      38.25100000      29.20600000
 O      46.29200000      27.07600000      40.80300000
 H      45.97100000      26.55400000      39.99800000
 H      47.13100000      27.40900000      40.47200000
 O      48.49300000      24.73600000      14.81000000
 H      47.77600000      24.63100000      15.45200000
 H      48.13800000      24.30100000      13.99600000
 O      46.74400000      30.90900000      23.29300000
 H      46.55400000      31.73700000      23.80600000
 H      47.69500000      30.96200000      23.28100000
 O      45.00900000      31.79800000      28.99200000
 H      45.56200000      32.55500000      29.38200000
 H      44.75900000      31.41800000      29.84700000
 O      49.13200000      40.24900000      39.64900000
 H      49.80400000      39.72200000      40.17900000
 H      48.34200000      39.93000000      40.11400000
 O      43.45400000      35.93300000      39.37500000
 H      42.58300000      36.02800000      38.96600000
 H      43.92700000      36.74300000      39.02600000
 O      48.76200000      40.58000000      17.59500000
 H      49.46300000      40.23500000      17.03400000
 H      48.15400000      40.94800000      16.89100000
 O      44.39300000      22.11500000      13.11600000
 H      44.57900000      21.19300000      13.02900000
 H      43.87600000      22.18600000      13.92700000
 O      47.14300000      29.30700000      26.46400000
 H      47.06000000      30.20200000      26.83600000
 H      48.06400000      29.37900000      26.07700000
 O      47.45200000      29.36600000      19.53600000
 H      46.74300000      29.24200000      20.24500000
 H      47.26500000      30.35100000      19.36200000
 O      44.82000000      24.16500000      39.09200000
 H      44.43800000      24.92500000      38.69700000
 H      44.06100000      23.65400000      39.38600000
 O      46.67400000      36.06900000      31.45900000
 H      46.51000000      35.55900000      30.68200000
 H      45.79200000      36.36400000      31.72300000
 O      49.13400000      26.39900000      37.51800000
 H      48.28700000      25.90300000      37.52300000
 H      49.60000000      25.91600000      38.22100000
 O      45.58100000      38.77600000      33.27900000
 H      45.09300000      39.44200000      33.79100000
 H      44.89800000      38.18800000      32.94600000
 O      43.32700000      27.58900000      18.73400000
 H      42.72100000      27.30500000      18.06900000
 H      43.59800000      26.73500000      19.09100000
 O      48.55800000      25.98900000      26.57800000
 H      48.39500000      26.70500000      25.94300000
 H      49.50500000      26.07300000      26.69500000
 O      48.72100000      23.42400000      33.85400000
 H      47.74900000      23.27200000      33.61600000
 H      48.78800000      23.00400000      34.74100000
 O      47.08900000      26.45100000      23.16500000
 H      46.18200000      26.43300000      23.63700000
 H      46.90900000      27.24000000      22.59900000
 O      42.85600000      25.99500000      16.59200000
 H      42.58900000      26.28600000      15.67700000
 H      42.29600000      25.14400000      16.63400000
 O      48.57900000      20.83100000      26.96500000
 H      48.94500000      19.95000000      27.36700000
 H      48.14600000      20.46500000      26.18500000
 O      47.53800000      36.01500000      27.99500000
 H      47.91500000      35.62300000      27.21100000
 H      47.39200000      36.92300000      27.70900000
 O      46.29600000      22.37600000      33.11600000
 H      45.91600000      22.53500000      32.25300000
 H      46.24100000      21.36800000      33.11800000
 O      43.42000000      37.60100000      18.16200000
 H      43.10400000      36.83100000      17.62600000
 H      43.17000000      37.16900000      19.06500000
 O      43.46200000      29.24700000      38.21000000
 H      44.23100000      28.78200000      38.49100000
 H      43.59800000      30.15300000      38.53100000
 O      46.93400000      31.80800000      27.17200000
 H      47.72200000      31.88600000      27.74100000
 H      46.22400000      31.68900000      27.82400000
 O      47.30300000      38.25600000      20.61800000
 H      47.47900000      39.14700000      20.23700000
 H      46.36900000      38.39400000      20.93700000
 O      45.72900000      28.36300000      21.68000000
 H      44.88000000      28.19800000      22.08900000
 H      46.13600000      29.03000000      22.31200000
 O      42.75600000      34.44400000      27.14000000
 H      42.80500000      33.47300000      27.30200000
 H      41.99800000      34.67500000      27.73300000
 O      47.95600000      29.49300000      13.77000000
 H      47.74300000      30.45300000      13.94400000
 H      48.45200000      29.59000000      12.92500000
 O      48.86800000      35.91900000      36.02000000
 H      48.92200000      35.10000000      35.44500000
 H      48.07900000      36.30600000      35.58700000
 O      45.54000000      40.36600000      39.03600000
 H      46.10300000      41.08500000      39.12600000
 H      45.57600000      39.88600000      39.93200000
 O      42.76400000      22.63900000      40.65800000
 H      41.99300000      23.24100000      40.88000000
 H      43.19700000      22.50100000      41.53400000
 O      47.98600000      31.00400000      31.89700000
 H      47.07800000      30.90200000      31.58400000
 H      48.41800000      30.34300000      31.31500000
 O      47.20400000      35.67800000      16.00600000
 H      46.62700000      36.43200000      16.17500000
 H      46.55500000      35.01400000      15.65200000
 O      45.40700000      40.43200000      36.08300000
 H      46.35400000      40.34700000      35.80200000
 H      45.49100000      40.16900000      37.02200000
 O      46.03300000      21.79100000      21.31300000
 H      46.56900000      22.55100000      21.66400000
 H      46.23700000      21.89000000      20.38400000
 O      44.79600000      38.48600000      24.37100000
 H      45.33400000      37.70000000      24.59700000
 H      45.45400000      39.18400000      24.47600000
 O      45.99000000      27.37200000      14.32500000
 H      45.95500000      26.93000000      13.45000000
 H      46.65300000      28.09200000      14.19900000
 O      46.94800000      35.60900000      20.47900000
 H      47.11000000      36.60000000      20.49900000
 H      47.59600000      35.33200000      21.16700000
 O      45.35600000      39.72600000      13.58600000
 H      44.45200000      40.03300000      13.41000000
 H      45.19000000      39.19100000      14.39200000
 O      47.70200000      23.90500000      22.21300000
 H      47.80000000      24.77000000      22.53300000
 H      48.03900000      24.01700000      21.26700000
 O      44.82700000      38.60500000      21.54800000
 H      44.30700000      37.79000000      21.43900000
 H      44.91900000      38.69900000      22.48600000
 O      46.82800000      36.72500000      34.39300000
 H      46.28100000      37.52700000      34.18700000
 H      47.16100000      36.62100000      33.44300000
 O      46.90300000      31.97900000      19.50100000
 H      46.20400000      32.42700000      20.03200000
 H      47.47000000      32.80400000      19.33200000
 O      47.96000000      26.39600000      18.50700000
 H      47.15700000      26.11400000      18.00800000
 H      47.77900000      27.19800000      18.88700000
 O      43.66400000      28.95100000      15.69700000
 H      44.07300000      29.62800000      16.23800000
 H      44.01200000      28.15100000      16.15200000
 O      43.02600000      32.85700000      15.98100000
 H      43.92100000      32.88300000      16.28400000
 H      43.16600000      32.95500000      15.03200000
 O      44.18900000      40.16900000      16.87900000
 H      43.56700000      39.89700000      16.18700000
 H      44.47900000      39.30600000      17.25900000
 O      48.64900000      28.50600000      30.23100000
 H      48.28100000      27.65700000      29.85100000
 H      49.25700000      28.65800000      29.41200000
 O      44.02200000      34.78000000      23.27100000
 H      43.83600000      33.86500000      23.60600000
 H      43.15900000      35.13300000      23.12100000
 O      45.94800000      23.70000000      35.44900000
 H      45.28000000      24.37400000      35.20300000
 H      45.96900000      23.14300000      34.65800000
 O      45.54100000      27.04500000      37.97200000
 H      46.09900000      27.78000000      37.74900000
 H      45.52600000      26.53300000      37.15900000
 O      43.77000000      36.96100000      36.22400000
 H      43.50900000      37.85400000      35.83900000
 H      43.54500000      37.17100000      37.13800000
 O      46.42500000      33.96300000      29.47000000
 H      47.33100000      33.46000000      29.38600000
 H      46.70600000      34.73300000      28.97600000
 O      47.88400000      38.80500000      31.24200000
 H      47.10500000      39.19700000      31.59900000
 H      47.67100000      38.75200000      30.28400000
 O      47.99400000      34.30200000      18.32300000
 H      47.75800000      34.54300000      17.44200000
 H      47.51600000      34.96200000      18.91300000
 O      46.64400000      40.51000000      24.52900000
 H      47.16500000      40.71000000      23.78400000
 H      47.21100000      40.92100000      25.26700000
 O      46.65600000      26.30700000      32.48000000
 H      45.96300000      26.59300000      31.82000000
 H      47.11700000      25.62900000      31.98500000
 O      45.97000000      31.57000000      35.96800000
 H      45.88700000      32.47100000      35.49800000
 H      45.73200000      31.88200000      36.87800000
 O      43.08400000      28.89000000      22.18000000
 H      42.49800000      29.68700000      22.22700000
 H      42.40400000      28.20900000      21.87900000
 O      47.11500000      38.89400000      28.37800000
 H      46.79600000      39.85900000      28.33800000
 H      47.82900000      38.86000000      27.68400000
 O      44.25800000      36.67000000      27.09400000
 H      43.82200000      35.78500000      27.30700000
 H      44.94600000      36.39000000      26.48300000
 O      48.27600000      27.49300000      34.42700000
 H      47.65700000      27.82500000      35.07200000
 H      47.80100000      27.29100000      33.66800000
 O      43.20900000      31.86100000      27.12300000
 H      43.91000000      31.74300000      27.90300000
 H      43.84800000      31.58900000      26.40700000
 O      45.10400000      31.16600000      17.79000000
 H      44.54300000      30.91200000      18.56500000
 H      45.84500000      31.49500000      18.42000000
 O      43.90200000      20.10600000      24.04600000
 H      44.43300000      19.68000000      23.30300000
 H      44.26100000      21.03300000      24.07000000
 O      42.60200000      24.25200000      36.57800000
 H      42.27300000      25.01800000      36.14500000
 H      42.19100000      24.35800000      37.51000000
 O      47.10800000      22.55700000      24.46400000
 H      47.60100000      23.03600000      23.74900000
 H      47.36300000      21.62300000      24.20000000
 O      48.85200000      23.86200000      19.61900000
 H      48.39900000      24.64800000      19.27700000
 H      48.27200000      23.16300000      19.24200000
 O      45.74700000      23.17700000      16.85100000
 H      45.77800000      24.08500000      16.45200000
 H      44.89500000      22.84800000      16.45500000
 O      44.75600000      26.03300000      34.52100000
 H      44.46100000      26.92800000      34.54400000
 H      45.50200000      26.01100000      33.85800000
 O      43.04500000      36.17100000      20.44200000
 H      42.28300000      35.78100000      20.86800000
 H      43.69100000      35.45000000      20.41100000
 O      47.06200000      20.33600000      38.91000000
 H      46.73500000      20.94000000      39.65800000
 H      48.03900000      20.51500000      39.07900000
 O      44.21700000      32.25300000      37.88600000
 H      43.40700000      32.80400000      37.82800000
 H      44.67100000      32.68800000      38.61700000
 O      48.99100000      36.67100000      13.83100000
 H      48.50200000      37.50900000      13.76000000
 H      48.35800000      36.09300000      14.34400000
 O      47.03700000      29.31000000      36.56200000
 H      46.49300000      30.10600000      36.32300000
 H      47.90400000      29.76800000      36.57900000
 O      43.61900000      32.12900000      24.09600000
 H      44.09900000      31.28000000      24.16100000
 H      42.84900000      31.83500000      23.55700000
 O      46.23100000      36.14200000      24.59000000
 H      46.90600000      35.43500000      24.66300000
 H      45.67900000      35.68600000      23.88900000
 O      47.10900000      26.56300000      28.91900000
 H      47.40900000      25.71500000      29.44800000
 H      47.48700000      26.26300000      28.05500000
 O      48.04200000      24.65600000      30.37500000
 H      49.02100000      24.75600000      30.48900000
 H      47.95100000      23.71400000      30.19600000
 O      43.15900000      30.48900000      35.79800000
 H      43.81400000      31.11700000      36.04600000
 H      43.15500000      29.87600000      36.56800000
 O      44.21200000      36.78000000      32.09100000
 H      43.35500000      36.63100000      32.53900000
 H      43.84400000      36.92000000      31.15700000
 O      44.18600000      33.62800000      32.78300000
 H      44.11300000      34.01300000      33.68800000
 H      45.05000000      34.06600000      32.53300000
 O      44.70600000      29.05200000      25.12000000
 H      45.45900000      28.76700000      25.68000000
 H      44.91400000      28.49900000      24.30000000
 O      42.43800000      34.58200000      35.38100000
 H      41.90200000      34.95200000      34.64400000
 H      43.05400000      35.33800000      35.47200000
 O      44.89000000      33.98700000      20.60100000
 H      45.77300000      34.44500000      20.73900000
 H      44.58400000      34.08500000      21.52700000
 O      48.82000000      34.52200000      32.15600000
 H      49.28500000      34.58100000      31.30100000
 H      48.01200000      34.97600000      32.03400000
 O      47.44300000      35.07300000      38.77800000
 H      47.60500000      35.85000000      38.32300000
 H      47.88100000      34.35600000      38.37000000
 O      45.67700000      25.97700000      16.83900000
 H      45.82900000      26.59900000      16.14100000
 H      44.67600000      25.89400000      16.82000000
 O      43.30700000      22.60600000      20.63000000
 H      43.95800000      21.97700000      20.96400000
 H      43.07000000      22.32000000      19.77500000
 O      43.17200000      20.48000000      39.02200000
 H      43.32300000      21.33700000      39.49900000
 H      43.34800000      20.74500000      38.10100000
 O      47.39600000      24.34800000      37.76400000
 H      46.77900000      24.12800000      37.00600000
 H      46.63700000      24.22500000      38.49400000
 O      45.15200000      22.25700000      30.44300000
 H      45.97500000      22.49300000      30.01300000
 H      44.91800000      21.48900000      29.85000000
 O      47.61000000      22.19400000      29.44100000
 H      47.91100000      21.86100000      28.58300000
 H      47.64700000      21.27300000      29.88200000
 O      45.09700000      37.27400000      15.71900000
 H      44.64200000      36.72900000      14.97600000
 H      44.36300000      37.14500000      16.36300000
 O      44.11500000      22.77800000      24.67600000
 H      43.91200000      22.85000000      25.63500000
 H      45.06700000      22.88900000      24.73300000
 O      46.45800000      22.27800000      40.71400000
 H      47.29300000      22.69300000      40.90500000
 H      45.99700000      23.05800000      40.33500000
 O      44.55800000      31.00100000      31.73900000
 H      44.05900000      30.55900000      32.43000000
 H      44.33700000      31.94900000      31.96100000
 O      45.35200000      33.77000000      39.98000000
 H      44.48000000      34.21600000      40.07400000
 H      45.90000000      34.42200000      39.51800000
 O      45.37000000      40.67800000      19.63900000
 H      44.71600000      40.59300000      18.90600000
 H      45.01500000      39.92900000      20.18700000
 O      45.83700000      34.18200000      35.25100000
 H      45.14900000      34.75700000      35.64300000
 H      46.59400000      34.81800000      35.20300000
 O      43.46600000      22.23700000      15.98900000
 H      43.35600000      21.56000000      16.75200000
 H      42.54900000      22.36000000      15.74600000
 O      43.98500000      25.87500000      26.77300000
 H      43.50600000      25.64800000      27.62100000
 H      44.71300000      25.19300000      26.81000000
 O      47.12600000      33.07900000      24.76700000
 H      46.78400000      32.69700000      25.66200000
 H      47.76000000      33.66800000      25.24400000
 O      46.42000000      24.34100000      26.48100000
 H      47.31400000      24.85600000      26.44500000
 H      46.69500000      23.67300000      25.75600000
 O      42.53800000      35.70200000      16.53900000
 H      42.60900000      34.74300000      16.49900000
 H      41.76900000      35.79400000      15.87100000
 O      43.49900000      38.47400000      38.54300000
 H      42.84100000      39.02800000      39.12200000
 H      44.14800000      39.17000000      38.40000000
 O      43.65700000      30.44900000      19.88400000
 H      43.59000000      30.08500000      20.80900000
 H      43.59700000      29.59900000      19.33900000
 O      48.59400000      34.90300000      22.73000000
 H      48.45800000      34.01800000      23.09800000
 H      49.54300000      34.76400000      22.44400000
 O      42.55800000      22.49000000      34.58900000
 H      42.67000000      23.27100000      34.00500000
 H      42.43400000      22.99600000      35.41800000
