%chk=cluster_213_i.chk
%mem=1GB
%nproc=4
#b3lyp/6-311++G** scrf=(cpcm,Solvent=Water) nosymm force
iop(2/11=1) 
 Geom=(NoDistance,NoAngle)

cluster_213_i

0 1
 O      12.45500000       3.47100000      11.50700000
 H      13.32400000       3.79800000      11.59700000
 H      11.91800000       4.17900000      11.15100000
 O      10.10800000      10.54900000      15.35900000
 H      10.95600000      10.00700000      15.22500000
 H      10.43400000      11.35900000      14.92600000
 O      13.30600000       7.75100000      11.16500000
 H      13.05900000       7.12800000      10.43400000
 H      14.03000000       7.31200000      11.66700000
 O       9.73600000       3.67200000      15.29300000
 H      10.55200000       4.11500000      15.48700000
 H       9.07900000       4.42500000      15.25800000
 O      10.18500000       7.98100000      13.58900000
 H      10.81100000       8.07000000      14.42900000
 H      10.56900000       8.58400000      12.93200000
 O      13.20300000       4.77300000      17.64900000
 H      13.18300000       3.89500000      18.07900000
 H      12.53900000       4.55600000      16.94800000
 O      10.37800000       5.67400000      12.02300000
 H      10.27200000       6.37900000      12.68100000
 H       9.47100000       5.29100000      11.90600000
 O      14.39100000       6.34000000      15.45200000
 H      13.77000000       6.09400000      14.68600000
 H      14.04700000       5.76500000      16.14700000
 O       8.18000000       6.39900000      16.47800000
 H       7.37000000       5.93200000      16.87100000
 H       7.99700000       7.36100000      16.63800000
 C      11.34000000      10.01400000       9.54500000
 C      11.34800000      10.75000000      10.98100000
 C       8.97500000      11.70800000      10.54700000
 H       9.46800000      10.04600000      11.73200000
 H      11.34900000       8.21100000       8.92400000
 O      10.11600000      11.73500000      12.77500000
 O      12.67200000       9.90300000       9.14100000
 O      10.83400000       8.71200000       9.63300000
 C       9.97800000      11.01600000      11.53500000
 O      12.11600000       9.91700000      11.89700000
 H      11.86900000      11.66200000      10.70600000
 O       9.55200000      12.98800000      10.37800000
 O       7.74400000      12.02200000      11.22900000
 H       7.56100000      12.95900000      11.03600000
 H      12.51100000       9.16400000      11.35200000
 H      10.56600000      12.57300000      12.54200000
 O      12.76200000       5.20600000      13.65100000
 H      12.39100000       4.37100000      14.06500000
 H      11.95800000       5.54100000      13.19700000
 O       8.28700000       9.03900000      17.08200000
 H       8.37000000       9.41700000      17.98200000
 H       8.91100000       9.65600000      16.54200000
 O      12.02400000       8.49600000      15.59300000
 H      12.74200000       9.12900000      15.29000000
 H      11.86400000       8.77400000      16.55300000
 O      10.89900000       5.84000000      16.43000000
 H       9.99800000       6.16800000      16.38700000
 H      11.34000000       6.69900000      16.36200000
 O       7.15200000       4.34800000      11.42400000
 H       7.58300000       4.82900000      10.71200000
 H       7.87800000       3.78200000      11.74400000
 O       7.44900000      10.44000000      14.31800000
 H       8.27500000       9.95200000      14.30400000
 H       7.67300000      11.28600000      14.71400000
 O       7.51200000       6.95000000      13.72800000
 H       8.37300000       7.47100000      13.61900000
 H       7.58900000       6.43400000      14.56500000

