%chk=cluster_124.chk
%mem=1GB
%nproc=4
#b3lyp/6-311++G** scrf=(cpcm,Solvent=Water) nosymm force
iop(2/11=1) 
 Geom=(NoDistance,NoAngle)

cluster_124

0 1
 O      10.10800000      10.54900000      15.35900000
 H      10.95600000      10.00700000      15.22500000
 H      10.43400000      11.35900000      14.92600000
 O      10.18500000       7.98100000      13.58900000
 H      10.81100000       8.07000000      14.42900000
 H      10.56900000       8.58400000      12.93200000
 O       5.25500000       6.64800000      16.14300000
 H       5.12300000       7.45000000      15.55400000
 H       5.64300000       7.06000000      16.92400000
 O       8.05900000      14.23200000      14.23500000
 H       8.66500000      13.57400000      13.79100000
 H       8.03500000      13.98800000      15.18300000
 O       7.57000000      13.91000000      19.78500000
 H       7.01700000      13.57300000      20.57100000
 H       8.03200000      13.16300000      19.38800000
 O       9.61100000      13.02900000      17.68600000
 H       8.96500000      12.36000000      17.34300000
 H      10.44800000      13.10500000      17.18100000
 O       8.18000000       6.39900000      16.47800000
 H       7.37000000       5.93200000      16.87100000
 H       7.99700000       7.36100000      16.63800000
 O       5.11100000       8.78300000      14.59100000
 H       5.98800000       9.23700000      14.33900000
 H       4.77100000       8.31300000      13.83200000
 O       8.28700000       9.03900000      17.08200000
 H       8.37000000       9.41700000      17.98200000
 H       8.91100000       9.65600000      16.54200000
 O       5.77100000       7.45000000      18.69900000
 H       4.94500000       7.67400000      19.25600000
 H       6.36900000       8.15600000      18.91500000
 O       4.81200000      10.01600000      17.12000000
 H       3.87600000       9.79600000      17.24500000
 H       5.05300000       9.41200000      16.32400000
 O       4.58700000      14.23100000      17.70400000
 H       3.75900000      14.02800000      18.22600000
 H       5.11000000      14.72300000      18.38000000
 O       6.59400000      12.45600000      16.80100000
 H       5.81900000      13.03900000      16.73400000
 H       6.13700000      11.55000000      16.83100000
 O       5.96100000      10.70300000      19.57600000
 H       5.40900000      10.31800000      18.90100000
 H       6.79100000      10.59200000      19.06200000
 O       7.44900000      10.44000000      14.31800000
 H       8.27500000       9.95200000      14.30400000
 H       7.67300000      11.28600000      14.71400000
 O       7.51200000       6.95000000      13.72800000
 H       8.37300000       7.47100000      13.61900000
 H       7.58900000       6.43400000      14.56500000
 O       9.57600000       7.67000000      20.38600000
 H      10.34100000       7.18400000      20.75600000
 H       8.82300000       7.02200000      20.51000000
 O       8.92500000      10.78900000      19.36000000
 H       9.83600000      10.98500000      19.04900000
 H       8.95500000      10.33500000      20.26400000

