1104
XYZ file of cluster: frame_15000_105c.c4678.72ed2 - created by MolEdiTo
 O      24.08300000      40.60000000      23.39600000
 H      24.49600000      41.34300000      24.02000000
 H      23.74200000      41.16600000      22.72100000
 O      18.87200000      36.59600000      33.55800000
 H      17.91700000      36.46500000      33.64000000
 H      19.21000000      35.83400000      34.00300000
 O      40.89700000      39.55500000      39.29800000
 H      40.81300000      39.86100000      38.35700000
 H      40.16400000      39.99300000      39.71500000
 O      39.44900000      35.92300000      27.01800000
 H      38.98400000      36.73500000      27.26900000
 H      39.18800000      35.77300000      26.05600000
 O       1.31100000      35.88100000      28.81500000
 H       0.50000000      36.06000000      28.25700000
 H       1.94700000      35.46100000      28.19200000
 O      19.18600000      37.44400000      36.72200000
 H      19.13700000      38.03200000      35.97400000
 H      19.58700000      36.64600000      36.41400000
 O      19.89300000      38.80400000      25.93600000
 H      20.22600000      38.49300000      26.84600000
 H      19.00300000      38.67000000      26.04000000
 O      38.26100000      34.66900000      34.46700000
 H      37.57800000      35.24800000      34.79400000
 H      38.98900000      35.28400000      34.29900000
 O      28.25100000      36.38900000      28.01400000
 H      28.78600000      37.06800000      28.38400000
 H      28.14900000      36.65900000      27.07900000
 O       9.29400000      36.04300000      37.70300000
 H       9.30800000      35.46600000      36.88600000
 H       9.71900000      36.86200000      37.29900000
 O       3.84100000      34.02800000      39.20000000
 H       3.76500000      34.85800000      38.71500000
 H       4.27200000      34.32500000      40.01100000
 O      28.42100000      37.26300000      36.61000000
 H      28.97700000      37.83600000      35.98000000
 H      28.80800000      37.51000000      37.45300000
 O      12.09000000      35.52200000      26.13900000
 H      11.95200000      35.08200000      26.95000000
 H      11.18600000      35.78600000      25.84700000
 O      14.18900000      35.72500000      35.11500000
 H      13.99300000      35.30300000      36.02000000
 H      14.48700000      34.90100000      34.65800000
 O       4.27100000      34.91800000      24.60300000
 H       3.70600000      35.62400000      24.24400000
 H       4.19000000      34.20400000      23.90700000
 O      40.64400000      35.70900000      33.64600000
 H      40.35800000      36.62300000      33.78600000
 H      40.78500000      35.68600000      32.67400000
 O      29.50100000      34.60000000      29.91400000
 H      29.33100000      35.19600000      29.09700000
 H      29.89700000      33.84700000      29.52800000
 O       3.05600000      36.02000000      35.88100000
 H       4.06200000      35.81600000      35.84400000
 H       3.05800000      36.83600000      35.36300000
 O      37.65400000      36.72100000      40.04600000
 H      38.18500000      36.14800000      39.48400000
 H      37.87000000      36.40000000      40.95000000
 O      28.82000000      36.79100000      39.91800000
 H      29.42100000      36.06400000      40.12000000
 H      28.61800000      37.18800000      40.72700000
 O      21.16900000      34.82800000      32.44200000
 H      20.77400000      33.92100000      32.61900000
 H      20.85500000      34.93600000      31.51900000
 O       7.34300000      37.24100000      38.81500000
 H       7.80600000      37.45000000      39.65500000
 H       8.11800000      36.77900000      38.40700000
 O       3.67600000      34.85600000      31.71300000
 H       4.07100000      33.98400000      31.73600000
 H       3.78300000      35.05600000      30.71400000
 O      22.15400000      38.36500000      35.43400000
 H      22.09400000      37.92100000      34.58800000
 H      22.26300000      37.56500000      36.00200000
 O      33.93200000      39.72500000      31.96200000
 H      33.53500000      40.23300000      32.62300000
 H      33.20200000      39.20900000      31.59100000
 O      34.61600000      38.09600000      34.28700000
 H      34.25500000      38.71400000      34.92900000
 H      34.38400000      38.51200000      33.47100000
 O      34.71700000      39.87900000      37.20800000
 H      35.04700000      40.77400000      37.37000000
 H      35.56300000      39.40100000      37.19100000
 O      32.94000000      37.15200000      30.62400000
 H      32.19500000      37.12600000      31.30400000
 H      32.43100000      37.33000000      29.77200000
 O      16.01300000      36.64700000      23.37200000
 H      15.31100000      36.04000000      23.03800000
 H      16.41600000      36.02500000      24.03600000
 O      32.86900000      37.34100000      25.06800000
 H      33.79800000      37.03200000      25.02500000
 H      32.38600000      36.57200000      24.81700000
 O       6.96700000      37.53100000      33.16100000
 H       7.02000000      37.82600000      34.08300000
 H       7.16500000      36.58000000      33.31700000
 O      16.89300000      35.54600000      37.53900000
 H      17.54300000      36.25200000      37.40300000
 H      16.21900000      35.99500000      38.11300000
 O      11.09700000      37.85900000      33.94600000
 H      11.29300000      36.98200000      34.31100000
 H      10.82900000      37.63700000      33.02300000
 O      23.84800000      34.44000000      32.80300000
 H      23.67800000      33.53200000      32.38500000
 H      22.96600000      34.77500000      32.78700000
 O       3.92900000      38.64300000      21.54000000
 H       4.36600000      38.47400000      22.42800000
 H       3.90400000      37.68600000      21.26700000
 O       5.46400000      35.88500000      40.42900000
 H       6.24400000      36.25300000      39.94300000
 H       5.33400000      36.56900000      41.10100000
 O       3.09500000      36.87000000      38.71700000
 H       3.97400000      36.60100000      38.85200000
 H       2.88800000      36.69500000      37.78800000
 O      13.87100000      35.68900000      22.18500000
 H      13.25200000      36.42600000      22.31600000
 H      13.57800000      35.37400000      21.31100000
 O      31.52100000      35.77500000      36.73300000
 H      30.55200000      35.99900000      36.75000000
 H      31.56300000      35.62300000      35.73100000
 O      35.95100000      38.40500000      20.63800000
 H      35.37300000      38.11500000      19.87300000
 H      35.28400000      38.79800000      21.20700000
 O      17.25000000      34.02000000      26.41100000
 H      16.30600000      33.79400000      26.26600000
 H      17.16900000      34.84300000      26.88300000
 O      26.29300000      39.76200000      39.09100000
 H      26.90700000      40.13500000      38.44300000
 H      25.65000000      40.48900000      39.17700000
 O      12.44800000      39.70300000      26.94700000
 H      12.39900000      39.10500000      26.20300000
 H      13.28900000      39.50400000      27.33700000
 O       8.29600000      38.73700000      28.54700000
 H       8.15400000      38.93100000      29.50100000
 H       9.31300000      38.87400000      28.64400000
 O      26.35300000      39.75600000      25.30800000
 H      26.47800000      40.72900000      25.09800000
 H      25.54700000      39.64800000      24.78700000
 O      13.92300000      39.53300000      23.43300000
 H      12.99000000      39.53500000      23.48200000
 H      14.11000000      38.68100000      23.86000000
 O      31.97100000      35.14000000      34.13800000
 H      31.54000000      35.33100000      33.29000000
 H      32.78600000      34.71800000      33.72000000
 O      31.75200000      40.72200000      33.28000000
 H      31.89500000      40.91100000      34.21100000
 H      31.59700000      41.68200000      32.94500000
 O      17.54800000      36.35000000      27.76500000
 H      17.31500000      37.25500000      27.46000000
 H      16.96900000      36.15000000      28.50800000
 O      31.85200000      35.25200000      23.41400000
 H      31.72400000      34.31100000      23.22500000
 H      32.70700000      35.41800000      23.07100000
 O      25.84900000      39.68100000      33.12700000
 H      25.24800000      39.35400000      32.49700000
 H      25.24700000      39.81400000      33.88600000
 O      23.34200000      35.80600000      25.28600000
 H      23.69900000      35.64300000      26.21000000
 H      23.64700000      36.78200000      25.26600000
 O      37.07900000      38.52700000      26.45600000
 H      37.46600000      39.47500000      26.38400000
 H      36.61000000      38.56800000      27.30900000
 O      22.11700000      36.14400000      37.33200000
 H      22.61200000      35.98700000      38.15900000
 H      22.80700000      35.63500000      36.75500000
 O      28.25900000      40.70100000      34.03300000
 H      27.30700000      40.45000000      33.86400000
 H      28.17800000      41.63500000      33.99000000
 O      31.65300000      34.37400000      20.23000000
 H      32.01300000      33.74600000      20.95200000
 H      32.51800000      34.73600000      19.93400000
 O      38.25900000      34.55600000      28.73900000
 H      38.91400000      34.97600000      28.15800000
 H      38.51900000      33.60700000      28.60800000
 O       5.79400000      35.97200000      36.31100000
 H       6.45000000      35.64500000      35.69000000
 H       6.28100000      36.36600000      37.04800000
 O      11.48200000      39.47100000      24.16000000
 H      11.33900000      40.29100000      23.65700000
 H      10.52700000      39.23800000      24.26300000
 O      34.42500000      35.18300000      23.03500000
 H      34.77800000      35.47900000      23.91700000
 H      35.24900000      35.21800000      22.52200000
 O      35.35100000      36.46800000      25.22600000
 H      36.21600000      37.02300000      25.28600000
 H      35.28100000      36.18600000      26.13200000
 O      23.74100000      35.12900000      27.95900000
 H      23.06100000      34.57500000      28.41400000
 H      24.57200000      34.58200000      28.07100000
 O      17.86600000      38.99500000      29.74400000
 H      18.69100000      39.48400000      29.51600000
 H      18.29000000      38.19000000      30.14300000
 O       4.47200000      38.44100000      28.79400000
 H       4.10800000      38.56400000      29.71000000
 H       4.83900000      37.50200000      28.95600000
 O      40.89200000      40.20400000      36.24900000
 H      40.88700000      40.42300000      35.31400000
 H      41.78000000      40.50600000      36.52500000
 O      16.80100000      34.75100000      31.40200000
 H      16.88800000      34.25300000      32.26700000
 H      16.71200000      35.64800000      31.72600000
 O      34.47200000      35.98900000      37.72300000
 H      33.53800000      36.14200000      37.43900000
 H      34.49500000      36.59600000      38.44900000
 O      29.96600000      39.57300000      31.25400000
 H      29.93200000      40.10400000      32.08200000
 H      30.83500000      39.89900000      30.88200000
 O       9.77300000      35.88600000      24.70600000
 H       8.85300000      35.47000000      24.76600000
 H       9.50400000      36.80700000      24.69900000
 O       9.87000000      35.29100000      29.19300000
 H       9.66000000      34.63700000      29.86200000
 H      10.85300000      35.10000000      29.17000000
 O      29.28400000      35.71200000      21.74700000
 H      29.94700000      35.51300000      22.49300000
 H      29.84600000      35.46700000      21.02800000
 O      20.72600000      38.19800000      28.35500000
 H      21.74200000      38.32000000      28.38800000
 H      20.62600000      37.88400000      29.31300000
 O      24.45400000      37.82400000      31.55400000
 H      24.69600000      36.88200000      31.35300000
 H      23.91200000      38.07100000      30.79100000
 O      11.25000000      34.82300000      39.51000000
 H      10.67600000      35.31100000      38.83800000
 H      11.48200000      35.66700000      40.10000000
 O       7.75600000      39.07300000      31.25900000
 H       7.43300000      38.54800000      32.02500000
 H       7.65500000      39.98400000      31.60500000
 O      39.70400000      37.36700000      36.76200000
 H      39.58100000      37.61400000      35.79800000
 H      40.36600000      38.06700000      36.98500000
 O      25.51200000      37.71900000      36.40900000
 H      26.50300000      37.50700000      36.49800000
 H      25.21200000      36.89300000      35.93900000
 O      13.96400000      38.31800000      33.28900000
 H      13.81500000      39.25400000      33.48100000
 H      13.49700000      37.91000000      33.93800000
 O      15.21300000      36.58100000      39.47900000
 H      16.04500000      36.79300000      40.09100000
 H      14.72000000      37.40900000      39.63800000
 O       5.75800000      35.88700000      29.31900000
 H       5.67000000      34.93500000      29.08600000
 H       6.68900000      36.02400000      29.01800000
 O      27.01700000      34.62900000      36.65500000
 H      27.38200000      33.86000000      36.17300000
 H      27.57700000      35.33800000      36.33100000
 O      11.00100000      39.10300000      29.14800000
 H      11.73900000      39.28400000      28.59000000
 H      11.11500000      39.82800000      29.80900000
 O      25.51700000      37.67600000      21.63400000
 H      25.12000000      36.88100000      21.23200000
 H      24.72700000      38.06400000      22.05000000
 O      13.87900000      37.44300000      25.40400000
 H      14.43800000      36.83900000      24.87800000
 H      13.26900000      36.76100000      25.76400000
 O      19.92200000      35.12100000      35.73100000
 H      19.94000000      34.15500000      35.85200000
 H      20.88300000      35.32700000      35.84700000
 O      12.53900000      34.62300000      28.86700000
 H      13.34300000      35.05700000      28.49100000
 H      12.71700000      33.66900000      28.64000000
 O      36.78000000      40.28700000      32.39600000
 H      35.86200000      40.24700000      32.09300000
 H      36.98900000      41.20600000      32.07100000
 O       1.07300000      37.53400000      30.81800000
 H       1.02400000      36.91800000      30.07100000
 H       0.17500000      37.84400000      30.85800000
 O      31.53100000      37.14500000      28.32200000
 H      32.20400000      37.60400000      27.81200000
 H      31.54200000      36.24400000      27.83600000
 O      20.85700000      38.26300000      21.80700000
 H      20.42800000      37.56000000      21.21200000
 H      21.74000000      38.29200000      21.41400000
 O      24.37400000      39.97800000      35.40000000
 H      23.54900000      39.46000000      35.44200000
 H      24.97600000      39.34800000      35.86000000
 O      30.57800000      39.40900000      25.00300000
 H      31.22900000      38.74500000      25.09300000
 H      29.83500000      39.07500000      25.50200000
 O      22.11600000      39.99900000      30.90100000
 H      21.41800000      40.70400000      30.77600000
 H      22.80400000      40.35200000      30.30700000
 O      40.27600000      34.55900000      37.49500000
 H      39.96500000      35.50800000      37.40200000
 H      41.10600000      34.58900000      36.98200000
 O      18.06900000      39.58000000      34.44400000
 H      17.86400000      40.34700000      33.83000000
 H      18.21300000      38.90600000      33.79300000
 O       3.00700000      34.64400000      26.83000000
 H       3.63100000      34.77300000      26.07900000
 H       2.43600000      34.00600000      26.37400000
 O      25.82000000      38.91200000      27.96400000
 H      26.72100000      39.29300000      28.15300000
 H      25.84600000      38.92500000      27.00900000
 O      26.57700000      34.69600000      22.34700000
 H      27.37800000      34.88500000      21.83400000
 H      25.87200000      34.57900000      21.72400000
 O      17.97000000      34.96700000      21.16500000
 H      17.56300000      34.96600000      22.02300000
 H      17.79600000      34.06300000      20.82000000
 O       7.65800000      34.74800000      34.71800000
 H       8.23100000      34.08400000      34.33000000
 H       6.76700000      34.26900000      34.62700000
 O       7.67400000      39.19100000      35.33200000
 H       7.13000000      39.43900000      36.15700000
 H       7.46300000      40.01300000      34.81400000
 O      23.74800000      38.47500000      24.85200000
 H      23.11800000      39.03700000      25.35800000
 H      24.02600000      39.14500000      24.12000000
 O      19.99400000      35.35300000      27.88500000
 H      19.14600000      35.84900000      27.98200000
 H      20.47900000      36.08700000      27.41200000
 O      32.42800000      39.57800000      20.22000000
 H      32.81200000      39.31000000      21.06300000
 H      33.10900000      39.16800000      19.59400000
 O       4.38200000      38.63700000      24.58500000
 H       3.84500000      38.92500000      25.36200000
 H       5.01900000      38.08500000      25.13700000
 O      11.23500000      37.19900000      22.09700000
 H      11.00000000      37.77500000      22.88600000
 H      10.71000000      36.41100000      22.22200000
 O      39.29800000      38.23500000      34.08600000
 H      38.74400000      38.23100000      33.29600000
 H      39.99200000      38.90300000      33.80700000
 O      35.99700000      36.02600000      27.97700000
 H      35.85200000      36.24800000      28.92600000
 H      36.95000000      35.75700000      27.98900000
 O      13.77000000      34.67400000      37.80900000
 H      13.27400000      33.97900000      38.22300000
 H      14.12600000      35.13100000      38.56300000
 O       3.02900000      39.34100000      31.02600000
 H       2.33200000      38.67000000      31.07200000
 H       3.66000000      38.98600000      31.71000000
 O      16.24000000      36.82200000      33.30100000
 H      15.65900000      37.60000000      33.10500000
 H      15.63900000      36.33800000      33.90700000
 O       2.45400000      36.65300000      23.89200000
 H       1.75700000      36.84600000      23.24100000
 H       2.74600000      37.53000000      24.10900000
 O      19.76700000      37.16300000      31.04400000
 H      20.56400000      37.32300000      31.62200000
 H      19.18600000      36.84000000      31.81500000
 O       4.30700000      37.46200000      32.48100000
 H       5.29100000      37.31000000      32.43400000
 H       4.00700000      36.55600000      32.31000000
 O      40.16500000      37.49700000      20.09300000
 H      39.98000000      38.45800000      20.01500000
 H      40.39300000      37.45100000      21.02700000
 O      14.53500000      39.22700000      28.45000000
 H      14.85200000      39.88100000      29.04400000
 H      14.38600000      38.44100000      29.02900000
 O      35.96300000      39.50100000      28.73500000
 H      35.84000000      40.48400000      28.71300000
 H      35.03700000      39.27700000      28.99800000
 O      26.59600000      34.65400000      33.32800000
 H      25.70600000      34.49100000      32.88500000
 H      26.84000000      35.46900000      32.85200000
 O      13.76400000      37.45900000      30.49500000
 H      12.75800000      37.48000000      30.39700000
 H      13.78300000      37.77900000      31.45700000
 O      11.28900000      40.45300000      33.32600000
 H      11.25100000      39.51600000      33.74600000
 H      11.22100000      40.93500000      34.19300000
 O      16.31700000      40.44600000      36.35500000
 H      16.92300000      40.28200000      35.57600000
 H      16.76900000      39.80300000      37.02400000
 O      34.77800000      37.41000000      39.97500000
 H      34.88000000      36.72500000      40.63400000
 H      35.63800000      37.84500000      39.93900000
 O      16.81000000      39.40500000      24.01700000
 H      16.11800000      39.57800000      24.65500000
 H      16.56900000      38.41400000      23.88200000
 O      12.01300000      39.96800000      37.57000000
 H      11.22200000      39.38400000      37.31900000
 H      12.71300000      39.40100000      37.17800000
 O      23.42600000      36.36600000      39.59300000
 H      23.23800000      35.46600000      40.04000000
 H      24.46100000      36.42000000      39.71200000
 O      20.20100000      34.62000000      39.93600000
 H      20.01200000      35.53200000      39.68900000
 H      20.70200000      34.34200000      39.17500000
 O      29.35100000      40.33600000      22.54900000
 H      28.81400000      39.55700000      22.49300000
 H      29.91200000      40.17000000      23.33000000
 O      40.05500000      40.71800000      24.13800000
 H      40.00800000      40.55500000      25.05000000
 H      39.42700000      41.48400000      23.99000000
 O      28.05900000      37.95400000      22.56500000
 H      28.40300000      37.11500000      22.36200000
 H      27.10500000      37.77200000      22.35400000
 O      25.92000000      35.85400000      30.39400000
 H      26.57700000      36.40000000      29.89100000
 H      25.83400000      35.05600000      29.88100000
 O       4.29500000      35.92400000      21.40000000
 H       3.77500000      35.27400000      21.95800000
 H       5.03600000      35.42000000      21.06700000
 O      28.12100000      37.75600000      31.47000000
 H      27.48700000      38.31700000      31.93800000
 H      28.76100000      38.44300000      31.14300000
 O      23.25900000      34.17900000      23.10400000
 H      23.51100000      34.86800000      23.78800000
 H      22.34000000      34.00500000      23.33300000
 O       6.96800000      35.54000000      24.78000000
 H       5.99400000      35.44100000      24.86800000
 H       7.16500000      35.60700000      25.74100000
 O      33.07800000      39.45200000      39.81200000
 H      33.46200000      39.75300000      38.96000000
 H      33.55300000      38.62600000      39.93400000
 O      37.23100000      38.68800000      36.47400000
 H      38.03900000      38.27000000      36.83400000
 H      36.88800000      37.89700000      35.99600000
 O      28.27300000      37.95800000      25.63800000
 H      28.34100000      37.67800000      24.69200000
 H      27.58300000      38.67400000      25.55100000
 O      30.92700000      34.73900000      26.56300000
 H      31.83600000      34.96200000      26.16700000
 H      30.50800000      34.40100000      25.70700000
 O       3.24000000      38.75800000      34.52900000
 H       3.58900000      38.29500000      33.73300000
 H       3.21600000      39.67900000      34.21900000
 O      10.97600000      37.14600000      31.22600000
 H      10.79800000      37.94400000      30.77000000
 H      10.41700000      36.49600000      30.77200000
 O      19.63100000      36.95600000      23.82800000
 H      20.13500000      37.39800000      23.10000000
 H      19.63600000      37.61200000      24.52300000
 O      10.81900000      35.29900000      34.84200000
 H      11.65500000      34.93300000      35.16000000
 H      10.46300000      34.58700000      34.31800000
 O      19.66400000      37.43400000      39.60200000
 H      20.48800000      37.99000000      39.48600000
 H      19.44200000      37.46900000      38.66300000
 O      40.28600000      40.67400000      33.61700000
 H      40.07900000      41.36900000      32.91600000
 H      39.41600000      40.71900000      34.13300000
 O      38.13600000      38.12300000      31.42500000
 H      37.37100000      37.61500000      31.11900000
 H      37.60400000      38.90400000      31.75700000
 O       7.51400000      40.30600000      22.47800000
 H       7.81000000      39.77000000      21.76400000
 H       6.69400000      40.74500000      22.09200000
 O      28.30300000      40.28400000      28.66200000
 H      28.95500000      39.76400000      29.19900000
 H      28.89200000      40.68800000      27.97600000
 O       6.53500000      39.78400000      38.24200000
 H       6.91600000      38.86000000      38.29100000
 H       6.04000000      39.73300000      39.16200000
 O      34.02000000      39.41700000      22.46900000
 H      33.74100000      39.12800000      23.35600000
 H      33.58900000      40.33400000      22.50100000
 O       8.91000000      38.56800000      24.46900000
 H       8.14100000      38.54300000      25.06900000
 H       8.57000000      39.07700000      23.71900000
 O      40.03900000      38.02400000      22.87900000
 H      39.88400000      38.97900000      23.23600000
 H      39.29100000      37.54900000      23.22200000
 O      24.44100000      35.32100000      35.60200000
 H      25.18200000      34.88900000      36.06000000
 H      24.77200000      35.25400000      34.64800000
 O      13.36200000      38.02100000      36.10300000
 H      14.15100000      38.22000000      36.56700000
 H      13.48600000      37.12400000      35.79200000
 O      20.48000000      40.60300000      35.06200000
 H      19.60100000      40.31900000      34.83700000
 H      20.93400000      39.78400000      35.31700000
 O      36.20600000      36.19900000      35.33500000
 H      35.57700000      36.74700000      34.75900000
 H      35.59400000      35.96600000      36.06900000
 O      38.80900000      38.57900000      28.68500000
 H      38.87400000      38.06300000      29.56100000
 H      37.88700000      38.87200000      28.84100000
 O       7.92500000      36.19000000      21.97900000
 H       7.55000000      35.37100000      21.51500000
 H       7.71400000      35.99900000      22.89700000
 O      37.18200000      38.55200000      23.71300000
 H      37.20700000      38.70000000      24.67100000
 H      36.59300000      39.29000000      23.45700000
 O       5.29000000      39.67700000      40.47500000
 H       4.38500000      40.00200000      40.64300000
 H       5.30000000      39.00800000      41.21700000
 O      32.42600000      40.54700000      29.79100000
 H      33.23700000      40.73700000      30.19900000
 H      32.16500000      41.44400000      29.45100000
 O      16.87600000      38.81300000      27.23500000
 H      17.40300000      39.12500000      28.04000000
 H      15.96500000      39.10200000      27.51800000
 O      29.78500000      39.03800000      35.22800000
 H      29.34700000      39.64700000      34.56700000
 H      30.67800000      39.41900000      35.26300000
 O       9.96100000      38.48300000      36.38900000
 H      10.42000000      38.25400000      35.53300000
 H       9.11100000      38.83800000      35.97700000
 O      35.73800000      36.67100000      30.70200000
 H      34.76900000      36.92200000      30.76900000
 H      35.76600000      35.85100000      31.23700000
 O      15.52900000      38.41100000      21.15200000
 H      15.71200000      37.67200000      21.86400000
 H      15.34200000      39.09400000      21.80000000
 O      30.37200000      36.08100000      32.03400000
 H      29.51300000      36.57800000      31.95700000
 H      30.17700000      35.42200000      31.32600000
 O      22.05400000      38.68100000      39.64500000
 H      22.70900000      37.93200000      39.39000000
 H      22.30300000      38.70300000      40.61300000
 O       3.80800000      40.33200000      37.23300000
 H       4.12600000      39.75700000      37.93800000
 H       3.83500000      39.61900000      36.48700000
 O      26.06500000      37.06600000      39.78800000
 H      25.95400000      37.77400000      39.15300000
 H      27.02600000      36.95700000      39.69100000
 O      17.45100000      39.34000000      38.84300000
 H      17.27600000      39.82200000      39.63800000
 H      18.37200000      38.98400000      39.04600000
 O      21.99400000      37.99300000      32.53600000
 H      21.93000000      38.77900000      31.93600000
 H      22.95700000      37.81600000      32.40000000
 O       7.62700000      34.72000000      27.88900000
 H       7.66700000      33.77400000      28.20600000
 H       8.56400000      34.96600000      28.16400000
 O      33.41100000      39.04200000      27.69100000
 H      33.35200000      39.59400000      26.87000000
 H      32.96900000      39.69100000      28.29900000
 O       2.72400000      39.34500000      26.54600000
 H       1.95200000      39.69000000      27.03800000
 H       3.36000000      39.18500000      27.23500000
 O      15.46400000      35.74600000      29.29100000
 H      14.76900000      36.36300000      29.71200000
 H      15.78200000      35.28400000      30.11600000
 O      38.41700000      35.77400000      24.66100000
 H      37.67700000      36.17700000      24.20500000
 H      38.75200000      35.15200000      23.97300000
 O      23.23600000      37.88600000      28.73600000
 H      23.48200000      36.97700000      28.50500000
 H      24.12200000      38.30800000      28.66900000
 O      20.94400000      34.82700000      25.09000000
 H      20.63500000      35.64000000      24.63300000
 H      21.89900000      35.11600000      25.23600000
 O      24.32900000      34.96000000      20.80500000
 H      23.41500000      35.01300000      20.37100000
 H      24.03700000      34.51000000      21.62600000
 O       6.46600000      38.20300000      26.49700000
 H       7.13800000      38.52700000      27.19800000
 H       5.66400000      38.30900000      27.10300000
 O      37.85600000      40.41000000      20.97300000
 H      37.34600000      40.91800000      21.63000000
 H      37.39700000      39.52900000      21.02300000
 O      22.05700000      40.32600000      25.71900000
 H      21.33300000      39.67700000      25.77300000
 H      21.95000000      40.63200000      24.83000000
 O      36.82600000      35.59300000      21.66300000
 H      36.71800000      35.45600000      20.71000000
 H      36.79600000      36.54800000      21.77700000
 O       0.92100000      40.22300000      28.22200000
 H       0.46500000      40.94200000      28.61600000
 H       0.34600000      39.44800000      28.38400000
 O      14.80200000      43.51200000      38.38500000
 H      15.52200000      43.00500000      37.97000000
 H      15.01000000      43.18800000      39.35500000
 O       7.01500000      46.66500000      23.75000000
 H       7.56300000      45.87700000      23.47700000
 H       6.10600000      46.35400000      23.62200000
 O      19.84800000      43.14300000      30.86100000
 H      19.39800000      43.62700000      30.14400000
 H      19.82000000      43.78700000      31.58700000
 O       6.29200000      49.12400000      21.25400000
 H       5.66100000      48.38800000      21.50700000
 H       6.11300000      49.14000000      20.29900000
 O      33.28200000      47.15900000      34.49000000
 H      32.93100000      48.06600000      34.30000000
 H      32.40000000      46.68500000      34.66700000
 O      15.79500000      42.62100000      40.73600000
 H      15.95400000      42.86400000      41.62400000
 H      15.29600000      41.77500000      40.88300000
 O      24.63700000      49.24400000      23.51600000
 H      23.98500000      48.48600000      23.67900000
 H      24.24600000      49.60500000      22.68000000
 O      16.08500000      48.08200000      36.13100000
 H      16.99200000      48.46900000      35.83300000
 H      16.11800000      47.22700000      35.62100000
 O      14.34000000      48.42100000      33.81000000
 H      15.10500000      47.77000000      33.78600000
 H      13.70000000      47.89800000      34.29500000
 O      19.72300000      46.41700000      38.68100000
 H      18.75900000      46.49500000      38.91400000
 H      19.72100000      45.49800000      38.23100000
 O      21.18100000      44.01000000      27.50500000
 H      21.66500000      43.23600000      27.22100000
 H      20.28100000      43.73600000      27.28400000
 O      36.15600000      43.22200000      23.07300000
 H      35.89400000      43.71900000      22.26400000
 H      36.23800000      43.95600000      23.74500000
 O      29.05300000      43.07700000      20.02800000
 H      29.46600000      42.78600000      20.87700000
 H      28.97100000      42.15000000      19.66000000
 O      40.36400000      46.71800000      31.62700000
 H      40.77900000      46.91800000      30.74500000
 H      39.77800000      47.53000000      31.73700000
 O       3.71800000      43.34700000      33.43500000
 H       4.08300000      43.92600000      32.71900000
 H       3.31300000      42.69900000      32.88600000
 O       5.39200000      42.83900000      29.43000000
 H       6.07500000      42.97600000      28.79400000
 H       5.10100000      41.91300000      29.05200000
 O      16.06300000      42.74000000      30.10500000
 H      16.09400000      43.22200000      29.28100000
 H      16.74700000      42.11300000      29.92600000
 O      28.81200000      43.67600000      39.95900000
 H      28.54900000      43.39200000      39.09300000
 H      28.91200000      44.65700000      39.77800000
 O      31.99000000      48.87300000      26.82500000
 H      32.02900000      47.90400000      26.60900000
 H      31.79800000      48.82800000      27.76100000
 O      22.98600000      46.51400000      34.41600000
 H      23.81600000      46.06300000      34.75100000
 H      22.98500000      46.01800000      33.53400000
 O      25.23300000      47.56100000      29.98800000
 H      25.31200000      48.34200000      30.60100000
 H      26.00800000      47.05000000      30.33400000
 O      22.57900000      47.42600000      30.24100000
 H      23.58000000      47.46300000      30.26200000
 H      22.47100000      46.61000000      30.79100000
 O      20.73000000      47.49000000      21.55700000
 H      20.63500000      48.30500000      21.01500000
 H      19.74700000      47.21200000      21.52900000
 O      24.17800000      42.79800000      29.00400000
 H      24.63500000      41.92300000      28.87100000
 H      24.55300000      43.00500000      29.85500000
 O      26.65300000      46.99100000      39.48600000
 H      26.98700000      47.40800000      40.29600000
 H      26.18300000      46.19600000      39.95200000
 O      20.29200000      46.18900000      35.02900000
 H      21.16500000      46.21000000      34.66600000
 H      20.44400000      45.48400000      35.71700000
 O      22.31900000      43.02300000      33.35300000
 H      21.83600000      43.03300000      34.21500000
 H      21.91500000      42.31600000      32.86700000
 O      23.00000000      45.43400000      32.00400000
 H      23.86900000      45.19800000      31.65400000
 H      22.90600000      44.58600000      32.55200000
 O       3.13000000      44.47400000      27.97400000
 H       3.88900000      44.82400000      28.48300000
 H       3.61600000      44.08300000      27.19300000
 O      26.01300000      45.36400000      33.39700000
 H      26.88500000      45.48500000      33.70300000
 H      25.56400000      44.95500000      34.20100000
 O      18.10000000      47.22200000      26.99900000
 H      18.17500000      46.34800000      27.48700000
 H      17.91500000      46.88900000      26.09900000
 O      14.20800000      43.75800000      31.87100000
 H      14.47600000      43.45600000      32.76100000
 H      14.76500000      43.15200000      31.34300000
 O      24.93000000      47.56100000      37.41000000
 H      25.43500000      47.42900000      38.30200000
 H      25.71700000      47.60100000      36.82900000
 O      22.45300000      49.07900000      34.48900000
 H      23.27400000      49.29600000      34.92500000
 H      22.52800000      48.08000000      34.37100000
 O      18.43500000      48.48800000      34.93600000
 H      19.15800000      49.16000000      35.23400000
 H      18.99200000      47.69600000      35.04500000
 O      34.62000000      47.12900000      32.14000000
 H      34.54300000      48.07300000      31.88900000
 H      34.21100000      47.21200000      33.05400000
 O      23.94400000      44.64600000      27.17800000
 H      24.18300000      43.79000000      27.60200000
 H      22.98500000      44.64900000      27.40200000
 O       6.37100000      44.31800000      38.00400000
 H       6.54400000      43.36800000      37.88700000
 H       6.11500000      44.34800000      38.93600000
 O      30.60500000      45.66600000      29.97500000
 H      31.04400000      45.03400000      29.25800000
 H      30.17800000      46.27700000      29.34900000
 O       4.50000000      45.69100000      23.57500000
 H       3.91100000      45.64000000      24.34900000
 H       4.50200000      44.78600000      23.23400000
 O      40.19900000      44.10600000      31.66500000
 H      40.93000000      43.95900000      31.07600000
 H      40.42300000      45.06800000      31.95200000
 O      14.47100000      42.88900000      34.44400000
 H      13.64800000      43.05100000      34.88800000
 H      15.10500000      42.68500000      35.13900000
 O      40.73400000      45.69100000      36.22300000
 H      41.40100000      45.39900000      36.86000000
 H      41.27500000      46.19300000      35.59700000
 O      11.16700000      46.20500000      28.79500000
 H      11.11600000      46.35900000      29.80500000
 H      10.46600000      45.52000000      28.76500000
 O      28.69600000      48.53100000      25.97900000
 H      29.59900000      48.93100000      25.73700000
 H      28.12400000      49.23600000      25.72400000
 O      31.30600000      45.47000000      37.35300000
 H      31.70000000      46.34900000      37.32300000
 H      30.43300000      45.71600000      37.70400000
 O       8.90600000      44.76900000      36.32700000
 H       8.46100000      45.34900000      35.66200000
 H       8.11200000      44.47600000      36.84400000
 O      27.56600000      46.71500000      31.21000000
 H      27.28200000      45.96500000      31.72100000
 H      28.16600000      46.35800000      30.53500000
 O      28.11100000      45.24400000      35.11800000
 H      28.93000000      45.67600000      34.68300000
 H      28.25700000      45.61200000      36.02300000
 O      20.68600000      49.27200000      39.68100000
 H      19.85600000      49.71000000      39.42400000
 H      20.61300000      48.41500000      39.28100000
 O      34.07000000      46.45500000      28.08000000
 H      33.70200000      46.05400000      28.88300000
 H      33.24600000      46.48000000      27.52700000
 O      30.10600000      46.18800000      40.19300000
 H      30.92900000      45.67800000      40.13100000
 H      30.43900000      46.99100000      40.62600000
 O      29.89800000      43.21000000      26.45300000
 H      30.49000000      42.58500000      26.06900000
 H      29.43100000      43.55200000      25.71100000
 O      37.94900000      45.98800000      26.87100000
 H      38.89700000      45.81100000      26.96400000
 H      37.82400000      46.60600000      27.61800000
 O      22.00400000      46.41400000      40.24500000
 H      21.11400000      46.47000000      39.74800000
 H      21.55400000      45.93800000      41.05200000
 O      27.54900000      45.66100000      21.85300000
 H      27.55900000      45.37200000      20.88700000
 H      26.60200000      45.89200000      21.93900000
 O      25.12500000      43.34300000      31.42100000
 H      24.97000000      43.02500000      32.30800000
 H      26.12100000      43.30700000      31.40500000
 O       2.54800000      43.63700000      30.67600000
 H       2.75700000      42.62500000      30.72800000
 H       2.65300000      43.76600000      29.70200000
 O      24.90800000      46.00600000      21.89200000
 H      24.18500000      46.33600000      22.44000000
 H      24.55500000      45.26200000      21.42800000
 O      33.46200000      45.82000000      40.06300000
 H      34.13800000      45.99300000      39.34900000
 H      33.99300000      45.04200000      40.53800000
 O      12.85900000      49.11100000      24.05700000
 H      13.29500000      48.42100000      23.49100000
 H      12.07800000      48.66600000      24.43800000
 O      27.83600000      42.88600000      37.01500000
 H      28.18600000      42.26400000      36.28700000
 H      27.23100000      43.42500000      36.50500000
 O       5.73000000      44.65800000      26.26800000
 H       5.66000000      44.27700000      25.41500000
 H       6.51300000      44.19000000      26.65100000
 O      11.85200000      45.31500000      24.89900000
 H      12.84700000      45.52200000      24.93300000
 H      11.53600000      46.07600000      25.38600000
 O      37.18900000      46.31400000      39.33700000
 H      37.63200000      46.32100000      40.26000000
 H      37.74300000      45.55900000      38.98500000
 O      37.83800000      42.61600000      34.97900000
 H      37.85000000      41.96500000      35.74000000
 H      37.13500000      42.19400000      34.43600000
 O      11.44800000      43.13900000      39.90400000
 H      10.47100000      43.26800000      39.84900000
 H      11.55100000      42.60200000      39.09900000
 O      37.86100000      42.73300000      26.35700000
 H      36.97400000      43.06000000      26.44000000
 H      38.11900000      42.84100000      27.29100000
 O       1.44400000      43.22400000      21.40100000
 H       1.81700000      43.00200000      22.29100000
 H       1.81700000      44.14000000      21.26000000
 O      10.90600000      49.55000000      39.18200000
 H      10.69000000      48.59300000      38.96000000
 H      10.55400000      49.58000000      40.08900000
 O       1.68200000      45.51200000      25.77800000
 H       2.19700000      45.60200000      26.61500000
 H       2.14000000      44.76900000      25.37000000
 O       8.58700000      48.52600000      29.04700000
 H       8.46400000      47.55700000      28.94400000
 H       8.75200000      48.55200000      30.05600000
 O      20.77800000      42.70900000      22.94700000
 H      20.74700000      41.91800000      22.40600000
 H      21.57800000      43.16000000      22.64500000
 O       9.76600000      43.77500000      29.19200000
 H      10.56500000      43.58200000      29.73400000
 H      10.11300000      43.54500000      28.27200000
 O      29.10900000      47.53300000      28.62100000
 H      28.90600000      47.75600000      27.64400000
 H      28.57900000      48.21000000      29.06900000
 O      23.39000000      45.28000000      38.30000000
 H      23.88600000      46.06000000      38.07000000
 H      22.82000000      45.72400000      39.05800000
 O      18.10400000      46.83900000      21.67900000
 H      17.76600000      46.25900000      20.95700000
 H      17.53200000      47.65900000      21.50800000
 O      28.86400000      44.40900000      24.26200000
 H      28.93400000      43.94500000      23.37900000
 H      28.18600000      45.05800000      24.09900000
 O      37.94300000      42.68500000      39.43000000
 H      38.38400000      43.38100000      38.93700000
 H      37.02300000      42.66800000      39.06600000
 O       7.08400000      43.24500000      33.98100000
 H       7.00900000      44.18300000      34.35600000
 H       6.74900000      43.36500000      33.09500000
 O      23.78100000      42.85200000      39.44800000
 H      23.51700000      43.60900000      38.84100000
 H      23.08200000      42.26300000      39.19400000
 O      17.30500000      43.31900000      32.81900000
 H      17.04700000      43.48600000      31.90500000
 H      18.06200000      43.89200000      32.95200000
 O      32.09000000      46.26900000      26.14500000
 H      31.39200000      45.79500000      25.61500000
 H      32.79900000      46.23500000      25.49800000
 O       5.95100000      47.21500000      26.97200000
 H       5.80200000      47.07900000      27.90000000
 H       5.72500000      46.33600000      26.61500000
 O      26.02700000      48.61200000      20.92600000
 H      25.79700000      48.03300000      21.67400000
 H      25.41200000      48.35000000      20.21100000
 O      30.78700000      44.93100000      32.66600000
 H      30.57700000      45.66100000      33.23600000
 H      30.50800000      45.23200000      31.81100000
 O      11.30700000      43.59800000      22.95100000
 H      11.64300000      43.83400000      22.05200000
 H      11.73500000      44.32100000      23.50300000
 O      27.86100000      43.63000000      30.76200000
 H      27.79800000      42.91900000      30.12200000
 H      28.52300000      44.19000000      30.37200000
 O      35.44800000      44.01500000      26.55000000
 H      35.18800000      43.92000000      27.47400000
 H      35.72200000      44.93200000      26.51800000
 O      30.05400000      46.93200000      34.42400000
 H      29.75800000      47.28900000      35.28200000
 H      29.78900000      47.67800000      33.80000000
 O      16.64200000      45.54700000      38.98600000
 H      17.06300000      44.93400000      39.60900000
 H      15.95300000      44.92000000      38.63200000
 O      17.01500000      48.08500000      39.06900000
 H      16.65200000      47.15500000      39.13600000
 H      16.68800000      48.28500000      38.16800000
 O      38.84400000      48.44700000      35.96400000
 H      38.63200000      47.56800000      36.10400000
 H      38.86300000      48.63900000      35.02400000
 O      37.03000000      46.68900000      30.81500000
 H      37.61100000      47.44600000      31.15600000
 H      36.24400000      46.87700000      31.38000000
 O       4.40300000      49.17700000      37.92600000
 H       3.79500000      49.32500000      38.66500000
 H       4.27100000      48.23600000      37.82300000
 O       5.23500000      44.77000000      31.41900000
 H       5.10200000      43.98000000      30.80900000
 H       4.73600000      45.41700000      30.92500000
 O       1.48100000      47.56100000      20.86200000
 H       1.48200000      48.20000000      21.61400000
 H       0.60700000      47.19800000      20.91200000
 O       5.45800000      42.74700000      24.09700000
 H       6.32400000      42.39300000      24.01400000
 H       4.96600000      41.91300000      24.27500000
 O      25.34100000      44.23100000      24.84900000
 H      25.85900000      45.11100000      24.66700000
 H      24.86600000      44.55700000      25.64400000
 O      32.89300000      43.39000000      22.80000000
 H      33.29300000      44.20500000      23.17200000
 H      32.09100000      43.63600000      22.42100000
 O      25.24300000      47.19500000      27.31500000
 H      25.07900000      47.44300000      28.28100000
 H      24.94700000      46.22400000      27.41000000
 O       6.76900000      47.35200000      32.21200000
 H       6.68900000      46.86400000      31.37600000
 H       7.56800000      47.89100000      31.96200000
 O       3.80500000      47.59000000      22.07100000
 H       3.14400000      47.25900000      21.42300000
 H       3.98100000      46.71500000      22.51900000
 O      13.79900000      45.49500000      28.43000000
 H      12.82300000      45.61600000      28.40500000
 H      14.03900000      46.17000000      27.80800000
 O      32.45600000      43.19600000      35.87000000
 H      33.23800000      42.86100000      36.37400000
 H      32.18400000      43.90700000      36.47300000
 O      34.47600000      46.73200000      36.79300000
 H      34.13600000      46.80100000      35.87500000
 H      35.15900000      47.44100000      36.79900000
 O      38.30600000      43.22900000      28.80000000
 H      37.82400000      43.25600000      29.65800000
 H      38.90700000      43.96800000      28.90000000
 O      18.55400000      43.62800000      26.99400000
 H      17.63100000      43.79600000      27.13500000
 H      18.58000000      43.45700000      26.04200000
 O      22.96100000      47.08100000      23.25200000
 H      22.55600000      46.47700000      23.91800000
 H      22.15400000      47.09100000      22.64300000
 O      11.79200000      42.91500000      30.59400000
 H      11.59300000      42.97200000      31.55700000
 H      12.66500000      43.31200000      30.54200000
 O      31.84500000      44.28800000      28.11200000
 H      32.10100000      45.05900000      27.46700000
 H      31.17400000      43.90200000      27.53100000
 O      39.23700000      45.85100000      21.36200000
 H      39.05400000      46.25200000      22.21000000
 H      39.71100000      45.02000000      21.64600000
 O      10.57700000      43.17500000      26.76700000
 H      11.12900000      43.73100000      26.08700000
 H      11.10900000      42.36300000      26.71900000
 O      36.57000000      48.50700000      38.06500000
 H      36.94700000      47.73900000      38.58500000
 H      37.15100000      48.55200000      37.31200000
 O      17.19200000      45.95100000      24.47400000
 H      17.61700000      45.08600000      24.27400000
 H      17.57600000      46.54700000      23.77500000
 O       7.48000000      48.01900000      38.16000000
 H       6.60500000      47.91200000      37.69900000
 H       7.15600000      47.85700000      39.08300000
 O      13.33500000      49.42800000      40.63400000
 H      12.56000000      49.23700000      40.04200000
 H      13.37000000      48.61400000      41.15800000
 O      33.73400000      45.08300000      30.79200000
 H      34.14900000      45.81500000      31.31000000
 H      32.89800000      45.02100000      31.25200000
 O       5.98000000      44.12300000      40.47200000
 H       5.97200000      43.18900000      40.72900000
 H       5.27200000      44.46600000      41.11800000
 O      19.13000000      48.17000000      30.26200000
 H      19.87500000      48.69900000      30.53200000
 H      18.49900000      48.87200000      30.00500000
 O      33.35200000      42.66300000      25.83400000
 H      34.15600000      43.13200000      25.89000000
 H      33.10200000      42.66200000      24.90100000
 O      40.87200000      47.40900000      29.14600000
 H      40.30900000      47.80300000      28.44200000
 H      41.22400000      48.22600000      29.54400000
 O       6.49300000      46.94300000      40.54600000
 H       6.44400000      46.21700000      41.16900000
 H       5.51500000      47.09400000      40.35700000
 O       4.03200000      46.79600000      29.50100000
 H       3.10200000      47.10600000      29.25500000
 H       4.46500000      47.73600000      29.43400000
 O       5.43300000      42.92100000      21.09400000
 H       4.75900000      42.31400000      21.49500000
 H       4.78400000      43.56800000      20.71700000
 O      28.64000000      46.78900000      37.58200000
 H      28.95000000      47.71000000      37.61600000
 H      27.86600000      46.84400000      38.20300000
 O       5.21200000      46.62100000      37.16100000
 H       5.62700000      45.81400000      37.59000000
 H       4.42600000      46.14400000      36.76600000
 O       9.31600000      44.22500000      32.71300000
 H       9.76600000      43.30700000      32.61300000
 H       8.65700000      44.04000000      33.34400000
 O      14.12800000      43.07300000      21.28600000
 H      13.96000000      42.34100000      21.94400000
 H      15.09400000      43.17100000      21.55700000
 O      35.09500000      44.54900000      20.87300000
 H      34.37600000      44.21100000      20.30500000
 H      35.05200000      45.50500000      20.74300000
 O      24.32800000      44.40900000      35.57200000
 H      24.26000000      43.46200000      35.65700000
 H      23.85100000      44.59700000      36.45000000
 O       2.51800000      43.20000000      24.61600000
 H       2.66600000      42.42000000      25.21200000
 H       1.61700000      42.96700000      24.28100000
 O       4.12400000      48.47600000      32.51600000
 H       4.92500000      47.99400000      32.14200000
 H       3.77900000      48.94600000      31.75100000
 O      29.50100000      47.78000000      21.74500000
 H      28.89200000      47.08800000      22.09900000
 H      28.97200000      48.03300000      20.96300000
 O       6.48400000      49.10300000      25.25000000
 H       6.05900000      48.55600000      25.90700000
 H       6.74000000      48.36900000      24.61400000
 O      37.47700000      44.02700000      31.25400000
 H      38.45100000      43.98200000      31.54500000
 H      37.39400000      44.99500000      31.45200000
 O       8.73300000      44.74600000      23.13600000
 H       9.66300000      44.36300000      23.41500000
 H       8.32400000      43.90800000      22.94800000
 O      35.46700000      44.02200000      29.27400000
 H      34.82700000      44.50700000      29.79400000
 H      36.22500000      44.17800000      29.84700000
 O       7.27100000      45.76400000      30.14200000
 H       6.64000000      45.14300000      30.54900000
 H       7.82500000      45.23900000      29.60900000
 O      14.08900000      47.23000000      22.28100000
 H      13.13000000      47.01300000      22.07400000
 H      14.57600000      46.65200000      21.74100000
 O      15.12200000      47.60400000      27.13600000
 H      16.05600000      47.78600000      27.02400000
 H      14.70000000      48.35900000      26.74800000
 O      15.49600000      43.66000000      27.34500000
 H      15.21000000      43.54500000      26.42100000
 H      14.85600000      44.33500000      27.68300000
 O       8.95500000      48.23400000      22.45900000
 H       8.35900000      48.70600000      21.82800000
 H       8.22600000      47.85900000      23.03700000
 O       7.03900000      45.83900000      34.69100000
 H       6.44100000      46.34300000      35.35000000
 H       6.73100000      46.14900000      33.86000000
 O      15.90100000      45.85800000      34.54000000
 H      16.46200000      46.08100000      33.73200000
 H      15.63000000      44.98200000      34.36400000
 O      12.15200000      46.26300000      34.72300000
 H      12.44000000      46.53200000      35.61900000
 H      11.88400000      45.34900000      34.89800000
 O      18.03000000      45.55200000      29.59000000
 H      17.39100000      45.55200000      30.31600000
 H      18.53400000      46.38500000      29.65200000
 O      39.52200000      47.28800000      24.47700000
 H      39.86800000      47.90600000      23.78400000
 H      40.43000000      47.00000000      24.80300000
 O      38.65700000      44.56400000      37.07900000
 H      38.39900000      44.08000000      36.25600000
 H      39.34200000      45.14600000      36.68000000
 O      18.36500000      43.33300000      24.19600000
 H      19.32300000      43.33400000      23.91700000
 H      18.14000000      42.36800000      24.15800000
 O      12.49200000      47.30500000      37.48400000
 H      12.64200000      46.63100000      38.14400000
 H      11.54600000      47.52700000      37.57900000
 O       3.33800000      44.71700000      36.00900000
 H       3.24300000      44.75000000      35.04900000
 H       3.42000000      43.75100000      36.18000000
 O      14.39400000      45.62600000      25.25500000
 H      15.21900000      45.75600000      24.73200000
 H      14.53100000      46.30900000      25.93300000
 O      21.00000000      47.94100000      27.92000000
 H      20.09100000      47.97900000      28.28200000
 H      21.52400000      47.69200000      28.70400000
 O      10.89500000      45.93200000      31.52700000
 H      10.26500000      45.37400000      32.09000000
 H      11.50200000      46.23300000      32.25200000
 O       1.93200000      47.50100000      33.93100000
 H       1.69300000      47.11900000      33.09400000
 H       2.84300000      47.79300000      33.78700000
 O      25.61900000      44.81600000      40.71100000
 H      25.71100000      44.11600000      41.46700000
 H      24.77800000      44.45800000      40.40800000
 O      11.34500000      43.76600000      35.75400000
 H      11.68800000      43.13900000      36.48600000
 H      10.47800000      44.08200000      36.18300000
 O      10.72800000      48.58900000      33.61000000
 H      11.17100000      47.79800000      33.92100000
 H      10.13700000      48.82600000      34.42000000
 O      19.83700000      43.00200000      40.19400000
 H      20.72300000      42.59400000      40.42000000
 H      19.52000000      43.35700000      41.01600000
 O      19.34200000      45.02900000      32.90500000
 H      19.52300000      45.86200000      32.45900000
 H      19.39700000      45.28800000      33.85000000
 O      40.55600000      44.81000000      28.78800000
 H      41.41300000      44.53200000      28.47100000
 H      40.71600000      45.73300000      29.00700000
 O      11.42700000      47.20000000      21.87700000
 H      11.18300000      46.38600000      21.44500000
 H      10.52000000      47.55700000      22.08200000
 O      16.64900000      43.11700000      21.83800000
 H      16.62100000      42.85900000      22.77000000
 H      17.60800000      43.19600000      21.59800000
 O      33.88800000      45.86100000      23.66500000
 H      34.76900000      46.14800000      24.03700000
 H      33.60100000      46.62400000      23.19600000
 O      26.98400000      46.45500000      25.41500000
 H      26.32900000      46.68600000      26.12300000
 H      27.63700000      47.08400000      25.48300000
 O      12.86300000      45.33900000      39.09900000
 H      13.60100000      44.87200000      38.67600000
 H      12.39500000      44.53100000      39.45200000
 O       9.26300000      48.93600000      35.70700000
 H       8.39300000      49.22800000      35.26800000
 H       8.96000000      48.22800000      36.25800000
 O      39.31700000      48.41500000      27.22400000
 H      40.19500000      48.77300000      27.01700000
 H      39.01700000      48.05700000      26.41600000
 O      36.23300000      46.95300000      24.94400000
 H      36.93900000      46.78000000      25.63700000
 H      36.38900000      47.91300000      24.71100000
 O      38.46000000      44.58000000      24.13200000
 H      38.31100000      45.51700000      24.17700000
 H      38.14200000      44.25900000      24.99700000
 O       7.51300000      43.06700000      27.59400000
 H       7.82100000      42.14100000      27.45200000
 H       8.20900000      43.39800000      28.21100000
 O      29.13900000      48.80800000      32.36300000
 H      28.20000000      48.50900000      32.12700000
 H      29.45600000      48.89100000      31.42800000
 O      19.78000000      43.94000000      37.70800000
 H      19.60500000      43.38300000      38.48400000
 H      19.90400000      43.24500000      37.02100000
 O       9.80800000      46.79300000      38.26800000
 H       9.65500000      45.98800000      37.70200000
 H       8.98100000      47.27900000      38.19800000
 O      32.48500000      47.66500000      22.16700000
 H      32.65800000      48.54200000      21.76500000
 H      31.46600000      47.72700000      22.11100000
 O      10.95700000      47.47400000      26.25800000
 H      10.14800000      47.92800000      26.25900000
 H      11.12400000      47.24400000      27.19000000
 O       8.84000000      43.45500000      39.63100000
 H       8.20200000      44.15900000      39.64600000
 H       8.36500000      42.81200000      40.21600000
 O      35.74100000      44.39100000      37.50300000
 H      35.23400000      45.24300000      37.38800000
 H      36.67700000      44.80800000      37.41500000
 O      21.18500000      45.85300000      25.18000000
 H      21.06200000      45.00800000      25.71800000
 H      21.33900000      46.47400000      25.87500000
 O      36.03500000      48.04200000      28.55800000
 H      36.46100000      47.45900000      29.22600000
 H      35.36100000      47.41900000      28.18100000
 O      17.03300000      46.67600000      32.39700000
 H      16.17200000      46.71400000      31.88800000
 H      17.40400000      47.55600000      32.19300000
 O      23.29100000      43.69400000      21.33200000
 H      22.53600000      43.98500000      20.76700000
 H      23.89500000      43.46700000      20.55700000
 O      14.85100000      46.25800000      30.86700000
 H      14.43600000      46.03300000      30.00000000
 H      14.48700000      45.45800000      31.35300000
