705
XYZ file of cluster: frame_15000_9c8ca.7c7.c451f - created by MolEdiTo
 O      37.15000000      22.08500000      35.60500000
 H      36.78200000      22.98100000      35.76300000
 H      38.08800000      22.22900000      35.82900000
 O      40.89700000      39.55500000      39.29800000
 H      40.81300000      39.86100000      38.35700000
 H      40.16400000      39.99300000      39.71500000
 O      35.51300000      33.01100000      40.47100000
 H      34.88300000      32.39400000      40.98200000
 H      35.76900000      32.41700000      39.79700000
 O      38.26100000      34.66900000      34.46700000
 H      37.57800000      35.24800000      34.79400000
 H      38.98900000      35.28400000      34.29900000
 O      28.42100000      37.26300000      36.61000000
 H      28.97700000      37.83600000      35.98000000
 H      28.80800000      37.51000000      37.45300000
 O      36.95400000      31.83800000      35.89800000
 H      37.86400000      31.71700000      35.43800000
 H      36.83700000      32.79300000      35.62000000
 O      38.81900000      14.79600000      40.61500000
 H      39.20300000      14.06700000      40.07300000
 H      38.85600000      14.41900000      41.49900000
 O      37.65400000      36.72100000      40.04600000
 H      38.18500000      36.14800000      39.48400000
 H      37.87000000      36.40000000      40.95000000
 O      30.52200000      14.14100000      38.92300000
 H      29.59300000      14.18200000      38.68500000
 H      30.41400000      13.42100000      39.67400000
 O      32.91400000      29.31700000      34.95700000
 H      33.34600000      30.07700000      34.45800000
 H      33.00100000      29.69200000      35.87300000
 O      39.70500000      18.33600000      39.01200000
 H      40.64100000      18.72500000      39.07300000
 H      39.40000000      18.95300000      38.29700000
 O      28.82000000      36.79100000      39.91800000
 H      29.42100000      36.06400000      40.12000000
 H      28.61800000      37.18800000      40.72700000
 O      28.93600000      19.52400000      39.42800000
 H      28.14000000      19.24400000      38.92200000
 H      29.60200000      19.00200000      39.00000000
 O      28.81200000       1.99400000      39.95900000
 H      28.54900000       1.71000000      39.09300000
 H      28.91200000       2.97500000      39.77800000
 O      29.91200000      31.22600000      38.42100000
 H      29.76100000      32.14300000      38.76700000
 H      29.59300000      30.70700000      39.20900000
 O      32.27300000      15.93400000      36.31700000
 H      31.97500000      15.19200000      36.87500000
 H      33.22900000      15.73000000      36.28000000
 O      28.84400000      22.55800000      36.72300000
 H      29.63000000      22.10900000      36.23800000
 H      28.33900000      22.80000000      35.86500000
 O      30.10900000      33.60900000      39.65700000
 H      30.18100000      33.99900000      40.50600000
 H      31.04700000      33.58400000      39.36600000
 O      29.86200000      25.55200000      37.54200000
 H      29.33200000      24.66300000      37.45300000
 H      29.50800000      25.98500000      36.74900000
 O      34.61600000      38.09600000      34.28700000
 H      34.25500000      38.71400000      34.92900000
 H      34.38400000      38.51200000      33.47100000
 O      30.34100000      21.74200000      40.24800000
 H      30.41300000      21.23000000      41.09700000
 H      29.61500000      21.17600000      39.89400000
 O      34.71700000      39.87900000      37.20800000
 H      35.04700000      40.77400000      37.37000000
 H      35.56300000      39.40100000      37.19100000
 O      35.65800000      30.89700000      38.36000000
 H      34.70500000      30.68900000      38.05900000
 H      35.90400000      31.42000000      37.54500000
 O      37.94500000      25.34200000      35.75300000
 H      38.66900000      24.73700000      35.61300000
 H      38.29100000      26.20700000      35.44900000
 O      30.05200000      12.36800000      40.72800000
 H      29.64400000      12.67600000      41.55600000
 H      29.66100000      11.45800000      40.59200000
 O      27.19500000      13.96700000      34.78900000
 H      28.03300000      13.56300000      34.73900000
 H      26.79300000      13.71000000      33.96300000
 O      34.39700000       8.48400000      39.32900000
 H      35.12900000       8.12700000      38.78500000
 H      34.52500000       7.88100000      40.12100000
 O      39.35100000      26.43400000      38.93100000
 H      38.55600000      25.95700000      38.80300000
 H      39.19900000      27.27600000      38.46500000
 O      31.52100000      35.77500000      36.73300000
 H      30.55200000      35.99900000      36.75000000
 H      31.56300000      35.62300000      35.73100000
 O      32.59000000      19.96200000      38.87600000
 H      32.06400000      20.62900000      39.35500000
 H      32.01000000      19.20300000      38.86400000
 O      40.73400000       4.00900000      36.22300000
 H      41.40100000       3.71700000      36.86000000
 H      41.27500000       4.51100000      35.59700000
 O      36.06900000      29.31600000      35.29800000
 H      35.35700000      29.33500000      34.60800000
 H      36.24000000      30.33000000      35.35000000
 O      40.37800000       8.23500000      38.49000000
 H      39.85700000       8.13400000      37.63200000
 H      39.69800000       8.75900000      38.95600000
 O      31.30600000       3.78800000      37.35300000
 H      31.70000000       4.66700000      37.32300000
 H      30.43300000       4.03400000      37.70400000
 O      39.81700000      13.44600000      38.53200000
 H      39.14800000      13.91000000      37.97700000
 H      40.19600000      12.75700000      37.92800000
 O      28.11100000       3.56200000      35.11800000
 H      28.93000000       3.99400000      34.68300000
 H      28.25700000       3.93000000      36.02300000
 O      40.25000000      30.39400000      38.93600000
 H      39.70900000      29.85300000      38.35300000
 H      41.03200000      30.58100000      38.30800000
 O      30.10600000       4.50600000      40.19300000
 H      30.92900000       3.99600000      40.13100000
 H      30.43900000       5.30900000      40.62600000
 O      36.61900000      14.46000000      39.14700000
 H      37.21400000      14.69200000      39.84900000
 H      36.91400000      14.98200000      38.41200000
 O      29.95600000      28.72700000      35.50400000
 H      29.34100000      28.68900000      34.70800000
 H      30.81500000      28.78700000      35.13500000
 O      32.58100000      12.88100000      36.97200000
 H      31.86300000      13.12100000      37.57700000
 H      32.83600000      11.99200000      37.28100000
 O      39.84400000      19.63200000      35.26800000
 H      39.39700000      20.34600000      35.69700000
 H      40.28700000      20.08000000      34.51700000
 O      27.88300000      31.35200000      36.03600000
 H      28.64100000      31.18200000      36.61700000
 H      28.22500000      32.08700000      35.46200000
 O      37.06700000      22.74800000      39.57800000
 H      36.82200000      23.72400000      39.45200000
 H      36.50200000      22.33600000      38.91000000
 O      31.59800000       7.69700000      39.17600000
 H      31.42400000       7.57800000      40.17900000
 H      32.56300000       8.01700000      39.29600000
 O      33.46200000       4.13800000      40.06300000
 H      34.13800000       4.31100000      39.34900000
 H      33.99300000       3.36000000      40.53800000
 O      40.89200000      40.20400000      36.24900000
 H      40.88700000      40.42300000      35.31400000
 H      41.78000000      40.50600000      36.52500000
 O      27.83600000       1.20400000      37.01500000
 H      28.18600000       0.58200000      36.28700000
 H      27.23100000       1.74300000      36.50500000
 O      34.47200000      35.98900000      37.72300000
 H      33.53800000      36.14200000      37.43900000
 H      34.49500000      36.59600000      38.44900000
 O      31.52200000      24.04400000      39.27400000
 H      30.88500000      24.30900000      38.62000000
 H      31.03400000      23.33200000      39.74300000
 O      37.18900000       4.63200000      39.33700000
 H      37.63200000       4.63900000      40.26000000
 H      37.74300000       3.87700000      38.98500000
 O      34.90400000      10.89000000      40.21400000
 H      35.58000000      11.19400000      39.57000000
 H      34.92200000       9.95100000      39.96500000
 O      37.83800000       0.93400000      34.97900000
 H      37.85000000       0.28300000      35.74000000
 H      37.13500000       0.51200000      34.43600000
 O      37.02700000      28.98000000      40.14400000
 H      36.45900000      28.38100000      40.64600000
 H      36.24600000      29.56300000      39.80000000
 O      36.81200000      16.83200000      37.13700000
 H      36.34800000      17.02600000      37.95000000
 H      36.62200000      17.68100000      36.64000000
 O      39.70400000      37.36700000      36.76200000
 H      39.58100000      37.61400000      35.79800000
 H      40.36600000      38.06700000      36.98500000
 O      29.95000000      13.59400000      34.45000000
 H      30.62200000      14.07600000      34.93300000
 H      30.30700000      13.51400000      33.56400000
 O      37.94300000       1.00300000      39.43000000
 H      38.38400000       1.69900000      38.93700000
 H      37.02300000       0.98600000      39.06600000
 O      28.70300000      33.87600000      34.90000000
 H      29.50500000      34.08800000      34.43100000
 H      28.04900000      34.30900000      34.32700000
 O      30.26800000      10.26300000      38.45000000
 H      30.37500000       9.35000000      38.85700000
 H      31.04900000      10.28200000      37.90900000
 O      34.65200000      27.02800000      37.84500000
 H      33.77000000      27.38000000      38.12900000
 H      34.81600000      27.59400000      37.05100000
 O      38.17000000      28.71100000      37.75400000
 H      37.46800000      29.03400000      37.19200000
 H      37.74700000      28.72800000      38.66200000
 O      40.27600000      34.55900000      37.49500000
 H      39.96500000      35.50800000      37.40200000
 H      41.10600000      34.58900000      36.98200000
 O      38.00300000      11.73600000      35.67400000
 H      38.90900000      11.41100000      35.44800000
 H      37.62200000      11.92300000      34.77300000
 O      40.85500000      14.54000000      35.26800000
 H      41.78400000      14.30700000      35.50700000
 H      40.61000000      15.09300000      36.03300000
 O      30.05400000       5.25000000      34.42400000
 H      29.75800000       5.60700000      35.28200000
 H      29.78900000       5.99600000      33.80000000
 O      33.16000000      33.77800000      38.75700000
 H      33.82200000      33.54900000      39.39400000
 H      33.39300000      34.72300000      38.54200000
 O      38.84400000       6.76500000      35.96400000
 H      38.63200000       5.88600000      36.10400000
 H      38.86300000       6.95700000      35.02400000
 O      35.74100000      17.33000000      39.40900000
 H      35.90800000      17.96400000      40.13000000
 H      35.42900000      16.58600000      39.95900000
 O      34.96700000      21.21800000      37.83200000
 H      34.16200000      20.95700000      38.33900000
 H      34.67700000      22.20600000      37.74300000
 O      40.61500000      11.00800000      35.17500000
 H      40.65700000      10.03900000      35.16500000
 H      41.35300000      11.19300000      34.57200000
 O      32.25300000      28.01000000      38.57200000
 H      31.61100000      27.91700000      37.83800000
 H      31.66900000      27.78100000      39.32100000
 O      29.49200000      27.00400000      39.79500000
 H      29.44500000      26.50400000      38.97500000
 H      29.32100000      26.25300000      40.44500000
 O      33.10300000       9.96800000      36.75900000
 H      33.62700000       9.29200000      37.26200000
 H      33.00400000       9.41700000      35.88900000
 O      27.89900000      11.57000000      37.53500000
 H      27.48800000      10.82700000      38.06800000
 H      28.82200000      11.34900000      37.69100000
 O      32.45600000       1.51400000      35.87000000
 H      33.23800000       1.17900000      36.37400000
 H      32.18400000       2.22500000      36.47300000
 O      34.47600000       5.05000000      36.79300000
 H      34.13600000       5.11900000      35.87500000
 H      35.15900000       5.75900000      36.79900000
 O      30.13100000       7.06400000      36.41200000
 H      29.61400000       7.81700000      36.24700000
 H      30.73700000       7.31300000      37.14000000
 O      36.57000000       6.82500000      38.06500000
 H      36.94700000       6.05700000      38.58500000
 H      37.15100000       6.87000000      37.31200000
 O      31.34100000      20.92400000      36.00600000
 H      32.00200000      20.95700000      36.73800000
 H      31.71400000      20.10000000      35.53500000
 O      34.59900000      24.37700000      34.15400000
 H      33.96400000      25.03200000      33.89900000
 H      34.37800000      24.29300000      35.12700000
 O      39.41400000      16.08100000      37.31300000
 H      38.53600000      16.52700000      37.16100000
 H      39.65100000      16.55700000      38.13800000
 O      39.38100000      32.15100000      34.61900000
 H      39.98800000      32.36900000      35.33900000
 H      38.98600000      33.03100000      34.51900000
 O      34.77800000      37.41000000      39.97500000
 H      34.88000000      36.72500000      40.63400000
 H      35.63800000      37.84500000      39.93900000
 O      28.93900000      19.69400000      33.94900000
 H      29.78700000      19.88600000      33.49200000
 H      29.15900000      20.11400000      34.81300000
 O      36.60300000      25.87400000      39.33200000
 H      36.16400000      26.11500000      40.14900000
 H      36.04400000      26.36200000      38.65900000
 O      39.90100000      22.16500000      39.78900000
 H      40.09600000      21.87000000      40.66200000
 H      38.94600000      22.04000000      39.76400000
 O      39.91300000      32.95800000      39.80500000
 H      39.82500000      32.21900000      39.20300000
 H      40.13600000      33.66300000      39.15500000
 O      28.64000000       5.10700000      37.58200000
 H      28.95000000       6.02800000      37.61600000
 H      27.86600000       5.16200000      38.20300000
 O      39.72100000      22.95200000      35.60400000
 H      40.12000000      23.37400000      34.79400000
 H      40.40500000      22.32000000      35.80800000
 O      33.99300000      24.11900000      37.65800000
 H      34.37300000      25.01500000      37.76300000
 H      33.13400000      24.24500000      38.02500000
 O      30.55500000      17.72800000      38.56300000
 H      31.04000000      17.07600000      39.15900000
 H      30.95800000      17.46400000      37.70900000
 O      33.07800000      39.45200000      39.81200000
 H      33.46200000      39.75300000      38.96000000
 H      33.55300000      38.62600000      39.93400000
 O      37.23100000      38.68800000      36.47400000
 H      38.03900000      38.27000000      36.83400000
 H      36.88800000      37.89700000      35.99600000
 O      31.93200000      18.25700000      35.00100000
 H      32.62100000      18.36300000      34.31300000
 H      32.02600000      17.32600000      35.27100000
 O      36.01600000      19.19300000      35.95000000
 H      36.10900000      20.15800000      35.90200000
 H      35.45900000      19.09200000      36.79200000
 O      32.97900000      30.62700000      37.95600000
 H      32.12500000      31.08000000      37.99200000
 H      32.73500000      29.78300000      38.41700000
 O      34.08600000      13.18600000      34.13300000
 H      34.57900000      13.87900000      34.64000000
 H      33.68000000      12.68400000      34.87000000
 O      40.30500000      29.62900000      34.21900000
 H      41.04000000      29.82000000      34.88200000
 H      39.84500000      30.48100000      34.17500000
 O      37.76200000       9.34700000      38.97100000
 H      37.41800000      10.23100000      38.68600000
 H      37.45800000       8.73800000      38.25800000
 O      33.51700000      32.92200000      35.73900000
 H      33.35000000      33.27000000      36.66000000
 H      32.99700000      33.58900000      35.23100000
 O      38.65700000       2.88200000      37.07900000
 H      38.39900000       2.39800000      36.25600000
 H      39.34200000       3.46400000      36.68000000
 O      28.45300000      16.41500000      35.50400000
 H      28.30300000      15.43200000      35.52200000
 H      29.39600000      16.46800000      35.33400000
 O      27.28500000      28.39500000      36.46800000
 H      27.14300000      29.34100000      36.33300000
 H      28.12300000      28.35300000      36.94000000
 O      36.20600000      36.19900000      35.33500000
 H      35.57700000      36.74700000      34.75900000
 H      35.59400000      35.96600000      36.06900000
 O      32.46800000      16.18100000      40.39600000
 H      32.22800000      15.38500000      39.83100000
 H      33.31300000      15.90100000      40.87300000
 O      36.99100000       9.23100000      35.60300000
 H      37.10800000       8.97900000      34.72600000
 H      37.24900000      10.09300000      35.72100000
 O      35.50000000      15.35900000      34.95000000
 H      36.22800000      15.43300000      34.26700000
 H      35.97200000      15.73700000      35.73400000
 O      36.63700000      11.82400000      38.36700000
 H      36.63800000      12.68500000      38.84100000
 H      37.19300000      12.03900000      37.59200000
 O      29.78500000      39.03800000      35.22800000
 H      29.34700000      39.64700000      34.56700000
 H      30.67800000      39.41900000      35.26300000
 O      38.21800000      27.90400000      34.35500000
 H      37.45500000      28.34800000      34.72400000
 H      38.87500000      28.61500000      34.33200000
 O      35.74100000       2.70900000      37.50300000
 H      35.23400000       3.56100000      37.38800000
 H      36.67700000       3.12600000      37.41500000
 O      38.58200000      32.81800000      43.87400000
 H      39.05400000      32.83800000      43.01400000
 H      37.74700000      32.40400000      43.57600000
 O      38.45800000      39.16900000      42.89600000
 H      38.23300000      38.37000000      42.41700000
 H      37.85300000      39.80600000      42.48400000
 O      32.49300000      18.64400000      49.12900000
 H      32.58500000      18.08400000      48.32600000
 H      32.08500000      19.45600000      48.81300000
 O      33.10100000      37.11300000      46.07100000
 H      32.67500000      37.96400000      45.82300000
 H      33.20300000      37.20400000      47.00900000
 O      38.08700000       7.08900000      46.16200000
 H      37.67900000       6.92900000      45.31200000
 H      37.29000000       7.41900000      46.68100000
 O      39.56300000      10.21500000      45.77200000
 H      39.22100000       9.70300000      44.95800000
 H      39.13900000       9.61000000      46.42600000
 O      33.67100000      27.57500000      45.50700000
 H      33.35000000      26.60800000      45.53000000
 H      33.36500000      27.83400000      46.39600000
 O      39.23100000      39.61300000      49.16100000
 H      38.62200000      39.29100000      48.48000000
 H      39.00300000      39.07000000      49.93500000
 O      36.58100000      30.74000000      44.10600000
 H      36.41500000      29.84600000      43.79500000
 H      36.28600000      30.64700000      45.07100000
 O      28.30200000      23.41100000      46.63500000
 H      27.74600000      22.54600000      46.61400000
 H      28.99900000      23.19600000      46.00200000
 O      34.44500000      37.95300000      48.32800000
 H      34.13200000      37.46300000      49.07500000
 H      33.84300000      38.71400000      48.38400000
 O      31.53100000      21.13900000      46.68500000
 H      32.38900000      20.63400000      46.51500000
 H      31.85500000      21.96300000      47.07200000
 O      33.98700000      20.04700000      43.22000000
 H      33.76900000      19.79700000      42.30200000
 H      34.82600000      19.55400000      43.29900000
 O      30.44400000      24.22900000      45.19900000
 H      31.27000000      23.67200000      45.09600000
 H      30.83000000      25.06400000      45.55200000
 O      28.99500000      35.61000000      45.97200000
 H      28.78400000      36.47500000      46.32700000
 H      28.20500000      35.08300000      46.17000000
 O      34.00800000       4.58400000      45.29900000
 H      33.37400000       3.95300000      45.77800000
 H      33.63700000       5.39700000      45.53500000
 O      35.59900000      37.44500000      45.24000000
 H      35.53200000      36.81100000      44.48300000
 H      34.75800000      37.19200000      45.67600000
 O      37.76100000      24.52100000      48.41900000
 H      36.79400000      24.43500000      48.45600000
 H      37.88400000      25.00500000      47.59700000
 O      35.38800000      22.21200000      48.64800000
 H      34.94700000      22.19700000      49.46600000
 H      35.40700000      21.28100000      48.42500000
 O      37.32000000      32.33400000      46.29300000
 H      37.55000000      33.23300000      46.62100000
 H      37.63700000      32.39200000      45.37400000
 O      36.03200000      11.36800000      46.39600000
 H      35.74800000      12.31200000      46.57900000
 H      36.10800000      11.42300000      45.41000000
 O      36.78700000      14.51800000      44.48200000
 H      37.41400000      15.26400000      44.71900000
 H      37.45500000      13.82200000      44.40100000
 O      35.03800000       2.13400000      42.77800000
 H      34.99400000       1.48200000      42.08900000
 H      34.80900000       1.59300000      43.55400000
 O      32.97400000       7.05400000      45.34300000
 H      33.51100000       7.76700000      45.69000000
 H      32.35700000       6.88900000      46.10000000
 O      29.84000000      14.88900000      44.87400000
 H      29.57400000      15.69400000      44.39100000
 H      29.21800000      14.21800000      44.56700000
 O      32.71600000      14.16700000      45.95100000
 H      31.75400000      14.30500000      45.80100000
 H      32.92500000      13.84000000      45.02500000
 O      36.49500000      19.13300000      42.97600000
 H      37.00200000      19.90400000      43.30600000
 H      37.30200000      18.59400000      42.66400000
 O      30.51400000      40.54800000      42.94300000
 H      29.82300000      40.98000000      42.38900000
 H      31.13300000      40.28900000      42.24300000
 O      37.65600000       9.94000000      48.14200000
 H      37.05100000      10.64400000      47.74100000
 H      37.12500000       9.20000000      48.03000000
 O      29.55400000      26.36500000      47.30600000
 H      30.00400000      26.01700000      48.08800000
 H      29.02300000      25.50600000      47.06600000
 O      34.17500000      25.33000000      42.46100000
 H      34.02500000      24.43300000      42.86300000
 H      33.55400000      25.23000000      41.69900000
 O      38.61900000      34.33500000      47.72900000
 H      38.79700000      35.30500000      48.00500000
 H      38.80700000      33.95800000      48.59400000
 O      33.17400000      24.91400000      46.21200000
 H      32.64400000      24.51200000      47.00000000
 H      34.04200000      24.99500000      46.70500000
 O      37.37700000       6.94400000      43.28600000
 H      36.40500000       7.04100000      43.24400000
 H      37.66500000       7.84800000      43.22500000
 O      32.82600000       3.95200000      49.04700000
 H      32.84900000       3.40300000      48.19600000
 H      32.12100000       3.44500000      49.53000000
 O      30.50300000      20.31200000      44.08300000
 H      31.01100000      20.67400000      44.83300000
 H      29.77000000      19.88500000      44.59100000
 O      28.77500000      12.81900000      49.26600000
 H      29.43400000      13.45200000      49.65000000
 H      28.57700000      13.43800000      48.48700000
 O      29.59000000       8.82800000      49.04200000
 H      29.21400000       9.00100000      49.91800000
 H      28.74900000       8.91100000      48.50700000
 O      28.05200000      13.03800000      44.14700000
 H      27.14700000      12.88700000      43.69600000
 H      27.83800000      12.51500000      44.99600000
 O      28.96300000      24.19200000      42.96800000
 H      29.37300000      23.44400000      42.46200000
 H      29.43500000      24.05700000      43.79200000
 O      34.95400000      15.60200000      42.87900000
 H      35.08100000      14.88400000      42.20900000
 H      35.56000000      15.24800000      43.56800000
 O      32.59000000      34.84500000      44.47100000
 H      32.78100000      35.69600000      44.96800000
 H      31.72500000      35.08400000      44.09600000
 O      33.10800000      12.29200000      47.90100000
 H      32.92500000      13.13600000      47.48400000
 H      32.26900000      11.81000000      47.74100000
 O      33.13700000      12.79700000      43.00800000
 H      32.23500000      12.64400000      42.73900000
 H      33.61500000      12.10200000      42.53300000
 O      28.23000000      32.38700000      48.75900000
 H      27.50200000      33.01500000      48.44900000
 H      28.16600000      31.73300000      48.02700000
 O      35.75000000      14.12300000      47.01500000
 H      35.20100000      14.93500000      47.10500000
 H      36.00900000      14.16000000      46.06000000
 O      32.68600000      32.49900000      46.16900000
 H      32.19100000      32.69500000      47.01300000
 H      32.67600000      33.36500000      45.72900000
 O      37.83700000      30.28200000      47.82900000
 H      37.57000000      31.00100000      47.18900000
 H      37.28700000      29.53700000      47.55000000
 O      29.29800000      32.41500000      44.26800000
 H      30.04600000      31.85400000      44.29700000
 H      28.54100000      31.77400000      44.17400000
 O      40.79000000      37.86700000      47.18100000
 H      41.39600000      37.75000000      46.45300000
 H      39.95800000      38.00000000      46.65200000
 O      35.97800000      17.05500000      45.70200000
 H      35.15000000      16.92000000      46.18300000
 H      35.72900000      16.85000000      44.77900000
 O      35.59800000      19.52700000      48.31700000
 H      35.23600000      18.99500000      49.03500000
 H      36.33400000      19.03000000      48.03400000
 O      40.05900000       5.60600000      47.22700000
 H      39.34500000       6.23600000      46.98700000
 H      39.70900000       4.78400000      46.83600000
 O      35.86200000       8.00300000      47.60800000
 H      35.43100000       7.88500000      48.44900000
 H      35.08800000       8.26400000      47.06800000
 O      30.24400000      28.88300000      46.71400000
 H      30.63400000      29.39300000      47.40700000
 H      30.19900000      28.01000000      47.10700000
 O      34.03900000       9.48000000      46.34000000
 H      34.76900000      10.16000000      46.33700000
 H      33.26100000      10.09800000      46.49800000
 O      37.55500000      14.91100000      48.75700000
 H      38.14800000      14.29500000      48.22100000
 H      36.72500000      14.71100000      48.23800000
 O      39.35500000      30.01400000      42.93900000
 H      39.67900000      30.31700000      42.06500000
 H      38.37500000      30.09300000      42.73400000
 O      36.09700000      28.79200000      46.22800000
 H      35.13300000      28.55700000      46.29200000
 H      36.42500000      27.90100000      45.97200000
 O      40.49100000      33.98600000      45.71300000
 H      39.79400000      33.99100000      46.36700000
 H      40.09000000      33.41800000      45.01800000
 O      28.82400000       2.19000000      44.70500000
 H      28.58100000       2.99700000      44.20100000
 H      29.36700000       1.76800000      43.99900000
 O      39.44200000      13.64600000      47.13400000
 H      39.96300000      13.52700000      46.30100000
 H      39.63400000      12.78600000      47.55900000
 O      27.37600000       6.89600000      43.30700000
 H      27.07700000       6.34700000      44.02900000
 H      27.97600000       7.50300000      43.74400000
 O      38.96100000      13.06600000      44.14900000
 H      38.49400000      12.20000000      44.22300000
 H      39.86200000      12.74500000      44.34800000
 O      29.68800000      35.02400000      43.53900000
 H      29.49400000      34.03700000      43.76900000
 H      29.58100000      35.39100000      44.47400000
 O      38.34700000      17.24400000      42.55500000
 H      38.81200000      17.58700000      41.76400000
 H      38.74900000      16.34800000      42.66600000
 O      36.10000000      22.49100000      45.76800000
 H      35.89300000      23.47700000      45.76200000
 H      35.83800000      22.25500000      46.64700000
 O      29.34600000      20.11300000      48.81500000
 H      29.78200000      20.39400000      48.05900000
 H      28.57000000      20.66000000      48.93300000
 O      28.14300000      38.50600000      46.26600000
 H      27.30700000      38.92600000      46.44800000
 H      28.11600000      38.46200000      45.24100000
 O      28.55900000      15.09000000      47.59200000
 H      28.90500000      15.02100000      46.65200000
 H      28.44000000      16.08300000      47.61800000
 O      34.91200000      32.95100000      47.77000000
 H      35.66200000      32.67300000      47.23400000
 H      34.16800000      32.74100000      47.15500000
 O      28.94200000       9.13100000      43.91800000
 H      28.57800000       9.52300000      44.73300000
 H      28.49500000       9.73000000      43.24400000
 O      31.00700000      32.80000000      48.50500000
 H      31.08200000      33.51500000      49.17600000
 H      30.13100000      32.46000000      48.69800000
 O      33.56300000      22.53000000      44.01900000
 H      34.32200000      22.30500000      44.67800000
 H      33.46700000      21.65100000      43.66100000
 O      32.53300000       2.67700000      46.58400000
 H      33.17500000       1.92400000      46.61100000
 H      31.65800000       2.28300000      46.72300000
 O      29.76200000      40.64800000      47.22100000
 H      29.05500000      40.97200000      47.82900000
 H      29.32700000      40.00600000      46.69600000
 O      37.48600000      21.35800000      43.59000000
 H      37.18000000      21.95300000      44.39900000
 H      37.25000000      21.98800000      42.85600000
 O      38.11400000      26.25100000      45.75800000
 H      38.73300000      26.98300000      45.96000000
 H      38.45900000      25.95100000      44.88500000
 O      38.61800000      38.13000000      45.83400000
 H      38.41500000      37.76200000      44.96300000
 H      37.74500000      38.40400000      46.15800000
 O      32.62200000      39.96600000      48.70200000
 H      31.81900000      39.97800000      48.13900000
 H      32.54500000      40.86200000      49.16900000
 O      28.43500000      17.67000000      47.57200000
 H      27.53700000      17.89800000      47.91600000
 H      28.98200000      18.34100000      47.99300000
 O      38.93400000      36.03300000      44.00100000
 H      39.85900000      36.30200000      44.03900000
 H      39.02400000      35.05400000      44.15800000
 O      36.80400000      11.13000000      43.83900000
 H      37.40200000      10.38000000      43.73100000
 H      36.24000000      11.07100000      43.03400000
 O      38.78800000      17.18600000      49.45500000
 H      38.40000000      16.29700000      49.39500000
 H      38.65000000      17.50100000      48.51500000
 O      32.15800000      17.78800000      44.42800000
 H      32.17200000      17.37300000      43.52400000
 H      32.04900000      18.70800000      44.18000000
 O      30.34800000      11.15800000      47.93500000
 H      30.10900000      10.23600000      48.23300000
 H      29.79500000      11.71900000      48.48500000
 O      32.31500000      39.93000000      45.14200000
 H      31.77800000      39.96000000      44.29100000
 H      31.74100000      40.35600000      45.75200000
 O      32.99300000      16.93200000      46.75200000
 H      32.60500000      16.01400000      46.70100000
 H      32.53300000      17.27100000      45.89900000
 O      38.09400000      18.24800000      46.99100000
 H      38.68500000      18.38700000      46.17800000
 H      37.40400000      17.75300000      46.49800000
 O      32.03200000      23.17800000      48.24000000
 H      31.18700000      23.54500000      48.63000000
 H      32.58000000      23.29500000      49.03900000
 O      35.07400000      26.88900000      48.50800000
 H      34.16300000      26.64400000      48.85700000
 H      35.48200000      26.94500000      49.46600000
 O      38.71700000       3.36900000      46.21500000
 H      37.89100000       3.28300000      45.71300000
 H      39.32600000       2.79600000      45.71200000
 O      38.64800000       9.39200000      43.02000000
 H      38.21100000       9.26700000      42.15900000
 H      39.55900000       9.68700000      42.62000000
 O      38.79400000       4.83600000      43.27300000
 H      38.10700000       4.35500000      43.72400000
 H      38.41200000       5.76300000      43.35100000
 O      33.32100000      29.59100000      47.68100000
 H      33.08400000      30.53200000      47.41400000
 H      33.70900000      29.73100000      48.53400000
 O      36.48700000       3.54800000      44.48400000
 H      35.98300000       3.01100000      43.79200000
 H      35.63300000       3.71100000      45.04200000
 O      39.67700000      17.94500000      44.76100000
 H      40.56600000      17.75600000      44.46000000
 H      39.11800000      17.69500000      44.01200000
 O      32.03700000      29.76900000      44.45300000
 H      32.63100000      29.01700000      44.42800000
 H      31.52900000      29.60100000      45.25400000
 O      28.20100000      18.97100000      45.15600000
 H      28.33100000      18.30400000      44.45900000
 H      28.35800000      18.33600000      45.93300000
 O      39.72100000       0.89100000      45.20100000
 H      39.01000000       0.70200000      44.58700000
 H      39.75600000       0.08300000      45.74700000
 O      29.53300000      29.59300000      42.44600000
 H      29.63100000      28.68500000      42.03800000
 H      30.39200000      29.70700000      42.81800000
 O      34.68800000       6.77100000      43.11300000
 H      34.15500000       6.77200000      44.00700000
 H      34.48000000       5.76600000      42.91700000
 O      27.83200000      30.05100000      46.98700000
 H      28.78200000      29.83900000      47.19300000
 H      27.70700000      29.41400000      46.27400000
 O      27.59200000      27.83300000      45.36600000
 H      28.43800000      27.51300000      45.63700000
 H      27.03000000      27.10200000      45.66700000
 O      40.17100000      21.38400000      43.97700000
 H      39.30400000      20.94900000      43.91900000
 H      40.23500000      21.58100000      44.90000000
 O      28.91500000      17.12100000      43.26100000
 H      29.36100000      17.35300000      42.41100000
 H      28.32300000      16.37500000      42.95700000
 O      33.90700000      20.09900000      46.09300000
 H      34.51300000      19.58500000      46.62500000
 H      34.25700000      20.02700000      45.18100000
 O      28.01800000      38.70300000      43.35300000
 H      28.81500000      39.22900000      43.08900000
 H      27.41500000      38.98900000      42.66900000
 O      30.90400000       7.36300000      43.23900000
 H      30.25100000       7.98100000      43.55400000
 H      31.49900000       7.20400000      43.98600000
 O      40.53000000      29.63100000      48.67300000
 H      39.72400000      29.95800000      48.25700000
 H      40.23100000      28.90300000      49.22500000
 O      27.42600000       6.25700000      47.98400000
 H      26.84000000       5.85700000      48.64400000
 H      28.31300000       5.80700000      48.15600000
 O      35.26400000      35.39100000      43.36800000
 H      35.41800000      34.65900000      42.75700000
 H      34.38500000      35.14300000      43.77700000
 O      39.01800000      26.18900000      43.15900000
 H      38.40300000      26.89800000      43.22800000
 H      39.24300000      26.09800000      42.22500000
 O      39.44900000      28.41000000      45.41000000
 H      40.29200000      28.89400000      45.61300000
 H      39.31400000      28.76800000      44.50100000
 O      40.82600000      21.97500000      46.94900000
 H      40.26400000      21.77000000      47.65400000
 H      41.52300000      22.56000000      47.37000000
 O      33.58500000      31.78700000      43.47200000
 H      33.07000000      32.29900000      44.17200000
 H      32.95900000      31.01500000      43.51300000
 O      35.47500000      27.47700000      43.49000000
 H      35.14700000      26.56400000      43.42300000
 H      34.87600000      27.87500000      44.07300000
 O      36.26100000       1.38000000      48.57800000
 H      35.64900000       1.45300000      49.33100000
 H      36.26500000       0.44700000      48.37900000
 O      35.06600000      40.23600000      44.78300000
 H      35.50400000      39.30800000      44.93000000
 H      34.13300000      39.87100000      44.69900000
 O      31.90200000       6.26100000      47.48900000
 H      32.53000000       5.75000000      47.99500000
 H      31.10000000       6.09500000      48.05800000
 O      35.86600000      25.36200000      46.47700000
 H      35.52800000      26.06400000      47.06600000
 H      36.68400000      25.81600000      46.15900000
 O      38.55000000      21.64000000      48.80300000
 H      37.69500000      21.18500000      48.81700000
 H      38.32600000      22.52400000      48.45100000
 O      37.03700000      38.47100000      48.02700000
 H      36.02900000      38.36500000      47.97900000
 H      37.23300000      37.79500000      48.69700000
