618
XYZ file of cluster: frame_15000_9be6a.c4c8f.23cee - created by MolEdiTo
 O      40.89700000      39.55500000      39.29800000
 H      40.81300000      39.86100000      38.35700000
 H      40.16400000      39.99300000      39.71500000
 O      39.44900000      35.92300000      27.01800000
 H      38.98400000      36.73500000      27.26900000
 H      39.18800000      35.77300000      26.05600000
 O      29.70700000      36.67500000      11.40100000
 H      28.86500000      36.36300000      11.03500000
 H      29.36700000      36.94600000      12.33000000
 O      38.26100000      34.66900000      34.46700000
 H      37.57800000      35.24800000      34.79400000
 H      38.98900000      35.28400000      34.29900000
 O      28.25100000      36.38900000      28.01400000
 H      28.78600000      37.06800000      28.38400000
 H      28.14900000      36.65900000      27.07900000
 O      28.42100000      37.26300000      36.61000000
 H      28.97700000      37.83600000      35.98000000
 H      28.80800000      37.51000000      37.45300000
 O      40.64400000      35.70900000      33.64600000
 H      40.35800000      36.62300000      33.78600000
 H      40.78500000      35.68600000      32.67400000
 O      29.50100000      34.60000000      29.91400000
 H      29.33100000      35.19600000      29.09700000
 H      29.89700000      33.84700000      29.52800000
 O      40.37800000      34.43100000      16.13800000
 H      39.57700000      34.92500000      15.84800000
 H      40.23600000      33.59700000      15.57300000
 O      37.65400000      36.72100000      40.04600000
 H      38.18500000      36.14800000      39.48400000
 H      37.87000000      36.40000000      40.95000000
 O      27.30300000      39.81900000      10.93000000
 H      27.99600000      39.23300000      10.50300000
 H      26.68200000      39.79800000      10.17600000
 O      39.47700000      35.05100000      19.04800000
 H      40.41900000      34.70700000      19.11700000
 H      39.64100000      36.00100000      19.32900000
 O      28.82000000      36.79100000      39.91800000
 H      29.42100000      36.06400000      40.12000000
 H      28.61800000      37.18800000      40.72700000
 O      39.23100000      39.61300000       7.53700000
 H      38.62200000      39.29100000       6.85600000
 H      39.00300000      39.07000000       8.31100000
 O      34.61600000      38.09600000      34.28700000
 H      34.25500000      38.71400000      34.92900000
 H      34.38400000      38.51200000      33.47100000
 O      33.93200000      39.72500000      31.96200000
 H      33.53500000      40.23300000      32.62300000
 H      33.20200000      39.20900000      31.59100000
 O      34.44500000      37.95300000       6.70400000
 H      34.13200000      37.46300000       7.45100000
 H      33.84300000      38.71400000       6.76000000
 O      34.71700000      39.87900000      37.20800000
 H      35.04700000      40.77400000      37.37000000
 H      35.56300000      39.40100000      37.19100000
 O      32.94000000      37.15200000      30.62400000
 H      32.19500000      37.12600000      31.30400000
 H      32.43100000      37.33000000      29.77200000
 O      32.86900000      37.34100000      25.06800000
 H      33.79800000      37.03200000      25.02500000
 H      32.38600000      36.57200000      24.81700000
 O      30.68900000      34.72100000       8.89200000
 H      30.26000000      33.99800000       9.40100000
 H      29.93700000      35.28400000       8.77700000
 O      31.52100000      35.77500000      36.73300000
 H      30.55200000      35.99900000      36.75000000
 H      31.56300000      35.62300000      35.73100000
 O      28.68200000      36.45000000       8.64600000
 H      28.30300000      36.72500000       7.81100000
 H      27.93700000      36.17300000       9.22300000
 O      35.95100000      38.40500000      20.63800000
 H      35.37300000      38.11500000      19.87300000
 H      35.28400000      38.79800000      21.20700000
 O      40.53100000      40.74900000      16.68200000
 H      39.97900000      39.95100000      16.41900000
 H      40.54100000      40.64000000      17.61400000
 O      31.97100000      35.14000000      34.13800000
 H      31.54000000      35.33100000      33.29000000
 H      32.78600000      34.71800000      33.72000000
 O      31.75200000      40.72200000      33.28000000
 H      31.89500000      40.91100000      34.21100000
 H      31.59700000      41.68200000      32.94500000
 O      36.71300000      36.35800000      11.85200000
 H      37.44900000      35.75600000      11.76900000
 H      37.03600000      37.09900000      12.45900000
 O      31.85200000      35.25200000      23.41400000
 H      31.72400000      34.31100000      23.22500000
 H      32.70700000      35.41800000      23.07100000
 O      37.07900000      38.52700000      26.45600000
 H      37.46600000      39.47500000      26.38400000
 H      36.61000000      38.56800000      27.30900000
 O      38.61900000      34.33500000       6.10500000
 H      38.79700000      35.30500000       6.38100000
 H      38.80700000      33.95800000       6.97000000
 O      28.25900000      40.70100000      34.03300000
 H      27.30700000      40.45000000      33.86400000
 H      28.17800000      41.63500000      33.99000000
 O      31.65300000      34.37400000      20.23000000
 H      32.01300000      33.74600000      20.95200000
 H      32.51800000      34.73600000      19.93400000
 O      38.25900000      34.55600000      28.73900000
 H      38.91400000      34.97600000      28.15800000
 H      38.51900000      33.60700000      28.60800000
 O      34.42500000      35.18300000      23.03500000
 H      34.77800000      35.47900000      23.91700000
 H      35.24900000      35.21800000      22.52200000
 O      35.35100000      36.46800000      25.22600000
 H      36.21600000      37.02300000      25.28600000
 H      35.28100000      36.18600000      26.13200000
 O      37.21000000      36.82800000       8.64300000
 H      38.07700000      36.49400000       8.48100000
 H      36.87000000      36.07100000       9.19100000
 O      40.89200000      40.20400000      36.24900000
 H      40.88700000      40.42300000      35.31400000
 H      41.78000000      40.50600000      36.52500000
 O      34.47200000      35.98900000      37.72300000
 H      33.53800000      36.14200000      37.43900000
 H      34.49500000      36.59600000      38.44900000
 O      29.96600000      39.57300000      31.25400000
 H      29.93200000      40.10400000      32.08200000
 H      30.83500000      39.89900000      30.88200000
 O      29.28400000      35.71200000      21.74700000
 H      29.94700000      35.51300000      22.49300000
 H      29.84600000      35.46700000      21.02800000
 O      40.04800000      40.31400000      19.42200000
 H      39.18600000      40.37300000      19.91700000
 H      40.56500000      40.90800000      20.06700000
 O      39.70400000      37.36700000      36.76200000
 H      39.58100000      37.61400000      35.79800000
 H      40.36600000      38.06700000      36.98500000
 O      36.78000000      40.28700000      32.39600000
 H      35.86200000      40.24700000      32.09300000
 H      36.98900000      41.20600000      32.07100000
 O      31.53100000      37.14500000      28.32200000
 H      32.20400000      37.60400000      27.81200000
 H      31.54200000      36.24400000      27.83600000
 O      30.57800000      39.40900000      25.00300000
 H      31.22900000      38.74500000      25.09300000
 H      29.83500000      39.07500000      25.50200000
 O      40.27600000      34.55900000      37.49500000
 H      39.96500000      35.50800000      37.40200000
 H      41.10600000      34.58900000      36.98200000
 O      27.75300000      40.45300000       7.44600000
 H      28.38400000      39.95200000       7.95000000
 H      26.84900000      40.36700000       7.79700000
 O      32.58900000      36.10900000      17.66600000
 H      31.81500000      36.66700000      17.40000000
 H      32.77100000      35.72300000      16.77800000
 O      29.94900000      39.07600000      14.25700000
 H      29.45300000      38.30500000      13.83200000
 H      30.84800000      38.69100000      14.20300000
 O      35.34400000      39.88700000      13.03300000
 H      35.85300000      40.43800000      13.60600000
 H      35.66500000      40.21400000      12.13700000
 O      39.46000000      35.70800000      11.58200000
 H      39.71100000      34.76300000      11.43100000
 H      40.37000000      36.05200000      11.59400000
 O      32.82800000      37.97500000      13.67000000
 H      33.44000000      38.67300000      13.94600000
 H      33.27700000      37.75700000      12.83100000
 O      32.28400000      35.39300000      14.96900000
 H      32.61500000      36.24200000      14.63700000
 H      31.82700000      35.05800000      14.12800000
 O      31.64200000      38.55900000      10.84200000
 H      31.09300000      37.78900000      10.99800000
 H      32.51900000      38.10800000      10.71500000
 O      32.42800000      39.57800000      20.22000000
 H      32.81200000      39.31000000      21.06300000
 H      33.10900000      39.16800000      19.59400000
 O      39.29800000      38.23500000      34.08600000
 H      38.74400000      38.23100000      33.29600000
 H      39.99200000      38.90300000      33.80700000
 O      35.99700000      36.02600000      27.97700000
 H      35.85200000      36.24800000      28.92600000
 H      36.95000000      35.75700000      27.98900000
 O      40.16500000      37.49700000      20.09300000
 H      39.98000000      38.45800000      20.01500000
 H      40.39300000      37.45100000      21.02700000
 O      35.96300000      39.50100000      28.73500000
 H      35.84000000      40.48400000      28.71300000
 H      35.03700000      39.27700000      28.99800000
 O      32.62200000      39.96600000       7.07800000
 H      31.81900000      39.97800000       6.51500000
 H      32.54500000      40.86200000       7.54500000
 O      34.77800000      37.41000000      39.97500000
 H      34.88000000      36.72500000      40.63400000
 H      35.63800000      37.84500000      39.93900000
 O      39.70300000      38.18800000      15.92800000
 H      40.54100000      38.36600000      15.36400000
 H      40.09800000      37.68300000      16.64300000
 O      29.86000000      37.28800000      17.37400000
 H      29.00700000      37.58700000      16.97000000
 H      29.79400000      37.73500000      18.24300000
 O      36.98400000      38.16600000      17.78700000
 H      37.46900000      37.31900000      17.83800000
 H      37.12100000      38.54200000      18.63100000
 O      29.35100000      40.33600000      22.54900000
 H      28.81400000      39.55700000      22.49300000
 H      29.91200000      40.17000000      23.33000000
 O      40.05500000      40.71800000      24.13800000
 H      40.00800000      40.55500000      25.05000000
 H      39.42700000      41.48400000      23.99000000
 O      32.18100000      35.11900000      11.72900000
 H      32.84800000      35.75300000      11.38700000
 H      31.37500000      35.59000000      11.58000000
 O      28.05900000      37.95400000      22.56500000
 H      28.40300000      37.11500000      22.36200000
 H      27.10500000      37.77200000      22.35400000
 O      38.60200000      39.17200000      10.50900000
 H      39.38300000      38.81700000      10.98200000
 H      38.19400000      38.38800000      10.19500000
 O      28.12100000      37.75600000      31.47000000
 H      27.48700000      38.31700000      31.93800000
 H      28.76100000      38.44300000      31.14300000
 O      35.32500000      38.27900000      15.79400000
 H      35.98400000      38.14700000      16.52400000
 H      35.77000000      37.92500000      15.05700000
 O      36.85700000      35.20200000      18.71800000
 H      36.64900000      34.52700000      18.00700000
 H      37.82200000      35.03700000      18.82900000
 O      33.07800000      39.45200000      39.81200000
 H      33.46200000      39.75300000      38.96000000
 H      33.55300000      38.62600000      39.93400000
 O      37.23100000      38.68800000      36.47400000
 H      38.03900000      38.27000000      36.83400000
 H      36.88800000      37.89700000      35.99600000
 O      28.27300000      37.95800000      25.63800000
 H      28.34100000      37.67800000      24.69200000
 H      27.58300000      38.67400000      25.55100000
 O      29.55600000      38.73000000      19.61400000
 H      30.48200000      38.96300000      19.78000000
 H      29.20200000      38.56300000      20.49000000
 O      30.92700000      34.73900000      26.56300000
 H      31.83600000      34.96200000      26.16700000
 H      30.50800000      34.40100000      25.70700000
 O      34.07900000      37.12500000      11.04300000
 H      34.18500000      37.07100000      10.07900000
 H      34.98900000      36.96400000      11.36800000
 O      40.28600000      40.67400000      33.61700000
 H      40.07900000      41.36900000      32.91600000
 H      39.41600000      40.71900000      34.13300000
 O      38.13600000      38.12300000      31.42500000
 H      37.37100000      37.61500000      31.11900000
 H      37.60400000      38.90400000      31.75700000
 O      28.30300000      40.28400000      28.66200000
 H      28.95500000      39.76400000      29.19900000
 H      28.89200000      40.68800000      27.97600000
 O      28.60400000      36.82700000      13.83000000
 H      27.67700000      36.94800000      13.49800000
 H      28.49200000      35.97200000      14.32000000
 O      34.02000000      39.41700000      22.46900000
 H      33.74100000      39.12800000      23.35600000
 H      33.58900000      40.33400000      22.50100000
 O      40.03900000      38.02400000      22.87900000
 H      39.88400000      38.97900000      23.23600000
 H      39.29100000      37.54900000      23.22200000
 O      29.55800000      39.11800000       8.80600000
 H      30.35800000      39.20200000       9.33000000
 H      29.41400000      38.20800000       8.73300000
 O      36.20600000      36.19900000      35.33500000
 H      35.57700000      36.74700000      34.75900000
 H      35.59400000      35.96600000      36.06900000
 O      38.80900000      38.57900000      28.68500000
 H      38.87400000      38.06300000      29.56100000
 H      37.88700000      38.87200000      28.84100000
 O      38.46200000      35.12300000      14.11300000
 H      38.94000000      34.85400000      13.32800000
 H      38.12300000      36.01700000      13.92600000
 O      37.18200000      38.55200000      23.71300000
 H      37.20700000      38.70000000      24.67100000
 H      36.59300000      39.29000000      23.45700000
 O      39.54100000      36.55500000       7.57400000
 H      39.98500000      37.11600000       6.94700000
 H      40.28800000      36.11700000       7.99900000
 O      32.42600000      40.54700000      29.79100000
 H      33.23700000      40.73700000      30.19900000
 H      32.16500000      41.44400000      29.45100000
 O      29.78500000      39.03800000      35.22800000
 H      29.34700000      39.64700000      34.56700000
 H      30.67800000      39.41900000      35.26300000
 O      35.73800000      36.67100000      30.70200000
 H      34.76900000      36.92200000      30.76900000
 H      35.76600000      35.85100000      31.23700000
 O      33.41600000      36.06100000       8.70300000
 H      33.99500000      35.27600000       8.80800000
 H      32.54100000      35.58400000       8.91600000
 O      30.37200000      36.08100000      32.03400000
 H      29.51300000      36.57800000      31.95700000
 H      30.17700000      35.42200000      31.32600000
 O      27.38600000      38.40400000      15.98200000
 H      26.94300000      39.10300000      15.41000000
 H      28.19900000      38.30700000      15.45300000
 O      33.41100000      39.04200000      27.69100000
 H      33.35200000      39.59400000      26.87000000
 H      32.96900000      39.69100000      28.29900000
 O      38.22000000      38.13300000      13.55600000
 H      38.90100000      38.16200000      14.26800000
 H      37.76300000      38.94100000      13.72300000
 O      38.41700000      35.77400000      24.66100000
 H      37.67700000      36.17700000      24.20500000
 H      38.75200000      35.15200000      23.97300000
 O      34.10100000      38.17300000      18.58900000
 H      34.38000000      38.15700000      17.62000000
 H      33.64700000      37.24500000      18.60900000
 O      37.85600000      40.41000000      20.97300000
 H      37.34600000      40.91800000      21.63000000
 H      37.39700000      39.52900000      21.02300000
 O      36.82600000      35.59300000      21.66300000
 H      36.71800000      35.45600000      20.71000000
 H      36.79600000      36.54800000      21.77700000
 O      37.03700000      38.47100000       6.40300000
 H      36.02900000      38.36500000       6.35500000
 H      37.23300000      37.79500000       7.07300000
 O      30.34300000      48.47900000      13.83400000
 H      30.65400000      47.75000000      13.24000000
 H      31.20600000      48.69800000      14.27900000
 O      34.25700000      48.11400000      17.16200000
 H      33.57300000      47.71300000      17.73200000
 H      35.02500000      47.65100000      17.51100000
 O      33.28200000      47.15900000      34.49000000
 H      32.93100000      48.06600000      34.30000000
 H      32.40000000      46.68500000      34.66700000
 O      35.93800000      49.17600000      12.86000000
 H      35.14500000      49.40800000      12.32800000
 H      35.71000000      48.21600000      13.06700000
 O      37.83300000      45.72300000      19.18000000
 H      37.18000000      45.06600000      19.45700000
 H      38.31700000      45.80900000      20.07000000
 O      36.15600000      43.22200000      23.07300000
 H      35.89400000      43.71900000      22.26400000
 H      36.23800000      43.95600000      23.74500000
 O      30.88700000      43.26400000      13.60600000
 H      30.01000000      43.75500000      13.40400000
 H      30.43100000      42.43500000      13.99700000
 O      40.84300000      47.99300000      12.80900000
 H      40.00900000      47.64700000      12.39500000
 H      41.46500000      47.31100000      12.58800000
 O      29.05300000      43.07700000      20.02800000
 H      29.46600000      42.78600000      20.87700000
 H      28.97100000      42.15000000      19.66000000
 O      40.36400000      46.71800000      31.62700000
 H      40.77900000      46.91800000      30.74500000
 H      39.77800000      47.53000000      31.73700000
 O      28.81200000      43.67600000      39.95900000
 H      28.54900000      43.39200000      39.09300000
 H      28.91200000      44.65700000      39.77800000
 O      31.99000000      48.87300000      26.82500000
 H      32.02900000      47.90400000      26.60900000
 H      31.79800000      48.82800000      27.76100000
 O      39.92400000      42.77700000      12.96100000
 H      39.66400000      42.14300000      12.28200000
 H      40.45400000      43.37000000      12.40500000
 O      37.25100000      42.52300000      14.70000000
 H      37.06900000      42.82400000      15.62700000
 H      37.88200000      43.16100000      14.40300000
 O      28.07000000      43.98100000      16.59000000
 H      28.33000000      44.49500000      15.82300000
 H      27.59900000      43.23700000      16.13200000
 O      34.62000000      47.12900000      32.14000000
 H      34.54300000      48.07300000      31.88900000
 H      34.21100000      47.21200000      33.05400000
 O      30.60500000      45.66600000      29.97500000
 H      31.04400000      45.03400000      29.25800000
 H      30.17800000      46.27700000      29.34900000
 O      40.19900000      44.10600000      31.66500000
 H      40.93000000      43.95900000      31.07600000
 H      40.42300000      45.06800000      31.95200000
 O      30.87200000      46.38900000      12.18400000
 H      30.51600000      46.26700000      11.30000000
 H      31.48000000      45.64200000      12.30000000
 O      40.73400000      45.69100000      36.22300000
 H      41.40100000      45.39900000      36.86000000
 H      41.27500000      46.19300000      35.59700000
 O      28.69600000      48.53100000      25.97900000
 H      29.59900000      48.93100000      25.73700000
 H      28.12400000      49.23600000      25.72400000
 O      31.30600000      45.47000000      37.35300000
 H      31.70000000      46.34900000      37.32300000
 H      30.43300000      45.71600000      37.70400000
 O      27.56600000      46.71500000      31.21000000
 H      27.28200000      45.96500000      31.72100000
 H      28.16600000      46.35800000      30.53500000
 O      28.11100000      45.24400000      35.11800000
 H      28.93000000      45.67600000      34.68300000
 H      28.25700000      45.61200000      36.02300000
 O      34.76800000      43.01700000       9.31600000
 H      35.44500000      42.73400000       9.95900000
 H      33.94900000      43.04700000       9.88000000
 O      34.07000000      46.45500000      28.08000000
 H      33.70200000      46.05400000      28.88300000
 H      33.24600000      46.48000000      27.52700000
 O      30.10600000      46.18800000      40.19300000
 H      30.92900000      45.67800000      40.13100000
 H      30.43900000      46.99100000      40.62600000
 O      29.89800000      43.21000000      26.45300000
 H      30.49000000      42.58500000      26.06900000
 H      29.43100000      43.55200000      25.71100000
 O      38.51400000      47.30200000      11.84300000
 H      38.47800000      46.46700000      11.33600000
 H      37.80000000      47.82300000      11.43500000
 O      37.02900000      48.22600000       9.40000000
 H      36.55800000      47.44200000       9.07800000
 H      37.96500000      47.99400000       9.28300000
 O      37.94900000      45.98800000      26.87100000
 H      38.89700000      45.81100000      26.96400000
 H      37.82400000      46.60600000      27.61800000
 O      30.10300000      46.65000000      18.43700000
 H      30.61500000      46.37800000      17.66200000
 H      30.35000000      45.99000000      19.08600000
 O      32.82600000      45.63400000       7.42300000
 H      32.84900000      45.08500000       6.57200000
 H      32.12100000      45.12700000       7.90600000
 O      33.46200000      45.82000000      40.06300000
 H      34.13800000      45.99300000      39.34900000
 H      33.99300000      45.04200000      40.53800000
 O      27.83600000      42.88600000      37.01500000
 H      28.18600000      42.26400000      36.28700000
 H      27.23100000      43.42500000      36.50500000
 O      37.18900000      46.31400000      39.33700000
 H      37.63200000      46.32100000      40.26000000
 H      37.74300000      45.55900000      38.98500000
 O      37.83800000      42.61600000      34.97900000
 H      37.85000000      41.96500000      35.74000000
 H      37.13500000      42.19400000      34.43600000
 O      37.86100000      42.73300000      26.35700000
 H      36.97400000      43.06000000      26.44000000
 H      38.11900000      42.84100000      27.29100000
 O      32.40000000      43.84000000      19.36600000
 H      32.32400000      43.66800000      18.36100000
 H      32.23300000      42.88500000      19.64200000
 O      36.88900000      43.52000000      17.18700000
 H      37.09900000      42.87200000      17.73600000
 H      37.27900000      44.36300000      17.52600000
 O      29.10900000      47.53300000      28.62100000
 H      28.90600000      47.75600000      27.64400000
 H      28.57900000      48.21000000      29.06900000
 O      28.86400000      44.40900000      24.26200000
 H      28.93400000      43.94500000      23.37900000
 H      28.18600000      45.05800000      24.09900000
 O      37.94300000      42.68500000      39.43000000
 H      38.38400000      43.38100000      38.93700000
 H      37.02300000      42.66800000      39.06600000
 O      32.28900000      42.82500000      10.70200000
 H      31.98700000      42.96100000      11.68700000
 H      32.03500000      41.85000000      10.68600000
 O      37.58300000      46.20300000      14.56400000
 H      37.66400000      45.95900000      13.64800000
 H      36.68500000      46.63600000      14.54600000
 O      32.09000000      46.26900000      26.14500000
 H      31.39200000      45.79500000      25.61500000
 H      32.79900000      46.23500000      25.49800000
 O      30.78700000      44.93100000      32.66600000
 H      30.57700000      45.66100000      33.23600000
 H      30.50800000      45.23200000      31.81100000
 O      27.86100000      43.63000000      30.76200000
 H      27.79800000      42.91900000      30.12200000
 H      28.52300000      44.19000000      30.37200000
 O      37.74400000      45.46800000       7.82900000
 H      36.85000000      45.48700000       8.26900000
 H      37.51700000      45.19900000       6.95700000
 O      28.47300000      43.83300000      11.64300000
 H      28.16200000      44.27000000      10.84900000
 H      28.34000000      42.91900000      11.44100000
 O      35.44800000      44.01500000      26.55000000
 H      35.18800000      43.92000000      27.47400000
 H      35.72200000      44.93200000      26.51800000
 O      33.45000000      46.41900000      19.51300000
 H      33.05600000      45.56100000      19.38900000
 H      33.06600000      46.79900000      20.29800000
 O      30.05400000      46.93200000      34.42400000
 H      29.75800000      47.28900000      35.28200000
 H      29.78900000      47.67800000      33.80000000
 O      38.84400000      48.44700000      35.96400000
 H      38.63200000      47.56800000      36.10400000
 H      38.86300000      48.63900000      35.02400000
 O      37.03000000      46.68900000      30.81500000
 H      37.61100000      47.44600000      31.15600000
 H      36.24400000      46.87700000      31.38000000
 O      36.82200000      42.98200000      10.96700000
 H      37.37200000      43.81300000      10.89300000
 H      37.51700000      42.35800000      10.91200000
 O      31.91100000      43.39900000      16.88700000
 H      31.05200000      43.17700000      16.70000000
 H      32.47500000      42.80200000      16.46900000
 O      35.07000000      45.73700000       8.74900000
 H      34.31400000      45.92900000       8.15100000
 H      34.87600000      44.80200000       8.99700000
 O      32.89300000      43.39000000      22.80000000
 H      33.29300000      44.20500000      23.17200000
 H      32.09100000      43.63600000      22.42100000
 O      32.45600000      43.19600000      35.87000000
 H      33.23800000      42.86100000      36.37400000
 H      32.18400000      43.90700000      36.47300000
 O      34.47600000      46.73200000      36.79300000
 H      34.13600000      46.80100000      35.87500000
 H      35.15900000      47.44100000      36.79900000
 O      38.30600000      43.22900000      28.80000000
 H      37.82400000      43.25600000      29.65800000
 H      38.90700000      43.96800000      28.90000000
 O      31.84500000      44.28800000      28.11200000
 H      32.10100000      45.05900000      27.46700000
 H      31.17400000      43.90200000      27.53100000
 O      39.68200000      47.78000000       8.45400000
 H      39.10700000      47.58100000       7.65900000
 H      40.53100000      47.34400000       8.04200000
 O      39.23700000      45.85100000      21.36200000
 H      39.05400000      46.25200000      22.21000000
 H      39.71100000      45.02000000      21.64600000
 O      36.57000000      48.50700000      38.06500000
 H      36.94700000      47.73900000      38.58500000
 H      37.15100000      48.55200000      37.31200000
 O      27.91400000      44.76100000       8.90000000
 H      27.12900000      44.62800000       8.33200000
 H      27.70600000      45.56400000       9.34900000
 O      29.86400000      47.11600000       7.78300000
 H      29.91500000      46.14500000       7.83100000
 H      29.45700000      47.33000000       8.64800000
 O      38.77700000      45.00200000      10.35000000
 H      38.58900000      45.07800000       9.39500000
 H      39.74600000      44.93200000      10.30200000
 O      33.73400000      45.08300000      30.79200000
 H      34.14900000      45.81500000      31.31000000
 H      32.89800000      45.02100000      31.25200000
 O      40.87200000      47.40900000      29.14600000
 H      40.30900000      47.80300000      28.44200000
 H      41.22400000      48.22600000      29.54400000
 O      33.35200000      42.66300000      25.83400000
 H      34.15600000      43.13200000      25.89000000
 H      33.10200000      42.66200000      24.90100000
 O      28.64000000      46.78900000      37.58200000
 H      28.95000000      47.71000000      37.61600000
 H      27.86600000      46.84400000      38.20300000
 O      30.58900000      44.19300000       8.51900000
 H      29.61600000      44.11100000       8.55100000
 H      30.88500000      43.68000000       9.28400000
 O      35.09500000      44.54900000      20.87300000
 H      34.37600000      44.21100000      20.30500000
 H      35.05200000      45.50500000      20.74300000
 O      27.64800000      47.40500000      17.78000000
 H      28.52900000      46.99400000      18.04700000
 H      27.10500000      46.66500000      18.06800000
 O      39.84200000      46.43000000      16.00900000
 H      39.88300000      47.37000000      15.65700000
 H      39.14600000      46.08000000      15.44900000
 O      40.03000000      43.85200000       8.09500000
 H      39.03500000      43.86400000       8.01000000
 H      40.12900000      42.88500000       8.22500000
 O      29.50100000      47.78000000      21.74500000
 H      28.89200000      47.08800000      22.09900000
 H      28.97200000      48.03300000      20.96300000
 O      37.47700000      44.02700000      31.25400000
 H      38.45100000      43.98200000      31.54500000
 H      37.39400000      44.99500000      31.45200000
 O      35.46700000      44.02200000      29.27400000
 H      34.82700000      44.50700000      29.79400000
 H      36.22500000      44.17800000      29.84700000
 O      33.45600000      44.75500000      14.20900000
 H      33.89900000      44.15500000      14.80500000
 H      32.69800000      44.13900000      13.95900000
 O      34.91200000      46.94500000      13.62600000
 H      34.43200000      46.13500000      13.89600000
 H      34.17000000      47.60600000      13.83100000
 O      28.73200000      47.79500000      10.29000000
 H      28.63700000      48.72400000      10.54000000
 H      27.78000000      47.45900000      10.39500000
 O      34.21000000      42.53500000      15.66800000
 H      34.91200000      42.70900000      16.30900000
 H      34.55000000      41.68200000      15.29000000
 O      37.58500000      48.47200000      19.00900000
 H      37.53000000      48.71200000      18.10000000
 H      37.51500000      47.48700000      18.93700000
 O      27.46900000      44.81000000      19.05900000
 H      28.15400000      44.18700000      19.50000000
 H      27.58300000      44.49900000      18.13100000
 O      28.79300000      45.63300000      14.65300000
 H      29.45900000      46.18900000      15.15900000
 H      28.70400000      46.02600000      13.81400000
 O      32.36800000      46.02100000      16.42400000
 H      32.68500000      46.10700000      15.49500000
 H      32.26500000      45.01700000      16.46300000
 O      39.52200000      47.28800000      24.47700000
 H      39.86800000      47.90600000      23.78400000
 H      40.43000000      47.00000000      24.80300000
 O      38.65700000      44.56400000      37.07900000
 H      38.39900000      44.08000000      36.25600000
 H      39.34200000      45.14600000      36.68000000
 O      27.42600000      47.93900000       6.36000000
 H      26.84000000      47.53900000       7.02000000
 H      28.31300000      47.48900000       6.53200000
 O      40.55600000      44.81000000      28.78800000
 H      41.41300000      44.53200000      28.47100000
 H      40.71600000      45.73300000      29.00700000
 O      33.88800000      45.86100000      23.66500000
 H      34.76900000      46.14800000      24.03700000
 H      33.60100000      46.62400000      23.19600000
 O      39.31700000      48.41500000      27.22400000
 H      40.19500000      48.77300000      27.01700000
 H      39.01700000      48.05700000      26.41600000
 O      36.23300000      46.95300000      24.94400000
 H      36.93900000      46.78000000      25.63700000
 H      36.38900000      47.91300000      24.71100000
 O      38.46000000      44.58000000      24.13200000
 H      38.31100000      45.51700000      24.17700000
 H      38.14200000      44.25900000      24.99700000
 O      36.26100000      43.06200000       6.95400000
 H      35.64900000      43.13500000       7.70700000
 H      36.26500000      42.12900000       6.75500000
 O      29.13900000      48.80800000      32.36300000
 H      28.20000000      48.50900000      32.12700000
 H      29.45600000      48.89100000      31.42800000
 O      32.48500000      47.66500000      22.16700000
 H      32.65800000      48.54200000      21.76500000
 H      31.46600000      47.72700000      22.11100000
 O      35.74100000      44.39100000      37.50300000
 H      35.23400000      45.24300000      37.38800000
 H      36.67700000      44.80800000      37.41500000
 O      36.03500000      48.04200000      28.55800000
 H      36.46100000      47.45900000      29.22600000
 H      35.36100000      47.41900000      28.18100000
