516
XYZ file of cluster: frame_15000_c322d.72c43.73233 - created by MolEdiTo
 O      37.15000000      22.08500000      35.60500000
 H      36.78200000      22.98100000      35.76300000
 H      38.08800000      22.22900000      35.82900000
 O      40.89700000      39.55500000      39.29800000
 H      40.81300000      39.86100000      38.35700000
 H      40.16400000      39.99300000      39.71500000
 O      39.44900000      35.92300000      27.01800000
 H      38.98400000      36.73500000      27.26900000
 H      39.18800000      35.77300000      26.05600000
 O      35.51300000      33.01100000      40.47100000
 H      34.88300000      32.39400000      40.98200000
 H      35.76900000      32.41700000      39.79700000
 O      40.39100000      21.06800000      32.99000000
 H      39.45500000      21.16300000      32.64600000
 H      40.85800000      21.50600000      32.26200000
 O      38.26100000      34.66900000      34.46700000
 H      37.57800000      35.24800000      34.79400000
 H      38.98900000      35.28400000      34.29900000
 O      39.11600000      27.11900000      25.44000000
 H      39.67400000      26.29100000      25.50000000
 H      38.74700000      26.94800000      24.51800000
 O      37.46700000      21.10300000      26.13400000
 H      36.54000000      20.75400000      26.04500000
 H      37.84800000      20.40400000      26.77900000
 O      36.95400000      31.83800000      35.89800000
 H      37.86400000      31.71700000      35.43800000
 H      36.83700000      32.79300000      35.62000000
 O      40.64400000      35.70900000      33.64600000
 H      40.35800000      36.62300000      33.78600000
 H      40.78500000      35.68600000      32.67400000
 O      37.65400000      36.72100000      40.04600000
 H      38.18500000      36.14800000      39.48400000
 H      37.87000000      36.40000000      40.95000000
 O      34.71700000      39.87900000      37.20800000
 H      35.04700000      40.77400000      37.37000000
 H      35.56300000      39.40100000      37.19100000
 O      35.65800000      30.89700000      38.36000000
 H      34.70500000      30.68900000      38.05900000
 H      35.90400000      31.42000000      37.54500000
 O      37.94500000      25.34200000      35.75300000
 H      38.66900000      24.73700000      35.61300000
 H      38.29100000      26.20700000      35.44900000
 O      39.35100000      26.43400000      38.93100000
 H      38.55600000      25.95700000      38.80300000
 H      39.19900000      27.27600000      38.46500000
 O      35.95100000      38.40500000      20.63800000
 H      35.37300000      38.11500000      19.87300000
 H      35.28400000      38.79800000      21.20700000
 O      38.63600000      25.97600000      22.76500000
 H      38.07200000      26.02900000      22.02400000
 H      39.52000000      25.72300000      22.39000000
 O      40.89400000      33.86400000      24.36400000
 H      41.20400000      34.71600000      24.72600000
 H      40.54400000      34.12800000      23.48800000
 O      36.06900000      29.31600000      35.29800000
 H      35.35700000      29.33500000      34.60800000
 H      36.24000000      30.33000000      35.35000000
 O      35.40100000      27.12800000      26.17200000
 H      35.42900000      26.87200000      25.19400000
 H      35.06400000      26.32600000      26.53700000
 O      36.48300000      23.37700000      32.40200000
 H      37.04400000      24.22100000      32.50400000
 H      35.89600000      23.47500000      33.15700000
 O      40.25000000      30.39400000      38.93600000
 H      39.70900000      29.85300000      38.35300000
 H      41.03200000      30.58100000      38.30800000
 O      40.68700000      24.60900000      33.30900000
 H      40.37300000      23.79000000      32.79200000
 H      40.67800000      25.28600000      32.58900000
 O      37.07900000      38.52700000      26.45600000
 H      37.46600000      39.47500000      26.38400000
 H      36.61000000      38.56800000      27.30900000
 O      39.28400000      28.65500000      21.39000000
 H      38.80000000      28.18300000      20.66300000
 H      40.22000000      28.37900000      21.18800000
 O      37.06700000      22.74800000      39.57800000
 H      36.82200000      23.72400000      39.45200000
 H      36.50200000      22.33600000      38.91000000
 O      38.25900000      34.55600000      28.73900000
 H      38.91400000      34.97600000      28.15800000
 H      38.51900000      33.60700000      28.60800000
 O      38.31300000      33.69300000      31.29500000
 H      39.25100000      33.96800000      31.49200000
 H      38.17600000      34.14200000      30.43600000
 O      39.03400000      33.88900000      22.33900000
 H      39.15400000      33.20200000      21.59700000
 H      38.32600000      34.38300000      21.92300000
 O      34.42500000      35.18300000      23.03500000
 H      34.77800000      35.47900000      23.91700000
 H      35.24900000      35.21800000      22.52200000
 O      35.35100000      36.46800000      25.22600000
 H      36.21600000      37.02300000      25.28600000
 H      35.28100000      36.18600000      26.13200000
 O      35.71600000      24.91300000      29.83900000
 H      36.66900000      25.07900000      29.72000000
 H      35.70600000      24.10300000      30.32200000
 O      40.89200000      40.20400000      36.24900000
 H      40.88700000      40.42300000      35.31400000
 H      41.78000000      40.50600000      36.52500000
 O      40.38300000      28.74500000      31.65900000
 H      40.53100000      29.14100000      32.57200000
 H      40.01000000      29.52900000      31.23400000
 O      36.86500000      28.66900000      22.84700000
 H      37.73600000      28.43800000      22.43100000
 H      37.07000000      29.59200000      23.08100000
 O      39.63500000      24.04100000      25.46700000
 H      40.41000000      23.44300000      25.66200000
 H      39.64300000      24.21000000      24.53100000
 O      37.02700000      28.98000000      40.14400000
 H      36.45900000      28.38100000      40.64600000
 H      36.24600000      29.56300000      39.80000000
 O      39.70400000      37.36700000      36.76200000
 H      39.58100000      37.61400000      35.79800000
 H      40.36600000      38.06700000      36.98500000
 O      40.27100000      26.14400000      31.25000000
 H      40.46700000      27.12000000      31.27100000
 H      40.67100000      25.95800000      30.38100000
 O      35.96600000      34.51900000      32.55000000
 H      36.42400000      34.45800000      33.42700000
 H      36.60000000      34.02700000      32.00000000
 O      34.41400000      28.83200000      29.82600000
 H      34.17600000      29.45000000      30.49600000
 H      35.39500000      28.89000000      29.90300000
 O      38.74200000      31.69700000      20.86200000
 H      38.91200000      30.75800000      21.10200000
 H      38.10300000      31.56600000      20.11000000
 O      36.78000000      40.28700000      32.39600000
 H      35.86200000      40.24700000      32.09300000
 H      36.98900000      41.20600000      32.07100000
 O      38.42500000      22.45400000      28.47200000
 H      37.84400000      22.22800000      27.63700000
 H      38.05800000      21.73900000      29.08100000
 O      38.17000000      28.71100000      37.75400000
 H      37.46800000      29.03400000      37.19200000
 H      37.74700000      28.72800000      38.66200000
 O      40.27600000      34.55900000      37.49500000
 H      39.96500000      35.50800000      37.40200000
 H      41.10600000      34.58900000      36.98200000
 O      36.81900000      30.42500000      28.63200000
 H      37.25600000      29.61600000      29.06000000
 H      36.96200000      30.08100000      27.68700000
 O      35.58800000      27.92600000      20.73300000
 H      36.00000000      28.25000000      21.55600000
 H      36.36100000      27.49300000      20.31100000
 O      34.96700000      21.21800000      37.83200000
 H      34.16200000      20.95700000      38.33900000
 H      34.67700000      22.20600000      37.74300000
 O      37.61200000      26.34500000      27.82300000
 H      37.09200000      25.54300000      27.54900000
 H      37.75700000      26.77800000      26.92500000
 O      39.29800000      38.23500000      34.08600000
 H      38.74400000      38.23100000      33.29600000
 H      39.99200000      38.90300000      33.80700000
 O      39.78500000      20.88600000      24.39600000
 H      40.00800000      19.94100000      24.43500000
 H      39.00100000      20.95700000      24.96300000
 O      35.11500000      32.17400000      20.98400000
 H      34.62700000      32.93800000      20.59600000
 H      34.48400000      31.85400000      21.63300000
 O      35.99700000      36.02600000      27.97700000
 H      35.85200000      36.24800000      28.92600000
 H      36.95000000      35.75700000      27.98900000
 O      36.09100000      23.50800000      22.55600000
 H      37.04300000      23.16200000      22.50400000
 H      35.93300000      23.66100000      21.58300000
 O      40.16500000      37.49700000      20.09300000
 H      39.98000000      38.45800000      20.01500000
 H      40.39300000      37.45100000      21.02700000
 O      38.16500000      25.78900000      32.59400000
 H      38.89800000      25.79000000      31.98100000
 H      38.54900000      26.36300000      33.27600000
 O      35.96300000      39.50100000      28.73500000
 H      35.84000000      40.48400000      28.71300000
 H      35.03700000      39.27700000      28.99800000
 O      39.11200000      32.24900000      27.93700000
 H      39.60400000      32.00700000      27.13700000
 H      38.48000000      31.53100000      28.00500000
 O      40.20400000      22.53000000      30.63400000
 H      39.79500000      22.67400000      29.72900000
 H      41.06700000      22.98500000      30.44200000
 O      39.38100000      32.15100000      34.61900000
 H      39.98800000      32.36900000      35.33900000
 H      38.98600000      33.03100000      34.51900000
 O      34.77800000      37.41000000      39.97500000
 H      34.88000000      36.72500000      40.63400000
 H      35.63800000      37.84500000      39.93900000
 O      36.60300000      25.87400000      39.33200000
 H      36.16400000      26.11500000      40.14900000
 H      36.04400000      26.36200000      38.65900000
 O      40.05500000      40.71800000      24.13800000
 H      40.00800000      40.55500000      25.05000000
 H      39.42700000      41.48400000      23.99000000
 O      39.90100000      22.16500000      39.78900000
 H      40.09600000      21.87000000      40.66200000
 H      38.94600000      22.04000000      39.76400000
 O      37.54600000      28.03800000      30.10800000
 H      37.55100000      27.31600000      29.41200000
 H      38.06900000      27.61900000      30.80400000
 O      39.91300000      32.95800000      39.80500000
 H      39.82500000      32.21900000      39.20300000
 H      40.13600000      33.66300000      39.15500000
 O      38.66600000      22.45200000      22.10300000
 H      39.47800000      22.91800000      21.80800000
 H      38.98000000      21.88500000      22.79600000
 O      39.72100000      22.95200000      35.60400000
 H      40.12000000      23.37400000      34.79400000
 H      40.40500000      22.32000000      35.80800000
 O      40.14700000      25.10200000      28.48900000
 H      39.92900000      24.21800000      27.95500000
 H      39.40000000      25.62300000      28.31600000
 O      37.23100000      38.68800000      36.47400000
 H      38.03900000      38.27000000      36.83400000
 H      36.88800000      37.89700000      35.99600000
 O      34.05800000      22.29100000      24.21200000
 H      33.39700000      22.85800000      23.76200000
 H      34.85400000      22.67600000      23.70300000
 O      37.07000000      29.21800000      26.43800000
 H      36.41900000      28.43100000      26.54800000
 H      36.99500000      29.27800000      25.49000000
 O      39.53600000      31.03900000      30.55600000
 H      39.68400000      31.99200000      30.47000000
 H      38.62800000      31.05600000      30.18300000
 O      40.28600000      40.67400000      33.61700000
 H      40.07900000      41.36900000      32.91600000
 H      39.41600000      40.71900000      34.13300000
 O      39.69100000      31.63300000      25.23600000
 H      39.02300000      31.52300000      24.51800000
 H      40.24200000      32.33700000      24.82400000
 O      40.30500000      29.62900000      34.21900000
 H      41.04000000      29.82000000      34.88200000
 H      39.84500000      30.48100000      34.17500000
 O      38.13600000      38.12300000      31.42500000
 H      37.37100000      37.61500000      31.11900000
 H      37.60400000      38.90400000      31.75700000
 O      35.43400000      32.86200000      24.08700000
 H      34.91200000      33.57700000      23.75100000
 H      34.79800000      32.36300000      24.61400000
 O      40.03900000      38.02400000      22.87900000
 H      39.88400000      38.97900000      23.23600000
 H      39.29100000      37.54900000      23.22200000
 O      36.20600000      36.19900000      35.33500000
 H      35.57700000      36.74700000      34.75900000
 H      35.59400000      35.96600000      36.06900000
 O      38.80900000      38.57900000      28.68500000
 H      38.87400000      38.06300000      29.56100000
 H      37.88700000      38.87200000      28.84100000
 O      35.20500000      26.49000000      23.73600000
 H      35.47200000      25.57300000      23.38600000
 H      35.96900000      26.98500000      23.39400000
 O      37.18200000      38.55200000      23.71300000
 H      37.20700000      38.70000000      24.67100000
 H      36.59300000      39.29000000      23.45700000
 O      37.39500000      31.23200000      23.40800000
 H      36.74600000      31.88000000      23.79000000
 H      37.60100000      31.66600000      22.58800000
 O      34.28300000      34.38700000      26.57900000
 H      34.64200000      33.49200000      26.30300000
 H      34.93300000      34.71300000      27.20600000
 O      35.73800000      36.67100000      30.70200000
 H      34.76900000      36.92200000      30.76900000
 H      35.76600000      35.85100000      31.23700000
 O      38.21800000      27.90400000      34.35500000
 H      37.45500000      28.34800000      34.72400000
 H      38.87500000      28.61500000      34.33200000
 O      35.68200000      27.16000000      33.04000000
 H      35.89800000      26.57800000      32.31100000
 H      36.54700000      27.54500000      33.25200000
 O      38.41700000      35.77400000      24.66100000
 H      37.67700000      36.17700000      24.20500000
 H      38.75200000      35.15200000      23.97300000
 O      37.85600000      40.41000000      20.97300000
 H      37.34600000      40.91800000      21.63000000
 H      37.39700000      39.52900000      21.02300000
 O      36.82600000      35.59300000      21.66300000
 H      36.71800000      35.45600000      20.71000000
 H      36.79600000      36.54800000      21.77700000
 O      36.83400000      23.95200000      26.16100000
 H      36.28100000      23.33000000      25.64600000
 H      37.66100000      23.98700000      25.59700000
 O      37.41100000      20.94700000      33.20500000
 H      37.25900000      21.91700000      32.89200000
 H      37.40800000      21.23000000      34.17900000
 O      43.09500000      35.88100000      28.81500000
 H      42.28400000      36.06000000      28.25700000
 H      43.73100000      35.46100000      28.19200000
 O      46.49300000      28.45000000      31.95400000
 H      45.74600000      29.02700000      32.11000000
 H      47.15800000      28.93300000      32.54200000
 O      45.39000000      26.17300000      25.45000000
 H      46.27500000      25.84800000      25.68300000
 H      45.04100000      26.31600000      26.36800000
 O      45.62500000      34.02800000      39.20000000
 H      45.54900000      34.85800000      38.71500000
 H      46.05600000      34.32500000      40.01100000
 O      48.78400000      24.43800000      32.15000000
 H      49.73600000      24.73500000      32.10400000
 H      48.46400000      24.76700000      31.25300000
 O      44.40900000      24.50800000      23.77900000
 H      44.72600000      25.22200000      24.34700000
 H      44.30600000      23.74100000      24.35500000
 O      47.12900000      32.82800000      34.27000000
 H      46.89200000      32.57100000      33.39800000
 H      46.96600000      31.95800000      34.76000000
 O      45.12300000      28.59900000      24.02400000
 H      45.27600000      27.64800000      24.15800000
 H      44.31900000      28.73400000      24.63800000
 O      46.05500000      34.91800000      24.60300000
 H      45.49000000      35.62400000      24.24400000
 H      45.97400000      34.20400000      23.90700000
 O      44.84000000      36.02000000      35.88100000
 H      45.84600000      35.81600000      35.84400000
 H      44.84200000      36.83600000      35.36300000
 O      46.92700000      23.63800000      26.66500000
 H      46.30300000      23.22100000      27.32700000
 H      47.76600000      23.33300000      27.01900000
 O      49.33500000      23.26400000      23.20900000
 H      48.58200000      22.78300000      23.61800000
 H      49.21100000      23.16400000      22.25600000
 O      45.46000000      34.85600000      31.71300000
 H      45.85500000      33.98400000      31.73600000
 H      45.56700000      35.05600000      30.71400000
 O      45.90600000      33.57100000      29.02100000
 H      45.32200000      33.96500000      28.36500000
 H      45.96400000      32.66100000      28.74800000
 O      44.81400000      25.22800000      35.11600000
 H      45.25200000      25.54300000      34.27000000
 H      43.89400000      25.16000000      34.80600000
 O      44.02000000      31.10100000      30.30200000
 H      43.02900000      31.09100000      30.54100000
 H      43.97700000      30.66200000      29.47300000
 O      45.71300000      38.64300000      21.54000000
 H      46.15000000      38.47400000      22.42800000
 H      45.68800000      37.68600000      21.26700000
 O      47.24800000      35.88500000      40.42900000
 H      48.02800000      36.25300000      39.94300000
 H      47.11800000      36.56900000      41.10100000
 O      44.87900000      36.87000000      38.71700000
 H      45.75800000      36.60100000      38.85200000
 H      44.67200000      36.69500000      37.78800000
 O      45.28000000      22.21000000      28.42700000
 H      44.92200000      21.31900000      28.64800000
 H      45.09400000      22.66400000      29.25300000
 O      44.27100000      33.38800000      34.73000000
 H      43.80100000      34.16300000      34.27800000
 H      45.15400000      33.63100000      34.42400000
 O      45.43900000      22.27900000      33.04100000
 H      46.25100000      22.57100000      33.51600000
 H      45.63800000      21.35800000      32.92500000
 O      49.26800000      31.96600000      28.71600000
 H      49.45100000      31.18300000      28.18200000
 H      48.24900000      32.01800000      28.61000000
 O      44.29500000      29.62200000      27.95300000
 H      43.72100000      30.07100000      27.30100000
 H      44.01800000      28.70900000      27.96200000
 O      44.80900000      23.52000000      30.82200000
 H      45.09600000      22.98000000      31.63600000
 H      44.47700000      24.30200000      31.25100000
 O      47.57800000      35.97200000      36.31100000
 H      48.23400000      35.64500000      35.69000000
 H      48.06500000      36.36600000      37.04800000
 O      44.31500000      31.31500000      23.49100000
 H      44.75100000      30.49600000      23.31500000
 H      43.52400000      31.01100000      23.99500000
 O      46.25600000      38.44100000      28.79400000
 H      45.89200000      38.56400000      29.71000000
 H      46.62300000      37.50200000      28.95600000
 O      46.09400000      23.18100000      21.82200000
 H      46.02500000      22.19600000      21.83100000
 H      45.41800000      23.37900000      22.53800000
 O      46.71000000      30.80600000      28.53500000
 H      46.84100000      30.35300000      27.63300000
 H      46.07700000      30.07800000      28.87500000
 O      47.04600000      21.85100000      24.12100000
 H      46.39800000      21.16800000      23.90700000
 H      47.01900000      21.70900000      25.12700000
 O      45.40300000      33.45800000      22.24200000
 H      44.98900000      32.72800000      22.76800000
 H      46.18300000      32.99700000      21.92100000
 O      42.80800000      34.35200000      31.04800000
 H      42.86000000      34.68300000      30.13500000
 H      43.72600000      34.37800000      31.32600000
 O      47.54200000      35.88700000      29.31900000
 H      47.45400000      34.93500000      29.08600000
 H      48.47300000      36.02400000      29.01800000
 O      45.89200000      25.52500000      38.18000000
 H      45.63500000      25.10800000      37.32200000
 H      44.98400000      25.56600000      38.55700000
 O      42.71200000      25.14800000      21.80100000
 H      43.27400000      25.55400000      21.06300000
 H      43.45900000      24.98400000      22.43300000
 O      47.17700000      32.12000000      38.38300000
 H      46.41100000      32.75100000      38.55500000
 H      47.90700000      32.71900000      38.46800000
 O      42.85700000      37.53400000      30.81800000
 H      42.80800000      36.91800000      30.07100000
 H      41.95900000      37.84400000      30.85800000
 O      44.79100000      34.64400000      26.83000000
 H      45.41500000      34.77300000      26.07900000
 H      44.22000000      34.00600000      26.37400000
 O      48.97400000      29.49300000      37.86500000
 H      48.08900000      29.10700000      38.15100000
 H      49.38600000      29.51800000      38.73300000
 O      47.70600000      25.54600000      21.48500000
 H      47.83100000      25.58700000      22.42900000
 H      47.04900000      24.84700000      21.42000000
 O      49.44200000      34.74800000      34.71800000
 H      50.01500000      34.08400000      34.33000000
 H      48.55100000      34.26900000      34.62700000
 O      46.16600000      38.63700000      24.58500000
 H      45.62900000      38.92500000      25.36200000
 H      46.80300000      38.08500000      25.13700000
 O      43.68000000      22.41300000      25.66400000
 H      44.05700000      22.29000000      26.52900000
 H      43.40600000      21.48800000      25.46600000
 O      42.74200000      29.05900000      25.47400000
 H      41.93300000      29.50100000      25.19600000
 H      42.39900000      28.17300000      25.75700000
 O      44.81300000      39.34100000      31.02600000
 H      44.11600000      38.67000000      31.07200000
 H      45.44400000      38.98600000      31.71000000
 O      46.30900000      30.62000000      35.86600000
 H      46.48100000      29.73500000      36.19100000
 H      46.70900000      31.16600000      36.63300000
 O      44.23800000      36.65300000      23.89200000
 H      43.54100000      36.84600000      23.24100000
 H      44.53000000      37.53000000      24.10900000
 O      46.09100000      37.46200000      32.48100000
 H      47.07500000      37.31000000      32.43400000
 H      45.79100000      36.55600000      32.31000000
 O      45.24400000      26.65200000      30.05400000
 H      45.94400000      25.95600000      30.02600000
 H      45.66600000      27.37100000      30.49400000
 O      43.63000000      34.24000000      19.91300000
 H      44.57100000      34.19600000      19.63000000
 H      43.72400000      33.91200000      20.81700000
 O      46.14000000      28.62500000      37.98300000
 H      45.56900000      28.92600000      38.73200000
 H      45.68800000      27.81600000      37.69900000
 O      46.07900000      35.92400000      21.40000000
 H      45.55900000      35.27400000      21.95800000
 H      46.82000000      35.42000000      21.06700000
 O      48.32900000      21.82800000      33.70500000
 H      48.58000000      22.16700000      34.63700000
 H      48.42800000      22.72100000      33.24400000
 O      47.08200000      20.26000000      26.52900000
 H      47.55700000      21.01300000      26.96200000
 H      47.18300000      19.59400000      27.18200000
 O      46.14200000      32.18600000      31.48800000
 H      47.00700000      31.96300000      31.16800000
 H      45.60100000      31.92900000      30.71500000
 O      49.17900000      20.78000000      31.12400000
 H      48.28100000      20.48300000      30.74200000
 H      48.83000000      21.11700000      32.00500000
 O      48.75200000      35.54000000      24.78000000
 H      47.77800000      35.44100000      24.86800000
 H      48.94900000      35.60700000      25.74100000
 O      45.02400000      38.75800000      34.52900000
 H      45.37300000      38.29500000      33.73300000
 H      45.00000000      39.67900000      34.21900000
 O      48.31000000      29.39600000      33.60400000
 H      48.58400000      29.70500000      34.47500000
 H      49.17700000      29.16600000      33.21500000
 O      43.84600000      26.83500000      27.70400000
 H      43.17600000      26.13500000      27.85900000
 H      44.29700000      26.78300000      28.58900000
 O      46.61500000      25.96300000      32.97700000
 H      46.68300000      26.91600000      32.69400000
 H      47.49600000      25.61800000      32.66800000
 O      48.47000000      26.33700000      38.81600000
 H      47.69100000      25.85800000      38.48300000
 H      48.10000000      26.72800000      39.61400000
 O      49.29800000      40.30600000      22.47800000
 H      49.59400000      39.77000000      21.76400000
 H      48.47800000      40.74500000      22.09200000
 O      48.31900000      39.78400000      38.24200000
 H      48.70000000      38.86000000      38.29100000
 H      47.82400000      39.73300000      39.16200000
 O      46.87500000      29.86400000      25.94800000
 H      46.26300000      29.23100000      25.52700000
 H      47.58800000      29.87800000      25.28500000
 O      49.32900000      26.38500000      34.81100000
 H      48.62000000      26.93000000      34.37300000
 H      49.75100000      25.93100000      34.03900000
 O      47.07400000      39.67700000      40.47500000
 H      46.16900000      40.00200000      40.64300000
 H      47.08400000      39.00800000      41.21700000
 O      49.65000000      31.79600000      24.72800000
 H      49.97000000      31.46100000      23.89900000
 H      48.71800000      32.10600000      24.51500000
 O      48.18800000      25.64800000      29.70500000
 H      48.98500000      25.36500000      29.14300000
 H      48.49700000      26.58700000      29.81000000
 O      45.59200000      40.33200000      37.23300000
 H      45.91000000      39.75700000      37.93800000
 H      45.61900000      39.61900000      36.48700000
 O      43.50700000      31.04300000      35.94700000
 H      44.43500000      30.78600000      36.05600000
 H      43.64500000      31.91000000      35.47300000
 O      43.79800000      21.51000000      36.25900000
 H      44.18000000      22.38800000      36.38100000
 H      44.55900000      21.06000000      35.81600000
 O      44.50800000      39.34500000      26.54600000
 H      43.73600000      39.69000000      27.03800000
 H      45.14400000      39.18500000      27.23500000
 O      47.32400000      21.55200000      37.51300000
 H      48.00900000      20.85700000      37.49200000
 H      47.89500000      22.35300000      37.45500000
 O      43.25200000      24.40100000      38.52200000
 H      42.53100000      25.04900000      38.29000000
 H      42.70900000      23.63000000      38.78900000
 O      48.25000000      38.20300000      26.49700000
 H      48.92200000      38.52700000      27.19800000
 H      47.44800000      38.30900000      27.10300000
 O      42.70500000      40.22300000      28.22200000
 H      42.24900000      40.94200000      28.61600000
 H      42.13000000      39.44800000      28.38400000
