612
XYZ file of cluster: frame_15000_c42a1.c4378.23cee - created by MolEdiTo
 O      40.89700000      39.55500000      39.29800000
 H      40.81300000      39.86100000      38.35700000
 H      40.16400000      39.99300000      39.71500000
 O      37.23100000      38.68800000      36.47400000
 H      38.03900000      38.27000000      36.83400000
 H      36.88800000      37.89700000      35.99600000
 O      36.71300000      36.35800000      11.85200000
 H      37.44900000      35.75600000      11.76900000
 H      37.03600000      37.09900000      12.45900000
 O      39.44900000      35.92300000      27.01800000
 H      38.98400000      36.73500000      27.26900000
 H      39.18800000      35.77300000      26.05600000
 O      40.27600000      34.55900000      37.49500000
 H      39.96500000      35.50800000      37.40200000
 H      41.10600000      34.58900000      36.98200000
 O      38.26100000      34.66900000      34.46700000
 H      37.57800000      35.24800000      34.79400000
 H      38.98900000      35.28400000      34.29900000
 O      37.07900000      38.52700000      26.45600000
 H      37.46600000      39.47500000      26.38400000
 H      36.61000000      38.56800000      27.30900000
 O      34.07900000      37.12500000      11.04300000
 H      34.18500000      37.07100000      10.07900000
 H      34.98900000      36.96400000      11.36800000
 O      35.34400000      39.88700000      13.03300000
 H      35.85300000      40.43800000      13.60600000
 H      35.66500000      40.21400000      12.13700000
 O      38.61900000      34.33500000       6.10500000
 H      38.79700000      35.30500000       6.38100000
 H      38.80700000      33.95800000       6.97000000
 O      40.28600000      40.67400000      33.61700000
 H      40.07900000      41.36900000      32.91600000
 H      39.41600000      40.71900000      34.13300000
 O      39.46000000      35.70800000      11.58200000
 H      39.71100000      34.76300000      11.43100000
 H      40.37000000      36.05200000      11.59400000
 O      38.13600000      38.12300000      31.42500000
 H      37.37100000      37.61500000      31.11900000
 H      37.60400000      38.90400000      31.75700000
 O      38.25900000      34.55600000      28.73900000
 H      38.91400000      34.97600000      28.15800000
 H      38.51900000      33.60700000      28.60800000
 O      40.64400000      35.70900000      33.64600000
 H      40.35800000      36.62300000      33.78600000
 H      40.78500000      35.68600000      32.67400000
 O      40.37800000      34.43100000      16.13800000
 H      39.57700000      34.92500000      15.84800000
 H      40.23600000      33.59700000      15.57300000
 O      37.65400000      36.72100000      40.04600000
 H      38.18500000      36.14800000      39.48400000
 H      37.87000000      36.40000000      40.95000000
 O      34.42500000      35.18300000      23.03500000
 H      34.77800000      35.47900000      23.91700000
 H      35.24900000      35.21800000      22.52200000
 O      35.35100000      36.46800000      25.22600000
 H      36.21600000      37.02300000      25.28600000
 H      35.28100000      36.18600000      26.13200000
 O      39.47700000      35.05100000      19.04800000
 H      40.41900000      34.70700000      19.11700000
 H      39.64100000      36.00100000      19.32900000
 O      39.29800000      38.23500000      34.08600000
 H      38.74400000      38.23100000      33.29600000
 H      39.99200000      38.90300000      33.80700000
 O      37.21000000      36.82800000       8.64300000
 H      38.07700000      36.49400000       8.48100000
 H      36.87000000      36.07100000       9.19100000
 O      40.89200000      40.20400000      36.24900000
 H      40.88700000      40.42300000      35.31400000
 H      41.78000000      40.50600000      36.52500000
 O      40.03900000      38.02400000      22.87900000
 H      39.88400000      38.97900000      23.23600000
 H      39.29100000      37.54900000      23.22200000
 O      39.23100000      39.61300000       7.53700000
 H      38.62200000      39.29100000       6.85600000
 H      39.00300000      39.07000000       8.31100000
 O      35.99700000      36.02600000      27.97700000
 H      35.85200000      36.24800000      28.92600000
 H      36.95000000      35.75700000      27.98900000
 O      36.20600000      36.19900000      35.33500000
 H      35.57700000      36.74700000      34.75900000
 H      35.59400000      35.96600000      36.06900000
 O      38.80900000      38.57900000      28.68500000
 H      38.87400000      38.06300000      29.56100000
 H      37.88700000      38.87200000      28.84100000
 O      38.46200000      35.12300000      14.11300000
 H      38.94000000      34.85400000      13.32800000
 H      38.12300000      36.01700000      13.92600000
 O      34.71700000      39.87900000      37.20800000
 H      35.04700000      40.77400000      37.37000000
 H      35.56300000      39.40100000      37.19100000
 O      37.18200000      38.55200000      23.71300000
 H      37.20700000      38.70000000      24.67100000
 H      36.59300000      39.29000000      23.45700000
 O      40.16500000      37.49700000      20.09300000
 H      39.98000000      38.45800000      20.01500000
 H      40.39300000      37.45100000      21.02700000
 O      39.54100000      36.55500000       7.57400000
 H      39.98500000      37.11600000       6.94700000
 H      40.28800000      36.11700000       7.99900000
 O      35.96300000      39.50100000      28.73500000
 H      35.84000000      40.48400000      28.71300000
 H      35.03700000      39.27700000      28.99800000
 O      35.73800000      36.67100000      30.70200000
 H      34.76900000      36.92200000      30.76900000
 H      35.76600000      35.85100000      31.23700000
 O      34.77800000      37.41000000      39.97500000
 H      34.88000000      36.72500000      40.63400000
 H      35.63800000      37.84500000      39.93900000
 O      39.70300000      38.18800000      15.92800000
 H      40.54100000      38.36600000      15.36400000
 H      40.09800000      37.68300000      16.64300000
 O      40.04800000      40.31400000      19.42200000
 H      39.18600000      40.37300000      19.91700000
 H      40.56500000      40.90800000      20.06700000
 O      36.98400000      38.16600000      17.78700000
 H      37.46900000      37.31900000      17.83800000
 H      37.12100000      38.54200000      18.63100000
 O      39.70400000      37.36700000      36.76200000
 H      39.58100000      37.61400000      35.79800000
 H      40.36600000      38.06700000      36.98500000
 O      35.95100000      38.40500000      20.63800000
 H      35.37300000      38.11500000      19.87300000
 H      35.28400000      38.79800000      21.20700000
 O      38.60200000      39.17200000      10.50900000
 H      39.38300000      38.81700000      10.98200000
 H      38.19400000      38.38800000      10.19500000
 O      40.05500000      40.71800000      24.13800000
 H      40.00800000      40.55500000      25.05000000
 H      39.42700000      41.48400000      23.99000000
 O      38.22000000      38.13300000      13.55600000
 H      38.90100000      38.16200000      14.26800000
 H      37.76300000      38.94100000      13.72300000
 O      38.41700000      35.77400000      24.66100000
 H      37.67700000      36.17700000      24.20500000
 H      38.75200000      35.15200000      23.97300000
 O      40.53100000      40.74900000      16.68200000
 H      39.97900000      39.95100000      16.41900000
 H      40.54100000      40.64000000      17.61400000
 O      35.32500000      38.27900000      15.79400000
 H      35.98400000      38.14700000      16.52400000
 H      35.77000000      37.92500000      15.05700000
 O      37.85600000      40.41000000      20.97300000
 H      37.34600000      40.91800000      21.63000000
 H      37.39700000      39.52900000      21.02300000
 O      36.78000000      40.28700000      32.39600000
 H      35.86200000      40.24700000      32.09300000
 H      36.98900000      41.20600000      32.07100000
 O      36.82600000      35.59300000      21.66300000
 H      36.71800000      35.45600000      20.71000000
 H      36.79600000      36.54800000      21.77700000
 O      37.03700000      38.47100000       6.40300000
 H      36.02900000      38.36500000       6.35500000
 H      37.23300000      37.79500000       7.07300000
 O      36.85700000      35.20200000      18.71800000
 H      36.64900000      34.52700000      18.00700000
 H      37.82200000      35.03700000      18.82900000
 O      37.47700000      44.02700000      31.25400000
 H      38.45100000      43.98200000      31.54500000
 H      37.39400000      44.99500000      31.45200000
 O      34.76800000      43.01700000       9.31600000
 H      35.44500000      42.73400000       9.95900000
 H      33.94900000      43.04700000       9.88000000
 O      35.46700000      44.02200000      29.27400000
 H      34.82700000      44.50700000      29.79400000
 H      36.22500000      44.17800000      29.84700000
 O      36.03500000      48.04200000      28.55800000
 H      36.46100000      47.45900000      29.22600000
 H      35.36100000      47.41900000      28.18100000
 O      34.25700000      48.11400000      17.16200000
 H      33.57300000      47.71300000      17.73200000
 H      35.02500000      47.65100000      17.51100000
 O      34.91200000      46.94500000      13.62600000
 H      34.43200000      46.13500000      13.89600000
 H      34.17000000      47.60600000      13.83100000
 O      38.51400000      47.30200000      11.84300000
 H      38.47800000      46.46700000      11.33600000
 H      37.80000000      47.82300000      11.43500000
 O      37.74400000      45.46800000       7.82900000
 H      36.85000000      45.48700000       8.26900000
 H      37.51700000      45.19900000       6.95700000
 O      37.02900000      48.22600000       9.40000000
 H      36.55800000      47.44200000       9.07800000
 H      37.96500000      47.99400000       9.28300000
 O      35.93800000      49.17600000      12.86000000
 H      35.14500000      49.40800000      12.32800000
 H      35.71000000      48.21600000      13.06700000
 O      37.94900000      45.98800000      26.87100000
 H      38.89700000      45.81100000      26.96400000
 H      37.82400000      46.60600000      27.61800000
 O      35.44800000      44.01500000      26.55000000
 H      35.18800000      43.92000000      27.47400000
 H      35.72200000      44.93200000      26.51800000
 O      34.21000000      42.53500000      15.66800000
 H      34.91200000      42.70900000      16.30900000
 H      34.55000000      41.68200000      15.29000000
 O      38.84400000      48.44700000      35.96400000
 H      38.63200000      47.56800000      36.10400000
 H      38.86300000      48.63900000      35.02400000
 O      37.83300000      45.72300000      19.18000000
 H      37.18000000      45.06600000      19.45700000
 H      38.31700000      45.80900000      20.07000000
 O      37.58500000      48.47200000      19.00900000
 H      37.53000000      48.71200000      18.10000000
 H      37.51500000      47.48700000      18.93700000
 O      37.03000000      46.68900000      30.81500000
 H      37.61100000      47.44600000      31.15600000
 H      36.24400000      46.87700000      31.38000000
 O      36.15600000      43.22200000      23.07300000
 H      35.89400000      43.71900000      22.26400000
 H      36.23800000      43.95600000      23.74500000
 O      40.84300000      47.99300000      12.80900000
 H      40.00900000      47.64700000      12.39500000
 H      41.46500000      47.31100000      12.58800000
 O      40.36400000      46.71800000      31.62700000
 H      40.77900000      46.91800000      30.74500000
 H      39.77800000      47.53000000      31.73700000
 O      36.82200000      42.98200000      10.96700000
 H      37.37200000      43.81300000      10.89300000
 H      37.51700000      42.35800000      10.91200000
 O      39.52200000      47.28800000      24.47700000
 H      39.86800000      47.90600000      23.78400000
 H      40.43000000      47.00000000      24.80300000
 O      35.07000000      45.73700000       8.74900000
 H      34.31400000      45.92900000       8.15100000
 H      34.87600000      44.80200000       8.99700000
 O      38.65700000      44.56400000      37.07900000
 H      38.39900000      44.08000000      36.25600000
 H      39.34200000      45.14600000      36.68000000
 O      39.92400000      42.77700000      12.96100000
 H      39.66400000      42.14300000      12.28200000
 H      40.45400000      43.37000000      12.40500000
 O      37.25100000      42.52300000      14.70000000
 H      37.06900000      42.82400000      15.62700000
 H      37.88200000      43.16100000      14.40300000
 O      34.47600000      46.73200000      36.79300000
 H      34.13600000      46.80100000      35.87500000
 H      35.15900000      47.44100000      36.79900000
 O      37.18900000      46.31400000      39.33700000
 H      37.63200000      46.32100000      40.26000000
 H      37.74300000      45.55900000      38.98500000
 O      38.30600000      43.22900000      28.80000000
 H      37.82400000      43.25600000      29.65800000
 H      38.90700000      43.96800000      28.90000000
 O      37.83800000      42.61600000      34.97900000
 H      37.85000000      41.96500000      35.74000000
 H      37.13500000      42.19400000      34.43600000
 O      37.86100000      42.73300000      26.35700000
 H      36.97400000      43.06000000      26.44000000
 H      38.11900000      42.84100000      27.29100000
 O      39.23700000      45.85100000      21.36200000
 H      39.05400000      46.25200000      22.21000000
 H      39.71100000      45.02000000      21.64600000
 O      39.68200000      47.78000000       8.45400000
 H      39.10700000      47.58100000       7.65900000
 H      40.53100000      47.34400000       8.04200000
 O      36.57000000      48.50700000      38.06500000
 H      36.94700000      47.73900000      38.58500000
 H      37.15100000      48.55200000      37.31200000
 O      40.55600000      44.81000000      28.78800000
 H      41.41300000      44.53200000      28.47100000
 H      40.71600000      45.73300000      29.00700000
 O      38.77700000      45.00200000      10.35000000
 H      38.58900000      45.07800000       9.39500000
 H      39.74600000      44.93200000      10.30200000
 O      36.88900000      43.52000000      17.18700000
 H      37.09900000      42.87200000      17.73600000
 H      37.27900000      44.36300000      17.52600000
 O      40.87200000      47.40900000      29.14600000
 H      40.30900000      47.80300000      28.44200000
 H      41.22400000      48.22600000      29.54400000
 O      39.31700000      48.41500000      27.22400000
 H      40.19500000      48.77300000      27.01700000
 H      39.01700000      48.05700000      26.41600000
 O      36.23300000      46.95300000      24.94400000
 H      36.93900000      46.78000000      25.63700000
 H      36.38900000      47.91300000      24.71100000
 O      38.46000000      44.58000000      24.13200000
 H      38.31100000      45.51700000      24.17700000
 H      38.14200000      44.25900000      24.99700000
 O      37.94300000      42.68500000      39.43000000
 H      38.38400000      43.38100000      38.93700000
 H      37.02300000      42.66800000      39.06600000
 O      36.26100000      43.06200000       6.95400000
 H      35.64900000      43.13500000       7.70700000
 H      36.26500000      42.12900000       6.75500000
 O      35.74100000      44.39100000      37.50300000
 H      35.23400000      45.24300000      37.38800000
 H      36.67700000      44.80800000      37.41500000
 O      40.19900000      44.10600000      31.66500000
 H      40.93000000      43.95900000      31.07600000
 H      40.42300000      45.06800000      31.95200000
 O      35.09500000      44.54900000      20.87300000
 H      34.37600000      44.21100000      20.30500000
 H      35.05200000      45.50500000      20.74300000
 O      37.58300000      46.20300000      14.56400000
 H      37.66400000      45.95900000      13.64800000
 H      36.68500000      46.63600000      14.54600000
 O      40.73400000      45.69100000      36.22300000
 H      41.40100000      45.39900000      36.86000000
 H      41.27500000      46.19300000      35.59700000
 O      39.84200000      46.43000000      16.00900000
 H      39.88300000      47.37000000      15.65700000
 H      39.14600000      46.08000000      15.44900000
 O      40.03000000      43.85200000       8.09500000
 H      39.03500000      43.86400000       8.01000000
 H      40.12900000      42.88500000       8.22500000
 O      42.85700000      37.53400000      30.81800000
 H      42.80800000      36.91800000      30.07100000
 H      41.95900000      37.84400000      30.85800000
 O      43.09500000      35.88100000      28.81500000
 H      42.28400000      36.06000000      28.25700000
 H      43.73100000      35.46100000      28.19200000
 O      45.02400000      38.75800000      34.52900000
 H      45.37300000      38.29500000      33.73300000
 H      45.00000000      39.67900000      34.21900000
 O      44.79100000      34.64400000      26.83000000
 H      45.41500000      34.77300000      26.07900000
 H      44.22000000      34.00600000      26.37400000
 O      47.57700000      36.69800000       9.88700000
 H      47.99400000      37.32300000      10.50600000
 H      47.58800000      37.09100000       9.03500000
 O      45.62500000      34.02800000      39.20000000
 H      45.54900000      34.85800000      38.71500000
 H      46.05600000      34.32500000      40.01100000
 O      48.09900000      35.03000000       6.26400000
 H      48.53200000      34.44700000       7.00200000
 H      47.28700000      34.50000000       6.23200000
 O      46.56300000      34.37400000      10.88500000
 H      46.94000000      35.06900000      10.34100000
 H      47.37600000      33.99400000      11.31700000
 O      43.99900000      35.00700000      11.31000000
 H      44.07300000      34.96800000      12.33600000
 H      44.95100000      34.62600000      11.15200000
 O      47.57800000      35.97200000      36.31100000
 H      48.23400000      35.64500000      35.69000000
 H      48.06500000      36.36600000      37.04800000
 O      49.44200000      34.74800000      34.71800000
 H      50.01500000      34.08400000      34.33000000
 H      48.55100000      34.26900000      34.62700000
 O      49.29800000      40.30600000      22.47800000
 H      49.59400000      39.77000000      21.76400000
 H      48.47800000      40.74500000      22.09200000
 O      46.05500000      34.91800000      24.60300000
 H      45.49000000      35.62400000      24.24400000
 H      45.97400000      34.20400000      23.90700000
 O      48.66900000      36.34800000      16.22900000
 H      48.74100000      36.58900000      15.27900000
 H      48.13900000      37.08400000      16.60900000
 O      44.84000000      36.02000000      35.88100000
 H      45.84600000      35.81600000      35.84400000
 H      44.84200000      36.83600000      35.36300000
 O      48.31900000      39.78400000      38.24200000
 H      48.70000000      38.86000000      38.29100000
 H      47.82400000      39.73300000      39.16200000
 O      45.16700000      39.51800000      19.04400000
 H      44.54500000      40.14300000      19.43000000
 H      45.59400000      39.14100000      19.83300000
 O      46.16600000      38.63700000      24.58500000
 H      45.62900000      38.92500000      25.36200000
 H      46.80300000      38.08500000      25.13700000
 O      48.96300000      39.08300000      10.80500000
 H      48.46500000      39.67600000      10.16700000
 H      48.99900000      39.72400000      11.56400000
 O      46.25600000      38.44100000      28.79400000
 H      45.89200000      38.56400000      29.71000000
 H      46.62300000      37.50200000      28.95600000
 O      44.46200000      35.70600000      16.43000000
 H      44.21200000      36.60700000      16.70700000
 H      43.57300000      35.22500000      16.49100000
 O      46.33200000      39.71200000      14.34700000
 H      46.16200000      38.83900000      13.87300000
 H      46.70500000      39.29400000      15.19000000
 O      45.46000000      34.85600000      31.71300000
 H      45.85500000      33.98400000      31.73600000
 H      45.56700000      35.05600000      30.71400000
 O      44.81300000      39.34100000      31.02600000
 H      44.11600000      38.67000000      31.07200000
 H      45.44400000      38.98600000      31.71000000
 O      44.23800000      36.65300000      23.89200000
 H      43.54100000      36.84600000      23.24100000
 H      44.53000000      37.53000000      24.10900000
 O      46.09100000      37.46200000      32.48100000
 H      47.07500000      37.31000000      32.43400000
 H      45.79100000      36.55600000      32.31000000
 O      47.17200000      38.20900000       7.71200000
 H      46.40000000      37.76500000       7.30200000
 H      47.44100000      38.82200000       7.05800000
 O      45.83200000      37.55600000      12.62400000
 H      46.07300000      36.61200000      12.70500000
 H      45.85500000      37.65100000      11.60100000
 O      43.33900000      39.30700000      14.29200000
 H      42.93300000      40.16400000      13.89900000
 H      44.28700000      39.60800000      14.24800000
 O      47.07400000      39.67700000      40.47500000
 H      46.16900000      40.00200000      40.64300000
 H      47.08400000      39.00800000      41.21700000
 O      45.71300000      38.64300000      21.54000000
 H      46.15000000      38.47400000      22.42800000
 H      45.68800000      37.68600000      21.26700000
 O      43.36000000      37.90800000      10.94800000
 H      43.58800000      37.94800000      11.88100000
 H      44.19700000      38.27500000      10.54800000
 O      47.24800000      35.88500000      40.42900000
 H      48.02800000      36.25300000      39.94300000
 H      47.11800000      36.56900000      41.10100000
 O      44.87900000      36.87000000      38.71700000
 H      45.75800000      36.60100000      38.85200000
 H      44.67200000      36.69500000      37.78800000
 O      43.58800000      35.65000000       8.79300000
 H      44.36200000      36.07500000       8.43300000
 H      43.83000000      35.74300000       9.78500000
 O      47.10000000      38.57200000      16.63900000
 H      46.29500000      38.45300000      17.12000000
 H      47.58600000      39.12100000      17.29600000
 O      45.59200000      40.33200000      37.23300000
 H      45.91000000      39.75700000      37.93800000
 H      45.61900000      39.61900000      36.48700000
 O      44.70400000      34.63900000      13.81100000
 H      44.34700000      35.42500000      14.35700000
 H      45.27500000      34.29900000      14.53300000
 O      47.54200000      35.88700000      29.31900000
 H      47.45400000      34.93500000      29.08600000
 H      48.47300000      36.02400000      29.01800000
 O      44.50800000      39.34500000      26.54600000
 H      43.73600000      39.69000000      27.03800000
 H      45.14400000      39.18500000      27.23500000
 O      46.07900000      35.92400000      21.40000000
 H      45.55900000      35.27400000      21.95800000
 H      46.82000000      35.42000000      21.06700000
 O      45.56900000      38.83600000       9.71000000
 H      46.15700000      38.49300000       9.01400000
 H      45.25900000      39.64900000       9.28400000
 O      43.45200000      38.04100000      17.79900000
 H      42.88500000      37.84000000      18.59100000
 H      44.18500000      38.55100000      18.26000000
 O      48.25000000      38.20300000      26.49700000
 H      48.92200000      38.52700000      27.19800000
 H      47.44800000      38.30900000      27.10300000
 O      48.75200000      35.54000000      24.78000000
 H      47.77800000      35.44100000      24.86800000
 H      48.94900000      35.60700000      25.74100000
 O      42.70500000      40.22300000      28.22200000
 H      42.24900000      40.94200000      28.61600000
 H      42.13000000      39.44800000      28.38400000
 O      48.57000000      33.97100000      17.40000000
 H      48.69900000      34.84000000      16.96500000
 H      49.36700000      33.50000000      17.13700000
 O      45.37400000      46.78600000      16.12500000
 H      45.71800000      46.08700000      16.63700000
 H      44.95800000      46.27900000      15.40900000
 O      44.30200000      43.20000000      24.61600000
 H      44.45000000      42.42000000      25.21200000
 H      43.40100000      42.96700000      24.28100000
 O      47.73500000      47.21500000      26.97200000
 H      47.58600000      47.07900000      27.90000000
 H      47.50900000      46.33600000      26.61500000
 O      43.72800000      44.29500000      10.98900000
 H      44.01400000      45.23700000      11.04800000
 H      44.57600000      43.82500000      10.93500000
 O      48.79900000      46.66500000      23.75000000
 H      49.34700000      45.87700000      23.47700000
 H      47.89000000      46.35400000      23.62200000
 O      49.05500000      45.76400000      30.14200000
 H      48.42400000      45.14300000      30.54900000
 H      49.60900000      45.23900000      29.60900000
 O      45.35400000      49.58500000      15.36300000
 H      44.91400000      49.64200000      14.51500000
 H      45.31700000      48.59600000      15.55100000
 O      48.07600000      49.12400000      21.25400000
 H      47.44500000      48.38800000      21.50700000
 H      47.89700000      49.14000000      20.29900000
 O      45.50300000      45.03200000      20.55600000
 H      46.32400000      45.42500000      20.08000000
 H      44.86300000      45.13200000      19.75800000
 O      43.75200000      44.54600000      15.69800000
 H      43.18200000      43.79100000      16.01700000
 H      43.12200000      45.28100000      15.75000000
 O      44.84600000      43.01400000       8.71000000
 H      44.35500000      43.84300000       8.86800000
 H      44.30200000      42.62000000       7.93800000
 O      48.82300000      45.83900000      34.69100000
 H      48.22500000      46.34300000      35.35000000
 H      48.51500000      46.14900000      33.86000000
 O      49.04000000      47.63100000      16.99200000
 H      48.63800000      46.77100000      16.93800000
 H      48.31600000      48.19700000      17.28000000
 O      44.33200000      43.63700000      30.67600000
 H      44.54100000      42.62500000      30.72800000
 H      44.43700000      43.76600000      29.70200000
 O      45.18600000      46.82100000       9.03800000
 H      44.61100000      46.40500000       8.31800000
 H      45.95900000      47.08200000       8.50400000
 O      48.47100000      44.82800000      12.93800000
 H      48.99300000      45.58900000      13.29200000
 H      47.72400000      44.80500000      13.52700000
 O      46.18700000      49.17700000      37.92600000
 H      45.57900000      49.32500000      38.66500000
 H      46.05500000      48.23600000      37.82300000
 O      47.75500000      42.74100000       9.12500000
 H      47.86200000      43.67000000       9.38800000
 H      46.77200000      42.66500000       9.12300000
 O      45.50200000      43.34700000      33.43500000
 H      45.86700000      43.92600000      32.71900000
 H      45.09700000      42.69900000      32.88600000
 O      47.01900000      44.77000000      31.41900000
 H      46.88600000      43.98000000      30.80900000
 H      46.52000000      45.41700000      30.92500000
 O      47.17600000      42.83900000      29.43000000
 H      47.85900000      42.97600000      28.79400000
 H      46.88500000      41.91300000      29.05200000
 O      43.26500000      47.56100000      20.86200000
 H      43.26600000      48.20000000      21.61400000
 H      42.39100000      47.19800000      20.91200000
 O      47.24200000      42.74700000      24.09700000
 H      48.10800000      42.39300000      24.01400000
 H      46.75000000      41.91300000      24.27500000
 O      47.93000000      44.86700000      16.39500000
 H      47.66500000      44.51200000      15.52100000
 H      48.82100000      44.49400000      16.45700000
 O      48.86900000      47.87000000      10.66100000
 H      48.49800000      47.88600000      11.61400000
 H      48.32000000      48.49700000      10.19300000
 O      47.51400000      44.65800000      26.26800000
 H      47.44400000      44.27700000      25.41500000
 H      48.29700000      44.19000000      26.65100000
 O      43.59400000      45.31300000      18.62700000
 H      43.38800000      44.89900000      17.76800000
 H      42.75400000      45.74000000      18.80700000
 O      48.55300000      47.35200000      32.21200000
 H      48.47300000      46.86400000      31.37600000
 H      49.35200000      47.89100000      31.96200000
 O      45.12200000      44.71700000      36.00900000
 H      45.02700000      44.75000000      35.04900000
 H      45.20400000      43.75100000      36.18000000
 O      44.56800000      48.65900000      18.34000000
 H      44.11200000      48.31200000      19.13900000
 H      44.67500000      47.82200000      17.83600000
 O      45.58900000      47.59000000      22.07100000
 H      44.92800000      47.25900000      21.42300000
 H      45.76500000      46.71500000      22.51900000
 O      48.72700000      42.46800000       6.40400000
 H      48.60100000      42.28800000       7.38000000
 H      47.97700000      43.03000000       6.17200000
 O      43.71600000      47.50100000      33.93100000
 H      43.47700000      47.11900000      33.09400000
 H      44.62700000      47.79300000      33.78700000
 O      43.22800000      43.22400000      21.40100000
 H      43.60100000      43.00200000      22.29100000
 H      43.60100000      44.14000000      21.26000000
 O      44.97400000      49.32200000      10.35400000
 H      45.84700000      49.68700000      10.20000000
 H      45.11400000      48.35500000      10.16500000
 O      47.72000000      45.37200000      18.91500000
 H      48.39200000      44.70500000      19.11800000
 H      47.66300000      45.22500000      17.95800000
 O      49.26400000      48.01900000      38.16000000
 H      48.38900000      47.91200000      37.69900000
 H      48.94000000      47.85700000      39.08300000
 O      44.91400000      44.47400000      27.97400000
 H      45.67300000      44.82400000      28.48300000
 H      45.40000000      44.08300000      27.19300000
 O      45.26800000      46.25200000      12.62900000
 H      46.01100000      46.86200000      12.56600000
 H      45.69500000      45.42500000      12.92300000
 O      43.46600000      45.51200000      25.77800000
 H      43.98100000      45.60200000      26.61500000
 H      43.92400000      44.76900000      25.37000000
 O      47.32100000      47.92600000      13.05900000
 H      47.77100000      47.54000000      13.86100000
 H      47.48000000      48.88600000      13.17500000
 O      46.00100000      44.14000000      14.18200000
 H      45.27900000      44.19600000      14.87700000
 H      46.03300000      43.15700000      14.07200000
 O      48.62100000      45.87400000       8.59700000
 H      48.23400000      46.76000000       8.69700000
 H      49.37500000      45.99700000       8.02400000
 O      47.76400000      44.12300000      40.47200000
 H      47.75600000      43.18900000      40.72900000
 H      47.05600000      44.46600000      41.11800000
 O      47.61300000      48.25600000       7.83400000
 H      47.61100000      49.16300000       7.55700000
 H      48.02100000      47.81000000       6.97500000
 O      48.15500000      44.31800000      38.00400000
 H      48.32800000      43.36800000      37.88700000
 H      47.89900000      44.34800000      38.93600000
 O      45.81600000      46.79600000      29.50100000
 H      44.88600000      47.10600000      29.25500000
 H      46.24900000      47.73600000      29.43400000
 O      48.27700000      46.94300000      40.54600000
 H      48.22800000      46.21700000      41.16900000
 H      47.29900000      47.09400000      40.35700000
 O      47.21700000      42.92100000      21.09400000
 H      46.54300000      42.31400000      21.49500000
 H      46.56800000      43.56800000      20.71700000
 O      46.99600000      46.62100000      37.16100000
 H      47.41100000      45.81400000      37.59000000
 H      46.21000000      46.14400000      36.76600000
 O      48.86800000      43.24500000      33.98100000
 H      48.79300000      44.18300000      34.35600000
 H      48.53300000      43.36500000      33.09500000
 O      46.28400000      45.69100000      23.57500000
 H      45.69500000      45.64000000      24.34900000
 H      46.28600000      44.78600000      23.23400000
 O      43.49300000      45.75500000       7.17200000
 H      43.06400000      46.14200000       6.37200000
 H      42.91500000      44.98600000       7.37300000
 O      45.90800000      48.47600000      32.51600000
 H      46.70900000      47.99400000      32.14200000
 H      45.56300000      48.94600000      31.75100000
 O      48.26800000      49.10300000      25.25000000
 H      47.84300000      48.55600000      25.90700000
 H      48.52400000      48.36900000      24.61400000
