1083
XYZ file of cluster: frame_18000_c33e5.18d2.72284 - created by MolEdiTo
 O      36.28200000      31.61200000      23.95800000
 H      36.80600000      31.22100000      23.20100000
 H      35.40000000      31.23700000      23.66300000
 O      36.70000000      11.65500000      40.58500000
 H      36.87000000      12.57400000      40.30000000
 H      37.64000000      11.32000000      40.48700000
 O      39.27800000       9.56000000      25.54800000
 H      39.06800000      10.51200000      25.26500000
 H      39.59800000       9.29300000      24.65600000
 O      35.35100000      32.56500000      28.98500000
 H      35.25600000      31.63200000      29.22000000
 H      35.97800000      32.51600000      28.25300000
 O      34.07700000      39.48100000      30.44000000
 H      33.30100000      39.70400000      29.88900000
 H      34.79500000      39.50800000      29.77200000
 O      35.36300000       2.15800000      39.60300000
 H      35.72900000       1.30400000      39.39700000
 H      34.62900000       1.95300000      40.21700000
 O      35.75000000      27.88100000      35.26000000
 H      35.29400000      28.46300000      34.58300000
 H      36.55400000      27.72700000      34.71400000
 O      38.18300000      20.87700000      33.41000000
 H      37.75900000      21.70600000      33.13700000
 H      38.82000000      20.75900000      32.68200000
 O      36.52000000      10.91500000      26.75600000
 H      35.67100000      11.29300000      26.44100000
 H      37.15400000      11.36700000      26.13700000
 O      36.17000000      19.06700000      27.75500000
 H      35.92300000      18.73200000      28.63400000
 H      35.60800000      18.55600000      27.16000000
 O      35.56800000      29.30600000      28.30900000
 H      36.06300000      29.70800000      27.56300000
 H      34.65400000      29.59600000      27.99100000
 O      35.40800000      14.35200000      34.69100000
 H      35.28400000      13.45900000      34.29100000
 H      36.23900000      14.58300000      34.35300000
 O      38.52700000      12.22100000      37.21000000
 H      37.99800000      13.00200000      37.05300000
 H      38.57000000      11.82400000      36.25600000
 O      36.20900000      27.02400000      22.69400000
 H      35.20600000      27.05200000      22.68900000
 H      36.32700000      26.06600000      22.84600000
 O      35.87100000      10.58000000      37.76100000
 H      36.62900000      10.38000000      37.15600000
 H      36.26400000      11.15700000      38.39800000
 O      37.32200000      11.55500000      34.95100000
 H      36.81500000      12.08400000      34.30800000
 H      37.03800000      10.64700000      34.82900000
 O      34.97600000       7.90000000      28.40400000
 H      35.73100000       7.79200000      29.02200000
 H      34.60400000       6.97900000      28.31700000
 O      37.84200000       9.00000000      36.48100000
 H      37.12800000       8.69800000      35.89900000
 H      38.62400000       8.62200000      36.00100000
 O      36.20600000      24.00800000      34.32000000
 H      36.69600000      23.51400000      34.98100000
 H      36.55500000      23.54700000      33.51000000
 O      37.76400000      29.00500000      40.42300000
 H      37.18600000      29.74900000      40.21300000
 H      37.98300000      28.69800000      39.51500000
 O      34.38400000       5.09800000      27.75000000
 H      35.23500000       4.64000000      27.46800000
 H      33.97200000       5.25400000      26.87000000
 O      38.47600000      27.41600000      33.65600000
 H      39.37600000      27.45000000      33.84700000
 H      38.44700000      26.93500000      32.83000000
 O      40.50300000       6.28800000      24.77700000
 H      41.47400000       6.48000000      24.71500000
 H      40.31100000       6.17500000      23.84100000
 O      34.56800000      34.82500000      20.47700000
 H      34.84200000      35.52900000      20.98800000
 H      34.60200000      35.18400000      19.56500000
 O      34.15000000      27.69600000      25.31200000
 H      34.22100000      28.35300000      26.04700000
 H      34.94300000      27.17000000      25.41200000
 O      37.43500000      17.51600000      36.14200000
 H      37.78200000      18.39600000      36.05500000
 H      37.02400000      17.43900000      37.02700000
 O      35.23600000      17.60100000      34.27300000
 H      35.44200000      16.67700000      34.18200000
 H      35.13300000      17.72100000      35.20900000
 O      40.38800000      26.10500000      30.74200000
 H      40.77200000      26.78800000      31.26700000
 H      40.61500000      25.29700000      31.27300000
 O      34.39100000      40.73200000      27.27300000
 H      34.98200000      41.22400000      27.89100000
 H      33.71300000      40.47500000      27.96500000
 O      35.27900000      21.48500000      26.14000000
 H      34.41300000      21.11500000      26.42100000
 H      35.89300000      21.16700000      26.87400000
 O      40.30200000       7.02100000      29.17800000
 H      39.79100000       7.06700000      28.33400000
 H      41.07700000       7.51800000      28.91300000
 O      36.46500000      31.79400000      36.53000000
 H      36.99700000      31.35600000      35.84300000
 H      35.56700000      31.64100000      36.18400000
 O      39.57400000      40.01300000      32.86900000
 H      40.28100000      39.80000000      33.45400000
 H      38.78300000      39.57500000      33.26200000
 O      37.56000000      33.54800000      27.04000000
 H      37.34300000      33.38500000      26.11000000
 H      37.00400000      34.36400000      27.20800000
 O      37.11700000      34.24900000      24.30100000
 H      36.74700000      33.36100000      24.16200000
 H      38.10600000      34.01100000      24.26400000
 O      34.02300000      22.23700000      34.42000000
 H      34.26400000      21.48500000      33.82000000
 H      34.71600000      22.88700000      34.12700000
 O      35.02600000      35.40700000      33.66600000
 H      34.03200000      35.42100000      33.85500000
 H      35.34500000      35.55300000      34.58400000
 O      39.54200000      14.59600000      24.66400000
 H      39.08200000      14.85200000      23.84800000
 H      40.43900000      14.85900000      24.53300000
 O      35.26400000      19.04900000      20.59500000
 H      35.93100000      18.36800000      20.84100000
 H      35.02200000      19.30500000      21.50800000
 O      34.55000000      25.69100000      35.98900000
 H      34.88000000      26.54600000      35.54500000
 H      34.97500000      25.05700000      35.34200000
 O      39.13500000       7.38000000      38.58800000
 H      38.33700000       6.81300000      38.55500000
 H      38.93400000       8.15600000      38.04900000
 O      38.51200000       3.18100000      32.32000000
 H      39.44900000       2.98600000      32.47900000
 H      38.38900000       2.80100000      31.49000000
 O      35.53800000      30.11300000      20.88600000
 H      35.56700000      29.19400000      20.59500000
 H      34.77500000      30.14200000      21.48000000
 O      35.94400000      12.43400000      23.55100000
 H      35.07300000      12.68900000      23.83500000
 H      36.08400000      12.96600000      22.76300000
 O      39.84100000      21.19200000      23.69900000
 H      38.89500000      21.27700000      23.87500000
 H      40.02100000      22.01800000      23.17800000
 O      37.44600000      14.99700000      30.04100000
 H      37.89400000      15.85900000      29.89500000
 H      38.15200000      14.33700000      29.80800000
 O      35.02600000      12.05900000      33.50000000
 H      34.61600000      11.16700000      33.75500000
 H      34.88600000      11.94700000      32.50500000
 O      40.63600000      12.18800000      31.55400000
 H      41.53200000      12.50800000      31.30200000
 H      40.16100000      12.36900000      30.67400000
 O      35.11100000      38.75000000      23.89000000
 H      35.47200000      39.34700000      23.16300000
 H      35.27200000      37.84100000      23.42300000
 O      39.27200000      22.21800000      21.04100000
 H      39.48100000      23.04000000      20.61800000
 H      38.30600000      22.36700000      21.24100000
 O      39.16400000      11.15700000      39.55600000
 H      39.77800000      11.89400000      39.80400000
 H      39.08600000      11.45500000      38.55800000
 O      40.73800000       9.62500000      33.06700000
 H      40.58800000      10.41100000      32.51900000
 H      41.64100000       9.41800000      32.82200000
 O      36.40600000      35.19200000      38.67800000
 H      36.29200000      35.24800000      39.64400000
 H      35.53800000      34.71300000      38.44000000
 O      37.10200000      24.59800000      23.30300000
 H      37.87300000      24.69100000      23.81000000
 H      36.42700000      24.35300000      24.05500000
 O      38.29000000      11.98500000      24.77900000
 H      37.50300000      12.37800000      24.27500000
 H      38.87600000      12.71500000      24.65900000
 O      36.16500000       9.72700000      23.21100000
 H      35.95200000      10.60200000      23.63900000
 H      36.99400000       9.98200000      22.75800000
 O      38.55700000      39.61200000      26.32500000
 H      37.64500000      39.55800000      26.09200000
 H      38.71200000      38.76000000      26.82200000
 O      36.91600000       5.50600000      32.47500000
 H      37.70200000       5.99600000      32.66300000
 H      37.26000000       4.58100000      32.45900000
 O      37.20200000       4.27000000      39.53700000
 H      36.52300000       3.52700000      39.36700000
 H      36.97100000       4.82500000      38.75300000
 O      36.27500000      36.50700000      36.13700000
 H      36.20000000      36.24100000      37.05900000
 H      37.10000000      36.05100000      35.87300000
 O      39.75900000      17.42600000      32.80000000
 H      40.41700000      17.31100000      32.11500000
 H      40.20200000      17.93500000      33.50800000
 O      34.68200000       5.90400000      34.16300000
 H      35.40200000       5.68900000      33.50400000
 H      35.20700000       5.73000000      34.96800000
 O      35.70400000      36.08900000      22.95300000
 H      34.98500000      35.44600000      23.13300000
 H      36.42100000      35.58600000      23.44400000
 O      36.65500000      31.68200000      39.51300000
 H      37.39800000      32.35600000      39.61600000
 H      36.65700000      31.58300000      38.54900000
 O      36.98500000      27.25100000      37.71400000
 H      37.74900000      27.86500000      37.62300000
 H      36.47000000      27.49300000      36.94900000
 O      36.62600000      10.54700000      29.46500000
 H      37.20400000       9.78000000      29.62200000
 H      36.48400000      10.44800000      28.49100000
 O      40.28200000      39.28700000      35.60200000
 H      39.52700000      39.44900000      36.26000000
 H      40.30100000      38.27400000      35.66700000
 O      38.18300000      30.65100000      34.63000000
 H      39.19600000      30.70300000      34.49500000
 H      37.91100000      31.30700000      33.96300000
 O      38.95400000      18.85600000      22.70500000
 H      38.49800000      18.49000000      23.47600000
 H      39.16000000      19.77400000      23.00900000
 O      38.21100000       6.58500000      26.59200000
 H      38.92300000       6.53800000      25.94300000
 H      37.60100000       7.15600000      26.13500000
 O      36.43600000      39.86100000      22.02700000
 H      37.37100000      39.54200000      21.84900000
 H      36.54000000      40.84700000      22.02000000
 O      35.73000000      37.98700000      31.87600000
 H      35.21700000      37.18300000      32.02100000
 H      35.15800000      38.48800000      31.28700000
 O      34.61300000       8.23100000      38.40200000
 H      33.69600000       8.52300000      38.43800000
 H      35.08900000       9.01400000      38.02400000
 O      39.79200000      30.84400000      22.22100000
 H      40.31200000      30.35900000      21.47200000
 H      39.51000000      31.63300000      21.71400000
 O      39.21700000      19.92500000      38.90800000
 H      40.10600000      19.49900000      38.99100000
 H      39.25800000      20.07700000      37.93100000
 O      38.67900000       1.89400000      29.82000000
 H      38.88300000       0.98800000      29.89100000
 H      39.53300000       2.33200000      29.84700000
 O      34.90100000      29.75500000      33.46900000
 H      35.23000000      30.70600000      33.47800000
 H      34.80400000      29.53400000      32.56800000
 O      34.12500000       1.39700000      21.12900000
 H      34.99100000       1.55300000      21.58000000
 H      34.08300000       2.21900000      20.56900000
 O      39.74800000       7.22900000      34.49700000
 H      40.04600000       7.72200000      33.75000000
 H      40.34200000       6.53700000      34.58500000
 O      37.81700000      10.27500000      21.25400000
 H      37.42400000      10.41500000      20.41200000
 H      38.29700000      11.12000000      21.44100000
 O      36.33400000       8.16600000      25.77700000
 H      35.73200000       8.33300000      26.52800000
 H      37.02200000       8.85400000      25.88500000
 O      39.84900000      32.35700000      28.44000000
 H      40.46200000      33.09300000      28.68200000
 H      39.12400000      32.88200000      27.97800000
 O      36.87600000      21.33500000      23.81300000
 H      36.51500000      21.47100000      24.67600000
 H      36.11600000      20.83700000      23.36700000
 O      34.05300000      12.72200000      36.94000000
 H      34.95300000      12.32800000      37.12500000
 H      34.17600000      12.92500000      35.99100000
 O      37.40700000      30.25000000      26.41800000
 H      37.17600000      30.85500000      25.68600000
 H      38.24400000      29.87400000      26.07900000
 O      38.77800000       2.56400000      25.67700000
 H      38.69800000       1.75600000      26.16800000
 H      39.00100000       2.20900000      24.79400000
 O      39.62400000      29.76600000      24.60300000
 H      40.41400000      30.30300000      24.98000000
 H      39.73400000      30.18400000      23.69300000
 O      36.63500000      36.07800000      27.58700000
 H      36.25600000      36.85300000      27.11900000
 H      37.58500000      36.44800000      27.61200000
 O      34.63400000      11.57200000      30.94200000
 H      34.12100000      10.76700000      30.73800000
 H      35.39300000      11.40100000      30.31000000
 O      37.25800000      17.91200000      38.97800000
 H      37.72000000      17.24000000      39.54200000
 H      37.88000000      18.67100000      39.06800000
 O      37.86300000      34.02900000      35.59900000
 H      37.98100000      33.53500000      34.75700000
 H      37.25200000      33.34000000      36.04700000
 O      38.93200000      25.06400000      26.58500000
 H      39.84200000      24.84200000      26.39600000
 H      38.74500000      25.87300000      26.07700000
 O      40.22200000      10.75600000      27.80100000
 H      39.76900000      10.22100000      27.12400000
 H      40.89100000      10.08000000      28.12000000
 O      38.93600000      39.01800000      21.00900000
 H      39.36800000      39.86400000      20.90400000
 H      39.34400000      38.53700000      20.27400000
 O      40.59700000       3.88500000      29.98300000
 H      41.10700000       3.50800000      29.21000000
 H      40.35000000       4.74600000      29.67100000
 O      37.98100000      25.26000000      38.80600000
 H      38.93300000      25.46700000      38.62000000
 H      37.56600000      25.94200000      38.23300000
 O      40.78100000      24.18500000      23.59100000
 H      40.74900000      24.83400000      22.94800000
 H      40.91200000      24.66100000      24.44200000
 O      38.30700000      37.76500000      23.45200000
 H      38.45000000      37.77900000      22.47600000
 H      37.33100000      37.53000000      23.46300000
 O      39.88800000       4.42700000      36.21300000
 H      39.20700000       3.98900000      35.60200000
 H      40.61700000       4.46900000      35.48800000
 O      39.75100000      16.48100000      22.15100000
 H      38.91000000      16.15700000      21.78600000
 H      39.50000000      17.38200000      22.41000000
 O      37.21900000      38.69000000      33.95600000
 H      36.49900000      38.38700000      33.35300000
 H      37.29700000      38.00200000      34.60400000
 O      37.35900000      26.79000000      29.85600000
 H      38.23600000      26.36400000      30.02800000
 H      37.57900000      27.71200000      30.05200000
 O      36.26300000      23.13500000      21.24200000
 H      36.46500000      23.55900000      22.06200000
 H      35.29200000      22.84000000      21.45000000
 O      36.79100000      14.39700000      37.08100000
 H      37.34900000      14.73700000      36.36600000
 H      35.91400000      14.64400000      36.75000000
 O      39.60600000       1.44200000      23.34700000
 H      40.22300000       1.76400000      22.65700000
 H      39.57900000       0.52200000      23.08600000
 O      35.79300000       2.82200000      29.35800000
 H      36.65100000       2.38300000      29.40900000
 H      36.01400000       3.48100000      28.67100000
 O      37.59300000      14.48500000      39.80900000
 H      37.21200000      14.26700000      38.98400000
 H      36.82100000      14.63100000      40.37300000
 O      39.32400000      34.45600000      38.65600000
 H      38.39100000      34.74400000      38.47900000
 H      39.22400000      34.17700000      39.63400000
 O      34.92000000      28.41500000      30.96900000
 H      35.44800000      28.21300000      30.14400000
 H      35.10000000      27.51800000      31.40100000
 O      36.95400000       7.18100000      21.90600000
 H      36.45100000       7.99300000      22.15400000
 H      37.62800000       7.07800000      22.57200000
 O      34.78500000       3.56500000      36.93100000
 H      34.82400000       2.70000000      36.43400000
 H      34.91900000       3.28000000      37.83600000
 O      40.24500000      26.35900000      21.68200000
 H      39.42600000      26.84900000      21.50100000
 H      40.29700000      25.74800000      20.96200000
 O      39.19000000      18.94800000      27.97200000
 H      38.23500000      18.73000000      27.91400000
 H      39.45100000      18.37900000      28.72200000
 O      35.79200000      26.45000000      32.54800000
 H      36.42600000      25.91800000      33.01900000
 H      35.01500000      25.79800000      32.61000000
 O      38.13600000      36.09400000      32.05000000
 H      37.68600000      35.39100000      32.50900000
 H      37.44600000      36.79400000      32.02100000
 O      36.68200000      13.94200000      21.02800000
 H      36.62800000      14.81100000      20.72900000
 H      36.38700000      13.45400000      20.25500000
 O      39.93400000      36.15800000      36.19600000
 H      40.65000000      35.79700000      36.73800000
 H      39.36200000      35.32800000      36.19600000
 O      37.48200000       3.25200000      34.89700000
 H      36.94300000       2.45100000      35.01500000
 H      37.70700000       3.22800000      33.98000000
 O      37.00400000       2.43000000      21.17300000
 H      37.71300000       2.85400000      20.67200000
 H      36.60300000       3.19500000      21.65500000
 O      34.77200000      16.83600000      27.54000000
 H      34.89400000      15.89200000      27.70800000
 H      34.00200000      16.99900000      28.17500000
 O      37.71900000      32.76500000      33.05400000
 H      38.45100000      32.78000000      32.42800000
 H      36.96200000      33.07900000      32.48400000
 O      37.14200000      22.86700000      32.18800000
 H      36.77700000      22.20100000      31.55600000
 H      37.66300000      23.43100000      31.57900000
 O      40.18300000      31.83700000      31.23700000
 H      39.62500000      31.05600000      31.29400000
 H      39.97100000      32.12000000      30.31500000
 O      36.26700000      26.73500000      27.00100000
 H      36.34600000      26.79400000      27.97200000
 H      37.24400000      26.74900000      26.71600000
 O      35.49900000      15.40800000      23.46900000
 H      34.59900000      15.02300000      23.41900000
 H      35.48500000      15.92900000      22.63500000
 O      38.42000000      20.00000000      35.96800000
 H      38.67000000      19.96900000      35.03000000
 H      37.85500000      20.80000000      35.95300000
 O      36.63200000      39.71400000      29.28100000
 H      37.11800000      40.49100000      29.03400000
 H      37.30400000      39.20800000      29.74100000
 O      40.08000000      34.05300000      23.84000000
 H      40.84100000      33.47000000      23.81600000
 H      40.33000000      34.68500000      23.15500000
 O      36.79500000      22.16000000      36.42800000
 H      36.96600000      22.47800000      37.34100000
 H      36.07900000      21.49300000      36.58000000
 O      36.96500000       5.80300000      35.55200000
 H      37.24600000       4.88800000      35.44700000
 H      37.76800000       6.30900000      35.23800000
 O      35.13600000      39.50100000      38.28200000
 H      35.44200000      39.42700000      39.16100000
 H      34.43000000      38.86000000      38.18100000
 O      37.87900000      22.58400000      27.61700000
 H      38.66700000      22.05200000      27.24400000
 H      38.29500000      23.49400000      27.42400000
 O      39.93200000       8.96500000      23.03600000
 H      39.37700000       9.35700000      22.35800000
 H      39.93900000       8.00200000      22.84600000
 O      40.31800000      16.69000000      29.04200000
 H      40.99200000      16.48700000      29.79500000
 H      40.65700000      16.09200000      28.37700000
 O      38.95200000      29.25200000      37.22100000
 H      39.33400000      30.11700000      37.51700000
 H      38.53600000      29.52400000      36.38600000
 O      34.65600000      17.56900000      40.08400000
 H      35.61000000      17.79100000      39.89400000
 H      34.47200000      16.79200000      39.53900000
 O      37.58100000      17.38900000      24.78900000
 H      36.97500000      16.73200000      24.36500000
 H      37.33400000      17.18700000      25.73000000
 O      34.49000000      28.68900000      38.90100000
 H      34.06000000      28.64800000      38.04800000
 H      35.23600000      28.09200000      38.79700000
 O      39.23000000      16.64400000      40.58700000
 H      38.92800000      15.74000000      40.27700000
 H      40.16100000      16.40300000      40.78200000
 O      40.29600000      31.98400000      37.72000000
 H      40.99900000      32.26600000      37.13300000
 H      39.74800000      32.81000000      37.70600000
 O      34.11100000       7.96700000      23.96800000
 H      34.72800000       8.46800000      23.41600000
 H      34.62800000       7.88000000      24.78100000
 O      40.10200000      13.44200000      33.93700000
 H      39.95100000      12.91600000      33.13600000
 H      39.41500000      14.12500000      33.89900000
 O      36.92800000      18.06200000      30.69700000
 H      36.12100000      17.55400000      30.99800000
 H      37.58600000      17.74300000      31.35400000
 O      35.93200000       4.70100000      21.86800000
 H      36.17400000       5.66400000      21.82900000
 H      35.42000000       4.59700000      21.07700000
 O      36.80700000      20.75400000      30.06600000
 H      37.09900000      20.91300000      29.11300000
 H      37.00200000      19.80200000      30.07500000
 O      38.92200000      23.75300000      30.15300000
 H      39.75900000      23.63600000      30.57700000
 H      38.98200000      23.13000000      29.40100000
 O      38.09500000      15.62700000      34.34500000
 H      37.88000000      16.26900000      35.06500000
 H      38.70700000      16.24600000      33.76500000
 O      39.86900000       5.92100000      22.11100000
 H      39.28700000       5.62400000      21.39900000
 H      40.76200000       5.72800000      21.76400000
 O      35.47500000       1.10300000      35.95000000
 H      35.10200000       0.26400000      35.56100000
 H      35.95000000       0.72800000      36.75000000
 O      38.68700000      29.38900000      28.85400000
 H      37.98900000      29.89500000      28.31700000
 H      38.51300000      29.59700000      29.75300000
 O      37.68400000      29.67200000      31.50300000
 H      36.80600000      29.36900000      31.79000000
 H      38.20700000      29.70700000      32.28800000
 O      39.85200000      19.61800000      20.06700000
 H      39.62000000      19.08800000      20.85700000
 H      39.71300000      20.52000000      20.36900000
 O      40.30500000      36.19400000      30.45600000
 H      40.45400000      37.15200000      30.60500000
 H      39.47200000      36.07700000      31.03700000
 O      39.35500000      12.78300000      20.92100000
 H      38.61600000      13.37500000      21.14900000
 H      39.55200000      13.11500000      20.02600000
 O      39.06900000      12.61400000      29.38200000
 H      38.25100000      12.07600000      29.43800000
 H      39.59700000      12.09800000      28.73600000
 O      35.88400000      23.90100000      28.70500000
 H      36.29800000      24.51200000      29.31400000
 H      36.63200000      23.48400000      28.25600000
 O      37.13100000       6.95800000      29.94900000
 H      38.14300000       7.12600000      29.87900000
 H      37.09500000       6.41200000      30.73100000
 O      35.95000000      33.71900000      31.42700000
 H      35.29400000      34.36900000      31.63500000
 H      35.57300000      33.29500000      30.62100000
 O      38.27100000      39.46400000      37.65500000
 H      38.56500000      40.29200000      38.12600000
 H      37.32900000      39.45800000      37.93600000
 O      35.28500000      23.95900000      25.17500000
 H      35.13300000      24.49900000      25.91900000
 H      35.25900000      23.08000000      25.61100000
 O      34.22700000      21.91100000      29.69300000
 H      34.61800000      22.73800000      29.37500000
 H      35.07600000      21.44400000      29.85700000
 O      37.46600000      27.73700000      20.43200000
 H      36.92800000      27.46700000      21.23900000
 H      36.69000000      27.56400000      19.80400000
 O      34.22400000      36.46900000      28.77200000
 H      34.13400000      36.96000000      27.97800000
 H      35.20100000      36.17900000      28.69900000
 O      40.20900000      36.66700000      25.30800000
 H      40.12300000      35.74700000      24.98700000
 H      39.43700000      37.09200000      24.78600000
 O      39.35700000      37.37000000      27.73000000
 H      39.90100000      37.10000000      26.90000000
 H      39.96900000      37.15200000      28.42400000
 O      36.78800000      23.08500000      38.98000000
 H      35.88900000      23.51800000      38.68000000
 H      37.28000000      23.96100000      39.01200000
 O      39.15800000       2.17400000      38.31400000
 H      39.13500000       2.76400000      37.54300000
 H      38.79000000       2.78700000      38.99500000
 O      36.44600000       6.32100000      38.15800000
 H      36.63800000       6.22400000      37.19700000
 H      35.77000000       7.06900000      38.09200000
 O      35.48900000      14.33500000      28.26700000
 H      36.18300000      14.50900000      29.01400000
 H      36.15900000      14.29300000      27.56400000
 O      40.80400000      18.20700000      25.94800000
 H      40.17100000      18.42000000      26.69900000
 H      40.14800000      18.00700000      25.25000000
 O      39.47100000      39.27400000      30.25800000
 H      39.66400000      39.38100000      31.21400000
 H      40.38400000      39.09400000      29.94500000
 O      35.60700000       1.44800000      32.79300000
 H      35.37800000       1.51100000      33.73800000
 H      35.96800000       0.55900000      32.75100000
 O      37.00900000       4.23600000      27.25800000
 H      37.48400000       5.09200000      27.23100000
 H      37.43200000       3.79300000      26.44900000
 O      34.75000000      20.05700000      33.02800000
 H      34.69500000      19.15000000      33.27600000
 H      35.61200000      20.04800000      32.58800000
 O      38.16400000      27.34000000      24.87800000
 H      38.51500000      28.29400000      24.88600000
 H      37.57200000      27.35400000      24.17900000
 O      35.70300000       9.12000000      34.63900000
 H      35.51900000       8.26400000      34.24100000
 H      34.78600000       9.49200000      34.61000000
 O      35.67900000      38.50400000      26.40300000
 H      35.54300000      38.66100000      25.42000000
 H      35.19600000      39.27400000      26.74700000
 O      37.98100000      14.17400000      26.91100000
 H      38.61500000      14.33500000      26.15600000
 H      38.46200000      13.52400000      27.45200000
 O      34.91600000      21.06700000      39.73100000
 H      34.74100000      21.99300000      40.00700000
 H      35.59800000      20.81400000      40.34500000
 O      35.05800000      20.33100000      37.16800000
 H      35.44300000      19.41700000      37.10300000
 H      35.21500000      20.48900000      38.16100000
 O      40.78600000      34.16000000      34.01900000
 H      41.35400000      34.28500000      33.21700000
 H      40.41800000      35.02100000      34.15600000
 O      47.73100000      24.64600000      36.52900000
 H      46.94600000      24.10300000      36.72900000
 H      48.43400000      24.04700000      36.77500000
 O      46.75800000      17.92900000      34.50300000
 H      46.23200000      17.18100000      34.90500000
 H      47.53800000      17.40700000      34.16600000
 O      44.91400000       5.29200000      27.99200000
 H      45.30600000       4.38800000      27.75700000
 H      43.98300000       5.08300000      27.71600000
 O      44.73700000      33.10900000      26.61100000
 H      44.19600000      33.67200000      27.23200000
 H      45.59900000      33.60800000      26.63200000
 O      47.53600000      38.87100000      32.46800000
 H      47.48700000      39.85300000      32.49500000
 H      47.48500000      38.73300000      33.41200000
 O      46.02500000      20.44100000      22.87900000
 H      45.10100000      20.25400000      23.17500000
 H      46.48600000      19.63300000      23.23900000
 O      45.27000000      28.42200000      36.20300000
 H      45.35700000      29.38500000      36.41600000
 H      44.87000000      28.17200000      37.09500000
 O      45.59500000      15.58600000      36.14100000
 H      44.88800000      14.99400000      36.03900000
 H      46.41500000      15.04500000      36.03700000
 O      43.79800000      34.35200000      40.62800000
 H      43.91200000      33.51100000      41.12100000
 H      44.59000000      34.34500000      40.08800000
 O      43.52900000      15.30700000      27.14100000
 H      43.70200000      15.38000000      26.15900000
 H      43.66500000      14.37800000      27.23400000
 O      45.95600000      36.59600000      36.82100000
 H      45.61700000      37.39900000      36.44200000
 H      45.22200000      36.18300000      37.26200000
 O      45.45000000      19.91100000      27.69400000
 H      45.17200000      19.19300000      27.09900000
 H      44.58900000      20.37000000      27.82200000
 O      44.76600000       6.26600000      21.12600000
 H      44.57500000       6.50100000      22.05200000
 H      45.68200000       6.63600000      21.11700000
 O      42.89200000      34.45400000      28.60400000
 H      43.69800000      34.98700000      28.38600000
 H      42.49600000      35.15000000      29.21600000
 O      48.67600000      12.95900000      37.36300000
 H      47.77900000      12.58300000      37.60900000
 H      49.19200000      12.78200000      38.14100000
 O      48.41200000      10.29300000      27.37000000
 H      48.92900000       9.65500000      26.88500000
 H      48.66100000      10.06300000      28.30300000
 O      43.89600000      10.60000000      22.40000000
 H      43.16900000      10.07400000      22.75800000
 H      44.67800000      10.19800000      22.78800000
 O      43.18400000       6.51000000      39.14700000
 H      42.27100000       6.80300000      38.91000000
 H      43.59300000       7.37500000      39.36600000
 O      42.58300000       4.08500000      26.85400000
 H      41.78200000       3.53100000      26.54500000
 H      42.34600000       4.90800000      26.34100000
 O      47.47200000      40.56100000      26.96500000
 H      48.44400000      40.64900000      26.71200000
 H      47.17300000      39.89000000      26.35300000
 O      43.73900000       8.98300000      28.81400000
 H      44.05900000       9.58400000      29.50600000
 H      44.63300000       8.78100000      28.42700000
 O      43.59500000      12.15100000      37.88300000
 H      43.28100000      12.35200000      38.78100000
 H      42.88900000      11.59700000      37.52900000
 O      49.02000000      24.40400000      25.92700000
 H      49.24900000      24.22100000      24.95000000
 H      48.41100000      23.66600000      26.10300000
 O      43.64800000      23.86800000      31.48500000
 H      44.54900000      23.79100000      31.86700000
 H      43.39000000      22.94600000      31.55200000
 O      46.40400000       9.58000000      39.18100000
 H      46.61200000       8.77600000      39.72200000
 H      46.79200000       9.09500000      38.33000000
 O      44.74300000       1.19500000      23.98500000
 H      44.20200000       1.19600000      24.77100000
 H      44.24500000       0.55600000      23.41400000
 O      46.58600000      26.13600000      21.88100000
 H      45.80900000      26.79400000      21.79200000
 H      47.30500000      26.79300000      22.08500000
 O      42.99800000      25.57900000      35.88300000
 H      42.88800000      26.45500000      35.53600000
 H      43.72900000      25.22000000      35.39400000
 O      44.22200000      34.41800000      22.67900000
 H      44.98400000      34.49200000      23.32000000
 H      44.67100000      33.99200000      21.92800000
 O      43.10000000      31.22600000      25.90700000
 H      42.52300000      31.23800000      26.66200000
 H      43.65400000      32.01300000      26.02900000
 O      47.51100000      19.30500000      36.69500000
 H      47.11000000      18.92800000      35.86400000
 H      48.36700000      18.84000000      36.74400000
 O      43.34100000      26.51400000      28.29000000
 H      44.23100000      26.26400000      28.58500000
 H      42.82100000      26.32100000      29.13600000
 O      43.82000000      24.15300000      40.34500000
 H      44.43500000      24.84300000      39.93500000
 H      43.04300000      24.32900000      39.76100000
 O      45.59100000       3.80100000      20.20900000
 H      45.61400000       4.44900000      20.92300000
 H      45.14200000       4.27600000      19.49000000
 O      45.41100000      20.03400000      33.63600000
 H      45.84100000      19.23100000      34.05900000
 H      45.58900000      19.84900000      32.69600000
 O      42.53500000      25.98500000      38.46700000
 H      42.73700000      25.72500000      37.54300000
 H      43.14300000      26.71300000      38.58800000
 O      42.78200000      30.94800000      34.27900000
 H      42.94400000      31.91300000      34.22900000
 H      43.69800000      30.69000000      34.54500000
 O      46.25200000      36.73900000      31.44000000
 H      46.57200000      35.89200000      31.91000000
 H      46.74100000      37.39200000      31.97400000
 O      47.85800000      21.79900000      26.08900000
 H      48.17500000      21.03700000      25.56000000
 H      48.17800000      21.60200000      26.95600000
 O      47.73300000       2.12700000      32.33300000
 H      48.31200000       2.00800000      31.55800000
 H      48.28800000       2.66000000      32.90700000
 O      43.10800000      39.25000000      22.63600000
 H      43.13700000      39.70400000      21.80400000
 H      43.01800000      38.31100000      22.28700000
 O      44.12900000      13.24400000      35.30200000
 H      43.73300000      12.85700000      36.11800000
 H      43.30300000      13.34900000      34.75700000
 O      47.02900000       7.71500000      21.69300000
 H      47.49900000       7.94400000      22.47900000
 H      47.84700000       7.61100000      21.09900000
 O      46.10200000      11.26400000      35.27300000
 H      45.72800000      10.41600000      35.60400000
 H      45.26100000      11.81500000      35.18100000
 O      45.32200000       3.26300000      36.27300000
 H      44.96700000       3.59700000      37.13300000
 H      44.55600000       2.68300000      35.99800000
 O      47.61800000       1.23300000      36.76700000
 H      46.91600000       1.93600000      36.87200000
 H      47.96800000       1.23100000      37.67800000
 O      46.94700000      34.05000000      35.17900000
 H      46.34800000      34.79500000      35.42000000
 H      47.66000000      34.12700000      35.79400000
 O      47.35000000      40.20900000      22.87400000
 H      47.82400000      41.02300000      22.60000000
 H      46.53800000      40.31800000      22.26200000
 O      44.50800000      29.07000000      24.93400000
 H      44.90900000      28.56100000      25.61900000
 H      44.00900000      29.77600000      25.42100000
 O      47.71300000      15.25100000      31.42600000
 H      48.41200000      14.51100000      31.49600000
 H      47.46200000      15.19900000      30.47300000
 O      48.10700000      21.33300000      33.32800000
 H      48.50500000      20.50300000      33.46100000
 H      47.19200000      21.24300000      33.59700000
 O      44.61300000      38.86900000      35.71000000
 H      43.60600000      38.84000000      35.66700000
 H      44.74000000      39.74100000      36.12300000
 O      45.54700000      22.85900000      35.90000000
 H      45.87900000      23.45900000      35.19300000
 H      44.62800000      23.12400000      35.95800000
 O      48.00200000      13.26700000      26.90200000
 H      48.33800000      12.37000000      26.92400000
 H      47.28800000      13.28500000      26.28400000
 O      45.86800000      29.41400000      28.78900000
 H      45.44800000      28.90200000      29.42400000
 H      45.21300000      30.12500000      28.52500000
 O      48.55500000      27.13800000      26.63000000
 H      48.49400000      26.15500000      26.56600000
 H      48.95700000      27.21600000      27.53200000
 O      47.25000000      21.60700000      20.77900000
 H      46.63400000      21.40300000      21.52500000
 H      47.38700000      22.55400000      20.88900000
 O      43.07200000      30.58200000      40.05500000
 H      42.64700000      31.26000000      39.52600000
 H      43.70200000      31.04600000      40.60300000
 O      43.66900000      18.05300000      36.85300000
 H      43.79900000      17.11700000      36.75600000
 H      44.49400000      18.27200000      37.33500000
 O      45.94200000       5.77100000      34.81800000
 H      45.81300000       5.18200000      34.07200000
 H      45.99500000       5.08900000      35.55400000
 O      44.53400000      36.55800000      27.41400000
 H      45.30800000      36.85300000      27.92600000
 H      44.83100000      36.88100000      26.53200000
 O      43.45100000      38.07100000      31.38200000
 H      43.96300000      38.84400000      31.06900000
 H      44.16700000      37.47500000      31.73800000
 O      46.54100000      22.19400000      28.47100000
 H      46.52800000      21.23800000      28.28700000
 H      45.78200000      22.48600000      27.93200000
 O      45.51400000      20.25500000      40.41000000
 H      44.60500000      20.74400000      40.46300000
 H      45.72000000      20.58500000      39.47600000
 O      42.99300000      18.99000000      34.25300000
 H      43.10700000      18.64800000      35.17900000
 H      43.93000000      19.33300000      34.15500000
 O      46.19100000      30.92900000      39.61900000
 H      46.36400000      31.90400000      39.64100000
 H      46.05400000      30.86100000      38.61600000
 O      44.30600000      22.52800000      21.53900000
 H      43.86100000      23.07400000      22.23500000
 H      44.84800000      21.95400000      22.05300000
 O      46.44000000      27.83900000      33.94900000
 H      46.03700000      28.73700000      33.70900000
 H      46.03200000      27.85400000      34.84800000
 O      49.05700000      25.06700000      40.20500000
 H      49.36600000      25.39000000      41.07900000
 H      48.57900000      24.27600000      40.54900000
 O      46.31000000      33.97800000      24.19200000
 H      47.26400000      33.82000000      23.94900000
 H      46.39700000      33.97200000      25.21200000
 O      45.93300000      30.95900000      36.99600000
 H      46.68100000      31.20800000      36.42800000
 H      45.26000000      31.60700000      36.69200000
 O      44.50200000      31.89600000      31.65800000
 H      44.56300000      32.82900000      31.56400000
 H      43.50100000      31.79100000      31.54300000
 O      45.43300000      15.30400000      32.88200000
 H      46.30700000      15.36100000      32.41800000
 H      45.70300000      14.71400000      33.62900000
 O      43.35200000      37.02200000      21.62200000
 H      43.51900000      36.11000000      22.00100000
 H      43.54300000      36.84500000      20.69500000
 O      46.03500000      13.33200000      25.21900000
 H      45.60100000      14.17900000      25.01400000
 H      45.28600000      12.83900000      25.57100000
 O      47.72300000       8.60400000      37.16000000
 H      48.36800000       8.67500000      36.41900000
 H      48.28400000       8.04000000      37.77700000
 O      45.92600000      10.37000000      27.01500000
 H      46.82500000      10.48400000      27.17300000
 H      45.80500000       9.41600000      27.19500000
 O      45.67300000      26.91600000      26.43300000
 H      45.65000000      26.64000000      27.37100000
 H      46.66500000      27.02900000      26.40800000
 O      46.63700000      10.94400000      32.46200000
 H      46.55500000      11.22900000      33.38300000
 H      47.18600000      11.62500000      32.09200000
 O      43.25400000      13.15200000      22.38900000
 H      42.47400000      13.05300000      21.77600000
 H      43.56200000      12.23000000      22.35400000
 O      43.09700000       5.03200000      34.07200000
 H      44.01700000       4.72300000      34.03900000
 H      43.07800000       5.55600000      33.18700000
 O      44.04500000      33.12400000      36.11000000
 H      43.49600000      33.53600000      35.41100000
 H      44.19200000      33.96200000      36.61600000
 O      43.06300000       6.70300000      31.70900000
 H      42.66500000       6.72800000      30.80200000
 H      43.59600000       7.54000000      31.63600000
 O      47.05800000       5.75200000      24.75200000
 H      47.10900000       4.74800000      24.64500000
 H      48.01900000       5.95200000      24.77100000
 O      44.28600000      28.23500000      38.82800000
 H      44.86900000      28.32000000      39.60300000
 H      43.65200000      28.98100000      39.02100000
 O      45.73300000      24.87500000      34.08500000
 H      45.55100000      25.81200000      33.82400000
 H      45.96800000      24.48700000      33.24600000
 O      46.62800000       2.92100000      24.24200000
 H      45.82500000       2.28400000      24.10600000
 H      47.31300000       2.35300000      23.74100000
 O      42.89500000      12.86700000      40.27700000
 H      42.55300000      13.20400000      41.15200000
 H      43.65000000      13.50600000      40.17900000
 O      45.13500000       8.65400000      35.81400000
 H      45.04800000       7.71500000      35.53600000
 H      46.10700000       8.65700000      36.00400000
 O      49.31600000       5.33500000      22.83500000
 H      49.94100000       4.61300000      23.15200000
 H      48.50000000       4.80900000      22.81300000
 O      43.20000000      21.32900000      40.38600000
 H      43.07500000      22.33400000      40.31800000
 H      42.18700000      21.16500000      40.54900000
 O      48.92400000      17.42400000      21.37800000
 H      48.49300000      17.10100000      22.17200000
 H      48.52000000      16.82600000      20.72800000
 O      45.72700000      30.36600000      33.33700000
 H      45.28100000      30.97000000      32.67200000
 H      46.29300000      30.90600000      33.87700000
 O      47.20200000      38.61400000      25.07100000
 H      47.23600000      39.12600000      24.22600000
 H      46.19100000      38.57100000      25.16400000
 O      43.07000000      21.25100000      30.88300000
 H      43.47100000      20.44300000      31.09400000
 H      42.96300000      21.23000000      29.90200000
 O      47.20300000      36.37100000      39.94900000
 H      48.02600000      36.34900000      39.41200000
 H      47.11800000      37.36300000      40.07400000
 O      44.33900000      13.59100000      30.16200000
 H      44.97300000      13.80200000      29.51900000
 H      43.88500000      14.39100000      30.33800000
 O      48.00100000      31.98800000      31.68500000
 H      48.96100000      31.95000000      31.31100000
 H      47.69400000      31.13100000      31.26700000
 O      47.20600000      16.33100000      28.78200000
 H      48.13500000      16.34300000      28.69500000
 H      46.89600000      16.56300000      27.90000000
 O      48.58000000       8.74900000      24.03600000
 H      49.06000000       8.36900000      24.84500000
 H      49.12300000       9.53600000      23.91700000
 O      45.52900000      14.27400000      39.80600000
 H      45.64900000      13.40400000      39.38300000
 H      46.13700000      14.83900000      39.31700000
 O      47.75100000      13.57700000      20.67700000
 H      47.90900000      14.44100000      20.22700000
 H      46.93400000      13.84900000      21.22100000
 O      48.73000000       6.45000000      38.72800000
 H      48.00900000       6.83700000      39.23800000
 H      49.46100000       6.59900000      39.40400000
 O      46.45600000      20.27900000      30.86000000
 H      46.07300000      20.83700000      30.17000000
 H      47.35800000      20.09400000      30.44500000
 O      44.02500000      12.42300000      27.00800000
 H      44.80900000      11.77600000      27.10200000
 H      43.20900000      11.82400000      27.11800000
 O      44.31500000      37.92200000      24.93300000
 H      43.47300000      37.35800000      25.02800000
 H      44.09300000      38.21000000      24.00700000
 O      48.79500000      36.45100000      24.82700000
 H      48.07000000      37.12800000      24.96000000
 H      48.28700000      35.79900000      24.32600000
 O      47.88400000       5.48700000      32.39300000
 H      47.74900000       6.40200000      32.74200000
 H      47.18300000       5.00000000      32.81500000
 O      43.17700000       1.94200000      35.08500000
 H      43.35900000       1.80700000      34.11200000
 H      42.52000000       1.23000000      35.22400000
 O      45.99800000       9.38400000      24.27900000
 H      46.11900000      10.00700000      24.97500000
 H      46.93300000       9.20800000      24.06700000
 O      49.42800000      37.62500000      30.30200000
 H      49.73900000      37.95500000      29.43400000
 H      48.48300000      37.92900000      30.25300000
 O      46.20700000      39.66000000      29.18300000
 H      46.43700000      38.73100000      29.11700000
 H      46.67500000      40.01400000      28.43000000
 O      45.54300000      25.96000000      29.50600000
 H      46.50500000      25.98900000      29.58100000
 H      45.27800000      25.38900000      30.22700000
 O      47.50600000       8.23600000      32.99500000
 H      48.01200000       8.04400000      33.80500000
 H      47.56600000       9.16900000      32.98000000
 O      47.97600000       6.95000000      29.80500000
 H      48.71500000       7.35400000      30.34100000
 H      47.61600000       6.31700000      30.49200000
 O      46.74300000      37.03200000      28.72200000
 H      46.32200000      37.05500000      29.61200000
 H      47.46600000      36.42400000      28.87200000
 O      47.33400000      32.41800000      21.52400000
 H      47.16700000      32.19900000      22.42900000
 H      46.94600000      31.68500000      21.01700000
 O      42.82800000      15.64000000      20.22100000
 H      42.09500000      15.82500000      19.64400000
 H      42.51000000      16.05200000      21.05500000
 O      44.81100000       8.83300000      31.61200000
 H      45.09500000       9.74600000      31.81900000
 H      45.64700000       8.38800000      31.65700000
 O      43.20800000       2.44600000      32.19400000
 H      43.60200000       1.76300000      31.63900000
 H      42.79900000       3.00600000      31.47000000
 O      48.13800000      29.22300000      31.60400000
 H      47.72800000      28.99200000      32.41700000
 H      49.11300000      29.20400000      31.84800000
 O      46.16900000       3.13400000      26.87600000
 H      46.15000000       3.07000000      25.84200000
 H      46.62000000       2.33100000      27.04600000
 O      43.33700000      40.66300000      38.97300000
 H      44.16800000      41.12700000      39.24800000
 H      42.76200000      41.45200000      38.89200000
 O      46.31200000      12.01200000      38.43400000
 H      45.42000000      11.90700000      38.03000000
 H      46.37200000      11.08400000      38.80000000
 O      47.17500000      18.66300000      24.54100000
 H      47.75400000      17.93900000      24.94100000
 H      46.28400000      18.33200000      24.69300000
 O      43.53700000      35.46800000      37.87200000
 H      42.77700000      35.10300000      38.40900000
 H      43.57300000      36.37300000      38.22600000
 O      43.77800000       4.18300000      38.00000000
 H      42.91300000       4.18900000      37.52800000
 H      43.68800000       5.00200000      38.52700000
 O      44.98300000      17.55100000      26.00200000
 H      44.13000000      17.96700000      26.17800000
 H      44.98000000      16.78200000      26.61700000
 O      48.04900000      19.48700000      40.45100000
 H      47.11300000      19.63200000      40.51600000
 H      48.07500000      18.52600000      40.33300000
 O      47.32900000      34.38600000      26.78000000
 H      47.36800000      34.80100000      27.69700000
 H      48.28900000      34.19600000      26.68000000
 O      45.53400000      17.81000000      30.67000000
 H      45.96700000      18.66300000      30.77500000
 H      46.13600000      17.22800000      30.20000000
 O      48.02000000      28.30200000      23.02100000
 H      48.64800000      28.46800000      23.69700000
 H      47.36000000      28.99300000      23.15100000
 O      43.26200000       9.24900000      39.45100000
 H      42.43600000       9.70800000      39.44400000
 H      43.67500000       9.62900000      38.66400000
 O      43.70600000      19.59700000      23.85400000
 H      43.35200000      18.87500000      24.37600000
 H      42.99700000      20.25900000      23.84600000
 O      43.55000000      16.24800000      31.32000000
 H      44.29800000      16.83700000      30.98400000
 H      43.99700000      15.90600000      32.14000000
 O      48.25500000      19.49200000      29.30000000
 H      48.15600000      18.70800000      28.75300000
 H      49.09500000      19.85500000      28.93800000
 O      45.11900000      22.79900000      25.67000000
 H      45.19900000      23.49900000      24.95100000
 H      45.97300000      22.36200000      25.48000000
 O      47.19000000      22.89200000      40.60800000
 H      47.52600000      22.18100000      40.03000000
 H      46.21700000      22.79000000      40.53700000
 O      44.66000000       7.01200000      24.05600000
 H      45.49800000       6.50100000      24.18700000
 H      45.00200000       7.90000000      24.25100000
 O      46.29500000      21.07600000      37.92800000
 H      46.69900000      20.25900000      37.54000000
 H      45.95600000      21.49000000      37.14200000
 O      46.54400000      23.52200000      31.70500000
 H      47.02200000      23.87300000      30.94100000
 H      47.03300000      22.69300000      31.88100000
 O      44.20300000      34.71900000      31.85800000
 H      44.94900000      35.15600000      31.42400000
 H      43.43500000      35.12600000      31.30900000
 O      48.54000000      29.11000000      37.50100000
 H      48.08100000      30.04200000      37.46700000
 H      48.99300000      29.13900000      36.63800000
 O      48.14200000      24.29600000      29.61100000
 H      49.12500000      24.02700000      29.64800000
 H      47.81900000      23.52800000      29.07700000
 O      46.51500000      33.59100000      40.16800000
 H      46.62700000      33.68900000      41.15000000
 H      46.67000000      34.58100000      39.94200000
 O      48.29700000      14.18700000      23.61200000
 H      47.36300000      13.93600000      23.73000000
 H      48.51100000      13.52800000      22.87900000
 O      46.07200000      25.64300000      39.88500000
 H      46.94500000      26.04900000      39.57600000
 H      46.42800000      24.82500000      40.23000000
 O      47.25800000      34.45200000      32.50600000
 H      47.40700000      33.53100000      32.20200000
 H      47.12600000      34.28600000      33.47800000
 O      47.83500000      27.91100000      40.11200000
 H      48.23800000      28.26600000      39.24700000
 H      48.61900000      27.59000000      40.57300000
 O      43.39100000      40.34000000      26.13500000
 H      43.64000000      39.42400000      25.85700000
 H      42.42900000      40.30600000      26.01800000
 O      45.64200000       3.73900000      33.01700000
 H      46.33800000       3.09000000      32.71100000
 H      44.81900000       3.40200000      32.64100000
 O      43.48900000      16.09700000      40.56600000
 H      44.19500000      15.44600000      40.37500000
 H      44.00500000      16.87100000      40.84200000
 O      48.42200000      30.31300000      28.68100000
 H      47.47300000      30.22500000      28.66600000
 H      48.61500000      29.45700000      29.08400000
 O      44.21700000      15.34700000      24.42600000
 H      44.08700000      14.62800000      23.79600000
 H      44.53900000      16.07700000      23.81300000
 O      48.16000000      24.03500000      20.90700000
 H      47.53100000      24.81600000      21.01800000
 H      48.67600000      24.07700000      21.73900000
 O      44.70400000      17.49500000      22.51200000
 H      44.79600000      17.77700000      21.56800000
 H      44.46700000      18.38900000      22.92800000
 O      47.66400000      31.57100000      34.82700000
 H      48.57700000      31.43400000      34.52400000
 H      47.57000000      32.55400000      34.69600000
 O      46.06000000      30.26600000      22.94900000
 H      45.64400000      30.09000000      22.05900000
 H      45.28800000      30.08300000      23.54400000
 O      48.76500000       6.16800000      27.42700000
 H      47.93100000       5.97200000      26.91400000
 H      48.33600000       6.23400000      28.27700000
 O      44.58500000      27.92100000      22.49700000
 H      43.72200000      27.43400000      22.36600000
 H      44.49900000      28.13200000      23.47300000
 O      42.79700000      10.14400000      36.06700000
 H      43.55600000       9.52500000      35.97400000
 H      42.27700000       9.90600000      35.30800000
 O      49.16700000      19.94100000      22.31200000
 H      48.23800000      20.11000000      22.12200000
 H      49.13900000      18.97600000      22.12600000
 O      47.72700000      13.88100000      35.06200000
 H      47.22200000      13.01000000      35.07700000
 H      48.28600000      13.73400000      35.83700000
 O      44.17900000      40.57400000      30.68200000
 H      44.05200000      41.11100000      29.84300000
 H      45.02300000      40.18300000      30.44200000
 O      42.85900000      38.18900000      38.20000000
 H      41.89700000      38.23800000      38.09000000
 H      43.03400000      39.15300000      38.25800000
 O      48.74000000      26.29300000      34.64600000
 H      48.62400000      25.60200000      35.28100000
 H      47.73600000      26.49200000      34.46700000
 O      42.65500000      20.88800000      28.35900000
 H      42.56100000      21.37200000      27.51600000
 H      42.06800000      20.15100000      28.18700000
 O      45.94500000       7.82800000      28.11600000
 H      45.62500000       6.93500000      28.01000000
 H      46.72300000       7.69400000      28.63400000
 O      43.25200000      25.22900000      25.97100000
 H      44.12100000      24.87000000      26.12500000
 H      43.20100000      25.90500000      26.72700000
 O      45.70300000      25.02900000      24.18600000
 H      45.66400000      25.81700000      24.72200000
 H      45.79000000      25.41200000      23.28800000
 O      43.44100000      28.56700000      31.49100000
 H      44.21400000      29.11700000      31.53900000
 H      43.15500000      28.76800000      30.54500000
 O      42.61000000      28.03500000      34.21800000
 H      42.97300000      28.46300000      33.39000000
 H      42.52100000      28.83500000      34.78500000
 O      45.24500000      14.80600000      21.61600000
 H      44.65800000      15.49700000      21.31100000
 H      44.57400000      14.15200000      21.92500000
 O      47.41700000      15.36300000      38.51000000
 H      47.72600000      15.92600000      37.74000000
 H      47.68400000      14.48200000      38.16600000
 O      49.03100000      16.78000000      33.67500000
 H      49.77000000      17.15300000      33.14000000
 H      48.53200000      16.29300000      32.91400000
 O      45.66100000       1.38400000      40.21700000
 H      45.84100000       2.03700000      40.85200000
 H      46.40800000       0.78900000      40.25900000
 O      47.49600000      39.04600000      35.04600000
 H      46.56000000      38.90100000      35.18300000
 H      47.60500000      39.93700000      35.46500000
 O      43.25100000      29.10700000      28.95900000
 H      43.35600000      28.27700000      28.39400000
 H      42.33700000      29.29000000      28.80400000
 O      43.71900000       2.02500000      28.33200000
 H      43.68100000       2.75400000      27.66400000
 H      43.70500000       1.24700000      27.72800000
 O      42.64700000      22.12400000      26.07000000
 H      42.26400000      21.77900000      25.23500000
 H      43.50400000      22.42700000      25.78000000
