306
XYZ file of cluster: frame_18000_49dca.0.146e - created by MolEdiTo
 O      16.14200000       9.38800000       4.34700000
 H      16.72600000       9.81200000       5.06500000
 H      15.33800000       9.83100000       4.50400000
 O      25.61100000       6.68600000      13.34100000
 H      24.89600000       7.23000000      13.02500000
 H      26.09300000       6.51100000      12.49900000
 O      15.05700000       3.45800000       5.59500000
 H      15.43900000       2.62700000       5.52600000
 H      14.67500000       3.45500000       6.46500000
 O      24.36500000       7.13100000       9.06000000
 H      24.60100000       8.04600000       8.94500000
 H      25.05800000       6.82900000       9.65800000
 O      24.94500000       7.13500000       2.67300000
 H      24.23700000       7.17400000       2.05200000
 H      24.88800000       6.20400000       3.03500000
 O      19.40000000       3.51300000       6.71600000
 H      20.26100000       3.27900000       6.27900000
 H      19.19300000       4.34700000       6.23600000
 O      27.90900000       3.54600000      14.28500000
 H      27.03100000       3.65800000      14.64500000
 H      27.78900000       3.60400000      13.34800000
 O      20.41900000       2.64900000      13.16200000
 H      19.86300000       2.05400000      12.59300000
 H      19.85000000       2.54900000      14.00700000
 O      18.82400000      14.27600000      10.75100000
 H      18.73000000      13.39300000      10.41600000
 H      19.77800000      14.44100000      10.66800000
 O      23.98400000       1.33200000       5.60200000
 H      23.31900000       1.91900000       5.22100000
 H      23.50000000       0.95200000       6.39200000
 O      22.11300000       4.77000000      13.22300000
 H      21.43600000       4.12600000      12.98400000
 H      22.31800000       4.45500000      14.13800000
 O      21.53900000       7.88200000      14.29100000
 H      21.62500000       6.91900000      14.04800000
 H      22.25800000       8.26700000      13.81100000
 O      13.89600000       8.91000000      13.46200000
 H      12.97700000       8.92700000      13.41300000
 H      14.20100000       8.17900000      12.91300000
 O      28.01600000       6.39200000       8.19000000
 H      27.38400000       6.80400000       7.63200000
 H      28.82100000       6.41100000       7.61400000
 O      21.63700000       5.82000000       4.61000000
 H      22.13900000       5.71200000       5.42900000
 H      20.69600000       5.67400000       4.90400000
 O      26.62900000       7.74900000       6.03900000
 H      27.28100000       8.19400000       5.48900000
 H      26.55800000       6.89900000       5.65000000
 O      17.67600000       7.75400000       2.90000000
 H      17.24500000       8.57600000       3.20700000
 H      17.19400000       7.14900000       3.53500000
 O      18.72900000       5.66400000       5.41900000
 H      18.83600000       6.64000000       5.38200000
 H      17.81400000       5.60100000       5.06800000
 O      23.58100000      11.90300000       4.70100000
 H      24.30000000      11.26700000       4.53200000
 H      23.39700000      12.24200000       3.80100000
 O      14.64300000       9.02200000       1.47600000
 H      13.94800000       9.38000000       2.09500000
 H      14.94500000       8.19500000       1.98700000
 O      14.47800000      12.82100000       2.24900000
 H      14.85500000      12.11500000       1.71900000
 H      14.76300000      12.52100000       3.10500000
 O      20.15800000      12.44700000       6.91400000
 H      19.93200000      13.40000000       6.78900000
 H      20.17000000      12.38500000       7.88000000
 O      22.84300000       2.72100000       2.19100000
 H      23.66000000       2.19100000       2.35700000
 H      22.45600000       2.26900000       1.41400000
 O      20.48200000      11.48600000       3.84600000
 H      20.81800000      12.03100000       4.57600000
 H      20.61000000      12.20200000       3.13300000
 O      24.09200000      10.22100000      10.62300000
 H      25.04200000      10.36400000      10.49900000
 H      23.73500000      10.36100000       9.69300000
 O      25.09200000       9.46600000       7.49800000
 H      25.93300000       9.99100000       7.56700000
 H      25.37300000       8.89700000       6.79900000
 O      14.17600000       2.13900000      10.81500000
 H      13.25800000       2.15300000      10.57300000
 H      14.07700000       2.36300000      11.73700000
 O      24.81400000       2.56200000      11.30300000
 H      25.54800000       3.13700000      11.54900000
 H      24.67400000       2.04500000      12.05500000
 O      18.08100000       6.89000000      11.29800000
 H      18.62600000       7.70800000      11.35700000
 H      18.40600000       6.55400000      10.42400000
 O      16.20200000      10.58000000       7.51800000
 H      16.72900000      11.02400000       6.84200000
 H      16.48100000       9.66700000       7.37500000
 O      14.57100000       6.53500000       9.50400000
 H      14.58100000       6.71700000       8.57400000
 H      13.80900000       7.16500000       9.83100000
 O      21.09500000       4.39200000       9.16100000
 H      20.56700000       3.77500000       8.64000000
 H      21.51400000       3.79900000       9.78300000
 O      21.35800000       7.16400000       8.19200000
 H      21.60100000       6.22900000       8.19800000
 H      22.26900000       7.58100000       8.26800000
 O      26.54800000      12.89000000      11.94700000
 H      26.73900000      12.11900000      11.33400000
 H      26.21900000      12.42600000      12.74000000
 O      15.43500000       6.76600000       6.72500000
 H      15.54400000       6.18400000       5.93600000
 H      14.55900000       7.17500000       6.54900000
 O      18.76600000       5.71400000       8.89900000
 H      19.66000000       5.31400000       8.80600000
 H      18.20900000       4.91400000       8.68900000
 O      23.92300000       4.78700000       3.49200000
 H      23.34900000       5.53000000       3.64800000
 H      23.31100000       4.11700000       3.15200000
 O      20.28700000       7.43000000       2.47500000
 H      19.34200000       7.70000000       2.60800000
 H      20.51400000       7.28400000       3.44400000
 O      15.74100000      12.17100000      10.23600000
 H      16.24900000      12.27300000       9.44300000
 H      15.98500000      11.29800000      10.57800000
 O      18.88200000       1.05300000      11.70900000
 H      18.48100000       1.51400000      10.94600000
 H      19.55700000       0.51400000      11.19600000
 O      17.33600000       7.91900000       8.29000000
 H      17.76800000       7.06500000       8.55300000
 H      16.69900000       7.51600000       7.65100000
 O      23.59200000       8.13000000      12.46800000
 H      23.83200000       8.88900000      11.84000000
 H      22.97500000       7.66200000      11.89200000
 O      17.20300000      13.58100000       2.15900000
 H      16.89100000      14.23500000       1.45500000
 H      16.40700000      13.03600000       2.19400000
 O      18.59800000       6.67700000      14.25300000
 H      19.43200000       7.21800000      14.22400000
 H      18.12900000       6.90700000      13.41900000
 O      16.64700000       2.04700000       1.60600000
 H      15.67000000       2.15600000       1.28500000
 H      17.15600000       2.28900000       0.76800000
 O      13.49700000       1.45900000       1.84800000
 H      12.59800000       1.30700000       1.61600000
 H      13.89100000       0.54800000       1.76100000
 O      21.48500000       6.58700000      11.32700000
 H      21.95600000       5.86700000      11.81400000
 H      21.15200000       6.02500000      10.56000000
 O      18.20400000       2.90500000       9.25400000
 H      17.66200000       2.11000000       9.20100000
 H      18.77000000       2.85100000       8.44800000
 O      26.89800000       6.99900000      10.83800000
 H      27.23400000       7.03800000       9.89100000
 H      27.39700000       7.77300000      11.17400000
 O      25.85300000       1.00700000       3.90200000
 H      25.32300000       0.46900000       3.32400000
 H      25.22400000       1.14400000       4.64000000
 O      16.83300000       4.14500000      11.40700000
 H      17.26600000       3.71400000      10.59200000
 H      17.57900000       4.74800000      11.63200000
 O      15.04500000      12.21500000       4.68700000
 H      15.73200000      12.66500000       5.25700000
 H      14.23100000      12.52200000       5.05500000
 O      26.07500000       5.15600000       5.38600000
 H      25.30100000       4.96500000       4.80800000
 H      26.41700000       4.25400000       5.56300000
 O      13.64300000      13.55300000      11.21800000
 H      13.13100000      12.91600000      11.64900000
 H      14.38400000      12.95500000      10.88700000
 O      25.08700000      14.15700000       8.92900000
 H      24.61600000      13.75400000       8.17700000
 H      24.44100000      14.75400000       9.25600000
 O      27.77700000      13.63100000       9.06000000
 H      26.80000000      13.62600000       9.11200000
 H      27.90100000      13.23800000       8.15300000
 O      16.22900000       0.89300000       9.28400000
 H      15.99700000       0.00000000       9.66000000
 H      15.39000000       1.31700000       9.66600000
 O      20.07000000      11.86600000       9.56400000
 H      19.86900000      10.98000000       9.24600000
 H      20.53600000      11.60400000      10.36400000
 O      13.21600000       3.58100000       3.44900000
 H      13.89200000       3.42900000       4.14500000
 H      13.24200000       2.69600000       2.92200000
 O      17.61600000       1.62100000       5.18300000
 H      18.30100000       2.07000000       5.79800000
 H      17.02600000       1.23600000       5.91300000
 O      16.73800000      13.49600000       6.19500000
 H      17.62800000      13.80500000       5.99500000
 H      16.71500000      13.68900000       7.14100000
 O      14.90200000       5.75400000       1.84900000
 H      14.14000000       5.26700000       1.47400000
 H      15.56700000       5.70900000       1.16900000
 O      13.38200000      11.08700000       8.09500000
 H      14.37600000      11.07200000       8.03500000
 H      13.21800000      11.84900000       7.47200000
 O      27.44900000      10.76000000       7.71600000
 H      28.24100000      10.21200000       7.64300000
 H      27.60000000      11.42400000       6.98000000
 O      26.98900000      14.12100000       3.69100000
 H      27.60600000      14.77700000       3.26900000
 H      26.80400000      13.63400000       2.80000000
 O      16.23600000       5.53300000       4.29300000
 H      15.73800000       4.80600000       4.70800000
 H      15.74100000       5.65300000       3.46300000
 O      13.16500000       1.69100000      13.45700000
 H      13.37700000       2.61600000      13.65600000
 H      13.96600000       1.24400000      13.72600000
 O      21.65000000      10.99200000      11.64100000
 H      22.19900000      11.53900000      12.26900000
 H      22.35300000      10.45800000      11.26900000
 O      21.92100000       9.69700000       2.17200000
 H      21.61300000      10.17000000       2.93200000
 H      21.49900000       8.80800000       2.28300000
 O      22.23800000       2.32500000      10.60600000
 H      22.04700000       1.90800000      11.45800000
 H      23.10100000       2.73800000      10.80000000
 O      14.99600000       3.70200000      13.12500000
 H      14.74100000       4.69800000      13.17300000
 H      15.68400000       3.80000000      12.46100000
 O      23.80700000      13.77900000       6.61100000
 H      24.12300000      14.50700000       5.99500000
 H      23.64400000      13.04100000       5.98700000
 O      27.48300000       3.39700000       2.80800000
 H      26.66300000       3.74900000       2.37300000
 H      27.12800000       2.60900000       3.30600000
 O      28.18700000      13.11600000       6.18400000
 H      28.88700000      13.08900000       5.45500000
 H      27.66500000      13.86800000       5.83100000
 O      16.02900000      11.12600000       0.87700000
 H      15.70800000      10.27500000       1.26000000
 H      16.96300000      10.90600000       0.62300000
 O      22.88100000      10.62600000       8.33100000
 H      22.30300000      11.23800000       7.82400000
 H      23.50400000      10.28600000       7.65400000
 O      22.74700000       6.67800000       0.93200000
 H      21.87900000       7.03100000       1.36000000
 H      22.35900000       5.86700000       0.49000000
 O      25.29100000       3.61600000       1.07900000
 H      25.00700000       3.90500000       0.21800000
 H      24.61900000       3.83400000       1.66600000
 O      18.27000000      10.77500000       5.67900000
 H      18.41800000      10.88200000       4.72600000
 H      19.03600000      11.35900000       6.02000000
 O      28.63100000      11.54100000      13.56400000
 H      27.65700000      11.51100000      13.59400000
 H      28.72400000      12.12400000      12.81400000
 O      26.91300000      10.85000000      10.26200000
 H      27.22300000      10.83600000       9.24800000
 H      27.59800000      10.25800000      10.58800000
 O      26.89200000      12.14700000       0.89600000
 H      26.08600000      11.57100000       0.94200000
 H      26.48200000      13.03100000       0.79100000
 O      27.11200000       4.03200000      11.54000000
 H      27.35000000       4.96300000      11.26600000
 H      27.48400000       3.54200000      10.72900000
 O      24.59000000      10.49700000       1.59600000
 H      25.02200000      10.37900000       2.48300000
 H      23.66800000      10.35200000       1.96100000
 O      27.33700000       2.64000000       6.45300000
 H      26.95700000       2.79300000       7.34000000
 H      27.11100000       1.69300000       6.32900000
 O      23.08500000       5.29900000       7.00100000
 H      23.29300000       4.52500000       7.55800000
 H      23.73200000       5.94900000       7.36200000
 O      23.07700000      12.24200000      13.53400000
 H      23.04100000      13.12800000      13.11900000
 H      22.70000000      12.42900000      14.38800000
 O      19.64500000       9.38500000       8.70200000
 H      20.02600000       8.50100000       8.82100000
 H      18.76900000       9.10700000       8.29200000
 O      22.82800000      12.83300000       2.11600000
 H      22.00000000      13.25400000       1.78800000
 H      23.40300000      12.79900000       1.32800000
 O      25.74200000      10.25100000       3.96600000
 H      26.75700000      10.18100000       3.95900000
 H      25.58500000       9.40000000       4.48300000
 O      25.32000000       2.86400000       8.48300000
 H      25.30700000       2.67900000       9.44300000
 H      24.66300000       2.21000000       8.12500000
 O      16.30300000      13.81000000      13.06000000
 H      16.43100000      12.81600000      12.98500000
 H      16.70100000      14.05800000      12.22100000
 O      15.31400000       6.80100000      12.25300000
 H      15.01600000       6.55600000      11.34100000
 H      16.23700000       6.97000000      12.12700000
 O      19.64700000       8.33600000       5.85900000
 H      19.16800000       9.15000000       5.96800000
 H      20.27400000       8.38100000       6.60300000
 O      22.68500000       0.88700000       8.01200000
 H      23.04100000       0.47400000       8.85700000
 H      21.93000000       1.33700000       8.40100000
 O      25.83300000      11.37200000      13.89800000
 H      24.89200000      11.44100000      13.54300000
 H      25.62700000      11.73700000      14.78300000
 O      19.74300000       8.93700000      11.85500000
 H      20.38300000       9.64300000      12.07800000
 H      20.36700000       8.18800000      11.72200000
 O      17.12400000       9.80100000      10.99600000
 H      16.86400000       9.35600000      10.14400000
 H      18.06600000       9.55600000      11.01900000
 O      15.89100000      11.00700000      13.20600000
 H      16.35100000      10.52100000      12.54000000
 H      15.03700000      10.43700000      13.19000000
 O      13.96900000       3.63500000       8.11900000
 H      13.84500000       3.02000000       8.78200000
 H      14.34800000       4.44600000       8.52000000
 O      21.56600000       2.60000000       5.08600000
 H      21.45800000       1.61200000       5.01000000
 H      21.41200000       2.90700000       4.19000000
 O      19.37400000       1.41200000       3.16400000
 H      18.84600000       1.31200000       4.03000000
 H      18.68800000       1.46500000       2.52700000
