334
XYZ file of cluster: frame_18000_22eb8.4b4ef.21676 - created by MolEdiTo
 O       7.49400000      16.52000000      14.34700000
 H       8.12900000      17.16300000      14.66300000
 H       7.63800000      16.55000000      13.39400000
 O      15.81600000      16.82500000       9.78500000
 H      15.26100000      16.57500000      10.55700000
 H      15.20500000      17.42300000       9.34100000
 O      12.00000000      27.68300000      10.11700000
 H      11.44400000      27.27200000      10.80400000
 H      12.89500000      27.59600000      10.47500000
 O      10.11300000      15.97100000      21.72300000
 H      10.04300000      15.08000000      22.06200000
 H      10.17300000      15.81100000      20.77400000
 O      15.56000000      20.19800000      17.21800000
 H      15.18700000      21.08900000      17.50600000
 H      14.74300000      19.90000000      16.70600000
 O      15.46700000      27.75800000       9.00900000
 H      15.21600000      27.74500000       9.93800000
 H      15.15200000      26.89400000       8.73200000
 O      19.14200000      25.41000000      16.44500000
 H      18.66300000      26.25300000      16.62800000
 H      18.53600000      24.94300000      15.89100000
 O      18.82400000      14.27600000      10.75100000
 H      18.73000000      13.39300000      10.41600000
 H      19.77800000      14.44100000      10.66800000
 O      15.66700000      13.99900000      15.53400000
 H      15.88800000      14.02600000      14.49900000
 H      14.73100000      14.18800000      15.43000000
 O      13.87200000      18.73900000       8.62900000
 H      13.05700000      18.32000000       8.39000000
 H      13.57900000      19.31600000       9.34400000
 O      17.83900000      26.01900000       9.14600000
 H      18.51200000      26.55800000       9.60200000
 H      17.52200000      26.69600000       8.43300000
 O       7.89200000      18.77300000      16.19300000
 H       7.64000000      19.71100000      16.17900000
 H       7.91300000      18.62700000      17.19400000
 O       6.21800000      14.59300000       8.88500000
 H       7.24100000      14.48200000       8.83500000
 H       6.11200000      15.31800000       8.25900000
 O      16.24700000      23.44800000      12.36300000
 H      15.85400000      22.59200000      11.98800000
 H      16.63000000      23.76300000      11.46200000
 O      17.88500000      27.79000000      17.80000000
 H      17.40200000      27.85100000      16.88800000
 H      17.18900000      27.37800000      18.33400000
 O      18.80500000      27.31100000      13.82500000
 H      17.93200000      27.49500000      14.30500000
 H      18.99300000      28.25500000      13.71700000
 O       7.51300000      15.51700000      11.40600000
 H       6.60300000      15.81300000      11.24600000
 H       7.33900000      14.53400000      11.49100000
 O      12.61800000      24.44500000      14.77900000
 H      12.26900000      24.26000000      15.65100000
 H      12.02500000      25.08400000      14.38400000
 O       6.43900000      19.02100000      10.53100000
 H       5.95600000      18.28500000      10.97000000
 H       7.31600000      18.70100000      10.54800000
 O      13.08700000      22.04400000       7.58500000
 H      12.69400000      22.68200000       6.90600000
 H      13.99400000      22.42300000       7.54600000
 O      10.49600000      15.80900000      19.03500000
 H      10.88900000      16.52900000      18.51800000
 H      11.13000000      15.10000000      18.79800000
 O      16.49900000      27.62900000      15.11600000
 H      16.11300000      26.81200000      14.71600000
 H      15.87700000      28.26000000      14.77800000
 O      21.36000000      21.64300000       9.05000000
 H      20.91600000      22.22300000       9.72900000
 H      20.61600000      21.17600000       8.67300000
 O      16.94000000      21.24600000       8.58800000
 H      16.90100000      22.20500000       8.85300000
 H      16.33000000      20.84800000       9.18700000
 O      14.81400000      22.60400000      20.74100000
 H      15.41600000      21.93200000      20.30300000
 H      14.79400000      22.17100000      21.63500000
 O      20.71900000      24.27700000      18.27200000
 H      21.56700000      24.61500000      17.86000000
 H      20.08300000      24.68800000      17.62600000
 O      20.30300000      15.97900000      16.10900000
 H      20.22500000      16.16100000      17.07700000
 H      19.61200000      15.29100000      16.02400000
 O      17.16700000      21.12900000      15.07600000
 H      17.93400000      20.52200000      15.28300000
 H      16.47200000      20.68400000      15.56900000
 O      11.14900000      23.48700000      17.12200000
 H      10.98900000      23.44800000      18.06000000
 H      10.31700000      23.97000000      16.81800000
 O       7.93400000      14.68900000      17.98900000
 H       8.48000000      15.18900000      18.59400000
 H       8.65300000      14.10100000      17.62000000
 O      14.36400000      27.86400000      11.61200000
 H      14.62900000      27.12800000      12.16300000
 H      14.53500000      28.64400000      12.11700000
 O      16.87500000      23.87000000      17.94000000
 H      16.98500000      23.74100000      16.92200000
 H      17.52800000      23.30500000      18.28200000
 O      11.78000000      20.93300000       9.62700000
 H      12.03800000      21.37400000       8.75000000
 H      10.79500000      21.09300000       9.59500000
 O      18.85300000      20.96000000      12.14800000
 H      18.28600000      21.09900000      12.91800000
 H      18.34300000      20.24000000      11.76200000
 O      15.44000000      23.72300000       7.30700000
 H      15.05100000      24.54800000       7.63200000
 H      15.75300000      24.03000000       6.41800000
 O       7.69800000      21.77000000      13.15300000
 H       6.81900000      22.20100000      12.96100000
 H       7.61700000      21.64700000      14.09500000
 C      21.30100000      21.84200000      22.49000000
 C      21.37600000      20.72300000      21.40000000
 C      20.57700000      19.87200000      19.07500000
 H      19.70800000      21.56200000      20.15100000
 H      20.00100000      21.81600000      23.61500000
 O      21.60300000      22.11300000      19.36700000
 O      21.48100000      21.31700000      23.80300000
 O      20.00200000      22.22600000      22.69000000
 C      20.74100000      21.12500000      20.00800000
 O      22.73700000      20.19600000      21.12300000
 H      20.82100000      19.86700000      21.72800000
 O      19.34600000      19.26300000      19.40100000
 O      19.80000000      20.00800000      18.09000000
 H      19.22800000      19.37400000      18.74300000
 H      23.20900000      19.84700000      21.91500000
 H      21.19400000      22.99200000      19.22700000
 O       9.05600000      21.20500000       9.78400000
 H       9.18000000      21.85200000      10.49700000
 H       8.23600000      20.78100000      10.04400000
 O      10.47800000      19.76500000       6.99100000
 H      10.89000000      18.91700000       7.35600000
 H       9.67200000      19.80500000       7.52700000
 O      10.19300000      22.93000000      19.80600000
 H      10.25600000      22.00800000      19.48900000
 H      10.13400000      22.79400000      20.76900000
 O      19.99800000      23.23600000      10.86400000
 H      19.42600000      22.59300000      11.30700000
 H      19.74300000      24.04900000      11.40000000
 O      19.07000000      19.28100000      14.99700000
 H      19.33600000      18.69900000      14.20200000
 H      19.86400000      19.25600000      15.52900000
 O       7.85400000      18.78800000      19.06000000
 H       6.86600000      18.96700000      18.89900000
 H       7.74600000      18.50600000      20.00200000
 O      16.67300000      23.54500000       9.64300000
 H      17.08000000      24.44700000       9.56600000
 H      16.05600000      23.58400000       8.83300000
 O      17.34800000      15.00000000       8.59300000
 H      16.69300000      15.60200000       8.96000000
 H      17.84200000      14.69800000       9.36100000
 O      12.89900000      24.51700000      20.38000000
 H      13.68500000      23.96800000      20.46600000
 H      12.23400000      24.07000000      20.93400000
 O      11.14500000      20.36300000      12.42700000
 H      11.51400000      21.19200000      12.82100000
 H      11.47800000      20.57200000      11.47900000
 O      19.24400000      20.16900000       8.00700000
 H      18.39900000      20.54800000       8.35800000
 H      19.04600000      20.00200000       7.09300000
 O      11.54400000      17.49500000      13.06800000
 H      11.42000000      17.65800000      14.02800000
 H      11.61000000      18.36100000      12.66000000
 O      16.47100000      20.58400000      19.78400000
 H      15.98000000      19.89400000      20.24300000
 H      16.30300000      20.38100000      18.88000000
 O      12.73600000      27.14000000      20.12000000
 H      12.72800000      26.14800000      20.17600000
 H      13.22200000      27.24100000      19.26600000
 O       7.86900000      26.36000000      13.21600000
 H       7.36500000      25.50900000      13.52300000
 H       7.94700000      26.68800000      14.11500000
 O      10.67700000      26.52200000      14.47600000
 H      10.11100000      26.00800000      15.04500000
 H      10.96200000      27.27300000      15.05200000
 O      19.48000000      17.17600000      13.52600000
 H      19.91100000      16.31800000      13.66500000
 H      19.43200000      17.15300000      12.51700000
 O       7.96400000      23.34700000       7.83100000
 H       8.55400000      22.84500000       8.44500000
 H       7.19500000      23.47200000       8.39900000
 O       6.94100000      28.46600000       9.20700000
 H       6.74600000      27.52700000       9.46100000
 H       7.66800000      28.37100000       8.59400000
 O      14.18200000      18.92200000      11.44900000
 H      14.87700000      18.79700000      12.13700000
 H      14.01900000      18.05300000      11.11300000
 O      13.70100000      19.47800000      15.09100000
 H      14.08400000      19.36200000      14.24400000
 H      13.54400000      18.55200000      15.30400000
 O       7.28300000      17.42400000      21.37800000
 H       6.85200000      17.10100000      22.17200000
 H       6.87900000      16.82600000      20.72800000
 O       7.98900000      23.30900000      18.25100000
 H       8.74500000      22.88200000      18.56100000
 H       7.49300000      23.59100000      19.05700000
 O      21.34700000      27.38300000      17.94400000
 H      20.57600000      27.88400000      18.25700000
 H      21.09100000      27.07900000      17.06600000
 O      17.29500000      23.83200000      14.88200000
 H      17.03100000      23.94800000      13.96900000
 H      17.29600000      22.78300000      15.00800000
 O      15.77600000      14.24000000      21.14600000
 H      15.71600000      14.34900000      20.17900000
 H      16.75700000      14.17300000      21.20400000
 O      14.55200000      22.62300000      17.73600000
 H      13.74800000      23.09100000      17.66600000
 H      15.26800000      23.22900000      17.90600000
 O      10.65300000      18.57600000      15.40500000
 H       9.70600000      18.85000000      15.24200000
 H      10.99000000      19.53800000      15.45400000
 O       7.20600000      27.76400000      15.66400000
 H       7.52100000      27.18000000      16.33000000
 H       6.76800000      28.45100000      16.25900000
 O      12.03500000      17.46100000      17.63100000
 H      12.93000000      17.32600000      17.23800000
 H      11.56400000      17.82100000      16.83900000
 O      19.08800000      24.44100000       6.76000000
 H      18.73900000      24.97600000       7.49100000
 H      19.40300000      23.65800000       7.08800000
 O      19.00600000      14.98200000       6.39900000
 H      19.23300000      15.62500000       5.70300000
 H      18.57700000      15.56400000       7.04300000
 O       7.33800000      27.16300000      18.53900000
 H       8.16500000      27.03500000      19.02000000
 H       6.66700000      26.66600000      19.07600000
 O      17.50400000      18.14700000      17.36500000
 H      16.73200000      18.73000000      17.35600000
 H      18.04500000      18.59100000      16.60300000
 O      16.55400000      24.85900000      21.15500000
 H      16.22000000      24.49800000      21.96800000
 H      16.28000000      24.13800000      20.50400000
 O      13.98900000      16.84900000      15.31300000
 H      13.75200000      15.91600000      15.04500000
 H      14.97600000      16.71500000      15.24100000
 O       9.37000000      26.96100000      20.48100000
 H       9.43600000      26.73500000      21.42800000
 H      10.08700000      26.45700000      20.09200000
 O       9.70100000      22.93400000      11.72300000
 H      10.64500000      22.72300000      12.05500000
 H       9.17200000      22.42800000      12.36400000
 O      19.42100000      25.76200000      11.70400000
 H      19.18000000      25.95700000      12.61100000
 H      19.39300000      26.68100000      11.34400000
 O      16.46400000      18.75000000      13.10800000
 H      17.21200000      18.46400000      12.57800000
 H      16.69500000      18.53200000      14.02600000
 O      21.58800000      20.13100000      12.74900000
 H      20.68500000      20.44700000      12.65200000
 H      21.60200000      19.65000000      13.62000000
 O      15.13100000      25.83300000      13.46100000
 H      15.43200000      24.92800000      13.26100000
 H      14.21500000      25.62900000      13.83600000
 O      15.67800000      26.17800000      18.75600000
 H      15.90100000      26.06300000      19.68900000
 H      16.15400000      25.37700000      18.39100000
 O      11.29300000      20.93900000      15.88100000
 H      12.19300000      21.12800000      15.44500000
 H      11.25200000      21.79200000      16.40000000
 O       8.92200000      24.87900000      15.93500000
 H       8.47300000      24.30400000      15.24700000
 H       8.44400000      24.54300000      16.71200000
 O      10.09900000      20.24200000      18.65600000
 H      10.40200000      19.93400000      17.79500000
 H       9.43200000      19.57300000      18.88300000
 O      13.91100000      25.62400000       8.49900000
 H      13.50100000      25.66000000       7.62600000
 H      13.27800000      25.13500000       9.03600000
 O      11.64400000      17.03500000       8.57500000
 H      11.58400000      16.34500000       7.92400000
 H      11.00400000      16.78000000       9.27800000
 O      18.13000000      18.15800000      10.96300000
 H      18.68100000      18.39600000      10.20400000
 H      17.40500000      17.62700000      10.51700000
 O      13.03100000      14.35600000      14.69400000
 H      12.70900000      13.53500000      14.20300000
 H      12.14700000      14.83500000      14.64900000
 O      12.25900000      22.85200000      12.51700000
 H      13.21600000      23.12400000      12.29900000
 H      12.26600000      23.23300000      13.43800000
 O      16.02400000      14.78600000      18.51100000
 H      15.88800000      14.37800000      17.70200000
 H      16.88300000      15.21800000      18.41600000
 O      21.22600000      17.14400000       7.78900000
 H      20.73600000      16.41700000       7.34600000
 H      21.49400000      17.68800000       7.03000000
 O       8.71500000      19.46200000      12.23300000
 H       9.68900000      19.49400000      12.33500000
 H       8.43300000      20.31100000      12.57400000
 O      14.72700000      18.91500000      20.89000000
 H      14.96200000      18.11000000      21.41900000
 H      13.79200000      18.65200000      20.64300000
 O      14.66400000      21.52800000      10.89100000
 H      13.84500000      21.84900000      10.48600000
 H      14.37900000      20.58900000      11.00000000
 O      16.30300000      13.81000000      13.06000000
 H      16.43100000      12.81600000      12.98500000
 H      16.70100000      14.05800000      12.22100000
 O      10.50000000      25.93900000      11.92100000
 H      10.75900000      26.10700000      12.85200000
 H       9.54100000      26.13200000      11.98600000
 O      21.23400000      25.78800000      20.59100000
 H      21.06000000      25.63500000      19.62100000
 H      20.25100000      25.67800000      20.88000000
 O       9.96200000      15.98400000      10.49700000
 H      10.32300000      16.24500000      11.36100000
 H       9.01300000      15.91900000      10.67500000
 O      15.11400000      18.55800000       6.22700000
 H      15.41300000      19.50400000       6.17300000
 H      14.58400000      18.61100000       7.02700000
 O      11.88800000      24.58000000       9.82400000
 H      11.07300000      25.12900000      10.10700000
 H      11.61400000      23.73700000      10.26200000
 O      13.78800000      28.13800000      17.99900000
 H      14.55200000      27.52400000      18.13500000
 H      14.17700000      29.01200000      18.02700000
 O      12.20100000      18.66600000      20.32600000
 H      11.79000000      18.06500000      19.69700000
 H      11.84400000      19.46800000      19.99300000
 O      14.08600000      16.17100000      11.80300000
 H      14.13000000      15.21300000      11.90300000
 H      13.19000000      16.31600000      12.09400000
 O      20.65800000      14.55400000      19.06000000
 H      20.35400000      13.67900000      19.51300000
 H      19.84200000      15.03400000      19.18100000
 O       9.32100000      14.55100000      13.96900000
 H       8.90400000      13.90600000      13.36200000
 H       8.56100000      15.08000000      14.29800000
 O      18.40400000      16.20200000      19.00400000
 H      18.12700000      16.98200000      18.44900000
 H      18.25700000      16.62000000      19.88800000
 O      11.13200000      13.69300000       9.40000000
 H      10.81500000      14.53000000       9.82500000
 H      12.07000000      13.69100000       9.65800000
 O       7.40900000      21.59700000      16.14500000
 H       7.42000000      22.26900000      16.86300000
 H       6.44800000      21.43000000      16.12800000
