FORTRAN STOP
FORTRAN STOP
FORTRAN STOP
FORTRAN STOP
FORTRAN STOP
FORTRAN STOP
FORTRAN STOP
FORTRAN STOP
FORTRAN STOP
FORTRAN STOP
FORTRAN STOP
FORTRAN STOP
FORTRAN STOP
FORTRAN STOP
FORTRAN STOP
FORTRAN STOP
FORTRAN STOP
