42
XYZ file of cluster: frame_9500_1d81c.0.24996 - created by MolEdiTo
 O      10.47500000       6.69800000       7.30800000
 H      10.96600000       7.55200000       7.40200000
 H      10.46800000       6.54800000       6.40400000
 O       5.80400000       7.07500000       5.39400000
 H       6.09000000       6.13100000       5.17300000
 H       5.25000000       7.26700000       4.57100000
 O       6.74400000       4.55400000       5.58300000
 H       6.13500000       3.98000000       6.10800000
 H       7.38100000       4.75200000       6.27800000
 O       9.64700000       3.24800000       9.73900000
 H      10.27600000       3.94500000       9.92200000
 H       9.14300000       3.57400000       9.05100000
 O       4.39100000       5.48100000       9.54600000
 H       4.39500000       4.80200000      10.25500000
 H       3.57700000       6.01500000       9.72400000
 O       8.57600000       6.95000000       3.67800000
 H       8.66400000       6.02900000       3.96800000
 H       7.67500000       6.91000000       3.26400000
 O       8.05500000       5.26400000       8.29800000
 H       7.45500000       5.64700000       8.95900000
 H       8.82600000       5.76600000       8.57800000
 O       5.60400000       3.19400000       8.05400000
 H       5.96200000       2.73000000       8.76400000
 H       5.29100000       4.02600000       8.48700000
 O       7.23900000       7.12000000      10.20400000
 H       6.43600000       7.61500000       9.98600000
 H       6.91700000       6.35800000      10.72300000
 O       3.73500000       1.81200000       4.66200000
 H       4.09200000       1.34400000       3.89000000
 H       2.81600000       1.63500000       4.65300000
 O       8.43500000       1.24800000       7.43300000
 H       7.84300000       1.35100000       6.70300000
 H       7.81200000       1.04300000       8.12800000
 O       2.88700000       3.70200000       7.41400000
 H       2.54700000       4.22900000       8.21600000
 H       3.78600000       3.33400000       7.60800000
 O      10.03000000       4.60100000       5.14900000
 H       9.63700000       4.34500000       4.26200000
 H       9.44200000       4.14200000       5.79700000
 O       8.67800000       0.80200000       4.18500000
 H       9.18600000       0.46800000       5.05300000
 H       8.70200000       0.00000000       3.57200000
