48
XYZ file of cluster: frame_12500_97ed9.8f4.71c8e - created by MolEdiTo
 O      17.37900000       3.16900000      10.74300000
 H      17.96100000       3.73700000      10.20800000
 H      16.71400000       3.25800000       9.96300000
 O      15.31500000       3.12100000      17.04200000
 H      15.41900000       2.77200000      16.16400000
 H      15.18500000       4.05100000      17.00100000
 O      20.01500000       0.59300000      14.29600000
 H      20.62400000       0.04800000      14.86300000
 H      20.16900000       0.44200000      13.33200000
 O      14.69300000       6.38100000      11.33100000
 H      14.94400000       7.03900000      10.66900000
 H      14.95500000       5.56000000      10.89500000
 O      20.28400000       3.53300000      11.68100000
 H      20.65100000       4.44900000      11.91100000
 H      19.99300000       3.66300000      10.80000000
 O      14.37900000       3.29800000      10.29400000
 H      14.55600000       3.51500000      11.21500000
 H      14.14500000       2.28700000      10.23200000
 O      19.69900000       3.32800000      17.89100000
 H      20.11500000       4.03500000      18.46500000
 H      20.21500000       3.37300000      17.02800000
 O      20.39800000       7.56600000      18.62100000
 H      20.59300000       7.97200000      17.74900000
 H      20.95300000       6.78400000      18.72000000
 O      14.42000000       2.43500000      13.26600000
 H      13.75100000       1.95900000      13.71800000
 H      15.08500000       1.79800000      13.18500000
 O      17.27600000       0.95900000      15.65100000
 H      16.98200000       0.44900000      14.89900000
 H      17.84500000       1.66300000      15.15200000
 O      18.55000000       6.84500000      15.56500000
 H      17.82600000       7.40600000      15.26900000
 H      18.18900000       5.96600000      15.53900000
 O      13.83000000       7.48200000      13.93300000
 H      14.44700000       6.70000000      13.94300000
 H      13.35200000       7.23200000      13.06800000
 O      20.36900000       3.17900000      14.86300000
 H      20.28800000       2.23200000      14.78200000
 H      19.56800000       3.56400000      14.32800000
 O      19.40600000       6.87700000      11.49900000
 H      19.27300000       7.80900000      11.45900000
 H      18.95600000       6.58300000      10.62400000
 O      19.91400000       0.82000000      11.36300000
 H      19.98600000       1.75200000      11.75500000
 H      19.04400000       0.67400000      10.86000000
 O      18.04700000       3.81900000      13.73200000
 H      17.54300000       3.85800000      12.90000000
 H      17.37900000       3.64500000      14.37500000
