39
XYZ file of cluster: frame_19500_c2ede.1e25c.50ebc - created by MolEdiTo
 O      20.04000000       7.78600000       7.79700000
 H      20.90900000       7.41900000       7.90500000
 H      19.51600000       7.01300000       7.50000000
 O      17.34700000       5.21100000      11.79100000
 H      18.09100000       5.79900000      11.86200000
 H      17.19100000       5.14000000      12.78600000
 O      18.16200000      10.32900000      11.66600000
 H      17.52200000      10.39000000      10.91100000
 H      18.69600000       9.48900000      11.57600000
 O      19.60600000       3.31000000      11.88000000
 H      18.78300000       3.81100000      11.85900000
 H      20.21200000       3.93800000      12.30600000
 O      18.71800000       7.31100000      14.12000000
 H      19.41400000       6.93200000      13.51300000
 H      18.37300000       6.58900000      14.60600000
 O      18.55000000       3.46600000       8.16500000
 H      18.22200000       2.59700000       8.51500000
 H      17.78200000       4.02900000       8.41700000
 O      24.49500000       7.50100000      11.07700000
 H      24.94600000       8.36600000      10.83000000
 H      25.30900000       6.87800000      11.13000000
 O      22.72100000       9.70800000      11.51200000
 H      22.90000000       9.23000000      12.34900000
 H      23.01700000       9.03000000      10.88600000
 O      22.49700000       5.21600000       7.16600000
 H      22.95600000       4.65300000       7.82700000
 H      21.59100000       4.78600000       7.21900000
 O      25.03800000       6.81800000      14.52000000
 H      24.90500000       6.59100000      15.46900000
 H      25.56400000       6.08300000      14.15800000
 O      24.44700000       3.71700000      11.76700000
 H      23.89700000       3.76100000      12.64600000
 H      24.97500000       2.97000000      11.93700000
 O      22.54400000       6.73900000      12.88400000
 H      23.10400000       7.10200000      12.08400000
 H      23.17200000       6.25800000      13.47800000
 O      23.87600000       3.90800000       9.02300000
 H      24.72800000       3.89700000       8.54200000
 H      24.07900000       3.75600000      10.06000000
