30
XYZ file of cluster: frame_19500_789d0.be3af.9f841 - created by MolEdiTo
 O      13.72000000      17.27700000      14.59700000
 H      12.89100000      17.67400000      14.77100000
 H      13.63500000      16.38700000      14.96000000
 O      16.60700000      20.05900000      19.96200000
 H      16.59000000      20.74400000      20.65900000
 H      17.40700000      20.21100000      19.43500000
 O      11.26900000      18.79800000      15.09300000
 H      10.99500000      18.75600000      14.12600000
 H      10.63700000      18.42300000      15.65400000
 O      16.37700000      17.25100000      20.38600000
 H      17.37700000      17.23700000      20.43800000
 H      16.24300000      18.19500000      20.01500000
 O      14.42300000      19.60000000      17.06100000
 H      14.93700000      20.35000000      17.44400000
 H      15.11000000      19.17700000      16.47300000
 O      16.62000000      18.15500000      16.60300000
 H      17.36300000      18.61700000      17.02600000
 H      16.80600000      17.22000000      16.82900000
 O      18.08400000      23.46400000      14.95400000
 H      17.77600000      22.58700000      15.34800000
 H      19.10900000      23.54600000      15.09300000
 O      13.10000000      22.73700000      15.43200000
 H      13.37700000      21.86500000      15.71700000
 H      12.20100000      22.68500000      15.06500000
 O      12.07400000      21.56500000      19.15200000
 H      12.86400000      21.03100000      19.44400000
 H      12.22000000      21.61700000      18.15800000
 O      16.01400000      23.03600000      17.59200000
 H      15.46500000      23.16300000      18.40100000
 H      16.84300000      22.64200000      17.79400000
