27
XYZ file of cluster: frame_19500_c9a17.a1f7.27803 - created by MolEdiTo
 O      19.28000000       3.04600000       5.51800000
 H      19.10100000       3.19000000       6.48200000
 H      18.42900000       3.38200000       5.17100000
 O      18.33200000       6.58800000       5.08600000
 H      17.85000000       5.86300000       5.50400000
 H      18.88800000       6.18400000       4.33900000
 O      18.55000000       3.46600000       8.16500000
 H      18.22200000       2.59700000       8.51500000
 H      17.78200000       4.02900000       8.41700000
 O      22.50300000       1.42700000       3.51400000
 H      22.33000000       2.21400000       4.10400000
 H      21.53100000       1.13600000       3.49800000
 O      25.28200000       1.27800000       9.21900000
 H      24.93000000       2.17400000       9.19300000
 H      25.24100000       0.87200000       8.34700000
 O      23.82000000       2.36400000       6.06800000
 H      23.11100000       1.78000000       6.35300000
 H      23.31600000       3.17000000       6.10500000
 O      22.49700000       5.21600000       7.16600000
 H      22.95600000       4.65300000       7.82700000
 H      21.59100000       4.78600000       7.21900000
 O      23.39300000       5.39300000       4.48200000
 H      22.51400000       5.06200000       4.26000000
 H      23.48800000       5.23400000       5.43800000
 O      23.87600000       3.90800000       9.02300000
 H      24.72800000       3.89700000       8.54200000
 H      24.07900000       3.75600000      10.06000000
