42
XYZ file of cluster: frame_1500_73d37.79780.af79 - created by MolEdiTo
 O      16.94300000      10.86400000       1.87300000
 H      16.17100000      10.93700000       2.49000000
 H      16.49700000      10.80400000       0.97000000
 O      13.78600000      11.85100000       6.85200000
 H      12.89800000      11.49600000       7.06500000
 H      14.27600000      11.79700000       7.70200000
 O      13.07200000      17.58000000       6.80500000
 H      12.52300000      18.41700000       6.76200000
 H      13.33200000      17.45500000       5.85400000
 O      14.34700000      13.91600000       1.88400000
 H      14.85300000      13.03200000       2.07900000
 H      14.56100000      14.60100000       2.53400000
 O      10.65500000      12.26800000       3.76100000
 H      11.12400000      12.69200000       4.44500000
 H       9.97000000      12.90900000       3.46400000
 O      17.11600000      15.06800000       2.49600000
 H      17.88800000      15.60100000       2.76800000
 H      16.91600000      14.69600000       3.37200000
 O      13.81400000      14.79700000       4.63800000
 H      13.04300000      14.62300000       5.21900000
 H      13.94200000      15.80600000       4.59000000
 O      12.12000000      18.32000000       2.75300000
 H      11.44400000      19.05900000       2.74200000
 H      11.53000000      17.58300000       2.97200000
 O      16.15900000      17.98600000       1.19700000
 H      15.57500000      18.76500000       0.96900000
 H      15.48000000      17.32600000       1.52900000
 O      11.42100000      10.97200000       1.49000000
 H      11.04200000      11.19200000       2.36900000
 H      11.29000000      11.78300000       0.98700000
 O      14.55800000      17.74800000       4.31300000
 H      14.10300000      18.39400000       3.69800000
 H      15.32600000      18.33200000       4.44700000
 O      17.73600000      15.42000000       6.17100000
 H      18.65400000      15.56900000       5.89600000
 H      17.33900000      16.22600000       5.74700000
 O      15.18200000      11.99400000       3.74800000
 H      14.49500000      11.28200000       3.88700000
 H      14.97500000      12.47700000       4.55000000
 O      11.50300000      14.75200000       5.92400000
 H      11.67500000      13.91000000       6.45200000
 H      11.91300000      15.40000000       6.61900000
