39
XYZ file of cluster: frame_1500_9484.9db75.bf407 - created by MolEdiTo
 O       1.97300000      15.89500000      17.85000000
 H       1.12200000      15.82400000      18.31500000
 H       1.80000000      16.16400000      16.89800000
 O       4.89200000      16.04200000      19.71300000
 H       5.86000000      15.97400000      19.98800000
 H       4.42600000      15.57300000      20.47900000
 O       1.25300000      20.10300000      18.99100000
 H       0.79900000      19.34900000      19.51600000
 H       2.24000000      19.89600000      18.81700000
 O       1.98200000      17.22300000      20.45400000
 H       2.52700000      17.83800000      20.95200000
 H       2.58000000      16.98200000      19.71700000
 O       5.30900000      19.62900000      18.73300000
 H       5.61500000      19.27200000      19.59000000
 H       5.68700000      18.90200000      18.19100000
 O       4.58700000      14.23100000      17.70400000
 H       3.75900000      14.02800000      18.22600000
 H       5.11000000      14.72300000      18.38000000
 O       6.55500000      15.78600000      23.79700000
 H       6.15900000      14.90000000      23.70000000
 H       7.47800000      15.65800000      23.79700000
 O       3.08400000      14.76600000      22.85100000
 H       2.95300000      14.21600000      22.03600000
 H       2.52000000      15.58700000      22.73500000
 O       6.88100000      18.33000000      22.57700000
 H       7.87500000      18.48700000      22.53500000
 H       6.73200000      17.35500000      22.75100000
 O       2.49600000      19.65700000      25.79800000
 H       3.03900000      20.44500000      26.08900000
 H       3.01400000      19.27300000      25.01700000
 O       3.82900000      19.20900000      23.25800000
 H       4.01400000      20.03000000      22.71400000
 H       4.72100000      18.89900000      23.39800000
 O       3.62700000      14.47900000      25.57500000
 H       3.64500000      14.67300000      24.59200000
 H       3.27300000      15.20900000      26.10500000
 O       6.61700000      19.00800000      25.15100000
 H       6.65400000      18.57700000      24.26300000
 H       7.06900000      18.37600000      25.75400000
