148
XYZ file of cluster: frame_11000_6942f.20a44.6963b - created by MolEdiTo
 O      25.41700000       8.92900000      21.64700000
 H      25.60800000       9.82900000      21.37900000
 H      25.87800000       8.43400000      20.91800000
 O      16.43500000      13.20400000      23.68800000
 H      15.84100000      13.74200000      23.14100000
 H      16.19900000      13.53300000      24.63100000
 O      17.50900000      15.84000000      20.47700000
 H      17.97300000      15.00300000      20.89500000
 H      16.53800000      15.75100000      20.60500000
 O      23.44600000      10.32700000      19.52100000
 H      23.48600000       9.74300000      18.76200000
 H      23.84600000      11.18400000      19.32600000
 O      19.33900000      10.57900000      18.86800000
 H      19.76400000      10.04800000      19.57500000
 H      18.50800000      10.75100000      19.31700000
 O      21.01300000       7.48000000      25.36000000
 H      20.96100000       8.50500000      25.33100000
 H      21.33100000       7.35100000      26.26400000
 O      25.66100000       6.27800000      26.44400000
 H      26.05300000       5.92200000      25.69100000
 H      26.23800000       7.09600000      26.65600000
 O      23.41100000      14.78500000      26.43700000
 H      22.66400000      14.27300000      26.17400000
 H      23.16500000      15.71000000      26.09900000
 O      26.15100000      10.34900000      16.83100000
 H      25.72100000      10.09600000      15.93200000
 H      25.45100000      10.64000000      17.45300000
 O      21.99700000       5.06800000      17.92100000
 H      22.11300000       4.20900000      17.44500000
 H      22.71600000       5.66600000      17.59600000
 O      17.04700000      16.10300000      25.84600000
 H      16.47500000      15.40000000      26.11500000
 H      17.54300000      16.36200000      26.65700000
 O      19.62200000      10.39400000      23.91900000
 H      20.40100000      10.82000000      23.48000000
 H      19.65200000       9.60900000      23.30300000
 O      23.24800000      10.23800000      16.25100000
 H      22.30900000      10.50300000      16.21500000
 H      23.21800000       9.26100000      16.13000000
 O      18.56400000       6.24600000      23.65100000
 H      18.88300000       6.38400000      24.59400000
 H      18.50300000       5.24200000      23.62600000
 O      16.53600000       8.83100000      26.34700000
 H      15.54500000       8.85700000      26.45500000
 H      16.74800000       9.21100000      25.50200000
 O      17.39000000       9.05300000      21.34200000
 H      17.10300000       9.28500000      22.25800000
 H      18.26600000       8.50800000      21.52800000
 O      18.56900000       8.56600000      16.96300000
 H      19.46700000       8.81900000      16.75100000
 H      18.14300000       9.29400000      17.55200000
 O      20.08900000       6.07600000      19.76600000
 H      20.68600000       6.35400000      20.53500000
 H      20.73200000       6.09300000      19.04300000
 O      23.98600000       7.32100000      17.61100000
 H      24.85000000       7.43200000      18.06700000
 H      24.33300000       6.97900000      16.80700000
 O      22.92500000      11.60200000      22.09600000
 H      22.77000000      12.46800000      21.64800000
 H      22.84500000      11.00900000      21.24100000
 O      24.47300000      11.58300000      25.86500000
 H      23.87600000      10.89700000      25.40500000
 H      23.98400000      11.84000000      26.71200000
 O      17.28100000      11.85200000      20.71300000
 H      16.35600000      12.19500000      20.58800000
 H      17.26000000      11.06100000      21.27300000
 O      18.91800000      11.87300000      26.05800000
 H      19.20900000      11.54100000      25.17900000
 H      18.96100000      11.13900000      26.69000000
 O      22.59700000      14.63600000      20.18200000
 H      22.80000000      14.99000000      21.01600000
 H      23.29600000      14.08200000      19.83300000
 O      22.67700000       8.31600000      22.03500000
 H      23.41000000       8.97400000      21.81900000
 H      22.98100000       7.46700000      21.58900000
 O      20.65400000      11.32800000      15.97000000
 H      21.29000000      11.97500000      16.39100000
 H      19.79500000      11.50400000      16.25600000
 O      22.20300000      13.44900000      16.92100000
 H      21.51600000      13.88800000      17.51700000
 H      22.78900000      14.20400000      16.75400000
 C      17.34300000      16.03400000      15.99200000
 C      16.37400000      14.85200000      16.14400000
 C      14.24400000      16.37300000      15.93400000
 H      14.42700000      14.28900000      15.75300000
 H      18.14500000      14.92200000      14.94100000
 O      15.30400000      15.21100000      13.99400000
 O      17.23100000      17.05100000      16.66800000
 O      18.33100000      15.81000000      15.17300000
 C      15.04500000      15.15800000      15.41500000
 O      16.91500000      13.66000000      15.70600000
 H      16.12600000      14.88400000      17.25900000
 O      14.07600000      16.53000000      17.11900000
 O      13.65800000      17.11700000      14.99700000
 H      13.89300000      16.66000000      14.18300000
 H      16.19900000      12.88100000      15.90600000
 H      15.70100000      14.31700000      13.65000000
 O      25.98400000      12.71100000      23.56500000
 H      25.91300000      12.73800000      24.55800000
 H      25.56300000      11.83400000      23.38200000
 O      21.83200000       5.32000000      23.83800000
 H      21.43300000       6.06800000      24.39000000
 H      22.19200000       4.78800000      24.62200000
 O      19.20400000      13.59600000      21.75000000
 H      18.49900000      12.97400000      21.45900000
 H      19.30200000      13.55000000      22.68400000
 O      22.61700000       9.95600000      24.30500000
 H      22.55600000       9.13100000      23.73500000
 H      22.94700000      10.68300000      23.63100000
 O      26.22100000      15.39000000      26.38200000
 H      26.29200000      15.60000000      25.46100000
 H      25.33000000      15.08200000      26.46600000
 O      16.66000000      10.96100000      16.96800000
 H      16.82500000      11.70600000      17.66200000
 H      15.97800000      10.36500000      17.43700000
 O      24.36200000      12.62700000      18.69100000
 H      24.56200000      13.06000000      17.88700000
 H      23.38100000      12.44200000      18.66100000
 O      25.47700000       5.75400000      20.10200000
 H      24.58500000       5.75100000      20.51800000
 H      25.64100000       6.70100000      20.06000000
 O      16.74200000      10.34300000      23.76000000
 H      16.10200000      10.88000000      24.28100000
 H      17.41400000      11.04700000      23.68200000
 O      23.12200000       5.72600000      21.33700000
 H      22.62800000       5.60300000      22.19300000
 H      23.39600000       4.84900000      21.04000000
 O      26.38400000       8.22900000      19.20700000
 H      27.08000000       8.49300000      19.75500000
 H      26.73200000       8.51500000      18.33900000
 O      19.43000000       5.28600000      16.56500000
 H      20.21700000       5.09600000      17.10300000
 H      19.11600000       6.14000000      16.94400000
 O      20.67100000      15.14600000      23.53500000
 H      21.55700000      15.21900000      23.33100000
 H      20.52800000      15.49100000      24.46600000
 O      19.98100000       8.25300000      22.01200000
 H      20.92000000       8.02100000      22.10700000
 H      19.48600000       7.48400000      22.37200000
 O      16.47100000       6.51800000      21.26000000
 H      15.99000000       6.04000000      22.04500000
 H      16.54100000       7.51000000      21.42200000
 O      19.76000000      13.56800000      18.70800000
 H      20.11700000      12.65100000      18.89400000
 H      19.99100000      13.96100000      19.61200000
 O      24.02000000      14.42500000      22.53800000
 H      24.65800000      15.16600000      22.76700000
 H      24.33900000      13.56300000      22.96200000
