90
XYZ file of cluster: frame_11000_9e60b.c4940.4b9a - created by MolEdiTo
 O      30.36000000      26.06100000       3.56800000
 H      31.09500000      25.61200000       4.08200000
 H      30.72100000      27.00100000       3.37700000
 O      24.47500000      30.52500000       1.37800000
 H      25.37800000      30.43800000       1.57300000
 H      24.21700000      31.48100000       1.35300000
 O      29.62800000      28.38000000       8.20600000
 H      30.58800000      28.43600000       8.34400000
 H      29.38100000      29.04400000       7.52200000
 O      29.09200000      29.63200000       5.82700000
 H      28.14400000      29.96000000       5.71000000
 H      29.27900000      29.39400000       4.88700000
 O      22.71600000      29.84900000       8.16900000
 H      21.86900000      29.67400000       8.61000000
 H      23.31000000      29.31200000       8.67000000
 O      24.91700000      28.36100000       5.69900000
 H      25.15600000      28.62300000       6.64300000
 H      23.91000000      28.34900000       5.82800000
 O      26.89200000      28.80600000       3.59000000
 H      26.27400000      29.52300000       3.18400000
 H      26.22900000      28.22100000       4.05100000
 O      21.84800000      26.22600000       8.22300000
 H      21.62200000      25.34800000       8.64500000
 H      21.12300000      26.37400000       7.58700000
 O      24.06500000      27.61400000       9.10200000
 H      24.63600000      26.90100000       9.44700000
 H      23.27600000      27.24900000       8.82500000
 O      27.50500000      30.38900000       1.18700000
 H      28.34300000      30.14400000       0.61200000
 H      27.75600000      29.82300000       1.99300000
 O      26.30400000      29.40100000       7.78700000
 H      25.99400000      29.13100000       8.66800000
 H      27.01000000      28.77700000       7.57800000
 O      21.90700000      28.44900000       4.82400000
 H      20.92300000      28.32200000       4.92700000
 H      21.99900000      29.41700000       4.63000000
 O      27.71400000      27.39800000       9.87300000
 H      27.59300000      26.51300000       9.60500000
 H      28.54000000      27.62200000       9.33200000
 O      24.93500000      34.66200000       2.85600000
 H      25.90400000      34.45400000       2.74400000
 H      24.71700000      34.84800000       3.78600000
 O      28.80100000      34.58500000       6.01100000
 H      28.42400000      35.43800000       5.69000000
 H      28.05600000      34.02900000       6.36400000
 O      21.84900000      36.41400000       6.17000000
 H      20.90400000      36.66400000       6.01500000
 H      22.12700000      36.52000000       7.15000000
 O      29.33700000      32.89400000       9.52900000
 H      29.13200000      33.71200000       9.96900000
 H      29.01200000      33.17100000       8.62900000
 O      24.44000000      33.72600000      10.58800000
 H      25.15100000      33.11800000      10.60200000
 H      24.75000000      34.42600000       9.98200000
 O      21.65400000      34.12000000       4.40500000
 H      20.82500000      34.40700000       4.89300000
 H      22.26800000      34.85900000       4.57800000
 O      29.37700000      35.96400000       0.78800000
 H      28.46400000      35.68600000       0.61700000
 H      29.28400000      36.97500000       0.83900000
 O      25.38900000      36.52400000       9.79000000
 H      25.12800000      36.61100000      10.73400000
 H      25.97100000      37.30300000       9.72600000
 O      21.75500000      37.10600000       8.85700000
 H      21.33500000      37.78200000       9.47400000
 H      22.21800000      36.53300000       9.54200000
 O      27.73800000      34.07100000       3.14400000
 H      28.66600000      34.12300000       3.49600000
 H      27.94000000      33.38600000       2.47500000
 O      30.85600000      33.40800000       3.18400000
 H      31.59800000      33.01700000       2.67000000
 H      30.85900000      32.97200000       4.03800000
 O      24.22200000      35.49700000       5.50200000
 H      24.29000000      36.45300000       5.32700000
 H      23.30600000      35.53600000       5.92700000
 O      22.42100000      36.03800000       2.09200000
 H      23.28200000      35.56900000       2.16600000
 H      21.80600000      35.55400000       2.67700000
 O      20.55000000      34.94900000      10.69700000
 H      21.36100000      34.50300000      10.43200000
 H      20.61400000      35.28800000      11.66300000
 O      29.75600000      36.83000000       7.90300000
 H      29.17700000      36.00900000       8.04300000
 H      29.76200000      36.96700000       6.94700000
 O      27.44400000      34.86600000       8.81700000
 H      26.86400000      35.62500000       8.97300000
 H      27.02000000      34.60800000       7.96500000
 O      26.18800000      33.76800000       6.46300000
 H      25.45400000      34.02800000       5.87200000
 H      26.01300000      32.76500000       6.72500000
