102
XYZ file of cluster: frame_11000_4ab41.0.c17bf - created by MolEdiTo
 O      16.40500000       8.41500000      30.55700000
 H      16.19700000       8.29900000      31.52900000
 H      16.35900000       9.39100000      30.54600000
 O      18.07200000       6.31100000      26.37900000
 H      17.74400000       7.21100000      26.48700000
 H      18.83900000       6.28300000      26.90200000
 O      20.27300000       4.71300000      30.45300000
 H      21.20900000       4.85900000      30.85100000
 H      19.75000000       4.96900000      31.25800000
 O      11.15800000       9.24900000      29.48300000
 H      11.56300000       8.33200000      29.43300000
 H      10.71100000       9.07800000      30.35500000
 O      17.29400000       2.53600000      29.60900000
 H      17.09300000       3.50400000      29.88400000
 H      18.27100000       2.55500000      29.38100000
 O      13.31300000       5.72200000      25.89500000
 H      13.59300000       6.50900000      26.43400000
 H      13.78700000       4.92600000      26.16100000
 O      13.85900000       5.62900000      30.43000000
 H      14.58900000       6.24400000      30.18900000
 H      14.35800000       4.90400000      30.72500000
 O      14.20400000       7.76700000      27.59300000
 H      15.09500000       7.51100000      27.86500000
 H      13.89000000       8.28800000      28.33100000
 O      10.79500000       6.77700000      27.16100000
 H      10.83000000       6.80300000      28.17900000
 H      11.00900000       5.83400000      26.96300000
 O      16.53600000       8.83100000      26.34700000
 H      15.54500000       8.85700000      26.45500000
 H      16.74800000       9.21100000      25.50200000
 O      11.20700000       6.29100000      29.87300000
 H      10.71400000       5.85900000      30.63200000
 H      12.12000000       5.88800000      30.06500000
 O      18.78800000       9.48500000      27.78900000
 H      17.89400000       9.55700000      27.36100000
 H      18.94000000       8.62300000      28.11900000
 O      21.14300000       2.51600000      26.09500000
 H      21.65500000       1.74600000      26.44800000
 H      21.07700000       2.42600000      25.06000000
 O      19.92800000       6.92900000      28.91600000
 H      20.06900000       6.18700000      29.54100000
 H      20.80800000       7.33700000      28.68000000
 O      10.58900000       4.01500000      27.10000000
 H      10.62200000       3.77500000      26.15000000
 H       9.69300000       3.71100000      27.45900000
 O      12.99500000       2.60400000      29.09900000
 H      13.17300000       3.00400000      28.19800000
 H      12.53800000       1.77700000      28.82400000
 O      15.70700000       1.85200000      26.84500000
 H      16.52900000       1.62100000      27.30700000
 H      15.74000000       2.84000000      26.92900000
 O      19.74500000       2.55000000      28.61200000
 H      20.10900000       2.83900000      27.71500000
 H      20.38600000       3.06600000      29.15600000
 O      16.53400000       6.29600000      29.01200000
 H      17.53900000       6.24400000      28.90500000
 H      16.48600000       7.04900000      29.61900000
 O      16.66900000       4.29600000      33.48800000
 H      17.17300000       3.81400000      34.22000000
 H      17.24600000       4.91900000      33.03600000
 O      21.65400000       2.63900000      36.02600000
 H      20.82500000       2.92600000      36.51400000
 H      22.26800000       3.37800000      36.19900000
 O      15.31500000       5.99600000      36.71900000
 H      16.00700000       5.33100000      36.68300000
 H      14.64500000       5.59000000      37.31900000
 O      14.72400000       1.06900000      35.88000000
 H      13.84000000       0.79500000      36.26000000
 H      14.45500000       1.64200000      35.09600000
 O      11.36200000       3.02300000      36.09900000
 H      11.80900000       3.67600000      35.48800000
 H      11.51300000       2.21700000      35.59700000
 O      12.74200000       8.46500000      35.75100000
 H      11.95100000       8.94600000      35.62000000
 H      12.53100000       7.80300000      35.08900000
 O      18.58400000       6.34300000      33.88400000
 H      18.03000000       6.26000000      34.69500000
 H      18.86200000       7.29300000      33.74200000
 O      11.69600000       0.98500000      32.82500000
 H      11.78700000       0.94300000      31.86100000
 H      11.57300000       0.00000000      33.02700000
 O      18.97400000      10.12200000      36.31400000
 H      19.42700000      10.10400000      35.47800000
 H      19.44200000      10.84200000      36.79100000
 O      14.04500000       2.87700000      33.79900000
 H      13.41000000       2.89000000      33.06600000
 H      14.66900000       3.62600000      33.74500000
 O      15.90200000       7.84200000      34.80100000
 H      16.58400000       8.38700000      35.22500000
 H      15.67200000       7.17200000      35.44300000
 O      15.12800000      10.54700000      36.47100000
 H      14.75700000       9.72600000      36.13000000
 H      15.50400000      10.94300000      35.74100000
 O      21.18100000       7.55300000      35.32000000
 H      20.63100000       7.78400000      36.14600000
 H      20.65200000       7.91300000      34.58500000
 O      16.65800000       3.30400000      36.66900000
 H      15.67000000       3.08700000      36.64700000
 H      16.97500000       2.62100000      37.30800000
 O      19.85500000       8.88100000      33.23000000
 H      20.18400000       8.47000000      32.46200000
 H      20.28100000       9.79800000      33.18900000
