108
XYZ file of cluster: frame_17000_1ea7.4c1ad.c75b6 - created by MolEdiTo
 O       6.40300000      19.16800000      26.52300000
 H       6.68400000      20.05300000      26.16000000
 H       6.14000000      18.68500000      25.73000000
 O       7.67600000      11.72800000      27.62600000
 H       7.47400000      12.33800000      28.31200000
 H       8.66800000      11.66300000      27.85000000
 O       9.07700000      13.38200000      30.64400000
 H       8.30800000      13.55700000      31.18800000
 H       9.31500000      12.41800000      30.54400000
 O       5.29100000      14.61300000      26.70400000
 H       4.80500000      15.48200000      26.67000000
 H       5.82100000      14.53500000      25.84300000
 O       5.55900000      13.71800000      29.44700000
 H       5.35400000      13.84500000      28.46400000
 H       5.73600000      14.70500000      29.67400000
 O       4.59900000      19.94800000      28.73900000
 H       5.27700000      20.00700000      28.04400000
 H       3.86800000      19.62700000      28.23900000
 O       4.29600000      16.68900000      28.84700000
 H       4.36200000      17.51200000      28.37000000
 H       3.58000000      16.20200000      28.29700000
 O       7.83800000      18.57700000      29.63000000
 H       8.19100000      19.37100000      30.08700000
 H       7.94000000      18.71800000      28.65300000
 O      11.43200000      14.45900000      29.07200000
 H      10.56500000      14.73600000      28.66000000
 H      11.69300000      13.74500000      28.42600000
 O       8.01900000      16.79700000      26.77300000
 H       8.24400000      17.65700000      26.47400000
 H       7.06500000      16.87400000      26.96800000
 O       2.95000000      19.24000000      26.79500000
 H       2.31500000      20.02500000      26.92700000
 H       3.46500000      19.58800000      26.00400000
 O       6.65500000      10.89200000      30.17500000
 H       6.23400000      10.07800000      29.70700000
 H       6.44400000      11.72200000      29.64600000
 O       9.14200000      20.51700000      26.09800000
 H       9.42900000      21.41900000      26.23400000
 H       9.64900000      20.00300000      26.78600000
 O       2.27000000      10.71400000      28.14900000
 H       3.20500000      10.78200000      28.50800000
 H       1.80100000      10.01100000      28.63800000
 O       2.52000000      15.80200000      26.89600000
 H       2.83200000      14.98000000      26.41200000
 H       1.72100000      16.02500000      26.39900000
 O       8.95400000      14.73800000      28.21500000
 H       8.67000000      15.66200000      27.88700000
 H       8.54700000      14.60000000      29.12000000
 O       1.61100000      16.81500000      30.57100000
 H       2.11700000      16.03300000      30.31500000
 H       0.87900000      16.46400000      31.03700000
 O       5.07200000      20.41600000      32.91400000
 H       5.96600000      20.05300000      32.87100000
 H       4.77900000      20.25300000      31.94400000
 O       3.58900000      11.61200000      34.71600000
 H       2.73500000      11.13600000      34.71000000
 H       3.39500000      12.42400000      34.16900000
 O       3.77000000      18.78800000      34.87300000
 H       4.10800000      19.53800000      34.27700000
 H       2.81000000      18.96500000      34.85500000
 O       3.97900000      10.38000000      37.26300000
 H       3.27400000       9.80000000      37.15900000
 H       3.97100000      10.94200000      36.43700000
 O       2.57400000      15.27800000      35.07900000
 H       2.97500000      14.47000000      34.61200000
 H       3.05100000      16.04200000      34.66700000
 O      10.34100000      16.27000000      35.12700000
 H       9.76800000      16.59600000      34.42700000
 H      10.01300000      16.63500000      35.95800000
 O       4.65000000      16.34800000      33.66300000
 H       4.50200000      17.26200000      34.14000000
 H       4.25900000      16.52300000      32.75300000
 O       8.27500000      17.96100000      36.63700000
 H       7.46900000      18.60200000      36.46700000
 H       7.83100000      17.44200000      37.38600000
 O       8.85300000      16.61800000      32.94600000
 H       8.52200000      17.23700000      32.23200000
 H       8.00900000      16.07200000      33.16300000
 O       6.01200000      19.55800000      36.26300000
 H       5.24400000      18.94600000      36.13800000
 H       5.61800000      20.43900000      36.12900000
 O       1.18300000      10.74500000      33.94700000
 H       0.37200000      10.25600000      33.62900000
 H       0.85500000      11.40800000      34.64900000
 O       1.08400000      19.68300000      35.70100000
 H       0.98700000      20.51600000      36.21800000
 H       0.24900000      19.21800000      35.89600000
 O       6.91000000      14.81400000      33.34600000
 H       7.01400000      14.09200000      34.04100000
 H       6.02700000      15.19600000      33.28800000
 O      10.82100000      19.59900000      33.81100000
 H      10.14700000      19.71400000      33.08200000
 H      11.63900000      19.79500000      33.33400000
 O      11.15500000      14.02700000      33.65000000
 H      10.34100000      14.10900000      33.08100000
 H      10.97400000      14.45300000      34.50200000
 O       8.65000000      20.58300000      32.61600000
 H       9.21100000      21.31500000      32.42700000
 H       7.79000000      21.05300000      32.71800000
 O      10.74800000      19.19300000      36.87800000
 H       9.93400000      18.70700000      36.86000000
 H      10.78300000      19.57200000      35.96800000
 O       5.82700000      13.06200000      35.63400000
 H       5.22300000      12.54700000      35.10200000
 H       5.42500000      13.87500000      35.96800000
 O       3.50700000      13.44200000      32.97900000
 H       4.23200000      13.59100000      32.33300000
 H       2.72300000      13.54100000      32.40500000
