99
XYZ file of cluster: frame_17000_9d13c.9b7e8.9ca46 - created by MolEdiTo
 O      24.06400000      27.30300000      29.61600000
 H      23.16700000      26.96800000      29.94600000
 H      24.41500000      26.47800000      29.35700000
 O      30.22600000      21.66100000      24.07500000
 H      30.59600000      20.78300000      24.28500000
 H      29.90700000      22.03200000      24.90000000
 O      26.94900000      26.75300000      24.73800000
 H      26.39500000      27.07400000      25.47000000
 H      26.30900000      26.00600000      24.49000000
 O      25.14600000      29.36400000      27.40900000
 H      24.66200000      28.78800000      26.74300000
 H      24.82300000      28.82300000      28.23000000
 O      30.62700000      27.64000000      24.94600000
 H      29.92400000      27.36300000      25.50200000
 H      30.68900000      26.87200000      24.37500000
 O      28.16100000      26.38300000      28.01000000
 H      28.00700000      26.16500000      28.96300000
 H      29.02500000      25.91000000      27.79100000
 O      29.84600000      25.81800000      20.35300000
 H      29.33500000      26.39600000      21.02900000
 H      29.69300000      24.90400000      20.69000000
 O      26.68900000      20.97500000      23.84800000
 H      26.87000000      20.02300000      24.13200000
 H      27.23900000      21.51200000      24.38700000
 O      22.22100000      27.18400000      22.97000000
 H      21.95400000      27.01100000      22.04000000
 H      23.11100000      26.81400000      22.88600000
 O      27.93600000      23.13300000      22.38100000
 H      27.64500000      22.25400000      22.78600000
 H      28.42600000      22.83500000      21.56700000
 O      23.66700000      21.16000000      26.92300000
 H      24.08000000      22.03400000      26.59400000
 H      23.10800000      20.86400000      26.16000000
 O      30.52400000      21.94700000      29.23300000
 H      29.65000000      22.39900000      29.43000000
 H      30.53000000      21.15300000      29.87400000
 O      23.57600000      27.79400000      25.92100000
 H      23.06400000      28.48900000      25.33600000
 H      22.95700000      27.04600000      25.92400000
 O      27.84600000      24.37200000      26.28900000
 H      28.46000000      24.79400000      25.65200000
 H      27.68800000      25.13900000      26.90100000
 O      26.39400000      30.55400000      21.55600000
 H      25.79000000      30.12500000      20.93600000
 H      27.12900000      30.00800000      21.45900000
 O      29.98900000      22.23800000      20.66600000
 H      30.26100000      21.71500000      21.37700000
 H      30.90100000      22.30800000      20.21700000
 O      20.98300000      22.77500000      23.66400000
 H      20.84700000      23.09700000      24.52700000
 H      21.47600000      21.93900000      23.79700000
 O      25.36200000      24.40600000      23.33100000
 H      25.07900000      25.14400000      22.67300000
 H      25.38100000      23.58200000      22.78300000
 O      27.94700000      23.06500000      29.39100000
 H      27.80600000      23.77800000      28.71800000
 H      27.51500000      23.43000000      30.19700000
 O      29.35100000      25.16100000      23.86400000
 H      29.45900000      24.17000000      23.69600000
 H      28.44500000      25.35600000      23.48300000
 O      28.34500000      21.79400000      26.59100000
 H      28.88100000      22.02100000      27.37800000
 H      28.00300000      22.68000000      26.26100000
 O      27.92900000      29.51200000      24.95000000
 H      28.49500000      29.31400000      24.11500000
 H      27.46700000      28.62800000      25.01200000
 O      20.79000000      25.35300000      28.09800000
 H      20.41600000      26.21900000      28.44200000
 H      21.68800000      25.21800000      28.57100000
 O      26.78900000      20.62700000      28.53600000
 H      27.16600000      20.87500000      27.64800000
 H      27.04000000      21.38200000      29.07800000
 O      23.92800000      30.56700000      23.55300000
 H      24.71200000      31.12400000      23.33900000
 H      24.25200000      29.67700000      23.23600000
 O      21.78000000      22.32300000      28.92000000
 H      22.25400000      21.97200000      28.15700000
 H      21.23700000      23.05800000      28.46800000
 O      24.70000000      24.04300000      28.77600000
 H      24.56400000      23.91500000      27.79100000
 H      24.74400000      23.11400000      29.14900000
 O      27.63000000      25.67700000      30.72400000
 H      26.76700000      25.65400000      31.19600000
 H      28.31300000      25.44100000      31.41300000
 O      25.03100000      23.39700000      25.97800000
 H      25.01000000      23.87200000      25.05300000
 H      25.93700000      23.41500000      26.26400000
 O      25.18700000      26.87100000      21.74300000
 H      24.84100000      27.78200000      21.47400000
 H      26.10300000      26.82800000      21.50500000
 O      22.21600000      24.56000000      21.81900000
 H      22.50300000      24.20800000      20.90900000
 H      21.83100000      23.73700000      22.28600000
 O      29.36600000      29.25200000      22.73300000
 H      30.19900000      28.72800000      22.94500000
 H      29.49800000      29.82400000      21.97900000
 O      27.67000000      29.46700000      29.40800000
 H      27.52600000      29.07500000      28.48700000
 H      28.20300000      28.77400000      29.80100000
