114
XYZ file of cluster: frame_17000_c8a1d.705ef.c6c0b - created by MolEdiTo
 O      30.52400000      21.94700000      29.23300000
 H      29.65000000      22.39900000      29.43000000
 H      30.53000000      21.15300000      29.87400000
 O      27.84600000      24.37200000      26.28900000
 H      28.46000000      24.79400000      25.65200000
 H      27.68800000      25.13900000      26.90100000
 O      28.75400000      18.47900000      26.60500000
 H      29.00900000      19.03700000      25.85400000
 H      29.46200000      18.74600000      27.29100000
 O      26.78900000      20.62700000      28.53600000
 H      27.16600000      20.87500000      27.64800000
 H      27.04000000      21.38200000      29.07800000
 O      26.07700000      16.00800000      28.57800000
 H      26.67800000      15.21600000      28.52600000
 H      26.38300000      16.58200000      27.81400000
 O      30.73600000      18.72100000      28.54100000
 H      30.51100000      17.84100000      28.83000000
 H      31.59300000      18.64700000      27.99700000
 O      27.63000000      25.67700000      30.72400000
 H      26.76700000      25.65400000      31.19600000
 H      28.31300000      25.44100000      31.41300000
 O      27.94700000      23.06500000      29.39100000
 H      27.80600000      23.77800000      28.71800000
 H      27.51500000      23.43000000      30.19700000
 O      28.16100000      26.38300000      28.01000000
 H      28.00700000      26.16500000      28.96300000
 H      29.02500000      25.91000000      27.79100000
 O      28.34500000      21.79400000      26.59100000
 H      28.88100000      22.02100000      27.37800000
 H      28.00300000      22.68000000      26.26100000
 O      30.41800000      19.64900000      32.92100000
 H      30.25700000      19.17000000      33.73800000
 H      30.66800000      18.99500000      32.20300000
 O      28.11100000      17.83400000      32.99200000
 H      28.15500000      18.74700000      32.79300000
 H      27.14800000      17.71300000      32.84100000
 O      28.50800000      21.90800000      34.60600000
 H      28.87600000      21.95300000      35.44800000
 H      28.65700000      20.94300000      34.38300000
 O      28.43300000      18.98200000      35.59700000
 H      28.22400000      18.33400000      36.31100000
 H      27.83200000      19.78700000      35.69300000
 O      29.79700000      24.35800000      33.93600000
 H      30.54700000      24.22200000      34.54900000
 H      29.36400000      23.50500000      34.05200000
 O      29.38300000      15.73000000      35.17400000
 H      30.29600000      16.03000000      35.29100000
 H      28.94700000      16.48500000      34.74700000
 O      27.39100000      24.79400000      36.40800000
 H      26.45400000      25.09200000      36.40300000
 H      27.81400000      25.64200000      36.12300000
 O      33.51600000      21.64100000      26.95800000
 H      34.24100000      22.32900000      26.89600000
 H      33.13500000      21.81400000      27.84000000
 O      33.55500000      24.57100000      30.54200000
 H      32.80600000      24.42400000      31.16100000
 H      34.00600000      23.68200000      30.51100000
 O      32.64600000      25.05500000      27.97200000
 H      33.04600000      24.73800000      28.84500000
 H      33.41500000      24.81000000      27.50800000
 O      36.33100000      19.94800000      28.73900000
 H      37.00900000      20.00700000      28.04400000
 H      35.60000000      19.62700000      28.23900000
 O      36.02800000      16.68900000      28.84700000
 H      36.09400000      17.51200000      28.37000000
 H      35.31200000      16.20200000      28.29700000
 O      35.65200000      23.91600000      28.61800000
 H      35.92300000      24.72600000      27.99100000
 H      36.51300000      23.30500000      28.72500000
 O      34.68200000      19.24000000      26.79500000
 H      34.04700000      20.02500000      26.92700000
 H      35.19700000      19.58800000      26.00400000
 O      35.36600000      25.95700000      26.68400000
 H      35.20300000      25.45400000      25.86300000
 H      35.43900000      26.85300000      26.30000000
 O      34.25200000      15.80200000      26.89600000
 H      34.56400000      14.98000000      26.41200000
 H      33.45300000      16.02500000      26.39900000
 O      33.34300000      16.81500000      30.57100000
 H      33.84900000      16.03300000      30.31500000
 H      32.61100000      16.46400000      31.03700000
 O      37.74400000      19.55800000      36.26300000
 H      36.97600000      18.94600000      36.13800000
 H      37.35000000      20.43900000      36.12900000
 O      36.17300000      23.80100000      33.53600000
 H      37.02500000      23.29700000      33.35000000
 H      36.26500000      24.46200000      32.78400000
 O      36.80400000      20.41600000      32.91400000
 H      37.69800000      20.05300000      32.87100000
 H      36.51100000      20.25300000      31.94400000
 O      33.75000000      24.38800000      35.59200000
 H      34.43800000      24.52500000      36.23200000
 H      34.40100000      24.15400000      34.86400000
 O      32.81600000      19.68300000      35.70100000
 H      32.71900000      20.51600000      36.21800000
 H      31.98100000      19.21800000      35.89600000
 O      34.17700000      21.83500000      33.79900000
 H      33.51000000      21.12700000      33.71800000
 H      35.11300000      21.50000000      33.51600000
 O      35.50200000      18.78800000      34.87300000
 H      35.84000000      19.53800000      34.27700000
 H      34.54200000      18.96500000      34.85500000
 O      36.38200000      16.34800000      33.66300000
 H      36.23400000      17.26200000      34.14000000
 H      35.99100000      16.52300000      32.75300000
 O      36.40800000      21.99900000      35.87300000
 H      35.85500000      22.29100000      35.07400000
 H      35.71900000      22.15400000      36.55800000
 O      34.30600000      15.27800000      35.07900000
 H      34.70700000      14.47000000      34.61200000
 H      34.78300000      16.04200000      34.66700000
 O      36.04100000      26.08100000      36.35400000
 H      36.86400000      25.69500000      36.75600000
 H      36.02300000      26.95900000      36.72600000
