126
XYZ file of cluster: frame_17000_9a2f3.c1662.7479f - created by MolEdiTo
 O      26.94900000      26.75300000      24.73800000
 H      26.39500000      27.07400000      25.47000000
 H      26.30900000      26.00600000      24.49000000
 O      30.62700000      27.64000000      24.94600000
 H      29.92400000      27.36300000      25.50200000
 H      30.68900000      26.87200000      24.37500000
 O      29.84600000      25.81800000      20.35300000
 H      29.33500000      26.39600000      21.02900000
 H      29.69300000      24.90400000      20.69000000
 O      24.09500000      28.53300000      18.13400000
 H      23.48000000      28.67000000      17.38700000
 H      23.75900000      27.58200000      18.34500000
 O      26.88700000      29.48600000      18.14400000
 H      26.00400000      28.98600000      18.11000000
 H      27.40600000      29.09400000      17.42300000
 O      30.85000000      26.96300000      15.66500000
 H      31.37200000      27.77600000      15.99900000
 H      29.95300000      27.16700000      16.05100000
 O      22.22100000      27.18400000      22.97000000
 H      21.95400000      27.01100000      22.04000000
 H      23.11100000      26.81400000      22.88600000
 O      27.92600000      28.39700000      15.83900000
 H      28.75700000      28.68200000      15.37300000
 H      27.41300000      27.91400000      15.14700000
 O      27.46800000      27.59800000      20.28700000
 H      27.73900000      28.26200000      19.59700000
 H      26.87800000      26.95900000      19.79500000
 O      23.96600000      29.25100000      20.84400000
 H      24.09300000      29.08500000      19.87500000
 H      23.08000000      29.62700000      20.82500000
 O      23.57600000      27.79400000      25.92100000
 H      23.06400000      28.48900000      25.33600000
 H      22.95700000      27.04600000      25.92400000
 O      23.09000000      26.26000000      19.33900000
 H      23.06300000      25.31000000      19.21300000
 H      23.58400000      26.34400000      20.18800000
 O      26.39400000      30.55400000      21.55600000
 H      25.79000000      30.12500000      20.93600000
 H      27.12900000      30.00800000      21.45900000
 O      25.04400000      30.72100000      15.85300000
 H      25.23800000      30.68800000      16.79700000
 H      24.10900000      30.98000000      15.94600000
 O      30.58100000      29.59100000      17.64300000
 H      30.36800000      28.66100000      17.81800000
 H      30.42300000      30.04500000      18.46500000
 O      27.92900000      29.51200000      24.95000000
 H      28.49500000      29.31400000      24.11500000
 H      27.46700000      28.62800000      25.01200000
 O      22.26600000      27.40800000      15.93700000
 H      22.39300000      26.94000000      15.03300000
 H      21.64400000      28.16500000      15.69800000
 O      25.22600000      26.43700000      15.96400000
 H      25.35200000      25.76100000      15.29900000
 H      24.91000000      27.19500000      15.46400000
 O      23.92800000      30.56700000      23.55300000
 H      24.71200000      31.12400000      23.33900000
 H      24.25200000      29.67700000      23.23600000
 O      29.59300000      27.10300000      18.04800000
 H      29.75600000      26.62600000      18.91800000
 H      29.09400000      26.35600000      17.47800000
 O      25.18700000      26.87100000      21.74300000
 H      24.84100000      27.78200000      21.47400000
 H      26.10300000      26.82800000      21.50500000
 O      29.36600000      29.25200000      22.73300000
 H      30.19900000      28.72800000      22.94500000
 H      29.49800000      29.82400000      21.97900000
 O      26.31400000      33.29200000      26.81000000
 H      26.11900000      32.39800000      27.04600000
 H      26.02400000      33.35000000      25.87500000
 O      20.65600000      36.45600000      15.93900000
 H      20.04000000      36.76800000      16.63700000
 H      21.49200000      36.17800000      16.37400000
 O      22.85000000      35.42800000      21.35800000
 H      22.84400000      34.72400000      22.10900000
 H      23.80200000      35.57900000      21.43100000
 O      30.52100000      33.86400000      17.15300000
 H      30.94600000      34.63000000      17.47500000
 H      31.08800000      33.52400000      16.33600000
 O      21.53700000      35.73000000      24.75800000
 H      21.66700000      36.71700000      24.94700000
 H      22.16300000      35.38800000      25.44200000
 O      27.16600000      37.16400000      24.12300000
 H      27.50200000      36.28500000      23.76200000
 H      26.33000000      36.86600000      24.51300000
 O      25.50200000      34.94400000      16.76300000
 H      24.72600000      35.22400000      17.32300000
 H      25.98700000      34.40300000      17.45300000
 O      22.45500000      32.61700000      16.89300000
 H      22.27200000      33.31400000      17.58400000
 H      21.54600000      32.43500000      16.62500000
 O      27.74000000      33.39500000      17.72000000
 H      28.68500000      33.40800000      17.39300000
 H      27.67600000      32.42200000      17.89700000
 O      21.57800000      33.35500000      22.98600000
 H      20.95000000      33.78800000      23.59900000
 H      22.36400000      32.98000000      23.57800000
 O      23.52800000      33.78200000      25.82900000
 H      23.84200000      33.20400000      25.07100000
 H      24.31100000      33.89800000      26.42200000
 O      26.33300000      33.18900000      24.17900000
 H      26.83900000      33.33400000      23.37900000
 H      26.84600000      32.40000000      24.53800000
 O      30.15700000      32.44800000      20.66000000
 H      29.45300000      32.49600000      19.94900000
 H      30.65300000      33.30400000      20.64300000
 O      28.21500000      35.40600000      19.85800000
 H      28.01300000      34.83000000      19.08100000
 H      28.86700000      36.07700000      19.51300000
 O      27.30600000      37.33900000      16.69900000
 H      26.89100000      36.47700000      16.33600000
 H      26.64400000      38.04500000      16.43700000
 O      23.34600000      36.19700000      18.39300000
 H      23.13700000      37.12400000      18.35000000
 H      22.85300000      35.91700000      19.22100000
 O      25.49400000      35.53400000      21.41000000
 H      25.76600000      34.94400000      22.09400000
 H      26.31200000      35.89800000      21.06600000
 O      28.34700000      34.91200000      22.80700000
 H      28.39000000      34.98300000      21.80000000
 H      29.19700000      35.18900000      23.11900000
 O      29.66800000      32.87300000      26.59700000
 H      30.36300000      32.20500000      26.68900000
 H      28.93900000      32.59800000      25.95700000
 O      21.39300000      33.74000000      19.60800000
 H      21.50900000      32.91000000      19.93900000
 H      21.93800000      34.22200000      20.27800000
