135
XYZ file of cluster: frame_9000_c2e5f.22ce9.4d315 - created by MolEdiTo
 O      29.87100000       7.31800000      17.40000000
 H      29.95500000       6.50400000      17.85000000
 H      29.15800000       7.25700000      16.70900000
 O      28.62900000      16.20400000      18.92300000
 H      27.71800000      16.30500000      18.53800000
 H      29.05200000      15.37000000      18.56600000
 O      30.37600000      12.81600000      15.74100000
 H      30.36000000      12.63100000      14.78000000
 H      29.42500000      12.98300000      15.93200000
 O      30.44600000      12.63800000      12.76000000
 H      30.65300000      12.71200000      11.81000000
 H      29.49900000      12.87800000      12.75600000
 O      26.62700000       4.76400000      11.90000000
 H      26.46300000       5.81200000      11.98000000
 H      25.88100000       4.57300000      11.26400000
 O      28.73700000       6.20500000      10.04000000
 H      29.11300000       5.29700000      10.22600000
 H      28.38000000       6.50400000      10.85500000
 O      29.89200000       5.65500000      20.68900000
 H      29.63200000       5.05100000      21.40100000
 H      29.54500000       6.53500000      20.97000000
 O      25.66300000      15.99000000      14.96400000
 H      26.37100000      15.27400000      15.17700000
 H      25.21600000      15.75200000      14.17400000
 O      28.64900000      14.44600000      20.99600000
 H      29.61800000      14.26300000      21.14300000
 H      28.51600000      15.37800000      20.68700000
 O      30.36100000      15.59600000      11.57000000
 H      30.45500000      16.00600000      12.47900000
 H      31.27100000      15.33300000      11.23000000
 O      29.23200000      15.44200000      15.73500000
 H      28.53200000      16.13500000      15.46600000
 H      29.98200000      15.91100000      15.28500000
 O      30.03500000      11.68500000      20.18300000
 H      30.60100000      12.50300000      20.35300000
 H      30.27100000      11.43000000      19.26500000
 O      27.73700000      13.36700000      13.11800000
 H      27.75500000      13.51900000      14.09500000
 H      27.01200000      13.87400000      12.78800000
 O      26.96500000      13.52400000      15.71300000
 H      27.23400000      13.67300000      16.65700000
 H      26.42700000      12.69800000      15.67500000
 O      26.74400000      10.23200000      17.97700000
 H      27.14900000       9.28600000      17.94300000
 H      26.16200000      10.28200000      18.74700000
 O      26.52100000       7.75800000      12.09100000
 H      25.89100000       8.01500000      11.39800000
 H      27.04400000       8.57700000      12.27000000
 O      29.03200000       8.67200000      20.08700000
 H      29.80900000       9.19300000      20.28600000
 H      29.36800000       8.28500000      19.18600000
 O      28.06200000      10.31100000      12.43600000
 H      28.98200000      10.51400000      12.64800000
 H      27.49800000      11.05600000      12.77500000
 O      26.61100000       7.79700000      21.32400000
 H      27.28100000       8.10200000      20.73200000
 H      27.11500000       7.67700000      22.18700000
 O      30.62500000      14.35100000      18.32600000
 H      30.30800000      14.81200000      17.52100000
 H      30.06700000      13.54800000      18.31400000
 O      27.87200000      13.08300000      18.18400000
 H      27.56100000      12.19200000      18.09000000
 H      27.74100000      13.24000000      19.12400000
 O      27.86500000       7.83900000      15.54800000
 H      27.34100000       6.97500000      15.78900000
 H      27.45200000       7.90400000      14.73200000
 O      35.10900000       5.35700000      10.40600000
 H      35.00600000       5.96000000      11.06800000
 H      34.79500000       4.52000000      10.91000000
 O      33.22100000       9.51100000      21.10800000
 H      32.77400000      10.26500000      20.73100000
 H      33.71600000       9.91200000      21.88600000
 O      34.61700000       7.58400000      12.02900000
 H      34.24900000       7.34500000      12.93800000
 H      33.94300000       8.21500000      11.71700000
 O      33.91600000      16.56900000      16.90400000
 H      34.71400000      16.89500000      16.38800000
 H      34.36200000      15.80100000      17.37800000
 O      37.43700000       6.11000000      12.48000000
 H      38.02200000       6.92100000      12.61600000
 H      36.49100000       6.26700000      12.59300000
 O      32.76100000       7.86000000      14.28300000
 H      33.14500000       8.48700000      14.91200000
 H      31.93100000       8.31500000      14.13100000
 O      37.14100000       9.04400000      11.58700000
 H      36.25400000       8.70500000      11.33500000
 H      37.08700000       9.22100000      12.56100000
 O      34.32200000       5.74400000      20.37100000
 H      34.33600000       4.95000000      20.89200000
 H      33.39600000       6.01400000      20.08700000
 O      36.63700000      11.60400000      16.74100000
 H      36.04400000      12.37900000      16.75100000
 H      36.51700000      11.21600000      17.67900000
 O      32.85500000       9.95000000      11.05100000
 H      31.96400000       9.58500000      10.66500000
 H      32.85800000      10.68900000      10.38800000
 O      33.04800000      16.32000000      14.09400000
 H      33.70600000      15.58600000      13.92100000
 H      33.68500000      17.09700000      13.72900000
 O      33.56300000      11.57100000      18.24500000
 H      34.20800000      10.76600000      18.01200000
 H      33.17600000      11.89600000      17.41900000
 O      36.29400000      15.42300000      18.26000000
 H      35.90000000      15.13900000      17.40100000
 H      35.79900000      15.28800000      19.07200000
 O      34.73500000      13.89400000      16.21100000
 H      33.80700000      13.67900000      16.04100000
 H      35.19700000      13.73000000      15.30300000
 O      36.24000000      10.32100000      19.25400000
 H      35.26500000      10.11100000      19.23400000
 H      36.68600000       9.49600000      19.06300000
 O      33.03800000      14.22500000      21.16300000
 H      33.93700000      14.63500000      21.38800000
 H      32.99200000      14.33500000      20.14000000
 O      33.89200000       9.01100000      16.97700000
 H      32.97400000       8.88600000      17.37000000
 H      34.31800000       8.19400000      17.25800000
 O      34.92600000      14.49800000      11.88300000
 H      35.83900000      14.31800000      11.61300000
 H      34.96400000      15.51600000      11.82500000
 O      36.06900000      14.16000000      21.58300000
 H      35.87100000      13.31300000      22.09000000
 H      36.84300000      13.91200000      21.01800000
 O      36.67200000       6.67500000      21.52000000
 H      36.18400000       6.87100000      22.35500000
 H      35.93700000       6.24000000      21.02600000
 O      36.06000000       6.84200000      15.51700000
 H      36.08800000       5.85300000      15.59600000
 H      36.32400000       7.15400000      16.45900000
 O      36.60300000       9.39600000      14.59100000
 H      36.03000000       9.86000000      15.16800000
 H      36.34900000       8.42900000      14.71700000
 O      32.89700000       5.21600000      13.76300000
 H      32.71300000       6.14300000      14.08300000
 H      31.98300000       4.88700000      13.56600000
