147
XYZ file of cluster: frame_9000_9b70e.485ae.71a2d - created by MolEdiTo
 O      27.71100000      20.85500000      15.65000000
 H      27.65500000      21.68300000      16.24800000
 H      26.78100000      20.97700000      15.22900000
 O      28.62900000      16.20400000      18.92300000
 H      27.71800000      16.30500000      18.53800000
 H      29.05200000      15.37000000      18.56600000
 O      30.37600000      12.81600000      15.74100000
 H      30.36000000      12.63100000      14.78000000
 H      29.42500000      12.98300000      15.93200000
 O      22.53600000      14.02800000      19.67300000
 H      23.35900000      13.73600000      20.16100000
 H      22.36500000      13.37500000      19.00600000
 O      21.53200000      17.63000000      16.24400000
 H      22.30700000      17.61000000      16.85600000
 H      20.98900000      18.38900000      16.51600000
 O      21.73400000      21.49600000      19.94900000
 H      21.50600000      22.26800000      20.58000000
 H      22.01900000      20.67500000      20.48900000
 O      27.47700000      21.72100000      27.03200000
 H      26.85000000      20.97900000      26.86500000
 H      28.06200000      21.84100000      26.24900000
 O      25.98700000      21.55100000      23.58600000
 H      25.17000000      20.95600000      23.69900000
 H      25.64900000      22.19000000      24.24200000
 O      26.43900000      16.29400000      25.15600000
 H      26.57200000      15.89800000      26.06600000
 H      27.32900000      16.42100000      24.82800000
 O      28.64900000      14.44600000      20.99600000
 H      29.61800000      14.26300000      21.14300000
 H      28.51600000      15.37800000      20.68700000
 O      22.08800000      17.72700000      22.34300000
 H      22.97100000      17.35200000      22.30600000
 H      22.04500000      18.23200000      23.16200000
 O      25.11900000       9.86400000      22.74200000
 H      25.41400000       9.39600000      21.87600000
 H      25.51300000      10.69600000      22.62700000
 O      30.03500000      11.68500000      20.18300000
 H      30.60100000      12.50300000      20.35300000
 H      30.27100000      11.43000000      19.26500000
 O      23.14100000      11.19300000      17.38000000
 H      23.36300000      10.27000000      17.24100000
 H      22.57000000      11.52500000      16.64800000
 O      20.82700000      10.43600000      26.76500000
 H      21.25900000       9.98100000      25.96100000
 H      20.66600000      11.32100000      26.40800000
 O      25.40800000      19.94800000      25.99300000
 H      24.70000000      20.27100000      26.59400000
 H      25.04700000      19.19800000      25.47500000
 O      21.32900000      17.90300000      19.63400000
 H      22.10300000      17.81800000      19.08400000
 H      21.68000000      17.77500000      20.49900000
 O      26.96500000      13.52400000      15.71300000
 H      27.23400000      13.67300000      16.65700000
 H      26.42700000      12.69800000      15.67500000
 O      29.94300000      15.57600000      24.46700000
 H      29.18800000      15.13800000      24.94000000
 H      30.34600000      14.97600000      23.86700000
 O      22.80600000      11.77800000      21.96100000
 H      22.43800000      10.97600000      21.55500000
 H      22.19100000      11.81600000      22.80200000
 O      22.06900000      15.05100000      24.39600000
 H      21.98000000      15.55200000      23.56800000
 H      22.97700000      14.74300000      24.25800000
 O      24.68200000      14.14300000      24.55900000
 H      25.54400000      14.70200000      24.58200000
 H      24.58600000      13.66500000      25.45200000
 O      23.56500000      12.30000000      26.90100000
 H      22.76500000      11.96200000      26.43700000
 H      24.25600000      11.64500000      26.62800000
 O      26.03500000      16.49800000      17.80600000
 H      25.76200000      17.42600000      18.05600000
 H      25.69200000      16.52600000      16.87900000
 O      30.61800000      17.82100000      18.65700000
 H      29.81400000      17.32000000      18.89300000
 H      30.96500000      17.22000000      17.97200000
 O      30.48900000      19.37000000      15.54700000
 H      30.09600000      18.76600000      16.21500000
 H      29.69800000      19.88600000      15.26600000
 O      25.25000000      12.90000000      22.26100000
 H      25.12600000      13.54700000      23.04800000
 H      24.29500000      12.57700000      22.09900000
 O      28.94500000      18.23900000      23.97000000
 H      29.60100000      17.62300000      24.12700000
 H      29.14800000      19.09600000      24.39800000
 O      20.37000000      19.94000000      17.57500000
 H      20.11100000      19.51500000      18.43100000
 H      21.33500000      20.13900000      17.62200000
 O      30.05800000      20.24000000      19.60700000
 H      29.28800000      19.85700000      19.95700000
 H      30.51300000      19.51800000      19.11400000
 O      28.28600000      11.54300000      22.31300000
 H      27.43900000      11.97700000      22.10400000
 H      28.63400000      11.57100000      21.42600000
 O      25.84100000      10.89800000      15.36500000
 H      25.78300000      10.73600000      16.38100000
 H      25.57600000      10.04500000      14.93300000
 O      23.87400000      19.80100000      23.06400000
 H      23.77300000      19.94600000      22.12600000
 H      24.27100000      18.94800000      23.11200000
 O      28.11300000      18.43700000      21.07700000
 H      27.86900000      17.98700000      21.91100000
 H      27.48900000      19.18500000      21.13200000
 O      30.05800000      10.29900000      24.17600000
 H      29.22000000      10.64000000      23.81800000
 H      30.75100000      10.28100000      23.37600000
 O      23.48300000      17.66700000      25.90800000
 H      22.55500000      17.83100000      26.14400000
 H      23.62400000      16.72400000      25.94900000
 O      26.37800000      19.22100000      18.39400000
 H      26.81600000      18.79600000      19.19700000
 H      27.00100000      19.95100000      17.97600000
 O      21.57600000      21.37300000      23.49000000
 H      22.45600000      20.97600000      23.32100000
 H      21.38300000      22.16600000      22.89800000
 O      23.85400000      19.53600000      20.47400000
 H      23.55000000      19.75800000      19.61200000
 H      24.82200000      19.72200000      20.39700000
 O      20.51200000      14.67600000      21.39800000
 H      20.58900000      13.98300000      22.15400000
 H      21.27100000      14.42100000      20.70100000
 O      24.86100000      10.87800000      19.73600000
 H      24.05300000      10.55900000      20.15900000
 H      24.68800000      10.84200000      18.78500000
 O      23.77900000      18.82600000      17.57600000
 H      23.86500000      19.29700000      16.71300000
 H      24.60100000      19.13300000      17.99200000
 O      28.13100000      13.71400000      25.14700000
 H      28.22500000      12.98600000      24.45300000
 H      27.67100000      13.24600000      25.95200000
 O      30.62500000      14.35100000      18.32600000
 H      30.30800000      14.81200000      17.52100000
 H      30.06700000      13.54800000      18.31400000
 O      26.44800000      20.55300000      21.08200000
 H      26.34100000      21.31700000      20.53000000
 H      26.00900000      20.87600000      21.92300000
 O      27.87200000      13.08300000      18.18400000
 H      27.56100000      12.19200000      18.09000000
 H      27.74100000      13.24000000      19.12400000
 O      25.09400000      17.34300000      22.92900000
 H      25.47800000      16.99500000      22.09900000
 H      25.50800000      16.91300000      23.60500000
 O      25.53300000      15.75200000      20.42600000
 H      25.43700000      15.91800000      19.49800000
 H      26.05200000      14.90200000      20.43500000
 O      28.73800000      21.11100000      24.69900000
 H      28.63900000      22.11300000      24.63100000
 H      27.86000000      20.78400000      24.35000000
