141
XYZ file of cluster: frame_9000_4afef.a0a88.1faf3 - created by MolEdiTo
 O      11.17800000      27.97900000       8.95800000
 H      10.66500000      27.78300000       9.78900000
 H      12.06500000      28.28000000       9.27700000
 O      19.60200000      28.16700000      11.06600000
 H      20.02300000      28.11200000      11.92100000
 H      18.91400000      28.87900000      11.15100000
 O      19.43200000      29.78400000      16.05500000
 H      20.10500000      30.22300000      15.56400000
 H      19.35100000      30.32400000      16.87500000
 O      11.53400000      24.70500000      10.87700000
 H      11.02500000      24.93400000      11.64600000
 H      12.02600000      25.56500000      10.73000000
 O      20.50500000      21.86600000       7.50500000
 H      20.56600000      21.90200000       8.45900000
 H      21.42100000      22.00300000       7.23200000
 O      11.17400000      24.37700000       8.18600000
 H      11.22400000      25.29700000       7.86000000
 H      11.51300000      24.48900000       9.14400000
 O      17.39800000      22.88400000       8.11200000
 H      18.33300000      23.06500000       7.85700000
 H      17.57700000      22.93000000       9.04000000
 O      13.58900000      27.38200000      14.92400000
 H      12.89200000      26.91500000      14.44000000
 H      14.40300000      27.14100000      14.32500000
 O      13.75400000      26.98900000       9.77200000
 H      14.11700000      27.80700000       9.39400000
 H      13.80400000      26.27400000       9.09200000
 O      13.90700000      20.93600000       4.82300000
 H      13.82800000      21.21000000       5.76800000
 H      13.59000000      21.56700000       4.12100000
 O      13.18700000      29.96000000      13.47200000
 H      12.25000000      29.72000000      13.68900000
 H      13.69000000      29.11700000      13.76000000
 O      17.62300000      28.58600000       8.55300000
 H      18.53100000      28.43000000       8.18000000
 H      17.65600000      29.17200000       9.39700000
 O      13.20100000      30.40500000       5.61700000
 H      13.32100000      29.52200000       5.97000000
 H      14.04100000      30.60200000       5.08600000
 O      21.17800000      22.68700000      14.98600000
 H      21.51300000      23.12200000      14.16800000
 H      20.28400000      23.11100000      15.18300000
 O      20.10200000      21.78100000      11.32600000
 H      20.44600000      22.73200000      11.21300000
 H      19.29600000      21.86200000      11.93900000
 O      17.56400000      22.39700000      15.50900000
 H      18.30300000      22.69900000      16.09000000
 H      16.95800000      22.44400000      16.22000000
 O      19.63300000      25.65200000      12.68800000
 H      19.27900000      25.91200000      13.55400000
 H      20.65700000      25.52600000      12.86200000
 O      17.01600000      24.62000000      12.79900000
 H      17.93800000      24.89200000      12.73400000
 H      16.93600000      24.47900000      13.77900000
 O      13.74400000      29.89000000       9.15500000
 H      14.57800000      30.19700000       8.79000000
 H      13.51300000      30.41600000       9.88100000
 O      21.43400000      23.76500000       9.54300000
 H      21.77200000      24.22300000       8.71300000
 H      20.54600000      24.19600000       9.69900000
 O       9.99600000      30.28100000       5.59500000
 H       9.97500000      29.23000000       5.34400000
 H      10.93900000      30.39600000       5.87700000
 O      19.71200000      26.47700000       5.64500000
 H      19.82900000      27.40700000       5.65900000
 H      20.65800000      26.22200000       5.82700000
 O      14.80000000      22.68500000      15.31200000
 H      15.14300000      22.81700000      16.26200000
 H      15.58400000      22.12700000      14.98600000
 O       9.79200000      24.84700000      13.50700000
 H       9.70300000      24.11100000      14.16600000
 H      10.79300000      24.98600000      13.48500000
 O      16.18400000      22.36300000      11.13900000
 H      16.30400000      23.24900000      11.45300000
 H      15.23700000      22.40700000      10.92100000
 O      13.58200000      24.71000000      13.67000000
 H      13.99500000      24.01400000      14.23200000
 H      14.37700000      25.25700000      13.41600000
 O      11.84400000      21.19400000      13.79700000
 H      12.36100000      21.64700000      14.52300000
 H      10.98800000      20.88400000      14.19300000
 O      15.48700000      30.75300000      12.42000000
 H      14.58100000      30.68300000      12.81300000
 H      15.76800000      31.70400000      12.56300000
 O      17.83600000      20.86300000      13.07200000
 H      17.52500000      21.37500000      13.88100000
 H      17.08100000      21.12500000      12.38900000
 O      14.85200000      26.90600000      12.28100000
 H      14.23600000      26.74700000      11.48700000
 H      15.55500000      26.16900000      12.14100000
 O      14.96300000      27.86500000       6.26800000
 H      15.47700000      28.18400000       6.99700000
 H      15.66300000      27.77400000       5.53500000
 O      17.78200000      30.33100000      10.79700000
 H      16.84400000      30.21300000      11.17300000
 H      17.95600000      31.26100000      10.46000000
 O      11.20100000      24.72400000       4.65300000
 H      12.15600000      24.56500000       4.57300000
 H      11.06100000      24.37300000       5.54000000
 O      12.71600000      26.53400000       6.58800000
 H      12.20000000      27.10000000       7.25100000
 H      13.58400000      27.08700000       6.54100000
 O      19.27900000      26.43700000      15.23900000
 H      19.56600000      26.16800000      16.18600000
 H      19.50200000      27.39200000      15.18700000
 O      18.94200000      22.39000000       5.18100000
 H      18.35600000      21.66300000       5.12300000
 H      19.47300000      22.30200000       6.04900000
 O      13.20900000      22.02900000      11.48200000
 H      12.68500000      21.67900000      12.27900000
 H      13.02500000      22.95600000      11.45200000
 O      18.65200000      25.24800000       9.79200000
 H      18.31600000      25.89800000      10.42900000
 H      19.32200000      25.79800000       9.39700000
 O      14.84800000      21.18900000       8.72600000
 H      15.68700000      21.71100000       8.83400000
 H      14.40300000      21.30800000       9.59400000
 O      16.09700000      25.69600000      15.50100000
 H      17.05000000      26.03700000      15.31500000
 H      15.90500000      25.85400000      16.48100000
 O      10.46300000      27.60100000       4.99300000
 H      10.54200000      26.61400000       5.35300000
 H       9.83600000      27.50100000       4.25100000
 O      20.34500000      29.33700000       5.40800000
 H      20.16800000      29.57700000       6.39100000
 H      20.00700000      30.14300000       4.99100000
 O      12.86900000      22.41100000       7.17200000
 H      13.48900000      21.88800000       7.74300000
 H      12.48900000      23.21500000       7.63300000
 O      16.14600000      29.43500000      14.81000000
 H      15.44300000      28.72700000      14.80500000
 H      16.26700000      29.80800000      13.89600000
 O      10.98200000      21.40800000       9.77500000
 H      10.54100000      22.28700000       9.54300000
 H      10.62500000      21.28000000      10.64800000
 O      19.99200000      30.74100000       7.96900000
 H      20.76000000      30.25800000       8.48700000
 H      19.40700000      31.09600000       8.70900000
 O      15.00800000      24.39600000       8.51400000
 H      14.37100000      24.47600000       7.83300000
 H      15.71100000      23.86100000       8.11200000
