117
XYZ file of cluster: frame_9000_62b0.24d31.9ad8b - created by MolEdiTo
 O       7.02400000      12.28300000      23.51400000
 H       6.02700000      12.46400000      23.67800000
 H       7.09900000      12.45700000      22.53800000
 O       8.98100000       5.37600000      24.17900000
 H       9.20300000       4.78200000      23.45000000
 H       9.88300000       5.40900000      24.68000000
 O       3.67000000      15.10800000      24.19100000
 H       4.07300000      14.45200000      24.72200000
 H       4.17800000      15.04400000      23.34800000
 O       9.85700000      14.22100000      21.90300000
 H      10.49000000      14.94900000      22.12700000
 H       9.75900000      14.11900000      20.91900000
 O       3.48300000      15.11700000      30.55100000
 H       3.11400000      14.43400000      31.14700000
 H       3.70800000      15.90400000      31.10000000
 O       7.63200000       9.75200000      27.09200000
 H       7.97900000       9.91500000      28.01400000
 H       6.70200000      10.19700000      27.13500000
 O       6.22900000       9.65600000      23.55200000
 H       6.40300000       9.49600000      22.63800000
 H       6.89000000      10.33300000      23.91000000
 O       4.36400000       8.81800000      29.18800000
 H       3.45900000       9.16200000      29.41800000
 H       4.08400000       7.88100000      29.39500000
 O      10.56400000      13.27100000      25.13600000
 H      11.00300000      14.16400000      25.17300000
 H       9.75100000      13.23400000      25.65300000
 O       1.63400000       9.51100000      21.10800000
 H       1.18700000      10.26500000      20.73100000
 H       2.12900000       9.91200000      21.88600000
 O       7.10300000       6.03200000      28.42000000
 H       7.03300000       6.28600000      29.36800000
 H       6.93100000       6.83700000      27.82800000
 O       9.43000000      14.05800000      29.49000000
 H      10.37800000      14.12200000      29.02700000
 H       9.66300000      14.05700000      30.41700000
 O       9.56900000       9.46100000      25.26800000
 H       8.82500000       9.59000000      25.96000000
 H       9.77700000      10.41200000      25.02300000
 O       4.33300000      14.04700000      27.17800000
 H       3.37200000      13.99200000      27.52500000
 H       4.72500000      14.90100000      27.44700000
 O       1.64600000      10.00500000      29.41600000
 H       1.09200000       9.98700000      30.22500000
 H       1.79200000      10.95800000      29.20000000
 O       7.20600000       9.20800000      30.28300000
 H       7.32100000       9.47800000      31.18300000
 H       6.26600000       8.92000000      30.32100000
 O       4.25700000       6.16000000      30.13400000
 H       4.25300000       5.33700000      29.59700000
 H       5.15800000       6.01300000      30.48900000
 O       1.61900000      14.98400000      28.45500000
 H       2.18900000      15.18900000      29.31600000
 H       0.82000000      15.51000000      28.61300000
 O       1.45100000      14.22500000      21.16300000
 H       2.35000000      14.63500000      21.38800000
 H       1.40500000      14.33500000      20.14000000
 O       1.47600000       7.67100000      27.31400000
 H       0.79800000       8.04100000      26.76000000
 H       1.44200000       8.36700000      28.04800000
 O       7.74100000      15.73300000      23.86500000
 H       8.23000000      14.88700000      23.93100000
 H       8.43100000      16.40600000      23.92700000
 O       6.20300000       4.95000000      25.71900000
 H       5.98600000       5.94400000      25.78400000
 H       7.11400000       4.92600000      25.49200000
 O       9.51000000      10.52600000      29.43900000
 H       8.91200000      11.24100000      29.70500000
 H       9.12100000       9.72300000      29.89400000
 O       9.25900000       6.41000000      30.43900000
 H       9.05700000       5.43400000      30.59600000
 H      10.00000000       6.39600000      29.73600000
 O       6.06700000       7.90200000      25.71900000
 H       6.15500000       7.67500000      24.76700000
 H       6.27700000       8.88100000      25.76300000
 O       4.71500000      12.48600000      25.01500000
 H       5.00200000      11.66300000      25.58200000
 H       4.10200000      12.94600000      25.64500000
 O       7.34600000      12.82700000      26.30700000
 H       7.09700000      12.74700000      25.32400000
 H       7.11500000      13.76700000      26.61300000
 O       1.92300000      10.97800000      26.49800000
 H       1.20900000      10.98200000      25.80400000
 H       1.43800000      11.22000000      27.30300000
 O       4.48200000      14.16000000      21.58300000
 H       4.28400000      13.31300000      22.09000000
 H       5.25600000      13.91200000      21.01800000
 O       4.73600000      10.76300000      27.10800000
 H       3.79600000      10.85800000      26.98600000
 H       4.97600000       9.91200000      27.44300000
 O       3.30200000      10.53500000      23.04900000
 H       3.21300000      10.42600000      23.99400000
 H       4.19400000      10.16600000      22.87200000
 O       5.08500000       6.67500000      21.52000000
 H       4.59700000       6.87100000      22.35500000
 H       4.35000000       6.24000000      21.02600000
 O       6.96700000      12.01100000      29.43300000
 H       6.99800000      12.86400000      29.96600000
 H       6.61200000      12.23200000      28.58000000
 O       3.98900000      11.86500000      29.60900000
 H       4.23000000      11.63300000      28.65300000
 H       4.85800000      12.07400000      30.01100000
 O       1.76100000       4.84800000      28.01600000
 H       2.54300000       5.51100000      27.93000000
 H       1.09100000       5.52400000      27.83800000
 O       3.44000000       6.34800000      23.68100000
 H       2.70300000       6.41300000      23.01700000
 H       2.99700000       5.93000000      24.43000000
 O      10.30600000       6.52100000      28.01400000
 H       9.83900000       6.07300000      27.31500000
 H      10.74600000       7.21600000      27.47100000
 O       3.90000000       6.59400000      26.83600000
 H       4.52500000       7.30200000      26.61800000
 H       3.04600000       7.03200000      27.02900000
 O       7.38300000      15.18000000      27.93800000
 H       7.88500000      14.75300000      28.67400000
 H       8.02300000      15.85600000      27.60100000
