114
XYZ file of cluster: frame_9000_c7795.c6b30.1d91f - created by MolEdiTo
 O      30.67800000      29.48000000       9.18900000
 H      30.14300000      29.53800000       8.24500000
 H      31.58700000      29.08500000       8.88300000
 O      28.17600000      28.38500000       5.21800000
 H      28.31900000      29.04300000       5.84400000
 H      29.07400000      27.92900000       5.33100000
 O      28.09600000      27.26300000      15.48700000
 H      28.01300000      28.19500000      15.24300000
 H      28.68400000      26.88900000      14.78800000
 O      27.01700000      28.83000000      11.37400000
 H      27.70700000      29.15300000      12.03200000
 H      26.59100000      28.17000000      11.92400000
 O      26.41400000      29.34500000       7.93000000
 H      26.61000000      28.39200000       7.78900000
 H      26.91200000      29.72500000       8.62200000
 O      30.46900000      27.22200000       5.39900000
 H      30.62200000      26.30600000       5.81500000
 H      30.47200000      27.00300000       4.47400000
 O      30.39500000      26.48500000       8.92400000
 H      29.72000000      26.57700000       9.67400000
 H      31.24100000      26.52000000       9.42800000
 O      29.60500000      29.19400000      12.54100000
 H      30.35400000      29.21800000      11.92300000
 H      30.10100000      29.19100000      13.33800000
 O      26.32900000      29.71700000      14.05500000
 H      25.80800000      30.29000000      13.43700000
 H      26.83100000      30.38700000      14.64800000
 O      27.55500000      25.80300000      10.18800000
 H      27.70400000      25.98800000       9.19400000
 H      27.03600000      26.62100000      10.42900000
 O      27.67400000      26.74800000       7.45500000
 H      27.18900000      26.12100000       6.88800000
 H      28.33000000      27.10500000       6.81700000
 O      27.55900000      33.94400000      15.80900000
 H      26.80000000      33.51900000      16.34000000
 H      28.27100000      34.30500000      16.35400000
 O      27.20100000      37.15000000       6.28100000
 H      26.45200000      37.03100000       5.68200000
 H      27.64700000      36.26400000       6.29000000
 O      28.35100000      35.67400000      13.90200000
 H      27.64500000      35.67200000      13.25400000
 H      27.94400000      35.05200000      14.57200000
 O      27.97800000      32.55100000       9.79000000
 H      27.57700000      31.91900000      10.47100000
 H      28.90100000      32.31100000       9.80000000
 O      28.16500000      34.49100000       6.26500000
 H      28.49900000      33.61200000       6.55800000
 H      27.42100000      34.28300000       5.59300000
 O      26.62700000      36.46800000      11.90000000
 H      26.46300000      37.51600000      11.98000000
 H      25.88100000      36.27700000      11.26400000
 O      27.05800000      34.99800000       8.89600000
 H      27.32400000      34.25800000       9.43800000
 H      27.89200000      35.43000000       8.56600000
 O      30.43800000      32.57800000       6.93000000
 H      31.27800000      32.31900000       6.48100000
 H      30.64500000      33.38900000       7.48200000
 O      32.87800000      29.75200000      15.59100000
 H      32.25300000      30.24300000      16.13600000
 H      33.09200000      30.41100000      14.90600000
 O      36.29100000      30.24300000      11.44500000
 H      36.84300000      30.81400000      10.79700000
 H      35.86900000      29.52200000      10.92400000
 O      33.93400000      28.49200000      11.99500000
 H      34.54600000      29.11900000      12.38100000
 H      34.32100000      27.53700000      12.04800000
 O      35.91700000      26.12400000      10.71000000
 H      35.63100000      26.21200000       9.83500000
 H      36.77800000      26.56600000      10.54400000
 O      34.83600000      26.59500000      13.69900000
 H      35.05500000      26.05500000      12.87200000
 H      35.64500000      27.05400000      14.07900000
 O      36.82500000      26.80600000       7.05100000
 H      37.16000000      25.94000000       7.42900000
 H      36.40800000      26.57100000       6.14600000
 O      32.39500000      26.19600000      14.47100000
 H      32.37300000      26.77200000      15.27400000
 H      33.24600000      26.42800000      14.02500000
 O      34.77700000      28.39400000       8.38400000
 H      35.43900000      29.10400000       8.60500000
 H      35.06600000      27.94900000       7.57400000
 O      36.03000000      30.73500000       5.64700000
 H      36.80500000      30.43700000       6.12800000
 H      35.66500000      29.96600000       5.22200000
 O      32.47900000      36.09700000       9.41600000
 H      33.33300000      36.57800000       9.64400000
 H      32.51300000      35.93100000       8.47300000
 O      35.10900000      37.06100000      10.40600000
 H      35.00600000      37.66400000      11.06800000
 H      34.79500000      36.22400000      10.91000000
 O      36.55500000      35.44900000      14.64800000
 H      36.65100000      35.77100000      13.73200000
 H      37.10400000      34.63200000      14.69500000
 O      32.46900000      35.39600000       6.69400000
 H      33.24900000      35.32600000       6.14500000
 H      31.72300000      35.16100000       6.09100000
 O      32.63300000      33.51900000      13.66900000
 H      32.55600000      33.45700000      12.67900000
 H      31.94600000      34.09900000      13.96900000
 O      35.34800000      34.73400000       7.97600000
 H      35.72600000      33.90100000       7.62500000
 H      35.68300000      35.36600000       7.33900000
 O      35.86900000      37.18300000       4.52600000
 H      36.06600000      36.44000000       3.84600000
 H      36.35000000      36.90000000       5.32400000
 O      34.60700000      35.21300000      12.50000000
 H      34.06800000      35.89200000      12.85600000
 H      34.31300000      34.40300000      12.89300000
 O      32.89700000      36.92000000      13.76300000
 H      32.71300000      37.84700000      14.08300000
 H      31.98300000      36.59100000      13.56600000
 O      32.74400000      33.35800000      10.96300000
 H      32.92300000      34.16300000      10.43000000
 H      32.74000000      32.65100000      10.29800000
