93
XYZ file of cluster: frame_9000_c21e2.ca92a.c893e - created by MolEdiTo
 O      25.80300000      29.77900000      26.81100000
 H      26.43800000      29.72300000      27.51900000
 H      26.10700000      30.49200000      26.23300000
 O      30.14700000      27.89200000      29.60800000
 H      30.03400000      27.41300000      30.46500000
 H      30.91100000      28.47700000      29.81700000
 O      27.91800000      29.89900000      28.79100000
 H      27.23700000      29.34800000      29.23700000
 H      28.71800000      29.40000000      28.90800000
 O      27.64100000      26.99300000      28.48500000
 H      28.56900000      27.26200000      28.67600000
 H      27.61100000      27.06700000      27.46700000
 O      28.17600000      28.38500000      36.97200000
 H      28.31900000      29.04300000      37.59800000
 H      29.07400000      27.92900000      37.08500000
 O      30.38700000      29.86600000      34.16000000
 H      29.86200000      29.03000000      34.08300000
 H      30.74800000      30.09600000      33.24900000
 O      30.46900000      27.22200000      37.15300000
 H      30.62200000      26.30600000      37.56900000
 H      30.47200000      27.00300000      36.22800000
 O      28.49700000      27.73200000      33.63500000
 H      28.49700000      27.10100000      34.50800000
 H      27.80400000      27.42500000      33.06600000
 O      25.53600000      28.14600000      35.42300000
 H      25.11500000      28.63600000      36.15600000
 H      26.51100000      28.36800000      35.74300000
 O      26.37300000      35.01600000      27.57000000
 H      26.49900000      34.66600000      26.63800000
 H      26.21200000      36.02200000      27.51000000
 O      29.05500000      37.08900000      30.33300000
 H      28.09400000      37.03700000      30.60000000
 H      29.59500000      36.63600000      31.01600000
 O      25.95200000      33.56700000      29.93200000
 H      26.08800000      32.67100000      30.18400000
 H      26.83500000      33.85300000      29.58600000
 O      29.06800000      34.08300000      27.81800000
 H      28.58300000      34.91000000      27.96400000
 H      28.51800000      33.34500000      28.08800000
 O      27.11900000      32.85800000      35.63200000
 H      27.40100000      31.91900000      35.51500000
 H      27.76300000      33.41600000      35.24700000
 O      28.62700000      33.88100000      32.96400000
 H      29.39000000      34.44500000      32.69300000
 H      28.88600000      33.05500000      32.52400000
 O      29.41400000      37.19800000      35.15400000
 H      28.94500000      36.39300000      35.46600000
 H      28.74400000      37.80400000      35.56200000
 O      26.78200000      36.07100000      33.49600000
 H      26.06300000      35.85100000      34.18600000
 H      27.31200000      35.21200000      33.50100000
 O      30.41300000      33.86200000      35.44700000
 H      30.13100000      32.96800000      35.10300000
 H      31.01800000      34.33300000      34.81400000
 O      35.96300000      28.12400000      29.92100000
 H      35.52100000      27.27600000      30.07900000
 H      35.67700000      28.50500000      29.00900000
 O      34.77800000      29.53000000      27.74900000
 H      34.70200000      29.87400000      26.81600000
 H      35.22400000      30.32000000      28.18800000
 O      32.79800000      30.52400000      29.71800000
 H      32.63800000      30.89400000      28.81700000
 H      33.46800000      31.15200000      30.05700000
 O      34.99400000      28.22200000      36.44400000
 H      34.15700000      27.93000000      36.71100000
 H      34.91300000      28.28200000      35.47500000
 O      35.30200000      29.64700000      34.28100000
 H      34.50000000      30.13800000      34.41600000
 H      35.26000000      29.05300000      33.43500000
 O      36.03000000      30.73500000      37.40100000
 H      36.80500000      30.43700000      37.88200000
 H      35.66500000      29.96600000      36.97600000
 O      36.41900000      35.90700000      28.19900000
 H      36.26600000      36.85600000      27.93700000
 H      36.95200000      35.62100000      27.42000000
 O      35.58200000      33.63900000      26.26500000
 H      35.60400000      34.29900000      26.94100000
 H      36.58000000      33.51700000      26.08800000
 O      33.34800000      36.55200000      28.01600000
 H      34.13000000      37.21500000      27.93000000
 H      32.67800000      37.22800000      27.83800000
 O      35.11200000      33.66600000      29.69900000
 H      35.13900000      34.64400000      29.79900000
 H      36.07000000      33.40200000      29.59200000
 O      33.73900000      35.51500000      33.95300000
 H      33.89600000      36.09300000      33.20600000
 H      34.71900000      35.28300000      34.12300000
 O      35.86900000      37.18300000      36.28000000
 H      36.06600000      36.44000000      35.60000000
 H      36.35000000      36.90000000      37.07800000
 O      36.15100000      34.30400000      35.45700000
 H      36.10100000      33.49100000      36.07200000
 H      36.88000000      34.06900000      34.89100000
