138
XYZ file of cluster: frame_9000_9b70e.72c13.4b9bd - created by MolEdiTo
 O      27.71100000      20.85500000      15.65000000
 H      27.65500000      21.68300000      16.24800000
 H      26.78100000      20.97700000      15.22900000
 O      22.95600000      24.85700000      15.67900000
 H      22.46300000      23.99600000      15.47100000
 H      23.08300000      25.55900000      14.94900000
 O      28.62900000      16.20400000      18.92300000
 H      27.71800000      16.30500000      18.53800000
 H      29.05200000      15.37000000      18.56600000
 O      30.60700000      22.89400000      14.92600000
 H      30.26700000      21.99900000      14.91400000
 H      30.79900000      23.08500000      15.88900000
 O      21.53200000      17.63000000      16.24400000
 H      22.30700000      17.61000000      16.85600000
 H      20.98900000      18.38900000      16.51600000
 O      28.28100000      19.55500000      10.63200000
 H      28.82800000      18.89000000      10.24100000
 H      27.49200000      19.00300000      10.96700000
 O      26.89200000      23.87500000      13.30100000
 H      26.64600000      24.63300000      13.89200000
 H      27.80600000      24.04700000      13.09100000
 O      21.73400000      21.49600000      19.94900000
 H      21.50600000      22.26800000      20.58000000
 H      22.01900000      20.67500000      20.48900000
 O      22.11400000      24.03900000      12.66500000
 H      22.93800000      23.55200000      12.76900000
 H      22.39400000      24.80200000      12.12900000
 O      27.81200000      16.39900000      11.88300000
 H      28.75700000      16.38400000      11.74400000
 H      27.74300000      16.87100000      12.71400000
 O      29.02600000      25.31900000      19.35800000
 H      28.35100000      24.84200000      19.85100000
 H      29.62200000      24.61500000      19.02900000
 O      25.65600000      18.52200000      10.52600000
 H      25.02500000      18.23300000      11.20700000
 H      25.69900000      17.86400000       9.83400000
 O      25.66300000      15.99000000      14.96400000
 H      26.37100000      15.27400000      15.17700000
 H      25.21600000      15.75200000      14.17400000
 O      29.31700000      21.17100000      12.71200000
 H      29.44000000      22.12800000      12.43000000
 H      28.93700000      20.76000000      11.87900000
 O      23.10600000      22.11600000      17.50700000
 H      23.79000000      22.73500000      17.82500000
 H      22.57700000      21.94000000      18.28300000
 O      21.17800000      22.68700000      14.98600000
 H      21.51300000      23.12200000      14.16800000
 H      20.28400000      23.11100000      15.18300000
 O      21.05700000      16.71500000      13.05600000
 H      21.29500000      16.93600000      13.97300000
 H      20.29700000      17.25400000      12.78900000
 O      29.72800000      24.34400000      12.76200000
 H      29.64100000      25.30300000      13.10300000
 H      30.45900000      24.00300000      13.29000000
 O      26.00500000      21.71700000      11.76600000
 H      26.38800000      22.33100000      12.43500000
 H      25.16800000      21.53700000      12.02000000
 O      30.36100000      15.59600000      11.57000000
 H      30.45500000      16.00600000      12.47900000
 H      31.27100000      15.33300000      11.23000000
 O      29.23200000      15.44200000      15.73500000
 H      28.53200000      16.13500000      15.46600000
 H      29.98200000      15.91100000      15.28500000
 O      23.05000000      17.11900000      10.98100000
 H      22.35300000      16.99300000      11.62500000
 H      23.62300000      16.40300000      11.08500000
 O      28.43100000      18.61700000      13.44500000
 H      27.83900000      19.06700000      14.05100000
 H      28.60200000      19.27900000      12.73300000
 O      25.20900000      25.06300000      17.38400000
 H      24.47700000      25.43200000      16.80100000
 H      25.41700000      25.76900000      18.04700000
 O      21.87000000      26.95200000      17.23400000
 H      22.13700000      26.07700000      16.93300000
 H      22.77700000      27.41300000      17.15400000
 O      23.06300000      26.06500000      20.20600000
 H      22.30800000      25.75400000      19.70600000
 H      22.66600000      26.79900000      20.68700000
 O      21.32900000      17.90300000      19.63400000
 H      22.10300000      17.81800000      19.08400000
 H      21.68000000      17.77500000      20.49900000
 O      27.67400000      23.94500000      16.76900000
 H      26.87600000      24.41500000      17.23400000
 H      28.24400000      24.70200000      16.40500000
 O      27.03900000      22.04200000      18.47200000
 H      26.33000000      22.72300000      18.59600000
 H      27.56300000      22.60900000      17.91600000
 O      24.57800000      23.82200000      20.16300000
 H      24.05200000      24.63800000      20.19000000
 H      25.14000000      23.84100000      20.95500000
 O      24.84700000      25.37900000      10.94100000
 H      25.81400000      25.24900000      10.93100000
 H      24.61800000      25.77100000      10.00100000
 O      26.03500000      16.49800000      17.80600000
 H      25.76200000      17.42600000      18.05600000
 H      25.69200000      16.52600000      16.87900000
 O      30.61800000      17.82100000      18.65700000
 H      29.81400000      17.32000000      18.89300000
 H      30.96500000      17.22000000      17.97200000
 O      30.48900000      19.37000000      15.54700000
 H      30.09600000      18.76600000      16.21500000
 H      29.69800000      19.88600000      15.26600000
 O      30.05800000      20.24000000      19.60700000
 H      29.28800000      19.85700000      19.95700000
 H      30.51300000      19.51800000      19.11400000
 O      28.00000000      22.75100000      10.55600000
 H      27.91600000      23.71000000      10.70500000
 H      27.09100000      22.54000000      10.87000000
 O      20.37000000      19.94000000      17.57500000
 H      20.11100000      19.51500000      18.43100000
 H      21.33500000      20.13900000      17.62200000
 O      24.87900000      20.45200000      15.12100000
 H      24.36900000      19.95400000      14.31400000
 H      24.23300000      21.18600000      15.25600000
 O      28.11300000      18.43700000      21.07700000
 H      27.86900000      17.98700000      21.91100000
 H      27.48900000      19.18500000      21.13200000
 O      26.37800000      19.22100000      18.39400000
 H      26.81600000      18.79600000      19.19700000
 H      27.00100000      19.95100000      17.97600000
 O      23.05300000      19.69600000      13.48800000
 H      22.86000000      20.16300000      12.67600000
 H      22.20600000      19.35900000      13.66000000
 O      23.85400000      19.53600000      20.47400000
 H      23.55000000      19.75800000      19.61200000
 H      24.82200000      19.72200000      20.39700000
 O      23.77900000      18.82600000      17.57600000
 H      23.86500000      19.29700000      16.71300000
 H      24.60100000      19.13300000      17.99200000
 O      29.64900000      22.70800000      20.40100000
 H      29.44800000      21.95800000      19.84000000
 H      30.36700000      22.40300000      20.99800000
 O      26.44800000      20.55300000      21.08200000
 H      26.34100000      21.31700000      20.53000000
 H      26.00900000      20.87600000      21.92300000
 O      25.53300000      15.75200000      20.42600000
 H      25.43700000      15.91800000      19.49800000
 H      26.05200000      14.90200000      20.43500000
