102
XYZ file of cluster: frame_9000_7170d.c2cd8.c1a09 - created by MolEdiTo
 O      16.81700000      28.18200000      30.05600000
 H      17.04800000      28.84200000      30.77600000
 H      17.63600000      27.69100000      30.07700000
 O      25.64200000      28.94200000      29.89500000
 H      25.70900000      28.02800000      30.25900000
 H      24.81300000      29.15200000      30.37300000
 O      15.33100000      28.88600000      27.02100000
 H      15.79400000      28.68800000      27.80700000
 H      15.07000000      29.84200000      27.20200000
 O      18.81000000      28.07600000      26.41500000
 H      19.10100000      27.26900000      26.92300000
 H      18.11900000      28.47200000      27.02900000
 O      22.61900000      29.84200000      26.46800000
 H      23.48500000      29.48800000      26.57300000
 H      22.74500000      30.69200000      26.98500000
 O      18.32300000      30.71300000      28.83000000
 H      19.25100000      30.99200000      28.80300000
 H      17.80500000      31.29100000      29.42500000
 O      20.45500000      29.10100000      29.41700000
 H      21.00800000      29.88300000      29.73700000
 H      19.52200000      29.30200000      29.17200000
 O      24.92700000      26.03900000      27.88400000
 H      25.63300000      26.61200000      28.27500000
 H      24.25000000      26.63200000      27.47900000
 O      25.80300000      29.77900000      26.81100000
 H      26.43800000      29.72300000      27.51900000
 H      26.10700000      30.49200000      26.23300000
 O      22.39400000      26.60300000      26.64600000
 H      22.58900000      25.85200000      27.25600000
 H      21.50400000      26.87000000      27.01500000
 O      19.70800000      27.26500000      33.38400000
 H      20.45800000      27.55000000      33.92900000
 H      19.91900000      27.71100000      32.51400000
 O      20.34500000      29.33700000      37.16200000
 H      20.16800000      29.57700000      38.14500000
 H      20.00700000      30.14300000      36.74500000
 O      23.20100000      26.59400000      34.78400000
 H      24.04200000      27.14300000      34.85500000
 H      23.57300000      25.83200000      34.21100000
 O      16.98500000      29.52900000      34.51500000
 H      16.90300000      28.62600000      34.98800000
 H      17.77100000      29.93900000      34.90000000
 O      24.96200000      26.23100000      37.44400000
 H      25.51600000      26.70600000      36.70800000
 H      24.94300000      25.29700000      37.21400000
 O      25.53600000      28.14600000      35.42300000
 H      25.11500000      28.63600000      36.15600000
 H      26.51100000      28.36800000      35.74300000
 O      21.82400000      29.16500000      34.73000000
 H      21.39400000      29.38900000      35.56400000
 H      22.27400000      28.30400000      34.93300000
 O      16.41900000      27.14400000      35.58700000
 H      17.15200000      26.43200000      35.58500000
 H      15.56800000      26.64100000      35.55600000
 O      21.18800000      35.48400000      25.92600000
 H      22.03800000      35.56400000      26.49500000
 H      21.55500000      34.98500000      25.18400000
 O      23.89800000      36.64400000      26.17700000
 H      24.58800000      36.28400000      25.57500000
 H      24.22800000      36.40200000      27.11800000
 O      17.43300000      33.70700000      26.11300000
 H      17.80100000      33.09200000      26.82600000
 H      16.55100000      34.07700000      26.45000000
 O      16.49400000      37.51800000      28.01200000
 H      16.62900000      36.62800000      27.74200000
 H      15.65900000      37.75000000      27.65400000
 O      14.97400000      34.17500000      30.28700000
 H      14.67700000      33.36000000      30.84200000
 H      15.94800000      34.23700000      30.48000000
 O      26.37300000      35.01600000      27.57000000
 H      26.49900000      34.66600000      26.63800000
 H      26.21200000      36.02200000      27.51000000
 O      17.85800000      34.86100000      30.14600000
 H      17.99200000      35.45500000      30.94100000
 H      18.16800000      35.45300000      29.41300000
 O      23.61600000      33.87900000      27.76700000
 H      24.41600000      33.69100000      27.20600000
 H      23.97700000      33.57900000      28.63000000
 O      23.08700000      35.41400000      30.48200000
 H      24.06800000      35.17700000      30.72100000
 H      23.14100000      36.01000000      29.75800000
 O      22.08000000      32.59000000      30.72100000
 H      22.13300000      32.03000000      31.54900000
 H      22.47100000      33.54400000      30.87900000
 O      25.95200000      33.56700000      29.93200000
 H      26.08800000      32.67100000      30.18400000
 H      26.83500000      33.85300000      29.58600000
 O      26.78200000      36.07100000      33.49600000
 H      26.06300000      35.85100000      34.18600000
 H      27.31200000      35.21200000      33.50100000
 O      17.42800000      36.82900000      34.19100000
 H      16.65400000      36.25400000      34.34300000
 H      17.02700000      37.66400000      33.92800000
 O      15.81500000      32.72000000      36.38600000
 H      16.04000000      33.71000000      36.57000000
 H      16.43900000      32.25400000      35.67000000
 O      24.94200000      35.13200000      35.19400000
 H      25.08700000      34.24000000      35.66500000
 H      24.65800000      35.79800000      35.83400000
 O      19.16200000      33.51400000      36.33700000
 H      18.61800000      34.19400000      36.83700000
 H      20.01800000      33.81900000      36.13900000
