    0.014313454    0.022541904    0.002655595
   -0.013773750   -0.007512834   -0.009889468
   -0.003037244   -0.013322358    0.006821742
    0.026096744   -0.014803761   -0.021286292
   -0.032378408    0.004005383   -0.006988635
    0.007296908    0.008371762    0.027389507
    0.010159743   -0.015352060   -0.035312501
   -0.015981616   -0.006279291    0.002118687
    0.007435033    0.018027566    0.036996378
    0.009262655    0.020650517    0.014931774
    0.002506863    0.007664104   -0.029330884
   -0.010248087   -0.026380678    0.022266894
    0.036448441    0.028169039    0.051911948
   -0.038950634   -0.001133915   -0.017896566
   -0.003699142   -0.028191183   -0.035968005
    0.034908125   -0.019286547    0.017345079
   -0.010778587    0.001608061   -0.014866082
   -0.019325738    0.017936931   -0.005362063
   -0.009274053    0.006516228    0.034315217
   -0.001711294   -0.000259907   -0.050499773
    0.010647121   -0.003969615    0.013093679
    0.009922236   -0.008902877    0.009828903
   -0.029857518   -0.007154953   -0.011801700
    0.018793038    0.016959003    0.005210814
   -0.002533755    0.020825202   -0.014704772
    0.008990585   -0.003203102    0.008018413
    0.003954926   -0.004787635   -0.000489909
   -0.058286060   -0.001722071   -0.007004509
    0.019757172    0.011728463   -0.000552075
    0.045968461   -0.016188484   -0.001044155
    0.019239158   -0.031574842   -0.025152741
   -0.013346808    0.033375129    0.007176742
   -0.009858413   -0.005369916    0.018027347
    0.026860594   -0.009623864   -0.006013000
   -0.011670596    0.002345190    0.023045244
   -0.018604551    0.014395833   -0.007596213
    0.036768643   -0.015711374    0.010168384
   -0.020053497   -0.024546501    0.021726100
   -0.025480845    0.030438609   -0.026521543
   -0.022458937    0.000865706    0.002931432
   -0.003067091    0.008043358   -0.000534982
    0.025046726   -0.009190220   -0.007164012
