141
XYZ file of cluster: frame_3000_1ff43.73d42.9b8cb - created by MolEdiTo
 O      13.71100000      22.14400000      28.06400000
 H      13.17100000      22.93100000      27.68500000
 H      13.99100000      21.59800000      27.28600000
 O      11.35700000      24.84500000      26.63700000
 H      11.07600000      25.59800000      26.07700000
 H      11.83400000      25.19500000      27.40300000
 O       6.07300000      25.13900000      27.52600000
 H       5.72800000      24.21900000      27.65800000
 H       6.92600000      25.06400000      27.04300000
 O       6.09100000      18.22300000      22.97800000
 H       5.87700000      17.40600000      23.52400000
 H       5.60100000      18.02400000      22.18700000
 O       7.55300000      21.70300000      26.53400000
 H       8.08300000      21.09700000      27.17700000
 H       8.29600000      22.33600000      26.36400000
 O      13.17200000      18.66200000      27.02800000
 H      14.10200000      18.85000000      26.69800000
 H      13.21400000      17.93600000      27.68000000
 O       8.76200000      24.90700000      26.97500000
 H       9.60200000      25.16400000      26.59600000
 H       8.91700000      24.76500000      27.95300000
 O      11.08400000      20.58800000      20.88700000
 H      10.84200000      20.27100000      19.98200000
 H      10.86400000      21.56500000      20.84800000
 O       5.79700000      17.57100000      29.21700000
 H       5.45000000      17.98300000      30.05200000
 H       4.94500000      17.53100000      28.83600000
 O       5.48300000      26.18800000      22.12200000
 H       4.45800000      26.13600000      22.17400000
 H       5.69500000      25.21300000      22.18100000
 O      12.90500000      17.08000000      24.68000000
 H      12.81000000      17.68300000      25.49500000
 H      12.12000000      16.53000000      24.79900000
 O      10.08800000      21.16500000      28.10800000
 H      10.09600000      20.26500000      27.63600000
 H      10.83000000      21.68400000      27.66100000
 O       9.74000000      22.96400000      21.05500000
 H       9.48500000      22.74100000      21.99400000
 H       8.95200000      23.36600000      20.58200000
 O      14.98100000      16.31800000      27.75900000
 H      15.88200000      16.23700000      28.02900000
 H      14.95400000      15.76100000      26.94100000
 O       7.47600000      18.86700000      24.98700000
 H       7.22800000      18.78400000      25.92400000
 H       6.68700000      19.30900000      24.49300000
 O       9.97500000      19.00000000      26.13900000
 H      10.55700000      19.63100000      25.55700000
 H       9.14600000      19.16900000      25.75400000
 O       4.45300000      26.08000000      28.05900000
 H       5.45000000      26.03700000      28.03000000
 H       4.13000000      25.62500000      27.29100000
 O       5.57100000      20.80100000      22.77900000
 H       5.79500000      19.81600000      23.01800000
 H       5.58900000      21.21900000      23.66800000
 O       5.57700000      26.50300000      30.45400000
 H       4.78400000      27.06300000      30.60800000
 H       5.33600000      25.76000000      29.87200000
 O       6.74500000      24.52300000      24.12900000
 H       7.59600000      24.30100000      24.51500000
 H       6.90000000      24.98800000      23.24400000
 O      12.35000000      16.40700000      29.38200000
 H      12.33700000      16.91200000      30.22700000
 H      13.30300000      16.21500000      29.41700000
 O      15.25300000      15.88200000      23.21500000
 H      15.17900000      15.91900000      22.23000000
 H      14.45400000      16.40300000      23.48400000
 O      11.58300000      21.32800000      30.45200000
 H      11.03300000      20.88100000      29.79000000
 H      12.48000000      21.00400000      30.31200000
 O       8.80300000      22.35400000      23.77000000
 H       8.54400000      21.51400000      23.41100000
 H       8.62500000      22.21600000      24.70500000
 O       9.55800000      18.48400000      23.15800000
 H       9.81700000      17.61400000      22.94200000
 H       8.72500000      18.42100000      23.69700000
 O      11.86700000      20.79400000      25.36100000
 H      12.12800000      20.52700000      24.39600000
 H      12.44300000      20.14400000      25.77100000
 O      16.33900000      25.30700000      24.23800000
 H      15.36800000      25.25700000      24.36800000
 H      16.52900000      26.19000000      24.65300000
 O      12.53400000      24.85300000      21.28500000
 H      11.69100000      24.38400000      21.61000000
 H      13.21000000      24.14600000      21.23400000
 O       9.77800000      17.77200000      29.01500000
 H      10.65300000      17.54700000      28.64600000
 H       9.26400000      17.96300000      28.22700000
 O       9.40000000      15.77400000      22.24000000
 H       8.94900000      16.31200000      21.56500000
 H      10.04300000      15.32200000      21.65200000
 O       5.46600000      20.69200000      29.60100000
 H       4.98400000      20.45600000      30.41000000
 H       6.34700000      20.42400000      29.90100000
 O       7.93900000      15.47900000      28.07000000
 H       7.36400000      16.16900000      28.50100000
 H       7.74800000      15.36400000      27.10400000
 O       7.40400000      19.28200000      27.80900000
 H       6.41400000      19.21000000      27.75700000
 H       7.55900000      18.68900000      28.52000000
 O      12.53500000      23.53000000      24.17700000
 H      12.02300000      23.01900000      24.86400000
 H      13.06300000      22.91200000      23.61400000
 O      10.64100000      24.10400000      29.85300000
 H      10.99500000      23.19100000      30.04900000
 H      11.34200000      24.60900000      29.38400000
 O       6.19400000      26.67500000      24.97200000
 H       5.73800000      26.61800000      24.10600000
 H       6.06400000      25.76500000      25.29600000
 O       5.68200000      23.25100000      21.42000000
 H       5.64600000      22.43000000      21.91300000
 H       4.93500000      23.10800000      20.76800000
 O       4.95100000      15.72100000      24.90500000
 H       5.05400000      14.91100000      24.44100000
 H       5.74000000      15.88900000      25.36600000
 O      14.19900000      20.65200000      30.34000000
 H      14.14500000      21.16500000      29.51100000
 H      15.11600000      20.67700000      30.71300000
 O       6.14100000      19.44900000      26.36700000
 H       5.34500000      19.66200000      25.92000000
 H       6.50000000      20.28600000      26.53500000
 O      12.70300000      19.91100000      23.03200000
 H      12.00200000      19.80800000      22.30400000
 H      13.11000000      18.97000000      23.01900000
 O       9.79500000      26.53600000      29.59300000
 H       9.28300000      25.80100000      29.39700000
 H       9.47200000      26.88900000      30.42900000
 O      13.68700000      25.44700000      24.24700000
 H      13.24800000      25.70000000      25.11700000
 H      13.23700000      24.58600000      24.05300000
 O      13.69500000      21.95700000      20.90600000
 H      14.61900000      21.60900000      21.05700000
 H      13.00900000      21.43200000      21.34100000
 O       5.31100000      22.22300000      27.58800000
 H       4.70600000      22.64600000      28.19200000
 H       5.81300000      21.64700000      28.13900000
 O       4.93800000      22.81200000      25.10900000
 H       5.61300000      23.50400000      24.86100000
 H       5.00900000      22.72500000      26.14800000
 O       7.97100000      26.64800000      20.62500000
 H       8.87800000      26.67300000      20.87000000
 H       7.98300000      25.95900000      19.92500000
