160
XYZ file of cluster: frame_3000_242da.46134.48805 - created by MolEdiTo
 O       6.89500000      11.96900000      17.22800000
 H       5.92000000      11.87300000      17.09900000
 H       7.24700000      12.52400000      16.43700000
 O      15.48000000      17.57700000      18.52100000
 H      16.28200000      17.40800000      19.08800000
 H      15.76800000      18.33700000      17.88100000
 O      12.38600000      18.70000000      18.21200000
 H      13.07200000      18.42800000      17.58900000
 H      12.32700000      19.69100000      18.11000000
 O      14.60100000      11.53400000      17.37000000
 H      13.69100000      11.31200000      17.55000000
 H      14.97300000      11.78200000      18.29200000
 O      13.26900000      15.81900000      11.63500000
 H      13.65900000      16.71000000      11.67700000
 H      13.59700000      15.54000000      10.72300000
 O      13.26700000      10.21100000      13.41900000
 H      12.34300000      10.52800000      13.24700000
 H      13.67100000      10.24500000      12.58300000
 O      11.08400000      20.58800000      20.88700000
 H      10.84200000      20.27100000      19.98200000
 H      10.86400000      21.56500000      20.84800000
 O      11.55200000      17.26800000      14.86100000
 H      10.67900000      17.12000000      15.28400000
 H      11.84700000      16.32900000      14.73900000
 O      11.33500000      14.12000000      12.62200000
 H      12.18400000      14.70800000      12.60800000
 H      10.98100000      14.22500000      11.71000000
 O      15.92600000      20.82400000      12.54100000
 H      15.56600000      21.64600000      12.13900000
 H      16.62100000      20.74000000      11.89900000
 O      13.65000000      16.61200000      20.84000000
 H      13.11800000      15.97000000      20.27500000
 H      13.97100000      17.12900000      20.06200000
 O       5.66800000      17.91800000      12.42000000
 H       4.97500000      17.84500000      13.16900000
 H       5.71600000      18.77900000      12.13200000
 O       9.03300000      14.94500000      13.76100000
 H       9.86900000      14.68400000      13.30500000
 H       8.51900000      15.36500000      13.04200000
 O       5.62900000      10.49600000      17.75900000
 H       6.06200000       9.86500000      18.28900000
 H       4.67600000      10.14700000      17.87400000
 O       7.71800000      11.24700000      18.86400000
 H       7.13800000      11.85200000      19.30100000
 H       7.47600000      11.36900000      17.90400000
 O      10.18300000      11.66800000      13.36300000
 H      10.45900000      12.64100000      13.34600000
 H      10.68700000      11.20800000      14.14300000
 O      11.68000000      19.92600000      13.97500000
 H      12.25600000      20.52800000      14.55900000
 H      11.73500000      19.11500000      14.44200000
 O      10.69000000      12.57700000      18.97300000
 H      11.26900000      13.19300000      19.40400000
 H      10.49700000      12.94600000      18.09100000
 O       7.85600000       9.55500000      16.37600000
 H       7.33200000       9.02100000      17.02000000
 H       7.67900000      10.54200000      16.67200000
 O      13.94800000      10.17600000      10.72600000
 H      14.07800000      10.99100000      10.22700000
 H      14.87700000      10.01000000      11.09200000
 O       9.60300000      18.59800000      12.28100000
 H      10.39900000      18.81600000      12.76600000
 H       9.90100000      18.12500000      11.49300000
 O      14.51300000      20.84100000      15.23700000
 H      15.18900000      20.99000000      15.91600000
 H      15.05700000      20.70700000      14.37000000
 O       6.43100000      16.72800000      14.08800000
 H       5.73500000      16.37500000      14.67500000
 H       6.05300000      16.89000000      13.18000000
 O      14.05100000      13.02000000      13.31800000
 H      13.92200000      12.05300000      13.42000000
 H      13.50100000      13.36700000      12.62400000
 O       5.01900000      17.94000000      16.74200000
 H       5.86700000      18.31500000      16.62600000
 H       5.06100000      16.95700000      16.58900000
 O       5.25000000      15.30800000      18.29600000
 H       6.11400000      15.26200000      17.80300000
 H       5.52800000      15.30400000      19.30900000
 O       7.30900000      20.60400000      12.73800000
 H       7.58900000      21.00700000      13.61100000
 H       8.12700000      20.20400000      12.35800000
 O      13.04700000      12.54000000      20.67500000
 H      13.43800000      12.36700000      21.55600000
 H      12.29100000      11.99400000      20.82300000
 O       6.29000000      20.74800000      17.66800000
 H       6.42700000      20.36500000      16.77000000
 H       5.64800000      21.49700000      17.72300000
 O       5.99800000      12.44100000      12.58200000
 H       5.02800000      12.20000000      12.55600000
 H       6.17500000      12.78600000      13.53400000
 O       7.50400000      17.65300000      20.78600000
 H       6.94300000      18.30800000      20.33200000
 H       8.39200000      17.98800000      20.75200000
 C      14.62900000      14.91300000      16.80900000
 C      15.85500000      14.69500000      15.76600000
 C      16.22800000      16.99200000      14.73800000
 H      14.49200000      15.83100000      14.39100000
 H      16.02200000      14.78200000      18.07100000
 O      16.04200000      14.98600000      13.31300000
 O      13.57300000      15.37400000      16.47800000
 O      14.99000000      14.82700000      18.11300000
 C      15.58700000      15.62500000      14.55300000
 O      17.14000000      14.80400000      16.40800000
 H      15.81100000      13.62700000      15.50700000
 O      16.25000000      17.63600000      15.79600000
 O      17.16800000      17.20600000      13.84600000
 H      16.98100000      16.43600000      13.17300000
 H      17.80800000      14.52100000      15.69200000
 H      15.49800000      14.15700000      13.20600000
 O       4.84900000      15.56600000      10.45700000
 H       5.30100000      16.08500000       9.73600000
 H       5.00700000      16.03400000      11.28900000
 O      13.09900000      19.12300000      11.67200000
 H      12.54900000      19.57400000      12.39000000
 H      14.02300000      19.57100000      11.87700000
 O       6.61100000      15.14900000      18.12100000
 H       7.34600000      15.27800000      18.75000000
 H       7.07800000      14.90700000      17.28400000
 O       5.76400000      12.59100000      20.28000000
 H       5.56100000      11.92700000      20.97800000
 H       4.81500000      12.81700000      19.93600000
 O      10.22000000      16.52500000      19.28300000
 H      11.08800000      16.94200000      19.26900000
 H      10.41300000      15.90700000      18.60400000
 O      10.68100000      11.01300000      20.37500000
 H      10.30500000      11.42700000      19.53000000
 H      10.65400000      10.03500000      20.12400000
 O       7.30900000      19.46300000      15.36500000
 H       8.26000000      19.61400000      15.76200000
 H       7.44500000      18.95400000      14.55600000
 O       7.95400000      10.46800000      12.35700000
 H       8.80400000      10.87700000      12.78500000
 H       7.22200000      11.05000000      12.71900000
 O       5.49800000      14.89500000      14.88400000
 H       5.75900000      14.51500000      14.03000000
 H       5.10600000      14.17100000      15.41500000
 O       6.32900000      19.23700000      19.14200000
 H       6.81600000      19.44300000      18.33600000
 H       5.53000000      18.83200000      18.72800000
 O      12.84000000      14.54900000      18.86500000
 H      13.70800000      14.52000000      18.35700000
 H      12.93500000      13.79500000      19.51500000
 O      15.27900000      12.03900000      19.14100000
 H      16.06500000      12.47700000      19.63500000
 H      14.50400000      12.44900000      19.58700000
 O      13.99600000      21.49400000      18.52600000
 H      14.01900000      21.65200000      19.45700000
 H      14.76500000      20.92600000      18.41000000
 O       7.58700000      13.02600000      14.91300000
 H       8.01300000      13.88100000      14.61500000
 H       8.20500000      12.41300000      14.45600000
 O      11.01400000      15.26900000      17.82800000
 H      11.40200000      15.60100000      16.98100000
 H      11.80600000      15.06100000      18.40700000
 O       9.95800000      19.32200000      17.12600000
 H      10.53600000      18.65300000      17.54400000
 H      10.04400000      20.13700000      17.64900000
 O       7.95200000       9.71000000       9.50700000
 H       8.09200000       9.61700000      10.45800000
 H       8.07200000      10.66400000       9.28700000
