111
XYZ file of cluster: frame_3000_3106.854.9d186 - created by MolEdiTo
 O       2.35800000      10.33400000      28.59500000
 H       1.63000000      10.43000000      29.22200000
 H       2.48400000       9.33900000      28.52400000
 O       9.70200000       7.25700000      21.60400000
 H       9.96000000       6.56800000      22.27100000
 H      10.27900000       8.01200000      21.92900000
 O       9.84300000      10.64700000      28.29000000
 H       9.23700000      11.24400000      28.68800000
 H       9.35000000      10.22400000      27.56600000
 O       2.30200000       8.55800000      24.64100000
 H       2.44200000       7.60500000      24.57100000
 H       1.59900000       8.56900000      25.32300000
 O       5.63400000       6.48800000      25.86300000
 H       6.11300000       6.20000000      26.64300000
 H       4.70300000       6.57900000      26.05500000
 O       1.14100000       3.18100000      26.36700000
 H       0.39600000       2.85300000      25.79300000
 H       0.77000000       3.93900000      26.78200000
 O      10.26300000       5.54200000      23.42400000
 H      11.11800000       5.45400000      23.78800000
 H       9.64200000       5.32400000      24.20300000
 O       2.72200000       7.60500000      28.83300000
 H       1.83100000       7.25000000      28.58600000
 H       2.61400000       7.82800000      29.83500000
 O       2.28000000       3.96000000      22.57600000
 H       1.70800000       3.90800000      23.41600000
 H       1.78700000       3.42300000      21.90600000
 O       4.32800000       0.94500000      27.52100000
 H       4.64300000       0.06700000      27.59600000
 H       4.21900000       1.09200000      26.53600000
 O       9.03400000       2.00700000      26.88000000
 H       8.74800000       1.25900000      27.39100000
 H       8.24200000       2.25000000      26.28800000
 O       2.14300000       0.93100000      20.26800000
 H       2.56500000       1.06100000      21.19300000
 H       1.29300000       1.47800000      20.26400000
 O       5.44100000       3.74200000      27.30800000
 H       4.58600000       4.16200000      27.01100000
 H       5.34700000       2.85200000      26.89000000
 O       3.55900000       8.70000000      21.37700000
 H       3.75000000       7.76300000      21.25700000
 H       2.96000000       8.72100000      22.11300000
 O       3.24500000       3.28300000      28.22600000
 H       3.80000000       2.52400000      27.96700000
 H       2.41400000       3.15100000      27.72500000
 O       6.31700000       3.47000000      23.74200000
 H       6.24000000       2.49500000      23.68600000
 H       5.53100000       3.82400000      24.20300000
 O       4.66500000      10.32500000      25.08600000
 H       4.47300000      11.28800000      25.19000000
 H       3.83800000      10.01600000      24.86500000
 O       4.51700000       5.80200000      27.91500000
 H       3.97000000       5.02600000      28.17200000
 H       4.00000000       6.50400000      28.34000000
 O      10.40400000       5.06700000      27.12800000
 H       9.63500000       5.18800000      26.48000000
 H      10.42800000       4.10700000      27.37000000
 O       7.06500000       6.60800000      21.93200000
 H       7.24900000       7.45900000      21.33000000
 H       7.83100000       6.53500000      22.50900000
 O       5.73800000       2.72700000      30.42100000
 H       5.04700000       2.01700000      30.30500000
 H       5.69100000       3.16700000      29.50900000
 O       5.45900000       0.98900000      20.53700000
 H       6.45500000       0.79900000      20.67300000
 H       5.09600000       0.92400000      21.44800000
 O       6.56500000       9.29200000      28.75000000
 H       5.74900000       9.78300000      28.42000000
 H       6.20900000       8.43800000      29.00000000
 O       8.02600000      10.32400000      22.68600000
 H       8.06700000      10.50700000      21.74300000
 H       7.45400000      11.04000000      23.01900000
 O       1.18000000       6.24900000      20.66500000
 H       1.42800000       5.90600000      21.57600000
 H       1.24700000       5.41700000      20.12300000
 O       6.84300000       6.03300000      28.40000000
 H       6.47600000       5.13800000      28.06200000
 H       7.52600000       5.77000000      29.11800000
 O      11.04700000       9.20000000      22.73500000
 H      11.17800000       8.89300000      23.63400000
 H      10.24300000       9.89400000      22.84200000
 O       8.21900000       4.51300000      25.46700000
 H       7.89000000       4.43100000      26.39400000
 H       7.54200000       4.20800000      24.93300000
 O       3.53800000       2.28700000      25.14900000
 H       3.50100000       2.18200000      24.10900000
 H       2.63900000       2.51700000      25.32100000
 O       8.65000000       8.39600000      26.61500000
 H       8.52700000       7.99000000      25.74800000
 H       7.83200000       8.06100000      27.05500000
 O       6.05300000      10.48300000      22.42700000
 H       5.52800000      10.49100000      23.25900000
 H       6.35400000       9.51400000      22.40900000
 O       5.48200000       5.56100000      21.78200000
 H       6.42400000       5.78300000      22.05400000
 H       5.14300000       4.91000000      22.42100000
 O       9.84200000       2.95000000      21.55700000
 H       9.22800000       3.48800000      20.97100000
 H       9.41800000       2.88800000      22.42500000
 O       6.19600000       0.96600000      26.27200000
 H       5.84100000       0.17500000      25.76300000
 H       6.59100000       0.51300000      27.07000000
 O       9.30400000       1.42700000      23.97200000
 H       9.64800000       2.02000000      24.74200000
 H      10.03600000       0.70300000      23.81100000
 O      11.32800000       7.75500000      29.04400000
 H      11.27800000       6.81900000      29.23500000
 H      10.41500000       8.00800000      29.43500000
 O       8.97500000       8.26400000      30.32400000
 H       8.36300000       8.06300000      31.08900000
 H       8.34200000       8.88900000      29.80000000
