138
XYZ file of cluster: frame_3000_c68bf.a0d23.785f5 - created by MolEdiTo
 O      28.04600000      29.30500000      21.77700000
 H      28.65900000      29.74800000      21.13900000
 H      27.69200000      30.14300000      22.13900000
 O      29.47900000      24.93000000      20.74900000
 H      30.14400000      25.41700000      20.12100000
 H      29.29900000      24.11600000      20.28000000
 O      26.87700000      24.78100000      18.86800000
 H      27.35600000      24.20900000      19.55700000
 H      26.77300000      24.22600000      18.04000000
 O      25.66200000      27.69300000      24.11300000
 H      25.89300000      28.02700000      23.13600000
 H      26.41300000      27.95200000      24.66800000
 O      26.88000000      21.49200000      18.91500000
 H      26.84400000      20.91500000      18.14400000
 H      26.13000000      21.30600000      19.51100000
 O      28.73500000      25.91000000      17.17900000
 H      28.20700000      25.31400000      17.71000000
 H      29.05000000      25.50000000      16.32200000
 O      27.11200000      21.67800000      22.49900000
 H      26.23800000      21.81900000      22.82600000
 H      27.11600000      20.70300000      22.20400000
 O      30.51200000      22.87900000      16.46300000
 H      30.64100000      22.04900000      17.05300000
 H      29.95700000      22.51300000      15.75200000
 O      26.23600000      27.12900000      20.73000000
 H      27.04700000      27.06100000      21.37800000
 H      25.80900000      26.33500000      20.99900000
 O      30.13800000      27.54700000      16.36400000
 H      30.35200000      26.67700000      16.06600000
 H      29.18200000      27.43000000      16.47800000
 O      29.77900000      27.08600000      21.12000000
 H      29.37900000      26.78900000      20.24600000
 H      29.28800000      27.78000000      21.53800000
 O      27.47500000      23.53800000      24.58800000
 H      27.33300000      22.61500000      24.36600000
 H      28.42100000      23.62000000      24.50400000
 O      25.88300000      29.94100000      25.67700000
 H      26.85300000      30.01500000      25.59700000
 H      25.79900000      30.15800000      26.63300000
 O      29.63800000      22.78300000      22.90000000
 H      29.63200000      23.68500000      22.45600000
 H      28.75900000      22.46800000      22.55900000
 O      28.62100000      26.76100000      18.32200000
 H      27.68600000      26.56200000      18.70000000
 H      28.64300000      26.14500000      17.57500000
 O      29.01400000      22.19700000      19.78100000
 H      28.45700000      21.67900000      19.24000000
 H      29.45800000      21.48800000      20.35200000
 O      26.80000000      29.82100000      17.41900000
 H      26.36500000      29.74600000      16.51700000
 H      26.45800000      30.62600000      17.83600000
 O      28.83200000      21.49100000      26.15300000
 H      29.83000000      21.74600000      26.12700000
 H      28.81600000      20.77600000      25.53800000
 O      26.05000000      21.52000000      26.77000000
 H      27.01500000      21.70800000      26.88000000
 H      25.68600000      21.93100000      25.99400000
 O      27.94400000      25.51500000      22.77500000
 H      28.59700000      25.26300000      22.07800000
 H      27.32800000      24.78600000      22.98400000
 O      30.24700000      30.45100000      16.96700000
 H      29.34700000      30.45700000      17.06100000
 H      30.39100000      29.71300000      16.33800000
 O      30.26900000      25.17500000      24.85200000
 H      29.48500000      25.22200000      25.41700000
 H      30.93300000      24.72500000      25.30900000
 O      28.97900000      29.56000000      19.02100000
 H      28.27500000      30.22600000      19.22200000
 H      28.44400000      28.80300000      18.47700000
 O      28.06900000      27.50900000      25.88200000
 H      27.97500000      27.73000000      26.87200000
 H      27.68500000      26.59400000      25.91500000
 O      27.49900000      23.23500000      17.00100000
 H      27.92300000      22.57700000      17.61500000
 H      26.70500000      22.84100000      17.00700000
 O      35.29400000      21.65500000      18.03000000
 H      35.18500000      22.10900000      18.93300000
 H      36.17400000      21.97100000      17.63600000
 O      37.03800000      26.18800000      22.12200000
 H      36.01300000      26.13600000      22.17400000
 H      37.25000000      25.21300000      22.18100000
 O      36.13600000      28.33800000      16.31200000
 H      36.55000000      28.43100000      15.41900000
 H      36.97700000      28.14600000      16.89900000
 O      34.85400000      30.24300000      22.57500000
 H      35.79100000      29.89900000      22.66700000
 H      34.34400000      29.41400000      22.54900000
 O      34.16000000      25.67500000      22.82300000
 H      33.34000000      25.87800000      23.27600000
 H      33.81700000      25.11000000      22.14500000
 O      32.85700000      29.89600000      26.04200000
 H      33.79900000      29.90000000      25.80100000
 H      32.63600000      29.02000000      25.72100000
 O      33.02500000      26.89100000      18.26700000
 H      32.90200000      27.14600000      17.41600000
 H      32.19800000      26.94800000      18.86700000
 O      32.46700000      27.59200000      24.19600000
 H      32.51300000      27.86900000      23.30000000
 H      31.55500000      27.33500000      24.39400000
 O      36.84300000      28.65600000      18.88500000
 H      36.01600000      29.04800000      18.46300000
 H      37.19300000      29.47500000      19.27100000
 O      33.93300000      28.90200000      15.70000000
 H      33.44700000      28.24200000      16.28500000
 H      34.72400000      29.18800000      16.19600000
 O      33.99200000      27.44800000      21.38400000
 H      34.20100000      26.49900000      21.17100000
 H      32.99500000      27.52100000      21.21300000
 O      35.10900000      28.38600000      25.02700000
 H      34.14600000      28.28800000      24.74400000
 H      35.37200000      27.38900000      25.08900000
 O      35.67100000      26.20200000      25.04900000
 H      36.06700000      25.38500000      25.34500000
 H      35.14300000      25.98200000      24.22400000
 O      32.64600000      24.13100000      19.01200000
 H      32.23200000      24.33200000      18.13500000
 H      33.12500000      23.32200000      18.73600000
 O      34.26000000      25.12500000      19.95700000
 H      33.99700000      24.46000000      19.24200000
 H      33.97500000      25.91900000      19.54700000
 O      37.23700000      23.25100000      21.42000000
 H      37.20100000      22.43000000      21.91300000
 H      36.49000000      23.10800000      20.76800000
 O      34.79300000      29.11600000      18.48600000
 H      34.51000000      29.73500000      19.26700000
 H      34.25400000      28.36100000      18.61800000
 O      36.91100000      24.87100000      17.57400000
 H      36.12200000      24.99400000      17.02000000
 H      36.78800000      25.47800000      18.31800000
 O      32.95800000      22.03500000      25.16200000
 H      33.00900000      22.47200000      24.23700000
 H      33.43100000      21.19800000      25.00300000
 O      34.88900000      22.77100000      20.07000000
 H      34.29100000      23.33800000      19.72000000
 H      34.35800000      22.35200000      20.73900000
 O      36.49300000      22.81200000      25.10900000
 H      37.16800000      23.50400000      24.86100000
 H      36.56400000      22.72500000      26.14800000
