166
XYZ file of cluster: frame_3000_46c33.69dac.66d6a - created by MolEdiTo
 O      14.91000000      24.24000000      17.67300000
 H      14.76400000      23.25000000      17.91200000
 H      14.17200000      24.44100000      17.06800000
 O      15.48000000      17.57700000      18.52100000
 H      16.28200000      17.40800000      19.08800000
 H      15.76800000      18.33700000      17.88100000
 O      12.38600000      18.70000000      18.21200000
 H      13.07200000      18.42800000      17.58900000
 H      12.32700000      19.69100000      18.11000000
 O      16.15100000      20.74700000      21.52500000
 H      17.06200000      21.15500000      21.38600000
 H      16.25600000      19.84900000      21.85900000
 O      14.29700000      26.06000000      18.69800000
 H      13.84900000      25.68400000      19.49000000
 H      14.12500000      25.48100000      17.91800000
 O      18.89100000      18.75900000      18.38100000
 H      19.66700000      18.73700000      18.86800000
 H      19.12400000      18.34500000      17.53800000
 O      20.93900000      17.44900000      22.79600000
 H      21.01600000      16.64200000      23.42800000
 H      20.84200000      18.28800000      23.30500000
 O      11.08400000      20.58800000      20.88700000
 H      10.84200000      20.27100000      19.98200000
 H      10.86400000      21.56500000      20.84800000
 O      12.90500000      17.08000000      24.68000000
 H      12.81000000      17.68300000      25.49500000
 H      12.12000000      16.53000000      24.79900000
 O      18.71100000      21.64100000      25.26800000
 H      18.50200000      22.55500000      24.95500000
 H      19.58700000      21.44800000      24.82800000
 O       9.97500000      19.00000000      26.13900000
 H      10.55700000      19.63100000      25.55700000
 H       9.14600000      19.16900000      25.75400000
 O      20.63200000      24.62400000      18.33800000
 H      20.43500000      25.37500000      19.01000000
 H      20.26800000      25.03900000      17.50700000
 O      18.76900000      24.62200000      23.75600000
 H      19.53300000      25.17700000      23.65200000
 H      17.95300000      25.16900000      23.95400000
 O      13.65000000      16.61200000      20.84000000
 H      13.11800000      15.97000000      20.27500000
 H      13.97100000      17.12900000      20.06200000
 O      16.35500000      23.29900000      19.94200000
 H      15.56000000      22.75100000      20.06200000
 H      17.00900000      22.82700000      20.40000000
 O      18.32100000      15.05100000      23.03500000
 H      18.13300000      14.81500000      23.96500000
 H      17.92700000      15.95400000      22.85300000
 O      16.43700000      23.87200000      25.78800000
 H      16.07000000      24.02400000      26.72400000
 H      16.30000000      24.67200000      25.23500000
 O      10.91000000      21.53700000      18.24800000
 H      11.88300000      21.73900000      18.40800000
 H      10.46700000      22.41600000      18.01300000
 O      15.25300000      15.88200000      23.21500000
 H      15.17900000      15.91900000      22.23000000
 H      14.45400000      16.40300000      23.48400000
 O      11.86700000      20.79400000      25.36100000
 H      12.12800000      20.52700000      24.39600000
 H      12.44300000      20.14400000      25.77100000
 O      16.33900000      25.30700000      24.23800000
 H      15.36800000      25.25700000      24.36800000
 H      16.52900000      26.19000000      24.65300000
 O      18.37900000      18.57300000      22.01900000
 H      18.91900000      19.40600000      21.77300000
 H      18.87000000      18.22000000      22.77300000
 O      14.51300000      20.84100000      15.23700000
 H      15.18900000      20.99000000      15.91600000
 H      15.05700000      20.70700000      14.37000000
 O      20.30400000      20.42500000      21.52400000
 H      20.32500000      20.66400000      20.58900000
 H      21.12600000      19.99500000      21.73700000
 O      12.53400000      24.85300000      21.28500000
 H      11.69100000      24.38400000      21.61000000
 H      13.21000000      24.14600000      21.23400000
 O      10.87300000      24.78400000      18.79700000
 H      11.00000000      24.57500000      19.76400000
 H      10.99400000      25.74400000      18.73600000
 O      15.78200000      21.40900000      24.23700000
 H      15.89300000      22.31100000      24.64200000
 H      16.04900000      21.44100000      23.25200000
 O      19.32400000      21.79100000      17.23200000
 H      18.96700000      22.68900000      17.34400000
 H      18.65000000      21.35500000      16.59100000
 O      12.53500000      23.53000000      24.17700000
 H      12.02300000      23.01900000      24.86400000
 H      13.06300000      22.91200000      23.61400000
 O      16.34000000      20.13000000      17.86200000
 H      17.00000000      20.19600000      18.58400000
 H      16.91000000      19.61500000      17.19200000
 C      14.62900000      14.91300000      16.80900000
 C      15.85500000      14.69500000      15.76600000
 C      16.22800000      16.99200000      14.73800000
 H      14.49200000      15.83100000      14.39100000
 H      16.02200000      14.78200000      18.07100000
 O      16.04200000      14.98600000      13.31300000
 O      13.57300000      15.37400000      16.47800000
 O      14.99000000      14.82700000      18.11300000
 C      15.58700000      15.62500000      14.55300000
 O      17.14000000      14.80400000      16.40800000
 H      15.81100000      13.62700000      15.50700000
 O      16.25000000      17.63600000      15.79600000
 O      17.16800000      17.20600000      13.84600000
 H      16.98100000      16.43600000      13.17300000
 H      17.80800000      14.52100000      15.69200000
 H      15.49800000      14.15700000      13.20600000
 O      17.45000000      16.67800000      20.09500000
 H      18.29300000      16.17000000      19.91300000
 H      17.70500000      17.29100000      20.87200000
 O      12.70300000      19.91100000      23.03200000
 H      12.00200000      19.80800000      22.30400000
 H      13.11000000      18.97000000      23.01900000
 O      10.22000000      16.52500000      19.28300000
 H      11.08800000      16.94200000      19.26900000
 H      10.41300000      15.90700000      18.60400000
 O      21.77200000      25.44800000      24.55400000
 H      21.01600000      24.93400000      24.80300000
 H      22.44100000      24.77100000      24.58900000
 O      19.92200000      15.54800000      19.82200000
 H      20.64300000      16.15000000      20.20000000
 H      20.44200000      14.88900000      19.22200000
 O      10.95400000      24.89600000      17.06000000
 H      10.82700000      24.56800000      17.95700000
 H      10.14700000      24.95600000      16.56600000
 O      18.27000000      22.46300000      21.97000000
 H      19.09700000      21.92000000      22.09600000
 H      18.56100000      23.25600000      22.56600000
 O      20.64900000      23.99100000      21.41100000
 H      21.01900000      24.14000000      20.49200000
 H      19.83800000      24.53300000      21.35800000
 O      17.47300000      16.86500000      25.40900000
 H      16.57000000      16.67000000      25.13000000
 H      17.48100000      17.81500000      25.75700000
 O      17.78200000      23.94100000      17.38800000
 H      16.76000000      23.71500000      17.45600000
 H      17.90700000      24.61700000      18.06700000
 O      19.75300000      25.47900000      17.15400000
 H      19.90300000      25.04800000      16.27600000
 H      19.12600000      26.18500000      16.85000000
 O      13.68700000      25.44700000      24.24700000
 H      13.24800000      25.70000000      25.11700000
 H      13.23700000      24.58600000      24.05300000
 O      13.69500000      21.95700000      20.90600000
 H      14.61900000      21.60900000      21.05700000
 H      13.00900000      21.43200000      21.34100000
 O      20.57400000      18.27500000      17.24900000
 H      20.46700000      19.13300000      16.74400000
 H      20.54200000      17.57400000      16.55000000
 O      13.99600000      21.49400000      18.52600000
 H      14.01900000      21.65200000      19.45700000
 H      14.76500000      20.92600000      18.41000000
 O      17.32900000      25.46900000      20.69500000
 H      16.97700000      24.49900000      20.61400000
 H      16.65400000      25.74800000      21.32600000
 O      20.07100000      19.01400000      25.25300000
 H      19.15000000      19.17000000      25.39600000
 H      20.36200000      19.87800000      25.69100000
 O      13.37800000      25.23700000      15.46800000
 H      13.46900000      24.69700000      14.69900000
 H      12.42300000      25.25600000      15.75700000
 O       9.95800000      19.32200000      17.12600000
 H      10.53600000      18.65300000      17.54400000
 H      10.04400000      20.13700000      17.64900000
 O      21.04400000      21.40400000      18.89300000
 H      20.82600000      20.60700000      18.41100000
 H      20.46500000      22.14800000      18.45200000
