723
XYZ file of cluster: frame_17000_72765.49264.c4d18 - created by MolEdiTo
 O      37.69700000      22.75300000      36.79300000
 H      37.41800000      23.48600000      36.19200000
 H      36.79600000      22.62200000      37.21600000
 O      20.69100000      23.71000000      36.35200000
 H      21.26700000      23.42900000      37.07600000
 H      19.98300000      24.11500000      36.91400000
 O      28.61100000      38.59600000      36.88300000
 H      28.14400000      38.38600000      37.75100000
 H      29.02900000      37.70700000      36.74300000
 O      21.41500000      15.12600000      37.12600000
 H      21.24800000      15.76400000      36.36100000
 H      21.96500000      15.72100000      37.63000000
 O      22.19900000      21.76300000      38.45600000
 H      22.98900000      21.22500000      38.71500000
 H      22.44600000      22.67000000      38.62200000
 O      25.03500000      14.62300000      37.47700000
 H      25.31700000      14.56000000      36.55800000
 H      25.96900000      14.80300000      37.94300000
 O      25.32000000      39.16800000      39.15400000
 H      24.63500000      39.28100000      38.48200000
 H      24.89500000      39.61600000      39.90600000
 O      32.98000000      30.27600000      35.75700000
 H      32.13600000      30.09800000      35.34800000
 H      33.03700000      31.18900000      35.87500000
 O      38.06600000      17.05100000      40.37000000
 H      38.63800000      16.36800000      40.73900000
 H      37.73400000      16.66100000      39.55800000
 O      20.54500000      20.91400000      34.95100000
 H      20.50600000      21.74000000      35.45000000
 H      21.16800000      20.37000000      35.45500000
 O      31.47800000      23.55800000      36.45500000
 H      31.29400000      23.58000000      35.46100000
 H      31.82700000      22.63300000      36.53500000
 O      22.07000000      32.58600000      37.31000000
 H      21.16200000      32.78200000      36.98700000
 H      22.08600000      32.97400000      38.18400000
 O      27.74100000      38.06400000      39.34800000
 H      27.87900000      38.13000000      40.36700000
 H      26.82600000      38.39600000      39.35700000
 O      36.76500000      38.31700000      37.90500000
 H      37.56300000      38.83100000      37.78500000
 H      36.51100000      38.34600000      36.92500000
 O      25.72400000      34.20500000      37.65300000
 H      25.04600000      34.92100000      37.57000000
 H      25.30800000      33.55300000      37.00900000
 O      22.14700000      26.65000000      35.43300000
 H      22.15700000      26.77100000      36.45300000
 H      23.11100000      26.86000000      35.20600000
 O      32.01800000      39.69600000      36.17600000
 H      32.82600000      39.10200000      36.18500000
 H      31.30500000      39.04600000      36.17700000
 O      22.00700000      26.98500000      38.18100000
 H      22.54400000      27.61400000      38.77700000
 H      21.10800000      27.24400000      38.49700000
 O      21.07600000      39.76400000      34.91100000
 H      21.71400000      39.07300000      34.61600000
 H      20.45400000      39.79900000      34.14000000
 O      21.66300000      33.54300000      39.84400000
 H      21.01500000      34.19800000      40.08700000
 H      22.47300000      33.78700000      40.30800000
 O      22.16100000      38.44700000      40.66000000
 H      21.62800000      39.11400000      41.11700000
 H      22.21100000      37.75700000      41.42000000
 O      35.37500000      22.63700000      37.85800000
 H      35.21800000      22.01500000      38.57700000
 H      34.47700000      22.94500000      37.63900000
 O      31.19000000      36.74000000      35.94400000
 H      31.97400000      36.94500000      36.44700000
 H      30.95700000      35.84500000      36.31900000
 O      37.58900000      31.19800000      37.71100000
 H      37.06300000      31.11700000      36.89900000
 H      36.98800000      30.63800000      38.30700000
 O      24.37600000      20.12500000      38.95200000
 H      25.15600000      20.51200000      39.41300000
 H      24.82400000      19.42700000      38.44100000
 O      33.49500000      19.63500000      38.29100000
 H      32.78300000      20.22800000      37.94400000
 H      33.86100000      20.22300000      39.00800000
 O      25.61800000      22.44800000      37.04400000
 H      25.78800000      22.27200000      37.98900000
 H      25.65900000      23.43500000      37.01100000
 O      40.58100000      25.85100000      36.46300000
 H      40.66800000      26.79800000      36.64200000
 H      40.60400000      25.38900000      37.31200000
 O      40.26100000      31.28700000      39.18600000
 H      40.58200000      32.22000000      39.01800000
 H      39.55300000      31.16600000      38.50100000
 O      28.18100000      16.63200000      34.78200000
 H      27.43800000      16.00200000      34.94400000
 H      27.76700000      17.25700000      34.18400000
 O      28.10400000      24.68800000      39.31200000
 H      28.18000000      24.84100000      38.36700000
 H      27.16800000      24.70300000      39.45100000
 O      39.00400000      20.45800000      36.13200000
 H      39.17700000      20.88700000      35.25100000
 H      38.66700000      21.25200000      36.64100000
 O      36.12300000      19.04200000      37.99700000
 H      35.17000000      18.88400000      38.22900000
 H      35.93300000      19.42300000      37.10000000
 O      34.90100000      15.95800000      36.75900000
 H      34.50800000      15.09400000      36.99100000
 H      35.56300000      16.10500000      37.44700000
 O      21.28000000      17.12100000      35.07000000
 H      22.12200000      17.70500000      35.02900000
 H      20.68200000      17.74300000      35.52700000
 O      22.66800000      24.54700000      38.79700000
 H      22.09200000      24.62800000      39.59200000
 H      22.35900000      25.35200000      38.28800000
 O      35.19800000      20.23800000      35.18200000
 H      35.53400000      19.61900000      34.50800000
 H      35.13500000      21.07300000      34.64700000
 O      36.62500000      16.03100000      34.87100000
 H      35.89400000      16.33600000      35.47100000
 H      37.25000000      16.75500000      34.90400000
 O      24.99100000      20.92000000      35.04800000
 H      24.93400000      21.64300000      34.39200000
 H      25.42200000      21.49600000      35.80400000
 O      26.75600000      21.63000000      39.54700000
 H      26.49400000      22.20900000      40.28700000
 H      27.71700000      21.86600000      39.52400000
 O      37.55800000      35.57300000      38.95500000
 H      37.11700000      36.36500000      38.62100000
 H      38.38400000      35.96700000      39.35000000
 O      29.24400000      39.31000000      34.15200000
 H      29.19900000      38.87900000      35.01400000
 H      29.84800000      38.71800000      33.64900000
 O      24.43300000      33.79500000      40.38800000
 H      25.08400000      33.83600000      39.68000000
 H      24.71700000      32.99700000      40.89700000
 O      25.21200000      32.97800000      35.31500000
 H      24.85300000      32.89800000      34.35500000
 H      25.43500000      31.97500000      35.42600000
 O      31.47100000      15.19800000      35.93000000
 H      31.52900000      15.17300000      34.98500000
 H      32.06500000      15.93600000      36.21500000
 O      40.00700000      15.83700000      36.02800000
 H      40.13700000      15.74100000      36.98700000
 H      40.94100000      15.85800000      35.67500000
 O      27.95400000      34.64200000      39.73200000
 H      27.49900000      33.83900000      39.51200000
 H      27.32000000      35.36200000      39.46200000
 O      38.94500000      40.03800000      39.70800000
 H      39.07600000      40.28300000      38.78000000
 H      39.84800000      40.40900000      40.02200000
 O      37.78700000      27.41100000      35.84700000
 H      36.96300000      27.81000000      35.57800000
 H      38.41200000      27.78200000      35.20900000
 O      23.85500000      36.38200000      36.98100000
 H      22.98100000      36.17300000      36.54300000
 H      23.56700000      37.21700000      37.47800000
 O      29.62300000      13.94900000      37.76000000
 H      30.61700000      13.81200000      37.81200000
 H      29.59700000      14.35200000      36.88100000
 O      25.40200000      24.95200000      39.38200000
 H      24.47400000      25.08500000      39.08900000
 H      25.24600000      24.51500000      40.23300000
 O      37.62000000      19.48900000      40.12400000
 H      37.83300000      18.50400000      40.26300000
 H      37.18100000      19.39000000      39.24000000
 O      37.09300000      22.11800000      40.52200000
 H      37.12800000      22.37300000      41.44300000
 H      37.48400000      21.30300000      40.47300000
 O      39.46900000      22.53600000      38.89100000
 H      38.78300000      22.75300000      38.30600000
 H      39.15000000      21.84800000      39.43500000
 O      28.27100000      34.64500000      36.65200000
 H      27.47000000      34.46000000      37.24100000
 H      27.71600000      34.83500000      35.86600000
 O      28.99800000      31.83700000      35.98600000
 H      29.04500000      31.67500000      34.99300000
 H      28.43700000      32.62100000      35.97100000
 O      26.28600000      29.77300000      37.81800000
 H      27.12200000      29.29000000      37.57700000
 H      25.83400000      29.06300000      38.31400000
 O      26.28700000      14.50700000      34.77400000
 H      26.90200000      13.86200000      34.47800000
 H      25.75500000      14.67800000      33.96600000
 O      25.50300000      37.24100000      34.92300000
 H      26.05200000      36.44800000      34.67800000
 H      25.13200000      36.90000000      35.76400000
 O      32.21400000      17.42900000      37.39600000
 H      32.70100000      18.19900000      37.75100000
 H      32.40900000      16.77300000      38.06700000
 O      21.68800000      33.76900000      34.64000000
 H      22.22600000      33.27800000      35.29800000
 H      21.73100000      34.62400000      35.06300000
 O      26.67100000      40.02400000      34.60300000
 H      27.57700000      39.80800000      34.30800000
 H      26.46400000      39.11300000      34.97400000
 O      34.98800000      35.28200000      36.01500000
 H      35.77400000      34.84900000      36.36600000
 H      35.32600000      35.57700000      35.13500000
 O      20.36000000      25.11100000      34.26300000
 H      21.07200000      25.74500000      34.56400000
 H      20.62800000      24.34000000      34.86600000
 O      31.62900000      29.73100000      38.02000000
 H      31.71500000      29.84800000      37.04800000
 H      32.55100000      30.01900000      38.25800000
 O      26.12200000      18.10900000      38.32600000
 H      26.27600000      17.18600000      38.11100000
 H      26.96100000      18.53300000      38.11100000
 O      37.33600000      25.04000000      39.32600000
 H      37.29700000      24.04200000      39.22100000
 H      38.17200000      25.04100000      39.84300000
 O      33.25800000      33.09500000      36.13100000
 H      33.92700000      33.81800000      36.02700000
 H      32.53900000      33.46400000      36.56300000
 O      21.30200000      30.86500000      40.00700000
 H      20.56800000      30.62000000      39.37900000
 H      21.30200000      31.81700000      39.80300000
 O      23.45200000      16.90400000      37.55400000
 H      24.03300000      17.53400000      37.12600000
 H      24.03000000      16.13900000      37.61300000
 O      32.66400000      19.32500000      34.91700000
 H      32.83700000      18.34500000      34.88800000
 H      33.58900000      19.60400000      35.14900000
 O      22.93200000      17.88600000      40.09000000
 H      23.15300000      17.29000000      39.35700000
 H      23.76800000      18.27900000      40.33600000
 O      34.25100000      25.11600000      34.20400000
 H      33.74300000      25.58200000      34.90600000
 H      33.90600000      25.60200000      33.41000000
 O      26.54900000      27.44000000      40.26900000
 H      26.17100000      26.70900000      39.71300000
 H      25.94500000      27.34300000      41.02400000
 O      23.18400000      29.05300000      39.87800000
 H      23.71300000      29.46300000      40.61200000
 H      22.54400000      29.80000000      39.75400000
 O      32.91700000      15.60300000      39.66300000
 H      33.50900000      14.85900000      39.55400000
 H      33.56800000      16.36600000      39.64200000
 O      31.35200000      35.57300000      39.67400000
 H      30.69300000      35.22600000      40.32300000
 H      31.40700000      34.79900000      39.05300000
 O      34.81800000      17.29300000      39.96100000
 H      35.58500000      17.31200000      39.27200000
 H      35.31500000      17.30800000      40.77500000
 O      29.50900000      31.34500000      38.52200000
 H      29.26700000      31.28900000      37.57800000
 H      30.26900000      30.70000000      38.59200000
 O      28.88400000      19.87100000      35.93000000
 H      28.23900000      20.54400000      35.73600000
 H      28.73800000      19.18100000      35.24900000
 O      34.86000000      26.43200000      38.66000000
 H      35.70600000      26.04500000      38.89800000
 H      35.08000000      27.39200000      38.72100000
 O      39.85800000      24.21800000      34.43200000
 H      38.91300000      24.34100000      34.31500000
 H      40.03500000      24.93500000      35.06200000
 O      39.73900000      35.24500000      35.88200000
 H      39.50300000      35.99400000      35.31400000
 H      39.16200000      34.55800000      35.57500000
 O      33.83400000      37.54900000      37.15600000
 H      34.47300000      36.96300000      36.70100000
 H      34.49200000      38.12200000      37.55600000
 O      34.44700000      21.37300000      40.15000000
 H      35.40100000      21.52900000      40.24900000
 H      34.17800000      21.34000000      41.09900000
 O      27.22400000      15.35300000      38.65500000
 H      28.02600000      14.84800000      38.37500000
 H      27.48900000      15.77200000      39.50700000
 O      31.34500000      20.73300000      36.84000000
 H      30.45400000      20.60800000      36.40600000
 H      31.86800000      20.19400000      36.22400000
 O      40.14600000      15.36600000      38.60400000
 H      39.99300000      14.58800000      39.22500000
 H      40.99400000      15.71200000      38.90600000
 O      26.74500000      35.17200000      34.45800000
 H      26.30300000      34.30900000      34.77200000
 H      26.67400000      35.06400000      33.52600000
 O      30.45900000      16.11600000      40.48900000
 H      30.70600000      16.63600000      41.24900000
 H      31.34000000      15.93400000      40.05600000
 O      27.78500000      27.38200000      36.63800000
 H      28.64000000      27.19400000      36.21700000
 H      27.20300000      26.74700000      36.16100000
 O      39.86500000      40.42000000      37.00500000
 H      39.26400000      41.19200000      37.14500000
 H      40.02700000      40.56300000      36.04700000
 O      22.31900000      15.02700000      40.02200000
 H      22.34400000      14.18900000      39.57900000
 H      23.14100000      15.04400000      40.57500000
 O      28.19000000      24.29900000      36.54200000
 H      27.76000000      23.77500000      35.82900000
 H      29.09700000      24.33600000      36.18500000
 O      36.01000000      38.50700000      35.34100000
 H      36.11100000      39.16200000      34.69600000
 H      36.00200000      37.62300000      34.85500000
 O      38.47900000      27.82100000      38.48700000
 H      38.05200000      26.95900000      38.49300000
 H      38.36500000      27.97300000      37.44200000
 O      26.81900000      32.19000000      39.40700000
 H      26.21000000      31.55400000      39.01900000
 H      27.69700000      31.85200000      39.10500000
 O      22.89000000      19.84700000      36.20400000
 H      23.58200000      20.45300000      35.79300000
 H      22.99900000      20.13900000      37.11500000
 O      37.22000000      24.93100000      35.00000000
 H      37.53800000      25.73100000      35.46300000
 H      36.31200000      25.14300000      34.78300000
 O      37.13300000      33.84000000      36.91200000
 H      37.64800000      33.04700000      37.12300000
 H      37.53300000      34.47200000      37.55400000
 O      21.24100000      35.88700000      36.11400000
 H      20.48200000      35.92900000      36.76900000
 H      20.81400000      36.35900000      35.37200000
 O      22.86900000      30.44300000      35.83200000
 H      22.06900000      29.93900000      36.14000000
 H      22.78500000      31.19000000      36.48500000
 O      35.54200000      29.66700000      39.03100000
 H      35.03900000      30.48300000      39.06800000
 H      35.63700000      29.41700000      40.01100000
 O      22.85700000      38.91500000      38.10400000
 H      21.93500000      39.09400000      37.76100000
 H      22.59400000      38.67300000      39.02700000
 O      38.41300000      17.70700000      34.77400000
 H      38.42400000      18.36500000      35.51700000
 H      39.07800000      17.06700000      35.13600000
 O      25.46200000      29.99100000      35.06100000
 H      24.48300000      29.76700000      35.18900000
 H      25.70300000      29.82200000      36.02700000
 O      34.15400000      32.09200000      38.86000000
 H      34.30500000      32.49500000      37.97000000
 H      34.58900000      32.82600000      39.39800000
 O      36.57000000      15.42700000      38.76400000
 H      36.11400000      15.03300000      39.61700000
 H      37.11800000      14.65400000      38.52200000
 O      30.57100000      27.11500000      38.94400000
 H      30.36300000      26.71200000      38.09700000
 H      30.98400000      27.97200000      38.61600000
 O      36.11200000      33.71900000      40.42500000
 H      36.31600000      33.78100000      41.36500000
 H      36.71200000      34.33900000      40.01500000
 O      29.37000000      18.08600000      37.94400000
 H      29.16900000      18.62600000      37.11900000
 H      30.26300000      17.72900000      37.67000000
 O      30.69600000      18.92600000      40.20300000
 H      30.46800000      19.83900000      40.06500000
 H      30.13400000      18.55000000      39.45700000
 O      31.38400000      38.41600000      39.24600000
 H      31.09300000      37.44900000      39.27300000
 H      32.22700000      38.32100000      38.70300000
 O      29.52300000      21.30300000      38.93000000
 H      29.64700000      21.08900000      38.02000000
 H      29.67100000      22.29700000      38.95100000
 O      32.85700000      26.20200000      36.16600000
 H      32.41800000      25.34700000      36.25400000
 H      33.36800000      26.27300000      36.98400000
 O      35.60400000      39.82200000      40.07100000
 H      34.86100000      40.06100000      39.45000000
 H      36.08600000      39.13800000      39.58100000
 O      38.13200000      13.35300000      37.54100000
 H      38.89700000      13.89900000      37.35300000
 H      38.60700000      12.45400000      37.38600000
 O      35.56200000      30.46500000      35.78400000
 H      35.54900000      29.87000000      35.04000000
 H      34.53800000      30.48500000      35.94300000
 O      30.42000000      27.22200000      35.95900000
 H      30.57000000      27.94300000      35.31500000
 H      31.29000000      26.85500000      36.08800000
 O      30.57200000      33.84900000      37.56900000
 H      29.64900000      34.20000000      37.33400000
 H      30.36700000      32.94600000      37.55500000
 O      32.90300000      34.23100000      44.33900000
 H      32.34000000      33.87900000      43.64300000
 H      32.27400000      34.46400000      45.08000000
 O      39.90100000      33.18000000      43.89100000
 H      39.57500000      33.42600000      44.77800000
 H      40.60100000      33.89400000      43.85600000
 O      30.86000000      39.09700000      43.44800000
 H      31.47300000      39.91800000      43.52400000
 H      31.18400000      38.75800000      42.54100000
 O      39.50100000      23.91400000      45.73700000
 H      40.13900000      24.30700000      46.34100000
 H      39.79100000      24.33700000      44.89400000
 O      32.04200000      28.17200000      43.95000000
 H      32.18800000      28.88900000      43.26300000
 H      31.44000000      28.53700000      44.58400000
 O      33.24400000      30.68600000      42.83200000
 H      33.79700000      30.90000000      43.62000000
 H      33.80300000      31.16100000      42.13100000
 O      36.89900000      32.62000000      46.58000000
 H      37.38200000      31.99600000      47.21000000
 H      37.60400000      33.35700000      46.51300000
 O      28.79500000      27.63300000      45.45700000
 H      28.92700000      27.55100000      44.49000000
 H      29.53100000      28.33000000      45.59000000
 O      40.05800000      25.57700000      42.13900000
 H      40.72800000      26.02700000      41.62500000
 H      39.90400000      26.17100000      42.89000000
 O      33.80900000      36.21400000      42.46600000
 H      33.14400000      36.04200000      41.77100000
 H      33.76500000      35.40400000      42.97500000
 O      30.22700000      25.38500000      42.29300000
 H      30.59000000      26.06300000      41.71100000
 H      29.46000000      25.12100000      41.67100000
 O      21.44600000      25.80500000      46.38600000
 H      20.62200000      25.40800000      46.47900000
 H      21.23500000      26.54400000      45.75200000
 O      29.10200000      17.07300000      45.82300000
 H      29.96400000      17.07200000      46.34700000
 H      29.20300000      18.00200000      45.45700000
 O      25.07100000      22.32500000      46.91200000
 H      24.53300000      21.65000000      47.33400000
 H      24.40800000      23.03200000      46.64400000
 O      31.06400000      25.09200000      47.86200000
 H      30.71500000      24.21200000      47.67200000
 H      30.35500000      25.65100000      47.58800000
 O      21.35200000      14.71200000      46.45900000
 H      21.90400000      14.21000000      45.82900000
 H      20.96900000      14.01100000      46.98100000
 O      37.69700000      26.91800000      46.47500000
 H      37.05800000      26.22400000      46.11000000
 H      37.00100000      27.56800000      46.84900000
 O      35.00600000      19.05100000      44.77300000
 H      34.74300000      20.02100000      44.73300000
 H      34.25500000      18.64200000      44.23500000
 O      27.46100000      35.91800000      44.47900000
 H      27.46800000      36.80200000      44.04200000
 H      27.61500000      35.38200000      43.67600000
 O      35.61300000      28.90200000      47.09900000
 H      35.37700000      29.15100000      48.01400000
 H      35.09000000      29.50800000      46.56600000
 O      28.96100000      30.72700000      48.28300000
 H      29.73500000      30.13900000      48.48100000
 H      29.07100000      30.82000000      47.31900000
 O      27.17700000      39.18600000      46.19300000
 H      26.80200000      40.11700000      46.11500000
 H      26.40600000      38.78400000      46.61000000
 O      22.66800000      36.02100000      48.34500000
 H      21.86300000      35.67600000      47.88400000
 H      23.35200000      35.79200000      47.65600000
 O      30.86500000      14.03300000      45.84600000
 H      31.52100000      14.65500000      45.47700000
 H      30.55700000      13.59500000      45.02600000
 O      28.36600000      38.27400000      43.82000000
 H      27.97800000      38.50300000      44.69300000
 H      29.21900000      38.73300000      43.83200000
 O      25.39100000      13.42400000      48.05400000
 H      25.93800000      13.11000000      48.78400000
 H      25.38400000      14.35200000      48.20100000
 O      25.78000000      35.32900000      46.80000000
 H      26.28500000      35.46800000      45.91900000
 H      26.40600000      34.75100000      47.24500000
 O      29.76800000      38.81300000      47.20100000
 H      30.07900000      39.78800000      47.20500000
 H      28.81200000      39.06300000      46.95300000
 O      35.77400000      37.65800000      43.33600000
 H      35.28200000      38.38000000      42.89600000
 H      35.18900000      36.92800000      43.02100000
 O      22.65200000      16.47500000      48.13900000
 H      22.30000000      16.00800000      47.42700000
 H      23.05900000      17.27600000      47.87100000
 O      38.43200000      27.14100000      49.22800000
 H      38.98900000      26.32900000      49.30100000
 H      38.29300000      27.10600000      48.24200000
 O      23.13000000      29.34800000      44.86800000
 H      22.24600000      28.95000000      44.73300000
 H      22.89000000      29.83500000      45.70600000
 O      32.27600000      38.56200000      48.40600000
 H      31.32900000      38.81900000      48.31900000
 H      32.58100000      38.89700000      47.53000000
 O      27.23100000      22.36000000      48.51500000
 H      26.72500000      22.40400000      49.37900000
 H      26.37100000      22.48400000      47.89900000
 O      34.88300000      32.76500000      49.06000000
 H      34.70700000      33.37200000      48.28100000
 H      35.81800000      32.99000000      49.21900000
 O      21.16900000      24.46900000      42.48800000
 H      21.59700000      23.53400000      42.81000000
 H      20.45800000      24.41300000      43.15100000
 O      24.96400000      27.06100000      44.30200000
 H      25.53400000      27.55200000      44.93200000
 H      24.19900000      27.68200000      44.32900000
 O      32.97100000      18.22000000      42.99500000
 H      33.53000000      18.09400000      42.19900000
 H      32.11400000      18.44900000      42.59800000
 O      24.83400000      31.61600000      44.15000000
 H      24.40000000      30.75800000      44.34300000
 H      25.77700000      31.34400000      44.34400000
 O      38.69400000      30.86600000      47.63600000
 H      39.04200000      30.04800000      47.43700000
 H      39.48400000      31.44100000      47.62000000
 O      23.89100000      24.49300000      45.70800000
 H      24.40100000      25.23300000      46.04100000
 H      22.99100000      24.89900000      45.66400000
 O      27.33600000      21.49400000      45.26100000
 H      27.94000000      22.25600000      45.04700000
 H      26.72700000      21.87500000      45.92700000
 O      29.92700000      22.60000000      47.77100000
 H      30.37500000      22.04400000      48.49800000
 H      29.01100000      22.64600000      48.17300000
 O      24.13100000      40.68900000      48.14900000
 H      23.54800000      40.01400000      47.70400000
 H      23.49600000      40.98200000      48.82700000
 O      39.57000000      26.98300000      44.68400000
 H      39.02100000      27.55100000      44.04700000
 H      38.91300000      26.90400000      45.43200000
 O      31.72000000      22.24000000      45.73100000
 H      31.73100000      23.12000000      45.30400000
 H      31.02100000      22.37300000      46.43600000
 O      24.94800000      38.00700000      47.27000000
 H      25.19100000      38.17900000      48.18600000
 H      25.38800000      37.13400000      47.16300000
 O      28.25000000      24.26500000      44.39900000
 H      27.58900000      24.26900000      43.73500000
 H      29.04800000      23.99000000      43.87400000
 O      35.81900000      29.02800000      43.69900000
 H      35.52800000      28.16200000      43.99200000
 H      36.77900000      28.95700000      43.85900000
 O      39.73800000      15.61600000      44.02100000
 H      40.58600000      16.03500000      43.81500000
 H      39.85300000      14.74900000      43.60500000
 O      35.78000000      25.31700000      45.38600000
 H      34.99600000      25.07600000      45.94100000
 H      35.27700000      25.73000000      44.63000000
 O      37.60600000      20.67500000      47.15900000
 H      37.60900000      20.54500000      48.12000000
 H      36.88300000      21.33700000      47.06300000
 O      34.72300000      34.11000000      46.57900000
 H      35.60400000      33.69100000      46.58700000
 H      34.56000000      34.01800000      45.60200000
 O      23.77200000      32.86800000      48.71800000
 H      24.33900000      32.09600000      48.44600000
 H      23.64500000      33.13600000      47.72500000
 O      34.12000000      17.72500000      47.05300000
 H      34.34700000      18.50500000      47.55500000
 H      34.27500000      18.00700000      46.15300000
 O      32.48000000      15.92300000      44.76500000
 H      32.51300000      16.66800000      44.11500000
 H      33.41000000      15.59200000      44.76900000
 O      28.10200000      25.43500000      46.86800000
 H      28.19400000      26.37300000      46.58900000
 H      28.41900000      25.01700000      46.02800000
 O      31.52500000      34.48200000      47.03100000
 H      31.11400000      35.26500000      46.60500000
 H      31.89300000      34.97600000      47.77000000
 O      25.49100000      25.92500000      47.41700000
 H      26.23600000      25.26100000      47.25300000
 H      25.84000000      26.71200000      46.96100000
 O      34.82300000      15.19100000      45.30700000
 H      35.79400000      15.41000000      45.25900000
 H      34.77400000      14.35600000      45.70200000
 O      31.87100000      24.55000000      44.31500000
 H      32.66000000      24.98300000      43.90300000
 H      31.17400000      24.87700000      43.65000000
 O      30.60200000      29.99600000      45.58300000
 H      30.16100000      30.65600000      44.92000000
 H      31.33400000      30.53800000      45.90700000
 O      32.94800000      38.52000000      45.83800000
 H      32.15700000      38.84200000      45.30100000
 H      32.87200000      37.55100000      45.67600000
 O      22.03300000      21.98600000      42.99800000
 H      21.48900000      21.18000000      42.95200000
 H      22.91100000      21.52100000      42.99000000
 O      37.93600000      31.64900000      42.47500000
 H      38.64800000      32.21300000      42.90700000
 H      37.65700000      32.26900000      41.76900000
 O      39.70400000      37.22600000      45.61800000
 H      38.81700000      37.57200000      45.75900000
 H      40.00500000      37.74300000      44.86200000
 O      30.25200000      36.49600000      46.05700000
 H      29.50500000      36.48200000      45.49800000
 H      29.97100000      37.28600000      46.64500000
 O      27.91300000      34.28900000      48.16700000
 H      27.98300000      35.26400000      48.40700000
 H      28.51900000      33.95500000      48.83500000
 O      27.45500000      13.04900000      42.87000000
 H      27.38000000      13.99900000      42.99600000
 H      26.78800000      12.70500000      43.50100000
 O      36.21300000      15.86300000      47.95100000
 H      35.29600000      16.18900000      47.58200000
 H      36.72000000      15.97700000      47.10400000
 O      38.60200000      28.96000000      42.51800000
 H      38.67000000      28.60900000      41.53900000
 H      38.20600000      29.82500000      42.27000000
 O      29.50100000      19.72700000      45.41300000
 H      30.21500000      20.44100000      45.27400000
 H      28.72700000      20.26100000      45.35700000
 O      27.82800000      16.15700000      43.01000000
 H      28.06900000      16.30400000      43.96200000
 H      28.71400000      16.27100000      42.63300000
 O      21.32400000      17.02400000      44.09600000
 H      21.88500000      16.71300000      44.81000000
 H      21.73900000      16.73100000      43.27100000
 O      20.88700000      19.54300000      42.33700000
 H      21.66800000      19.03900000      42.05000000
 H      20.58600000      19.04700000      43.08100000
 O      30.56400000      13.28800000      42.46100000
 H      29.72900000      12.87400000      42.55300000
 H      30.33200000      14.17300000      42.07900000
 O      37.17800000      37.97600000      46.01600000
 H      36.37800000      37.62800000      46.51500000
 H      36.74100000      37.97900000      45.15100000
 O      33.58600000      24.66200000      46.87600000
 H      33.09900000      24.57700000      46.02500000
 H      32.89800000      25.09900000      47.46700000
 O      29.88400000      33.87900000      42.88800000
 H      29.84300000      33.13500000      43.42700000
 H      29.01700000      33.87900000      42.38300000
 O      32.41200000      31.59200000      46.81000000
 H      32.17400000      32.49400000      47.02600000
 H      33.31800000      31.81200000      46.46700000
 O      34.60500000      40.16100000      46.91600000
 H      34.90100000      39.70500000      47.73800000
 H      34.19600000      39.37800000      46.44400000
 O      24.44100000      20.98300000      43.88900000
 H      24.23600000      20.76600000      44.81700000
 H      24.90500000      20.13500000      43.65500000
 O      22.30100000      30.29000000      47.18500000
 H      22.23000000      29.46400000      47.75600000
 H      22.66600000      30.87000000      47.91300000
 O      20.32800000      31.21100000      44.41300000
 H      19.54300000      30.66200000      44.32800000
 H      20.88200000      30.84000000      43.66300000
 O      24.59300000      14.72400000      43.22700000
 H      24.71900000      15.46200000      43.88900000
 H      24.93500000      13.98100000      43.79500000
 O      28.99600000      28.78600000      42.13800000
 H      28.08000000      28.51200000      42.00000000
 H      29.49600000      28.22700000      41.50300000
 O      23.36600000      33.36500000      45.98100000
 H      23.63200000      32.55200000      45.36000000
 H      24.12500000      33.92000000      45.70200000
 O      23.57100000      18.53200000      46.75500000
 H      23.00100000      19.30500000      46.73200000
 H      24.27700000      18.81700000      47.35900000
 O      34.70300000      19.80400000      48.36200000
 H      34.95500000      20.03300000      49.27600000
 H      34.59500000      20.72400000      47.99900000
 O      31.59000000      16.66900000      47.09900000
 H      32.44400000      17.13700000      47.29200000
 H      31.84000000      16.47900000      46.10600000
 O      34.31300000      26.39000000      42.97600000
 H      33.51500000      26.89300000      43.30200000
 H      34.07200000      26.40000000      42.01200000
 O      39.02700000      34.57300000      46.24100000
 H      39.15900000      35.54900000      46.16000000
 H      39.97100000      34.29300000      46.43800000
 O      23.12800000      39.06300000      45.54100000
 H      23.69300000      38.47800000      46.13200000
 H      22.75300000      38.34600000      44.98900000
 O      35.31300000      13.59500000      48.97100000
 H      35.71900000      14.41900000      48.63200000
 H      35.36300000      13.01500000      48.17800000
 O      38.47500000      37.17000000      42.40400000
 H      37.62500000      37.38100000      42.81900000
 H      38.83800000      38.11300000      42.29700000
 O      34.09600000      21.52600000      44.52600000
 H      33.23800000      21.86400000      44.83400000
 H      34.70300000      21.98800000      45.11700000
 O      36.96600000      23.10100000      45.00400000
 H      36.45400000      23.89300000      44.96400000
 H      37.70500000      23.38300000      45.53000000
 O      25.26400000      30.51100000      48.09400000
 H      24.69700000      29.75200000      48.18100000
 H      26.05000000      30.34900000      48.62400000
 O      21.68800000      36.81100000      44.42200000
 H      21.75100000      35.85300000      44.58200000
 H      20.70600000      36.91000000      44.61600000
 O      26.22900000      28.82700000      46.17700000
 H      26.10600000      29.74300000      46.42200000
 H      27.12900000      28.79900000      45.79900000
 O      35.27900000      22.69600000      47.29900000
 H      35.61500000      23.03100000      48.13800000
 H      34.54100000      23.26800000      47.12100000
 O      27.78900000      19.49800000      47.95700000
 H      27.88500000      19.71100000      46.97200000
 H      27.79300000      20.37900000      48.30100000
 O      31.41100000      29.61300000      48.64900000
 H      32.14700000      29.83500000      49.27000000
 H      31.67400000      30.09800000      47.80900000
 O      37.52800000      18.40800000      45.56100000
 H      37.68000000      19.19000000      46.23700000
 H      36.58100000      18.70700000      45.27600000
 O      25.82100000      18.53700000      42.60600000
 H      25.85700000      17.61700000      42.83100000
 H      26.44100000      18.59700000      41.84200000
 O      37.38100000      40.10800000      48.02900000
 H      37.38400000      39.17200000      47.67800000
 H      38.19900000      40.45700000      47.63400000
 O      24.71800000      40.42800000      43.59800000
 H      25.08400000      41.13100000      44.14700000
 H      24.40700000      39.80600000      44.37500000
 O      20.63300000      34.18500000      44.51100000
 H      20.38300000      34.38600000      45.46400000
 H      21.16200000      33.38600000      44.62200000
 O      34.97700000      31.23800000      45.25100000
 H      35.45400000      30.75400000      44.54400000
 H      35.69600000      31.77500000      45.67000000
 O      26.75600000      15.87700000      46.57200000
 H      26.57400000      16.41000000      47.36700000
 H      27.59300000      16.31700000      46.29500000
 O      25.36200000      23.47200000      43.36500000
 H      24.82100000      23.96400000      44.03500000
 H      25.14000000      22.54800000      43.62100000
 O      40.05900000      21.03800000      46.14400000
 H      39.98000000      22.00300000      45.91300000
 H      39.05800000      20.88600000      46.20600000
 O      29.37000000      32.85900000      46.27800000
 H      30.18300000      33.24900000      46.62900000
 H      28.71900000      33.44200000      46.74800000
 O      29.29900000      31.17900000      43.00000000
 H      29.19300000      31.63700000      42.11900000
 H      29.09900000      30.24700000      42.70300000
 O      37.38500000      15.78900000      45.48000000
 H      37.43500000      16.77900000      45.51500000
 H      38.14900000      15.64500000      44.88000000
 O      27.36600000      31.55600000      44.97700000
 H      28.06400000      31.35300000      44.26800000
 H      27.94800000      32.13400000      45.56400000
 O      29.14300000      14.82600000      48.13500000
 H      29.93300000      14.91300000      47.47600000
 H      28.41500000      14.91700000      47.46700000
 O      24.61200000      16.61200000      45.08000000
 H      24.23700000      17.43300000      45.36100000
 H      25.40100000      16.53600000      45.69100000
 O      22.23000000      20.99300000      47.72400000
 H      21.64300000      21.75100000      47.60700000
 H      22.23700000      20.96000000      48.75100000
 O      35.04000000      36.82900000      47.45600000
 H      34.63900000      35.91000000      47.26200000
 H      34.41800000      37.15100000      48.10400000
