39
XYZ file of cluster: frame_11500_9e77.46207.9d48b - created by MolEdiTo
 O       1.33100000      12.60300000      20.82900000
 H       0.86100000      11.92600000      21.32200000
 H       1.74000000      12.06200000      20.09100000
 O       3.80100000      13.30000000      14.75500000
 H       3.64200000      14.28200000      14.90300000
 H       4.42900000      13.07000000      15.42500000
 O       3.29700000       9.05500000      19.73900000
 H       2.64600000       8.56100000      19.23300000
 H       3.94600000       9.15300000      19.00000000
 O       6.59000000      13.15800000      13.95800000
 H       6.58500000      12.29800000      14.43300000
 H       6.69400000      13.71000000      14.76600000
 O       4.77900000       7.68400000      16.26000000
 H       4.02200000       7.05300000      16.03700000
 H       4.78100000       8.31300000      15.52900000
 O       5.94400000      13.67600000      16.69100000
 H       5.60100000      14.24700000      17.42100000
 H       6.82100000      13.32900000      17.03900000
 O       6.64800000      10.18900000      20.04300000
 H       7.30800000      10.90200000      19.81800000
 H       6.38000000      10.51600000      20.93000000
 O       4.95500000      10.70600000      17.13000000
 H       5.30400000      11.44100000      16.61100000
 H       4.06700000      10.52200000      16.85900000
 O       3.70300000      12.02900000      19.53700000
 H       4.11700000      11.54200000      18.82200000
 H       3.88900000      11.46500000      20.31900000
 O       2.24600000      10.58400000      16.50700000
 H       2.01600000      10.02700000      15.76100000
 H       1.31800000      10.92800000      16.71100000
 O       6.94500000      10.58500000      15.11400000
 H       6.78400000      10.09300000      15.96000000
 H       6.18900000      10.16500000      14.62900000
 O       7.19600000       8.73100000      17.77000000
 H       6.31300000       8.70800000      17.42900000
 H       7.12600000       9.22100000      18.69800000
 O       1.58500000       6.92700000      17.28400000
 H       1.34100000       6.08400000      16.79700000
 H       1.35500000       7.71600000      16.65100000
