70
XYZ file of cluster: frame_11500_20a55.193e3.5ef56 - created by MolEdiTo
 O       5.47100000       2.91300000      16.53100000
 H       5.35900000       2.38000000      17.34000000
 H       5.64900000       3.81600000      16.89600000
 O       9.51600000      10.94700000      14.70800000
 H       9.91000000      10.18700000      15.19400000
 H       8.56400000      10.74800000      14.79600000
 O       7.03000000       7.36500000      12.44600000
 H       7.31300000       7.31500000      13.37400000
 H       7.44700000       8.16500000      12.08800000
 O       4.77900000       7.68400000      16.26000000
 H       4.02200000       7.05300000      16.03700000
 H       4.78100000       8.31300000      15.52900000
 O       4.95500000      10.70600000      17.13000000
 H       5.30400000      11.44100000      16.61100000
 H       4.06700000      10.52200000      16.85900000
 O       9.87900000       3.12400000      16.82800000
 H       9.65400000       2.19000000      16.53400000
 H       9.45300000       3.63300000      16.08600000
 O       6.24800000       5.35000000      17.13400000
 H       5.79100000       5.93300000      16.56700000
 H       5.57300000       5.32800000      17.85200000
 O       6.94500000      10.58500000      15.11400000
 H       6.78400000      10.09300000      15.96000000
 H       6.18900000      10.16500000      14.62900000
 O       3.63700000       6.92300000      11.54000000
 H       4.33300000       7.06700000      10.82300000
 H       2.83800000       6.71800000      10.93500000
 O       4.82700000       8.63900000      13.51900000
 H       4.47400000       9.36800000      12.98000000
 H       5.32900000       8.04600000      12.84900000
 O      10.69900000       7.79900000      13.33300000
 H       9.87500000       8.39800000      13.24400000
 H      10.52500000       7.14200000      12.72200000
 O       7.19600000       8.73100000      17.77000000
 H       6.31300000       8.70800000      17.42900000
 H       7.12600000       9.22100000      18.69800000
 O      10.13400000       8.97400000      16.41500000
 H      11.01800000       8.51300000      16.68000000
 H       9.85900000       9.27700000      17.25800000
 O       3.72900000       5.55600000      14.15600000
 H       3.77900000       5.86600000      13.23900000
 H       3.13100000       4.82700000      14.01000000
 O       7.88600000       7.17800000      15.21300000
 H       8.68300000       7.69900000      15.49100000
 H       7.38800000       6.97900000      16.06600000
 C      11.46100000      10.99500000      11.99300000
 C      11.26500000      10.94500000      10.42900000
 C       9.27700000       9.37400000      10.53500000
 H       9.34400000      11.44500000      10.85100000
 H      10.51900000      11.78300000      13.40400000
 O       9.57800000      11.02500000       8.74400000
 O      12.88400000      10.94100000      12.33500000
 O      10.99200000      12.15500000      12.53500000
 C       9.79800000      10.74500000      10.10500000
 O      11.92500000      12.14100000       9.83000000
 H      11.79100000      10.04500000      10.07400000
 O       8.90200000       9.51400000      11.93700000
 O      10.12700000       8.25800000      10.32700000
 H      10.10000000       8.13500000       9.32000000
 H      11.22500000      12.86800000       9.77400000
 H      10.54700000      10.90300000       8.42700000
 O       8.85500000       6.49900000      17.74800000
 H       8.45500000       7.32500000      18.08400000
 H       8.05900000       6.01700000      17.32200000
 O       8.65100000       4.45500000      14.69600000
 H       8.69200000       3.92400000      13.86100000
 H       8.11800000       5.16100000      14.51300000
 O       7.01900000       5.15800000      10.75800000
 H       6.13800000       4.98800000      10.86600000
 H       7.21200000       6.01900000      11.17300000
