42
XYZ file of cluster: frame_11500_a5adb.1feda.4d86c - created by MolEdiTo
 O      19.28800000       3.70400000       9.44000000
 H      19.67900000       2.77000000       9.35100000
 H      18.92700000       3.93500000       8.56100000
 O      16.94300000       8.85100000       9.46600000
 H      16.15100000       9.42500000       9.82700000
 H      17.62000000       9.49900000       9.25200000
 O      17.33300000       6.34100000      10.09700000
 H      16.58500000       6.31900000      10.63600000
 H      17.16800000       7.28900000       9.85900000
 O      16.25300000       4.13100000       7.91600000
 H      15.51200000       4.25700000       7.32700000
 H      16.94600000       4.65100000       7.53600000
 O      15.31600000      10.53800000      11.03900000
 H      14.40300000      10.65300000      11.29400000
 H      15.66700000      11.41800000      11.37500000
 O      19.21100000       6.29600000       7.93900000
 H      19.39400000       7.13400000       7.54200000
 H      18.41100000       6.44600000       8.39400000
 O      15.61100000      10.65700000       6.88000000
 H      15.76400000       9.82900000       7.32200000
 H      16.17900000      11.39000000       7.30800000
 O      18.92300000      10.17400000      12.04100000
 H      18.59500000       9.53000000      12.70200000
 H      19.72100000      10.55500000      12.49300000
 O      15.08200000       5.40800000      11.94100000
 H      14.99000000       5.43500000      12.86900000
 H      15.75900000       4.66300000      11.74500000
 O      20.26800000       9.35400000       8.54200000
 H      21.08100000       8.98300000       8.77600000
 H      20.19800000       9.42900000       7.54100000
 O      17.22200000       3.75200000      11.93400000
 H      17.71300000       4.35000000      11.25600000
 H      17.90500000       3.05400000      12.20100000
 O      15.41200000       8.42800000      13.02000000
 H      14.87500000       8.93700000      13.57100000
 H      15.61800000       9.16100000      12.36900000
 O      19.23300000       7.17100000      11.82300000
 H      19.11000000       8.16100000      11.53400000
 H      18.63900000       6.59700000      11.31000000
 O      17.04900000       5.68000000      14.16400000
 H      16.59300000       5.98100000      14.98900000
 H      17.01200000       6.38500000      13.44800000
