30
XYZ file of cluster: frame_11500_8734f.ca40f.a1349 - created by MolEdiTo
 O      12.42000000      18.60000000      15.76500000
 H      12.95600000      19.43700000      15.76500000
 H      12.05600000      18.65400000      16.68600000
 O      13.07600000      20.59200000      20.65700000
 H      13.26500000      20.55900000      21.66600000
 H      12.17500000      20.87700000      20.55400000
 O      12.73500000      18.09300000      18.79600000
 H      12.84000000      18.94000000      19.20500000
 H      11.81300000      17.78800000      19.07900000
 O      14.62900000      20.32900000      15.15200000
 H      15.53300000      20.24100000      15.60000000
 H      14.72800000      19.73500000      14.30600000
 O      16.73500000      18.31300000      15.41400000
 H      17.65200000      17.86000000      15.50200000
 H      16.14200000      17.54700000      15.59400000
 O      16.44800000      17.91500000      18.19900000
 H      16.78000000      18.63800000      17.52300000
 H      15.69900000      18.41300000      18.63600000
 O      15.56500000      22.33800000      19.85300000
 H      15.55600000      23.01900000      19.16900000
 H      14.63900000      22.11600000      19.91000000
 O      15.29800000      24.03500000      17.86100000
 H      15.76900000      24.75600000      17.42500000
 H      14.45500000      24.23300000      17.54900000
 O      17.18200000      22.31800000      16.55200000
 H      16.84300000      23.19500000      16.83800000
 H      17.86400000      22.12000000      17.28600000
 O      12.60700000      24.46100000      17.40500000
 H      12.55200000      25.39300000      17.06300000
 H      11.75400000      24.07400000      17.34000000
