27
XYZ file of cluster: frame_11500_a646d.ca40f.a1349 - created by MolEdiTo
 O      16.73500000      18.31300000      15.41400000
 H      17.65200000      17.86000000      15.50200000
 H      16.14200000      17.54700000      15.59400000
 O      16.44800000      17.91500000      18.19900000
 H      16.78000000      18.63800000      17.52300000
 H      15.69900000      18.41300000      18.63600000
 O      14.62900000      20.32900000      15.15200000
 H      15.53300000      20.24100000      15.60000000
 H      14.72800000      19.73500000      14.30600000
 O      20.34800000      24.73300000      19.36800000
 H      21.17800000      24.30000000      19.21500000
 H      20.28600000      24.69000000      20.37400000
 O      19.21200000      22.27900000      18.40100000
 H      19.34900000      23.26700000      18.39800000
 H      20.01900000      22.02800000      18.92300000
 O      18.87400000      23.77400000      14.65800000
 H      19.55000000      23.09700000      14.41000000
 H      18.30700000      23.16400000      15.23200000
 O      15.56500000      22.33800000      19.85300000
 H      15.55600000      23.01900000      19.16900000
 H      14.63900000      22.11600000      19.91000000
 O      15.29800000      24.03500000      17.86100000
 H      15.76900000      24.75600000      17.42500000
 H      14.45500000      24.23300000      17.54900000
 O      17.18200000      22.31800000      16.55200000
 H      16.84300000      23.19500000      16.83800000
 H      17.86400000      22.12000000      17.28600000
