%chk=h2o2.chk
%mem=16000MB
%nproc=4
#B3PW91/6-31G* Opt
SCRF(CPCM,Solvent=Water)
scf=(xqc,conver=8)
IOp(2/11=1)

h2o2

0 1
H
O 1 1.010
O 2 1.483 1 96.040
H 3 1.010 2 96.040 1 86.247

--link1--
%chk=h2o2.chk
%mem=16000MB
%nproc=4
#B3PW91/6-31G* freq=roa
SCRF(CPCM,Solvent=Water)
scf=(xqc,conver=8)
IOp(2/11=1) geom=checkpoint guess=checkpoint

h2o2
0 1

532nm
