123
XYZ file of cluster: frame_5000_ca3d6.6fa6b.9a531 - created by MolEdiTo
 O      27.91600000      17.11500000      27.27700000
 H      27.55700000      16.19000000      27.42200000
 H      28.74100000      16.98500000      26.85500000
 O      29.63300000      19.64800000      21.57200000
 H      30.54800000      19.11300000      21.46000000
 H      29.60300000      19.71000000      22.51500000
 O      26.53500000      18.16700000      29.54400000
 H      27.01300000      17.65500000      28.87200000
 H      27.07100000      18.98000000      29.66900000
 O      29.56900000      25.15100000      24.18600000
 H      29.54000000      25.05200000      23.21000000
 H      28.68400000      25.42400000      24.48400000
 O      26.32600000      22.62200000      25.81600000
 H      25.87000000      22.51400000      24.97100000
 H      26.97100000      21.95400000      25.62000000
 O      26.97600000      25.64100000      25.27200000
 H      27.48100000      25.16600000      26.00700000
 H      26.21500000      25.11300000      25.04400000
 O      27.81600000      24.12800000      27.53900000
 H      27.13700000      23.64700000      27.00900000
 H      28.02800000      23.46500000      28.19900000
 O      26.52800000      19.61100000      22.92300000
 H      26.31600000      19.64600000      21.96600000
 H      27.15200000      18.88400000      23.05000000
 O      27.09600000      21.60600000      28.58500000
 H      26.47800000      21.10100000      28.08600000
 H      27.96600000      21.13100000      28.56900000
 O      28.44400000      17.46900000      23.59700000
 H      27.85000000      17.22300000      24.37600000
 H      29.35500000      17.07300000      23.68900000
 O      27.88200000      20.35700000      25.49700000
 H      27.22200000      19.63400000      25.83600000
 H      28.75600000      19.97400000      25.72700000
 O      28.41600000      22.15500000      21.86100000
 H      29.38500000      22.11300000      22.01400000
 H      28.14500000      21.24200000      21.66600000
 O      28.00400000      25.34000000      30.66700000
 H      27.59600000      25.24700000      29.75000000
 H      28.86200000      24.85300000      30.56200000
 O      29.79700000      20.39500000      28.93500000
 H      30.75600000      20.56400000      28.71200000
 H      29.74300000      20.46200000      29.94200000
 O      26.61100000      15.01100000      30.77500000
 H      27.38900000      14.32700000      30.68900000
 H      27.06800000      15.89000000      30.64900000
 O      29.80200000      15.69400000      20.28000000
 H      29.18100000      15.69600000      21.02200000
 H      29.66800000      16.61500000      19.87300000
 O      29.66600000      27.08400000      27.95200000
 H      30.52200000      27.35300000      27.48300000
 H      29.77200000      26.10400000      28.21100000
 O      25.80800000      22.19700000      23.14000000
 H      25.88500000      21.23600000      23.24300000
 H      26.61600000      22.32500000      22.58600000
 O      28.03800000      26.34300000      22.72200000
 H      27.43200000      26.37400000      21.96400000
 H      27.61400000      25.77900000      23.35600000
 O      29.81400000      16.22700000      29.17200000
 H      30.34200000      16.69800000      28.57900000
 H      28.91200000      16.36100000      28.91000000
 O      33.94000000      16.62100000      30.61100000
 H      34.29700000      15.93400000      31.25000000
 H      32.98200000      16.59600000      30.71700000
 O      32.95100000      17.83400000      21.12600000
 H      33.24100000      17.30500000      20.31100000
 H      32.76500000      17.12700000      21.79000000
 O      35.78300000      25.58100000      30.58700000
 H      35.32300000      25.90300000      29.80100000
 H      35.90900000      26.37900000      31.09300000
 O      32.30400000      25.43900000      28.31200000
 H      33.13700000      24.93200000      28.08500000
 H      31.63600000      24.88600000      27.86900000
 O      33.75900000      19.90800000      23.20800000
 H      34.51600000      19.85200000      23.79600000
 H      34.02100000      19.40900000      22.32100000
 O      31.91700000      16.00600000      23.00200000
 H      32.45800000      15.44400000      23.60700000
 H      31.69100000      15.37400000      22.30800000
 O      34.94800000      16.55200000      22.72000000
 H      34.17000000      17.11200000      22.93200000
 H      35.58200000      17.04400000      23.30200000
 O      33.56000000      25.11600000      24.32200000
 H      33.07400000      25.98300000      24.58900000
 H      32.90600000      24.33300000      24.19000000
 O      35.42800000      23.56700000      26.56500000
 H      34.61700000      23.60400000      26.17300000
 H      35.58400000      22.58500000      26.91600000
 O      34.95600000      24.79100000      21.68500000
 H      35.24600000      25.69900000      21.74100000
 H      34.05100000      24.71100000      22.10100000
 O      32.01300000      17.36300000      26.70800000
 H      32.10300000      18.19700000      26.15200000
 H      32.64200000      16.63200000      26.40000000
 O      34.31800000      18.75600000      27.92600000
 H      34.04500000      17.94800000      28.34400000
 H      33.44200000      19.06800000      27.65500000
 O      35.99200000      26.38000000      27.07700000
 H      35.95100000      26.21500000      28.05300000
 H      35.75500000      25.55000000      26.70600000
 O      32.17400000      22.52300000      27.20100000
 H      32.48700000      22.55200000      28.15000000
 H      31.32700000      22.03900000      27.25000000
 O      34.10700000      15.74000000      28.47800000
 H      33.40400000      15.13300000      28.60300000
 H      34.41800000      15.92300000      29.38100000
 O      35.80600000      20.68300000      26.61500000
 H      35.42700000      19.78200000      26.66600000
 H      36.58200000      20.65000000      26.02000000
 O      35.90900000      21.07000000      29.61500000
 H      35.85400000      20.07900000      29.61600000
 H      36.47800000      21.19600000      28.90000000
 O      32.46100000      22.34800000      22.64900000
 H      32.99600000      22.46000000      21.87300000
 H      32.76700000      21.59100000      23.12200000
 O      35.48100000      18.08400000      24.83900000
 H      36.04000000      17.49500000      25.29300000
 H      35.57100000      19.01200000      25.27900000
 O      33.35400000      22.22900000      29.67800000
 H      33.30800000      22.61600000      30.59800000
 H      34.26600000      21.83500000      29.61900000
 O      32.16500000      19.87800000      25.58200000
 H      32.30400000      19.86100000      24.68600000
 H      31.98600000      20.85000000      25.67700000
