157
XYZ file of cluster: frame_5000_467ce.49eac.1f952 - created by MolEdiTo
 O      16.20700000      10.80300000      14.83100000
 H      15.60400000      10.13800000      14.54700000
 H      15.80600000      11.20400000      15.62200000
 O      20.61200000      14.40800000      13.43400000
 H      21.10200000      15.05800000      12.92000000
 H      21.19000000      13.95800000      14.10600000
 O      15.31800000      16.36200000       9.18700000
 H      14.78200000      16.14100000       8.40200000
 H      14.79200000      16.04100000       9.84700000
 O      12.90200000      12.01200000      13.92200000
 H      12.13000000      12.60000000      13.78900000
 H      13.57800000      12.30000000      13.27700000
 O      17.74800000      18.48400000      12.86900000
 H      16.81300000      18.70700000      13.10400000
 H      18.26700000      19.33100000      12.99800000
 O      17.80400000      21.38800000       7.87300000
 H      17.18000000      20.69100000       8.21600000
 H      17.30400000      22.14600000       7.35100000
 O      19.89400000      16.16100000       7.37900000
 H      20.70800000      16.34800000       6.82800000
 H      19.21000000      16.49300000       6.74700000
 O      18.93100000      11.55900000      13.85300000
 H      18.36900000      11.58100000      13.08500000
 H      19.41100000      12.41700000      13.86700000
 O      15.34900000      19.50900000      14.33400000
 H      15.85100000      19.69100000      15.14700000
 H      14.96500000      20.38100000      14.02000000
 O      15.95800000      19.98500000       9.41300000
 H      15.05000000      20.05800000       9.01900000
 H      16.10700000      19.02300000       9.46400000
 O      17.06800000      15.36300000       4.87800000
 H      16.61600000      15.82500000       4.06700000
 H      16.34800000      15.47000000       5.56300000
 O      10.34800000      17.54200000       5.94500000
 H      11.24600000      17.51200000       6.22700000
 H      10.09100000      18.50900000       5.95500000
 O      10.15300000      11.23800000      12.44100000
 H      10.49600000      10.32900000      12.59700000
 H      10.00600000      11.66800000      13.27400000
 O      18.72800000      15.84000000       9.17800000
 H      19.35000000      16.40800000       8.73300000
 H      19.19600000      14.96200000       9.16900000
 O      18.44300000      11.67200000      11.41800000
 H      17.55900000      11.59500000      11.89300000
 H      18.49500000      10.91300000      10.77400000
 O      10.70100000      16.22800000       8.98600000
 H      11.19900000      16.91300000       8.44100000
 H      10.66900000      16.61400000       9.83900000
 O      15.21600000      13.31000000      12.36400000
 H      14.72500000      14.08400000      12.08800000
 H      16.13400000      13.70200000      12.50300000
 O      20.19500000      17.19300000      10.61100000
 H      20.40900000      16.19600000      10.59200000
 H      19.40000000      17.33400000      10.09900000
 O      20.01000000      11.91500000      10.94100000
 H      19.26600000      11.65800000      11.49000000
 H      20.06800000      11.39000000      10.08200000
 O      20.11200000      18.34500000      13.90500000
 H      20.75900000      17.58700000      13.94200000
 H      19.88200000      18.43300000      14.88600000
 O      11.21400000      18.61400000      14.36700000
 H      11.90800000      18.78000000      15.00800000
 H      11.58800000      17.81300000      13.87700000
 O      18.53300000      18.47300000       8.40100000
 H      18.57200000      19.38900000       8.16800000
 H      19.42500000      18.13400000       8.07300000
 O      18.77500000      20.51400000      14.25000000
 H      19.73200000      20.78700000      14.37400000
 H      18.61800000      20.12600000      15.16500000
 O      14.64000000      15.84700000       5.97500000
 H      13.78000000      16.35300000       5.66400000
 H      14.25700000      15.03400000       6.34400000
 O      18.43200000      20.25900000      10.62800000
 H      18.64700000      19.51200000      11.23900000
 H      17.62300000      19.93600000      10.14500000
 O      16.98500000      18.20400000       6.78500000
 H      17.45700000      18.06500000       7.65200000
 H      16.18900000      17.62800000       6.70400000
 O      11.70500000      13.19000000      10.89200000
 H      10.93800000      12.63200000      11.26700000
 H      12.40600000      12.50000000      10.91700000
 O      10.02800000      13.98200000      14.08600000
 H      10.01800000      13.34400000      14.86700000
 H      10.53600000      14.73100000      14.54800000
 O      18.52500000      12.29900000      16.16000000
 H      18.88800000      12.00500000      15.28800000
 H      19.14000000      12.16900000      16.90800000
 O      15.64400000      12.39400000       4.84300000
 H      15.80600000      11.93100000       5.74800000
 H      16.18000000      13.19800000       4.82600000
 C      15.94500000      14.41000000      16.65800000
 C      16.41500000      15.20700000      15.33500000
 C      14.37600000      16.72400000      15.07200000
 H      16.36300000      17.20300000      14.49600000
 H      17.55900000      13.92600000      16.66600000
 O      16.26000000      17.41300000      16.60500000
 O      14.83700000      14.43600000      17.16700000
 O      16.90800000      14.04500000      17.43000000
 C      15.87100000      16.67700000      15.39600000
 O      17.80300000      15.18600000      15.05700000
 H      16.02700000      14.68300000      14.54900000
 O      13.92600000      16.36700000      13.98600000
 O      13.65500000      17.32300000      16.00800000
 H      14.38600000      17.52300000      16.68900000
 H      18.00700000      15.39200000      14.07500000
 H      17.22700000      17.44700000      16.69900000
 O      11.61800000      12.79400000       7.10900000
 H      11.34100000      12.46400000       6.23600000
 H      12.54700000      13.18300000       6.78400000
 O      12.94200000      20.07800000       8.84000000
 H      12.18000000      20.72000000       8.54700000
 H      12.81600000      19.85300000       9.77800000
 O      14.98300000      11.36500000       8.73600000
 H      14.15800000      11.06300000       9.20500000
 H      15.27900000      10.49400000       8.37300000
 O      20.92500000      10.51000000      15.73800000
 H      20.01400000      10.59200000      15.37300000
 H      20.91400000      11.25800000      16.36600000
 O       9.73600000      20.01400000       8.75500000
 H      10.49200000      20.53100000       8.36100000
 H       8.99500000      20.16200000       8.16900000
 O      17.43400000      15.90900000      12.27600000
 H      17.70500000      16.79600000      12.54100000
 H      17.76700000      15.85900000      11.30300000
 O      17.98900000      11.94400000       5.80100000
 H      17.34100000      12.16200000       6.53200000
 H      18.89200000      12.02600000       6.08500000
 O      12.43900000      13.85500000      16.07000000
 H      13.01100000      13.17300000      15.60700000
 H      13.03900000      13.97700000      16.86700000
 O      12.45200000      10.35700000       9.68100000
 H      11.66100000      10.74500000       9.19500000
 H      12.18700000       9.48500000      10.01700000
 O      19.98300000      21.55200000       4.58700000
 H      20.00400000      20.53500000       4.31000000
 H      19.46300000      21.41100000       5.45200000
 O      11.02600000      18.57800000      10.93000000
 H      10.81900000      19.21900000      11.61100000
 H      10.45300000      18.86200000      10.20800000
 O      18.90500000      13.69100000       7.87800000
 H      19.71100000      13.19800000       7.99900000
 H      19.23600000      14.53500000       7.58200000
 O      13.61700000      15.27200000      11.18500000
 H      13.45300000      15.68100000      12.11800000
 H      12.70700000      14.94700000      11.04500000
 O      19.14900000      19.08300000       4.71600000
 H      19.67400000      18.26600000       4.78600000
 H      18.54200000      19.02600000       5.48400000
 O      16.02300000      20.64000000       5.81000000
 H      16.92300000      20.96800000       5.52300000
 H      16.16300000      19.72200000       5.72200000
 O      17.18300000      13.09300000       7.56500000
 H      17.60200000      13.78600000       8.15400000
 H      16.42300000      12.70300000       8.07500000
 O      14.06000000      13.85300000       7.75600000
 H      14.46300000      12.89800000       7.75300000
 H      13.27900000      13.70700000       8.34400000
