160
XYZ file of cluster: frame_5000_4e690.20f4f.1f2dc - created by MolEdiTo
 O      16.20700000      10.80300000      14.83100000
 H      15.60400000      10.13800000      14.54700000
 H      15.80600000      11.20400000      15.62200000
 O      14.06000000      13.85300000       7.75600000
 H      14.46300000      12.89800000       7.75300000
 H      13.27900000      13.70700000       8.34400000
 O      20.61200000      14.40800000      13.43400000
 H      21.10200000      15.05800000      12.92000000
 H      21.19000000      13.95800000      14.10600000
 O      19.63300000       8.58800000       4.94600000
 H      20.52500000       8.32000000       5.32600000
 H      19.73100000       9.01000000       4.01500000
 O      12.90200000      12.01200000      13.92200000
 H      12.13000000      12.60000000      13.78900000
 H      13.57800000      12.30000000      13.27700000
 O      17.28200000       4.84600000       9.58900000
 H      16.34800000       4.67800000       9.62100000
 H      17.52300000       5.46700000      10.30800000
 O      18.93100000      11.55900000      13.85300000
 H      18.36900000      11.58100000      13.08500000
 H      19.41100000      12.41700000      13.86700000
 O      17.06800000      15.36300000       4.87800000
 H      16.61600000      15.82500000       4.06700000
 H      16.34800000      15.47000000       5.56300000
 O      11.06300000       6.17200000       7.18900000
 H      10.34000000       6.12500000       6.52700000
 H      11.79400000       6.59200000       6.73100000
 O      18.72800000      15.84000000       9.17800000
 H      19.35000000      16.40800000       8.73300000
 H      19.19600000      14.96200000       9.16900000
 O      10.15300000      11.23800000      12.44100000
 H      10.49600000      10.32900000      12.59700000
 H      10.00600000      11.66800000      13.27400000
 O      18.44300000      11.67200000      11.41800000
 H      17.55900000      11.59500000      11.89300000
 H      18.49500000      10.91300000      10.77400000
 O      18.33200000       5.00900000       7.89900000
 H      17.44600000       4.82000000       8.22700000
 H      18.22100000       5.50300000       7.09800000
 O      14.14100000       6.58600000      12.47000000
 H      13.43600000       6.43900000      13.13700000
 H      14.98200000       6.52700000      13.03300000
 O      19.14800000       4.95600000      10.80700000
 H      19.03500000       5.50400000      10.08000000
 H      18.46300000       4.22900000      10.73800000
 O      15.21600000      13.31000000      12.36400000
 H      14.72500000      14.08400000      12.08800000
 H      16.13400000      13.70200000      12.50300000
 O      18.43700000       4.86700000       5.35000000
 H      18.74800000       5.26200000       4.55700000
 H      17.47800000       5.14400000       5.37200000
 O      11.12800000       5.53400000      10.18900000
 H      11.57700000       4.70400000      10.52900000
 H      11.00300000       5.41900000       9.21500000
 O      18.89200000      10.14400000       8.54500000
 H      19.64000000      10.22800000       7.92800000
 H      18.33900000       9.35200000       8.37200000
 O      20.01000000      11.91500000      10.94100000
 H      19.26600000      11.65800000      11.49000000
 H      20.06800000      11.39000000      10.08200000
 O      18.92700000       7.90800000      15.57700000
 H      19.82900000       8.24100000      15.47100000
 H      18.59700000       8.13200000      16.49200000
 O      17.66500000       9.42900000      12.84700000
 H      18.49300000       9.36000000      13.36700000
 H      17.06900000       9.71200000      13.57800000
 O      19.51200000       5.65900000      14.05400000
 H      18.77100000       6.01000000      14.58300000
 H      19.05200000       4.97800000      13.47300000
 O      13.49800000       8.17100000       4.59100000
 H      14.44500000       8.52700000       4.45000000
 H      13.30300000       8.69400000       5.38200000
 O      14.64000000      15.84700000       5.97500000
 H      13.78000000      16.35300000       5.66400000
 H      14.25700000      15.03400000       6.34400000
 O      11.70500000      13.19000000      10.89200000
 H      10.93800000      12.63200000      11.26700000
 H      12.40600000      12.50000000      10.91700000
 O      10.02800000      13.98200000      14.08600000
 H      10.01800000      13.34400000      14.86700000
 H      10.53600000      14.73100000      14.54800000
 O      18.52500000      12.29900000      16.16000000
 H      18.88800000      12.00500000      15.28800000
 H      19.14000000      12.16900000      16.90800000
 O      15.64400000      12.39400000       4.84300000
 H      15.80600000      11.93100000       5.74800000
 H      16.18000000      13.19800000       4.82600000
 C      15.94500000      14.41000000      16.65800000
 C      16.41500000      15.20700000      15.33500000
 C      14.37600000      16.72400000      15.07200000
 H      16.36300000      17.20300000      14.49600000
 H      17.55900000      13.92600000      16.66600000
 O      16.26000000      17.41300000      16.60500000
 O      14.83700000      14.43600000      17.16700000
 O      16.90800000      14.04500000      17.43000000
 C      15.87100000      16.67700000      15.39600000
 O      17.80300000      15.18600000      15.05700000
 H      16.02700000      14.68300000      14.54900000
 O      13.92600000      16.36700000      13.98600000
 O      13.65500000      17.32300000      16.00800000
 H      14.38600000      17.52300000      16.68900000
 H      18.00700000      15.39200000      14.07500000
 H      17.22700000      17.44700000      16.69900000
 O      11.61800000      12.79400000       7.10900000
 H      11.34100000      12.46400000       6.23600000
 H      12.54700000      13.18300000       6.78400000
 O      14.98300000      11.36500000       8.73600000
 H      14.15800000      11.06300000       9.20500000
 H      15.27900000      10.49400000       8.37300000
 O      21.31200000       4.93600000       8.07500000
 H      20.53000000       5.42100000       8.44300000
 H      21.85100000       4.56900000       8.87300000
 O      20.92500000      10.51000000      15.73800000
 H      20.01400000      10.59200000      15.37300000
 H      20.91400000      11.25800000      16.36600000
 O      12.51200000       6.38300000      14.68600000
 H      11.73100000       5.79000000      14.95700000
 H      12.23100000       7.27500000      14.65900000
 O      17.98900000      11.94400000       5.80100000
 H      17.34100000      12.16200000       6.53200000
 H      18.89200000      12.02600000       6.08500000
 O      12.43900000      13.85500000      16.07000000
 H      13.01100000      13.17300000      15.60700000
 H      13.03900000      13.97700000      16.86700000
 O      12.45200000      10.35700000       9.68100000
 H      11.66100000      10.74500000       9.19500000
 H      12.18700000       9.48500000      10.01700000
 O      18.90500000      13.69100000       7.87800000
 H      19.71100000      13.19800000       7.99900000
 H      19.23600000      14.53500000       7.58200000
 O      13.61700000      15.27200000      11.18500000
 H      13.45300000      15.68100000      12.11800000
 H      12.70700000      14.94700000      11.04500000
 O      16.59700000       6.57400000      14.50700000
 H      17.09500000       7.17300000      15.10400000
 H      16.77100000       5.65500000      14.89600000
 O      18.09500000       6.58000000      11.82100000
 H      17.78400000       6.23600000      12.67800000
 H      17.81200000       7.59000000      11.80900000
 O      12.72400000       8.39900000       7.19600000
 H      13.35100000       8.15900000       7.96600000
 H      11.82700000       8.18400000       7.54200000
 O      15.47700000       5.33100000       5.88100000
 H      14.86100000       5.61900000       5.14200000
 H      14.81400000       4.90900000       6.55400000
 O      16.10100000       8.57300000       9.04500000
 H      16.42300000       8.67000000       9.88700000
 H      15.50200000       7.79200000       8.99200000
 O      17.18300000      13.09300000       7.56500000
 H      17.60200000      13.78600000       8.15400000
 H      16.42300000      12.70300000       8.07500000
 O      18.01500000       7.80200000       5.06000000
 H      18.90200000       8.03800000       5.45600000
 H      17.48200000       7.23100000       5.70900000
 O      13.53300000       6.70700000       9.25600000
 H      12.74000000       6.10600000       9.42900000
 H      13.84500000       7.00400000      10.14800000
 O      14.35400000       8.59300000      14.93400000
 H      14.07000000       7.79100000      14.44600000
 H      14.20200000       8.17300000      15.81500000
