160
XYZ file of cluster: frame_5000_6b014.1ee84.1f2dc - created by MolEdiTo
 O      22.67100000      10.07400000      13.28900000
 H      22.30200000       9.10800000      13.19000000
 H      22.09000000      10.51500000      13.82200000
 O      16.20700000      10.80300000      14.83100000
 H      15.60400000      10.13800000      14.54700000
 H      15.80600000      11.20400000      15.62200000
 O      22.00300000       6.73300000      10.89500000
 H      21.02900000       6.90600000      10.96600000
 H      22.46500000       7.61700000      10.85900000
 O      23.80700000       8.80300000      10.92200000
 H      24.22500000       8.59400000      11.78100000
 H      24.50100000       9.47100000      10.62400000
 O      20.61200000      14.40800000      13.43400000
 H      21.10200000      15.05800000      12.92000000
 H      21.19000000      13.95800000      14.10600000
 O      19.63300000       8.58800000       4.94600000
 H      20.52500000       8.32000000       5.32600000
 H      19.73100000       9.01000000       4.01500000
 O      21.33500000      14.55200000      10.35300000
 H      21.58000000      14.13700000       9.45600000
 H      20.85000000      13.83700000      10.78400000
 O      17.28200000       4.84600000       9.58900000
 H      16.34800000       4.67800000       9.62100000
 H      17.52300000       5.46700000      10.30800000
 O      25.50800000      14.12200000      12.78600000
 H      26.40800000      13.98100000      12.42300000
 H      24.98700000      13.61500000      12.17400000
 O      18.93100000      11.55900000      13.85300000
 H      18.36900000      11.58100000      13.08500000
 H      19.41100000      12.41700000      13.86700000
 O      22.36400000       8.33500000       6.54600000
 H      23.09800000       8.46300000       7.17200000
 H      22.58400000       7.38300000       6.23100000
 O      17.06800000      15.36300000       4.87800000
 H      16.61600000      15.82500000       4.06700000
 H      16.34800000      15.47000000       5.56300000
 O      18.72800000      15.84000000       9.17800000
 H      19.35000000      16.40800000       8.73300000
 H      19.19600000      14.96200000       9.16900000
 O      24.36000000      14.19900000       9.88700000
 H      23.97500000      15.09400000       9.97100000
 H      23.75600000      13.60400000      10.32800000
 O      18.44300000      11.67200000      11.41800000
 H      17.55900000      11.59500000      11.89300000
 H      18.49500000      10.91300000      10.77400000
 O      18.33200000       5.00900000       7.89900000
 H      17.44600000       4.82000000       8.22700000
 H      18.22100000       5.50300000       7.09800000
 O      22.40200000      13.32500000      15.20200000
 H      23.07700000      13.97000000      15.60200000
 H      22.87200000      12.48100000      15.08100000
 O      23.01000000      11.73100000      11.08700000
 H      22.00500000      11.79100000      10.96000000
 H      23.33900000      11.03200000      11.72900000
 O      19.14800000       4.95600000      10.80700000
 H      19.03500000       5.50400000      10.08000000
 H      18.46300000       4.22900000      10.73800000
 O      22.48600000      13.39600000       8.01800000
 H      23.40800000      13.63300000       8.26100000
 H      22.52800000      13.70300000       7.10900000
 O      15.21600000      13.31000000      12.36400000
 H      14.72500000      14.08400000      12.08800000
 H      16.13400000      13.70200000      12.50300000
 O      18.43700000       4.86700000       5.35000000
 H      18.74800000       5.26200000       4.55700000
 H      17.47800000       5.14400000       5.37200000
 O      18.89200000      10.14400000       8.54500000
 H      19.64000000      10.22800000       7.92800000
 H      18.33900000       9.35200000       8.37200000
 O      20.01000000      11.91500000      10.94100000
 H      19.26600000      11.65800000      11.49000000
 H      20.06800000      11.39000000      10.08200000
 O      26.71000000      13.42600000       8.44600000
 H      25.86400000      13.70900000       8.88000000
 H      27.15600000      12.87200000       9.19600000
 O      18.92700000       7.90800000      15.57700000
 H      19.82900000       8.24100000      15.47100000
 H      18.59700000       8.13200000      16.49200000
 O      17.66500000       9.42900000      12.84700000
 H      18.49300000       9.36000000      13.36700000
 H      17.06900000       9.71200000      13.57800000
 O      23.62700000      11.89000000       5.37200000
 H      24.53900000      12.17700000       5.58400000
 H      23.70200000      10.90500000       5.44200000
 O      19.51200000       5.65900000      14.05400000
 H      18.77100000       6.01000000      14.58300000
 H      19.05200000       4.97800000      13.47300000
 O      21.95400000       7.15900000      13.96000000
 H      21.14000000       6.64400000      13.83700000
 H      22.71300000       6.50900000      14.02600000
 O      18.52500000      12.29900000      16.16000000
 H      18.88800000      12.00500000      15.28800000
 H      19.14000000      12.16900000      16.90800000
 O      15.64400000      12.39400000       4.84300000
 H      15.80600000      11.93100000       5.74800000
 H      16.18000000      13.19800000       4.82600000
 C      15.94500000      14.41000000      16.65800000
 C      16.41500000      15.20700000      15.33500000
 C      14.37600000      16.72400000      15.07200000
 H      16.36300000      17.20300000      14.49600000
 H      17.55900000      13.92600000      16.66600000
 O      16.26000000      17.41300000      16.60500000
 O      14.83700000      14.43600000      17.16700000
 O      16.90800000      14.04500000      17.43000000
 C      15.87100000      16.67700000      15.39600000
 O      17.80300000      15.18600000      15.05700000
 H      16.02700000      14.68300000      14.54900000
 O      13.92600000      16.36700000      13.98600000
 O      13.65500000      17.32300000      16.00800000
 H      14.38600000      17.52300000      16.68900000
 H      18.00700000      15.39200000      14.07500000
 H      17.22700000      17.44700000      16.69900000
 O      23.05700000      16.02300000      12.40000000
 H      23.61100000      15.20200000      12.53600000
 H      22.78700000      16.05300000      11.45500000
 O      25.94900000      11.59100000      14.14600000
 H      25.19800000      10.99800000      14.36600000
 H      26.67000000      10.89700000      14.01400000
 O      21.31200000       4.93600000       8.07500000
 H      20.53000000       5.42100000       8.44300000
 H      21.85100000       4.56900000       8.87300000
 O      20.92500000      10.51000000      15.73800000
 H      20.01400000      10.59200000      15.37300000
 H      20.91400000      11.25800000      16.36600000
 O      17.98900000      11.94400000       5.80100000
 H      17.34100000      12.16200000       6.53200000
 H      18.89200000      12.02600000       6.08500000
 O      25.07000000       7.80900000      12.99700000
 H      24.32600000       7.35200000      13.43800000
 H      25.58300000       8.08800000      13.72800000
 O      22.85100000       5.43500000       5.80900000
 H      22.05900000       5.15700000       6.40000000
 H      23.56500000       4.83200000       6.13900000
 O      18.90500000      13.69100000       7.87800000
 H      19.71100000      13.19800000       7.99900000
 H      19.23600000      14.53500000       7.58200000
 O      23.43100000       4.82900000      14.99200000
 H      22.97000000       5.25200000      15.72300000
 H      22.93500000       3.96600000      14.77800000
 O      26.04500000       6.41800000       9.94600000
 H      25.51800000       6.80300000      10.75500000
 H      26.46200000       5.67100000      10.46300000
 O      16.59700000       6.57400000      14.50700000
 H      17.09500000       7.17300000      15.10400000
 H      16.77100000       5.65500000      14.89600000
 O      20.79800000      11.23200000       6.71900000
 H      21.56400000      11.89400000       6.78800000
 H      21.16200000      10.38300000       6.33100000
 O      18.09500000       6.58000000      11.82100000
 H      17.78400000       6.23600000      12.67800000
 H      17.81200000       7.59000000      11.80900000
 O      16.10100000       8.57300000       9.04500000
 H      16.42300000       8.67000000       9.88700000
 H      15.50200000       7.79200000       8.99200000
 O      17.18300000      13.09300000       7.56500000
 H      17.60200000      13.78600000       8.15400000
 H      16.42300000      12.70300000       8.07500000
 O      18.01500000       7.80200000       5.06000000
 H      18.90200000       8.03800000       5.45600000
 H      17.48200000       7.23100000       5.70900000
