42
XYZ file of cluster: frame_14500_ca80b.4a8f6.96c43 - created by MolEdiTo
 O      17.82900000      10.46400000      18.22800000
 H      18.62400000      10.26300000      18.76400000
 H      17.48400000       9.65000000      17.78500000
 O      19.81400000       7.96500000      18.37800000
 H      20.64600000       8.42200000      18.66100000
 H      19.76000000       7.17300000      18.96700000
 O      18.33600000       6.25700000      16.64400000
 H      19.23900000       6.54800000      16.96100000
 H      17.92700000       7.09700000      16.34400000
 O      20.58000000       8.25900000      14.24100000
 H      19.78100000       8.65300000      14.68300000
 H      20.42100000       7.94400000      13.31600000
 O      18.59200000      13.56400000      16.65700000
 H      19.29100000      13.05700000      17.14200000
 H      17.87400000      12.91200000      16.54100000
 O      18.32800000      10.27000000      14.98900000
 H      17.78500000      11.01200000      15.26500000
 H      17.81500000       9.51100000      15.30900000
 O      23.94600000       6.82900000      14.45300000
 H      23.84100000       6.72300000      15.38500000
 H      23.09500000       7.26300000      14.20700000
 O      21.90100000      11.08000000      20.69300000
 H      22.04000000      11.48500000      21.56300000
 H      21.55100000      11.84000000      20.13900000
 O      23.64600000       9.73000000      18.04000000
 H      24.59300000       9.62400000      18.07300000
 H      23.31600000      10.17200000      18.91100000
 O      23.72700000       7.54700000      20.37600000
 H      24.23500000       6.87700000      20.92600000
 H      23.84600000       8.29000000      20.98200000
 O      23.27400000      10.17000000      15.22100000
 H      23.40400000       9.63300000      16.03400000
 H      22.61000000       9.64800000      14.75900000
 O      25.03200000      12.24200000      20.45500000
 H      24.78000000      11.49700000      21.03400000
 H      24.15600000      12.60100000      20.22100000
 O      24.21200000       6.62000000      17.29100000
 H      23.68100000       6.41700000      18.12400000
 H      24.89000000       7.19900000      17.59700000
 O      21.70100000      11.99800000      16.65300000
 H      21.30500000      11.40800000      16.01800000
 H      22.62400000      11.64800000      16.72800000
