45
XYZ file of cluster: frame_14500_19e8d.4c778.bf8c9 - created by MolEdiTo
 O       7.50900000      10.05100000      19.46000000
 H       7.73300000      10.65000000      18.72600000
 H       7.11800000      10.72600000      20.07000000
 O       7.17800000      13.12000000      20.44100000
 H       6.55300000      13.10400000      19.68600000
 H       7.95400000      13.54900000      20.08100000
 O       8.49200000       7.93900000      20.72500000
 H       8.04700000       8.24300000      21.55600000
 H       8.05800000       8.57300000      20.06000000
 O       5.71200000      11.52300000      18.10600000
 H       6.11000000      12.40400000      17.80600000
 H       4.96900000      11.86600000      18.63800000
 O      10.24200000       7.64700000      18.68500000
 H       9.59700000       7.37400000      19.32900000
 H      10.27000000       6.77400000      18.20700000
 O       9.02400000      11.36300000      17.47900000
 H       9.73100000      11.45400000      18.11900000
 H       9.05800000      12.17800000      16.91800000
 O       9.68100000      14.33700000      19.00900000
 H      10.09700000      15.04400000      19.58000000
 H      10.29800000      13.58700000      19.19300000
 O       3.13300000       6.62000000      17.29100000
 H       2.60200000       6.41700000      18.12400000
 H       3.81100000       7.19900000      17.59700000
 O       3.95300000      12.24200000      20.45500000
 H       3.70100000      11.49700000      21.03400000
 H       3.07700000      12.60100000      20.22100000
 O       2.56700000       9.73000000      18.04000000
 H       3.51400000       9.62400000      18.07300000
 H       2.23700000      10.17200000      18.91100000
 O       5.27100000       8.58000000      18.12300000
 H       5.72600000       7.93600000      18.75900000
 H       5.60400000       9.45300000      18.34600000
 O       7.15000000      11.21700000      24.12600000
 H       8.06500000      11.11400000      24.45300000
 H       7.07300000      12.16100000      23.75600000
 O       4.70200000       9.70400000      22.99300000
 H       4.83400000      10.23500000      23.82900000
 H       5.29900000       8.89800000      23.19600000
 O       6.71000000       8.50100000      25.10500000
 H       7.57300000       8.31000000      25.64000000
 H       6.83200000       9.46800000      24.92400000
 O       5.45600000      13.48000000      24.95100000
 H       5.23600000      14.28900000      24.35100000
 H       4.57000000      13.13700000      25.30700000
