45
XYZ file of cluster: frame_14500_c3ab5.7eca.46584 - created by MolEdiTo
 O      18.30800000       6.04500000       8.21000000
 H      17.86000000       5.96700000       7.31700000
 H      19.18700000       6.47900000       8.03000000
 O      19.43500000       6.96200000      12.20100000
 H      20.08800000       6.22300000      12.42200000
 H      18.57700000       6.37600000      12.06400000
 O      19.76500000       4.37500000      10.42300000
 H      19.46900000       3.73300000      11.08500000
 H      19.06500000       5.04300000      10.32600000
 O      19.41500000       1.72600000       7.68700000
 H      19.48400000       1.46100000       6.71400000
 H      20.24700000       2.20000000       7.98000000
 O      19.26100000       1.75500000      12.17500000
 H      19.85200000       0.96900000      12.24300000
 H      18.71300000       1.62700000      11.33900000
 O      17.48900000       2.49300000      10.11200000
 H      16.89400000       3.29800000       9.84700000
 H      18.01700000       2.51500000       9.20700000
 O      22.15300000       7.41600000       6.53900000
 H      22.66000000       6.63200000       6.21300000
 H      22.66100000       7.91200000       7.19000000
 O      24.61400000       3.19600000      10.23500000
 H      24.46600000       4.13100000      10.07100000
 H      23.81600000       2.92500000       9.76000000
 O      23.94600000       6.82900000      14.45300000
 H      23.84100000       6.72300000      15.38500000
 H      23.09500000       7.26300000      14.20700000
 O      23.36800000       1.68600000       7.86600000
 H      24.24900000       2.04700000       7.53700000
 H      23.54100000       0.66500000       7.77300000
 O      21.99800000       4.35400000      13.07300000
 H      21.91500000       3.64800000      12.41300000
 H      21.39200000       4.09800000      13.78400000
 O      23.22200000       5.31600000       8.54100000
 H      23.34200000       6.30700000       8.64600000
 H      22.57400000       5.11500000       9.27100000
 O      24.48100000       6.51900000      10.91000000
 H      25.22700000       6.13100000      10.47400000
 H      24.68200000       6.53100000      11.86300000
 O      24.88300000       4.25500000      13.19000000
 H      23.93100000       4.24400000      13.08400000
 H      25.01900000       4.92600000      13.87500000
 O      24.84400000       1.31100000      12.41700000
 H      24.01600000       0.94800000      12.08500000
 H      24.92900000       2.29400000      12.09900000
