33
XYZ file of cluster: frame_18000_79652.9ab63.ce644 - created by MolEdiTo
 O      16.45000000      16.45700000      20.82100000
 H      15.69100000      16.43800000      20.15400000
 H      17.14000000      16.74800000      20.13000000
 O      14.48300000      16.79600000      18.78000000
 H      13.58500000      16.44700000      18.96300000
 H      14.40900000      17.73600000      18.40700000
 O      17.81400000      18.52400000      19.16200000
 H      18.69900000      18.83100000      19.41500000
 H      17.64500000      18.88200000      18.25800000
 O      11.39700000      17.16300000      19.08400000
 H      10.69600000      17.22800000      19.73500000
 H      10.92200000      17.20300000      18.23400000
 O      11.50000000      19.73900000      20.72600000
 H      11.62300000      20.64900000      20.73900000
 H      10.86900000      19.55200000      19.98500000
 O      13.71200000      17.69400000      25.03600000
 H      13.18600000      17.98500000      25.77100000
 H      14.55900000      18.11400000      25.22700000
 O      14.27900000      18.71200000      22.44400000
 H      14.76200000      17.89300000      22.07300000
 H      13.46000000      18.86700000      21.97600000
 O      17.50000000      17.78900000      24.55300000
 H      16.85500000      17.28100000      23.97300000
 H      18.07900000      18.32500000      23.94300000
 O      17.50600000      13.95400000      23.25900000
 H      17.99900000      13.68600000      22.49500000
 H      16.79100000      14.56200000      22.90900000
 O      15.07900000      14.69600000      25.23100000
 H      14.83000000      15.19400000      24.43900000
 H      16.07100000      14.66800000      25.29600000
 O      12.51600000      15.92200000      23.22500000
 H      12.21300000      16.40400000      22.43400000
 H      12.71300000      16.66800000      23.94400000
