33
XYZ file of cluster: frame_18000_95a7d.c359d.c6866 - created by MolEdiTo
 O      17.81400000      18.52400000      19.16200000
 H      18.69900000      18.83100000      19.41500000
 H      17.64500000      18.88200000      18.25800000
 O      13.71200000      17.69400000      25.03600000
 H      13.18600000      17.98500000      25.77100000
 H      14.55900000      18.11400000      25.22700000
 O      14.27900000      18.71200000      22.44400000
 H      14.76200000      17.89300000      22.07300000
 H      13.46000000      18.86700000      21.97600000
 O      17.50000000      17.78900000      24.55300000
 H      16.85500000      17.28100000      23.97300000
 H      18.07900000      18.32500000      23.94300000
 O      19.83500000      25.23800000      18.18400000
 H      19.75700000      26.14300000      18.35300000
 H      20.54400000      25.16400000      17.53900000
 O      15.68000000      22.64800000      20.29200000
 H      15.22700000      21.90000000      20.65700000
 H      15.58500000      22.54800000      19.29600000
 O      19.11600000      22.54900000      18.05800000
 H      20.02400000      22.21400000      18.29800000
 H      19.32800000      23.53000000      17.95200000
 O      18.57100000      24.15700000      22.50700000
 H      18.51800000      24.39400000      21.56900000
 H      17.80400000      23.60000000      22.71400000
 O      19.86400000      24.44300000      25.20100000
 H      19.57800000      24.39000000      24.25500000
 H      19.69600000      25.41000000      25.38700000
 O      15.01200000      24.72100000      26.02800000
 H      14.55400000      23.85300000      26.24300000
 H      15.17900000      24.73500000      25.04600000
 O      15.45700000      25.54600000      23.35800000
 H      15.41100000      24.70800000      22.81100000
 H      15.04800000      26.29900000      22.79700000
