39
XYZ file of cluster: frame_18000_98cca.c2cef.6f4fc - created by MolEdiTo
 O      17.33600000      18.06500000      13.09400000
 H      18.16600000      17.82900000      13.48300000
 H      16.78100000      17.23300000      12.87900000
 O      17.89200000      19.26500000      16.29300000
 H      17.77700000      19.52200000      15.37000000
 H      17.89800000      20.09900000      16.77500000
 O      14.37500000      18.72600000      13.01200000
 H      14.64700000      17.90600000      12.47100000
 H      14.97800000      18.63700000      13.84800000
 O      18.10500000      20.09800000      11.04600000
 H      17.78700000      19.65400000      10.27600000
 H      17.60900000      19.55400000      11.68800000
 O      15.81900000      25.60500000      12.22700000
 H      15.20900000      25.10600000      11.68300000
 H      16.72800000      25.18400000      12.10200000
 O      14.99000000      22.46100000      10.84100000
 H      14.08100000      22.28000000      10.51900000
 H      15.37700000      21.59700000      10.84400000
 O      19.11600000      22.54900000      18.05800000
 H      20.02400000      22.21400000      18.29800000
 H      19.32800000      23.53000000      17.95200000
 O      19.83500000      25.23800000      18.18400000
 H      19.75700000      26.14300000      18.35300000
 H      20.54400000      25.16400000      17.53900000
 O      16.40100000      23.35600000      17.26800000
 H      16.50400000      24.29300000      16.96400000
 H      17.19200000      23.03400000      17.75300000
 O      16.37800000      22.93300000      13.89500000
 H      16.89800000      22.89900000      13.03200000
 H      16.86500000      23.57200000      14.37900000
 O      13.74700000      23.16800000      16.15300000
 H      14.64100000      23.01300000      16.53300000
 H      13.73800000      23.24300000      15.17200000
 O      17.97400000      24.62100000      10.75300000
 H      18.18000000      23.66300000      10.86300000
 H      18.34400000      24.70500000       9.83400000
 O      13.55100000      23.04500000      13.43000000
 H      14.54400000      22.93100000      13.54100000
 H      13.46300000      22.15500000      12.90000000
