36
XYZ file of cluster: frame_18000_4daa4.9a681.711f6 - created by MolEdiTo
 O      13.06600000      14.60800000      10.93600000
 H      13.33800000      14.27500000      10.05600000
 H      13.22700000      13.81600000      11.56700000
 O      10.81600000      18.69900000      16.46400000
 H       9.84200000      18.35200000      16.67400000
 H      10.89600000      18.69300000      15.44900000
 O      11.46100000      19.55600000      13.05700000
 H      11.89600000      19.09000000      13.79100000
 H      12.02400000      19.55000000      12.26800000
 O      13.63700000      19.27100000      17.71900000
 H      13.60400000      19.93300000      17.03300000
 H      12.72100000      18.95800000      17.55500000
 O       8.34600000      15.67900000      13.44100000
 H       8.53900000      16.29300000      12.68000000
 H       7.46500000      15.73500000      13.76800000
 O       8.15300000      17.22400000      15.99400000
 H       7.76500000      16.53900000      16.51500000
 H       7.72500000      17.21500000      15.07000000
 O      10.63100000      14.43800000      15.83700000
 H       9.87400000      14.92700000      15.45200000
 H      10.62300000      13.65900000      15.25300000
 O       9.47500000      19.28700000      10.45200000
 H       9.84200000      19.47800000      11.34700000
 H       8.88600000      18.52900000      10.66500000
 O       7.49800000      17.02300000      10.72500000
 H       6.86300000      16.87800000       9.99400000
 H       7.04300000      16.68100000      11.50600000
 O      13.35000000      15.85500000      14.87300000
 H      12.72000000      15.23000000      15.24400000
 H      14.25300000      15.47500000      14.81300000
 O       7.25800000      20.32000000      17.17700000
 H       6.84300000      19.45800000      17.41900000
 H       7.05400000      20.43700000      16.21400000
 O      11.09700000      16.54500000      11.56000000
 H      11.77300000      15.81600000      11.54400000
 H      11.12200000      16.85000000      12.53000000
