   -0.020141899   -0.000658043    0.006261072
    0.014063735   -0.008875271   -0.017933142
   -0.003287003    0.010391556   -0.001176582
    0.034692406   -0.021688956   -0.022280676
   -0.005775291   -0.002209576   -0.001694110
   -0.025661176    0.023808179    0.027033401
    0.018912948   -0.027024072    0.018921594
   -0.008104316    0.022601763   -0.013042928
   -0.010883565    0.002098076   -0.004744430
    0.036536230    0.001956118   -0.005731108
   -0.012968179    0.000232632   -0.014342729
   -0.016204422    0.000195079    0.020894247
    0.010471101    0.017861467    0.019661688
    0.007572165   -0.007640214   -0.009749771
   -0.017888353   -0.013499443   -0.011836813
   -0.029418803    0.003070985    0.004459097
    0.019589309    0.008427895   -0.005609129
    0.004972843   -0.012105424   -0.001946819
    0.004672469    0.050293402    0.021972920
    0.013366929   -0.041910904   -0.016471173
   -0.014027662   -0.010664307    0.007660150
   -0.004565970   -0.005626688    0.016562163
    0.004250969    0.001238008   -0.006101105
    0.002256099    0.009456049   -0.010712178
    0.034731006    0.013214983    0.025506462
   -0.009819046   -0.011061371   -0.016409743
   -0.026436051   -0.001450266   -0.006592105
    0.016630129    0.020442462    0.031911929
    0.000171434   -0.002746606   -0.004877446
   -0.015858845   -0.017688983   -0.028487708
    0.001856725    0.031009101   -0.037399453
   -0.003445120   -0.028656279    0.039999913
    0.000855930   -0.000570072   -0.002667574
    0.005166050   -0.002408902   -0.008854660
   -0.001503321   -0.000010574    0.002122803
   -0.004329311    0.004735426    0.003354123
   -0.012646480   -0.022551244   -0.010030992
    0.017650638    0.015955283    0.004355098
   -0.006180818    0.003672851    0.005989493
    0.006899587    0.023542936    0.003808296
    0.004912840   -0.016539024   -0.005113062
   -0.011085911   -0.008618031    0.003330990
