96
XYZ file of cluster: frame_1500_c21d4.98a3d.97ee0 - created by MolEdiTo
 O      27.74400000      30.45300000      26.26500000
 H      28.52800000      30.00400000      25.95100000
 H      27.96700000      31.34200000      26.68500000
 O      27.98300000      27.34100000      22.61100000
 H      28.14900000      28.24500000      22.97000000
 H      27.02600000      27.34700000      22.60800000
 O      27.42500000      29.70200000      30.56300000
 H      27.08100000      29.39200000      29.68300000
 H      26.60100000      29.92800000      31.05700000
 O      26.15200000      29.14200000      28.11600000
 H      26.54600000      29.80600000      27.52700000
 H      26.02000000      28.40700000      27.40400000
 O      26.66700000      24.72400000      21.74400000
 H      27.40900000      25.30600000      21.99500000
 H      27.12300000      24.23500000      21.07900000
 O      28.95600000      25.14600000      24.35200000
 H      28.05900000      24.95000000      24.57000000
 H      28.97600000      25.95500000      23.82300000
 O      28.89300000      22.28100000      24.51400000
 H      29.07400000      23.19900000      24.25900000
 H      28.16300000      22.18300000      23.85000000
 O      28.66200000      24.30300000      29.35900000
 H      28.38600000      25.16000000      28.94200000
 H      28.47400000      23.74300000      28.61800000
 O      25.72000000      26.05700000      28.72500000
 H      25.07800000      25.78600000      27.97400000
 H      26.58900000      25.98000000      28.21600000
 O      29.53300000      26.79800000      20.41300000
 H      28.98700000      27.20400000      19.70400000
 H      29.15400000      27.20600000      21.25300000
 O      28.26500000      26.53700000      27.65300000
 H      27.68400000      26.55000000      26.80300000
 H      28.97400000      27.18300000      27.34000000
 O      30.59100000      28.12000000      24.21500000
 H      30.70900000      28.03200000      25.18600000
 H      31.40400000      27.62200000      23.89600000
 O      28.75500000      22.89000000      26.97100000
 H      28.27500000      22.07900000      27.16800000
 H      28.78300000      22.88300000      25.95400000
 O      28.98500000      30.35300000      23.21800000
 H      29.23800000      31.25700000      23.53600000
 H      29.73300000      29.80100000      23.63500000
 O      36.76100000      25.87300000      24.06200000
 H      37.28200000      26.66600000      24.36400000
 H      35.85300000      26.10500000      24.28100000
 O      37.64900000      22.14200000      23.47900000
 H      36.64200000      22.12700000      23.40700000
 H      37.78200000      22.67300000      24.28300000
 O      36.71200000      20.66500000      26.41300000
 H      37.26000000      21.36900000      26.55300000
 H      37.15800000      19.82800000      26.72900000
 O      35.98500000      29.54800000      26.49400000
 H      35.75000000      30.47200000      26.18100000
 H      35.45200000      29.36400000      27.32100000
 O      34.14300000      25.86400000      24.53800000
 H      33.64100000      25.67600000      25.40900000
 H      33.69900000      25.24700000      23.90000000
 O      36.04900000      27.63200000      20.49900000
 H      35.08300000      27.89900000      20.60800000
 H      36.26100000      27.01200000      21.23500000
 O      32.43900000      24.79300000      26.94900000
 H      33.12100000      24.09800000      27.05600000
 H      31.54100000      24.45600000      27.24400000
 O      33.06200000      23.06800000      30.54900000
 H      33.17000000      22.12800000      30.34400000
 H      32.07500000      23.10500000      30.80300000
 O      37.40200000      24.99000000      30.28700000
 H      37.87900000      24.24800000      29.76600000
 H      36.57000000      25.30400000      29.84100000
 O      32.76400000      24.37700000      22.94800000
 H      32.03600000      24.85200000      23.49700000
 H      32.32900000      24.11200000      22.13200000
 O      34.58400000      23.22600000      26.73700000
 H      35.39800000      23.56200000      27.19700000
 H      34.98600000      23.07600000      25.85600000
 O      32.52200000      27.49100000      26.99500000
 H      33.05600000      27.98900000      27.66000000
 H      32.70800000      26.53700000      27.28400000
 O      34.39100000      25.55800000      30.18600000
 H      33.63400000      25.81700000      29.64200000
 H      34.47000000      24.61600000      30.22300000
 O      34.80300000      22.57400000      23.58300000
 H      34.16600000      23.22700000      23.16400000
 H      34.39900000      21.80700000      23.17800000
 O      34.09000000      29.00700000      29.25900000
 H      33.69200000      28.54000000      29.99300000
 H      34.66500000      29.71300000      29.60400000
 O      35.62400000      21.60300000      30.06400000
 H      36.27100000      22.25200000      29.77400000
 H      35.99700000      20.71100000      29.98700000
 O      36.73400000      25.08800000      27.39400000
 H      37.62700000      25.40400000      27.75500000
 H      36.77600000      25.33500000      26.49200000
 O      37.34000000      28.30300000      28.89100000
 H      37.65100000      29.13700000      29.25600000
 H      36.68700000      27.89800000      29.48400000
