45
XYZ file of cluster: final_6d66b.19ed.d60f - created by MolEdiTo
 O      15.38800000       3.06600000       2.79100000
 H      15.04200000       3.98300000       2.65300000
 H      15.51100000       3.08600000       3.73600000
 O      12.14700000       7.18100000       1.43600000
 H      12.09800000       6.80800000       2.39400000
 H      12.50500000       8.09300000       1.56200000
 O      11.91900000       3.14500000       2.18200000
 H      11.86100000       2.22100000       1.77300000
 H      12.35300000       3.64300000       1.48900000
 O      12.44400000       6.44400000       5.27300000
 H      11.91300000       7.23700000       5.61700000
 H      11.71300000       5.78200000       5.34700000
 O      16.04400000       1.04300000       4.62100000
 H      15.96900000       0.14100000       4.22800000
 H      16.57400000       1.44400000       4.00400000
 O      14.92000000       7.51600000       7.02300000
 H      15.65600000       7.04400000       6.64800000
 H      14.15100000       6.91400000       6.94800000
 O      14.64300000       4.12400000       6.12500000
 H      13.94800000       4.80100000       6.26500000
 H      14.07200000       3.29300000       6.16000000
 O      15.72300000       6.54500000       3.86200000
 H      15.23200000       7.44700000       3.96800000
 H      15.98100000       6.30300000       4.69900000
 O      17.44200000       3.32000000       5.13800000
 H      16.61400000       2.72800000       5.34600000
 H      18.11400000       2.67200000       4.72100000
 O      14.83400000       5.56900000       1.16700000
 H      14.41700000       6.08800000       1.92800000
 H      15.73400000       5.91600000       1.24600000
 O      12.91700000       2.04600000       4.93200000
 H      13.34600000       1.18300000       4.74200000
 H      13.09800000       2.63800000       4.12400000
 O       9.64200000       4.59600000       2.19100000
 H       9.40800000       3.63700000       1.93400000
 H      10.57300000       4.43700000       2.35500000
 O      17.67600000       5.98400000       6.25300000
 H      17.32700000       5.14800000       6.06300000
 H      17.87300000       6.32100000       5.32000000
 O      12.48100000       2.73900000       7.48800000
 H      13.06100000       2.22300000       8.11100000
 H      12.32900000       2.06200000       6.76100000
 O      10.56900000       4.20100000       5.45500000
 H      10.45800000       3.36000000       5.02700000
 H      10.79900000       4.00000000       6.39000000
