33
XYZ file of cluster: final_d95.77b3.9a6f0 - created by MolEdiTo
 O       5.56000000       1.49600000      16.93000000
 H       5.93500000       0.65100000      16.51100000
 H       5.04800000       1.95200000      16.16900000
 O       2.71500000       4.97300000      13.98300000
 H       2.31900000       4.10600000      14.24800000
 H       3.48800000       5.20900000      14.61200000
 O       1.09400000       7.36500000      14.27400000
 H       1.79300000       6.70200000      14.40800000
 H       1.52400000       7.88800000      13.55700000
 O       3.73800000       6.98600000      18.92900000
 H       3.09700000       6.34400000      18.52100000
 H       4.35800000       6.37800000      19.27900000
 O       4.35200000       3.09100000      19.48000000
 H       5.25200000       2.98000000      19.08500000
 H       3.83600000       3.20000000      18.62600000
 O       4.67200000       2.24700000      14.44300000
 H       4.60300000       2.25500000      13.47100000
 H       3.74900000       2.61200000      14.67500000
 O       2.18000000       3.14800000      17.33000000
 H       1.53300000       3.75400000      16.99200000
 H       1.75800000       2.43200000      17.84100000
 O       1.05200000       6.83400000      17.49800000
 H       0.07300000       6.43700000      17.45100000
 H       1.40700000       6.91000000      16.58300000
 O       5.26800000       6.05900000      15.27400000
 H       5.68100000       6.96600000      15.41200000
 H       5.73900000       5.79200000      14.52200000
 O       7.21300000       7.73300000      20.52400000
 H       7.88200000       7.44800000      19.83000000
 H       6.85100000       6.83800000      20.79900000
 O       6.74200000       4.35100000      17.40900000
 H       7.02400000       3.52600000      16.96800000
 H       6.07700000       4.82000000      16.77800000
