45
XYZ file of cluster: final_4606e.4271e.10767 - created by MolEdiTo
 O      13.76300000      10.12700000       1.84100000
 H      13.63600000       9.76100000       2.77500000
 H      14.70100000      10.25200000       1.73800000
 O      12.14700000       7.18100000       1.43600000
 H      12.09800000       6.80800000       2.39400000
 H      12.50500000       8.09300000       1.56200000
 O      12.90800000      10.92400000       6.96300000
 H      12.10800000      10.39700000       6.59400000
 H      12.96500000      10.66500000       7.87200000
 O      11.17400000       8.93000000       6.32200000
 H      10.52900000       8.58300000       6.97200000
 H      10.68900000       8.85600000       5.49200000
 O       6.62000000       8.01700000       5.52700000
 H       6.02200000       7.65200000       4.87700000
 H       7.35800000       8.44400000       5.05400000
 O      12.44400000       6.44400000       5.27300000
 H      11.91300000       7.23700000       5.61700000
 H      11.71300000       5.78200000       5.34700000
 O       8.78300000       9.58100000       4.40500000
 H       9.03700000       8.91500000       3.81000000
 H       9.13500000      10.33900000       3.98600000
 O       9.23800000      12.74200000       4.70500000
 H       9.46200000      12.75600000       5.66600000
 H       8.41600000      13.23900000       4.51500000
 O       7.79800000      10.62800000       7.37200000
 H       8.51500000      10.01700000       6.99900000
 H       7.09500000      10.48100000       6.72400000
 O      13.04100000      14.23900000       6.74400000
 H      13.83800000      13.84800000       7.21800000
 H      12.87300000      13.54300000       5.99000000
 O      13.97000000       9.05300000       4.52900000
 H      13.96300000       8.07900000       4.85800000
 H      13.70500000       9.54900000       5.34400000
 O       9.20300000       7.22600000       2.89100000
 H       9.22500000       6.29900000       2.60100000
 H       9.35900000       7.80600000       2.13900000
 O      11.97100000      13.00200000       4.44500000
 H      10.99400000      12.75800000       4.47300000
 H      12.19700000      13.56000000       3.65600000
 O      10.90600000      10.09500000       2.57900000
 H      10.88100000      10.05800000       1.62000000
 H      11.90500000      10.13700000       2.65300000
 O       7.00000000      12.11200000       2.43600000
 H       6.47300000      11.28400000       2.37300000
 H       7.90600000      11.94500000       2.42200000
