%chk=cluster_122_i.chk
%mem=1GB
%nproc=4
#b3lyp/6-311++G** scrf=(cpcm,Solvent=Water) nosymm force
iop(2/11=1) 
 Geom=(NoDistance,NoAngle)

cluster_122_i

0 1
 O       4.87900000       9.41100000      11.00700000
 H       5.37200000       8.94000000      11.78500000
 H       3.95600000       9.54200000      11.16500000
 O       4.32200000      13.07700000      13.36000000
 H       5.27600000      12.62400000      13.40000000
 H       4.25100000      13.09300000      12.37400000
 O       4.30100000      13.64400000      10.64700000
 H       5.20200000      13.61800000      10.31700000
 H       3.90400000      13.24100000       9.84700000
 O       6.21400000      12.40000000       8.73100000
 H       5.20900000      12.28400000       8.65600000
 H       6.39700000      11.67800000       9.33100000
 O      10.18500000       7.98100000      13.58900000
 H      10.81100000       8.07000000      14.42900000
 H      10.56900000       8.58400000      12.93200000
 O       8.05900000      14.23200000      14.23500000
 H       8.66500000      13.57400000      13.79100000
 H       8.03500000      13.98800000      15.18300000
 O       4.57500000       8.13300000       6.51600000
 H       5.24200000       7.41200000       6.62600000
 H       4.18100000       8.14200000       7.43100000
 C      11.34000000      10.01400000       9.54500000
 C      11.34800000      10.75000000      10.98100000
 C       8.97500000      11.70800000      10.54700000
 H       9.46800000      10.04600000      11.73200000
 H      11.34900000       8.21100000       8.92400000
 O      10.11600000      11.73500000      12.77500000
 O      12.67200000       9.90300000       9.14100000
 O      10.83400000       8.71200000       9.63300000
 C       9.97800000      11.01600000      11.53500000
 O      12.11600000       9.91700000      11.89700000
 H      11.86900000      11.66200000      10.70600000
 O       9.55200000      12.98800000      10.37800000
 O       7.74400000      12.02200000      11.22900000
 H       7.56100000      12.95900000      11.03600000
 H      12.51100000       9.16400000      11.35200000
 H      10.56600000      12.57300000      12.54200000
 O       5.11100000       8.78300000      14.59100000
 H       5.98800000       9.23700000      14.33900000
 H       4.77100000       8.31300000      13.83200000
 O       8.42700000       9.88500000       7.94200000
 H       9.18800000       9.37000000       7.86000000
 H       8.26100000      10.20900000       7.02300000
 O       7.50700000       8.86300000      10.38800000
 H       6.65300000       9.23400000      10.68100000
 H       7.76100000       9.18000000       9.49200000
 O       3.50500000      12.73900000       8.27600000
 H       3.20500000      13.57600000       7.87000000
 H       2.63100000      12.36500000       8.34200000
 O       3.57100000       7.04600000       8.82100000
 H       3.37800000       7.61100000       9.53500000
 H       2.88900000       6.29200000       8.96800000
 O       7.44900000      10.44000000      14.31800000
 H       8.27500000       9.95200000      14.30400000
 H       7.67300000      11.28600000      14.71400000
 O       7.51200000       6.95000000      13.72800000
 H       8.37300000       7.47100000      13.61900000
 H       7.58900000       6.43400000      14.56500000

