552
XYZ file of cluster: frame_7000_9da49.7461f.71c45 - created by MolEdiTo
 O      31.88300000      28.66600000      35.05000000
 H      32.25300000      29.38300000      34.57800000
 H      30.88500000      28.89900000      35.04400000
 O      29.39100000      26.50400000      24.34700000
 H      28.51100000      26.97600000      24.36100000
 H      29.82100000      26.88300000      23.62100000
 O      32.13400000      33.56100000      36.99900000
 H      31.95800000      34.27300000      37.69300000
 H      31.53900000      32.90600000      37.41500000
 O      32.00900000      36.96600000      30.88000000
 H      32.65100000      37.57400000      31.26900000
 H      32.42000000      36.72300000      30.02800000
 O      31.11000000      32.89100000      31.89400000
 H      30.48500000      33.15400000      31.18300000
 H      31.37300000      33.76200000      32.24900000
 O      30.28700000      39.63400000      35.12100000
 H      30.70100000      38.82200000      35.43700000
 H      30.73400000      39.78500000      34.25400000
 O      27.44200000      23.09300000      38.57500000
 H      27.13600000      22.19300000      38.84900000
 H      28.20000000      22.77300000      37.96300000
 O      36.52100000      20.66200000      36.55600000
 H      36.10700000      19.82800000      36.80900000
 H      35.78400000      21.27200000      36.45900000
 O      32.32800000      30.70800000      21.29800000
 H      32.82900000      30.43800000      22.10200000
 H      32.63200000      31.61100000      21.16800000
 O      39.24700000      39.26600000      25.23300000
 H      39.98600000      39.62500000      25.77700000
 H      39.14200000      40.01500000      24.60900000
 O      31.77900000      35.30300000      33.12600000
 H      31.85000000      35.97400000      32.44800000
 H      31.00100000      35.69400000      33.67000000
 O      28.43800000      33.12200000      28.25400000
 H      27.97400000      33.94600000      28.07400000
 H      28.32400000      33.13900000      29.25700000
 O      34.15800000      24.78400000      21.27500000
 H      35.07400000      24.58600000      20.98700000
 H      34.19900000      25.77000000      21.35800000
 O      34.87500000      35.02700000      29.92700000
 H      34.31300000      34.33200000      29.60500000
 H      34.40100000      35.80100000      29.49100000
 O      29.99200000      29.17100000      39.60500000
 H      29.97600000      29.21300000      40.58700000
 H      30.89700000      29.00700000      39.44000000
 O      29.20200000      36.60800000      29.80400000
 H      30.09700000      36.87900000      30.13600000
 H      28.58200000      37.20900000      30.22000000
 O      29.45600000      28.87500000      31.75200000
 H      29.42500000      28.19400000      31.06500000
 H      28.68900000      28.53700000      32.28800000
 O      38.74300000      28.29100000      21.09200000
 H      38.71000000      27.97800000      22.03900000
 H      39.68300000      28.14500000      20.91400000
 O      29.12800000      31.60400000      33.69100000
 H      29.88700000      31.91500000      33.15900000
 H      28.56000000      31.39000000      32.92600000
 O      31.18400000      35.24000000      39.19900000
 H      31.25400000      34.51200000      39.85900000
 H      31.84700000      35.82300000      39.65200000
 O      34.54300000      31.44700000      35.70700000
 H      33.92800000      32.13400000      35.45800000
 H      35.40300000      31.71200000      35.41900000
 O      30.56200000      33.27100000      21.11700000
 H      31.33900000      33.77400000      21.36800000
 H      30.45400000      32.73600000      21.96600000
 O      37.86600000      36.29100000      36.30300000
 H      37.28100000      35.76300000      35.74400000
 H      38.77100000      36.12200000      35.86300000
 O      27.70700000      38.65500000      38.75400000
 H      28.32400000      38.66000000      39.55100000
 H      28.11900000      37.89700000      38.27300000
 O      28.64700000      30.34800000      29.93600000
 H      28.40700000      29.58400000      29.40200000
 H      28.91000000      29.91400000      30.82900000
 O      38.19600000      36.18400000      31.88900000
 H      37.96100000      36.33100000      30.94700000
 H      38.25700000      35.22800000      31.92600000
 O      36.56200000      38.13200000      23.01800000
 H      36.07400000      38.95300000      23.17200000
 H      37.16400000      38.39200000      22.27800000
 O      28.70100000      35.96700000      37.76200000
 H      27.91000000      35.61200000      38.22700000
 H      29.43400000      35.67800000      38.27000000
 O      32.28400000      32.86100000      40.58400000
 H      32.94700000      32.15300000      40.61700000
 H      31.76100000      32.62500000      41.41300000
 O      36.33400000      28.21700000      35.42300000
 H      36.14100000      28.34100000      36.34600000
 H      36.35400000      29.16400000      35.09900000
 O      31.90400000      22.68700000      34.11100000
 H      30.97100000      22.90400000      34.09500000
 H      32.14200000      22.92800000      33.21900000
 O      28.03100000      34.49700000      20.47700000
 H      28.17600000      34.04400000      19.56600000
 H      28.69900000      33.92300000      20.94200000
 O      32.72800000      26.92400000      23.23400000
 H      32.12400000      27.43300000      22.65700000
 H      33.57300000      27.23500000      22.85700000
 O      38.23200000      33.27700000      23.81500000
 H      38.72800000      32.44100000      23.62700000
 H      38.38200000      33.79300000      23.03400000
 O      34.23500000      35.65500000      37.56200000
 H      33.97000000      35.15300000      36.76100000
 H      34.18400000      34.91100000      38.20100000
 O      40.37200000      33.29500000      31.61800000
 H      39.83200000      33.35100000      30.81400000
 H      41.06300000      33.97300000      31.36300000
 O      27.36900000      39.36600000      35.97800000
 H      28.33200000      39.20400000      35.79100000
 H      27.40300000      39.43400000      36.95100000
 O      36.42700000      33.82300000      31.85000000
 H      36.28400000      32.87100000      31.54800000
 H      35.95000000      34.33600000      31.12900000
 O      31.68800000      20.31500000      35.48900000
 H      32.04300000      21.09800000      34.97500000
 H      30.86300000      20.19900000      34.98100000
 O      33.02100000      34.21600000      22.45700000
 H      33.98600000      33.98000000      22.45300000
 H      32.89000000      34.32900000      23.46600000
 O      37.21400000      38.24900000      29.87500000
 H      37.79400000      38.76800000      29.27100000
 H      36.84700000      38.91500000      30.43200000
 O      33.35000000      40.12600000      26.89200000
 H      33.05900000      40.47900000      25.99600000
 H      34.25800000      39.92200000      26.70100000
 O      30.64600000      36.19300000      25.99000000
 H      30.01600000      35.50800000      25.68000000
 H      30.51100000      36.82300000      25.22800000
 O      33.65000000      24.46500000      32.29500000
 H      33.30300000      23.87500000      31.64500000
 H      34.58500000      24.53100000      32.03200000
 O      35.69700000      40.58600000      30.94400000
 H      35.39700000      41.32700000      30.35300000
 H      36.35900000      41.09900000      31.54600000
 O      40.25000000      36.06900000      34.98300000
 H      40.46100000      36.74900000      34.25900000
 H      40.99500000      36.26900000      35.58500000
 O      36.41900000      21.53900000      20.86900000
 H      35.81800000      21.43800000      20.15300000
 H      37.09100000      22.12800000      20.53600000
 O      35.23000000      32.99900000      24.17400000
 H      35.13600000      33.14400000      25.16700000
 H      36.19500000      33.27400000      24.10600000
 O      34.53900000      29.29100000      37.43300000
 H      34.46300000      29.99600000      36.75000000
 H      35.29000000      29.63400000      37.98800000
 O      40.02200000      28.50100000      26.01200000
 H      40.00100000      28.03100000      25.14700000
 H      39.46800000      29.28200000      25.76400000
 O      34.02700000      22.82800000      38.88900000
 H      33.73700000      22.07700000      38.31200000
 H      33.43400000      23.52700000      38.60800000
 O      28.60300000      24.49200000      26.38000000
 H      28.44300000      25.41400000      26.09000000
 H      29.53300000      24.50800000      26.53100000
 O      28.35600000      36.97400000      21.26500000
 H      29.31700000      37.09700000      21.19000000
 H      28.23300000      36.05200000      20.90200000
 O      37.55700000      24.65600000      25.04200000
 H      37.68900000      23.74700000      25.39500000
 H      37.86500000      24.50500000      24.13200000
 O      39.17200000      36.85300000      19.99600000
 H      39.47500000      37.32200000      20.75300000
 H      39.78700000      37.19600000      19.33200000
 O      36.08100000      37.08700000      27.70300000
 H      36.50500000      37.20700000      28.62300000
 H      36.82100000      36.77800000      27.19700000
 O      39.22700000      39.08100000      39.24800000
 H      38.79700000      39.39000000      40.07900000
 H      38.69600000      39.57200000      38.60500000
 O      30.00000000      22.75500000      36.62000000
 H      30.62500000      23.45900000      36.95400000
 H      30.05200000      22.90800000      35.66900000
 O      28.98300000      40.45100000      31.14300000
 H      29.89800000      40.27800000      31.51300000
 H      29.02800000      41.41000000      31.20800000
 O      37.10700000      40.12400000      37.91500000
 H      36.62800000      39.22400000      37.90200000
 H      37.53800000      40.01100000      36.99900000
 O      39.26300000      35.20000000      28.80500000
 H      38.60800000      35.62500000      28.19100000
 H      39.25000000      34.26500000      28.52000000
 O      32.12800000      22.33600000      30.81800000
 H      32.79100000      21.71800000      30.35000000
 H      31.74300000      21.68100000      31.35200000
 O      37.42900000      32.70600000      38.59600000
 H      38.43000000      32.73500000      38.37700000
 H      37.33800000      31.79100000      38.82500000
 O      38.68800000      30.71700000      25.38100000
 H      37.73100000      30.72900000      25.71700000
 H      38.48300000      30.57500000      24.41800000
 O      37.81000000      22.21600000      38.96500000
 H      37.57500000      22.58100000      38.05800000
 H      38.33700000      21.42800000      38.74300000
 O      38.43900000      30.79400000      32.82200000
 H      38.17200000      31.58800000      32.27800000
 H      38.93000000      30.32300000      32.13100000
 O      33.38900000      22.34900000      26.61100000
 H      34.04000000      22.07700000      25.90900000
 H      32.95800000      21.43900000      26.73900000
 O      33.94400000      39.88600000      22.85000000
 H      34.54400000      40.64600000      22.88300000
 H      33.06800000      40.26900000      22.95700000
 O      36.03000000      39.71300000      25.78900000
 H      36.52700000      39.06600000      26.36800000
 H      36.41900000      40.58100000      26.02000000
 O      38.22400000      26.96700000      23.36900000
 H      38.23400000      26.08400000      22.98300000
 H      37.97100000      26.76300000      24.29100000
 O      28.01300000      23.72500000      31.08300000
 H      27.35400000      23.82600000      30.36600000
 H      28.81900000      23.94000000      30.55700000
 O      34.11600000      40.30000000      38.54700000
 H      34.36500000      39.74500000      37.86100000
 H      33.13600000      40.40200000      38.42600000
 O      35.32700000      28.17300000      22.39100000
 H      35.77900000      28.94300000      22.71300000
 H      35.87300000      27.86600000      21.66500000
 O      39.60500000      30.49400000      35.27000000
 H      39.16200000      30.28300000      34.38300000
 H      39.45200000      31.47300000      35.28100000
 O      30.35400000      31.92000000      38.34900000
 H      30.53100000      32.20300000      39.23500000
 H      30.57100000      30.99600000      38.33200000
 O      39.06500000      26.13400000      39.55000000
 H      39.51200000      25.62800000      38.82000000
 H      39.80000000      26.12800000      40.21800000
 O      36.14900000      35.04700000      34.34400000
 H      35.19900000      34.72500000      34.49600000
 H      36.25100000      34.67300000      33.37700000
 O      39.30900000      27.57400000      28.25100000
 H      40.15700000      27.21100000      28.49700000
 H      39.54400000      27.89100000      27.33900000
 O      30.15200000      27.72600000      26.95300000
 H      30.08100000      28.52400000      26.47600000
 H      30.52400000      27.07200000      26.35800000
 O      37.35600000      39.14100000      20.64000000
 H      37.14500000      39.99900000      21.00300000
 H      38.23500000      39.36800000      20.28200000
 O      27.57800000      20.74900000      31.47800000
 H      27.83900000      19.92000000      30.93900000
 H      27.55100000      21.31000000      30.69100000
 O      39.78800000      24.25800000      30.36800000
 H      39.03500000      24.76400000      30.00400000
 H      39.84300000      23.51200000      29.69300000
 O      40.58500000      27.06200000      35.40300000
 H      39.64800000      26.79200000      35.37400000
 H      40.80000000      27.12300000      34.44000000
 O      33.20900000      29.10700000      28.49300000
 H      33.35600000      28.88500000      29.46700000
 H      32.44600000      29.72300000      28.69100000
 O      40.14700000      24.59000000      37.26200000
 H      40.10200000      24.99400000      36.35700000
 H      39.80200000      23.71100000      37.09300000
 O      30.39800000      37.92100000      23.93700000
 H      31.07000000      37.62800000      23.32500000
 H      30.66500000      38.87200000      24.09800000
 O      29.18800000      26.80200000      29.31700000
 H      29.55000000      27.23700000      28.48200000
 H      29.74600000      26.00600000      29.32900000
 O      31.02000000      21.60300000      21.98800000
 H      30.12300000      21.18000000      21.85000000
 H      30.73800000      22.44200000      22.40600000
 O      34.49500000      22.66400000      35.71600000
 H      33.85300000      22.93900000      35.05600000
 H      34.58000000      23.44600000      36.24600000
 O      31.21200000      21.20200000      40.22600000
 H      31.41400000      21.22300000      39.28100000
 H      30.67800000      20.36000000      40.22800000
 O      36.19300000      31.31400000      22.25200000
 H      35.98100000      32.23700000      21.98400000
 H      35.79200000      31.39000000      23.18400000
 O      34.06600000      26.60500000      40.18100000
 H      34.51700000      26.96600000      40.99100000
 H      34.79900000      26.60200000      39.52300000
 O      30.53800000      38.50900000      39.59400000
 H      30.73800000      38.42900000      40.54600000
 H      31.12200000      37.77900000      39.24100000
 O      28.92600000      23.56800000      33.63400000
 H      28.54000000      23.49900000      32.74000000
 H      28.07900000      23.48300000      34.17900000
 O      38.54900000      24.17400000      22.48700000
 H      38.32600000      23.91600000      21.62200000
 H      39.44000000      23.76100000      22.56100000
 O      33.14100000      33.00900000      29.04000000
 H      32.57700000      33.83600000      28.97500000
 H      32.30800000      32.36900000      28.98300000
 O      36.39200000      25.63000000      38.42300000
 H      36.26500000      24.97500000      39.11200000
 H      37.32600000      25.79900000      38.54800000
 O      30.78200000      24.29700000      29.69400000
 H      31.34400000      23.50200000      30.01500000
 H      31.10800000      24.36900000      28.74900000
 O      29.98000000      31.84900000      23.27700000
 H      29.37400000      31.99400000      24.00500000
 H      30.79100000      31.50600000      23.70400000
 O      33.37800000      23.66100000      23.46400000
 H      34.05000000      22.98500000      23.46000000
 H      33.49400000      23.99800000      22.53100000
 O      31.38500000      30.90400000      28.50000000
 H      30.54000000      30.91200000      29.00000000
 H      31.08900000      31.04700000      27.57500000
 O      38.15400000      30.91300000      29.58800000
 H      37.40500000      31.34700000      30.02800000
 H      37.77300000      30.05400000      29.24800000
 O      37.69900000      21.36300000      28.08300000
 H      37.67800000      20.47000000      28.53500000
 H      36.87900000      21.73800000      28.44700000
 O      36.19500000      24.01400000      30.76600000
 H      35.71300000      23.42200000      30.14200000
 H      36.76000000      24.52200000      30.07600000
 O      28.84900000      26.72400000      33.47400000
 H      29.77500000      26.43500000      33.26500000
 H      29.01500000      27.23400000      34.26500000
 O      36.02800000      31.36600000      31.30400000
 H      36.04900000      30.42000000      31.58800000
 H      35.19900000      31.63200000      31.82700000
 O      40.08400000      22.10900000      28.36100000
 H      39.14300000      21.83400000      28.31300000
 H      40.42400000      21.39000000      28.91200000
 O      40.36700000      20.88700000      23.59700000
 H      40.70700000      21.65500000      23.06200000
 H      40.61100000      20.10600000      23.05700000
 O      35.69100000      40.23800000      34.08700000
 H      36.30900000      39.48600000      33.79000000
 H      34.87400000      39.73900000      34.24900000
 O      33.84100000      29.03500000      25.75000000
 H      33.48900000      29.02500000      26.62100000
 H      33.66300000      28.19800000      25.36000000
 O      37.67900000      34.99200000      40.27100000
 H      37.72800000      34.25200000      39.64000000
 H      38.30100000      35.58400000      39.76900000
 O      36.19200000      30.80700000      25.72800000
 H      35.40400000      30.26000000      25.79400000
 H      35.95000000      31.64100000      26.05800000
 O      31.91400000      26.41600000      32.98700000
 H      32.43400000      26.50600000      33.78000000
 H      32.43000000      25.71600000      32.45000000
 O      28.29500000      39.97800000      21.87600000
 H      27.66600000      39.36900000      21.52200000
 H      28.81700000      39.54000000      22.59500000
 O      36.57800000      29.65000000      39.34200000
 H      36.81200000      28.94100000      40.01500000
 H      37.42100000      29.57400000      38.83700000
 O      39.07100000      28.23600000      31.04800000
 H      39.02700000      28.14100000      30.06600000
 H      38.15500000      28.49800000      31.30100000
 O      34.41600000      38.42800000      20.47500000
 H      35.32000000      38.81600000      20.59200000
 H      34.03100000      38.70100000      21.31600000
 O      37.21200000      26.00300000      32.34200000
 H      36.82000000      25.37700000      31.75900000
 H      36.87600000      26.84000000      31.94500000
 O      30.37200000      31.72200000      26.39500000
 H      29.79700000      32.16500000      27.12800000
 H      30.16300000      32.41100000      25.70500000
 O      39.98600000      32.62900000      37.90100000
 H      40.69300000      32.43000000      38.59500000
 H      40.58100000      32.65600000      37.17200000
 O      38.89600000      39.50200000      28.20100000
 H      39.79500000      39.57800000      27.87300000
 H      38.46100000      40.32200000      27.95000000
 O      27.11300000      29.82200000      23.56400000
 H      26.88200000      28.87200000      23.43600000
 H      27.84500000      29.89100000      22.95900000
 O      36.04700000      28.79100000      28.57000000
 H      35.10500000      28.96500000      28.30500000
 H      36.42400000      28.57100000      27.69900000
 O      28.57700000      27.45200000      37.98100000
 H      28.80700000      28.14100000      38.65000000
 H      29.44700000      27.15700000      37.74000000
 O      32.99000000      31.00800000      23.92700000
 H      32.99800000      30.35800000      24.67400000
 H      33.73300000      31.57200000      24.15800000
 O      32.17100000      37.15400000      22.08900000
 H      31.77600000      37.27300000      21.20900000
 H      32.56700000      36.27200000      22.02400000
 O      32.10500000      24.52500000      37.73300000
 H      31.71800000      25.42400000      37.70500000
 H      32.89800000      24.71100000      37.18800000
 O      39.08000000      34.41800000      26.14400000
 H      38.78300000      33.91800000      25.30600000
 H      38.65000000      35.24300000      25.88300000
 O      33.06600000      40.25000000      35.53300000
 H      32.58800000      39.51000000      35.95600000
 H      32.44900000      40.93100000      35.84900000
 O      39.65400000      32.46200000      28.06900000
 H      39.31400000      31.52700000      28.15500000
 H      39.26400000      32.67800000      27.17300000
 O      31.72400000      40.24000000      32.69700000
 H      31.97100000      41.12900000      33.01300000
 H      32.58100000      39.75600000      32.78800000
 O      37.14900000      32.33300000      35.55900000
 H      37.47900000      32.74100000      34.79400000
 H      37.67500000      32.60300000      36.33700000
 O      31.67900000      27.12800000      37.26600000
 H      31.84000000      27.62900000      36.40000000
 H      32.33100000      27.61300000      37.84000000
 O      38.71900000      22.27600000      36.30700000
 H      37.96100000      21.56000000      36.34300000
 H      38.39000000      22.70300000      35.44700000
 O      27.89600000      33.52500000      30.89900000
 H      27.63400000      34.41500000      31.26700000
 H      27.25300000      32.97000000      31.29500000
 O      27.47900000      37.85900000      23.69400000
 H      27.47300000      37.59100000      22.75000000
 H      28.36100000      37.59900000      23.94600000
 O      28.37400000      34.49700000      25.25300000
 H      27.64900000      34.52800000      24.58200000
 H      27.86600000      34.80100000      26.07300000
 O      36.29100000      26.42700000      26.81200000
 H      36.62100000      25.76900000      26.15400000
 H      35.31400000      26.43300000      26.56900000
 O      31.37000000      34.95100000      28.61400000
 H      30.62400000      35.42200000      29.05100000
 H      31.17500000      35.14000000      27.67600000
 O      33.60700000      25.58200000      25.40800000
 H      33.67300000      24.83800000      24.75700000
 H      33.23800000      26.28600000      24.77300000
 O      32.82200000      37.13600000      40.35700000
 H      32.69900000      36.95100000      41.30900000
 H      33.79600000      37.15300000      40.30600000
 O      38.39200000      39.45700000      35.66400000
 H      38.28200000      39.02500000      34.74000000
 H      39.35700000      39.70400000      35.54800000
 O      36.10600000      37.61000000      37.95900000
 H      36.59400000      37.17300000      37.16200000
 H      35.25200000      37.10900000      37.88200000
 O      31.68600000      24.35200000      27.14300000
 H      31.88700000      23.43600000      26.83800000
 H      32.51000000      24.80500000      26.81500000
 O      35.72300000      33.84400000      21.33600000
 H      36.59300000      34.18900000      21.54000000
 H      35.34000000      34.64400000      20.85000000
 O      35.17000000      22.59400000      28.80700000
 H      34.70100000      21.67900000      28.84000000
 H      34.63900000      23.03300000      28.14200000
 O      35.95500000      23.49800000      40.52500000
 H      36.50400000      22.94900000      39.89300000
 H      35.07800000      23.12300000      40.29200000
 O      39.61000000      21.23300000      32.29900000
 H      39.21200000      21.89400000      32.91800000
 H      39.85800000      20.53900000      32.89200000
 O      36.04200000      28.44100000      31.07700000
 H      35.19100000      28.10000000      31.34800000
 H      35.92100000      28.63400000      30.09800000
 O      34.43100000      36.84800000      24.21900000
 H      33.95000000      37.62000000      23.88400000
 H      35.30600000      37.00200000      23.77100000
 O      40.70100000      33.77500000      20.38200000
 H      41.38900000      34.31300000      19.90800000
 H      41.25100000      33.59900000      21.19100000
 O      33.13900000      34.85000000      25.65100000
 H      33.67400000      35.58300000      25.29000000
 H      32.36600000      35.34400000      25.89100000
 O      27.17500000      24.56400000      22.85200000
 H      27.91900000      24.16800000      23.35100000
 H      27.32100000      24.15300000      21.96100000
 O      34.92600000      33.23700000      26.78500000
 H      34.25500000      33.86300000      26.35300000
 H      34.28800000      32.91400000      27.49800000
 O      31.89700000      30.27600000      32.65100000
 H      31.70100000      31.17600000      32.33000000
 H      31.10600000      29.83800000      32.29500000
 O      37.65600000      25.44100000      29.03400000
 H      37.10000000      25.25200000      28.23300000
 H      38.07900000      26.29200000      28.69100000
 O      39.15200000      36.50300000      38.64200000
 H      38.59100000      36.62500000      37.82400000
 H      39.10600000      37.48700000      38.91200000
 O      33.62500000      34.44200000      34.97700000
 H      32.98100000      34.74200000      34.29100000
 H      32.93400000      33.92400000      35.51000000
 O      38.52700000      30.54700000      22.63800000
 H      37.63600000      30.92000000      22.25900000
 H      38.61600000      29.88700000      21.90300000
 O      38.01100000      36.71800000      25.19000000
 H      37.56000000      37.11300000      24.43900000
 H      38.57600000      37.49300000      25.35600000
 O      38.23800000      34.62400000      21.44800000
 H      39.08100000      34.19700000      21.12100000
 H      38.13000000      35.34100000      20.75600000
 O      33.75300000      37.27300000      28.79300000
 H      33.44900000      37.94600000      28.20600000
 H      34.73800000      37.26400000      28.64300000
 O      38.33000000      22.09300000      25.15700000
 H      38.24200000      21.30200000      25.77100000
 H      39.12600000      21.79500000      24.67800000
 O      32.71100000      28.86500000      39.25100000
 H      33.43200000      29.07700000      38.58100000
 H      33.31700000      28.29100000      39.78200000
 O      33.13000000      28.54300000      31.17700000
 H      32.51400000      27.80300000      31.40800000
 H      32.74100000      29.26300000      31.75100000
 O      30.69900000      23.77500000      23.67800000
 H      30.39800000      24.70600000      23.89300000
 H      31.65000000      23.91200000      23.88500000
 O      27.95300000      31.59800000      36.45300000
 H      28.68100000      32.07600000      36.87000000
 H      28.28700000      31.41200000      35.56900000
 O      31.01500000      40.48000000      20.70400000
 H      31.33700000      39.81900000      20.05600000
 H      30.11400000      40.24500000      20.94100000
 O      28.71700000      28.61800000      35.58100000
 H      28.47200000      28.04300000      36.38500000
 H      27.98500000      29.23800000      35.57900000
 O      39.65600000      33.35900000      34.33700000
 H      39.87900000      33.30400000      33.36300000
 H      40.18400000      34.17300000      34.54600000
 O      33.96900000      38.79400000      32.07400000
 H      34.50000000      39.38900000      31.48300000
 H      34.70200000      38.11100000      32.26100000
 O      34.48200000      25.37300000      36.56500000
 H      34.75000000      25.89400000      35.76300000
 H      35.25800000      25.59200000      37.17800000
 O      38.76900000      29.66000000      37.68300000
 H      39.08100000      29.88900000      36.79100000
 H      39.57900000      29.29100000      38.02400000
 O      38.37900000      23.40300000      33.45600000
 H      38.02100000      23.55600000      32.56400000
 H      38.33100000      24.27400000      33.88900000
 O      28.03400000      38.10700000      31.99500000
 H      28.37900000      38.95400000      31.76800000
 H      27.27400000      38.32800000      32.54100000
 O      36.17900000      37.45600000      33.36800000
 H      36.93000000      36.98000000      32.92000000
 H      35.87500000      36.70100000      33.94500000
 O      38.87600000      38.49400000      33.16200000
 H      38.60500000      37.68100000      32.61000000
 H      39.82900000      38.38500000      33.20500000
 O      37.91100000      26.12000000      35.06100000
 H      37.53200000      26.97400000      35.30900000
 H      37.38600000      25.89500000      34.23200000
 O      30.23200000      21.53400000      25.37500000
 H      30.55300000      22.25100000      24.80600000
 H      29.32000000      21.42500000      25.07700000
 O      29.65100000      35.53900000      35.22100000
 H      28.95700000      35.36900000      34.58500000
 H      29.17000000      35.55700000      36.06900000
 O      28.34200000      39.07000000      28.54200000
 H      29.00600000      38.45500000      28.77700000
 H      28.36800000      39.74000000      29.29200000
 O      30.57200000      28.68700000      22.81200000
 H      30.07400000      28.31100000      22.08000000
 H      30.59100000      29.62800000      22.57400000
 O      35.82300000      21.70800000      23.42700000
 H      36.68900000      22.00600000      23.77800000
 H      36.03500000      21.63400000      22.46800000
 O      32.13800000      37.56900000      36.37400000
 H      32.80300000      36.93200000      36.74600000
 H      31.43400000      36.89000000      36.14200000
