729
XYZ file of cluster: frame_7000_a0a.9b59e.c52c6 - created by MolEdiTo
 O      31.88300000      28.66600000      35.05000000
 H      32.25300000      29.38300000      34.57800000
 H      30.88500000      28.89900000      35.04400000
 O      32.13400000      33.56100000      36.99900000
 H      31.95800000      34.27300000      37.69300000
 H      31.53900000      32.90600000      37.41500000
 O      30.28700000      39.63400000      35.12100000
 H      30.70100000      38.82200000      35.43700000
 H      30.73400000      39.78500000      34.25400000
 O      10.71600000      30.63400000      36.27000000
 H      11.51200000      30.11300000      36.54500000
 H      10.66600000      31.33200000      36.95300000
 O       1.55100000      35.92600000      39.73700000
 H       1.70500000      34.97100000      39.57100000
 H       0.59500000      36.06600000      39.50200000
 O      29.99200000      29.17100000      39.60500000
 H      29.97600000      29.21300000      40.58700000
 H      30.89700000      29.00700000      39.44000000
 O      10.35800000      33.82600000      35.91800000
 H      11.21800000      34.26900000      36.05100000
 H      10.49500000      33.35100000      35.07400000
 O      31.18400000      35.24000000      39.19900000
 H      31.25400000      34.51200000      39.85900000
 H      31.84700000      35.82300000      39.65200000
 O      34.54300000      31.44700000      35.70700000
 H      33.92800000      32.13400000      35.45800000
 H      35.40300000      31.71200000      35.41900000
 O      37.86600000      36.29100000      36.30300000
 H      37.28100000      35.76300000      35.74400000
 H      38.77100000      36.12200000      35.86300000
 O      27.70700000      38.65500000      38.75400000
 H      28.32400000      38.66000000      39.55100000
 H      28.11900000      37.89700000      38.27300000
 O       1.98500000      30.09000000      36.65200000
 H       2.35400000      30.66200000      35.97400000
 H       1.10700000      29.96600000      36.10700000
 O      20.31200000      28.81100000      33.92600000
 H      19.44400000      28.65400000      34.40000000
 H      20.94700000      28.56700000      34.66300000
 O      18.49100000      40.23900000      40.40600000
 H      19.39900000      39.78600000      40.30600000
 H      18.18900000      40.19300000      39.51400000
 O       3.22100000      28.36900000      40.04800000
 H       3.76400000      29.18900000      39.93100000
 H       3.81900000      27.75200000      39.54700000
 O      16.10700000      28.95300000      39.77000000
 H      16.19600000      28.18400000      40.41000000
 H      15.44100000      29.41200000      40.31400000
 O      36.33400000      28.21700000      35.42300000
 H      36.14100000      28.34100000      36.34600000
 H      36.35400000      29.16400000      35.09900000
 O      28.70100000      35.96700000      37.76200000
 H      27.91000000      35.61200000      38.22700000
 H      29.43400000      35.67800000      38.27000000
 O       8.63600000      31.41600000      34.77200000
 H       9.18800000      31.09000000      35.47200000
 H       9.33200000      31.74100000      34.15000000
 O      32.28400000      32.86100000      40.58400000
 H      32.94700000      32.15300000      40.61700000
 H      31.76100000      32.62500000      41.41300000
 O      16.25600000      31.45200000      38.85900000
 H      15.80600000      31.27100000      37.96600000
 H      16.17000000      30.60000000      39.32300000
 O       4.03500000      40.36300000      34.52200000
 H       4.38100000      39.46600000      34.42300000
 H       4.79100000      40.81700000      34.96400000
 O      34.23500000      35.65500000      37.56200000
 H      33.97000000      35.15300000      36.76100000
 H      34.18400000      34.91100000      38.20100000
 O      16.61200000      32.45900000      35.65600000
 H      16.12100000      33.28700000      35.47400000
 H      15.94600000      32.02500000      36.24300000
 O      27.36900000      39.36600000      35.97800000
 H      28.33200000      39.20400000      35.79100000
 H      27.40300000      39.43400000      36.95100000
 O      26.85100000      34.70300000      39.24200000
 H      25.91900000      34.50200000      39.08700000
 H      26.76300000      35.18500000      40.09900000
 O      40.25000000      36.06900000      34.98300000
 H      40.46100000      36.74900000      34.25900000
 H      40.99500000      36.26900000      35.58500000
 O      34.53900000      29.29100000      37.43300000
 H      34.46300000      29.99600000      36.75000000
 H      35.29000000      29.63400000      37.98800000
 O      39.22700000      39.08100000      39.24800000
 H      38.79700000      39.39000000      40.07900000
 H      38.69600000      39.57200000      38.60500000
 O      13.91200000      33.50100000      37.38600000
 H      13.95300000      32.50000000      37.31100000
 H      14.22100000      33.59800000      38.30800000
 O      37.10700000      40.12400000      37.91500000
 H      36.62800000      39.22400000      37.90200000
 H      37.53800000      40.01100000      36.99900000
 O      22.01800000      28.06300000      35.85800000
 H      21.99600000      27.09200000      36.00500000
 H      21.56400000      28.32900000      36.68700000
 O      37.42900000      32.70600000      38.59600000
 H      38.43000000      32.73500000      38.37700000
 H      37.33800000      31.79100000      38.82500000
 O       7.79400000      36.77900000      37.83600000
 H       7.51300000      35.84300000      37.88500000
 H       8.73300000      36.62100000      38.05400000
 O       3.22800000      31.73500000      34.76200000
 H       2.74000000      32.01400000      33.99500000
 H       4.01000000      31.31800000      34.36000000
 O      34.11600000      40.30000000      38.54700000
 H      34.36500000      39.74500000      37.86100000
 H      33.13600000      40.40200000      38.42600000
 O      26.43400000      29.90900000      40.39500000
 H      26.18500000      29.10900000      39.91300000
 H      26.41400000      30.57900000      39.65300000
 O      39.60500000      30.49400000      35.27000000
 H      39.16200000      30.28300000      34.38300000
 H      39.45200000      31.47300000      35.28100000
 O      30.35400000      31.92000000      38.34900000
 H      30.53100000      32.20300000      39.23500000
 H      30.57100000      30.99600000      38.33200000
 O      18.26500000      34.79200000      37.51700000
 H      19.22200000      34.57300000      37.47900000
 H      18.01900000      34.18500000      38.29400000
 O      10.28900000      36.75000000      38.54600000
 H      10.87500000      36.08000000      38.13300000
 H      10.80500000      37.56500000      38.26300000
 O       6.92200000      33.35500000      35.83500000
 H       6.73200000      33.82900000      34.98400000
 H       7.45100000      32.57900000      35.59100000
 O       2.23600000      36.48800000      36.92800000
 H       2.19000000      36.36800000      37.90000000
 H       3.02000000      35.95600000      36.73800000
 O      14.37300000      36.66900000      38.47700000
 H      15.15200000      37.31400000      38.33800000
 H      14.60000000      36.39600000      39.39100000
 O      25.79000000      28.51400000      35.91300000
 H      25.82400000      28.70300000      36.89900000
 H      25.74000000      27.51600000      35.93100000
 O      12.21600000      35.63300000      37.21600000
 H      12.73400000      34.75200000      37.31100000
 H      12.90900000      36.24000000      37.61200000
 O      17.22800000      39.65100000      35.33800000
 H      16.80600000      39.30100000      34.54500000
 H      17.73100000      38.91200000      35.66400000
 O      13.68300000      33.12400000      40.41200000
 H      14.17300000      32.40900000      40.91600000
 H      12.75400000      32.93500000      40.61300000
 O       2.52400000      40.73700000      40.32600000
 H       3.43100000      40.58500000      39.94700000
 H       2.07700000      40.07200000      39.64400000
 O      18.17000000      27.75800000      35.29300000
 H      17.58700000      28.02400000      34.56700000
 H      18.05800000      26.78500000      35.15600000
 O      26.16300000      27.81100000      38.98600000
 H      25.84500000      26.86600000      39.00100000
 H      27.11100000      27.61000000      38.65000000
 O       1.09900000      39.79800000      35.36900000
 H       1.82400000      39.95200000      34.74600000
 H       1.35900000      38.90400000      35.70100000
 O      25.60100000      37.21800000      35.88500000
 H      26.07300000      36.50800000      35.43900000
 H      26.20600000      37.93200000      35.93300000
 O      18.50400000      31.08900000      37.22000000
 H      18.14400000      31.54500000      36.44600000
 H      17.85800000      31.15000000      37.93200000
 O      30.53800000      38.50900000      39.59400000
 H      30.73800000      38.42900000      40.54600000
 H      31.12200000      37.77900000      39.24100000
 O       7.07500000      28.01900000      35.78200000
 H       7.88500000      28.23400000      35.27900000
 H       6.96600000      28.80500000      36.35600000
 O      25.53100000      33.29600000      35.40600000
 H      25.61700000      33.00700000      34.46200000
 H      26.09000000      32.57700000      35.81200000
 O       5.97000000      30.54100000      34.69100000
 H       6.89800000      30.80500000      34.54700000
 H       5.99000000      30.44700000      35.67700000
 O      22.76100000      35.35400000      39.30200000
 H      22.30000000      34.76700000      39.92000000
 H      23.30600000      34.73400000      38.78800000
 O      37.67900000      34.99200000      40.27100000
 H      37.72800000      34.25200000      39.64000000
 H      38.30100000      35.58400000      39.76900000
 O      17.87200000      35.38300000      34.94200000
 H      17.88900000      35.36200000      35.96000000
 H      16.93500000      35.08900000      34.81600000
 O      20.73400000      34.13200000      37.34100000
 H      20.45900000      33.77800000      38.21800000
 H      21.65700000      34.42100000      37.52300000
 O       3.63300000      31.08000000      38.30000000
 H       3.00700000      30.69500000      37.69500000
 H       3.03900000      31.66100000      38.80600000
 O       5.07700000      36.70700000      36.04200000
 H       4.89200000      35.74400000      35.97100000
 H       5.01700000      36.90800000      35.09100000
 O      20.49000000      35.20000000      34.60100000
 H      20.59000000      34.76500000      35.48400000
 H      19.53200000      35.33900000      34.60500000
 O      36.57800000      29.65000000      39.34200000
 H      36.81200000      28.94100000      40.01500000
 H      37.42100000      29.57400000      38.83700000
 O       4.24500000      33.96300000      36.09500000
 H       3.88900000      33.06800000      35.81700000
 H       5.19100000      33.71700000      36.11500000
 O      14.75300000      30.88800000      36.68300000
 H      14.59000000      30.65600000      35.73600000
 H      14.13700000      30.23700000      37.06700000
 O      26.19000000      39.89500000      40.53500000
 H      26.79100000      39.55800000      39.87100000
 H      25.50000000      39.24200000      40.59400000
 O      15.20200000      34.93600000      35.35100000
 H      14.50300000      34.51200000      35.90700000
 H      14.92200000      35.91500000      35.41500000
 O      39.98600000      32.62900000      37.90100000
 H      40.69300000      32.43000000      38.59500000
 H      40.58100000      32.65600000      37.17200000
 O      21.38100000      39.83200000      40.43100000
 H      21.74900000      39.40300000      41.27600000
 H      22.11000000      40.53900000      40.36600000
 O      28.57700000      27.45200000      37.98100000
 H      28.80700000      28.14100000      38.65000000
 H      29.44700000      27.15700000      37.74000000
 O      12.39100000      38.61200000      38.27700000
 H      13.14900000      37.98900000      38.45500000
 H      12.85000000      39.38300000      37.84200000
 O       1.81300000      32.34000000      39.91500000
 H       2.22000000      32.52100000      40.79900000
 H       1.35600000      31.46600000      40.13900000
 O      15.69200000      38.64800000      40.66000000
 H      15.90600000      38.95200000      39.76700000
 H      16.38600000      38.03200000      40.83600000
 O      33.06600000      40.25000000      35.53300000
 H      32.58800000      39.51000000      35.95600000
 H      32.44900000      40.93100000      35.84900000
 O       7.49100000      33.77500000      38.45200000
 H       6.78400000      33.41500000      38.99600000
 H       7.25700000      33.57600000      37.53900000
 O      37.14900000      32.33300000      35.55900000
 H      37.47900000      32.74100000      34.79400000
 H      37.67500000      32.60300000      36.33700000
 O       6.17800000      38.84800000      37.49900000
 H       6.85800000      38.28300000      37.91300000
 H       5.60900000      38.12300000      37.08800000
 O      17.66600000      33.35200000      39.69100000
 H      17.94000000      33.00800000      40.53000000
 H      16.94800000      32.76400000      39.45700000
 O      16.14200000      38.58000000      38.03100000
 H      17.07400000      38.39400000      37.83300000
 H      15.98400000      39.28000000      37.41700000
 O      12.91400000      29.05500000      37.19700000
 H      13.58200000      28.34600000      37.12800000
 H      12.41400000      28.78900000      37.97800000
 O      38.39200000      39.45700000      35.66400000
 H      38.28200000      39.02500000      34.74000000
 H      39.35700000      39.70400000      35.54800000
 O      32.82200000      37.13600000      40.35700000
 H      32.69900000      36.95100000      41.30900000
 H      33.79600000      37.15300000      40.30600000
 O      19.06200000      29.29600000      40.00000000
 H      19.59300000      29.26400000      39.18800000
 H      18.17400000      29.05700000      39.59600000
 O      36.10600000      37.61000000      37.95900000
 H      36.59400000      37.17300000      37.16200000
 H      35.25200000      37.10900000      37.88200000
 O      10.28200000      32.75700000      38.46200000
 H      10.47200000      33.11500000      37.60000000
 H       9.33600000      32.87800000      38.54700000
 O      14.21800000      37.43700000      35.12300000
 H      14.33300000      37.83400000      34.20400000
 H      14.49500000      38.22200000      35.65700000
 O      24.42600000      33.67400000      37.99400000
 H      24.91600000      32.82500000      38.06800000
 H      24.47700000      33.83900000      37.03300000
 O      14.35800000      40.42400000      36.55400000
 H      14.18800000      41.03800000      37.34800000
 H      14.01300000      41.02200000      35.86900000
 O      11.31300000      37.73500000      35.01900000
 H      12.06900000      37.31900000      35.49500000
 H      10.56600000      37.23500000      35.41800000
 O      21.09300000      32.96200000      39.84300000
 H      21.79500000      32.63300000      40.31800000
 H      20.29900000      32.65300000      40.24000000
 O      26.35900000      31.84200000      38.53300000
 H      27.01800000      31.32900000      37.97400000
 H      26.99100000      32.57500000      38.77500000
 O      39.15200000      36.50300000      38.64200000
 H      38.59100000      36.62500000      37.82400000
 H      39.10600000      37.48700000      38.91200000
 O      33.62500000      34.44200000      34.97700000
 H      32.98100000      34.74200000      34.29100000
 H      32.93400000      33.92400000      35.51000000
 O      20.14200000      36.82900000      39.07800000
 H      21.10500000      36.59900000      39.26000000
 H      19.93600000      36.09300000      38.48000000
 O       3.03900000      27.59100000      36.60400000
 H       2.78800000      28.50000000      36.77200000
 H       2.12700000      27.26400000      36.27400000
 O      32.71100000      28.86500000      39.25100000
 H      33.43200000      29.07700000      38.58100000
 H      33.31700000      28.29100000      39.78200000
 O      19.81600000      28.44900000      37.44000000
 H      19.44600000      29.36100000      37.27800000
 H      19.40800000      27.96100000      36.68300000
 O      27.95300000      31.59800000      36.45300000
 H      28.68100000      32.07600000      36.87000000
 H      28.28700000      31.41200000      35.56900000
 O      28.71700000      28.61800000      35.58100000
 H      28.47200000      28.04300000      36.38500000
 H      27.98500000      29.23800000      35.57900000
 O      24.30600000      37.54000000      39.84500000
 H      23.93100000      37.90700000      38.95200000
 H      23.93500000      36.59500000      39.73700000
 O      38.76900000      29.66000000      37.68300000
 H      39.08100000      29.88900000      36.79100000
 H      39.57900000      29.29100000      38.02400000
 O       7.04700000      29.44300000      39.87600000
 H       7.13500000      28.60000000      39.40800000
 H       7.96600000      29.54200000      40.21800000
 O      23.29500000      37.64100000      37.12100000
 H      24.10400000      37.61100000      36.55000000
 H      22.59500000      37.99500000      36.54000000
 O      21.00000000      39.73300000      37.64600000
 H      21.04400000      39.51600000      38.60000000
 H      21.83700000      40.26800000      37.62400000
 O      11.15500000      40.56400000      39.87700000
 H      11.27200000      39.78900000      39.28000000
 H      10.52300000      40.20000000      40.54100000
 O       9.08800000      36.38600000      35.42300000
 H       9.20400000      35.43300000      35.49800000
 H       8.32600000      36.56200000      36.02100000
 O       4.62700000      40.54900000      38.76200000
 H       5.09200000      39.90800000      38.20800000
 H       4.30300000      41.15900000      38.09000000
 O      21.93900000      37.70500000      34.69300000
 H      21.57100000      37.63000000      33.76000000
 H      21.42400000      37.02800000      35.13800000
 O       5.97100000      30.33500000      37.33900000
 H       5.10900000      30.75200000      37.65000000
 H       6.26100000      29.89000000      38.15400000
 O      27.18100000      35.13900000      34.20100000
 H      26.57500000      35.39000000      33.50500000
 H      26.57000000      34.65000000      34.75300000
 O       0.86000000      29.88200000      40.64400000
 H       1.53700000      29.17500000      40.53200000
 H       0.10700000      29.32500000      40.97300000
 O      29.65100000      35.53900000      35.22100000
 H      28.95700000      35.36900000      34.58500000
 H      29.17000000      35.55700000      36.06900000
 O      18.79800000      38.20800000      36.90500000
 H      19.56600000      38.81600000      37.11800000
 H      19.17400000      37.40100000      37.24000000
 O       1.75400000      38.93900000      38.65400000
 H       0.80400000      39.05400000      38.81600000
 H       1.72500000      38.22700000      37.93500000
 O       4.35800000      27.90900000      34.29600000
 H       4.80200000      28.59100000      34.74500000
 H       4.10900000      27.31900000      35.02100000
 O      32.13800000      37.56900000      36.37400000
 H      32.80300000      36.93200000      36.74600000
 H      31.43400000      36.89000000      36.14200000
 O      29.86000000      32.19400000      43.47100000
 H      29.10600000      31.51900000      43.32900000
 H      29.21300000      32.89500000      43.82500000
 O      34.69700000      33.08600000      47.04600000
 H      34.04100000      33.58700000      47.62800000
 H      35.51800000      33.16900000      47.54800000
 O      18.13300000      36.97400000      42.63900000
 H      18.45000000      36.21700000      43.15400000
 H      18.84300000      37.03500000      41.98000000
 O      36.61400000      39.06700000      46.47400000
 H      36.22900000      38.48300000      45.76800000
 H      36.27700000      39.90700000      46.13400000
 O      19.87100000      28.13800000      44.31200000
 H      19.10200000      28.31800000      43.75800000
 H      20.20300000      29.08100000      44.45100000
 O      31.85300000      27.67800000      46.03500000
 H      32.65600000      27.32400000      45.57600000
 H      32.07800000      28.60500000      45.94900000
 O       9.51200000      35.78600000      46.20200000
 H       8.99000000      34.98500000      46.06000000
 H       9.83000000      36.04800000      45.33900000
 O      38.57400000      31.72100000      48.51700000
 H      39.46400000      31.92500000      48.15000000
 H      38.16900000      31.25200000      47.80000000
 O       4.87300000      35.23900000      42.95800000
 H       4.24700000      35.97400000      43.26400000
 H       5.69100000      35.68500000      43.06900000
 O      19.93100000      38.75000000      45.95900000
 H      20.26000000      37.78700000      45.88200000
 H      20.77100000      39.13800000      45.52700000
 O      30.93300000      33.70600000      45.91200000
 H      30.81500000      32.83800000      46.30700000
 H      31.67700000      33.57800000      45.27700000
 O      14.05500000      30.29700000      42.51900000
 H      13.37100000      29.63800000      42.54600000
 H      13.90900000      30.75800000      43.39700000
 O      32.91300000      37.42800000      46.99700000
 H      33.29600000      37.76000000      47.87200000
 H      32.14200000      38.02900000      46.96600000
 O      40.65900000      30.42200000      44.98400000
 H      40.69000000      30.89000000      45.84400000
 H      41.63200000      30.17600000      44.97000000
 O      11.10300000      32.38000000      44.89700000
 H      11.96200000      31.87500000      44.91100000
 H      11.14300000      32.69900000      43.98200000
 O       4.06400000      39.24000000      48.56400000
 H       3.08900000      39.26400000      48.71700000
 H       4.05300000      39.17300000      47.57000000
 O      30.31100000      38.34000000      43.91600000
 H      30.80400000      37.50700000      44.09400000
 H      30.10400000      38.59300000      44.87900000
 O      38.24000000      32.03200000      44.03000000
 H      38.43500000      32.99700000      44.06400000
 H      39.15400000      31.71900000      44.40400000
 O      34.56400000      30.52000000      42.66100000
 H      35.07300000      31.40000000      42.74500000
 H      35.10400000      30.09300000      41.97100000
 O      34.89600000      37.86700000      44.67700000
 H      35.20200000      37.42300000      43.88600000
 H      34.78900000      38.79300000      44.35000000
 O      14.18200000      33.84600000      46.47200000
 H      13.44000000      34.49700000      46.43700000
 H      14.00400000      33.35900000      47.30100000
 O       9.26700000      29.81100000      42.58300000
 H       9.11300000      29.46600000      43.45900000
 H      10.14900000      29.50300000      42.40300000
 O      12.46300000      28.12100000      42.28200000
 H      12.74300000      27.31400000      42.76700000
 H      11.64400000      27.81100000      41.91700000
 O      20.45400000      32.55700000      47.91800000
 H      21.09700000      33.18500000      47.51000000
 H      20.01400000      33.05600000      48.56000000
 O       1.01300000      36.57600000      47.36100000
 H       0.40700000      37.05200000      46.69600000
 H       1.34300000      35.85900000      46.72900000
 O      38.90900000      35.50300000      48.49400000
 H      39.47700000      35.03400000      49.15400000
 H      39.61400000      35.91200000      47.93000000
 O       7.64500000      36.58700000      43.56900000
 H       7.95300000      37.27700000      44.12000000
 H       8.47300000      36.17800000      43.27300000
 O       5.48800000      30.87300000      43.43900000
 H       5.73500000      30.50500000      42.60000000
 H       6.31100000      31.36700000      43.63600000
 O      22.94900000      31.39300000      47.57400000
 H      23.69300000      32.00000000      47.51300000
 H      22.23500000      32.05000000      47.62300000
 O       3.12700000      29.62300000      44.99600000
 H       3.50500000      28.75600000      45.04200000
 H       3.62000000      30.03400000      44.28400000
 O       8.13100000      28.74800000      47.02500000
 H       8.40600000      29.36900000      47.70800000
 H       8.85400000      28.78400000      46.40700000
 O      38.56900000      38.89800000      43.51500000
 H      37.70900000      39.44600000      43.68900000
 H      39.18800000      39.63700000      43.52700000
 O      22.32100000      34.63400000      43.77800000
 H      22.94100000      33.94100000      43.44400000
 H      22.98200000      35.08700000      44.38400000
 O      16.82600000      38.39800000      48.33600000
 H      16.49200000      38.90400000      47.60300000
 H      16.89800000      39.03800000      49.10900000
 O       0.98900000      32.59800000      47.48500000
 H       1.85300000      32.27600000      47.70800000
 H       1.27900000      33.22700000      46.71700000
 O      10.35000000      29.22000000      45.08200000
 H      10.76400000      29.77500000      45.77900000
 H      11.06500000      28.49100000      45.15300000
 O      24.89400000      26.88000000      45.26600000
 H      25.27000000      27.79500000      45.10400000
 H      25.61900000      26.46700000      45.73900000
 O      36.90600000      30.49200000      45.92700000
 H      37.17300000      31.13700000      45.23700000
 H      37.35500000      29.63900000      45.52600000
 O       1.26700000      39.16600000      48.52300000
 H       0.64100000      38.45900000      48.59300000
 H       0.77100000      39.80400000      47.96400000
 O      21.94600000      34.43300000      46.85800000
 H      22.84800000      34.52800000      46.55100000
 H      21.53500000      35.25400000      46.46100000
 O      11.10100000      40.09200000      44.34900000
 H      10.66200000      40.14900000      45.28500000
 H      11.88100000      40.57400000      44.56700000
 O      13.11300000      40.52100000      46.79200000
 H      14.08300000      40.61200000      46.58900000
 H      12.89800000      39.61100000      46.75300000
 O      18.93800000      31.69100000      43.15500000
 H      18.81600000      30.97400000      42.48200000
 H      18.36900000      31.33300000      43.86100000
 O       2.89100000      30.72100000      47.43500000
 H       3.89200000      30.81700000      47.74500000
 H       3.11400000      30.26800000      46.55900000
 O      39.00000000      34.70700000      44.35800000
 H      38.36600000      35.10000000      44.98900000
 H      38.63800000      35.10000000      43.51800000
 O       5.79400000      27.43600000      47.64600000
 H       6.32500000      26.92500000      48.24700000
 H       6.52900000      27.94300000      47.19900000
 O      24.91000000      33.29300000      47.35700000
 H      25.11300000      33.65600000      48.23500000
 H      25.55400000      32.53900000      47.27500000
 O      28.50600000      35.29900000      45.48500000
 H      28.53000000      35.77400000      46.31900000
 H      29.26700000      34.70900000      45.65900000
 O       3.23700000      37.55500000      43.09000000
 H       2.80300000      38.41100000      42.78200000
 H       2.66900000      36.91600000      42.65700000
 O      33.00500000      29.82700000      44.55300000
 H      33.53800000      30.51200000      45.03300000
 H      33.51400000      29.73600000      43.74400000
 O      37.92100000      27.68400000      48.42200000
 H      38.64600000      28.04600000      47.86200000
 H      37.17000000      28.09500000      47.94200000
 O      35.36800000      28.39000000      47.05700000
 H      35.63900000      29.15100000      46.49600000
 H      35.20500000      28.84200000      47.90400000
 O      33.89400000      40.43300000      43.96800000
 H      33.12400000      40.63300000      43.35100000
 H      34.55600000      41.01700000      43.54900000
 O      20.10100000      36.73000000      48.44200000
 H      21.08000000      36.74400000      48.52900000
 H      19.98300000      36.60100000      47.50700000
 O      23.57500000      29.57600000      43.64200000
 H      23.64700000      28.80300000      43.02500000
 H      24.44600000      29.53000000      44.11000000
 O       9.59500000      32.96900000      47.20100000
 H      10.26000000      33.23900000      47.86000000
 H      10.16700000      32.61200000      46.48500000
 O      18.23400000      30.89000000      47.68200000
 H      19.04500000      31.48100000      47.79000000
 H      18.17400000      30.85800000      46.69700000
 O      37.39600000      27.75300000      42.44900000
 H      37.92300000      26.99500000      42.04000000
 H      37.26600000      27.34700000      43.34700000
 O      21.84300000      29.93600000      45.61600000
 H      22.44300000      30.27900000      46.38400000
 H      22.59300000      29.89700000      44.93900000
 O      14.14700000      37.69300000      44.10000000
 H      14.74800000      38.19700000      43.51600000
 H      14.38800000      36.80000000      43.80200000
 O      33.31900000      30.77100000      47.36000000
 H      33.96200000      30.66400000      48.10600000
 H      33.72900000      31.54000000      46.90000000
 O       4.97300000      36.09900000      47.28000000
 H       4.65300000      36.97700000      46.90100000
 H       5.94000000      36.22700000      47.12100000
 O      11.99000000      35.38000000      47.03500000
 H      11.68400000      34.98400000      47.93200000
 H      11.12900000      35.67900000      46.74300000
 O      18.85700000      34.49800000      44.23600000
 H      19.01500000      33.62300000      43.89800000
 H      18.20500000      34.40500000      44.89700000
 O      11.26800000      37.18200000      44.07700000
 H      11.13300000      38.14800000      44.29500000
 H      12.25500000      37.18300000      44.00400000
 O      36.83300000      35.74500000      45.80500000
 H      36.02500000      36.00800000      45.36900000
 H      36.78900000      36.34400000      46.59300000
 O       5.34600000      33.42100000      47.11500000
 H       4.77700000      34.23400000      47.10000000
 H       6.03200000      33.81900000      46.53100000
 O      25.37500000      39.43600000      48.23500000
 H      24.49900000      39.72900000      48.53900000
 H      25.93200000      40.21200000      48.53000000
 O       7.70800000      36.86800000      47.88700000
 H       8.42700000      37.26400000      48.40700000
 H       8.19800000      36.28200000      47.30100000
 O      26.07100000      29.00400000      44.37600000
 H      26.86200000      29.42200000      44.82200000
 H      26.18600000      29.44700000      43.49800000
 O       6.99300000      27.88500000      43.80200000
 H       6.77800000      28.65500000      43.24900000
 H       6.19300000      27.69700000      44.27400000
 O      30.70700000      39.11100000      46.72300000
 H      30.65200000      39.02700000      47.64600000
 H      30.34300000      40.02500000      46.54300000
 O      30.47900000      30.93300000      47.35400000
 H      30.47700000      30.93900000      48.36300000
 H      31.47500000      30.79200000      47.24100000
 O      35.81000000      32.97100000      43.06600000
 H      36.71500000      32.63400000      43.22100000
 H      36.00700000      33.58700000      42.31600000
 O       1.44800000      34.15400000      45.28000000
 H       0.64200000      34.29700000      44.75800000
 H       1.99800000      33.67900000      44.60100000
 O      32.47400000      34.72900000      47.95500000
 H      31.91000000      34.42300000      47.21500000
 H      32.53300000      35.68300000      47.74300000
 O      35.76800000      37.16400000      42.26900000
 H      36.03000000      37.73100000      41.50500000
 H      36.28700000      36.37500000      42.09400000
 O      23.68300000      32.38300000      42.70700000
 H      24.46500000      32.04900000      42.23500000
 H      23.29700000      31.57700000      43.08300000
 O      10.08600000      39.64500000      46.79600000
 H       9.62900000      40.39700000      47.16900000
 H      10.30100000      39.07800000      47.56300000
 O       3.83600000      38.28000000      46.04800000
 H       3.47500000      39.17000000      45.79600000
 H       3.29800000      37.78600000      45.38900000
 O      27.01600000      35.98500000      43.07400000
 H      27.47900000      36.82900000      42.99500000
 H      27.26400000      35.82400000      44.04100000
 O      27.36400000      27.85500000      48.21300000
 H      27.95500000      28.44500000      48.67900000
 H      27.97400000      27.50800000      47.50700000
 O       7.97600000      30.95400000      48.65700000
 H       8.03000000      31.50200000      49.51600000
 H       8.56600000      31.46500000      48.08000000
 O       7.64200000      33.90400000      45.67000000
 H       7.72100000      33.25600000      44.95800000
 H       8.00200000      33.45400000      46.45900000
 O      18.31100000      27.49500000      46.53300000
 H      18.16500000      26.56500000      46.24000000
 H      19.06700000      27.77100000      45.92700000
 O      17.39600000      39.37600000      44.63400000
 H      18.32000000      39.48100000      44.86000000
 H      17.34200000      38.73300000      43.93800000
 O      22.16600000      39.67300000      44.72700000
 H      22.98800000      39.10100000      44.63600000
 H      22.48200000      40.38000000      45.29900000
 O      39.04800000      37.39700000      45.66200000
 H      39.05500000      37.98000000      44.85800000
 H      38.31800000      36.79200000      45.37400000
 O      37.41100000      37.88900000      49.01600000
 H      37.14400000      38.27600000      48.16300000
 H      37.74100000      37.04400000      48.63600000
 O      15.24200000      29.78200000      46.21400000
 H      15.39200000      29.89600000      47.19500000
 H      15.63300000      28.95400000      46.04000000
 O      17.09600000      31.43100000      45.10900000
 H      16.99400000      32.23600000      45.65000000
 H      16.44900000      30.84100000      45.50400000
 O       8.15200000      31.96500000      44.01200000
 H       8.74500000      31.79100000      44.73500000
 H       8.67800000      31.72100000      43.21300000
 O       9.84400000      35.59500000      42.61000000
 H      10.35300000      36.16900000      43.18300000
 H       9.97400000      36.07900000      41.74200000
 O      28.36100000      30.29500000      45.32600000
 H      28.99100000      30.45800000      46.02500000
 H      28.94200000      30.05600000      44.57600000
 O      20.62500000      36.18200000      45.36900000
 H      21.18500000      35.76600000      44.65600000
 H      19.90600000      35.46700000      45.38300000
 O      22.17500000      27.48200000      46.72100000
 H      23.03000000      27.23800000      46.40600000
 H      22.04100000      28.32500000      46.21100000
 O      22.65500000      37.45800000      48.38100000
 H      23.43300000      36.96200000      47.98400000
 H      23.01800000      38.34600000      48.37300000
 O      12.07100000      29.03800000      47.64100000
 H      12.91500000      29.42000000      48.06300000
 H      11.54400000      28.94700000      48.45800000
 O       5.42400000      30.93000000      47.93600000
 H       5.42400000      31.81800000      47.64100000
 H       6.43700000      30.82000000      48.08700000
 O      25.52400000      36.85900000      47.30300000
 H      25.69500000      37.78800000      47.54400000
 H      26.38400000      36.40900000      47.35500000
 O      38.64200000      28.51600000      44.77800000
 H      39.25500000      29.33000000      44.80000000
 H      39.27900000      27.95000000      45.29400000
 O       8.52400000      40.75400000      42.61200000
 H       7.84500000      40.33600000      42.14900000
 H       8.54000000      40.25500000      43.44400000
 O      16.90800000      34.07100000      46.24300000
 H      17.06200000      34.61900000      47.03200000
 H      15.91900000      34.14400000      46.13100000
 O      14.39200000      37.25500000      48.99100000
 H      15.31200000      37.42000000      48.67100000
 H      13.85000000      37.32600000      48.17000000
 O      33.69800000      34.29000000      44.63200000
 H      34.15500000      33.95300000      45.44700000
 H      34.30500000      33.92200000      43.95900000
 O      30.39100000      28.89300000      43.86800000
 H      31.13100000      29.27700000      44.34100000
 H      30.61300000      27.93600000      44.00800000
 O      11.02900000      33.17400000      42.43900000
 H      10.58900000      34.04900000      42.65300000
 H      10.91800000      33.13800000      41.48600000
 O      17.38900000      35.53600000      48.37900000
 H      18.19600000      35.41600000      48.88600000
 H      17.36200000      36.49600000      48.36200000
 O       6.10900000      38.75800000      42.59700000
 H       5.34000000      38.44800000      42.21400000
 H       6.64800000      37.93800000      42.75800000
 O      14.91700000      35.29200000      42.39700000
 H      14.26600000      34.62200000      42.11500000
 H      15.67300000      34.65200000      42.59600000
 O      12.36700000      27.30900000      45.73600000
 H      11.68600000      26.68200000      46.00000000
 H      12.22200000      27.92800000      46.56500000
 O       3.44800000      32.62900000      43.89000000
 H       3.98000000      33.42200000      43.72200000
 H       4.20500000      31.95100000      43.79500000
 O      24.37300000      37.93100000      44.26600000
 H      24.42900000      37.06600000      44.66000000
 H      24.39200000      37.77500000      43.27700000
 O      19.07400000      40.69300000      47.74100000
 H      19.11500000      40.02700000      47.01700000
 H      19.49100000      40.17800000      48.45900000
 O      24.41400000      35.45900000      45.45900000
 H      24.82100000      36.11200000      46.19100000
 H      24.91600000      34.69800000      45.71300000
 O       8.19600000      38.84700000      45.02300000
 H       7.51400000      39.43100000      45.47600000
 H       8.96300000      39.00300000      45.63100000
 O      32.39400000      36.67300000      44.38700000
 H      32.92200000      35.78300000      44.38300000
 H      32.62700000      37.00000000      45.30300000
 O      27.11300000      31.70600000      48.00300000
 H      26.34900000      31.11900000      48.04500000
 H      27.78100000      31.10300000      47.52200000
 O      26.72400000      39.90700000      45.60900000
 H      26.28500000      39.19500000      45.17600000
 H      26.48400000      39.84300000      46.54000000
 O      28.69100000      36.47500000      47.94900000
 H      29.42700000      37.02000000      48.23200000
 H      28.31300000      36.17100000      48.77200000
 O      39.25900000      40.43100000      47.05700000
 H      38.83000000      40.81800000      47.88600000
 H      38.48000000      39.95500000      46.72000000
 O      15.64700000      40.35600000      46.42600000
 H      16.08000000      41.14600000      46.81000000
 H      16.27900000      40.16700000      45.71100000
 O      13.18600000      37.77300000      46.59100000
 H      13.49000000      37.80100000      45.58200000
 H      12.89400000      36.83300000      46.57100000
 O      13.66100000      31.54900000      44.81000000
 H      13.97200000      30.82600000      45.44500000
 H      13.92200000      32.31400000      45.30400000
