1104
XYZ file of cluster: frame_7000_a0a.9b8cf.71c45 - created by MolEdiTo
 O      11.60500000      31.37800000      29.36000000
 H      10.82100000      30.89900000      29.75400000
 H      12.13400000      30.52900000      29.28100000
 O      28.43800000      33.12200000      28.25400000
 H      27.97400000      33.94600000      28.07400000
 H      28.32400000      33.13900000      29.25700000
 O      29.20200000      36.60800000      29.80400000
 H      30.09700000      36.87900000      30.13600000
 H      28.58200000      37.20900000      30.22000000
 O      29.12800000      31.60400000      33.69100000
 H      29.88700000      31.91500000      33.15900000
 H      28.56000000      31.39000000      32.92600000
 O      34.54300000      31.44700000      35.70700000
 H      33.92800000      32.13400000      35.45800000
 H      35.40300000      31.71200000      35.41900000
 O      17.43200000      30.71800000      29.37100000
 H      17.41200000      29.73700000      29.58500000
 H      16.71600000      30.70400000      28.71900000
 O       4.09700000      27.14200000      23.10200000
 H       4.41700000      27.80200000      22.38900000
 H       4.87100000      26.50100000      22.91900000
 O      27.70700000      38.65500000      38.75400000
 H      28.32400000      38.66000000      39.55100000
 H      28.11900000      37.89700000      38.27300000
 O      28.64700000      30.34800000      29.93600000
 H      28.40700000      29.58400000      29.40200000
 H      28.91000000      29.91400000      30.82900000
 O      13.34600000      29.53600000      29.44900000
 H      14.19600000      29.74300000      29.07700000
 H      13.06500000      28.76500000      28.86400000
 O      12.84800000      33.82100000      34.31100000
 H      12.96100000      34.34000000      33.46900000
 H      13.80000000      33.71600000      34.55600000
 O      28.70100000      35.96700000      37.76200000
 H      27.91000000      35.61200000      38.22700000
 H      29.43400000      35.67800000      38.27000000
 O       8.63600000      31.41600000      34.77200000
 H       9.18800000      31.09000000      35.47200000
 H       9.33200000      31.74100000      34.15000000
 O      38.23200000      33.27700000      23.81500000
 H      38.72800000      32.44100000      23.62700000
 H      38.38200000      33.79300000      23.03400000
 O      40.37200000      33.29500000      31.61800000
 H      39.83200000      33.35100000      30.81400000
 H      41.06300000      33.97300000      31.36300000
 O      27.36900000      39.36600000      35.97800000
 H      28.33200000      39.20400000      35.79100000
 H      27.40300000      39.43400000      36.95100000
 O      26.85100000      34.70300000      39.24200000
 H      25.91900000      34.50200000      39.08700000
 H      26.76300000      35.18500000      40.09900000
 O      35.23000000      32.99900000      24.17400000
 H      35.13600000      33.14400000      25.16700000
 H      36.19500000      33.27400000      24.10600000
 O       1.56300000      33.99900000      23.32400000
 H       1.65000000      34.00500000      24.31600000
 H       1.59100000      34.99900000      23.26700000
 O      10.28100000      32.24100000      23.04900000
 H      10.68900000      32.75200000      22.30900000
 H       9.35100000      32.12900000      22.67800000
 O      28.98300000      40.45100000      31.14300000
 H      29.89800000      40.27800000      31.51300000
 H      29.02800000      41.41000000      31.20800000
 O      37.42900000      32.70600000      38.59600000
 H      38.43000000      32.73500000      38.37700000
 H      37.33800000      31.79100000      38.82500000
 O      38.43900000      30.79400000      32.82200000
 H      38.17200000      31.58800000      32.27800000
 H      38.93000000      30.32300000      32.13100000
 O      20.03700000      34.64700000      28.71000000
 H      20.11400000      35.26700000      29.44200000
 H      20.09300000      33.77300000      29.13500000
 O      30.35400000      31.92000000      38.34900000
 H      30.53100000      32.20300000      39.23500000
 H      30.57100000      30.99600000      38.33200000
 O      18.26500000      34.79200000      37.51700000
 H      19.22200000      34.57300000      37.47900000
 H      18.01900000      34.18500000      38.29400000
 O       6.92200000      33.35500000      35.83500000
 H       6.73200000      33.82900000      34.98400000
 H       7.45100000      32.57900000      35.59100000
 O      36.14900000      35.04700000      34.34400000
 H      35.19900000      34.72500000      34.49600000
 H      36.25100000      34.67300000      33.37700000
 O       1.41900000      38.64700000      21.52200000
 H       0.92900000      39.26800000      21.02300000
 H       2.07900000      39.15600000      21.95300000
 O      22.86100000      36.65600000      28.89900000
 H      23.14000000      37.02400000      29.74100000
 H      23.19000000      35.73800000      28.94300000
 O      16.14900000      37.70700000      21.39400000
 H      16.88300000      37.40200000      21.96500000
 H      16.14700000      38.63800000      21.51800000
 O      17.22800000      39.65100000      35.33800000
 H      16.80600000      39.30100000      34.54500000
 H      17.73100000      38.91200000      35.66400000
 O      19.86000000      32.07400000      29.80200000
 H      19.86800000      31.72700000      30.70900000
 H      18.91200000      31.93700000      29.63000000
 O      18.88300000      27.80200000      26.39100000
 H      19.63100000      28.07100000      26.90000000
 H      18.66300000      26.92600000      26.77600000
 O      18.50400000      31.08900000      37.22000000
 H      18.14400000      31.54500000      36.44600000
 H      17.85800000      31.15000000      37.93200000
 O      26.69400000      29.72600000      32.89700000
 H      26.26600000      29.24600000      32.11900000
 H      26.84900000      28.94100000      33.49300000
 O      36.19300000      31.31400000      22.25200000
 H      35.98100000      32.23700000      21.98400000
 H      35.79200000      31.39000000      23.18400000
 O      21.66100000      36.12700000      26.21400000
 H      22.37500000      36.75800000      26.48200000
 H      21.43400000      35.73700000      27.08000000
 O       3.51200000      30.11200000      27.22600000
 H       2.85400000      30.40800000      26.56300000
 H       4.29800000      30.09100000      26.65400000
 O      22.76100000      35.35400000      39.30200000
 H      22.30000000      34.76700000      39.92000000
 H      23.30600000      34.73400000      38.78800000
 O      31.38500000      30.90400000      28.50000000
 H      30.54000000      30.91200000      29.00000000
 H      31.08900000      31.04700000      27.57500000
 O      38.15400000      30.91300000      29.58800000
 H      37.40500000      31.34700000      30.02800000
 H      37.77300000      30.05400000      29.24800000
 O      26.79400000      40.56700000      26.78000000
 H      27.37700000      39.92100000      27.27000000
 H      27.06800000      41.33700000      27.36100000
 O      18.80200000      39.18900000      22.94100000
 H      19.15200000      39.24500000      23.84900000
 H      18.53200000      40.07700000      22.70300000
 O       3.91000000      36.02000000      32.00700000
 H       3.18100000      36.03500000      31.32100000
 H       4.13900000      35.06900000      31.98600000
 O      37.67900000      34.99200000      40.27100000
 H      37.72800000      34.25200000      39.64000000
 H      38.30100000      35.58400000      39.76900000
 O      17.87200000      35.38300000      34.94200000
 H      17.88900000      35.36200000      35.96000000
 H      16.93500000      35.08900000      34.81600000
 O      20.73400000      34.13200000      37.34100000
 H      20.45900000      33.77800000      38.21800000
 H      21.65700000      34.42100000      37.52300000
 O       7.81600000      31.44100000      20.12900000
 H       7.75700000      31.59000000      21.08900000
 H       8.49700000      32.04400000      19.85500000
 O      36.57800000      29.65000000      39.34200000
 H      36.81200000      28.94100000      40.01500000
 H      37.42100000      29.57400000      38.83700000
 O      39.07100000      28.23600000      31.04800000
 H      39.02700000      28.14100000      30.06600000
 H      38.15500000      28.49800000      31.30100000
 O      19.33200000      37.86500000      20.70000000
 H      19.38900000      38.70000000      20.19500000
 H      19.30200000      38.27500000      21.61400000
 O      13.27900000      30.91100000      25.89500000
 H      13.02600000      30.89300000      24.95200000
 H      12.47900000      30.54700000      26.32600000
 O      21.38100000      39.83200000      40.43100000
 H      21.74900000      39.40300000      41.27600000
 H      22.11000000      40.53900000      40.36600000
 O      28.57700000      27.45200000      37.98100000
 H      28.80700000      28.14100000      38.65000000
 H      29.44700000      27.15700000      37.74000000
 O      12.39100000      38.61200000      38.27700000
 H      13.14900000      37.98900000      38.45500000
 H      12.85000000      39.38300000      37.84200000
 O      24.43900000      31.27500000      28.62600000
 H      24.06800000      30.56600000      28.07400000
 H      23.89000000      31.22400000      29.43700000
 O       9.52000000      28.33500000      34.48900000
 H       9.92700000      29.25500000      34.54100000
 H      10.26800000      27.85200000      34.04800000
 O      32.17100000      37.15400000      22.08900000
 H      31.77600000      37.27300000      21.20900000
 H      32.56700000      36.27200000      22.02400000
 O      33.06600000      40.25000000      35.53300000
 H      32.58800000      39.51000000      35.95600000
 H      32.44900000      40.93100000      35.84900000
 O      10.77700000      36.70800000      27.75000000
 H      11.64700000      36.68400000      27.36900000
 H      10.86300000      36.01800000      28.42600000
 O      12.50700000      34.82400000      31.93600000
 H      11.73800000      34.44900000      31.42600000
 H      13.15300000      35.06100000      31.18300000
 O      16.45400000      28.36600000      25.26600000
 H      17.37500000      27.98800000      25.43900000
 H      16.84000000      29.30900000      25.10600000
 O      13.09400000      34.11800000      21.19800000
 H      13.31800000      33.46800000      21.89200000
 H      12.58500000      34.79300000      21.69400000
 O      12.91400000      29.05500000      37.19700000
 H      13.58200000      28.34600000      37.12800000
 H      12.41400000      28.78900000      37.97800000
 O       1.24400000      38.82200000      30.66500000
 H       0.98700000      39.74500000      31.00900000
 H       1.84000000      39.10800000      29.98600000
 O      11.89300000      35.56800000      23.30900000
 H      12.34300000      35.74600000      24.20600000
 H      10.99300000      35.92100000      23.55600000
 O      36.10600000      37.61000000      37.95900000
 H      36.59400000      37.17300000      37.16200000
 H      35.25200000      37.10900000      37.88200000
 O      10.28200000      32.75700000      38.46200000
 H      10.47200000      33.11500000      37.60000000
 H       9.33600000      32.87800000      38.54700000
 O      24.78600000      33.80800000      27.95600000
 H      24.77800000      32.87500000      28.30900000
 H      24.41700000      33.62100000      27.06700000
 O      15.31100000      32.27000000      32.08100000
 H      14.78800000      32.02700000      31.31100000
 H      15.57700000      33.16500000      31.96100000
 O       3.33000000      31.81900000      22.48500000
 H       2.63300000      31.17000000      22.78600000
 H       2.91700000      32.64200000      22.67100000
 O      34.43100000      36.84800000      24.21900000
 H      33.95000000      37.62000000      23.88400000
 H      35.30600000      37.00200000      23.77100000
 O      23.41100000      36.63300000      21.29400000
 H      24.30800000      36.26400000      21.63700000
 H      23.47100000      37.54900000      21.63500000
 O      32.71100000      28.86500000      39.25100000
 H      33.43200000      29.07700000      38.58100000
 H      33.31700000      28.29100000      39.78200000
 O      19.81600000      28.44900000      37.44000000
 H      19.44600000      29.36100000      37.27800000
 H      19.40800000      27.96100000      36.68300000
 O      27.95300000      31.59800000      36.45300000
 H      28.68100000      32.07600000      36.87000000
 H      28.28700000      31.41200000      35.56900000
 O      31.01500000      40.48000000      20.70400000
 H      31.33700000      39.81900000      20.05600000
 H      30.11400000      40.24500000      20.94100000
 O      39.65600000      33.35900000      34.33700000
 H      39.87900000      33.30400000      33.36300000
 H      40.18400000      34.17300000      34.54600000
 O      38.76900000      29.66000000      37.68300000
 H      39.08100000      29.88900000      36.79100000
 H      39.57900000      29.29100000      38.02400000
 O       2.71900000      39.06200000      28.42900000
 H       2.36500000      38.56600000      27.63500000
 H       3.56700000      38.57300000      28.51600000
 O      21.00000000      39.73300000      37.64600000
 H      21.04400000      39.51600000      38.60000000
 H      21.83700000      40.26800000      37.62400000
 O       4.62700000      40.54900000      38.76200000
 H       5.09200000      39.90800000      38.20800000
 H       4.30300000      41.15900000      38.09000000
 O      21.93900000      37.70500000      34.69300000
 H      21.57100000      37.63000000      33.76000000
 H      21.42400000      37.02800000      35.13800000
 O      25.81900000      39.79200000      24.42700000
 H      26.15300000      40.20600000      25.23200000
 H      26.50900000      39.10800000      24.32500000
 O      23.61200000      28.61300000      33.82900000
 H      24.33500000      28.29800000      34.47800000
 H      22.83800000      28.63900000      34.51700000
 O      29.65100000      35.53900000      35.22100000
 H      28.95700000      35.36900000      34.58500000
 H      29.17000000      35.55700000      36.06900000
 O      18.79800000      38.20800000      36.90500000
 H      19.56600000      38.81600000      37.11800000
 H      19.17400000      37.40100000      37.24000000
 O       4.98900000      28.53700000      25.11800000
 H       4.85100000      29.51300000      24.82200000
 H       4.76100000      28.12400000      24.26300000
 O      12.91100000      36.37900000      25.72600000
 H      13.70700000      36.20000000      26.16800000
 H      12.93800000      37.33900000      25.59200000
 O      31.11000000      32.89100000      31.89400000
 H      30.48500000      33.15400000      31.18300000
 H      31.37300000      33.76200000      32.24900000
 O      32.32800000      30.70800000      21.29800000
 H      32.82900000      30.43800000      22.10200000
 H      32.63200000      31.61100000      21.16800000
 O      39.24700000      39.26600000      25.23300000
 H      39.98600000      39.62500000      25.77700000
 H      39.14200000      40.01500000      24.60900000
 O      34.87500000      35.02700000      29.92700000
 H      34.31300000      34.33200000      29.60500000
 H      34.40100000      35.80100000      29.49100000
 O      29.99200000      29.17100000      39.60500000
 H      29.97600000      29.21300000      40.58700000
 H      30.89700000      29.00700000      39.44000000
 O       7.54700000      28.01600000      21.89200000
 H       7.43000000      27.06700000      22.12300000
 H       7.09300000      27.94300000      21.03900000
 O      29.45600000      28.87500000      31.75200000
 H      29.42500000      28.19400000      31.06500000
 H      28.68900000      28.53700000      32.28800000
 O      10.35800000      33.82600000      35.91800000
 H      11.21800000      34.26900000      36.05100000
 H      10.49500000      33.35100000      35.07400000
 O      30.56200000      33.27100000      21.11700000
 H      31.33900000      33.77400000      21.36800000
 H      30.45400000      32.73600000      21.96600000
 O      19.69800000      39.52800000      25.56300000
 H      19.88100000      40.17100000      26.23800000
 H      19.31100000      38.78300000      26.07100000
 O      20.31200000      28.81100000      33.92600000
 H      19.44400000      28.65400000      34.40000000
 H      20.94700000      28.56700000      34.66300000
 O      18.49100000      40.23900000      40.40600000
 H      19.39900000      39.78600000      40.30600000
 H      18.18900000      40.19300000      39.51400000
 O      36.56200000      38.13200000      23.01800000
 H      36.07400000      38.95300000      23.17200000
 H      37.16400000      38.39200000      22.27800000
 O       5.17100000      40.30500000      31.23800000
 H       5.82700000      40.69500000      30.59100000
 H       4.35700000      40.34800000      30.59500000
 O      16.25600000      31.45200000      38.85900000
 H      15.80600000      31.27100000      37.96600000
 H      16.17000000      30.60000000      39.32300000
 O      32.28400000      32.86100000      40.58400000
 H      32.94700000      32.15300000      40.61700000
 H      31.76100000      32.62500000      41.41300000
 O       5.04500000      29.71900000      21.55100000
 H       5.81800000      30.19500000      21.89300000
 H       4.29900000      30.28200000      21.75100000
 O       4.03500000      40.36300000      34.52200000
 H       4.38100000      39.46600000      34.42300000
 H       4.79100000      40.81700000      34.96400000
 O      16.05100000      40.61200000      21.82500000
 H      16.06700000      40.58300000      22.82900000
 H      15.43300000      41.31100000      21.71800000
 O      21.33800000      37.11400000      31.97100000
 H      20.80100000      37.57500000      31.21000000
 H      21.22400000      36.19100000      31.65100000
 O      33.02100000      34.21600000      22.45700000
 H      33.98600000      33.98000000      22.45300000
 H      32.89000000      34.32900000      23.46600000
 O      37.21400000      38.24900000      29.87500000
 H      37.79400000      38.76800000      29.27100000
 H      36.84700000      38.91500000      30.43200000
 O      19.50900000      32.15300000      25.79300000
 H      19.86700000      31.42900000      26.34500000
 H      20.23900000      32.17100000      25.10500000
 O      20.91300000      36.45000000      23.62100000
 H      21.53400000      37.17700000      23.40400000
 H      21.12300000      36.35700000      24.60400000
 O      33.35000000      40.12600000      26.89200000
 H      33.05900000      40.47900000      25.99600000
 H      34.25800000      39.92200000      26.70100000
 O      10.06200000      28.25600000      22.47300000
 H       9.12200000      28.49100000      22.18000000
 H      10.06900000      27.35100000      21.99900000
 O      35.69700000      40.58600000      30.94400000
 H      35.39700000      41.32700000      30.35300000
 H      36.35900000      41.09900000      31.54600000
 O      34.53900000      29.29100000      37.43300000
 H      34.46300000      29.99600000      36.75000000
 H      35.29000000      29.63400000      37.98800000
 O      40.02200000      28.50100000      26.01200000
 H      40.00100000      28.03100000      25.14700000
 H      39.46800000      29.28200000      25.76400000
 O      37.10700000      40.12400000      37.91500000
 H      36.62800000      39.22400000      37.90200000
 H      37.53800000      40.01100000      36.99900000
 O      22.01800000      28.06300000      35.85800000
 H      21.99600000      27.09200000      36.00500000
 H      21.56400000      28.32900000      36.68700000
 O      38.68800000      30.71700000      25.38100000
 H      37.73100000      30.72900000      25.71700000
 H      38.48300000      30.57500000      24.41800000
 O       7.79400000      36.77900000      37.83600000
 H       7.51300000      35.84300000      37.88500000
 H       8.73300000      36.62100000      38.05400000
 O      16.39600000      34.41800000      21.67200000
 H      17.00300000      34.26800000      20.93700000
 H      16.76100000      35.25900000      22.08600000
 O       3.22800000      31.73500000      34.76200000
 H       2.74000000      32.01400000      33.99500000
 H       4.01000000      31.31800000      34.36000000
 O      33.94400000      39.88600000      22.85000000
 H      34.54400000      40.64600000      22.88300000
 H      33.06800000      40.26900000      22.95700000
 O      36.03000000      39.71300000      25.78900000
 H      36.52700000      39.06600000      26.36800000
 H      36.41900000      40.58100000      26.02000000
 O       8.15300000      38.76300000      33.71300000
 H       7.24000000      38.42500000      33.74400000
 H       8.70500000      37.95400000      33.87000000
 O      34.11600000      40.30000000      38.54700000
 H      34.36500000      39.74500000      37.86100000
 H      33.13600000      40.40200000      38.42600000
 O      15.77300000      31.80600000      21.64900000
 H      15.92000000      32.77600000      21.77300000
 H      16.64500000      31.47900000      21.90400000
 O      35.32700000      28.17300000      22.39100000
 H      35.77900000      28.94300000      22.71300000
 H      35.87300000      27.86600000      21.66500000
 O      26.43400000      29.90900000      40.39500000
 H      26.18500000      29.10900000      39.91300000
 H      26.41400000      30.57900000      39.65300000
 O      10.28900000      36.75000000      38.54600000
 H      10.87500000      36.08000000      38.13300000
 H      10.80500000      37.56500000      38.26300000
 O      19.86500000      29.81700000      21.95400000
 H      20.58500000      30.46400000      21.99500000
 H      20.18900000      29.10300000      22.50200000
 O      14.37300000      36.66900000      38.47700000
 H      15.15200000      37.31400000      38.33800000
 H      14.60000000      36.39600000      39.39100000
 O      37.35600000      39.14100000      20.64000000
 H      37.14500000      39.99900000      21.00300000
 H      38.23500000      39.36800000      20.28200000
 O       6.24700000      35.17300000      33.74400000
 H       6.85200000      35.76000000      33.26500000
 H       5.74700000      34.80400000      32.97800000
 O       1.72800000      36.60700000      23.27800000
 H       1.50100000      37.16500000      22.52700000
 H       1.46100000      37.25400000      23.97400000
 O       2.52400000      40.73700000      40.32600000
 H       3.43100000      40.58500000      39.94700000
 H       2.07700000      40.07200000      39.64400000
 O      20.94400000      34.61600000      31.33200000
 H      21.86600000      34.44000000      31.07300000
 H      20.73400000      33.77400000      31.81600000
 O      29.98000000      31.84900000      23.27700000
 H      29.37400000      31.99400000      24.00500000
 H      30.79100000      31.50600000      23.70400000
 O       5.97000000      30.54100000      34.69100000
 H       6.89800000      30.80500000      34.54700000
 H       5.99000000      30.44700000      35.67700000
 O      24.10900000      30.38200000      21.72200000
 H      24.05900000      30.21000000      22.71700000
 H      23.30100000      30.94600000      21.63500000
 O      13.12300000      39.31700000      27.62400000
 H      12.97200000      40.29800000      27.66500000
 H      14.01800000      39.23300000      28.05300000
 O      16.71300000      31.17000000      24.94200000
 H      16.16300000      31.93600000      25.08500000
 H      17.55100000      31.42000000      25.38500000
 O       7.89100000      37.31200000      28.53700000
 H       8.29500000      37.39000000      27.70200000
 H       8.65000000      37.62200000      29.13300000
 O      14.89800000      39.33000000      33.10300000
 H      15.72400000      39.77300000      32.69200000
 H      14.22300000      39.92600000      32.82200000
 O      14.75300000      30.88800000      36.68300000
 H      14.59000000      30.65600000      35.73600000
 H      14.13700000      30.23700000      37.06700000
 O      34.41600000      38.42800000      20.47500000
 H      35.32000000      38.81600000      20.59200000
 H      34.03100000      38.70100000      21.31600000
 O      15.20200000      34.93600000      35.35100000
 H      14.50300000      34.51200000      35.90700000
 H      14.92200000      35.91500000      35.41500000
 O       8.42800000      35.78800000      31.99500000
 H       8.85100000      35.16100000      31.46600000
 H       9.21500000      36.33600000      32.28800000
 O      27.11300000      29.82200000      23.56400000
 H      26.88200000      28.87200000      23.43600000
 H      27.84500000      29.89100000      22.95900000
 O       8.23700000      30.93500000      28.07900000
 H       9.04600000      30.96100000      27.47800000
 H       7.64500000      30.33600000      27.60700000
 O      39.08000000      34.41800000      26.14400000
 H      38.78300000      33.91800000      25.30600000
 H      38.65000000      35.24300000      25.88300000
 O       1.63900000      35.90400000      30.33300000
 H       0.74300000      35.77500000      29.87800000
 H       1.60200000      36.89300000      30.41200000
 O      39.65400000      32.46200000      28.06900000
 H      39.31400000      31.52700000      28.15500000
 H      39.26400000      32.67800000      27.17300000
 O       9.28300000      36.42400000      21.36800000
 H       8.56800000      37.01600000      21.62500000
 H       8.74200000      35.65500000      21.16000000
 O       7.49100000      33.77500000      38.45200000
 H       6.78400000      33.41500000      38.99600000
 H       7.25700000      33.57600000      37.53900000
 O       6.17800000      38.84800000      37.49900000
 H       6.85800000      38.28300000      37.91300000
 H       5.60900000      38.12300000      37.08800000
 O      31.37000000      34.95100000      28.61400000
 H      30.62400000      35.42200000      29.05100000
 H      31.17500000      35.14000000      27.67600000
 O       1.22000000      30.22100000      23.29700000
 H       0.41100000      30.37400000      22.78800000
 H       1.39600000      29.32000000      23.02400000
 O       2.26600000      31.73800000      29.16000000
 H       1.35600000      32.08300000      28.87600000
 H       2.55400000      31.30700000      28.31900000
 O      38.39200000      39.45700000      35.66400000
 H      38.28200000      39.02500000      34.74000000
 H      39.35700000      39.70400000      35.54800000
 O      14.04900000      32.55500000      29.73500000
 H      13.19900000      32.12100000      29.47600000
 H      13.81800000      33.45400000      29.40500000
 O      24.42600000      33.67400000      37.99400000
 H      24.91600000      32.82500000      38.06800000
 H      24.47700000      33.83900000      37.03300000
 O      11.23300000      33.80400000      27.88800000
 H      10.88400000      33.53200000      27.05900000
 H      11.41500000      32.95900000      28.36000000
 O      36.04200000      28.44100000      31.07700000
 H      35.19100000      28.10000000      31.34800000
 H      35.92100000      28.63400000      30.09800000
 O      40.70100000      33.77500000      20.38200000
 H      41.38900000      34.31300000      19.90800000
 H      41.25100000      33.59900000      21.19100000
 O      14.35800000      40.42400000      36.55400000
 H      14.18800000      41.03800000      37.34800000
 H      14.01300000      41.02200000      35.86900000
 O      31.89700000      30.27600000      32.65100000
 H      31.70100000      31.17600000      32.33000000
 H      31.10600000      29.83800000      32.29500000
 O      26.35900000      31.84200000      38.53300000
 H      27.01800000      31.32900000      37.97400000
 H      26.99100000      32.57500000      38.77500000
 O      25.75600000      32.28900000      32.31700000
 H      26.10600000      31.41300000      32.66500000
 H      24.86500000      31.92200000      32.05400000
 O      38.01100000      36.71800000      25.19000000
 H      37.56000000      37.11300000      24.43900000
 H      38.57600000      37.49300000      25.35600000
 O      25.68400000      35.55200000      24.34500000
 H      25.42100000      35.31200000      23.41200000
 H      26.25500000      36.31700000      24.12700000
 O      33.75300000      37.27300000      28.79300000
 H      33.44900000      37.94600000      28.20600000
 H      34.73800000      37.26400000      28.64300000
 O      20.92500000      40.45900000      27.91600000
 H      20.75600000      41.04600000      28.71000000
 H      21.88400000      40.45400000      27.89900000
 O       4.19200000      27.69200000      28.43500000
 H       4.11900000      28.66000000      28.50700000
 H       3.26800000      27.43500000      28.54600000
 O      12.93500000      35.24600000      29.39500000
 H      13.76000000      35.56300000      29.07700000
 H      12.52700000      34.82300000      28.55500000
 O       7.04700000      29.44300000      39.87600000
 H       7.13500000      28.60000000      39.40800000
 H       7.96600000      29.54200000      40.21800000
 O      28.03400000      38.10700000      31.99500000
 H      28.37900000      38.95400000      31.76800000
 H      27.27400000      38.32800000      32.54100000
 O      18.17700000      34.39500000      25.43000000
 H      18.64400000      33.54300000      25.51800000
 H      17.86600000      34.46000000      26.37900000
 O       9.08800000      36.38600000      35.42300000
 H       9.20400000      35.43300000      35.49800000
 H       8.32600000      36.56200000      36.02100000
 O      23.69200000      38.43700000      25.85800000
 H      23.79300000      38.93600000      26.72600000
 H      24.61000000      38.51300000      25.53600000
 O      27.18100000      35.13900000      34.20100000
 H      26.57500000      35.39000000      33.50500000
 H      26.57000000      34.65000000      34.75300000
 O      14.52000000      30.65700000      33.95400000
 H      13.86300000      30.43700000      33.26000000
 H      15.01700000      31.31300000      33.44800000
 O      17.97200000      32.11600000      33.06300000
 H      17.10400000      32.13000000      32.55800000
 H      17.65300000      32.33800000      33.96200000
 O      28.34200000      39.07000000      28.54200000
 H      29.00600000      38.45500000      28.77700000
 H      28.36800000      39.74000000      29.29200000
 O       1.75400000      38.93900000      38.65400000
 H       0.80400000      39.05400000      38.81600000
 H       1.72500000      38.22700000      37.93500000
 O      32.13800000      37.56900000      36.37400000
 H      32.80300000      36.93200000      36.74600000
 H      31.43400000      36.89000000      36.14200000
 O      24.30600000      37.54000000      39.84500000
 H      23.93100000      37.90700000      38.95200000
 H      23.93500000      36.59500000      39.73700000
 O      21.96500000      32.20100000      21.51800000
 H      21.61200000      33.08100000      21.12700000
 H      21.87300000      32.46500000      22.44100000
 O      26.18200000      35.73900000      31.75200000
 H      26.80400000      36.23500000      31.20400000
 H      25.32200000      36.22100000      31.57500000
 O      30.28700000      39.63400000      35.12100000
 H      30.70100000      38.82200000      35.43700000
 H      30.73400000      39.78500000      34.25400000
 O       2.51700000      31.74000000      31.87900000
 H       2.46600000      31.67800000      30.88200000
 H       1.54400000      31.81700000      32.06100000
 O      38.74300000      28.29100000      21.09200000
 H      38.71000000      27.97800000      22.03900000
 H      39.68300000      28.14500000      20.91400000
 O       9.74000000      29.90900000      25.83200000
 H       9.92100000      29.65800000      24.95600000
 H       8.86100000      29.49400000      25.97200000
 O      16.19700000      28.33800000      33.49100000
 H      15.78000000      28.12400000      32.60800000
 H      15.63600000      29.09400000      33.67400000
 O      31.18400000      35.24000000      39.19900000
 H      31.25400000      34.51200000      39.85900000
 H      31.84700000      35.82300000      39.65200000
 O       1.98500000      30.09000000      36.65200000
 H       2.35400000      30.66200000      35.97400000
 H       1.10700000      29.96600000      36.10700000
 O      38.19600000      36.18400000      31.88900000
 H      37.96100000      36.33100000      30.94700000
 H      38.25700000      35.22800000      31.92600000
 O      14.72000000      33.02500000      25.45000000
 H      14.17100000      33.07800000      24.61000000
 H      14.31300000      32.12100000      25.71800000
 O      13.23600000      39.27700000      20.82100000
 H      13.52700000      38.74200000      21.58300000
 H      12.58300000      38.70900000      20.41200000
 O      36.33400000      28.21700000      35.42300000
 H      36.14100000      28.34100000      36.34600000
 H      36.35400000      29.16400000      35.09900000
 O       9.89000000      38.58900000      30.07500000
 H       9.66700000      38.06400000      30.84800000
 H      10.52600000      39.20700000      30.50600000
 O      34.23500000      35.65500000      37.56200000
 H      33.97000000      35.15300000      36.76100000
 H      34.18400000      34.91100000      38.20100000
 O      21.35600000      34.71400000      21.27300000
 H      21.10200000      35.06600000      22.18400000
 H      22.16800000      35.19800000      21.13400000
 O      12.33400000      29.87900000      32.22900000
 H      12.64100000      30.33400000      31.45500000
 H      11.38200000      29.80800000      32.12900000
 O      28.35600000      36.97400000      21.26500000
 H      29.31700000      37.09700000      21.19000000
 H      28.23300000      36.05200000      20.90200000
 O      39.17200000      36.85300000      19.99600000
 H      39.47500000      37.32200000      20.75300000
 H      39.78700000      37.19600000      19.33200000
 O      36.08100000      37.08700000      27.70300000
 H      36.50500000      37.20700000      28.62300000
 H      36.82100000      36.77800000      27.19700000
 O      39.22700000      39.08100000      39.24800000
 H      38.79700000      39.39000000      40.07900000
 H      38.69600000      39.57200000      38.60500000
 O      13.54800000      31.94400000      23.19300000
 H      12.96500000      31.22200000      22.83900000
 H      14.41100000      31.62300000      22.81300000
 O      13.91200000      33.50100000      37.38600000
 H      13.95300000      32.50000000      37.31100000
 H      14.22100000      33.59800000      38.30800000
 O      39.26300000      35.20000000      28.80500000
 H      38.60800000      35.62500000      28.19100000
 H      39.25000000      34.26500000      28.52000000
 O      15.33700000      30.15600000      27.71600000
 H      14.71300000      30.69700000      27.15800000
 H      15.70900000      29.61300000      27.04800000
 O       5.74100000      39.51200000      26.13000000
 H       5.23100000      39.40000000      25.32400000
 H       5.20900000      40.26000000      26.49500000
 O       8.83800000      38.93000000      22.90200000
 H       9.76800000      39.15400000      22.63900000
 H       8.99300000      38.17000000      23.49200000
 O      21.81600000      32.31300000      24.60700000
 H      22.50500000      31.59300000      24.54800000
 H      22.39300000      32.99300000      25.07100000
 O      21.66000000      28.33400000      26.55900000
 H      22.42000000      28.18700000      27.13400000
 H      21.37100000      29.25200000      26.78800000
 O      18.37100000      36.08600000      32.37300000
 H      19.30700000      35.75300000      32.44600000
 H      18.09800000      35.87900000      33.31700000
 O      23.41900000      29.61300000      24.21000000
 H      23.90600000      29.34400000      25.06000000
 H      23.06200000      28.73800000      23.99700000
 O      39.60500000      30.49400000      35.27000000
 H      39.16200000      30.28300000      34.38300000
 H      39.45200000      31.47300000      35.28100000
 O       2.23600000      36.48800000      36.92800000
 H       2.19000000      36.36800000      37.90000000
 H       3.02000000      35.95600000      36.73800000
 O       1.91500000      34.01800000      26.24900000
 H       1.96100000      33.06900000      26.39300000
 H       0.96800000      34.20700000      26.34400000
 O      13.68300000      33.12400000      40.41200000
 H      14.17300000      32.40900000      40.91600000
 H      12.75400000      32.93500000      40.61300000
 O      19.99500000      28.16000000      29.42900000
 H      19.97500000      28.29600000      30.40900000
 H      19.25900000      27.58600000      29.27600000
 O      24.60700000      39.20700000      21.86300000
 H      23.83200000      39.04300000      22.51700000
 H      25.28100000      39.36200000      22.58300000
 O      18.17000000      27.75800000      35.29300000
 H      17.58700000      28.02400000      34.56700000
 H      18.05800000      26.78500000      35.15600000
 O      13.19400000      27.14700000      23.33000000
 H      12.71900000      27.78900000      23.87200000
 H      12.77100000      27.32600000      22.42200000
 O       5.37800000      31.81500000      29.93000000
 H       5.26200000      32.24800000      29.09100000
 H       4.72600000      31.11200000      29.92300000
 O       7.07500000      28.01900000      35.78200000
 H       7.88500000      28.23400000      35.27900000
 H       6.96600000      28.80500000      36.35600000
 O      25.53100000      33.29600000      35.40600000
 H      25.61700000      33.00700000      34.46200000
 H      26.09000000      32.57700000      35.81200000
 O      24.78000000      29.10600000      26.37600000
 H      25.48000000      29.69300000      26.50900000
 H      25.22100000      28.22900000      26.58700000
 O      35.69100000      40.23800000      34.08700000
 H      36.30900000      39.48600000      33.79000000
 H      34.87400000      39.73900000      34.24900000
 O      36.19200000      30.80700000      25.72800000
 H      35.40400000      30.26000000      25.79400000
 H      35.95000000      31.64100000      26.05800000
 O       4.82800000      38.99900000      23.60700000
 H       5.79300000      38.87000000      23.43200000
 H       4.56100000      38.07000000      23.44400000
 O      17.93000000      36.21700000      23.30500000
 H      17.91200000      35.33200000      23.77300000
 H      18.86600000      36.41500000      23.32100000
 O       5.07700000      36.70700000      36.04200000
 H       4.89200000      35.74400000      35.97100000
 H       5.01700000      36.90800000      35.09100000
 O      28.29500000      39.97800000      21.87600000
 H      27.66600000      39.36900000      21.52200000
 H      28.81700000      39.54000000      22.59500000
 O      10.63500000      40.14400000      33.69000000
 H       9.73100000      40.01800000      33.33600000
 H      10.76100000      39.31100000      34.21600000
 O      26.19000000      39.89500000      40.53500000
 H      26.79100000      39.55800000      39.87100000
 H      25.50000000      39.24200000      40.59400000
 O      38.89600000      39.50200000      28.20100000
 H      39.79500000      39.57800000      27.87300000
 H      38.46100000      40.32200000      27.95000000
 O      36.04700000      28.79100000      28.57000000
 H      35.10500000      28.96500000      28.30500000
 H      36.42400000      28.57100000      27.69900000
 O       1.81300000      32.34000000      39.91500000
 H       2.22000000      32.52100000      40.79900000
 H       1.35600000      31.46600000      40.13900000
 O       4.47700000      33.15200000      26.89300000
 H       4.99800000      33.82500000      27.37200000
 H       3.60300000      33.68200000      26.82600000
 O      37.14900000      32.33300000      35.55900000
 H      37.47900000      32.74100000      34.79400000
 H      37.67500000      32.60300000      36.33700000
 O      27.89600000      33.52500000      30.89900000
 H      27.63400000      34.41500000      31.26700000
 H      27.25300000      32.97000000      31.29500000
 O      17.66600000      33.35200000      39.69100000
 H      17.94000000      33.00800000      40.53000000
 H      16.94800000      32.76400000      39.45700000
 O       9.73900000      36.52000000      24.94900000
 H      10.09700000      36.62500000      25.84800000
 H       8.97600000      35.93700000      25.09000000
 O      16.14200000      38.58000000      38.03100000
 H      17.07400000      38.39400000      37.83300000
 H      15.98400000      39.28000000      37.41700000
 O      26.98300000      30.96800000      27.41900000
 H      27.44900000      31.79400000      27.73200000
 H      26.27900000      30.84800000      28.12300000
 O      32.82200000      37.13600000      40.35700000
 H      32.69900000      36.95100000      41.30900000
 H      33.79600000      37.15300000      40.30600000
 O      25.64100000      35.11300000      21.78500000
 H      25.14500000      34.70600000      21.01800000
 H      26.55600000      34.86600000      21.46900000
 O      18.41600000      28.97400000      19.91400000
 H      18.84000000      29.20500000      20.76500000
 H      18.21000000      28.02600000      20.09100000
 O      16.17300000      40.43400000      24.62300000
 H      16.31300000      41.41900000      24.65900000
 H      16.59600000      40.17800000      25.40200000
 O      18.49300000      37.21900000      26.45100000
 H      19.33500000      36.67800000      26.53900000
 H      18.22100000      36.92400000      25.58100000
 O      35.72300000      33.84400000      21.33600000
 H      36.59300000      34.18900000      21.54000000
 H      35.34000000      34.64400000      20.85000000
 O      15.24500000      35.26900000      27.12400000
 H      15.94400000      34.90200000      27.68000000
 H      15.25400000      34.71600000      26.34500000
 O      21.09300000      32.96200000      39.84300000
 H      21.79500000      32.63300000      40.31800000
 H      20.29900000      32.65300000      40.24000000
 O       5.29700000      38.16000000      33.10100000
 H       5.12000000      38.81100000      32.38100000
 H       4.76800000      37.38200000      32.82900000
 O       1.84400000      37.07200000      26.59500000
 H       1.30400000      36.36300000      26.92900000
 H       2.56700000      36.49600000      26.23500000
 O      33.62500000      34.44200000      34.97700000
 H      32.98100000      34.74200000      34.29100000
 H      32.93400000      33.92400000      35.51000000
 O       1.17000000      40.70700000      26.18200000
 H       1.89900000      40.55500000      25.55600000
 H       1.35600000      41.59400000      26.48000000
 O      20.14200000      36.82900000      39.07800000
 H      21.10500000      36.59900000      39.26000000
 H      19.93600000      36.09300000      38.48000000
 O      38.52700000      30.54700000      22.63800000
 H      37.63600000      30.92000000      22.25900000
 H      38.61600000      29.88700000      21.90300000
 O      16.17400000      34.75000000      31.22200000
 H      17.00300000      35.22100000      31.52700000
 H      15.86000000      35.33800000      30.50700000
 O      33.13000000      28.54300000      31.17700000
 H      32.51400000      27.80300000      31.40800000
 H      32.74100000      29.26300000      31.75100000
 O      17.13600000      40.13300000      32.01400000
 H      17.25200000      39.19500000      31.74100000
 H      17.68500000      40.58100000      31.36500000
 O      10.79200000      37.05900000      32.36200000
 H      11.41800000      36.34600000      32.21700000
 H      11.10900000      37.47600000      33.18800000
 O      25.45500000      38.44600000      33.40700000
 H      25.22200000      38.14800000      34.30000000
 H      25.09500000      39.36200000      33.40800000
 O      11.15500000      40.56400000      39.87700000
 H      11.27200000      39.78900000      39.28000000
 H      10.52300000      40.20000000      40.54100000
 O      36.17900000      37.45600000      33.36800000
 H      36.93000000      36.98000000      32.92000000
 H      35.87500000      36.70100000      33.94500000
 O      38.87600000      38.49400000      33.16200000
 H      38.60500000      37.68100000      32.61000000
 H      39.82900000      38.38500000      33.20500000
 O      10.28500000      33.66000000      30.86800000
 H       9.44400000      33.54000000      30.43600000
 H      10.90300000      33.21800000      30.24900000
 O      23.31200000      27.01900000      31.56400000
 H      23.62200000      27.73300000      32.26900000
 H      22.34000000      27.13700000      31.65000000
 O       4.35800000      27.90900000      34.29600000
 H       4.80200000      28.59100000      34.74500000
 H       4.10900000      27.31900000      35.02100000
 O      30.57200000      28.68700000      22.81200000
 H      30.07400000      28.31100000      22.08000000
 H      30.59100000      29.62800000      22.57400000
 O      10.04600000      39.27900000      27.38000000
 H       9.97200000      39.33300000      28.36300000
 H      10.71400000      38.55200000      27.28300000
 O      31.88300000      28.66600000      35.05000000
 H      32.25300000      29.38300000      34.57800000
 H      30.88500000      28.89900000      35.04400000
 O      12.21000000      29.71100000      22.69300000
 H      12.58500000      29.51300000      21.80600000
 H      11.32200000      29.25600000      22.51200000
 O      32.13400000      33.56100000      36.99900000
 H      31.95800000      34.27300000      37.69300000
 H      31.53900000      32.90600000      37.41500000
 O      32.00900000      36.96600000      30.88000000
 H      32.65100000      37.57400000      31.26900000
 H      32.42000000      36.72300000      30.02800000
 O      22.45300000      38.59400000      23.33400000
 H      21.96000000      39.42600000      23.44000000
 H      22.77600000      38.51000000      24.26500000
 O      23.43900000      33.89400000      30.74300000
 H      24.22900000      34.16900000      31.31600000
 H      23.91600000      33.55100000      29.97000000
 O      10.71600000      30.63400000      36.27000000
 H      11.51200000      30.11300000      36.54500000
 H      10.66600000      31.33200000      36.95300000
 O      31.77900000      35.30300000      33.12600000
 H      31.85000000      35.97400000      32.44800000
 H      31.00100000      35.69400000      33.67000000
 O       1.55100000      35.92600000      39.73700000
 H       1.70500000      34.97100000      39.57100000
 H       0.59500000      36.06600000      39.50200000
 O       7.29100000      31.76800000      22.83000000
 H       6.84600000      31.50400000      23.65300000
 H       6.93200000      32.65100000      22.68200000
 O      37.86600000      36.29100000      36.30300000
 H      37.28100000      35.76300000      35.74400000
 H      38.77100000      36.12200000      35.86300000
 O      24.21300000      39.90200000      28.42000000
 H      24.20700000      40.52900000      29.21500000
 H      24.86300000      40.38200000      27.88200000
 O      10.77000000      32.44800000      33.48900000
 H      10.52700000      32.92400000      32.65200000
 H      11.65400000      32.88400000      33.62300000
 O       3.22100000      28.36900000      40.04800000
 H       3.76400000      29.18900000      39.93100000
 H       3.81900000      27.75200000      39.54700000
 O      16.10700000      28.95300000      39.77000000
 H      16.19600000      28.18400000      40.41000000
 H      15.44100000      29.41200000      40.31400000
 O      28.03100000      34.49700000      20.47700000
 H      28.17600000      34.04400000      19.56600000
 H      28.69900000      33.92300000      20.94200000
 O       5.11300000      31.15000000      24.98100000
 H       4.96500000      31.83300000      25.70000000
 H       4.88400000      31.71800000      24.19500000
 O      16.61200000      32.45900000      35.65600000
 H      16.12100000      33.28700000      35.47400000
 H      15.94600000      32.02500000      36.24300000
 O       1.40400000      31.43200000      25.70100000
 H       1.50100000      30.93000000      24.82900000
 H       0.44300000      31.36900000      25.81300000
 O      36.42700000      33.82300000      31.85000000
 H      36.28400000      32.87100000      31.54800000
 H      35.95000000      34.33600000      31.12900000
 O      30.64600000      36.19300000      25.99000000
 H      30.01600000      35.50800000      25.68000000
 H      30.51100000      36.82300000      25.22800000
 O      26.05300000      37.64600000      28.91700000
 H      26.83300000      38.19000000      28.72100000
 H      25.35700000      38.28600000      28.89800000
 O      40.25000000      36.06900000      34.98300000
 H      40.46100000      36.74900000      34.25900000
 H      40.99500000      36.26900000      35.58500000
 O      15.77500000      39.66300000      28.47700000
 H      16.64200000      39.51900000      28.93900000
 H      15.78500000      38.94400000      27.82400000
 O      17.50000000      33.96500000      28.01900000
 H      18.44600000      33.85500000      28.17500000
 H      17.07700000      33.14000000      28.09700000
 O       7.28100000      28.82700000      26.46100000
 H       6.35700000      28.62000000      26.04400000
 H       7.36300000      27.84800000      26.72600000
 O       4.59800000      33.44200000      31.98500000
 H       5.23800000      32.85900000      31.54100000
 H       3.82900000      32.85900000      31.97700000
 O      13.82200000      39.08500000      25.05700000
 H      14.72700000      39.41600000      24.92800000
 H      13.51800000      39.48100000      25.85200000
 O      12.93300000      27.04600000      31.88900000
 H      12.43000000      26.97100000      32.73700000
 H      12.78600000      27.98000000      31.66800000
 O      10.18000000      32.50700000      25.92500000
 H      10.07300000      32.64600000      24.94800000
 H      10.26600000      31.53600000      25.92100000
 O      39.30900000      27.57400000      28.25100000
 H      40.15700000      27.21100000      28.49700000
 H      39.54400000      27.89100000      27.33900000
 O      30.15200000      27.72600000      26.95300000
 H      30.08100000      28.52400000      26.47600000
 H      30.52400000      27.07200000      26.35800000
 O      25.79000000      28.51400000      35.91300000
 H      25.82400000      28.70300000      36.89900000
 H      25.74000000      27.51600000      35.93100000
 O      26.33600000      31.80500000      21.05600000
 H      25.56700000      31.25700000      21.25100000
 H      25.87000000      32.50000000      20.50700000
 O      20.61500000      31.53400000      32.55800000
 H      19.66400000      31.81800000      32.68900000
 H      20.54500000      30.64800000      33.02100000
 O      12.21600000      35.63300000      37.21600000
 H      12.73400000      34.75200000      37.31100000
 H      12.90900000      36.24000000      37.61200000
 O      33.20900000      29.10700000      28.49300000
 H      33.35600000      28.88500000      29.46700000
 H      32.44600000      29.72300000      28.69100000
 O      20.36600000      30.39000000      27.89700000
 H      20.15300000      29.56700000      28.41300000
 H      20.29500000      31.07100000      28.57300000
 O      13.36100000      37.74700000      22.86900000
 H      12.88900000      36.92500000      22.97100000
 H      13.55100000      38.11100000      23.72800000
 O      30.39800000      37.92100000      23.93700000
 H      31.07000000      37.62800000      23.32500000
 H      30.66500000      38.87200000      24.09800000
 O      17.79800000      37.92400000      30.51700000
 H      18.53500000      37.99500000      29.83000000
 H      18.18800000      37.24000000      31.08000000
 O      24.23700000      33.48700000      25.40800000
 H      24.75200000      34.29800000      25.32200000
 H      24.87700000      32.84700000      24.93500000
 O      26.16300000      27.81100000      38.98600000
 H      25.84500000      26.86600000      39.00100000
 H      27.11100000      27.61000000      38.65000000
 O       1.09900000      39.79800000      35.36900000
 H       1.82400000      39.95200000      34.74600000
 H       1.35900000      38.90400000      35.70100000
 O      25.60100000      37.21800000      35.88500000
 H      26.07300000      36.50800000      35.43900000
 H      26.20600000      37.93200000      35.93300000
 O      16.08200000      37.75900000      26.80200000
 H      15.87600000      36.81400000      27.03100000
 H      17.04200000      37.67100000      26.62100000
 O      30.53800000      38.50900000      39.59400000
 H      30.73800000      38.42900000      40.54600000
 H      31.12200000      37.77900000      39.24100000
 O      33.14100000      33.00900000      29.04000000
 H      32.57700000      33.83600000      28.97500000
 H      32.30800000      32.36900000      28.98300000
 O      23.48800000      40.36800000      34.26100000
 H      22.93000000      39.54000000      34.33100000
 H      22.84000000      41.03300000      34.24600000
 O      36.02800000      31.36600000      31.30400000
 H      36.04900000      30.42000000      31.58800000
 H      35.19900000      31.63200000      31.82700000
 O      33.84100000      29.03500000      25.75000000
 H      33.48900000      29.02500000      26.62100000
 H      33.66300000      28.19800000      25.36000000
 O       3.63300000      31.08000000      38.30000000
 H       3.00700000      30.69500000      37.69500000
 H       3.03900000      31.66100000      38.80600000
 O      20.49000000      35.20000000      34.60100000
 H      20.59000000      34.76500000      35.48400000
 H      19.53200000      35.33900000      34.60500000
 O       9.97400000      29.91100000      31.17500000
 H       9.22300000      30.33900000      31.68500000
 H       9.60300000      29.01500000      31.07600000
 O      23.57900000      30.74400000      32.25700000
 H      23.69200000      29.98800000      32.85500000
 H      22.62100000      30.85600000      32.34100000
 O      30.37200000      31.72200000      26.39500000
 H      29.79700000      32.16500000      27.12800000
 H      30.16300000      32.41100000      25.70500000
 O      39.98600000      32.62900000      37.90100000
 H      40.69300000      32.43000000      38.59500000
 H      40.58100000      32.65600000      37.17200000
 O       1.68900000      37.52000000      33.11800000
 H       2.49700000      37.04800000      32.95200000
 H       1.30900000      37.65100000      32.25000000
 O       4.60500000      36.76900000      22.10200000
 H       3.69700000      36.48400000      21.83800000
 H       4.90800000      37.18900000      21.31600000
 O       3.10200000      40.72900000      24.30800000
 H       3.41800000      41.45900000      23.73500000
 H       3.76700000      40.04300000      24.01600000
 O      15.69200000      38.64800000      40.66000000
 H      15.90600000      38.95200000      39.76700000
 H      16.38600000      38.03200000      40.83600000
 O      32.99000000      31.00800000      23.92700000
 H      32.99800000      30.35800000      24.67400000
 H      33.73300000      31.57200000      24.15800000
 O      31.72400000      40.24000000      32.69700000
 H      31.97100000      41.12900000      33.01300000
 H      32.58100000      39.75600000      32.78800000
 O       6.73900000      34.65000000      28.18600000
 H       7.11900000      35.50200000      28.55700000
 H       7.15400000      34.05200000      28.88700000
 O      26.44700000      32.45200000      23.78000000
 H      26.70100000      31.53800000      24.02700000
 H      26.26100000      32.34500000      22.83000000
 O      26.98700000      35.35500000      27.44900000
 H      26.12900000      34.90700000      27.66700000
 H      26.90300000      35.99300000      28.20700000
 O      20.40900000      38.05500000      29.57200000
 H      21.17100000      37.71300000      28.97000000
 H      20.34700000      38.97400000      29.23600000
 O      27.47900000      37.85900000      23.69400000
 H      27.47300000      37.59100000      22.75000000
 H      28.36100000      37.59900000      23.94600000
 O      28.37400000      34.49700000      25.25300000
 H      27.64900000      34.52800000      24.58200000
 H      27.86600000      34.80100000      26.07300000
 O       7.98400000      34.65200000      25.79900000
 H       8.52700000      33.87500000      25.96500000
 H       7.30800000      34.63300000      26.48300000
 O      19.06200000      29.29600000      40.00000000
 H      19.59300000      29.26400000      39.18800000
 H      18.17400000      29.05700000      39.59600000
 O       6.24200000      34.34400000      23.13600000
 H       6.76000000      34.86800000      23.76200000
 H       5.78700000      35.15000000      22.70800000
 O       5.06100000      37.56700000      28.67500000
 H       5.20400000      36.88700000      29.32000000
 H       5.98200000      37.87400000      28.42800000
 O      14.21800000      37.43700000      35.12300000
 H      14.33300000      37.83400000      34.20400000
 H      14.49500000      38.22200000      35.65700000
 O      33.13900000      34.85000000      25.65100000
 H      33.67400000      35.58300000      25.29000000
 H      32.36600000      35.34400000      25.89100000
 O      34.92600000      33.23700000      26.78500000
 H      34.25500000      33.86300000      26.35300000
 H      34.28800000      32.91400000      27.49800000
 O      11.31300000      37.73500000      35.01900000
 H      12.06900000      37.31900000      35.49500000
 H      10.56600000      37.23500000      35.41800000
 O      39.15200000      36.50300000      38.64200000
 H      38.59100000      36.62500000      37.82400000
 H      39.10600000      37.48700000      38.91200000
 O       3.03900000      27.59100000      36.60400000
 H       2.78800000      28.50000000      36.77200000
 H       2.12700000      27.26400000      36.27400000
 O      23.93900000      37.52600000      31.34000000
 H      23.18700000      37.46400000      31.91300000
 H      24.60200000      37.92400000      31.90000000
 O      38.23800000      34.62400000      21.44800000
 H      39.08100000      34.19700000      21.12100000
 H      38.13000000      35.34100000      20.75600000
 O      15.47400000      36.79000000      29.53900000
 H      16.40100000      37.16100000      29.77200000
 H      14.90300000      37.48100000      29.86300000
 O      28.71700000      28.61800000      35.58100000
 H      28.47200000      28.04300000      36.38500000
 H      27.98500000      29.23800000      35.57900000
 O      33.96900000      38.79400000      32.07400000
 H      34.50000000      39.38900000      31.48300000
 H      34.70200000      38.11100000      32.26100000
 O      23.29500000      37.64100000      37.12100000
 H      24.10400000      37.61100000      36.55000000
 H      22.59500000      37.99500000      36.54000000
 O      21.46000000      27.42900000      23.99800000
 H      20.89000000      26.60600000      24.14400000
 H      21.27800000      27.89400000      24.85100000
 O       5.97100000      30.33500000      37.33900000
 H       5.10900000      30.75200000      37.65000000
 H       6.26100000      29.89000000      38.15400000
 O       0.86000000      29.88200000      40.64400000
 H       1.53700000      29.17500000      40.53200000
 H       0.10700000      29.32500000      40.97300000
 O       4.24500000      33.96300000      36.09500000
 H       3.88900000      33.06800000      35.81700000
 H       5.19100000      33.71700000      36.11500000
 O       7.89700000      33.00900000      29.85800000
 H       7.15200000      32.47700000      30.24800000
 H       8.19200000      32.35300000      29.13200000
