%chk=cluster_035.chk
%mem=6GB
%nproc=4
#b3lyp/6-311++G** scrf=(cpcm,Solvent=Water) nosymm freq
iop(2/11=1) 
 Geom=(NoDistance,NoAngle)

cluster_035

0 1
 O       1.48400000      17.45600000      19.77500000
 H       2.27000000      17.97500000      20.05900000
 H       1.46000000      16.78800000      20.45200000
 O       6.99800000      15.55000000      19.18300000
 H       7.98100000      15.45800000      19.36000000
 H       6.89700000      15.47600000      18.19100000
 O       3.81300000      15.49000000      19.24600000
 H       4.76500000      15.73400000      19.18600000
 H       3.62800000      15.05400000      18.35000000
 O       6.21200000      12.59800000      19.59100000
 H       6.33400000      12.58400000      20.58000000
 H       6.52000000      13.49500000      19.24100000
 O       1.13300000      12.40300000      18.82000000
 H       2.10400000      12.23600000      19.12400000
 H       0.98700000      11.85700000      18.09100000
 O       3.65800000      11.59500000      19.16400000
 H       4.40300000      12.08600000      19.60400000
 H       4.05700000      10.68600000      19.21100000
 O       5.98700000      17.55500000      17.61300000
 H       5.93100000      17.63900000      18.63100000
 H       5.18200000      17.94400000      17.21300000
 O       0.78200000      14.85500000      23.36400000
 H       1.65500000      14.63900000      23.79000000
 H       0.21800000      14.04400000      23.32500000
 O       3.74300000      14.18600000      22.79100000
 H       3.40200000      15.05600000      23.07500000
 H       3.61400000      14.24200000      21.83100000
 O       7.00000000      12.11200000      23.73200000
 H       6.47300000      11.28400000      23.66900000
 H       7.90600000      11.94500000      23.71800000
 O       0.93800000      17.79300000      23.93300000
 H       0.89800000      16.78700000      23.96900000
 H       0.62200000      18.25700000      24.69500000
 O       5.37400000      13.28300000      25.38000000
 H       6.10000000      12.98900000      24.74400000
 H       4.84000000      13.76300000      24.76600000
 O       3.07400000      11.89000000      23.80000000
 H       3.61400000      12.61400000      23.33700000
 H       3.70400000      11.31200000      24.35200000
 O       3.58700000      16.62900000      24.55700000
 H       4.30200000      17.01700000      24.04500000
 H       2.79200000      17.23700000      24.55700000

