39
XYZ file of cluster: frame_19000_c1ca5.22816.b585 - created by MolEdiTo
 O      18.45300000       3.29800000       2.07800000
 H      18.27400000       3.02300000       3.03000000
 H      18.98500000       4.15500000       2.00900000
 O      16.91300000       9.08400000       4.08700000
 H      16.62700000      10.03200000       4.11300000
 H      17.62300000       9.02400000       4.79100000
 O      19.85100000       9.77400000       2.76500000
 H      19.48700000       8.81600000       2.88700000
 H      20.76200000       9.60300000       3.18800000
 O      18.46600000       3.79400000       6.98800000
 H      19.22800000       3.21900000       7.26600000
 H      18.29800000       4.23600000       7.89400000
 O      18.37200000       9.39000000       6.73800000
 H      19.29100000       8.86300000       6.70300000
 H      17.72300000       8.74100000       7.06900000
 O      19.73200000       7.01000000       3.55100000
 H      19.94900000       6.13600000       3.95900000
 H      20.47200000       7.22700000       2.91600000
 O      19.86100000       4.06600000       4.42100000
 H      20.68700000       4.02100000       4.95400000
 H      19.18500000       3.78600000       5.08700000
 O      22.84100000       3.79900000       6.25500000
 H      23.66900000       4.24000000       5.94300000
 H      22.71000000       4.10800000       7.19100000
 O      22.53700000       7.23900000       1.67200000
 H      22.06500000       7.80500000       1.00800000
 H      23.30000000       6.88900000       1.15100000
 O      24.47800000       6.61900000       7.93500000
 H      24.87700000       6.39400000       7.09200000
 H      24.12100000       5.76900000       8.12800000
 O      21.76900000       8.07200000       6.13500000
 H      21.30100000       7.50900000       5.46300000
 H      22.77900000       7.97400000       5.87900000
 O      24.05400000       9.70300000       3.35300000
 H      23.70400000       9.95000000       4.27400000
 H      24.95200000       9.68300000       3.53500000
 O      24.13700000       6.69000000       4.10000000
 H      24.28900000       7.66000000       3.91600000
 H      24.27500000       6.34500000       3.22900000
