42
XYZ file of cluster: frame_19000_c711f.4abac.76529 - created by MolEdiTo
 O      18.78700000      13.02800000      11.81800000
 H      18.99800000      12.65800000      12.69100000
 H      18.96200000      13.97800000      11.96000000
 O      19.49800000      12.29500000      18.21000000
 H      18.73500000      12.45500000      17.68100000
 H      20.09300000      13.00700000      17.89200000
 O      19.70400000      12.08100000      14.25400000
 H      19.95400000      11.20900000      14.68700000
 H      19.31200000      12.71100000      14.97100000
 O      18.64200000       8.92800000      17.95100000
 H      18.29700000       9.79400000      18.28400000
 H      17.99700000       8.26300000      18.30500000
 O      18.23400000      10.29000000      12.32800000
 H      19.08400000      10.61300000      11.96700000
 H      17.55500000      11.00000000      12.23800000
 O      17.99400000      13.56400000      15.97400000
 H      18.49200000      14.29400000      16.38200000
 H      17.08000000      13.95100000      16.25800000
 O      19.90600000       8.51800000      13.80000000
 H      18.94800000       8.69300000      13.57600000
 H      20.03800000       7.56000000      13.52100000
 O      21.70700000       9.86700000      15.93500000
 H      21.23000000       9.35600000      15.30300000
 H      21.04000000       9.82400000      16.65100000
 O      21.96500000       9.98800000      10.80100000
 H      22.68400000       9.35400000      10.51300000
 H      21.54400000       9.45000000      11.49400000
 O      23.81500000       6.54700000      14.18900000
 H      23.34300000       7.22900000      14.73400000
 H      24.72400000       6.78600000      14.32700000
 O      22.46600000      13.33600000      12.03900000
 H      22.57000000      12.40400000      11.99500000
 H      21.55500000      13.44800000      11.70900000
 O      24.31700000       9.43400000      15.26700000
 H      23.32000000       9.72400000      15.55800000
 H      24.68900000       9.00500000      16.05800000
 O      24.39000000      10.89700000      12.87500000
 H      23.76800000      10.67600000      13.53200000
 H      24.39900000      10.05400000      12.40900000
 O      23.70400000       7.66000000      11.20100000
 H      24.19300000       6.82700000      10.89100000
 H      23.38400000       7.39400000      12.06400000
