42
XYZ file of cluster: frame_19000_c1ca5.4609c.b585 - created by MolEdiTo
 O      18.37200000       9.39000000       6.73800000
 H      19.29100000       8.86300000       6.70300000
 H      17.72300000       8.74100000       7.06900000
 O      19.15700000      12.19000000       4.30000000
 H      18.75700000      11.60300000       4.98700000
 H      19.97900000      12.47800000       4.67700000
 O      19.85100000       9.77400000       2.76500000
 H      19.48700000       8.81600000       2.88700000
 H      20.76200000       9.60300000       3.18800000
 O      16.91300000       9.08400000       4.08700000
 H      16.62700000      10.03200000       4.11300000
 H      17.62300000       9.02400000       4.79100000
 O      19.73200000       7.01000000       3.55100000
 H      19.94900000       6.13600000       3.95900000
 H      20.47200000       7.22700000       2.91600000
 O      20.24400000      12.20000000       1.55400000
 H      19.39000000      12.65000000       1.26800000
 H      19.87700000      11.77700000       2.35200000
 O      21.71000000      13.97100000       6.24000000
 H      21.88000000      14.59300000       5.51900000
 H      21.08600000      14.42000000       6.78500000
 O      24.22600000      12.68300000       3.59600000
 H      25.12700000      12.77800000       3.28600000
 H      24.22300000      11.86500000       4.00900000
 O      23.53300000      10.76300000       5.97200000
 H      22.78800000      11.32600000       5.86400000
 H      23.64200000      10.72600000       6.92800000
 O      22.53700000       7.23900000       1.67200000
 H      22.06500000       7.80500000       1.00800000
 H      23.30000000       6.88900000       1.15100000
 O      21.76900000       8.07200000       6.13500000
 H      21.30100000       7.50900000       5.46300000
 H      22.77900000       7.97400000       5.87900000
 O      24.05400000       9.70300000       3.35300000
 H      23.70400000       9.95000000       4.27400000
 H      24.95200000       9.68300000       3.53500000
 O      22.59500000      15.15800000       3.56800000
 H      22.66700000      14.17500000       3.35200000
 H      21.67800000      15.46200000       3.28400000
 O      24.13700000       6.69000000       4.10000000
 H      24.28900000       7.66000000       3.91600000
 H      24.27500000       6.34500000       3.22900000
