51
XYZ file of cluster: frame_19000_1a1c.72c27.47b47 - created by MolEdiTo
 O       7.17400000      14.78200000       9.31100000
 H       7.08100000      15.57100000       9.91500000
 H       6.88100000      14.04600000       9.83700000
 O       1.90400000      16.88600000      10.05900000
 H       1.68000000      16.04100000       9.59300000
 H       2.38700000      16.58500000      10.81800000
 O       6.60200000      10.10800000      14.11800000
 H       6.50800000      10.79500000      14.80600000
 H       5.87000000      10.33900000      13.45300000
 O       5.67800000      14.10400000       7.15000000
 H       6.00400000      14.53100000       6.37100000
 H       6.08400000      14.67700000       7.78500000
 O       3.73200000      12.00100000       8.48300000
 H       4.27100000      12.38000000       7.70200000
 H       4.01900000      11.15700000       8.64700000
 O       4.70500000      13.42000000      10.84900000
 H       3.94700000      13.12100000      10.23700000
 H       4.89100000      12.66700000      11.41300000
 O       4.72300000      17.98300000       9.49200000
 H       3.87800000      18.02600000       8.90700000
 H       4.45300000      17.58300000      10.36000000
 O       3.07200000      18.12400000       7.38100000
 H       3.85700000      18.29500000       6.80400000
 H       2.94900000      17.12800000       7.34900000
 O       4.25300000      15.81300000      12.07400000
 H       4.31800000      15.00900000      11.55700000
 H       4.16300000      15.41200000      13.00400000
 O       0.83100000      15.37400000      14.63100000
 H       1.18100000      14.66800000      14.19000000
 H       0.14000000      15.47200000      13.88900000
 O       6.89300000      16.38000000      14.23300000
 H       6.56800000      17.02600000      13.57400000
 H       7.49400000      15.80700000      13.75500000
 O       3.39800000      15.45900000       7.59500000
 H       4.26100000      14.98200000       7.60100000
 H       2.76400000      14.73300000       7.30100000
 O       1.51900000      13.33600000      12.03900000
 H       1.62300000      12.40400000      11.99500000
 H       0.60800000      13.44800000      11.70900000
 O       3.44300000      10.89700000      12.87500000
 H       2.82100000      10.67600000      13.53200000
 H       3.45200000      10.05400000      12.40900000
 O       6.59300000      12.83700000      14.15700000
 H       7.27500000      12.35500000      14.70800000
 H       7.18300000      13.37600000      13.64500000
 O       4.13000000      13.80900000      14.08500000
 H       4.78000000      13.10800000      14.27900000
 H       3.55300000      13.22400000      13.62400000
 O       4.21900000      18.52000000      13.07200000
 H       4.30400000      17.53400000      12.98700000
 H       3.27300000      18.54300000      13.50900000
