30
XYZ file of cluster: frame_2500_7c4c3.d3ffa.c4068 - created by MolEdiTo
 O      13.24300000      19.90300000      18.70700000
 H      12.66600000      20.10900000      17.97400000
 H      12.69500000      19.24300000      19.16100000
 O      15.63000000      19.09700000      19.50900000
 H      14.64600000      19.28800000      19.31800000
 H      15.91500000      18.85300000      18.64200000
 O      18.02300000      19.88000000      23.05100000
 H      17.34600000      19.31800000      22.52000000
 H      18.82500000      19.60200000      22.69100000
 O      14.12500000      18.56400000      24.03400000
 H      13.29400000      18.96700000      23.74300000
 H      14.12100000      18.36900000      24.95400000
 O      14.30600000      23.52800000      18.18400000
 H      13.99700000      22.62200000      18.33500000
 H      13.54900000      23.99000000      17.70900000
 O      18.04200000      24.81900000      17.26600000
 H      17.41900000      25.23600000      17.99600000
 H      18.50000000      23.97700000      17.57800000
 O      11.38000000      23.94400000      18.35200000
 H      11.11400000      23.17300000      17.76400000
 H      11.01200000      23.67400000      19.21400000
 O      16.10100000      22.41400000      24.99900000
 H      15.69300000      22.64100000      24.08800000
 H      16.72800000      21.71600000      24.90600000
 O      15.27400000      22.77100000      22.41300000
 H      15.95100000      22.56400000      21.69700000
 H      14.55700000      22.06100000      22.32500000
 O      10.99400000      23.97900000      24.55600000
 H      11.43400000      24.48400000      23.84800000
 H      11.78900000      23.92900000      25.17200000
