45
XYZ file of cluster: frame_2500_19563.71147.0 - created by MolEdiTo
 O       7.35200000      13.83300000       4.75800000
 H       7.40500000      13.15300000       4.04900000
 H       7.01300000      13.37300000       5.52500000
 O      10.10000000      14.97900000       7.40200000
 H      10.04100000      14.92000000       6.32700000
 H       9.62200000      15.84900000       7.51500000
 O       7.77500000      17.85400000       0.92200000
 H       6.91000000      17.50800000       0.62000000
 H       8.35000000      17.09600000       1.01700000
 O       5.68000000      15.91900000       5.83500000
 H       6.08700000      15.28900000       5.14700000
 H       4.79800000      16.07800000       5.43600000
 O       9.98100000      15.14900000       4.61900000
 H       8.98000000      14.86200000       4.65400000
 H      10.22300000      14.94100000       3.71500000
 O       8.13700000      13.12000000       2.08400000
 H       8.00400000      12.27600000       1.68900000
 H       9.09400000      13.26100000       2.01600000
 O       3.84100000      13.75000000       7.06300000
 H       4.27100000      14.57200000       7.19200000
 H       3.01700000      13.86600000       7.54200000
 O       7.47000000      10.99800000       4.40100000
 H       7.99000000      11.28200000       3.65700000
 H       7.85300000      11.40700000       5.17600000
 O       5.94400000      18.20900000       7.27900000
 H       5.11400000      18.65900000       6.93100000
 H       5.87400000      17.41500000       6.69200000
 O       3.24600000      17.59600000       2.36900000
 H       2.24100000      17.46700000       2.39100000
 H       3.68300000      16.80300000       2.74000000
 O      10.50800000      14.46900000       1.85200000
 H      10.64500000      15.22900000       1.25800000
 H      11.03000000      13.76000000       1.39800000
 O       5.71900000      14.86600000       1.78100000
 H       6.61000000      15.07000000       1.45400000
 H       5.93400000      15.00400000       2.76200000
 O      10.48500000      11.76300000       4.76200000
 H      10.93900000      11.70700000       5.66100000
 H      10.99400000      11.15100000       4.23800000
 O       8.87900000      17.50000000       7.36800000
 H       7.96500000      17.80300000       7.14600000
 H       9.44200000      17.81400000       6.62900000
 O       9.39700000      10.65700000       1.02700000
 H       9.86600000       9.79800000       1.02700000
 H       9.38600000      10.86100000       0.00000000
