42
XYZ file of cluster: frame_2500_9a792.c842e.70c5a - created by MolEdiTo
 O      14.09400000      19.34000000      12.61300000
 H      15.01500000      18.94500000      12.72000000
 H      13.66300000      18.44700000      12.49700000
 O      18.19800000      20.25700000      15.93000000
 H      18.24900000      20.06000000      16.89100000
 H      17.51200000      21.03100000      15.95700000
 O      18.03400000      17.54500000      15.18100000
 H      18.09000000      18.56100000      15.09300000
 H      18.98600000      17.40600000      15.09700000
 O      20.77600000      18.41000000      14.02200000
 H      20.79700000      17.90200000      14.89700000
 H      21.59400000      18.11800000      13.66800000
 O      18.30500000      18.19700000      18.27100000
 H      19.30500000      18.35400000      18.30800000
 H      18.09100000      18.12200000      17.32800000
 O      18.66500000      17.48400000      11.60000000
 H      19.55100000      17.35200000      12.08700000
 H      18.91600000      17.87400000      10.70400000
 O      16.62600000      23.75900000      15.22500000
 H      16.71200000      24.56900000      15.74700000
 H      16.26500000      24.01800000      14.34600000
 O      15.36300000      24.45100000      12.88900000
 H      14.40000000      24.85000000      12.77000000
 H      15.96800000      24.84600000      12.25300000
 O      18.52400000      25.56800000      13.39000000
 H      19.11500000      25.97500000      14.11500000
 H      18.66900000      24.60200000      13.47400000
 O      13.66900000      22.65000000      14.09200000
 H      13.81600000      21.79400000      13.51900000
 H      14.50500000      23.18700000      13.87900000
 O      18.04200000      24.81900000      17.26600000
 H      17.41900000      25.23600000      17.99600000
 H      18.50000000      23.97700000      17.57800000
 O      19.32600000      22.36200000      13.50900000
 H      19.00800000      22.00600000      14.40800000
 H      19.82100000      21.53200000      13.15800000
 O      15.72000000      22.75000000       9.97000000
 H      15.46900000      23.67900000       9.93300000
 H      15.59900000      22.42600000      10.88300000
 O      19.16600000      23.28600000      10.61900000
 H      19.96000000      23.86900000      10.59900000
 H      19.03900000      22.99100000      11.50700000
