39
XYZ file of cluster: frame_2500_4e1fc.974dd.70a0 - created by MolEdiTo
 O      13.68900000      14.73500000       1.21700000
 H      13.30700000      14.34300000       2.00500000
 H      14.64100000      14.32700000       1.19200000
 O      12.28700000      16.95500000       5.44400000
 H      12.03000000      17.89300000       5.27100000
 H      11.52900000      16.54000000       4.93300000
 O      10.10000000      14.97900000       7.40200000
 H      10.04100000      14.92000000       6.32700000
 H       9.62200000      15.84900000       7.51500000
 O       7.77500000      17.85400000       0.92200000
 H       6.91000000      17.50800000       0.62000000
 H       8.35000000      17.09600000       1.01700000
 O      11.43100000      18.83800000       4.03900000
 H      10.99700000      19.52500000       4.57900000
 H      10.67800000      18.47400000       3.63100000
 O      15.22400000      15.71600000       5.16900000
 H      15.11300000      16.36100000       5.91500000
 H      14.34200000      15.25500000       4.94800000
 O       9.98100000      15.14900000       4.61900000
 H       8.98000000      14.86200000       4.65400000
 H      10.22300000      14.94100000       3.71500000
 O      14.12500000      18.56400000       2.53000000
 H      13.29400000      18.96700000       2.23900000
 H      14.12100000      18.36900000       3.45000000
 O       8.52400000      18.98700000       3.57300000
 H       7.97700000      19.61000000       4.07400000
 H       7.95100000      18.82700000       2.81800000
 O      10.50800000      14.46900000       1.85200000
 H      10.64500000      15.22900000       1.25800000
 H      11.03000000      13.76000000       1.39800000
 O      12.80900000      13.74700000       7.64900000
 H      12.92400000      14.19000000       8.47800000
 H      12.17700000      14.32300000       7.09700000
 O       8.87900000      17.50000000       7.36800000
 H       7.96500000      17.80300000       7.14600000
 H       9.44200000      17.81400000       6.62900000
 O      12.73400000      14.03600000       4.40600000
 H      12.53600000      13.11000000       4.44200000
 H      11.87600000      14.46300000       4.50500000
