45
XYZ file of cluster: frame_2500_768b0.7b570.2d98 - created by MolEdiTo
 O      13.68900000      14.73500000       1.21700000
 H      13.30700000      14.34300000       2.00500000
 H      14.64100000      14.32700000       1.19200000
 O      12.28700000      16.95500000       5.44400000
 H      12.03000000      17.89300000       5.27100000
 H      11.52900000      16.54000000       4.93300000
 O      17.63100000      13.76300000       5.85400000
 H      17.27300000      14.56800000       5.35500000
 H      18.61400000      13.80300000       5.97900000
 O      15.35400000      11.77900000       2.92200000
 H      16.05300000      11.65700000       3.64500000
 H      15.53100000      12.74900000       2.68500000
 O      14.42400000      11.69400000       6.89000000
 H      13.67200000      12.29900000       7.23400000
 H      14.98100000      12.34000000       6.43000000
 O      16.38300000      14.26500000       1.71600000
 H      16.98800000      14.70600000       0.99000000
 H      16.97600000      14.45500000       2.48000000
 O      17.54300000      16.89100000       0.90100000
 H      16.96700000      17.41100000       0.25100000
 H      18.37300000      16.80100000       0.38300000
 O      17.57600000      16.71100000       4.02400000
 H      16.82400000      16.15600000       4.47100000
 H      17.10400000      17.10600000       3.26100000
 O      10.48500000      11.76300000       4.76200000
 H      10.93900000      11.70700000       5.66100000
 H      10.99400000      11.15100000       4.23800000
 O      15.22400000      15.71600000       5.16900000
 H      15.11300000      16.36100000       5.91500000
 H      14.34200000      15.25500000       4.94800000
 O      10.50800000      14.46900000       1.85200000
 H      10.64500000      15.22900000       1.25800000
 H      11.03000000      13.76000000       1.39800000
 O      12.80900000      13.74700000       7.64900000
 H      12.92400000      14.19000000       8.47800000
 H      12.17700000      14.32300000       7.09700000
 O      16.68100000      11.00700000       5.23000000
 H      17.17100000      11.77400000       4.87200000
 H      17.11600000      10.68700000       5.99000000
 O      12.60700000      11.37900000       2.31700000
 H      12.29400000      11.99500000       1.59500000
 H      13.59100000      11.27300000       2.15300000
 O      12.73400000      14.03600000       4.40600000
 H      12.53600000      13.11000000       4.44200000
 H      11.87600000      14.46300000       4.50500000
