67
XYZ file of cluster: frame_2500_5d9d0.260d1.4f07b - created by MolEdiTo
 O      12.46400000       6.84300000      13.87600000
 H      13.37600000       6.38100000      13.96200000
 H      12.54300000       7.59500000      14.48200000
 O      17.13700000       3.69500000       8.19100000
 H      17.20900000       3.71000000       9.16800000
 H      16.29500000       4.28000000       8.06700000
 O      15.36300000       3.29700000      12.88900000
 H      14.40000000       3.69600000      12.77000000
 H      15.96800000       3.69200000      12.25300000
 O      12.06900000       9.90500000       7.89200000
 H      11.61400000       9.12000000       7.45000000
 H      12.63900000      10.39600000       7.21200000
 O      16.44100000       8.98900000      12.37200000
 H      15.53600000       9.15600000      12.02700000
 H      16.88900000       9.49100000      11.70500000
 O      12.91000000       4.51800000      12.46500000
 H      12.07400000       3.98500000      12.66600000
 H      12.59600000       5.39400000      12.61900000
 O      17.61800000       9.83800000      14.69400000
 H      17.27400000       9.44200000      13.86800000
 H      17.48200000       9.19300000      15.35600000
 O      15.70600000       6.04300000       7.56200000
 H      16.12200000       6.72600000       7.01200000
 H      14.95200000       6.51500000       7.98400000
 O      11.25700000       4.39500000       9.91700000
 H      11.23900000       3.67100000      10.62200000
 H      10.75800000       3.97500000       9.23700000
 O      15.83000000      10.37600000       9.57000000
 H      15.85700000      11.10500000      10.22800000
 H      15.06700000      10.53300000       8.96700000
 O      18.10400000       7.47900000       9.66100000
 H      17.69200000       7.84700000       8.86700000
 H      18.87900000       8.11900000       9.81700000
 C      12.21500000       9.62800000      10.84300000
 C      11.04500000      10.39100000      11.42700000
 C      10.48200000      12.02700000       9.65500000
 H       9.81400000       9.93200000       9.66600000
 H      12.94400000       7.85800000      10.41600000
 O       8.59100000      11.00700000      11.04900000
 O      13.35200000       9.71100000      11.71900000
 O      12.00500000       8.23500000      10.64200000
 C       9.92700000      10.76500000      10.40400000
 O      10.59000000       9.62500000      12.49000000
 H      11.40800000      11.34500000      11.83600000
 O      10.42900000      13.22600000      10.50600000
 O       9.67700000      12.29200000       8.50200000
 H       9.97900000      13.13600000       8.16800000
 H      10.96500000       8.77600000      12.36200000
 H       8.28000000      11.91300000      10.77600000
 O      13.86600000       9.07100000      14.71800000
 H      13.58000000       9.14300000      13.73100000
 H      14.64500000       8.42800000      14.67800000
 O      15.31800000       6.56700000      14.41100000
 H      15.75100000       5.84700000      13.96000000
 H      15.74500000       6.48800000      15.29900000
 O       9.91500000       7.32400000      15.02900000
 H       9.65400000       7.14900000      14.13500000
 H      10.82100000       6.89400000      15.13500000
 O      14.62600000       7.33900000      10.41200000
 H      15.33900000       6.77400000      10.67300000
 H      15.04100000       8.20900000      10.57000000
 O      12.76800000       5.85900000       7.65800000
 H      12.34000000       6.44000000       6.96100000
 H      12.16100000       6.01900000       8.46600000
 O      14.44300000       4.25600000       9.82300000
 H      13.69000000       3.82500000      10.30400000
 H      14.02600000       4.86900000       9.14400000
