48
XYZ file of cluster: frame_2500_c74d2.26af9.19ce5 - created by MolEdiTo
 O      20.64400000       4.49500000       9.74600000
 H      20.88400000       4.47700000       8.76700000
 H      19.62200000       4.53800000       9.72400000
 O      18.10400000       7.47900000       9.66100000
 H      17.69200000       7.84700000       8.86700000
 H      18.87900000       8.11900000       9.81700000
 O      19.62300000       7.21100000       6.93100000
 H      19.44200000       6.82500000       7.80000000
 H      19.38100000       6.52100000       6.28100000
 O      20.37000000       4.74700000       5.33800000
 H      19.65400000       4.16200000       5.48600000
 H      20.15100000       5.15600000       4.47400000
 O      18.20600000       5.15700000      10.70800000
 H      18.07100000       6.15900000      10.47900000
 H      18.25000000       5.18900000      11.70800000
 O      19.99800000      10.05100000       5.64500000
 H      19.83200000       9.21900000       6.21800000
 H      20.64400000       9.83200000       4.92300000
 O      19.73300000       9.50600000       9.15500000
 H      19.14800000      10.16500000       8.63900000
 H      20.42400000       9.02800000       8.58000000
 O      18.24900000       5.93500000       4.18600000
 H      18.27700000       4.97100000       4.44600000
 H      17.62800000       5.92900000       3.44000000
 O      23.32200000       9.78500000      11.20200000
 H      22.61800000       9.89200000      10.50500000
 H      23.40700000       8.81400000      11.45900000
 O      23.66900000       8.24600000       8.56200000
 H      23.63800000       7.31300000       8.19000000
 H      24.53200000       8.21900000       9.05900000
 O      22.77500000       6.31500000       3.09400000
 H      22.77900000       6.93900000       2.27300000
 H      22.96000000       6.93400000       3.81600000
 O      23.95800000       7.79400000       5.07600000
 H      24.87300000       8.11200000       5.08900000
 H      23.86600000       7.50700000       6.03600000
 O      25.53600000       3.35200000       9.34600000
 H      24.62100000       3.38800000       9.66900000
 H      25.58000000       3.85000000       8.51100000
 O      25.18200000      10.68100000       7.13200000
 H      24.94500000       9.85700000       7.58500000
 H      25.13400000      11.30400000       7.94300000
 O      23.53300000      10.11800000       3.35400000
 H      24.07200000       9.41400000       3.94900000
 H      23.97000000      10.28600000       2.51200000
 O      23.86400000       5.59700000       7.28800000
 H      24.70400000       5.84900000       6.93500000
 H      23.37900000       5.31600000       6.48900000
