51
XYZ file of cluster: frame_2500_1ad44.c5518.6fe00 - created by MolEdiTo
 O       7.43300000      19.96100000      18.75500000
 H       7.52400000      19.14600000      19.29500000
 H       7.53500000      19.61800000      17.85200000
 O      10.52100000      20.64600000      17.07000000
 H      10.78600000      19.78100000      16.84500000
 H       9.54000000      20.41300000      17.18100000
 O       8.28800000      20.59300000      14.06700000
 H       7.44500000      20.60300000      14.57300000
 H       8.42700000      19.63200000      13.81700000
 O       6.86400000      20.46100000      10.74000000
 H       6.35300000      21.15400000      11.15900000
 H       7.74900000      20.64100000      11.16300000
 O       3.60800000      18.94000000      13.68200000
 H       3.92400000      19.42000000      14.41300000
 H       4.31400000      19.09900000      13.01600000
 O       2.98500000      17.30500000      17.37000000
 H       3.72700000      17.72900000      16.92800000
 H       2.37300000      18.01200000      17.44900000
 O       5.05200000      19.22800000      16.53800000
 H       4.37600000      20.00800000      16.47100000
 H       5.81100000      19.58700000      17.06900000
 O      10.50900000      18.99300000      10.72500000
 H      10.80900000      18.58700000       9.85400000
 H      11.29700000      19.28900000      11.09100000
 O       5.05100000      18.09700000      10.60100000
 H       5.65200000      17.52700000      11.18600000
 H       5.61700000      18.85400000      10.28000000
 O       8.24300000      18.47800000      16.56000000
 H       8.45800000      18.45800000      15.58000000
 H       8.17100000      17.44800000      16.71700000
 O       8.34700000      17.09700000      10.86400000
 H       8.35200000      17.51900000      10.01200000
 H       8.98100000      17.72200000      11.39500000
 O       6.21900000      23.39400000      15.19800000
 H       6.78100000      24.25500000      15.14100000
 H       5.48100000      23.65700000      15.77500000
 O       9.78500000      22.75000000      10.36100000
 H       9.89300000      21.74400000      10.37700000
 H      10.25600000      23.01200000      11.20400000
 O       7.80100000      24.79800000      11.08700000
 H       6.79400000      24.78700000      11.00800000
 H       8.05700000      23.96100000      10.61000000
 O      11.11900000      23.39000000      12.77800000
 H      10.51400000      23.71100000      13.52200000
 H      11.98400000      23.27500000      13.20200000
 O       4.19300000      22.80300000      12.93700000
 H       3.49800000      23.40900000      13.20300000
 H       4.91400000      23.43200000      12.67700000
 O       8.99600000      24.31500000      15.64800000
 H       9.94700000      24.38500000      15.35600000
 H       8.63100000      23.41900000      15.29800000
