27
XYZ file of cluster: frame_14000_d26f1.7d5f1.9aea1 - created by MolEdiTo
 O      19.30600000      17.51600000      16.62300000
 H      18.62500000      17.63100000      17.26400000
 H      19.56600000      16.63500000      16.82800000
 O      19.35000000      14.34600000      16.25700000
 H      19.28700000      14.52900000      15.32800000
 H      19.05400000      13.46400000      16.43300000
 O      18.31100000      14.08700000      19.82800000
 H      18.32700000      15.09300000      19.86700000
 H      19.19800000      13.93700000      19.43800000
 O      22.81700000      11.90000000      16.87600000
 H      23.10000000      12.85300000      17.03100000
 H      23.09300000      11.46500000      17.71400000
 O      24.87400000      15.66000000      14.45600000
 H      25.01400000      15.07700000      13.64300000
 H      24.26000000      15.14000000      15.15200000
 O      22.67300000      14.07100000      19.45800000
 H      22.84200000      13.86200000      20.45000000
 H      23.43700000      14.53100000      19.05800000
 O      24.31200000      11.82500000      14.37400000
 H      24.27900000      10.95700000      14.02600000
 H      23.66600000      11.87400000      15.09700000
 O      24.82200000      16.33000000      19.02700000
 H      25.68800000      16.78900000      18.69900000
 H      24.69800000      16.76900000      19.93700000
 O      23.39500000      14.83700000      16.59700000
 H      22.49700000      14.64400000      16.67000000
 H      23.49000000      15.67600000      17.13900000
