30
XYZ file of cluster: frame_14000_a60d1.74d8d.c3050 - created by MolEdiTo
 O      15.10300000      14.92600000      19.76500000
 H      14.44900000      14.52200000      20.42100000
 H      14.62600000      15.19500000      18.92000000
 O      18.31100000      14.08700000      19.82800000
 H      18.32700000      15.09300000      19.86700000
 H      19.19800000      13.93700000      19.43800000
 O      16.06600000      12.83500000      18.07200000
 H      15.09700000      12.81600000      18.17500000
 H      16.28900000      13.65600000      18.52600000
 O      17.46800000      16.37200000      18.92300000
 H      16.64200000      15.99500000      19.25300000
 H      17.30900000      17.30600000      19.27600000
 O      17.65200000      10.54500000      18.07100000
 H      17.59400000      10.21200000      17.17500000
 H      16.97600000      11.29000000      18.11300000
 O      16.21700000      15.15900000      24.33000000
 H      15.40800000      14.90900000      23.83700000
 H      16.10100000      16.17100000      24.37000000
 O      17.84400000      11.83000000      22.79800000
 H      17.88800000      12.67900000      22.21500000
 H      18.43100000      11.15800000      22.38800000
 O      19.18400000      14.45000000      24.81900000
 H      18.24600000      14.43900000      24.54000000
 H      19.58600000      15.28500000      24.46300000
 O      20.16600000      16.64800000      23.53000000
 H      20.25600000      17.25900000      24.25600000
 H      20.20200000      17.11200000      22.61200000
 O      15.02300000      11.70900000      24.04100000
 H      15.28000000      10.84100000      24.39600000
 H      15.86500000      12.06100000      23.64800000
