33
XYZ file of cluster: frame_14000_466d.c1da4.0 - created by MolEdiTo
 O       4.23000000      17.30600000       4.32700000
 H       4.98900000      17.81300000       4.65600000
 H       3.74700000      16.94200000       5.12200000
 O       0.96700000      18.76700000       3.76100000
 H       0.38300000      19.34400000       3.11400000
 H       0.60400000      19.15900000       4.59600000
 O       4.82500000      18.02400000       7.09400000
 H       5.19500000      18.44500000       7.92300000
 H       5.02700000      17.06200000       7.15100000
 O       2.36800000      18.91800000       6.26900000
 H       2.30400000      18.41100000       5.40400000
 H       3.32200000      18.74400000       6.45600000
 O       3.60200000      20.17400000       3.06300000
 H       2.96000000      19.92600000       3.70900000
 H       3.11300000      20.35200000       2.20600000
 O       6.26300000      19.49100000       3.00700000
 H       6.67100000      20.29600000       3.30400000
 H       5.29600000      19.62900000       2.96300000
 O       2.29500000      23.49900000       5.62900000
 H       2.26700000      24.12100000       6.39100000
 H       2.49300000      22.65500000       6.18500000
 O       6.46300000      23.78300000       3.80600000
 H       6.64300000      24.49500000       4.53300000
 H       7.01000000      24.17700000       3.11800000
 O       2.48200000      24.40100000       2.86500000
 H       1.86300000      23.86200000       3.46700000
 H       2.79600000      23.75700000       2.24700000
 O       1.88000000      22.20000000       0.73000000
 H       1.29800000      21.41600000       0.37100000
 H       2.37100000      22.55900000       0.00000000
 O       5.22300000      22.71800000       6.47300000
 H       4.92800000      22.83900000       5.54500000
 H       5.18200000      23.60200000       6.88800000
