39
XYZ file of cluster: frame_14000_c0e59.e1bb.73f1c - created by MolEdiTo
 O      17.71700000       2.81400000      14.89600000
 H      16.78500000       2.79700000      15.28500000
 H      18.03200000       1.99300000      15.22100000
 O      18.09400000       6.38700000      15.04900000
 H      18.67400000       5.95800000      15.70200000
 H      18.61900000       6.47200000      14.21500000
 O      19.83500000       2.07200000      12.73000000
 H      19.45600000       1.23300000      12.28100000
 H      19.27800000       2.28000000      13.51000000
 O      20.39500000       6.42600000      17.86600000
 H      21.24400000       5.82800000      17.91400000
 H      20.65800000       7.26900000      17.56300000
 O      20.04400000       4.28500000      10.95500000
 H      19.14100000       4.53300000      10.64800000
 H      19.81200000       3.50200000      11.46300000
 O      19.63900000       4.28600000      15.71700000
 H      18.76300000       3.83800000      15.65400000
 H      19.84900000       4.29900000      16.66300000
 O      24.69900000       7.53000000      14.76800000
 H      24.79100000       8.44300000      15.24600000
 H      24.46000000       7.08700000      15.56800000
 O      24.27500000       3.81000000      15.63300000
 H      23.56200000       4.22800000      15.08900000
 H      24.71300000       3.32800000      14.87000000
 O      22.30600000       5.29300000      13.37000000
 H      21.90700000       5.08400000      12.52400000
 H      21.66900000       5.03200000      14.07500000
 O      24.34000000       1.40800000      18.37000000
 H      25.32600000       1.38900000      17.98900000
 H      23.93800000       1.23700000      17.49300000
 O      24.37000000       2.07300000      10.58400000
 H      24.25000000       3.02100000      10.21100000
 H      24.42000000       2.21900000      11.51600000
 O      24.62400000       6.91800000      17.65900000
 H      24.79200000       6.34200000      18.49500000
 H      25.49700000       6.95900000      17.34500000
 O      23.62800000       2.21500000      13.51800000
 H      23.58300000       1.31100000      13.93100000
 H      22.75000000       2.37000000      13.12600000
