33
XYZ file of cluster: frame_14000_4a492.7b849.bcc07 - created by MolEdiTo
 O      10.38600000      13.46800000      20.07600000
 H      10.71200000      14.24000000      20.63500000
 H      11.18900000      13.00900000      19.69900000
 O      12.08000000      15.82400000      18.51800000
 H      12.64200000      16.46400000      19.07300000
 H      11.17100000      16.14100000      18.68600000
 O       8.79600000      12.14700000      17.89500000
 H       8.81900000      12.98900000      17.41100000
 H       9.07000000      12.40600000      18.80200000
 O      11.83300000      12.08000000      17.51100000
 H      12.33400000      11.98000000      16.62300000
 H      12.08000000      11.31800000      18.04300000
 O       9.22300000      16.19600000      19.73600000
 H       8.58000000      16.94100000      19.75700000
 H       8.64200000      15.47800000      20.10000000
 O       7.46300000      14.10200000      20.16400000
 H       6.52500000      13.88300000      19.95600000
 H       7.98400000      13.21900000      20.18300000
 O      11.87200000      11.24100000      22.88000000
 H      11.37100000      11.10500000      23.73000000
 H      12.84200000      11.21500000      22.96600000
 O       8.77900000      11.58000000      22.76300000
 H       9.43300000      12.26900000      22.53100000
 H       9.25500000      10.79500000      23.18600000
 O      13.61500000      14.29100000      23.68400000
 H      14.00000000      13.34200000      23.86600000
 H      12.85200000      14.26400000      24.25400000
 O       6.90300000      16.36700000      24.33000000
 H       7.67800000      16.45200000      23.70200000
 H       6.46400000      17.22200000      24.38400000
 O      13.03800000      17.03400000      24.02900000
 H      12.77000000      17.53700000      24.89600000
 H      13.54200000      16.25100000      24.33100000
