39
XYZ file of cluster: frame_14000_1ef5c.44a7.a7b04 - created by MolEdiTo
 O       5.84900000       1.79400000      20.18700000
 H       5.01500000       2.00200000      19.71600000
 H       6.51900000       1.78600000      19.45600000
 O       5.07400000       0.83200000      16.35900000
 H       5.94200000       0.37500000      16.57000000
 H       5.18900000       1.00100000      15.40100000
 O      10.04300000       5.13000000      17.06900000
 H      10.85200000       5.31000000      16.56300000
 H       9.31400000       5.56800000      16.55700000
 O       3.38000000       6.91800000      17.65900000
 H       3.54800000       6.34200000      18.49500000
 H       4.25300000       6.95900000      17.34500000
 O       5.98600000       7.02000000      16.16800000
 H       5.66600000       7.43700000      15.40700000
 H       6.65600000       7.64100000      16.46400000
 O       7.01000000       4.37300000      16.09200000
 H       6.68200000       5.23000000      15.64200000
 H       7.31200000       3.86900000      15.28400000
 O       9.30200000       1.31000000      15.95100000
 H      10.05600000       1.85000000      15.64800000
 H       9.78200000       0.46500000      15.95400000
 O       3.45500000       7.53000000      14.76800000
 H       3.54700000       8.44300000      15.24600000
 H       3.21600000       7.08700000      15.56800000
 O       8.45000000       5.01700000      19.33500000
 H       8.03400000       4.34000000      18.79500000
 H       9.27500000       5.11900000      18.84200000
 O       3.10000000       5.76800000      20.23000000
 H       2.73000000       5.75900000      21.13500000
 H       3.73900000       6.55100000      20.30200000
 O       4.77500000       4.09200000      17.87600000
 H       5.51300000       4.54900000      17.45500000
 H       4.05200000       4.07000000      17.16500000
 O       3.09600000       1.40800000      18.37000000
 H       4.08200000       1.38900000      17.98900000
 H       2.69400000       1.23700000      17.49300000
 O       7.71400000       2.51500000      17.97400000
 H       7.29100000       3.15900000      17.35800000
 H       8.42200000       2.01600000      17.44000000
