33
XYZ file of cluster: frame_14000_9a3fa.9f781.c8fb2 - created by MolEdiTo
 O      15.10300000      14.92600000      19.76500000
 H      14.44900000      14.52200000      20.42100000
 H      14.62600000      15.19500000      18.92000000
 O      14.02200000      20.54400000      17.70000000
 H      13.42200000      19.82100000      18.00300000
 H      14.17700000      21.18000000      18.46200000
 O      18.31100000      14.08700000      19.82800000
 H      18.32700000      15.09300000      19.86700000
 H      19.19800000      13.93700000      19.43800000
 O      17.46800000      16.37200000      18.92300000
 H      16.64200000      15.99500000      19.25300000
 H      17.30900000      17.30600000      19.27600000
 O      14.82100000      17.84500000      18.20400000
 H      14.44500000      18.03700000      19.15200000
 H      15.48200000      18.58000000      18.14300000
 O      16.86400000      18.37000000      22.46400000
 H      15.95400000      18.01200000      22.50500000
 H      17.25100000      18.03100000      23.28000000
 O      16.21700000      15.15900000      24.33000000
 H      15.40800000      14.90900000      23.83700000
 H      16.10100000      16.17100000      24.37000000
 O      19.28800000      20.22100000      23.37800000
 H      18.51000000      20.24100000      22.78800000
 H      19.25300000      21.04100000      23.81100000
 O      14.18200000      20.22000000      25.17900000
 H      13.56200000      20.87400000      24.75000000
 H      13.56300000      19.68900000      25.72300000
 O      19.18400000      14.45000000      24.81900000
 H      18.24600000      14.43900000      24.54000000
 H      19.58600000      15.28500000      24.46300000
 O      20.16600000      16.64800000      23.53000000
 H      20.25600000      17.25900000      24.25600000
 H      20.20200000      17.11200000      22.61200000
