45
XYZ file of cluster: frame_5000_6d9ec.a474c.73ea0 - created by MolEdiTo
 O      14.39400000      17.99800000      11.80700000
 H      13.97900000      17.18100000      12.08200000
 H      13.67400000      18.59800000      12.06000000
 O      13.83800000      19.40500000      15.63100000
 H      13.75800000      20.39600000      15.75600000
 H      13.78900000      19.30100000      14.64100000
 O      14.31900000      17.16700000      17.14800000
 H      15.11200000      17.53700000      16.77200000
 H      13.55900000      17.56200000      16.64500000
 O      17.03700000      15.72900000      13.72500000
 H      16.35800000      15.12600000      13.47700000
 H      17.87300000      15.25300000      13.56400000
 O      11.08400000      17.60400000      10.72300000
 H      10.17900000      17.66300000      11.07200000
 H      10.90200000      18.15300000       9.93200000
 O      12.58800000      16.00700000      12.26100000
 H      12.01000000      16.54000000      11.69700000
 H      12.65000000      15.11700000      11.81600000
 O      17.07700000      18.36600000      14.53000000
 H      16.94800000      18.30100000      15.47300000
 H      17.02100000      17.47500000      14.18900000
 O       9.97600000      14.45100000      16.08600000
 H      10.84600000      14.85800000      15.74400000
 H       9.60600000      15.14700000      16.60700000
 O      11.35000000      17.18000000      16.95300000
 H      12.12300000      16.71200000      17.16700000
 H      10.82900000      17.19100000      17.78800000
 O      17.30100000      17.45900000      17.28800000
 H      17.60300000      16.68300000      17.76400000
 H      18.02900000      18.10700000      17.26500000
 O      15.89700000      15.11900000      16.18900000
 H      16.34600000      15.66900000      15.48300000
 H      15.94700000      15.76700000      16.92800000
 O      17.37300000      17.89000000      11.51700000
 H      17.85500000      18.41100000      12.21500000
 H      16.46200000      18.15200000      11.62300000
 O      12.26000000      19.34800000      12.83300000
 H      11.82300000      18.74400000      12.19800000
 H      11.54800000      19.81300000      13.34400000
 O      12.87400000      15.08300000      15.17200000
 H      13.80500000      14.81700000      15.34100000
 H      12.96800000      16.02200000      15.10400000
 O      16.57100000      20.47900000      12.69300000
 H      17.38300000      20.40900000      12.17000000
 H      16.79800000      19.92400000      13.47300000
