42
XYZ file of cluster: frame_5000_9c0af.75779.50efd - created by MolEdiTo
 O      14.39400000      17.99800000      11.80700000
 H      13.97900000      17.18100000      12.08200000
 H      13.67400000      18.59800000      12.06000000
 O      17.03700000      15.72900000      13.72500000
 H      16.35800000      15.12600000      13.47700000
 H      17.87300000      15.25300000      13.56400000
 O      16.19300000      13.30200000       9.05800000
 H      15.79600000      12.48400000       8.61600000
 H      16.30000000      13.91200000       8.25000000
 O      17.48000000      13.20500000      11.88600000
 H      18.07100000      13.94800000      11.62900000
 H      16.80600000      13.22300000      11.15900000
 O      19.87500000      16.81900000      13.07100000
 H      20.46400000      16.41600000      12.42500000
 H      19.71300000      16.12800000      13.72700000
 O      19.99800000      11.69000000       8.17800000
 H      20.24100000      12.43100000       8.71700000
 H      20.13100000      12.15100000       7.34600000
 O      14.65400000      14.07300000      13.23900000
 H      14.58100000      13.76300000      12.25300000
 H      13.73000000      13.99800000      13.49900000
 O      18.48200000      15.67800000      10.37600000
 H      18.76700000      16.01900000       9.48300000
 H      18.02400000      16.46300000      10.86100000
 O      15.35300000      17.33800000       8.79200000
 H      15.91400000      16.97400000       8.08500000
 H      15.93500000      17.41700000       9.57900000
 O      20.19700000      16.15800000       8.19900000
 H      21.00900000      16.63000000       8.30700000
 H      20.44800000      15.35800000       7.69200000
 O      19.91300000      18.67700000       9.63600000
 H      19.67900000      17.84000000       9.12200000
 H      18.96400000      18.87200000      10.02800000
 O      20.71800000      13.72300000      10.35400000
 H      20.97000000      14.66100000      10.42900000
 H      19.77100000      13.95200000      10.62000000
 O      17.33100000      11.22200000       7.11100000
 H      17.18400000      10.32200000       6.93500000
 H      18.28400000      11.30300000       7.50200000
 O      16.92500000      10.56800000      12.54800000
 H      17.87800000      10.34600000      12.42500000
 H      16.89900000      11.46600000      12.15400000
