58
XYZ file of cluster: frame_5000_2c1e1.5b020.5bc76 - created by MolEdiTo
 O       9.71000000      18.16500000      14.35900000
 H       9.93600000      17.21700000      14.05400000
 H      10.24600000      18.36000000      15.11100000
 O      10.30800000      10.58300000      17.89400000
 H      10.54000000      10.81700000      16.94900000
 H      10.32300000      11.48400000      18.28400000
 O       9.04000000      16.19400000      12.17000000
 H       8.17000000      15.77700000      11.95900000
 H       9.72700000      15.46200000      12.04200000
 O      11.08400000      17.60400000      10.72300000
 H      10.17900000      17.66300000      11.07200000
 H      10.90200000      18.15300000       9.93200000
 O       7.55200000      13.45200000      13.63900000
 H       7.15100000      12.91700000      12.91700000
 H       8.37400000      13.90400000      13.37900000
 O       9.62300000      11.78900000      14.76100000
 H       8.63200000      11.81400000      14.48100000
 H       9.68700000      12.52700000      15.41700000
 O       9.97600000      14.45100000      16.08600000
 H      10.84600000      14.85800000      15.74400000
 H       9.60600000      15.14700000      16.60700000
 O       6.76700000      12.37300000      10.39600000
 H       6.34900000      11.69400000      10.95500000
 H       6.00800000      12.82100000      10.02300000
 O       4.62700000      15.78900000      15.80400000
 H       4.54800000      15.09300000      16.50600000
 H       5.33800000      16.40400000      16.11100000
 C      11.24900000      12.12500000      11.50500000
 C      10.12900000      11.09700000      10.96100000
 C      11.77200000       9.62100000       9.66800000
 H      11.25700000       9.27300000      11.50500000
 H      10.88400000      11.75200000      13.40900000
 O       9.44500000       8.84800000      10.35300000
 O      10.69600000      13.41300000      11.67000000
 O      11.71300000      11.74500000      12.84600000
 C      10.61000000       9.66800000      10.70500000
 O       9.10900000      11.12700000      12.03400000
 H       9.77400000      11.52900000      10.03700000
 O      12.09200000       8.28800000       9.55100000
 O      11.42500000      10.09400000       8.40200000
 H      12.17100000       9.83900000       7.86400000
 H       8.39000000      11.47600000      11.57500000
 H       9.71900000       7.99700000      10.01300000
 O       6.03500000      16.40800000      13.48600000
 H       6.02900000      15.74000000      14.19800000
 H       5.06200000      16.35700000      13.16300000
 O       4.49500000      13.22600000      14.40100000
 H       3.87000000      13.37000000      13.69600000
 H       5.22500000      12.82000000      13.99100000
 O       4.41400000      16.95000000      11.01000000
 H       5.32000000      17.21200000      10.81700000
 H       3.86600000      17.74300000      11.07600000
 O       6.29500000      12.63300000      16.69900000
 H       6.20800000      13.00000000      15.80800000
 H       6.16400000      13.41300000      17.34600000
 O       4.84100000      10.22100000      16.97000000
 H       4.29600000      10.52200000      17.69000000
 H       5.07900000      11.05400000      16.68100000
