39
XYZ file of cluster: frame_5000_98d8f.436ab.c1bc1 - created by MolEdiTo
 O      15.95300000       8.25800000      18.09100000
 H      15.20700000       7.80900000      17.61500000
 H      16.80100000       7.82800000      17.83100000
 O      15.57900000      13.81900000      19.72100000
 H      16.25800000      13.53700000      19.06100000
 H      14.85000000      14.10500000      19.11300000
 O      14.58800000       6.85200000      20.00900000
 H      14.39600000       6.36800000      19.19400000
 H      15.28200000       7.45700000      19.75300000
 O      15.08300000      10.71000000      18.56000000
 H      14.28900000      10.66400000      19.13300000
 H      15.47700000       9.82600000      18.33800000
 O      19.33500000       6.47600000      18.58200000
 H      18.64300000       5.92400000      18.10200000
 H      18.94700000       7.36200000      18.30500000
 O      18.75200000       9.30400000      18.24500000
 H      18.80900000       9.35900000      17.30600000
 H      18.71800000      10.22700000      18.54500000
 O      19.60200000      13.15600000      19.70500000
 H      19.30500000      12.69200000      20.55000000
 H      20.51400000      13.42600000      19.81500000
 O      16.70200000      12.59100000      17.48300000
 H      16.12000000      11.92500000      17.94800000
 H      16.24500000      12.63500000      16.60000000
 O      15.36700000      11.76600000      22.34200000
 H      15.57300000      12.52200000      21.75000000
 H      14.68600000      12.22100000      22.89000000
 O      17.34400000       8.25700000      24.23500000
 H      17.64200000       7.69600000      23.49400000
 H      16.36100000       8.07700000      24.25600000
 O      14.16200000      13.14800000      24.40100000
 H      14.92900000      12.91000000      25.02500000
 H      13.39400000      12.75300000      24.85900000
 O      17.32500000      11.05700000      24.09300000
 H      16.60300000      11.28600000      23.52300000
 H      17.37000000      10.03900000      24.00500000
 O      19.51400000      12.68900000      24.65700000
 H      18.90400000      13.36100000      24.28600000
 H      18.84900000      11.94700000      24.72100000
