%chk=cluster_511.chk
%mem=6GB
%nproc=4
#b3lyp/6-311++G** scrf=(cpcm,Solvent=Water) nosymm freq
iop(2/11=1) 
 Geom=(NoDistance,NoAngle)

cluster_511

0 1
 O      18.75400000       7.19200000       4.00900000
 H      19.28700000       7.94000000       4.33300000
 H      18.67100000       7.42000000       3.04700000
 O      20.06200000       5.34500000       9.83200000
 H      19.11300000       5.20600000       9.94200000
 H      20.12000000       5.57400000       8.89200000
 O      17.55500000      10.90700000       4.22500000
 H      17.06400000      11.15700000       5.04600000
 H      17.67600000       9.94600000       4.31200000
 O      20.03500000       4.46900000       4.12200000
 H      19.78800000       5.11100000       3.39800000
 H      19.43100000       3.74300000       3.90300000
 O      17.67600000       5.98400000       6.25300000
 H      17.32700000       5.14800000       6.06300000
 H      17.87300000       6.32100000       5.32000000
 O      20.47100000       9.51900000       4.21600000
 H      20.85400000       9.39800000       3.26600000
 H      19.92300000      10.35300000       4.07100000
 O      20.21900000       5.80800000       6.99600000
 H      19.21200000       5.84700000       6.77700000
 H      20.61000000       5.65600000       6.15100000
 O      19.61600000       9.67100000       9.66300000
 H      20.23900000       9.76400000      10.40000000
 H      18.93200000       8.95100000       9.96400000
 O      18.67200000      10.35200000       6.53300000
 H      18.97300000       9.59000000       6.10600000
 H      19.22500000      11.05300000       6.11300000
 O      22.09700000       3.03800000      10.87900000
 H      22.21000000       2.62100000       9.96500000
 H      21.69700000       3.94200000      10.57900000
 O      22.56400000       8.24600000       8.09900000
 H      21.77700000       8.82500000       8.37200000
 H      22.17300000       7.40100000       7.77300000
 O      25.12200000       3.36500000       5.20000000
 H      24.95800000       4.24800000       5.64500000
 H      24.20200000       2.99800000       5.15400000
 O      23.01600000       7.46800000       5.25100000
 H      23.11800000       7.71200000       6.14700000
 H      22.35600000       7.99500000       4.72100000
 O      24.23200000       5.09000000      10.79100000
 H      24.39800000       4.88200000      11.73000000
 H      23.65100000       4.38900000      10.44300000
 O      25.00800000       9.78200000       7.66900000
 H      25.23900000       9.52700000       6.75200000
 H      24.31200000       9.12600000       7.97300000

