132
XYZ file of cluster: frame_10000_72141.744ff.9dc98 - created by MolEdiTo
 O      17.02300000      17.96900000      23.76500000
 H      17.70800000      17.27700000      23.71600000
 H      17.32400000      18.63900000      24.42300000
 O      19.56200000      26.89200000      29.58000000
 H      19.77200000      26.10400000      30.05800000
 H      18.74400000      27.15200000      30.06200000
 O      22.09800000      24.85500000      24.69900000
 H      21.37300000      25.13300000      24.08200000
 H      21.54800000      24.46400000      25.39700000
 O      24.16400000      25.19200000      29.28800000
 H      24.89700000      25.81200000      29.00100000
 H      24.63900000      24.64300000      29.91000000
 O      24.18700000      19.49600000      28.34100000
 H      24.90200000      18.88800000      28.29900000
 H      24.74300000      20.31800000      28.45100000
 O      24.73500000      25.90400000      20.84400000
 H      24.78800000      24.97700000      21.26600000
 H      25.71300000      26.09600000      20.63500000
 O      24.40300000      21.04600000      22.27800000
 H      24.40400000      20.20600000      21.70800000
 H      25.25000000      20.98900000      22.73900000
 O      25.46300000      17.70500000      21.87500000
 H      26.25700000      17.26000000      22.25600000
 H      25.76200000      18.53800000      21.29400000
 O      15.29800000      16.46200000      30.04400000
 H      16.13800000      15.97600000      29.85500000
 H      15.17000000      16.32400000      31.00100000
 O      15.04900000      23.94700000      21.96800000
 H      14.77400000      23.02000000      21.59000000
 H      16.01300000      23.93600000      21.92700000
 O      19.47200000      21.50500000      26.09200000
 H      20.38400000      21.23800000      26.32800000
 H      18.94600000      20.64100000      25.99900000
 O      26.47800000      22.75300000      26.18200000
 H      26.76100000      21.83100000      26.45900000
 H      25.64200000      22.70900000      25.69100000
 O      20.89700000      17.06600000      26.17500000
 H      20.59100000      17.34800000      27.05200000
 H      21.76200000      17.42900000      26.15500000
 O      17.45900000      15.32100000      22.50300000
 H      18.33100000      15.05900000      22.92700000
 H      17.71000000      16.02000000      21.87100000
 O      23.47700000      23.37900000      27.02500000
 H      23.52000000      23.79300000      26.15300000
 H      23.06900000      24.07300000      27.65100000
 O      27.06200000      24.34300000      23.46800000
 H      26.28700000      24.71000000      24.03600000
 H      27.83300000      24.14000000      24.09500000
 O      19.01800000      22.84900000      30.03200000
 H      18.33200000      22.46300000      30.60700000
 H      19.83300000      22.58000000      30.49800000
 O      22.66000000      17.10700000      22.95100000
 H      23.53800000      17.38900000      22.68400000
 H      22.78100000      17.19100000      23.95000000
 O      26.16000000      17.22800000      24.78600000
 H      26.95200000      17.47800000      24.27500000
 H      25.81300000      17.88300000      25.44700000
 O      25.72400000      26.18700000      27.19300000
 H      25.82300000      26.12900000      26.17100000
 H      25.63100000      25.25100000      27.47500000
 O      25.23800000      21.94300000      29.34700000
 H      25.35400000      22.20600000      30.30500000
 H      25.11700000      22.74000000      28.76500000
 O      20.17800000      24.32800000      21.64500000
 H      20.03100000      23.40800000      21.49100000
 H      20.03800000      24.75600000      20.68600000
 O      16.12300000      21.70500000      28.98400000
 H      15.92700000      22.33600000      29.69800000
 H      16.97700000      22.07900000      28.63800000
 O      17.48700000      19.22700000      21.12200000
 H      17.19300000      18.90200000      22.00900000
 H      17.08600000      20.13200000      20.93400000
 O      20.83200000      18.43700000      21.01100000
 H      20.99800000      17.93200000      21.84700000
 H      20.38700000      19.30100000      21.28900000
 O      17.33600000      19.72600000      26.28900000
 H      16.74600000      20.15300000      25.59900000
 H      16.98500000      20.01300000      27.08700000
 O      17.79800000      17.14100000      27.66200000
 H      16.95100000      17.26100000      27.26100000
 H      18.30600000      17.98600000      27.50900000
 O      19.54200000      16.57700000      23.83200000
 H      20.10000000      16.36200000      23.10300000
 H      20.06600000      16.70800000      24.63400000
 O      20.99600000      25.19200000      27.74800000
 H      20.68300000      26.03500000      28.20400000
 H      20.20300000      24.61200000      27.81800000
 O      19.98800000      19.32500000      28.75800000
 H      19.43400000      19.22600000      29.62200000
 H      19.72600000      20.17800000      28.32200000
 O      15.37100000      26.78900000      21.08900000
 H      14.91700000      25.86700000      20.96900000
 H      16.26400000      26.56200000      21.14700000
 O      26.67000000      20.03100000      20.80000000
 H      26.89600000      20.58000000      21.56300000
 H      26.13400000      20.69100000      20.28400000
 O      18.94200000      22.02700000      23.22600000
 H      19.09000000      22.99100000      23.05400000
 H      19.33500000      21.85400000      24.14600000
 O      23.77200000      23.88500000      22.63900000
 H      23.48700000      22.91300000      22.34200000
 H      23.27200000      24.09500000      23.46500000
 O      19.04700000      24.44200000      24.94100000
 H      18.47600000      24.49400000      25.68100000
 H      19.01500000      25.31300000      24.46600000
 O      17.60600000      25.41900000      21.85800000
 H      17.52700000      25.72500000      22.83900000
 H      18.50600000      25.02500000      21.81800000
 O      22.21300000      20.93000000      26.86600000
 H      22.51200000      21.90000000      27.02800000
 H      22.87000000      20.37000000      27.37600000
 O      24.86400000      25.97000000      24.38200000
 H      24.95800000      25.66100000      23.50900000
 H      23.92700000      26.19300000      24.55200000
 O      18.25000000      23.44000000      27.50500000
 H      18.59800000      23.09000000      28.29700000
 H      18.67400000      22.85300000      26.82800000
 O      16.52000000      21.44900000      24.16600000
 H      16.30300000      22.37200000      24.56000000
 H      17.35600000      21.78700000      23.59200000
 O      23.11400000      17.12600000      29.03100000
 H      23.81800000      16.48500000      28.66900000
 H      23.24000000      17.98700000      28.57900000
 O      21.55100000      20.71700000      23.23200000
 H      22.22900000      21.01300000      22.59100000
 H      20.96300000      21.47400000      23.23400000
 O      23.53000000      19.07300000      24.63700000
 H      23.05500000      19.54500000      23.91100000
 H      23.27000000      19.68100000      25.41100000
 O      15.96300000      25.56000000      27.43600000
 H      15.08200000      25.22100000      27.78300000
 H      16.54800000      24.89800000      27.98400000
