123
XYZ file of cluster: frame_10000_72141.9d555.a0848 - created by MolEdiTo
 O      19.56200000      26.89200000      29.58000000
 H      19.77200000      26.10400000      30.05800000
 H      18.74400000      27.15200000      30.06200000
 O      22.09800000      24.85500000      24.69900000
 H      21.37300000      25.13300000      24.08200000
 H      21.54800000      24.46400000      25.39700000
 O      24.16400000      25.19200000      29.28800000
 H      24.89700000      25.81200000      29.00100000
 H      24.63900000      24.64300000      29.91000000
 O      24.73500000      25.90400000      20.84400000
 H      24.78800000      24.97700000      21.26600000
 H      25.71300000      26.09600000      20.63500000
 O      19.51400000      30.15300000      29.50300000
 H      19.33600000      29.38900000      28.93400000
 H      20.40100000      29.99800000      29.89400000
 O      15.04900000      23.94700000      21.96800000
 H      14.77400000      23.02000000      21.59000000
 H      16.01300000      23.93600000      21.92700000
 O      17.52300000      27.92000000      27.87900000
 H      18.21400000      27.54300000      28.40800000
 H      16.89800000      27.20100000      27.71300000
 O      19.47200000      21.50500000      26.09200000
 H      20.38400000      21.23800000      26.32800000
 H      18.94600000      20.64100000      25.99900000
 O      26.47800000      22.75300000      26.18200000
 H      26.76100000      21.83100000      26.45900000
 H      25.64200000      22.70900000      25.69100000
 O      22.11400000      29.50100000      28.85800000
 H      22.50900000      30.33100000      28.58800000
 H      22.53100000      28.89300000      28.18800000
 O      23.47700000      23.37900000      27.02500000
 H      23.52000000      23.79300000      26.15300000
 H      23.06900000      24.07300000      27.65100000
 O      22.13100000      26.77600000      22.31400000
 H      23.07200000      26.44100000      22.12800000
 H      21.49800000      26.59800000      21.62600000
 O      27.06200000      24.34300000      23.46800000
 H      26.28700000      24.71000000      24.03600000
 H      27.83300000      24.14000000      24.09500000
 O      19.01800000      22.84900000      30.03200000
 H      18.33200000      22.46300000      30.60700000
 H      19.83300000      22.58000000      30.49800000
 O      25.72400000      26.18700000      27.19300000
 H      25.82300000      26.12900000      26.17100000
 H      25.63100000      25.25100000      27.47500000
 O      25.23800000      21.94300000      29.34700000
 H      25.35400000      22.20600000      30.30500000
 H      25.11700000      22.74000000      28.76500000
 O      20.17800000      24.32800000      21.64500000
 H      20.03100000      23.40800000      21.49100000
 H      20.03800000      24.75600000      20.68600000
 O      16.12300000      21.70500000      28.98400000
 H      15.92700000      22.33600000      29.69800000
 H      16.97700000      22.07900000      28.63800000
 O      16.82100000      30.49000000      30.56700000
 H      16.46000000      30.39500000      29.67700000
 H      17.76500000      30.56600000      30.34600000
 O      22.07800000      30.44500000      21.43700000
 H      21.54200000      29.68200000      21.22100000
 H      21.39700000      31.13300000      21.18200000
 O      18.72100000      27.03300000      23.96900000
 H      18.05500000      27.46400000      24.49300000
 H      19.16900000      27.89700000      23.68400000
 O      25.22200000      28.55200000      28.95400000
 H      26.05000000      28.37300000      29.43600000
 H      25.40200000      27.79200000      28.28700000
 O      17.54700000      29.59700000      25.67400000
 H      17.28900000      29.04100000      26.45700000
 H      17.02700000      30.45100000      25.79500000
 O      20.99600000      25.19200000      27.74800000
 H      20.68300000      26.03500000      28.20400000
 H      20.20300000      24.61200000      27.81800000
 O      19.70200000      27.52200000      20.82000000
 H      18.94200000      26.99700000      20.86100000
 H      19.56200000      27.96100000      21.66700000
 O      15.37100000      26.78900000      21.08900000
 H      14.91700000      25.86700000      20.96900000
 H      16.26400000      26.56200000      21.14700000
 O      18.94200000      22.02700000      23.22600000
 H      19.09000000      22.99100000      23.05400000
 H      19.33500000      21.85400000      24.14600000
 O      23.77200000      23.88500000      22.63900000
 H      23.48700000      22.91300000      22.34200000
 H      23.27200000      24.09500000      23.46500000
 O      19.46600000      29.45800000      22.98400000
 H      18.83000000      30.13000000      22.81600000
 H      19.77900000      29.82300000      23.83400000
 O      19.04700000      24.44200000      24.94100000
 H      18.47600000      24.49400000      25.68100000
 H      19.01500000      25.31300000      24.46600000
 O      17.60600000      25.41900000      21.85800000
 H      17.52700000      25.72500000      22.83900000
 H      18.50600000      25.02500000      21.81800000
 O      22.21300000      20.93000000      26.86600000
 H      22.51200000      21.90000000      27.02800000
 H      22.87000000      20.37000000      27.37600000
 O      24.86400000      25.97000000      24.38200000
 H      24.95800000      25.66100000      23.50900000
 H      23.92700000      26.19300000      24.55200000
 O      27.12000000      27.72900000      24.77600000
 H      26.30800000      27.20400000      24.64800000
 H      27.12600000      28.38400000      24.05800000
 O      18.25000000      23.44000000      27.50500000
 H      18.59800000      23.09000000      28.29700000
 H      18.67400000      22.85300000      26.82800000
 O      23.29100000      29.52600000      23.77500000
 H      22.57300000      28.92400000      24.15900000
 H      22.92800000      30.00100000      22.99400000
 O      16.52000000      21.44900000      24.16600000
 H      16.30300000      22.37200000      24.56000000
 H      17.35600000      21.78700000      23.59200000
 O      21.55100000      20.71700000      23.23200000
 H      22.22900000      21.01300000      22.59100000
 H      20.96300000      21.47400000      23.23400000
 O      21.78300000      27.84400000      26.52800000
 H      20.87500000      28.08600000      26.42100000
 H      21.76700000      26.84900000      26.34200000
 O      16.83300000      30.36300000      21.88300000
 H      16.91000000      30.43200000      20.86200000
 H      17.37100000      31.10700000      22.16000000
 O      15.96300000      25.56000000      27.43600000
 H      15.08200000      25.22100000      27.78300000
 H      16.54800000      24.89800000      27.98400000
