120
XYZ file of cluster: frame_10000_4ad27.c7ca7.9a614 - created by MolEdiTo
 O      19.56200000      26.89200000      29.58000000
 H      19.77200000      26.10400000      30.05800000
 H      18.74400000      27.15200000      30.06200000
 O      14.90200000      30.76000000      27.54600000
 H      14.13400000      30.89700000      26.94700000
 H      14.68500000      29.77600000      27.91100000
 O      14.46200000      28.00000000      28.03100000
 H      13.85800000      27.94600000      27.19600000
 H      14.55700000      27.02500000      28.26600000
 O      19.51400000      30.15300000      29.50300000
 H      19.33600000      29.38900000      28.93400000
 H      20.40100000      29.99800000      29.89400000
 O      17.52300000      27.92000000      27.87900000
 H      18.21400000      27.54300000      28.40800000
 H      16.89800000      27.20100000      27.71300000
 O      14.09400000      29.04300000      20.38500000
 H      14.09600000      29.58400000      21.22200000
 H      14.69900000      28.25900000      20.64600000
 O      16.82100000      30.49000000      30.56700000
 H      16.46000000      30.39500000      29.67700000
 H      17.76500000      30.56600000      30.34600000
 O      18.72100000      27.03300000      23.96900000
 H      18.05500000      27.46400000      24.49300000
 H      19.16900000      27.89700000      23.68400000
 O      17.54700000      29.59700000      25.67400000
 H      17.28900000      29.04100000      26.45700000
 H      17.02700000      30.45100000      25.79500000
 O      19.70200000      27.52200000      20.82000000
 H      18.94200000      26.99700000      20.86100000
 H      19.56200000      27.96100000      21.66700000
 O      15.37100000      26.78900000      21.08900000
 H      14.91700000      25.86700000      20.96900000
 H      16.26400000      26.56200000      21.14700000
 O      13.27400000      27.51600000      25.60100000
 H      13.71900000      28.10900000      24.98800000
 H      12.66200000      26.94600000      25.07200000
 O      19.46600000      29.45800000      22.98400000
 H      18.83000000      30.13000000      22.81600000
 H      19.77900000      29.82300000      23.83400000
 O      12.26800000      28.02200000      22.65700000
 H      12.12600000      28.24300000      21.72300000
 H      13.16700000      28.41400000      22.69800000
 O      14.79600000      28.75800000      23.30000000
 H      15.56800000      29.20100000      22.89700000
 H      15.17100000      27.82800000      23.36600000
 O      11.16400000      27.70900000      27.79900000
 H      10.57400000      26.94500000      27.51400000
 H      11.97300000      27.41500000      28.21700000
 O      10.61200000      30.30500000      26.34600000
 H      11.19100000      29.71500000      27.01400000
 H       9.69000000      30.20000000      26.68600000
 O      10.44100000      29.98300000      29.55000000
 H      10.59100000      29.08500000      29.21300000
 H      11.00900000      29.98100000      30.44000000
 O      21.78300000      27.84400000      26.52800000
 H      20.87500000      28.08600000      26.42100000
 H      21.76700000      26.84900000      26.34200000
 O      16.83300000      30.36300000      21.88300000
 H      16.91000000      30.43200000      20.86200000
 H      17.37100000      31.10700000      22.16000000
 O      15.61100000      35.09400000      21.70800000
 H      14.89500000      35.72900000      21.41600000
 H      15.20000000      34.15700000      21.78200000
 O      17.26500000      35.71700000      29.85300000
 H      17.14600000      36.51800000      30.41200000
 H      16.49500000      35.18100000      29.98800000
 O      12.98400000      34.17800000      22.96000000
 H      12.87900000      35.07600000      23.47900000
 H      13.32500000      33.65900000      23.72000000
 O      11.11600000      34.67800000      25.90700000
 H      10.73900000      33.91400000      26.45700000
 H      11.45600000      35.30800000      26.59600000
 O      11.54300000      36.22200000      28.44000000
 H      12.47300000      36.15100000      28.13200000
 H      11.63300000      36.55000000      29.37200000
 O      18.43400000      35.96400000      21.06900000
 H      18.81700000      35.78200000      21.97000000
 H      17.91600000      36.72000000      20.92500000
 O      14.16700000      36.42400000      27.69500000
 H      15.05900000      36.37000000      27.25000000
 H      14.27100000      35.79200000      28.45100000
 O      14.77200000      34.58300000      25.12900000
 H      14.25900000      33.72800000      25.35000000
 H      14.16900000      35.26100000      25.52000000
 O      20.07500000      34.66200000      28.95900000
 H      19.12100000      34.85000000      29.04800000
 H      20.04800000      33.65900000      29.10000000
 O      17.56600000      34.20500000      23.44100000
 H      16.81300000      33.98100000      24.03800000
 H      17.43000000      35.12900000      23.30000000
 O      17.46100000      33.58700000      27.25900000
 H      16.55900000      33.33900000      27.54100000
 H      17.34000000      34.48900000      27.02900000
 O      20.36400000      32.39700000      26.24700000
 H      20.83200000      32.29200000      27.12400000
 H      19.36300000      32.46000000      26.50300000
 O      14.67500000      34.60100000      29.71900000
 H      14.72100000      34.07800000      30.57400000
 H      14.83400000      33.89400000      29.08700000
 O      12.81500000      34.81800000      20.08600000
 H      12.72300000      34.65900000      21.07000000
 H      11.96200000      35.27000000      19.84600000
 O      13.22000000      32.41100000      25.32700000
 H      12.26700000      32.19300000      25.43100000
 H      13.54900000      31.65100000      24.82100000
 O      20.31000000      34.48300000      24.21100000
 H      19.49500000      34.57800000      23.70500000
 H      20.29600000      33.78100000      24.86100000
 O      20.50800000      37.49400000      30.10400000
 H      19.77000000      37.58600000      29.42600000
 H      20.83600000      36.72700000      29.66900000
 O      19.51500000      33.56100000      21.25600000
 H      19.01000000      34.37400000      21.20700000
 H      19.17200000      33.14400000      20.46600000
 O      10.11900000      33.61000000      21.02500000
 H      10.64200000      34.18300000      20.41700000
 H      10.74000000      33.56900000      21.84900000
 O      16.69500000      36.36700000      26.62300000
 H      16.76900000      36.77500000      25.74700000
 H      17.52000000      36.73400000      27.06500000
