117
XYZ file of cluster: frame_10000_9cbf7.22b9e.496ed - created by MolEdiTo
 O      28.05700000      11.36400000      11.12000000
 H      29.06400000      11.29900000      11.24900000
 H      27.91000000      10.84900000      10.32400000
 O      20.80300000      12.78300000      15.81600000
 H      21.77900000      12.90800000      15.63800000
 H      20.73000000      11.89800000      16.19400000
 O      25.99700000      15.24300000      13.98800000
 H      26.82600000      15.28400000      14.51400000
 H      25.46400000      16.09600000      14.13400000
 O      22.23800000       6.96500000       9.95900000
 H      21.70000000       6.36300000      10.57100000
 H      21.41300000       7.29800000       9.44000000
 O      23.15500000      14.86200000      13.38800000
 H      23.08500000      15.75600000      13.72900000
 H      23.62700000      15.12400000      12.68500000
 O      21.99400000      12.00200000      13.03300000
 H      21.56300000      12.73700000      12.66000000
 H      22.96400000      12.14600000      13.14400000
 O      25.42700000       9.82400000      17.15400000
 H      25.15400000      10.45200000      16.49000000
 H      25.41500000      10.38100000      17.93700000
 O      27.66300000       8.08100000      15.86400000
 H      27.33900000       7.89100000      15.00100000
 H      26.82500000       8.48100000      16.25000000
 O      28.82700000       5.64400000      16.41600000
 H      28.47500000       6.49600000      16.07800000
 H      29.19700000       5.97700000      17.28700000
 O      30.77100000       7.87200000      16.58400000
 H      30.88000000       8.14100000      15.60200000
 H      30.35200000       8.62600000      17.13300000
 O      20.30000000      14.72100000      13.93900000
 H      20.42600000      13.85500000      14.42300000
 H      21.17400000      14.93800000      13.50500000
 O      27.56600000       9.30600000      20.44400000
 H      27.28100000       9.63100000      19.51700000
 H      28.04300000      10.17400000      20.73100000
 O      21.68600000      14.72700000      20.25200000
 H      22.65900000      14.74800000      20.24800000
 H      21.53800000      14.98100000      21.23300000
 O      20.89600000      11.46400000      19.49600000
 H      21.52300000      11.76700000      18.83400000
 H      20.74000000      12.25200000      20.05800000
 O      23.38800000      10.83800000      15.23700000
 H      24.14600000      10.96500000      14.60200000
 H      22.51600000      11.04800000      14.73700000
 O      23.66600000      13.69000000      15.89500000
 H      24.21900000      13.54000000      15.11600000
 H      23.75400000      14.69100000      16.05700000
 O      25.34300000      12.55200000      13.99900000
 H      25.67200000      13.50600000      14.04400000
 H      26.17300000      12.22100000      13.64200000
 O      26.71200000      16.27200000      18.47200000
 H      25.81000000      16.35300000      19.00700000
 H      26.77000000      15.30000000      18.25800000
 O      29.24800000      14.03700000      20.08700000
 H      29.58000000      14.93300000      19.75600000
 H      29.51000000      13.89500000      21.04100000
 O      28.24200000      12.81800000      15.19000000
 H      28.68200000      12.07200000      15.65000000
 H      28.37500000      13.56600000      15.78900000
 O      23.30100000      12.41700000      18.35300000
 H      23.75400000      13.12500000      18.93500000
 H      23.15300000      12.75900000      17.43900000
 O      26.91900000      14.51200000      11.36900000
 H      26.60700000      14.73300000      12.22700000
 H      27.08500000      13.55200000      11.38600000
 O      22.39600000       7.84300000      13.00400000
 H      22.62700000       6.91800000      13.18900000
 H      23.29600000       8.29700000      13.17400000
 O      24.82400000       5.50000000      19.73100000
 H      24.62000000       6.44300000      19.57200000
 H      24.30800000       5.26200000      20.56000000
 O      23.92200000       5.28300000      12.79000000
 H      23.61400000       4.49600000      13.19100000
 H      24.79600000       5.11800000      12.44500000
 O      28.92300000      10.78800000      17.00000000
 H      28.12100000      10.27100000      16.76300000
 H      29.46800000      10.31600000      17.66700000
 O      27.27000000      12.23500000      19.51400000
 H      26.74200000      12.83200000      18.90400000
 H      28.04600000      12.84700000      19.68200000
 O      26.43500000       8.50500000      13.44000000
 H      27.04900000       8.28700000      12.69300000
 H      25.67400000       8.79900000      12.86000000
 O      23.99800000      10.10700000      11.57800000
 H      23.95900000      10.18200000      10.58400000
 H      23.14000000      10.36600000      11.83700000
 O      29.99600000      10.81200000      13.23600000
 H      30.46000000      11.49900000      13.63400000
 H      29.02600000      11.14200000      13.21200000
 O      30.52500000       9.49100000      18.84100000
 H      30.39800000       9.58100000      19.81800000
 H      31.26100000      10.04600000      18.55000000
 O      29.19500000      15.20600000      16.44400000
 H      29.01900000      15.73900000      17.24200000
 H      28.69100000      15.67600000      15.70300000
 O      28.29700000       7.88300000      10.68600000
 H      28.40600000       6.94400000      10.71200000
 H      27.32000000       8.04600000      10.47400000
 O      22.15400000       8.63500000      16.66500000
 H      21.32200000       8.57600000      16.16400000
 H      22.67700000       9.32000000      16.14300000
 O      24.69400000       6.66000000      15.79900000
 H      24.39600000       5.96800000      15.12300000
 H      24.68400000       7.55800000      15.49900000
 O      26.24600000      13.75600000      17.47400000
 H      26.47600000      12.97400000      16.92400000
 H      25.51200000      14.29700000      17.01000000
 O      20.97300000       8.96400000      20.87200000
 H      21.64000000       9.60100000      20.32500000
 H      20.85700000       8.12600000      20.39100000
 O      23.41000000       9.96300000      20.08000000
 H      23.78500000       9.31000000      19.45000000
 H      23.09000000      10.72600000      19.55800000
 O      23.94800000       7.78100000      18.62000000
 H      23.14800000       7.58600000      18.09100000
 H      24.51900000       8.33800000      18.01400000
