132
XYZ file of cluster: frame_6000_776f3.22f14.9e699 - created by MolEdiTo
 O      25.86200000      10.63000000      23.69600000
 H      25.11300000      10.07600000      23.29400000
 H      26.21100000      11.16200000      22.93200000
 O      23.94900000      13.64400000      27.38200000
 H      24.05600000      13.09700000      28.20600000
 H      24.45100000      13.10300000      26.75100000
 O      25.74100000      16.04100000      24.84200000
 H      25.33900000      15.97000000      25.72500000
 H      25.19100000      15.58900000      24.15800000
 O      23.18500000       7.10200000      20.88700000
 H      22.37000000       6.61500000      20.58400000
 H      23.85500000       6.44100000      20.69900000
 O      20.71200000      11.33200000      23.78700000
 H      20.39400000      11.12400000      22.94800000
 H      21.21500000      12.22600000      23.74300000
 O      17.44600000       6.16800000      28.70100000
 H      16.60500000       6.51400000      28.26400000
 H      17.46600000       6.48900000      29.62100000
 O      15.94700000      14.99200000      22.18400000
 H      15.67900000      15.13100000      23.12800000
 H      15.54100000      14.11000000      22.00000000
 O      18.40700000       8.55100000      22.48500000
 H      18.73800000       9.07500000      21.67700000
 H      17.61700000       8.09400000      22.08900000
 O      17.34000000       6.09900000      20.97000000
 H      16.74500000       6.33700000      21.71200000
 H      17.82400000       5.40000000      21.43700000
 O      23.12600000      12.26200000      21.63000000
 H      23.19000000      12.37600000      20.68800000
 H      22.97900000      11.29300000      21.71300000
 O      25.67800000       5.66500000      26.06100000
 H      25.69900000       6.65600000      25.98500000
 H      25.34100000       5.46900000      26.95900000
 O      18.25200000      12.21700000      25.49500000
 H      18.56700000      11.60200000      24.79400000
 H      18.94400000      12.21100000      26.17800000
 O      23.73600000       9.47300000      22.02100000
 H      24.62000000       9.26300000      21.64100000
 H      23.22100000       8.72200000      21.63700000
 O      22.23400000      15.47800000      26.97400000
 H      22.36000000      16.00800000      27.78000000
 H      22.97300000      14.79800000      27.11400000
 O      16.61000000       9.58500000      24.26600000
 H      16.71200000       9.39300000      25.23800000
 H      17.40300000       9.25100000      23.78200000
 O      19.58500000       9.40700000      26.13100000
 H      20.17200000       9.87900000      25.48100000
 H      19.22300000       8.56500000      25.77800000
 O      24.72200000       5.30300000      28.64000000
 H      24.77200000       5.73200000      29.51200000
 H      23.81500000       4.76500000      28.65500000
 O      22.24100000       5.61400000      30.16000000
 H      22.12200000       6.07200000      29.24900000
 H      22.14200000       6.36300000      30.82300000
 O      22.17700000       5.19900000      25.76100000
 H      22.50000000       5.91000000      26.37000000
 H      21.74100000       4.51600000      26.29400000
 O      20.88600000      12.31700000      27.26300000
 H      21.37700000      11.67700000      27.77800000
 H      20.23800000      12.64400000      27.94100000
 O      24.16300000      15.17000000      22.66800000
 H      23.69200000      15.64400000      21.92800000
 H      23.50100000      14.48900000      22.83600000
 O      16.03300000      12.46100000      23.27700000
 H      16.44300000      12.62200000      24.18800000
 H      16.15300000      11.46300000      23.27100000
 O      20.34500000       6.35500000      27.88200000
 H      19.44100000       6.60200000      27.54100000
 H      21.02000000       6.70500000      27.31800000
 O      20.89500000      16.29900000      21.51300000
 H      19.91100000      16.29100000      21.76000000
 H      21.09600000      15.52000000      20.98100000
 O      18.12700000      16.48900000      22.40800000
 H      17.48400000      15.77500000      22.23300000
 H      17.87100000      16.77000000      23.30800000
 O      22.91900000       7.32400000      27.41100000
 H      23.61600000       7.77900000      28.00300000
 H      23.01800000       7.76700000      26.55700000
 O      25.37300000      15.51700000      29.23000000
 H      25.93500000      16.10200000      28.58500000
 H      24.40500000      15.87200000      29.08500000
 O      22.07900000      10.52800000      29.81500000
 H      22.33600000       9.64000000      29.94700000
 H      21.11000000      10.37000000      29.97100000
 O      23.35700000      13.14300000      30.19400000
 H      23.09900000      12.19900000      30.24400000
 H      24.40000000      13.23100000      30.26200000
 O      26.31600000      12.62900000      21.28000000
 H      26.22400000      13.54300000      21.57400000
 H      25.90800000      12.57700000      20.40600000
 O      17.73000000      15.59300000      25.20600000
 H      18.11600000      16.30900000      25.76700000
 H      18.49600000      14.98100000      25.08300000
 O      26.51100000      13.35900000      30.45300000
 H      27.46400000      13.62300000      30.55900000
 H      26.11800000      13.94900000      29.83000000
 O      17.96600000      14.25400000      28.41400000
 H      17.95500000      14.68300000      27.52300000
 H      16.96800000      14.21700000      28.58200000
 O      25.84600000       8.20700000      25.00100000
 H      26.20600000       7.77800000      24.18800000
 H      25.37000000       9.02500000      24.72300000
 O      24.77800000       9.06800000      28.05500000
 H      24.95000000       9.80700000      27.37000000
 H      24.88700000       9.52000000      28.92600000
 O      21.65900000      14.23700000      24.09600000
 H      21.74100000      14.34500000      25.09000000
 H      20.92500000      14.73700000      23.75800000
 O      25.58800000      11.47000000      26.33300000
 H      26.24700000      12.14100000      25.98900000
 H      25.58200000      10.94900000      25.50000000
 O      19.53700000       9.10500000      29.30900000
 H      19.80600000       8.18800000      29.25200000
 H      19.59000000       9.49100000      28.40600000
 O      26.47100000       9.54100000      20.99000000
 H      27.16700000       9.48900000      20.29300000
 H      26.35100000      10.49900000      21.11000000
 O      22.71200000       9.26300000      25.05300000
 H      22.55500000       8.50800000      24.39400000
 H      22.50400000      10.08000000      24.61300000
 O      18.66100000       7.14500000      25.00300000
 H      19.33600000       6.44600000      24.99900000
 H      18.71200000       7.37200000      24.05800000
 O      25.21900000       5.48600000      21.72000000
 H      25.92000000       6.13700000      21.98200000
 H      25.11100000       4.96600000      22.53400000
 O      16.80100000      10.14900000      27.15000000
 H      17.03600000       9.19700000      27.28600000
 H      17.55200000      10.39800000      26.54800000
 O      22.42700000       7.08200000      23.56100000
 H      22.72300000       6.93400000      22.65200000
 H      22.48500000       6.27800000      24.02200000
