90
XYZ file of cluster: frame_6000_21f0.9ee3a.a206d - created by MolEdiTo
 O       6.86700000      28.21500000      29.33300000
 H       7.19800000      28.49800000      28.44700000
 H       5.89800000      28.36200000      29.37900000
 O       5.14600000      22.30500000      28.17400000
 H       5.84400000      21.82300000      28.68900000
 H       4.84700000      23.10200000      28.65200000
 O       5.99500000      27.00600000      26.54000000
 H       6.78000000      27.49400000      26.94700000
 H       5.19200000      27.54600000      26.69600000
 O       5.84000000      25.38600000      21.54800000
 H       5.42300000      24.90200000      20.75600000
 H       4.98900000      25.46000000      22.09500000
 O       7.43600000      29.34800000      24.06100000
 H       8.38900000      29.27600000      24.06000000
 H       7.17800000      29.62900000      23.19200000
 O      10.24600000      30.72600000      21.68400000
 H       9.51500000      31.26600000      21.69900000
 H      10.24200000      30.28100000      22.56700000
 O       7.30600000      24.62100000      26.94900000
 H       8.21100000      24.53600000      27.22800000
 H       7.13700000      25.55200000      26.70600000
 O       5.62800000      30.29600000      26.06800000
 H       6.22400000      29.54200000      26.07800000
 H       5.88300000      30.75100000      25.25800000
 O       2.04000000      25.67000000      29.58800000
 H       1.76400000      24.67600000      29.77700000
 H       1.90800000      26.13700000      30.39500000
 O       7.80400000      26.42100000      23.31800000
 H       7.37700000      27.19200000      23.68400000
 H       7.14700000      25.91700000      22.76900000
 O      10.01600000      26.55400000      25.22400000
 H       9.19800000      26.26100000      24.79600000
 H      10.56800000      25.76500000      25.46200000
 O       7.98600000      20.56300000      22.47200000
 H       7.99400000      20.96300000      23.37200000
 H       7.86700000      21.45400000      22.00100000
 O       5.16700000      21.24300000      25.52100000
 H       5.91500000      20.53500000      25.49600000
 H       4.90200000      21.65200000      26.36600000
 O       8.20500000      28.82200000      26.95200000
 H       8.74300000      28.47700000      26.27600000
 H       8.90000000      29.41700000      27.41800000
 O       1.93300000      25.44900000      26.88100000
 H       2.11200000      25.72600000      27.81500000
 H       2.48000000      26.14700000      26.39500000
 O       5.22800000      24.84900000      24.76400000
 H       5.18900000      25.82500000      25.01300000
 H       5.85200000      24.43300000      25.44800000
 O      10.10100000      24.02100000      26.94300000
 H      10.10400000      23.09800000      27.41000000
 H      10.52700000      23.94300000      26.04000000
 O       1.98500000      26.94900000      21.40000000
 H       1.20800000      27.48200000      21.30700000
 H       1.57400000      26.04700000      21.35500000
 O       4.09200000      28.67300000      28.15800000
 H       3.70400000      28.61800000      29.09400000
 H       3.69100000      29.48800000      27.82700000
 O       2.27200000      23.10000000      22.07000000
 H       2.14400000      22.34700000      21.44900000
 H       3.24400000      23.20700000      22.30600000
 O       4.42900000      28.03500000      22.17300000
 H       3.65800000      27.75200000      21.68400000
 H       4.94400000      28.25700000      21.36300000
 O       2.38700000      20.81900000      28.94900000
 H       3.31500000      20.94600000      28.55800000
 H       1.70000000      21.16400000      28.27000000
 O       1.07500000      29.57700000      26.29400000
 H       0.27600000      29.03600000      26.33400000
 H       0.98400000      30.25100000      26.97900000
 O       8.17000000      21.41500000      24.95800000
 H       9.16800000      21.56900000      24.79100000
 H       7.74500000      22.17000000      25.46700000
 O       8.06000000      23.69400000      30.41600000
 H       7.94200000      24.62900000      30.64800000
 H       8.92700000      23.31200000      30.64600000
 O       5.01500000      25.01600000      29.75300000
 H       5.78800000      24.78600000      29.21300000
 H       4.36300000      25.41900000      29.04800000
 O       2.94900000      27.15700000      24.85100000
 H       3.15800000      27.95000000      25.29900000
 H       3.13900000      27.46000000      23.96100000
 O      10.42500000      29.32000000      24.03900000
 H      11.09300000      29.46200000      24.80600000
 H      10.87100000      28.60600000      23.48700000
 O       8.30200000      23.22900000      21.91200000
 H       9.28700000      23.19700000      21.93700000
 H       8.02600000      24.03400000      22.38400000
 O       5.30200000      22.94100000      22.55600000
 H       6.19900000      22.77600000      22.24100000
 H       5.41600000      23.34900000      23.37100000
