921
XYZ file of cluster: frame_10000_73ed1.c301c.233dc - created by MolEdiTo
 O      31.10700000      36.69500000      34.08200000
 H      31.03700000      37.68800000      33.83800000
 H      30.24400000      36.53100000      34.46200000
 O      20.27800000      39.58600000       8.55600000
 H      19.80100000      38.74000000       8.83700000
 H      21.10800000      39.40900000       9.04400000
 O      22.15400000      36.30700000       7.51100000
 H      21.31100000      36.76300000       7.16500000
 H      22.24100000      36.79400000       8.38800000
 O      20.72000000      40.49400000      15.31600000
 H      20.15600000      41.24200000      15.41800000
 H      20.87400000      40.11300000      16.18100000
 O      29.84600000      37.07800000      20.92300000
 H      29.72400000      37.87900000      21.43400000
 H      29.02600000      37.06700000      20.34900000
 O      31.36100000      38.13300000      12.34100000
 H      31.37900000      38.54800000      13.20000000
 H      32.31300000      37.78200000      12.25700000
 O      40.39800000      34.58100000      36.24100000
 H      41.30200000      34.75800000      35.82500000
 H      39.80700000      35.11800000      35.64300000
 O      33.43400000      38.17500000      27.81100000
 H      33.32300000      37.37700000      28.30900000
 H      34.36600000      38.32500000      27.89100000
 O      40.06200000      39.32300000      22.50000000
 H      40.51500000      40.08700000      22.08400000
 H      40.46400000      38.57900000      21.96600000
 O      32.90500000      37.67200000      24.96500000
 H      32.99700000      37.52600000      25.88500000
 H      32.98700000      36.75100000      24.60200000
 O      24.52200000      39.10000000      10.56700000
 H      25.08000000      39.55800000      11.25800000
 H      25.11600000      38.39200000      10.27800000
 O      21.08300000      40.45300000      28.22500000
 H      22.00100000      40.49200000      27.82600000
 H      20.83500000      41.38200000      28.05600000
 O      25.67100000      40.01200000      32.21600000
 H      25.12300000      40.22100000      32.96800000
 H      25.08200000      39.29700000      31.87400000
 O      37.97000000      35.21900000      20.70200000
 H      37.65000000      34.96300000      21.60600000
 H      38.58300000      35.94400000      20.94600000
 O      26.83000000      39.58500000      38.49100000
 H      25.97500000      39.88800000      38.80400000
 H      27.11100000      39.10000000      39.34100000
 O      20.87800000      36.88900000      11.98100000
 H      20.66500000      36.07300000      11.51700000
 H      21.19900000      36.49800000      12.80300000
 O      39.05400000      37.19100000      25.80600000
 H      38.90300000      36.32300000      26.17500000
 H      40.03200000      37.25600000      25.69100000
 O      35.02400000      38.72000000       9.22100000
 H      35.05100000      39.43700000       8.63800000
 H      35.92100000      38.42400000       9.39800000
 O      30.10200000      36.53400000      28.28000000
 H      31.06200000      36.56600000      28.46900000
 H      30.18700000      35.94300000      27.49400000
 O      25.36300000      34.65700000      31.19100000
 H      24.47400000      34.74400000      30.87200000
 H      25.76000000      35.48900000      30.95900000
 O      27.47500000      38.65200000       6.56200000
 H      27.04700000      37.92100000       6.98700000
 H      28.33000000      38.17600000       6.25300000
 O      22.94700000      40.06500000      24.37800000
 H      23.08200000      39.15000000      24.01500000
 H      23.39000000      40.58200000      23.69200000
 O      38.89700000      36.37000000      34.64800000
 H      38.16400000      36.21600000      33.92900000
 H      38.30100000      36.66800000      35.35000000
 O      32.02800000      35.47000000      40.34100000
 H      32.00900000      36.10700000      39.62100000
 H      31.02200000      35.30100000      40.46800000
 O      21.75200000      37.57500000      16.69600000
 H      20.96700000      37.10100000      16.99800000
 H      21.92800000      38.17700000      17.46400000
 O      32.35700000      35.48900000       9.94200000
 H      32.08300000      36.41300000       9.90400000
 H      32.16500000      35.25600000      10.86500000
 O      23.73500000      38.98900000      18.77000000
 H      22.84700000      38.92700000      19.20900000
 H      24.30600000      39.06800000      19.60900000
 O      32.68900000      35.03400000      32.35000000
 H      31.72400000      34.73700000      32.06200000
 H      32.46800000      35.76600000      32.92000000
 O      27.14100000      37.93400000      19.35200000
 H      26.84400000      37.12900000      18.81300000
 H      26.70100000      37.78700000      20.16200000
 O      39.90800000      37.40600000      38.27400000
 H      40.19800000      37.38000000      37.27000000
 H      40.36800000      38.24600000      38.46800000
 O      22.73100000      37.93700000      40.37200000
 H      22.68500000      37.72100000      41.33400000
 H      22.70700000      37.06400000      39.95500000
 O      40.73900000      37.23500000      32.91000000
 H      40.05600000      36.83200000      33.50200000
 H      40.17600000      37.79800000      32.33200000
 O      32.91400000      36.43700000      14.92100000
 H      33.20000000      37.35900000      14.98700000
 H      33.69600000      35.95900000      15.13600000
 O      35.89400000      35.46100000      38.37600000
 H      35.15800000      36.04200000      38.20300000
 H      36.08800000      35.07900000      37.49700000
 O      35.96600000      36.49000000      18.86100000
 H      36.56100000      35.72600000      19.06300000
 H      36.58600000      37.25000000      18.96500000
 O      21.46100000      34.47100000      16.30200000
 H      22.15900000      33.86400000      15.94300000
 H      22.03900000      35.22200000      16.66400000
 O      24.49100000      38.33800000      36.79800000
 H      24.39300000      38.79300000      37.68300000
 H      25.46600000      38.39200000      36.69900000
 O      38.25400000      37.37000000      23.18600000
 H      38.92500000      38.12400000      22.92200000
 H      38.55600000      37.37300000      24.14300000
 O      33.37100000      34.84800000      35.31700000
 H      33.63200000      34.35200000      34.49700000
 H      34.16300000      34.67100000      35.85400000
 O      24.23800000      39.74800000      39.14600000
 H      23.53900000      40.45100000      39.23400000
 H      23.88600000      39.11700000      39.83500000
 O      33.98600000      39.74400000      32.51400000
 H      33.94900000      39.22300000      33.35000000
 H      34.08800000      40.66700000      32.87900000
 O      37.37400000      39.39500000      33.58800000
 H      38.23200000      39.44800000      33.11500000
 H      36.88300000      38.85100000      33.03600000
 O      38.01100000      35.05400000       7.82900000
 H      37.74900000      35.73100000       7.16100000
 H      38.03000000      34.22800000       7.23700000
 O      26.95000000      35.31400000      28.15300000
 H      27.06300000      35.76800000      27.24800000
 H      26.17100000      34.73800000      27.89300000
 O      20.91200000      36.59700000      25.21800000
 H      20.79500000      37.48000000      25.44500000
 H      21.80800000      36.34600000      25.48000000
 O      23.81100000      39.81400000      34.21700000
 H      23.99700000      39.64600000      35.17900000
 H      22.98800000      39.24800000      34.19500000
 O      33.99000000      37.28800000      11.68600000
 H      34.26600000      36.37100000      11.76000000
 H      34.40700000      37.58000000      10.92400000
 O      30.08900000      40.53000000      17.32200000
 H      30.23800000      40.30900000      18.28400000
 H      29.86500000      39.61600000      17.02800000
 O      29.02800000      36.53800000      11.88300000
 H      29.15600000      35.55800000      11.84800000
 H      29.80500000      36.71400000      12.42400000
 O      29.21000000      39.35200000      10.85100000
 H      29.77500000      39.80800000      11.50400000
 H      29.31700000      38.42900000      11.13500000
 O      20.40900000      39.45700000      25.24800000
 H      20.02900000      40.34200000      25.17100000
 H      21.37500000      39.67700000      25.02900000
 O      27.90100000      39.64700000      15.42700000
 H      27.66600000      38.98300000      14.74100000
 H      28.47600000      39.06300000      15.97500000
 O      30.52900000      39.66900000      19.79100000
 H      31.29100000      39.51400000      20.41300000
 H      29.92500000      40.17200000      20.33800000
 O      27.21000000      34.10900000      15.12500000
 H      27.03500000      33.29500000      14.63900000
 H      26.54700000      34.75200000      14.76200000
 O      25.27400000      35.95600000      13.80000000
 H      24.40100000      36.49000000      13.94900000
 H      24.83900000      35.11700000      13.59200000
 O      38.19400000      36.74700000      16.62800000
 H      37.39100000      36.77700000      16.06900000
 H      38.27200000      35.76500000      16.79800000
 O      26.08600000      34.99500000      21.27200000
 H      25.68400000      34.75400000      20.42700000
 H      26.23300000      34.12800000      21.65700000
 O      35.38100000      40.44300000      20.30500000
 H      35.49300000      39.60700000      20.78000000
 H      34.84600000      40.96200000      20.99200000
 O      21.90800000      37.38900000      36.10700000
 H      21.82600000      37.85000000      35.21200000
 H      22.84300000      37.69900000      36.36200000
 O      24.91500000      39.67400000      16.44100000
 H      25.86000000      39.67000000      16.51300000
 H      24.67200000      39.48200000      17.38500000
 O      26.81300000      40.14400000      12.21200000
 H      27.36000000      39.80800000      11.42300000
 H      26.88000000      39.30100000      12.79800000
 O      36.87800000      40.16900000      30.85200000
 H      37.23200000      41.04700000      31.06000000
 H      36.01900000      40.45600000      30.41600000
 O      32.49300000      38.93000000      30.58400000
 H      33.20700000      38.97700000      29.92300000
 H      33.05800000      39.10400000      31.35800000
 O      31.62000000      39.66100000      14.65600000
 H      31.88500000      40.59600000      14.59900000
 H      30.82300000      39.73800000      15.18300000
 O      31.64100000      37.22900000      38.39200000
 H      30.76000000      37.69600000      38.21400000
 H      31.48000000      36.40300000      37.79800000
 O      30.92600000      34.93800000      26.02200000
 H      31.58700000      35.08800000      25.38100000
 H      30.99900000      34.00000000      26.27100000
 O      27.31400000      35.71100000      17.62100000
 H      27.35500000      35.08200000      16.86300000
 H      28.03300000      35.24300000      18.16900000
 O      34.17000000      33.88600000      20.17000000
 H      33.47100000      33.55500000      19.55500000
 H      33.82900000      34.82100000      20.21000000
 O      39.73700000      40.23300000      13.67600000
 H      39.39800000      40.33800000      14.58200000
 H      40.64700000      39.83400000      13.92000000
 O      33.96600000      37.66100000      34.62100000
 H      34.48200000      37.03500000      34.05500000
 H      33.11100000      37.25400000      34.50100000
 O      27.45900000      37.80400000      13.61600000
 H      26.78800000      37.08700000      13.76600000
 H      28.00700000      37.42800000      12.93200000
 O      37.59400000      38.01500000       9.78600000
 H      37.84500000      38.41900000       8.95900000
 H      38.44000000      38.04200000      10.31100000
 O      23.59800000      36.81100000      26.28600000
 H      24.26000000      37.53200000      26.48000000
 H      24.27300000      36.16400000      25.93400000
 O      25.03700000      34.71400000      18.91800000
 H      25.08000000      33.84300000      18.51300000
 H      25.76700000      35.16300000      18.38000000
 O      34.80400000      34.78600000      12.61800000
 H      35.40700000      34.80400000      11.87700000
 H      34.93400000      33.90100000      12.95500000
 O      38.59700000      40.77000000      16.40200000
 H      38.24200000      41.68400000      16.52200000
 H      37.87600000      40.21400000      16.73400000
 O      27.13800000      38.28400000      35.40900000
 H      27.45700000      38.40500000      34.47000000
 H      27.74100000      37.50400000      35.65100000
 O      28.46800000      36.74400000      39.78500000
 H      28.88000000      37.43700000      39.16700000
 H      27.63600000      37.24600000      40.03100000
 O      34.60200000      36.50700000       6.60900000
 H      34.55500000      37.07500000       7.40900000
 H      35.44600000      36.68900000       6.25400000
 O      27.27000000      36.49600000      23.33600000
 H      26.82700000      36.00900000      22.62400000
 H      27.46900000      37.32200000      22.92800000
 O      26.77500000      34.26900000      40.74300000
 H      27.19900000      33.69200000      41.38000000
 H      27.47700000      34.87400000      40.49800000
 O      40.27400000      40.11700000      10.51600000
 H      39.78400000      39.55700000      11.16000000
 H      40.89900000      40.62800000      11.03300000
 O      25.16300000      35.30700000      24.49100000
 H      24.74400000      34.63900000      23.88600000
 H      25.97100000      35.47000000      23.99500000
 O      30.94000000      35.62600000      17.56800000
 H      30.50600000      35.10800000      18.24200000
 H      31.73300000      35.96000000      18.03400000
 O      31.58700000      35.22300000      21.60600000
 H      31.01100000      36.08700000      21.46600000
 H      30.81600000      34.60900000      21.72000000
 O      36.82700000      35.73300000      32.96500000
 H      36.69800000      35.92200000      31.99300000
 H      36.28300000      35.05700000      33.14400000
 O      31.06500000      35.15500000      36.69500000
 H      30.91800000      34.21300000      36.95600000
 H      31.98700000      35.09000000      36.31700000
 O      40.30900000      36.26800000       9.17800000
 H      40.95600000      35.71800000       8.74300000
 H      39.49800000      35.89300000       8.67500000
 O      22.59700000      40.34900000      13.12600000
 H      21.97800000      40.35100000      13.90200000
 H      23.01700000      39.43300000      13.29300000
 O      29.82400000      37.97300000      25.02800000
 H      29.80600000      38.33500000      24.12300000
 H      30.74700000      37.69000000      25.13700000
 O      36.33900000      38.32000000      28.57500000
 H      36.65600000      38.73600000      27.69300000
 H      36.57000000      39.03300000      29.19400000
 O      33.41300000      36.70400000      18.35100000
 H      33.35900000      37.62200000      18.01800000
 H      34.34800000      36.66100000      18.67900000
 O      34.52900000      34.73100000      16.55700000
 H      35.30300000      35.35700000      16.46600000
 H      34.15800000      35.13300000      17.35400000
 O      23.41900000      37.85700000      14.72400000
 H      22.71200000      37.62500000      15.36000000
 H      23.88600000      38.53000000      15.32600000
 O      37.26600000      39.59300000      26.35500000
 H      37.96800000      38.87000000      26.32900000
 H      37.81200000      40.36300000      26.34900000
 O      20.73800000      34.96000000      36.10500000
 H      21.15200000      35.80900000      36.12700000
 H      20.74800000      34.73900000      35.15000000
 O      32.19100000      34.76800000      12.61700000
 H      33.19700000      34.65800000      12.68100000
 H      32.11600000      35.67700000      13.03100000
 O      31.87800000      40.16700000      27.70000000
 H      31.69400000      40.07600000      28.64700000
 H      32.31800000      39.30400000      27.48200000
 O      22.63700000      35.65800000      38.75000000
 H      23.38300000      35.00500000      38.96700000
 H      22.64500000      35.71600000      37.79800000
 O      31.16700000      34.39900000      15.34800000
 H      31.02800000      34.88100000      16.24000000
 H      31.86700000      35.03900000      15.01300000
 O      38.30800000      37.76300000      19.02000000
 H      37.96400000      38.62100000      18.89000000
 H      38.39400000      37.52500000      18.04200000
 O      24.29400000      34.79400000       9.01000000
 H      23.64800000      34.39900000       9.67600000
 H      23.59000000      35.38400000       8.61500000
 O      24.95100000      36.84200000      34.27800000
 H      25.13100000      37.32900000      35.07100000
 H      24.68400000      37.46700000      33.59900000
 O      36.73400000      37.60300000      35.98900000
 H      36.26000000      37.45200000      36.81600000
 H      36.69900000      38.51400000      35.84700000
 O      36.70000000      35.56500000      10.47600000
 H      37.22800000      36.36200000      10.20900000
 H      36.63700000      35.18300000       9.51700000
 O      23.32100000      40.54800000      27.00400000
 H      24.12500000      40.27500000      27.39100000
 H      23.36900000      40.33500000      26.07200000
 O      21.91700000      37.84400000      28.45900000
 H      22.43700000      37.56900000      27.69300000
 H      21.71600000      38.79800000      28.18900000
 O      27.23400000      40.75900000      18.54800000
 H      27.38500000      39.77600000      18.75300000
 H      28.06200000      40.90400000      18.05800000
 O      25.48300000      38.57600000      26.22300000
 H      26.02400000      39.29200000      25.80200000
 H      26.26000000      37.90100000      26.26600000
 O      28.70700000      36.16500000      35.84200000
 H      28.49100000      35.36100000      35.29400000
 H      29.56800000      35.82400000      36.17700000
 O      27.57500000      36.91100000      25.92200000
 H      28.45800000      37.37900000      25.83200000
 H      27.56000000      36.50200000      25.05700000
 O      30.88400000      40.12700000      36.43100000
 H      31.86200000      40.18600000      36.44500000
 H      30.70400000      40.10200000      35.49200000
 O      22.98100000      35.81400000      30.23300000
 H      22.77100000      36.51200000      29.64100000
 H      22.06700000      35.63500000      30.61000000
 O      28.04200000      34.75400000       7.98900000
 H      27.71000000      34.15500000       7.19200000
 H      28.86800000      35.04300000       7.50800000
 O      29.89800000      40.09400000       7.91400000
 H      29.22300000      39.73800000       8.56000000
 H      29.56400000      39.75500000       7.05700000
 O      40.45400000      36.70000000      15.08800000
 H      40.29000000      36.06100000      14.38700000
 H      39.57400000      36.74300000      15.51000000
 O      39.35100000      38.67700000      30.59900000
 H      38.51200000      39.15800000      30.42400000
 H      39.22700000      37.83500000      30.07500000
 O      35.93700000      36.35200000      14.92200000
 H      35.62500000      37.22600000      14.56700000
 H      35.66400000      35.73800000      14.15500000
 O      31.15900000      39.56900000      33.60300000
 H      31.60000000      40.25800000      33.04100000
 H      30.18600000      39.72400000      33.44400000
 O      35.77400000      38.73300000      22.32200000
 H      35.33300000      37.85000000      22.24600000
 H      36.58000000      38.41000000      22.77800000
 O      32.62100000      39.36500000      21.55200000
 H      32.46200000      39.68400000      22.48200000
 H      32.90400000      38.50600000      21.62500000
 O      37.70300000      34.75700000      23.49600000
 H      38.48800000      34.36600000      23.95600000
 H      38.02200000      35.64900000      23.36100000
 O      28.20500000      38.55500000      32.77900000
 H      28.87600000      38.56800000      32.02700000
 H      27.52200000      39.17800000      32.47900000
 O      24.03800000      38.79700000       6.67600000
 H      24.67000000      39.06900000       7.35200000
 H      23.30300000      39.43300000       6.77900000
 O      34.81900000      40.46700000      12.30700000
 H      34.95900000      39.90200000      11.53600000
 H      35.73900000      40.73600000      12.48000000
 O      36.59100000      36.07600000      30.09700000
 H      35.87300000      35.67300000      29.63600000
 H      36.68700000      36.90400000      29.50400000
 O      21.70600000      38.36400000      33.66800000
 H      22.01200000      38.15500000      32.73200000
 H      20.75200000      38.01400000      33.55500000
 O      26.26900000      37.03900000       9.23900000
 H      27.07600000      36.63500000       9.46500000
 H      25.72300000      36.25900000       9.01100000
 O      26.44900000      37.34600000      30.12500000
 H      26.43100000      36.70700000      29.39800000
 H      27.41800000      37.50200000      30.19600000
 O      38.03200000      36.16900000      40.36200000
 H      37.60800000      35.52400000      39.72100000
 H      38.72400000      36.47800000      39.68400000
 O      38.04300000      34.97100000      12.79700000
 H      37.65800000      34.87400000      11.91600000
 H      38.50200000      35.82900000      12.69800000
 O      36.47800000      39.69700000      17.80300000
 H      36.02800000      39.99700000      18.60000000
 H      35.78400000      40.02400000      17.18400000
 O      39.19200000      35.73300000      29.81800000
 H      38.26000000      35.70000000      30.11600000
 H      39.43500000      34.82000000      30.16700000
 O      35.37900000      36.04300000      26.39600000
 H      36.28100000      36.15300000      26.72100000
 H      35.31600000      36.41800000      25.50400000
 O      32.74400000      35.08500000      24.10600000
 H      32.26300000      34.96900000      23.23100000
 H      33.62100000      34.64300000      23.89300000
 O      40.03000000      40.66100000      35.24000000
 H      40.36300000      39.76500000      35.01300000
 H      39.76000000      41.00500000      34.37100000
 O      24.88800000      38.92200000      21.35800000
 H      24.98900000      39.67100000      21.98200000
 H      24.58600000      38.20600000      22.03800000
 O      32.73100000      35.65300000      29.15600000
 H      32.66600000      35.60600000      30.12000000
 H      32.79000000      34.73900000      28.88100000
 O      40.13600000      37.66000000      11.57000000
 H      40.20600000      37.17500000      10.71500000
 H      40.98200000      37.35700000      11.93500000
 O      34.33800000      40.10200000      24.18800000
 H      34.86700000      39.55100000      23.59800000
 H      33.71700000      39.44400000      24.59100000
 O      29.43500000      38.01600000      16.94500000
 H      28.84300000      37.76700000      17.65000000
 H      30.03300000      37.24000000      17.01200000
 O      23.17100000      35.70200000      21.02900000
 H      23.49500000      35.75500000      20.13200000
 H      22.93000000      34.78200000      21.22000000
 O      40.33300000      37.36600000      20.68300000
 H      41.03700000      37.77200000      20.08600000
 H      39.54400000      37.57800000      20.12700000
 O      24.37000000      37.76400000      31.61900000
 H      23.78000000      37.17100000      31.06100000
 H      25.19600000      37.66900000      31.00000000
 O      29.34600000      39.40900000      22.95600000
 H      28.80700000      39.90800000      22.35900000
 H      29.97400000      40.13300000      23.27200000
 O      34.22800000      36.28300000      22.01000000
 H      34.63200000      35.55800000      22.59200000
 H      33.30000000      35.91600000      21.96800000
 O      21.26800000      38.22800000      20.14800000
 H      21.45000000      38.41500000      21.07700000
 H      20.97100000      37.34600000      20.13700000
 O      38.56400000      34.98700000      27.12600000
 H      38.99000000      35.20000000      27.95700000
 H      38.71000000      34.00300000      27.10400000
 O      22.24500000      38.02500000       9.94400000
 H      21.88400000      37.96000000      10.85600000
 H      23.18600000      38.34600000      10.15700000
 O      29.79200000      38.64500000      30.31100000
 H      30.73300000      38.85000000      30.55600000
 H      29.88400000      38.17800000      29.44700000
 O      34.24800000      37.31700000      37.20200000
 H      34.07900000      37.50500000      36.23100000
 H      33.37800000      37.41200000      37.53500000
 O      23.47600000      37.26500000      23.18200000
 H      23.34300000      36.70000000      22.37400000
 H      23.98700000      36.69800000      23.74900000
 O      33.62900000      39.33700000      18.01500000
 H      33.15500000      40.18200000      17.73700000
 H      33.54800000      39.39800000      18.95800000
 O      40.53300000      34.35300000      24.24900000
 H      40.93200000      34.87500000      23.51200000
 H      41.10100000      34.72400000      25.01700000
 O      29.35400000      38.49500000      37.96600000
 H      29.82900000      39.17400000      37.40200000
 H      28.43400000      38.62200000      37.65200000
 O      28.69700000      35.20400000      30.08200000
 H      29.35700000      35.75500000      29.54500000
 H      27.91500000      35.40000000      29.43800000
 O      32.03200000      38.21900000       9.33600000
 H      32.65600000      38.75600000       8.78000000
 H      31.21500000      38.75000000       9.18800000
 O      26.03800000      34.23200000      33.89700000
 H      25.87600000      34.38200000      32.94200000
 H      25.99100000      35.17700000      34.15600000
 O      34.84300000      38.71100000      14.49300000
 H      34.66400000      39.16100000      13.70600000
 H      35.13700000      39.38900000      15.12000000
 O      21.61000000      47.67400000      24.66000000
 H      21.86000000      48.55600000      24.27600000
 H      20.73000000      47.88800000      25.03000000
 O      30.69200000      46.66200000      27.61600000
 H      31.63400000      46.49800000      27.43000000
 H      30.60200000      47.57400000      27.22900000
 O      21.78600000      45.81300000      14.53600000
 H      22.44600000      45.12000000      14.50200000
 H      21.25900000      45.65600000      13.76200000
 O      25.23600000      44.72000000      27.46300000
 H      25.33500000      44.44400000      28.42400000
 H      25.64400000      43.90600000      27.03500000
 O      36.27500000      42.76900000      35.45700000
 H      36.45700000      43.58000000      34.88500000
 H      36.64100000      42.09300000      34.81500000
 O      31.90200000      43.99300000      17.08400000
 H      32.16200000      44.22100000      16.14900000
 H      31.22500000      43.34000000      16.89400000
 O      29.49200000      43.17000000      27.25700000
 H      29.95400000      43.56600000      26.48800000
 H      30.30500000      42.75000000      27.72600000
 O      25.48400000      48.95500000      24.29300000
 H      25.55200000      48.51100000      23.43100000
 H      25.36400000      48.16100000      24.82100000
 O      22.28900000      44.07400000      36.90500000
 H      22.12500000      43.49400000      36.16800000
 H      21.76600000      44.87800000      36.61800000
 O      32.22700000      46.90400000      14.69300000
 H      32.91300000      46.82000000      13.95900000
 H      31.53600000      47.35900000      14.05700000
 O      32.41400000      45.07000000      21.13800000
 H      33.26700000      44.75800000      21.54300000
 H      31.75600000      44.41800000      21.49200000
 O      23.17000000      44.94700000       9.43500000
 H      22.53300000      44.75100000      10.15400000
 H      23.15300000      44.01600000       9.02400000
 O      25.21500000      46.11700000      10.49000000
 H      26.01100000      46.07600000       9.94200000
 H      24.57100000      45.57500000       9.92800000
 O      34.06300000      47.49500000      31.64700000
 H      34.27600000      47.61900000      30.69500000
 H      33.39900000      48.20100000      31.73500000
 O      26.10100000      44.47100000      40.59300000
 H      25.28500000      44.91800000      40.81700000
 H      26.20100000      44.71600000      39.59100000
 O      22.17300000      42.94100000       7.44100000
 H      21.86200000      43.81500000       7.10300000
 H      21.39000000      42.37300000       7.43800000
 O      28.94900000      45.81200000      40.42400000
 H      28.44300000      45.10000000      40.89300000
 H      29.82700000      45.66500000      40.78000000
 O      33.62000000      44.64100000      32.67900000
 H      33.52000000      45.37400000      32.09300000
 H      32.82000000      44.75400000      33.25800000
 O      39.01600000      45.00500000      35.38200000
 H      39.31500000      44.14100000      35.55200000
 H      38.15600000      44.83500000      34.90400000
 O      25.38900000      46.69400000      25.83500000
 H      26.37100000      46.79500000      25.83500000
 H      25.26700000      45.99800000      26.56300000
 O      24.66300000      46.53000000      17.82300000
 H      23.80100000      46.91500000      17.48400000
 H      24.39600000      45.56600000      17.65000000
 O      28.20400000      47.21500000      26.08300000
 H      28.91000000      47.62800000      25.54800000
 H      28.79400000      46.76400000      26.76000000
 O      30.92700000      43.44000000      23.43600000
 H      31.36100000      43.75300000      24.26900000
 H      30.13600000      44.09000000      23.50100000
 O      33.97100000      47.17200000      35.48300000
 H      33.44000000      47.30700000      36.31700000
 H      33.37900000      46.68800000      34.94400000
 O      21.47500000      48.33700000      11.78400000
 H      21.13900000      47.47600000      12.11600000
 H      20.66200000      48.88700000      11.76600000
 O      35.34500000      46.64900000      16.96200000
 H      35.62800000      46.90000000      17.86300000
 H      34.36100000      46.54100000      17.07700000
 O      20.97400000      46.50500000      18.80500000
 H      21.57500000      47.13200000      18.33700000
 H      21.58400000      45.71800000      18.88300000
 O      30.42400000      43.23600000      31.61200000
 H      29.77100000      43.77800000      32.16300000
 H      29.82500000      43.14400000      30.81700000
 O      26.89200000      42.83300000      26.33200000
 H      27.82400000      42.94200000      26.61000000
 H      26.96600000      43.42600000      25.52700000
 O      25.04400000      43.83300000      34.96000000
 H      25.08200000      44.77200000      34.70100000
 H      24.20600000      43.56700000      34.58200000
 O      37.10000000      45.73600000      39.50600000
 H      37.10800000      44.80800000      39.18500000
 H      37.05300000      46.22100000      38.65100000
 O      40.17500000      42.99000000      37.84400000
 H      39.96700000      42.83700000      36.89600000
 H      40.85300000      43.64200000      37.72900000
 O      29.77200000      43.90900000      10.12000000
 H      29.72300000      43.17600000       9.48600000
 H      30.50800000      43.45500000      10.67700000
 O      24.63000000      45.86600000      32.07900000
 H      24.45500000      45.32900000      31.35000000
 H      25.65300000      45.87400000      31.95800000
 O      26.56600000      45.07500000      19.56500000
 H      26.67300000      44.27700000      18.95300000
 H      26.01700000      45.65200000      19.02500000
 O      33.68000000      43.11800000      35.76200000
 H      34.58100000      42.76500000      35.65000000
 H      33.58000000      43.26200000      36.71000000
 O      32.72300000      45.99300000      18.56900000
 H      32.36100000      45.20400000      18.09000000
 H      32.67100000      45.66600000      19.48300000
 O      32.12100000      48.36100000      37.66300000
 H      31.23200000      48.33400000      37.38500000
 H      32.21100000      47.58200000      38.19400000
 O      31.91600000      44.19400000      14.35800000
 H      32.14600000      44.00500000      13.39700000
 H      31.91400000      45.18200000      14.32100000
 O      26.85500000      48.66800000      36.25300000
 H      27.19300000      48.20400000      37.02700000
 H      25.91200000      48.35700000      36.34000000
 O      26.79600000      44.97600000      22.46100000
 H      26.80000000      44.93400000      21.48300000
 H      26.31800000      45.82200000      22.60700000
 O      27.89700000      47.34100000      19.94400000
 H      28.10500000      47.62600000      19.07100000
 H      27.45600000      46.46300000      19.73400000
 O      35.92300000      45.62700000      20.06600000
 H      35.53200000      46.48700000      20.15000000
 H      35.40500000      45.04900000      20.54400000
 O      35.97400000      47.34700000      14.34400000
 H      35.70400000      47.11800000      15.26700000
 H      35.20500000      46.90400000      13.94000000
 O      33.97800000      45.93900000      12.62500000
 H      34.60300000      46.22200000      11.95300000
 H      33.61400000      45.14400000      12.26100000
 O      29.22000000      45.32100000      23.99900000
 H      29.46500000      46.29400000      24.08500000
 H      28.43100000      45.32000000      23.47900000
 O      32.18300000      47.73000000      22.68100000
 H      32.32500000      48.16300000      21.82700000
 H      32.68500000      46.87600000      22.52700000
 O      24.98900000      48.67200000      31.99200000
 H      24.05600000      48.83900000      32.08200000
 H      25.05600000      47.69300000      32.10500000
 O      23.29900000      48.55000000      14.38100000
 H      24.05900000      48.00600000      14.25900000
 H      22.59500000      48.11500000      13.95000000
 O      37.20700000      45.00100000       8.19400000
 H      36.46800000      44.95400000       7.57900000
 H      37.56800000      44.08300000       8.02200000
 O      29.92600000      47.97700000      24.14700000
 H      30.83200000      47.88900000      23.68800000
 H      29.53100000      48.55000000      23.49800000
 O      27.43900000      46.58200000      38.12200000
 H      26.81800000      45.88000000      37.98800000
 H      27.95200000      46.32600000      38.88800000
 O      31.82400000      46.56200000      10.15000000
 H      32.28700000      46.18000000       9.39700000
 H      31.00600000      46.03000000      10.22500000
 O      20.96300000      47.37800000      32.46000000
 H      20.08200000      46.89400000      32.64400000
 H      20.69200000      47.64100000      31.54100000
 O      27.23500000      45.44500000       6.02900000
 H      27.33900000      45.72900000       6.98500000
 H      27.03900000      44.50100000       6.19000000
 O      36.24500000      46.66000000      37.06900000
 H      35.45000000      46.94800000      36.51400000
 H      36.02100000      45.70900000      37.08200000
 O      25.93300000      43.65400000      29.94300000
 H      26.90400000      43.71600000      29.68600000
 H      25.97800000      42.81900000      30.45700000
 O      35.01000000      43.75600000      26.24900000
 H      34.41200000      43.17300000      25.77000000
 H      35.71100000      43.85500000      25.51300000
 O      21.74100000      43.39000000      11.10700000
 H      21.32100000      42.63200000      10.61700000
 H      22.02800000      42.87000000      11.89300000
 O      33.27800000      45.97700000      27.04300000
 H      34.14300000      45.59200000      26.91100000
 H      33.63800000      46.93700000      27.07100000
 O      27.74700000      46.36800000      32.13200000
 H      28.37600000      46.32900000      31.39300000
 H      27.90600000      45.45800000      32.57000000
 O      25.84200000      47.57500000      21.83700000
 H      26.49300000      47.68800000      21.18300000
 H      25.17600000      48.23800000      21.52100000
 O      35.17000000      47.70000000      10.87000000
 H      35.81200000      48.37600000      10.54700000
 H      34.37700000      48.29300000      10.92500000
 O      28.41600000      43.44600000      38.03600000
 H      28.31700000      43.08000000      37.07000000
 H      27.70300000      42.88500000      38.43500000
 O      33.18100000      46.37400000      39.12900000
 H      33.33400000      45.40700000      38.90900000
 H      34.07100000      46.69600000      38.76200000
 O      22.49900000      47.74000000       9.28500000
 H      22.71700000      46.78400000       9.38700000
 H      22.22600000      47.94500000      10.17500000
 O      33.55300000      43.61300000       9.18900000
 H      34.24700000      43.90600000       8.59500000
 H      33.11200000      43.01200000       8.50000000
 O      28.95700000      47.46400000      17.35900000
 H      29.19000000      46.55400000      17.21000000
 H      28.07500000      47.57600000      16.95900000
 O      36.09200000      47.33900000      33.31000000
 H      35.17100000      47.48200000      32.96900000
 H      36.19600000      48.08100000      33.90400000
 O      24.17700000      43.62500000      22.38600000
 H      25.07500000      43.98200000      22.23300000
 H      23.66500000      44.40800000      22.69700000
 O      24.48700000      44.82100000      14.30900000
 H      25.03700000      45.61700000      14.22300000
 H      25.07600000      44.07500000      14.02400000
 O      27.52500000      45.46800000       9.25200000
 H      27.83900000      46.40500000       9.19500000
 H      28.31300000      45.13300000       9.75900000
 O      36.51900000      44.85400000      34.16200000
 H      36.55200000      45.84400000      34.06100000
 H      35.77900000      44.70100000      33.47900000
 O      27.37800000      42.60300000      35.37300000
 H      26.53300000      42.99800000      35.42400000
 H      27.23300000      41.68400000      35.42200000
 O      40.68800000      42.90400000      20.73200000
 H      39.69100000      42.82600000      20.69800000
 H      40.80200000      42.67900000      19.71400000
 O      40.09100000      45.22200000      18.71400000
 H      40.98900000      45.52700000      19.14300000
 H      40.51000000      44.38500000      18.30200000
 O      23.43100000      46.37400000      34.81200000
 H      22.46700000      46.29500000      34.64600000
 H      23.76600000      46.25300000      33.89100000
 O      30.95500000      43.22600000      39.48400000
 H      30.13100000      42.83300000      39.20700000
 H      30.69100000      44.10800000      39.83300000
 O      27.40000000      43.86700000      14.13500000
 H      27.18100000      43.05900000      14.66100000
 H      27.31900000      43.53000000      13.22400000
 O      28.06500000      42.67700000      21.12700000
 H      27.61700000      43.41900000      21.52300000
 H      27.56100000      42.51400000      20.31800000
 O      40.20600000      46.24600000      38.93600000
 H      40.33000000      46.52900000      37.99700000
 H      39.59300000      46.92700000      39.22000000
 O      24.35400000      47.73600000      36.80200000
 H      23.97600000      47.32300000      36.04300000
 H      23.55500000      48.34300000      37.06400000
 O      24.04600000      44.08900000      16.91100000
 H      24.34900000      43.18300000      16.80700000
 H      24.33500000      44.46300000      16.06600000
 O      38.05400000      42.63600000      20.89400000
 H      37.91000000      42.14500000      21.68100000
 H      37.14500000      42.72500000      20.51400000
 O      27.63100000      47.93500000      13.98100000
 H      26.83000000      47.80400000      13.44000000
 H      27.26900000      47.69500000      14.88500000
 O      38.96000000      47.42000000      36.59700000
 H      38.08700000      47.17200000      36.81500000
 H      39.30400000      46.61000000      36.14300000
 O      39.64700000      43.24000000      32.71600000
 H      40.36800000      42.78400000      32.13600000
 H      39.10200000      43.58700000      31.99400000
 O      25.13400000      47.24300000      12.98700000
 H      25.12100000      48.10100000      12.51000000
 H      24.98800000      46.62400000      12.19200000
 O      40.78800000      45.95300000      29.05600000
 H      40.51300000      46.82600000      29.50800000
 H      41.65800000      46.20400000      28.75800000
 O      28.66700000      44.15200000      33.63000000
 H      29.13500000      44.37000000      34.47000000
 H      28.03600000      43.47900000      33.98000000
 O      34.92900000      42.51800000      40.66200000
 H      34.31900000      41.82200000      40.82300000
 H      35.77400000      42.15300000      40.99300000
 O      20.94700000      42.75100000      34.77500000
 H      21.23800000      43.42300000      34.07400000
 H      21.27100000      41.93900000      34.35400000
 O      38.59900000      42.82200000       7.53500000
 H      38.51300000      41.84600000       7.19900000
 H      39.37200000      42.69200000       8.15800000
 O      38.62700000      47.94900000      18.67500000
 H      39.22900000      47.97100000      17.87400000
 H      39.11900000      47.30200000      19.21800000
 O      32.55300000      43.87100000      29.85200000
 H      32.04100000      43.54500000      30.60800000
 H      32.44300000      44.83200000      29.91900000
 O      26.62800000      47.89900000      16.50700000
 H      26.57600000      48.88100000      16.37900000
 H      25.72000000      47.67900000      16.87300000
 O      20.58000000      45.67200000      11.91300000
 H      21.08600000      44.85500000      11.77400000
 H      20.25500000      45.83200000      10.95200000
 O      39.84600000      48.49100000      30.02600000
 H      39.55600000      49.05300000      29.30900000
 H      39.01400000      47.95000000      30.20900000
 O      32.53000000      43.37400000      11.63200000
 H      32.88200000      43.56500000      10.75000000
 H      33.12200000      42.66400000      11.93500000
 O      38.05900000      46.58100000      23.96100000
 H      37.60000000      47.42500000      23.79100000
 H      38.59300000      46.51500000      23.15000000
 O      34.46900000      48.44900000      23.77800000
 H      34.00000000      48.85700000      24.55600000
 H      33.66400000      48.29700000      23.18600000
 O      38.23900000      44.33900000      30.91300000
 H      37.93400000      45.30200000      30.87800000
 H      38.42600000      44.28100000      29.94300000
 O      22.93200000      44.50000000      29.98500000
 H      23.32300000      43.77900000      29.45900000
 H      22.15100000      44.73500000      29.40600000
 O      20.90800000      44.95300000      27.78100000
 H      21.33400000      45.68500000      27.40400000
 H      20.15300000      45.43300000      28.23500000
 O      25.20100000      45.03500000      38.17900000
 H      24.87100000      45.84000000      37.78500000
 H      24.88500000      44.38400000      37.56500000
 O      28.29800000      44.80200000      16.52700000
 H      29.17000000      44.29500000      16.50000000
 H      27.88000000      44.42500000      15.72200000
 O      35.17200000      43.11300000      15.89500000
 H      34.37100000      43.48300000      15.49500000
 H      35.84800000      43.57900000      15.40800000
 O      31.68400000      45.05200000      34.88400000
 H      32.16300000      44.32100000      35.25000000
 H      30.85700000      45.05900000      35.56600000
 O      22.25500000      47.23800000      16.64200000
 H      21.93500000      46.58700000      15.91600000
 H      22.33600000      48.02800000      16.04800000
 O      23.47600000      45.77400000      23.80500000
 H      24.30200000      45.97200000      24.30400000
 H      22.85500000      46.20300000      24.40600000
 O      31.31300000      48.00500000      12.52900000
 H      31.58500000      47.75200000      11.60600000
 H      30.44400000      47.48400000      12.55500000
 O      28.84600000      48.32200000      33.65400000
 H      28.15400000      47.88700000      33.18300000
 H      28.73200000      49.26800000      33.62200000
 O      23.47000000      48.44500000      26.85100000
 H      24.12400000      47.86200000      26.43500000
 H      24.04900000      49.16700000      27.10000000
 O      31.70500000      43.81200000      25.83600000
 H      32.14100000      44.57600000      26.31700000
 H      32.01700000      43.07900000      26.35700000
 O      22.91900000      46.52200000      21.14000000
 H      22.44200000      47.32500000      20.91200000
 H      23.08100000      46.62000000      22.07100000
 O      37.91200000      44.97800000      16.93700000
 H      37.22400000      45.53800000      17.40000000
 H      38.75600000      45.35000000      17.29100000
 O      29.74600000      46.19700000      30.26100000
 H      30.16100000      46.48100000      29.41100000
 H      30.29600000      46.62300000      30.91200000
 O      39.17500000      44.14100000      28.18200000
 H      39.83700000      44.75800000      28.59100000
 H      38.82800000      44.72000000      27.48100000
 O      29.42000000      48.70000000      40.84100000
 H      29.31500000      47.73900000      40.99000000
 H      29.97200000      48.93900000      41.62600000
 O      38.52500000      46.14200000      26.59000000
 H      38.37600000      47.06000000      26.90000000
 H      38.22600000      46.24000000      25.64000000
 O      36.44900000      43.43000000      37.97600000
 H      36.36200000      42.62400000      38.46500000
 H      36.32700000      43.19100000      37.03600000
 O      22.75800000      43.68600000      39.74600000
 H      22.40800000      44.04500000      38.87600000
 H      22.61200000      44.50500000      40.28500000
 O      29.54900000      45.19100000      36.50500000
 H      29.20300000      44.58300000      37.15300000
 H      28.92400000      45.90800000      36.57000000
 O      40.15500000      47.95100000      16.38600000
 H      40.57000000      47.08100000      16.07900000
 H      40.93600000      48.52100000      16.19200000
 O      33.30300000      43.64800000      38.46800000
 H      33.83100000      43.29300000      39.25200000
 H      32.39100000      43.41900000      38.84100000
 O      21.51000000      43.64000000      17.75600000
 H      22.45700000      43.77200000      17.38900000
 H      21.77400000      43.69300000      18.69100000
 O      38.47000000      45.88500000      21.07000000
 H      37.71600000      45.88500000      20.46200000
 H      38.84900000      44.98700000      20.93700000
 O      37.46800000      42.69900000      12.57900000
 H      37.46500000      43.40300000      13.28800000
 H      38.32300000      42.29000000      12.74200000
 O      34.83600000      42.55900000      29.18000000
 H      34.84600000      43.04500000      28.33800000
 H      33.95800000      42.83700000      29.48800000
 O      22.24600000      44.08600000      20.46800000
 H      22.20800000      45.06900000      20.59500000
 H      22.92400000      43.85800000      21.16200000
 O      34.45700000      47.49200000       7.16600000
 H      34.28300000      47.49900000       8.08700000
 H      35.10000000      48.20400000       7.06500000
 O      30.55800000      44.32100000       6.86200000
 H      30.63700000      43.41100000       7.14700000
 H      29.62100000      44.41500000       6.67900000
 O      36.88200000      44.62600000      14.28900000
 H      36.62800000      45.58900000      14.21800000
 H      37.48800000      44.76500000      15.07900000
 O      21.95200000      44.42700000      32.85200000
 H      21.77900000      45.39800000      32.75700000
 H      22.42300000      44.28400000      32.02100000
 O      34.74200000      43.89200000      22.40700000
 H      35.62000000      44.04000000      22.84400000
 H      34.37900000      43.18700000      22.98500000
 O      29.34200000      46.11800000      12.98400000
 H      29.15400000      45.24100000      13.38400000
 H      28.59600000      46.63700000      13.36600000
 O      31.00200000      46.87600000      32.90700000
 H      30.25600000      47.34300000      33.30800000
 H      31.14200000      46.10900000      33.58200000
 O      40.62100000      44.25400000      12.41900000
 H      39.96900000      44.70400000      11.86700000
 H      40.14900000      43.39600000      12.57800000
 O      37.63700000      47.11100000      30.70400000
 H      37.19400000      47.12700000      31.60600000
 H      36.85600000      47.41000000      30.16500000
 O      36.77900000      44.30900000      24.40800000
 H      37.59100000      43.92100000      24.70500000
 H      37.15200000      45.18800000      24.09500000
 O      23.88900000      48.61100000       6.45100000
 H      24.77000000      48.83800000       6.78200000
 H      23.39600000      48.33700000       7.30300000
 O      39.32100000      43.37300000      40.52900000
 H      39.54600000      44.31900000      40.40900000
 H      39.53300000      43.01500000      39.61100000
 O      38.91400000      48.79600000      13.52400000
 H      39.24800000      48.11700000      14.19600000
 H      37.94900000      48.76100000      13.70900000
 O      28.56600000      43.82000000      29.64600000
 H      28.92300000      44.71400000      29.74700000
 H      29.10000000      43.53400000      28.82600000
 O      39.14200000      46.60000000      10.23400000
 H      38.71600000      47.45700000       9.98900000
 H      38.41600000      46.02500000       9.91300000
 O      39.18400000      43.22700000      25.13100000
 H      39.66200000      42.95500000      24.30600000
 H      39.91900000      43.44900000      25.69200000
 O      32.09000000      48.41800000      17.59500000
 H      32.35200000      47.55300000      17.92200000
 H      31.66500000      48.14700000      16.73500000
 O      28.37100000      47.87200000       8.00100000
 H      28.98100000      48.67200000       8.05900000
 H      28.79200000      47.45800000       7.17000000
