328
XYZ file of cluster: frame_10000_6c5e2.6629a.4b5e9 - created by MolEdiTo
 O      23.85100000      29.15100000      21.26800000
 H      24.26900000      28.32600000      20.94000000
 H      24.62600000      29.61200000      21.61200000
 O      22.22200000      28.26600000      18.33100000
 H      21.56000000      27.55200000      18.32600000
 H      23.05700000      27.74300000      18.28200000
 O      30.61700000      24.19000000      19.80900000
 H      29.93300000      24.78200000      19.50100000
 H      30.14300000      23.53000000      20.33300000
 O      24.55200000      27.14700000      17.22500000
 H      25.42900000      27.10000000      16.78300000
 H      23.97200000      26.64000000      16.57200000
 O      26.86200000      23.09100000      26.08000000
 H      25.96100000      23.44000000      26.09100000
 H      27.23300000      23.46300000      26.91900000
 O      31.99700000      26.48100000      25.45900000
 H      32.48700000      26.51700000      24.64300000
 H      31.11100000      26.76100000      25.17900000
 O      25.88800000      27.42700000      19.75500000
 H      25.45900000      27.10700000      20.54200000
 H      25.37900000      27.00400000      19.07400000
 O      27.02900000      21.38600000      19.32900000
 H      27.66200000      21.70900000      18.64700000
 H      27.55000000      21.50400000      20.14800000
 O      25.94700000      29.06900000      25.64300000
 H      24.98300000      28.89900000      25.53600000
 H      26.01000000      29.99100000      25.77300000
 O      29.67300000      33.42400000      22.05700000
 H      29.23100000      33.45200000      22.93900000
 H      29.58300000      32.43700000      21.87300000
 O      31.34500000      31.34600000      23.93600000
 H      31.53600000      30.67400000      23.22600000
 H      32.18300000      31.36300000      24.41500000
 O      32.83600000      32.11400000      14.44700000
 H      33.78000000      32.39300000      14.62000000
 H      32.33900000      32.89900000      14.40700000
 O      26.10900000      24.31800000      16.61700000
 H      26.95500000      24.60100000      17.01500000
 H      25.98900000      24.82100000      15.83300000
 O      23.32900000      25.96200000      23.71400000
 H      23.23700000      26.05900000      22.78500000
 H      22.74100000      25.24800000      23.96000000
 O      34.73800000      26.53800000      17.86700000
 H      33.95000000      27.19300000      17.85300000
 H      34.40600000      25.88300000      18.45800000
 O      28.78500000      23.01400000      21.66400000
 H      28.86600000      23.35100000      22.61500000
 H      28.68700000      22.08100000      21.80000000
 O      21.46100000      34.47100000      16.30200000
 H      22.15900000      33.86400000      15.94300000
 H      22.03900000      35.22200000      16.66400000
 O      24.88700000      32.16100000      22.91200000
 H      25.29500000      31.32000000      22.62100000
 H      25.37100000      32.25000000      23.78200000
 O      26.01500000      23.65200000      21.99100000
 H      25.54000000      23.61200000      21.11200000
 H      26.90900000      23.64300000      21.70100000
 O      28.53000000      33.73800000      24.86900000
 H      28.78900000      32.93400000      25.40200000
 H      29.16200000      34.37400000      25.24600000
 O      25.46800000      21.28600000      23.55500000
 H      25.43800000      22.07700000      22.94700000
 H      25.74100000      21.70600000      24.37800000
 O      22.85800000      34.44400000      13.04400000
 H      22.26100000      33.70600000      12.89400000
 H      23.02300000      34.42200000      13.97900000
 O      27.21000000      34.10900000      15.12500000
 H      27.03500000      33.29500000      14.63900000
 H      26.54700000      34.75200000      14.76200000
 O      26.08600000      34.99500000      21.27200000
 H      25.68400000      34.75400000      20.42700000
 H      26.23300000      34.12800000      21.65700000
 O      26.09000000      25.55500000      23.87500000
 H      25.14600000      25.66500000      24.17000000
 H      25.96900000      24.80200000      23.23700000
 O      32.39400000      29.25600000      26.84300000
 H      32.81200000      30.04600000      26.40900000
 H      32.52600000      28.59900000      26.10600000
 O      31.27500000      23.16600000      15.64700000
 H      31.30000000      24.02700000      16.15400000
 H      30.55700000      23.45400000      14.95700000
 O      25.92700000      32.51200000      25.25500000
 H      26.31800000      32.16200000      26.12000000
 H      26.70300000      33.06900000      25.01300000
 O      20.81900000      21.67700000      25.54200000
 H      21.69000000      21.49100000      25.93600000
 H      20.40900000      20.78000000      25.64000000
 O      33.64300000      31.04000000      25.32800000
 H      34.42300000      30.43900000      25.56500000
 H      34.11300000      31.88900000      25.56200000
 O      21.45500000      28.81800000      22.06200000
 H      21.06300000      29.41200000      21.34100000
 H      22.39000000      28.93600000      21.85800000
 C      21.50600000      19.35200000      22.00900000
 C      21.52000000      20.38200000      20.85700000
 C      20.11900000      21.91700000      19.46600000
 H      19.41900000      20.22600000      20.32900000
 H      21.27000000      17.44300000      21.94100000
 O      19.50000000      21.61500000      21.84400000
 O      22.70800000      18.54900000      22.01000000
 O      20.63800000      18.30900000      21.80100000
 C      20.12900000      21.02500000      20.65200000
 O      22.63700000      21.35300000      21.03400000
 H      21.72900000      19.77900000      19.87100000
 O      18.83800000      22.24400000      18.93700000
 O      20.63900000      23.19900000      19.76300000
 H      21.56000000      22.86600000      19.76800000
 H      23.47400000      20.87900000      20.73000000
 H      18.51000000      21.54800000      21.79300000
 O      30.92600000      34.93800000      26.02200000
 H      31.58700000      35.08800000      25.38100000
 H      30.99900000      34.00000000      26.27100000
 O      22.97900000      33.88200000      23.38600000
 H      22.80100000      33.66600000      24.28800000
 H      23.62900000      33.18800000      23.10200000
 O      31.11700000      30.23200000      17.51300000
 H      30.52400000      30.29000000      16.76800000
 H      31.85700000      30.80500000      17.25400000
 O      29.45300000      32.44700000      15.58800000
 H      28.80600000      33.21900000      15.52200000
 H      30.24800000      33.02800000      15.31700000
 O      29.09400000      22.24900000      17.68500000
 H      29.59900000      22.50300000      18.51700000
 H      29.48100000      21.43000000      17.42100000
 O      34.17000000      33.88600000      20.17000000
 H      33.47100000      33.55500000      19.55500000
 H      33.82900000      34.82100000      20.21000000
 O      30.51300000      20.58200000      15.49400000
 H      31.31900000      20.02500000      15.57900000
 H      30.91900000      21.47600000      15.40800000
 O      26.54700000      29.93300000      22.09000000
 H      27.47800000      30.26600000      21.83200000
 H      26.77900000      29.05400000      22.53400000
 O      27.68700000      27.44300000      26.64000000
 H      27.06600000      28.08600000      26.22900000
 H      27.08000000      26.80300000      27.01300000
 O      22.13400000      23.39300000      23.94800000
 H      21.64500000      22.75200000      24.46200000
 H      22.10400000      23.02500000      23.06900000
 O      26.70300000      29.77500000      18.34000000
 H      26.27700000      29.20700000      18.98700000
 H      26.71100000      29.15000000      17.55500000
 O      29.46300000      22.01400000      26.38500000
 H      28.53000000      22.20200000      26.11900000
 H      29.52300000      22.54500000      27.23600000
 O      25.03700000      34.71400000      18.91800000
 H      25.08000000      33.84300000      18.51300000
 H      25.76700000      35.16300000      18.38000000
 O      33.32600000      24.51000000      18.97800000
 H      33.96900000      23.81600000      19.31000000
 H      32.57000000      24.24100000      19.58900000
 O      20.72900000      32.35200000      23.00800000
 H      20.87200000      31.65700000      23.66300000
 H      21.45500000      33.00300000      23.33500000
 O      33.55300000      21.18600000      25.86200000
 H      33.69300000      21.57100000      24.96800000
 H      32.61300000      21.46700000      26.02300000
 O      27.63400000      27.66500000      16.87300000
 H      28.24300000      27.03800000      16.43200000
 H      27.88300000      28.50100000      16.40000000
 O      30.43300000      27.34400000      21.52400000
 H      30.02600000      26.68800000      20.92100000
 H      30.22000000      27.02200000      22.38800000
 O      25.16300000      35.30700000      24.49100000
 H      24.74400000      34.63900000      23.88600000
 H      25.97100000      35.47000000      23.99500000
 O      31.58700000      35.22300000      21.60600000
 H      31.01100000      36.08700000      21.46600000
 H      30.81600000      34.60900000      21.72000000
 O      26.62600000      31.36000000      27.67600000
 H      27.20200000      31.89700000      28.25500000
 H      26.50200000      30.52200000      28.27500000
 O      28.37500000      31.88700000      18.89400000
 H      27.58500000      31.34400000      18.91500000
 H      28.71900000      31.53800000      18.01800000
 O      34.09600000      33.57900000      27.25000000
 H      34.98600000      33.59800000      27.61800000
 H      34.10100000      34.41500000      26.71700000
 O      31.56400000      29.77500000      21.64000000
 H      31.08500000      28.94500000      21.58500000
 H      32.40900000      29.48000000      21.20800000
 O      32.76500000      29.50900000      14.84300000
 H      32.71400000      30.48100000      14.74200000
 H      33.72300000      29.37800000      14.51600000
 O      33.44900000      25.25400000      27.55000000
 H      32.67500000      24.80000000      27.97600000
 H      32.94600000      25.47300000      26.72200000
 O      29.05200000      34.41400000      19.42000000
 H      29.24500000      34.16700000      20.35700000
 H      28.71900000      33.52700000      19.14600000
 O      33.18600000      22.27300000      22.68600000
 H      32.46800000      22.55400000      23.26700000
 H      33.82900000      22.93900000      22.71700000
 O      34.52900000      34.73100000      16.55700000
 H      35.30300000      35.35700000      16.46600000
 H      34.15800000      35.13300000      17.35400000
 O      23.99600000      20.67100000      15.61600000
 H      23.01300000      20.57600000      15.59000000
 H      24.13500000      21.58200000      15.47500000
 O      35.09300000      24.44300000      22.55300000
 H      35.76700000      24.64800000      23.23000000
 H      34.62300000      25.30200000      22.52900000
 O      20.68500000      23.18400000      15.95200000
 H      20.99900000      22.32400000      15.69900000
 H      19.78500000      23.16000000      15.46900000
 O      26.54600000      25.89100000      14.37200000
 H      27.41200000      26.25900000      14.43300000
 H      26.05300000      26.69500000      13.96900000
 O      28.74100000      24.13600000      24.14000000
 H      28.86000000      25.11200000      24.05800000
 H      27.90000000      24.13200000      24.64000000
 O      31.16700000      34.39900000      15.34800000
 H      31.02800000      34.88100000      16.24000000
 H      31.86700000      35.03900000      15.01300000
 O      23.36300000      28.72700000      25.86900000
 H      23.60800000      28.85100000      26.85600000
 H      22.89300000      27.82900000      25.95800000
 O      28.72000000      26.15000000      19.56700000
 H      28.68700000      26.08500000      18.56800000
 H      28.02300000      26.84200000      19.71200000
 O      29.09300000      30.83000000      21.19100000
 H      29.96100000      30.39400000      21.28600000
 H      29.17300000      31.09700000      20.22800000
 O      25.05500000      32.03500000      17.72600000
 H      24.47100000      31.59700000      18.39600000
 H      25.74000000      31.34400000      17.54500000
 O      31.81400000      32.47100000      27.53700000
 H      32.76500000      32.69100000      27.35200000
 H      31.82100000      32.13200000      28.42500000
 O      21.75300000      28.30400000      14.97600000
 H      21.77400000      29.26300000      15.12500000
 H      20.82000000      28.17800000      14.71700000
 O      32.31400000      26.92000000      14.65100000
 H      33.25700000      26.73500000      14.58200000
 H      32.31200000      27.78600000      15.15500000
 O      31.58200000      25.52200000      16.95000000
 H      32.08300000      25.07300000      17.59200000
 H      31.77800000      26.48100000      17.05400000
 O      22.67400000      26.02000000      27.25500000
 H      22.92000000      25.78500000      28.14000000
 H      21.67000000      25.98000000      27.30000000
 O      20.65500000      30.68500000      17.56300000
 H      20.98500000      30.13600000      18.26300000
 H      21.37800000      31.21600000      17.30700000
 O      32.66400000      33.27300000      18.09000000
 H      32.96100000      32.35700000      17.86400000
 H      32.39000000      33.55500000      17.17800000
 O      21.66900000      30.63900000      24.94400000
 H      21.72400000      31.19700000      25.73600000
 H      22.36700000      30.04400000      25.01800000
 O      31.19000000      22.83100000      24.49700000
 H      30.74700000      22.46200000      25.32400000
 H      30.52600000      23.55700000      24.25900000
 O      22.18500000      33.33700000      25.92600000
 H      21.46100000      34.00000000      25.94600000
 H      22.08900000      32.91000000      26.82200000
 O      29.71600000      31.80100000      26.24000000
 H      30.52500000      32.01800000      26.76900000
 H      30.20200000      31.47100000      25.40500000
 O      33.43900000      26.80400000      23.10000000
 H      33.06900000      27.20200000      22.29500000
 H      34.27200000      27.32800000      23.10800000
 O      34.08800000      30.96800000      17.29700000
 H      34.58600000      30.67200000      16.54400000
 H      34.42800000      30.40700000      18.01900000
 O      22.57400000      25.78600000      15.57600000
 H      22.44100000      26.74900000      15.45900000
 H      21.90400000      25.47800000      14.90700000
 O      23.37500000      30.38400000      18.93200000
 H      22.85900000      29.55500000      18.67700000
 H      23.46500000      30.26400000      19.87300000
 O      24.19700000      23.87900000      25.77700000
 H      23.77600000      23.89400000      24.89500000
 H      23.79400000      24.64700000      26.19600000
 O      23.01400000      26.16000000      20.93200000
 H      22.20000000      26.47100000      20.60700000
 H      23.18300000      25.25500000      20.59800000
 O      33.30800000      21.51100000      17.16800000
 H      32.87200000      20.93500000      17.88500000
 H      32.62000000      22.10400000      16.90600000
 O      30.06700000      29.55200000      28.21500000
 H      29.78500000      30.45500000      27.99900000
 H      30.92700000      29.51500000      27.73700000
 O      32.74400000      35.08500000      24.10600000
 H      32.26300000      34.96900000      23.23100000
 H      33.62100000      34.64300000      23.89300000
 O      24.45900000      23.84500000      19.56600000
 H      23.81600000      24.03300000      18.82700000
 H      25.23400000      23.61800000      19.02400000
 O      29.54500000      26.83200000      24.49100000
 H      28.87300000      27.23300000      23.86100000
 H      29.02800000      26.89400000      25.34600000
 O      32.02100000      27.96200000      18.31500000
 H      31.62600000      28.03200000      19.22500000
 H      31.78900000      28.85100000      17.95600000
 O      24.08000000      23.33100000      14.81400000
 H      23.63100000      24.14700000      14.98800000
 H      24.95600000      23.49100000      15.25200000
 O      23.66900000      33.05300000      15.58200000
 H      24.47200000      33.19700000      16.05600000
 H      23.91000000      32.42100000      14.91100000
 O      22.54200000      23.97700000      17.66600000
 H      22.79300000      24.71000000      17.09800000
 H      21.83200000      23.53600000      17.19000000
 O      28.90500000      24.83100000      17.12800000
 H      29.90200000      24.91300000      17.22600000
 H      28.83300000      23.85500000      17.22200000
 O      28.14700000      29.98100000      15.53300000
 H      27.71200000      29.65000000      14.72400000
 H      28.22800000      30.92300000      15.48100000
 O      24.71600000      33.68700000      27.50200000
 H      23.76200000      33.95200000      27.38100000
 H      24.88000000      33.34400000      26.54500000
 O      29.18400000      26.65500000      14.48500000
 H      29.81400000      25.93500000      14.70300000
 H      29.73600000      27.38100000      14.25100000
 O      23.36600000      21.71500000      26.82700000
 H      24.20000000      21.44800000      27.24800000
 H      23.65300000      22.58700000      26.33500000
 O      33.87100000      28.52700000      20.99700000
 H      34.20100000      28.55400000      20.08200000
 H      34.75600000      28.57700000      21.49800000
 O      27.16000000      27.96800000      23.58500000
 H      26.57500000      28.48100000      24.21900000
 H      26.81200000      27.07900000      23.74500000
 O      33.98900000      23.36900000      14.73100000
 H      34.22200000      24.33700000      14.84200000
 H      33.06600000      23.31500000      14.95300000
