1302
XYZ file of cluster: frame_10000_9a57f.2376c.4c98d - created by MolEdiTo
 O      40.51300000      14.43200000      14.84800000
 H      40.17100000      15.36700000      14.86200000
 H      39.71900000      13.95200000      14.52500000
 O      39.40000000      26.87500000      38.04700000
 H      38.82800000      26.46000000      37.35900000
 H      38.62100000      27.19700000      38.60600000
 O      34.34300000      18.57000000      26.25800000
 H      33.58900000      18.84600000      26.82400000
 H      34.68500000      19.46200000      26.13800000
 O      33.43400000      38.17500000      27.81100000
 H      33.32300000      37.37700000      28.30900000
 H      34.36600000      38.32500000      27.89100000
 O      29.66600000      26.52400000      35.07500000
 H      28.98200000      26.20600000      35.67300000
 H      29.16900000      26.91700000      34.31300000
 O      32.90500000      37.67200000      24.96500000
 H      32.99700000      37.52600000      25.88500000
 H      32.98700000      36.75100000      24.60200000
 O      34.52300000      24.00500000      34.45800000
 H      34.34000000      23.25700000      33.89300000
 H      33.62200000      24.28800000      34.69700000
 O      31.66600000      14.83900000      20.33200000
 H      31.99700000      14.00200000      20.08400000
 H      32.13500000      14.99900000      21.16300000
 O      36.37100000      12.19200000      19.57300000
 H      35.53100000      12.58900000      19.54600000
 H      36.32100000      11.49200000      18.88300000
 O      32.31000000      12.60200000      36.33400000
 H      32.75200000      11.75300000      36.65500000
 H      31.86100000      12.18300000      35.54900000
 O      29.67300000      33.42400000      22.05700000
 H      29.23100000      33.45200000      22.93900000
 H      29.58300000      32.43700000      21.87300000
 O      39.90800000      37.40600000      38.27400000
 H      40.19800000      37.38000000      37.27000000
 H      40.36800000      38.24600000      38.46800000
 O      40.73900000      37.23500000      32.91000000
 H      40.05600000      36.83200000      33.50200000
 H      40.17600000      37.79800000      32.33200000
 O      34.73800000      26.53800000      17.86700000
 H      33.95000000      27.19300000      17.85300000
 H      34.40600000      25.88300000      18.45800000
 O      28.78500000      23.01400000      21.66400000
 H      28.86600000      23.35100000      22.61500000
 H      28.68700000      22.08100000      21.80000000
 O      34.97500000      26.01200000      15.08500000
 H      35.15000000      26.19400000      15.99500000
 H      35.72700000      26.45400000      14.62700000
 O      33.78900000      17.94200000      21.30100000
 H      32.95500000      18.22500000      20.90700000
 H      33.63800000      16.98100000      21.33500000
 O      33.37100000      34.84800000      35.31700000
 H      33.63200000      34.35200000      34.49700000
 H      34.16300000      34.67100000      35.85400000
 O      33.98600000      39.74400000      32.51400000
 H      33.94900000      39.22300000      33.35000000
 H      34.08800000      40.66700000      32.87900000
 O      37.37400000      39.39500000      33.58800000
 H      38.23200000      39.44800000      33.11500000
 H      36.88300000      38.85100000      33.03600000
 O      27.94800000      13.00400000      40.07300000
 H      28.27800000      12.40500000      39.37000000
 H      28.69700000      13.64300000      40.10600000
 O      36.36400000      32.90100000      28.63800000
 H      37.35200000      32.94800000      28.58100000
 H      36.24800000      32.38800000      29.41600000
 O      30.49100000      22.85900000      38.89800000
 H      31.19500000      23.20600000      39.42800000
 H      30.03100000      23.70700000      38.66500000
 O      33.30700000      19.57500000      29.77700000
 H      32.82600000      18.97500000      29.18200000
 H      33.50500000      18.87500000      30.48300000
 O      39.25800000      16.54200000      38.06500000
 H      38.33000000      16.75500000      38.30200000
 H      39.17700000      15.61200000      37.83300000
 O      31.99500000      18.80400000      37.21300000
 H      32.59600000      18.23600000      36.69000000
 H      32.59500000      19.00500000      37.96900000
 O      35.14700000      24.59200000      37.79200000
 H      34.70500000      23.86600000      37.30000000
 H      35.11700000      25.33300000      37.13400000
 O      36.87800000      40.16900000      30.85200000
 H      37.23200000      41.04700000      31.06000000
 H      36.01900000      40.45600000      30.41600000
 O      40.36800000      21.87300000      32.97000000
 H      41.15100000      22.29000000      32.53100000
 H      40.03100000      21.32700000      32.25900000
 O      32.49300000      38.93000000      30.58400000
 H      33.20700000      38.97700000      29.92300000
 H      33.05800000      39.10400000      31.35800000
 O      40.39600000      24.38900000      27.32900000
 H      39.62100000      24.83800000      26.86900000
 H      40.96400000      24.27900000      26.58300000
 O      39.25300000      10.87900000      31.49600000
 H      39.70700000      11.69300000      31.47500000
 H      39.92900000      10.29800000      31.91800000
 O      31.32300000      11.88300000      19.85900000
 H      30.46200000      11.65400000      20.19600000
 H      31.92700000      11.63100000      20.57200000
 O      29.70400000      17.84900000      39.86600000
 H      29.42100000      18.53500000      40.39900000
 H      30.22300000      18.26700000      39.17000000
 O      30.92600000      34.93800000      26.02200000
 H      31.58700000      35.08800000      25.38100000
 H      30.99900000      34.00000000      26.27100000
 O      36.60000000      33.23400000      19.26800000
 H      35.62500000      33.40400000      19.44100000
 H      36.95800000      33.97300000      19.79000000
 O      34.26800000      27.36900000      39.60900000
 H      33.51900000      27.97300000      39.37100000
 H      33.85700000      26.89200000      40.38000000
 O      28.23400000      10.06500000      25.58000000
 H      28.92800000      10.27400000      26.26600000
 H      28.14500000       9.13100000      25.74400000
 O      36.11800000      10.20600000      21.60700000
 H      36.32500000      10.85100000      22.31800000
 H      35.88100000      10.77200000      20.88100000
 O      39.80100000      29.04500000      23.05900000
 H      40.47300000      28.37200000      22.94400000
 H      40.24000000      29.72700000      23.66600000
 O      33.12000000       9.04800000      32.38800000
 H      33.52000000       8.86400000      33.24100000
 H      33.96700000       9.30100000      31.93000000
 O      36.78100000      20.82000000      34.71000000
 H      36.97400000      21.81500000      34.79200000
 H      35.94400000      20.89500000      35.30600000
 O      40.57800000      24.60000000      30.01400000
 H      41.09900000      23.81000000      30.18100000
 H      40.39700000      24.41600000      29.05700000
 O      39.90900000      24.84900000      20.60400000
 H      39.77300000      24.47000000      19.68000000
 H      40.89400000      24.83400000      20.57600000
 O      38.97700000      30.05600000      30.91000000
 H      39.53200000      30.75900000      31.29300000
 H      39.64000000      29.67600000      30.28100000
 O      33.78900000      17.80800000      31.97200000
 H      34.19400000      17.26500000      32.68400000
 H      32.90900000      17.86800000      32.36400000
 O      29.68300000      10.36700000      30.25000000
 H      28.75200000      10.21800000      30.18400000
 H      29.95300000       9.65300000      30.84100000
 O      30.56800000      32.40500000      37.04600000
 H      29.61700000      32.20800000      36.69700000
 H      30.39700000      32.25300000      37.97900000
 O      30.43300000      27.34400000      21.52400000
 H      30.02600000      26.68800000      20.92100000
 H      30.22000000      27.02200000      22.38800000
 O      31.58700000      35.22300000      21.60600000
 H      31.01100000      36.08700000      21.46600000
 H      30.81600000      34.60900000      21.72000000
 O      31.54300000      20.41100000      40.49900000
 H      31.80500000      20.83000000      41.32900000
 H      30.93600000      21.02800000      40.10700000
 O      31.56400000      29.77500000      21.64000000
 H      31.08500000      28.94500000      21.58500000
 H      32.40900000      29.48000000      21.20800000
 O      34.82700000      24.74200000      40.54400000
 H      35.17900000      23.87500000      40.74900000
 H      34.82800000      24.71100000      39.59600000
 O      35.65100000      32.29400000      22.01000000
 H      34.93000000      32.78500000      21.51300000
 H      36.03800000      31.81100000      21.23900000
 O      34.14700000      19.72100000      39.12700000
 H      33.38100000      20.11500000      39.70500000
 H      34.64300000      19.33600000      39.87900000
 O      39.43600000      13.90700000      24.66000000
 H      40.29700000      14.15700000      24.96100000
 H      38.89900000      13.92400000      25.50500000
 O      29.05200000      34.41400000      19.42000000
 H      29.24500000      34.16700000      20.35700000
 H      28.71900000      33.52700000      19.14600000
 O      33.18600000      22.27300000      22.68600000
 H      32.46800000      22.55400000      23.26700000
 H      33.82900000      22.93900000      22.71700000
 O      34.53900000      13.24400000      29.92200000
 H      35.05100000      12.97800000      30.71700000
 H      34.69200000      12.56800000      29.27100000
 O      39.07800000      31.14000000      21.75500000
 H      39.13500000      30.33800000      22.36800000
 H      39.79200000      31.67900000      22.08000000
 O      35.74100000      27.82600000      22.53600000
 H      36.35500000      27.24000000      22.00100000
 H      36.39800000      28.02800000      23.27400000
 O      38.01900000      32.78000000      14.55900000
 H      38.15000000      33.46300000      13.88100000
 H      38.24100000      33.30400000      15.36700000
 O      39.20400000      27.93900000      14.60300000
 H      38.76900000      28.80200000      14.42000000
 H      40.14100000      28.29600000      14.69100000
 O      36.92100000       7.89400000      35.42100000
 H      37.81200000       7.75100000      35.75600000
 H      37.12600000       8.59700000      34.76100000
 O      36.03300000      13.49400000      37.14100000
 H      35.81400000      14.36700000      37.47800000
 H      35.50100000      12.88900000      37.71300000
 O      34.87000000      11.52400000      38.69400000
 H      35.69200000      10.91900000      38.78900000
 H      34.43600000      11.04000000      37.92800000
 O      36.37000000      12.92800000      40.71600000
 H      36.18300000      12.37200000      41.53000000
 H      35.76200000      12.46400000      40.10700000
 O      33.41700000       8.00100000      20.46700000
 H      34.36500000       7.84900000      20.21100000
 H      33.01200000       7.62000000      19.62700000
 O      33.49800000      31.21100000      32.33500000
 H      33.12600000      31.20400000      33.26700000
 H      33.39400000      30.28200000      32.08100000
 O      34.74400000      21.21500000      36.59600000
 H      34.06300000      21.95000000      36.64600000
 H      34.54200000      20.71400000      37.38200000
 O      32.64900000      23.15200000      36.76500000
 H      31.82300000      22.99600000      37.19600000
 H      32.37200000      23.63900000      35.96800000
 O      35.77400000      38.73300000      22.32200000
 H      35.33300000      37.85000000      22.24600000
 H      36.58000000      38.41000000      22.77800000
 O      34.46900000       6.76500000      23.77800000
 H      34.00000000       7.17300000      24.55600000
 H      33.66400000       6.61300000      23.18600000
 O      32.62100000      39.36500000      21.55200000
 H      32.46200000      39.68400000      22.48200000
 H      32.90400000      38.50600000      21.62500000
 O      27.31600000      32.83300000      30.54900000
 H      26.43000000      33.26700000      30.69600000
 H      27.83900000      33.62900000      30.30900000
 O      38.43100000       7.90700000      27.40400000
 H      38.69000000       8.44400000      26.64300000
 H      37.45300000       8.09500000      27.39500000
 O      28.89900000      19.39700000      25.68100000
 H      28.06600000      19.25800000      26.18000000
 H      29.31800000      20.11300000      26.17600000
 O      30.29700000      19.17900000      33.11800000
 H      29.31900000      19.20800000      33.31400000
 H      30.40500000      18.39700000      32.58500000
 O      39.97200000      12.77200000      20.64700000
 H      39.91700000      13.47900000      19.95000000
 H      39.95200000      11.96600000      20.03700000
 O      37.32800000       9.72400000      33.49000000
 H      36.60100000      10.25700000      33.86300000
 H      37.53500000      10.26200000      32.70700000
 O      40.40800000      30.00500000      26.48800000
 H      39.52200000      30.16000000      26.81100000
 H      40.42900000      30.55000000      25.68600000
 O      35.37900000      36.04300000      26.39600000
 H      36.28100000      36.15300000      26.72100000
 H      35.31600000      36.41800000      25.50400000
 O      35.27600000      32.97800000      14.70500000
 H      35.24500000      33.57000000      15.55300000
 H      36.24600000      32.84700000      14.64600000
 O      29.54500000      26.83200000      24.49100000
 H      28.87300000      27.23300000      23.86100000
 H      29.02800000      26.89400000      25.34600000
 O      35.28500000      20.36400000      21.61100000
 H      34.80200000      19.53500000      21.39900000
 H      34.67800000      20.83200000      22.20400000
 O      32.02100000      27.96200000      18.31500000
 H      31.62600000      28.03200000      19.22500000
 H      31.78900000      28.85100000      17.95600000
 O      40.33300000      37.36600000      20.68300000
 H      41.03700000      37.77200000      20.08600000
 H      39.54400000      37.57800000      20.12700000
 O      32.34700000       9.30400000      28.94000000
 H      31.71200000       9.78000000      29.45500000
 H      33.14100000       9.38000000      29.52400000
 O      34.14600000      11.69500000      25.35200000
 H      34.52700000      12.58600000      25.39200000
 H      34.88300000      11.20400000      25.81700000
 O      28.01000000      27.73600000      32.39900000
 H      27.65900000      27.94500000      33.35300000
 H      28.31800000      28.62100000      32.18200000
 O      28.90500000      24.83100000      17.12800000
 H      29.90200000      24.91300000      17.22600000
 H      28.83300000      23.85500000      17.22200000
 O      35.62300000      29.21600000      26.49700000
 H      36.34200000      28.92400000      25.89700000
 H      35.85400000      28.55300000      27.21500000
 O      28.08500000      31.74700000      36.19300000
 H      27.14600000      31.82600000      36.48000000
 H      28.28600000      30.84900000      36.54300000
 O      38.91400000       7.11200000      13.52400000
 H      39.24800000       6.43300000      14.19600000
 H      37.94900000       7.07700000      13.70900000
 O      40.53300000      34.35300000      24.24900000
 H      40.93200000      34.87500000      23.51200000
 H      41.10100000      34.72400000      25.01700000
 O      33.87100000      28.52700000      20.99700000
 H      34.20100000      28.55400000      20.08200000
 H      34.75600000      28.57700000      21.49800000
 O      28.69700000      35.20400000      30.08200000
 H      29.35700000      35.75500000      29.54500000
 H      27.91500000      35.40000000      29.43800000
 O      39.41600000      28.14400000      18.89800000
 H      38.78600000      28.89500000      19.11700000
 H      40.18300000      28.39800000      19.43500000
 O      36.48200000      10.18500000      17.80700000
 H      37.27500000       9.90900000      17.31200000
 H      35.80100000      10.16900000      17.08200000
 O      35.28300000      11.40900000      35.03000000
 H      35.41800000      12.13100000      35.64800000
 H      34.87700000      11.87400000      34.27300000
 O      34.84300000      38.71100000      14.49300000
 H      34.66400000      39.16100000      13.70600000
 H      35.13700000      39.38900000      15.12000000
 O      31.10700000      36.69500000      34.08200000
 H      31.03700000      37.68800000      33.83800000
 H      30.24400000      36.53100000      34.46200000
 O      37.91900000      18.82400000      35.97600000
 H      37.44400000      19.59800000      35.56600000
 H      37.43900000      18.11300000      35.51300000
 O      30.61700000      24.19000000      19.80900000
 H      29.93300000      24.78200000      19.50100000
 H      30.14300000      23.53000000      20.33300000
 O      38.82200000      18.83600000      27.72100000
 H      38.09900000      18.95300000      28.38100000
 H      38.89400000      19.76100000      27.37800000
 O      38.07700000      22.16100000      17.21000000
 H      38.44300000      21.92500000      16.36200000
 H      37.17200000      22.43700000      16.90900000
 O      37.77200000      12.63700000      22.56000000
 H      38.21400000      13.01600000      21.80100000
 H      38.28400000      12.94400000      23.31700000
 O      31.99700000      26.48100000      25.45900000
 H      32.48700000      26.51700000      24.64300000
 H      31.11100000      26.76100000      25.17900000
 O      38.60700000      27.97100000      32.71800000
 H      38.47100000      28.73500000      32.14600000
 H      38.92300000      27.29700000      32.08000000
 O      37.97000000      35.21900000      20.70200000
 H      37.65000000      34.96300000      21.60600000
 H      38.58300000      35.94400000      20.94600000
 O      33.74300000      30.27200000      38.73000000
 H      34.39400000      30.20000000      39.43500000
 H      33.25500000      31.08500000      39.07700000
 O      30.10200000      36.53400000      28.28000000
 H      31.06200000      36.56600000      28.46900000
 H      30.18700000      35.94300000      27.49400000
 O      40.54600000      16.77900000      24.13700000
 H      40.75000000      16.33600000      23.26700000
 H      39.53500000      16.85400000      23.98500000
 O      31.07100000      11.65200000      14.00600000
 H      31.88800000      12.24600000      13.90100000
 H      31.22200000      11.31400000      14.90800000
 O      38.89700000      36.37000000      34.64800000
 H      38.16400000      36.21600000      33.92900000
 H      38.30100000      36.66800000      35.35000000
 O      30.75700000      17.13500000      25.88900000
 H      30.14900000      17.92800000      25.90800000
 H      30.24200000      16.69700000      25.11100000
 O      32.02800000      35.47000000      40.34100000
 H      32.00900000      36.10700000      39.62100000
 H      31.02200000      35.30100000      40.46800000
 O      29.49300000      18.44400000      19.47900000
 H      28.86200000      17.75900000      19.66800000
 H      29.47900000      18.41300000      18.53600000
 O      32.83600000      32.11400000      14.44700000
 H      33.78000000      32.39300000      14.62000000
 H      32.33900000      32.89900000      14.40700000
 O      30.00400000      10.48100000      27.56000000
 H      30.03600000      10.33000000      28.57100000
 H      29.48700000      11.34800000      27.58200000
 O      39.55600000      30.83900000      35.88100000
 H      38.79500000      30.18200000      35.94100000
 H      39.93900000      30.48800000      35.02900000
 O      32.32200000      23.58700000      40.76700000
 H      32.94400000      22.94100000      41.10000000
 H      32.92400000      24.35100000      40.52800000
 O      36.36000000      20.93400000      32.13100000
 H      36.83800000      20.78200000      33.00400000
 H      35.41900000      21.05200000      32.48000000
 O      35.18700000      34.27100000      23.68100000
 H      35.32400000      33.42100000      23.19500000
 H      36.16200000      34.53400000      23.65000000
 O      28.53000000      33.73800000      24.86900000
 H      28.78900000      32.93400000      25.40200000
 H      29.16200000      34.37400000      25.24600000
 O      38.24500000      15.96300000      23.03100000
 H      38.18800000      15.48600000      22.14700000
 H      38.60500000      15.27000000      23.59200000
 O      37.00000000       7.93800000      22.73600000
 H      36.24600000       7.29700000      22.89300000
 H      36.52700000       8.67500000      22.29100000
 O      27.65900000      16.12400000      19.45300000
 H      28.34000000      15.57400000      19.90800000
 H      26.97600000      16.15900000      20.15400000
 O      40.46300000      29.13300000      34.13600000
 H      39.77800000      28.52800000      33.77300000
 H      41.14100000      29.02500000      33.41500000
 O      30.52900000      39.66900000      19.79100000
 H      31.29100000      39.51400000      20.41300000
 H      29.92500000      40.17200000      20.33800000
 O      28.65800000      21.00100000      29.98500000
 H      28.91900000      20.30000000      29.29000000
 H      28.27100000      20.42300000      30.67600000
 O      37.72300000      14.68900000      35.55600000
 H      38.47300000      14.32400000      36.12500000
 H      36.98300000      14.25400000      36.07500000
 O      35.38100000      40.44300000      20.30500000
 H      35.49300000      39.60700000      20.78000000
 H      34.84600000      40.96200000      20.99200000
 O      34.72100000      30.16200000      36.09300000
 H      33.83000000      30.55000000      35.87200000
 H      34.55500000      29.98200000      37.03400000
 O      35.35000000      13.92100000      22.90900000
 H      36.13800000      13.45300000      22.64000000
 H      35.40200000      13.88200000      23.88400000
 O      37.41800000      28.04000000      16.56900000
 H      37.92600000      28.01700000      17.43700000
 H      38.16500000      27.84500000      15.92200000
 O      31.62000000      39.66100000      14.65600000
 H      31.88500000      40.59600000      14.59900000
 H      30.82300000      39.73800000      15.18300000
 O      31.64100000      37.22900000      38.39200000
 H      30.76000000      37.69600000      38.21400000
 H      31.48000000      36.40300000      37.79800000
 O      35.41400000       7.09600000      29.27100000
 H      35.95200000       7.88900000      29.35900000
 H      34.68900000       7.44200000      28.68700000
 O      39.05100000      12.71200000      40.33300000
 H      39.13300000      12.15000000      41.12100000
 H      38.07600000      12.97900000      40.42200000
 O      40.34800000      28.78700000      40.02100000
 H      39.95900000      28.25500000      39.29000000
 H      41.19100000      29.16300000      39.63200000
 O      35.60900000      23.38000000      17.22500000
 H      35.19200000      23.06100000      18.07500000
 H      34.97900000      23.12500000      16.55300000
 O      31.11700000      30.23200000      17.51300000
 H      30.52400000      30.29000000      16.76800000
 H      31.85700000      30.80500000      17.25400000
 O      28.90200000      24.32700000      28.09500000
 H      28.21900000      24.11600000      28.77100000
 H      28.93500000      25.29100000      28.16000000
 O      39.73700000      40.23300000      13.67600000
 H      39.39800000      40.33800000      14.58200000
 H      40.64700000      39.83400000      13.92000000
 O      38.36600000      16.57800000      26.38300000
 H      38.66800000      17.40400000      26.81700000
 H      37.40700000      16.71000000      26.49200000
 O      39.37500000      20.67900000      19.22000000
 H      38.65400000      20.36700000      19.85100000
 H      38.80200000      21.26100000      18.70900000
 O      39.42900000      20.19100000      37.80600000
 H      38.97400000      19.55100000      37.25400000
 H      39.99200000      20.63500000      37.14400000
 O      33.32600000      24.51000000      18.97800000
 H      33.96900000      23.81600000      19.31000000
 H      32.57000000      24.24100000      19.58900000
 O      36.79800000      11.41400000      14.27200000
 H      36.44900000      10.50700000      14.29000000
 H      37.71000000      11.28300000      13.89600000
 O      33.58800000      12.19500000      21.81400000
 H      34.30600000      12.72600000      22.20200000
 H      33.41300000      11.64800000      22.59300000
 O      27.63400000      27.66500000      16.87300000
 H      28.24300000      27.03800000      16.43200000
 H      27.88300000      28.50100000      16.40000000
 O      28.46800000      36.74400000      39.78500000
 H      28.88000000      37.43700000      39.16700000
 H      27.63600000      37.24600000      40.03100000
 O      35.68000000      33.80700000      36.26700000
 H      35.32100000      32.95700000      36.20700000
 H      36.64400000      33.68000000      36.12400000
 O      29.82400000      37.97300000      25.02800000
 H      29.80600000      38.33500000      24.12300000
 H      30.74700000      37.69000000      25.13700000
 O      36.33900000      38.32000000      28.57500000
 H      36.65600000      38.73600000      27.69300000
 H      36.57000000      39.03300000      29.19400000
 O      35.86700000       8.91000000      14.33200000
 H      35.21700000       9.03300000      15.06700000
 H      36.01100000       7.95000000      14.41500000
 O      29.91700000       8.67000000      18.43700000
 H      29.49800000       7.96200000      17.92200000
 H      30.82200000       8.32000000      18.56900000
 O      38.39200000      34.12900000      17.09200000
 H      38.97000000      33.33900000      16.97300000
 H      37.82400000      33.78000000      17.85700000
 O      34.52900000      34.73100000      16.55700000
 H      35.30300000      35.35700000      16.46600000
 H      34.15800000      35.13300000      17.35400000
 O      36.15400000      11.92000000      32.05600000
 H      36.88900000      12.51700000      32.29500000
 H      35.41900000      12.33000000      32.55800000
 O      40.12900000      10.45500000      18.75500000
 H      39.39700000      10.30200000      18.08500000
 H      39.76900000       9.92700000      19.50800000
 O      32.97000000      28.51700000      31.88000000
 H      32.21700000      28.77700000      31.32600000
 H      33.66700000      28.35600000      31.17100000
 O      35.09300000      24.44300000      22.55300000
 H      35.76700000      24.64800000      23.23000000
 H      34.62300000      25.30200000      22.52900000
 O      31.87800000      40.16700000      27.70000000
 H      31.69400000      40.07600000      28.64700000
 H      32.31800000      39.30400000      27.48200000
 O      40.03200000      32.04500000      17.30100000
 H      39.98400000      31.28600000      17.90500000
 H      40.90500000      31.97800000      16.86100000
 O      38.30800000      37.76300000      19.02000000
 H      37.96400000      38.62100000      18.89000000
 H      38.39400000      37.52500000      18.04200000
 O      28.01500000      13.40500000      21.31400000
 H      28.80100000      13.90600000      21.37400000
 H      28.32300000      12.53200000      21.01200000
 O      31.22100000       9.97500000      16.23800000
 H      30.98800000       9.94400000      17.21400000
 H      30.40300000       9.74700000      15.82400000
 O      40.76500000      21.95300000      36.06000000
 H      40.85200000      21.83300000      35.07600000
 H      40.51000000      22.86900000      36.09900000
 O      28.14800000      21.79100000      40.03600000
 H      27.48600000      21.26000000      39.39000000
 H      28.58400000      22.32100000      39.36600000
 O      27.57500000      36.91100000      25.92200000
 H      28.45800000      37.37900000      25.83200000
 H      27.56000000      36.50200000      25.05700000
 O      28.40800000      20.30100000      21.28300000
 H      27.49200000      19.87200000      21.39300000
 H      28.78600000      19.66400000      20.70500000
 O      37.92500000      30.64900000      19.29600000
 H      38.38100000      30.90700000      20.09800000
 H      37.38700000      31.45800000      19.18500000
 O      27.04900000      22.96200000      29.44300000
 H      27.84000000      22.42000000      29.62100000
 H      26.36300000      22.30600000      29.26500000
 O      40.45400000      36.70000000      15.08800000
 H      40.29000000      36.06100000      14.38700000
 H      39.57400000      36.74300000      15.51000000
 O      38.07200000      26.89800000      27.91700000
 H      38.26600000      26.38900000      27.05700000
 H      37.15300000      26.60000000      28.01300000
 O      31.15900000      39.56900000      33.60300000
 H      31.60000000      40.25800000      33.04100000
 H      30.18600000      39.72400000      33.44400000
 O      37.70300000      34.75700000      23.49600000
 H      38.48800000      34.36600000      23.95600000
 H      38.02200000      35.64900000      23.36100000
 O      31.91700000       9.36500000      22.24500000
 H      31.21200000       9.06200000      21.68200000
 H      32.70400000       9.08100000      21.70600000
 O      35.81200000      23.75700000      27.78400000
 H      35.69300000      22.99900000      28.41800000
 H      34.89200000      24.17700000      27.88800000
 O      38.63300000      13.86100000      17.82900000
 H      38.27900000      14.55600000      17.23400000
 H      38.42700000      13.05600000      17.35400000
 O      38.33500000      25.19100000      25.52400000
 H      37.67200000      24.45800000      25.60700000
 H      38.68100000      24.88400000      24.63300000
 O      38.65600000      22.35300000      29.28800000
 H      38.37200000      23.08900000      28.76400000
 H      38.52600000      21.62800000      28.62400000
 O      37.78100000      23.20600000      31.69500000
 H      37.20900000      22.43000000      31.76900000
 H      38.28900000      23.00800000      30.92900000
 O      29.71600000      31.80100000      26.24000000
 H      30.52500000      32.01800000      26.76900000
 H      30.20200000      31.47100000      25.40500000
 O      27.87500000      18.94700000      36.80200000
 H      28.53200000      19.51600000      37.25300000
 H      27.60200000      19.60000000      36.09100000
 O      34.96500000      33.73900000      32.85400000
 H      34.06000000      34.02500000      32.64300000
 H      34.93200000      32.81100000      32.63200000
 O      39.24500000      24.14500000      18.21500000
 H      38.95600000      23.22600000      17.91000000
 H      38.40600000      24.59100000      17.99300000
 O      36.47800000      39.69700000      17.80300000
 H      36.02800000      39.99700000      18.60000000
 H      35.78400000      40.02400000      17.18400000
 O      39.19200000      35.73300000      29.81800000
 H      38.26000000      35.70000000      30.11600000
 H      39.43500000      34.82000000      30.16700000
 O      38.00400000       9.06600000      25.11800000
 H      38.84100000       9.54000000      24.89500000
 H      37.64300000       8.90900000      24.21900000
 O      40.19900000      15.64000000      33.44300000
 H      40.11200000      16.11500000      34.37000000
 H      41.07200000      15.21700000      33.73500000
 O      30.67900000       8.44300000      31.66800000
 H      31.54900000       8.60900000      32.06900000
 H      30.46100000       7.69600000      32.27800000
 O      38.74900000       9.33100000      16.55800000
 H      39.05700000       9.44800000      15.63300000
 H      39.29300000       8.60700000      16.83800000
 O      37.61400000      17.35100000      19.54100000
 H      36.76800000      17.46600000      19.06000000
 H      37.48400000      16.49200000      19.95700000
 O      31.90100000      20.17000000      21.71400000
 H      32.31300000      20.83600000      22.28300000
 H      31.41900000      19.62000000      22.39800000
 O      34.33800000      40.10200000      24.18800000
 H      34.86700000      39.55100000      23.59800000
 H      33.71700000      39.44400000      24.59100000
 O      29.38500000      13.72600000      32.75300000
 H      28.47500000      14.02100000      32.78200000
 H      29.50600000      13.58700000      31.76800000
 O      40.59200000      15.28400000      19.38800000
 H      40.03100000      15.08200000      18.62200000
 H      40.79300000      16.24000000      19.37600000
 O      32.08100000      24.73500000      34.76700000
 H      31.23100000      24.69900000      34.29100000
 H      32.12300000      25.76900000      34.90300000
 O      32.47200000      17.46800000      28.25100000
 H      31.83300000      17.26900000      27.54900000
 H      32.87700000      16.58600000      28.41500000
 O      27.84800000      30.52900000      32.26300000
 H      27.72000000      31.26400000      31.66000000
 H      27.41900000      30.84800000      33.10200000
 O      39.47300000      27.07300000      30.20600000
 H      38.87200000      26.94100000      29.35400000
 H      40.14400000      26.40900000      29.88600000
 O      38.56400000      34.98700000      27.12600000
 H      38.99000000      35.20000000      27.95700000
 H      38.71000000      34.00300000      27.10400000
 O      29.79200000      38.64500000      30.31100000
 H      30.73300000      38.85000000      30.55600000
 H      29.88400000      38.17800000      29.44700000
 O      37.20700000      23.36800000      34.31300000
 H      37.53600000      23.58300000      33.43300000
 H      36.32100000      23.77300000      34.30900000
 O      38.57200000      21.32300000      26.88100000
 H      39.29300000      21.38100000      26.28600000
 H      37.90900000      21.93100000      26.57200000
 O      37.51800000      27.71700000      24.68400000
 H      37.85100000      26.79800000      24.96500000
 H      38.29200000      28.11300000      24.31300000
 O      30.01500000      15.18800000      39.90300000
 H      29.82600000      16.14500000      39.94700000
 H      30.32500000      15.13700000      38.95100000
 O      39.79900000      24.56500000      35.50900000
 H      38.93000000      24.16500000      35.46700000
 H      39.62200000      25.50300000      35.32700000
 O      37.59900000      26.29100000      21.66700000
 H      38.33400000      26.35900000      21.01400000
 H      37.88900000      25.50700000      22.16800000
 O      34.88300000      14.27500000      25.39800000
 H      35.23500000      14.45600000      26.30500000
 H      34.33400000      15.11600000      25.25000000
 O      35.44200000      26.71800000      28.75900000
 H      34.70100000      26.28800000      28.30500000
 H      35.05000000      27.56100000      28.99900000
 O      39.72500000      24.45800000      39.68500000
 H      39.96600000      25.30100000      39.24100000
 H      39.15800000      24.05300000      38.98400000
 O      33.98900000      23.36900000      14.73100000
 H      34.22200000      24.33700000      14.84200000
 H      33.06600000      23.31500000      14.95300000
 O      37.09400000      27.69500000      38.91600000
 H      36.19700000      27.31200000      38.99000000
 H      36.90000000      28.61500000      39.15000000
 O      29.52300000      16.20300000      21.50200000
 H      29.69300000      16.99300000      21.97300000
 H      30.40500000      15.96600000      21.11900000
 O      31.67400000      28.66100000      37.64100000
 H      32.30500000      29.37200000      37.60300000
 H      31.86500000      28.25900000      36.76000000
 O      40.39800000      34.58100000      36.24100000
 H      41.30200000      34.75800000      35.82500000
 H      39.80700000      35.11800000      35.64300000
 O      37.40800000      26.70000000      34.86800000
 H      36.44200000      26.68100000      34.68600000
 H      37.74200000      27.10000000      34.02600000
 O      38.63000000      21.23800000      23.13700000
 H      37.78500000      20.96100000      23.61400000
 H      38.51200000      20.65700000      22.30800000
 O      28.43900000      24.70100000      38.41500000
 H      27.83300000      25.50500000      38.22400000
 H      28.37300000      24.32900000      37.46600000
 O      28.95500000      12.98100000      27.03700000
 H      28.26500000      13.28400000      26.40800000
 H      29.47100000      13.77900000      27.20200000
 O      39.05400000      37.19100000      25.80600000
 H      38.90300000      36.32300000      26.17500000
 H      40.03200000      37.25600000      25.69100000
 O      27.30500000      20.93900000      35.08000000
 H      26.56200000      21.14800000      34.52200000
 H      28.10100000      21.31800000      34.61600000
 O      34.08600000      13.61400000      18.04200000
 H      33.39300000      14.08000000      17.53200000
 H      34.62500000      13.26500000      17.30900000
 O      36.27600000      30.94700000      30.55600000
 H      35.78900000      31.25000000      31.38100000
 H      36.95200000      30.37200000      30.97400000
 O      40.28300000       7.61700000      23.09700000
 H      39.69400000       8.10100000      23.68000000
 H      41.02300000       8.29000000      23.08700000
 O      38.59400000      24.10200000      22.88500000
 H      39.19200000      24.24100000      22.10400000
 H      38.27900000      23.18500000      22.70600000
 O      40.33200000      34.26100000      19.55800000
 H      40.16200000      34.25300000      18.62500000
 H      39.52500000      34.42800000      20.05200000
 O      32.68900000      35.03400000      32.35000000
 H      31.72400000      34.73700000      32.06200000
 H      32.46800000      35.76600000      32.92000000
 O      37.91300000      30.09100000      14.03200000
 H      37.98500000      31.02800000      14.35200000
 H      37.66600000      30.25100000      13.10400000
 O      27.92400000      29.35400000      37.24000000
 H      27.30000000      29.71800000      37.92800000
 H      28.65200000      29.08000000      37.86200000
 O      38.67000000      21.66100000      14.55700000
 H      37.76400000      21.60600000      14.12800000
 H      39.24900000      21.77300000      13.73700000
 O      37.16300000      17.40000000      31.99700000
 H      38.12000000      17.35300000      31.72000000
 H      36.71800000      17.05800000      31.22800000
 O      35.96600000      36.49000000      18.86100000
 H      36.56100000      35.72600000      19.06300000
 H      36.58600000      37.25000000      18.96500000
 O      36.30000000      16.86300000      34.63900000
 H      36.55400000      17.04900000      33.71500000
 H      36.97100000      16.14200000      34.80500000
 O      34.29200000       8.48400000      34.83100000
 H      35.18300000       8.63400000      35.19100000
 H      34.23000000       7.52900000      35.11700000
 O      38.66700000       9.82700000      37.10400000
 H      37.84200000      10.33800000      37.35800000
 H      39.01100000       9.57400000      37.96600000
 O      35.20800000      17.40400000      18.26900000
 H      34.45800000      17.43000000      18.91800000
 H      34.68500000      17.20700000      17.45500000
 O      33.85200000       9.32100000      16.38200000
 H      33.59500000       8.61900000      16.99200000
 H      33.01000000       9.77300000      16.18200000
 O      29.50800000      18.44100000      16.62100000
 H      29.71400000      19.27800000      16.11600000
 H      30.09700000      17.82200000      16.10100000
 O      30.08900000      40.53000000      17.32200000
 H      30.23800000      40.30900000      18.28400000
 H      29.86500000      39.61600000      17.02800000
 O      32.88500000      15.52100000      33.85600000
 H      33.14800000      15.87600000      34.76700000
 H      31.92400000      15.48200000      34.08400000
 O      27.90100000      39.64700000      15.42700000
 H      27.66600000      38.98300000      14.74100000
 H      28.47600000      39.06300000      15.97500000
 O      38.66400000      25.76800000      13.12300000
 H      38.71200000      26.80700000      13.29800000
 H      39.10000000      25.51800000      13.98400000
 O      35.01500000      15.72600000      38.43200000
 H      35.62600000      16.34300000      38.86300000
 H      34.28200000      15.70900000      39.04800000
 O      27.19800000       8.99300000      39.90600000
 H      26.96900000       9.40700000      40.74300000
 H      27.95600000       8.46800000      40.21500000
 O      33.64300000      31.04000000      25.32800000
 H      34.42300000      30.43900000      25.56500000
 H      34.11300000      31.88900000      25.56200000
 O      29.45300000      32.44700000      15.58800000
 H      28.80600000      33.21900000      15.52200000
 H      30.24800000      33.02800000      15.31700000
 O      39.50600000      14.14200000      29.02000000
 H      40.00200000      13.69000000      29.69300000
 H      39.17500000      14.91500000      29.53200000
 O      32.00500000      14.81800000      16.65500000
 H      31.18900000      14.53000000      17.15900000
 H      31.58400000      15.58500000      16.17900000
 O      34.17000000      33.88600000      20.17000000
 H      33.47100000      33.55500000      19.55500000
 H      33.82900000      34.82100000      20.21000000
 O      31.66500000      21.78100000      30.78400000
 H      30.84700000      21.39200000      31.11100000
 H      32.10400000      20.94600000      30.46800000
 O      34.00600000      16.69900000      36.13200000
 H      34.86600000      16.80300000      35.64800000
 H      34.36600000      16.17000000      36.92700000
 O      35.84600000      25.12700000      31.70100000
 H      36.14300000      25.56400000      30.83900000
 H      36.41100000      24.36400000      31.70300000
 O      38.68300000      31.05200000      40.06300000
 H      39.24500000      31.35400000      39.33100000
 H      39.18400000      30.25000000      40.41300000
 O      32.50900000      27.73700000      35.18600000
 H      33.13900000      27.62000000      34.55400000
 H      31.73600000      28.13400000      34.71600000
 O      27.50500000      28.60100000      34.78200000
 H      26.52400000      28.59700000      34.99900000
 H      27.85400000      28.72600000      35.66700000
 O      38.59700000      40.77000000      16.40200000
 H      38.24200000      41.68400000      16.52200000
 H      37.87600000      40.21400000      16.73400000
 O      30.94000000      35.62600000      17.56800000
 H      30.50600000      35.10800000      18.24200000
 H      31.73300000      35.96000000      18.03400000
 O      36.82700000      35.73300000      32.96500000
 H      36.69800000      35.92200000      31.99300000
 H      36.28300000      35.05700000      33.14400000
 O      28.37500000      31.88700000      18.89400000
 H      27.58500000      31.34400000      18.91500000
 H      28.71900000      31.53800000      18.01800000
 O      32.76500000      29.50900000      14.84300000
 H      32.71400000      30.48100000      14.74200000
 H      33.72300000      29.37800000      14.51600000
 O      40.08600000      24.70900000      32.69100000
 H      39.72000000      23.85400000      33.05300000
 H      40.07200000      24.55800000      31.73400000
 O      33.41300000      36.70400000      18.35100000
 H      33.35900000      37.62200000      18.01800000
 H      34.34800000      36.66100000      18.67900000
 O      31.96700000      32.21400000      30.27200000
 H      32.56900000      31.94000000      30.98700000
 H      31.28400000      32.70100000      30.80800000
 O      27.04200000      27.74900000      40.26800000
 H      27.34400000      27.38600000      41.10700000
 H      27.87900000      28.07700000      39.92600000
 O      28.05800000      17.26300000      34.13100000
 H      27.02000000      17.00300000      34.18000000
 H      28.08400000      17.74400000      34.95700000
 O      35.99600000      30.50700000      40.37300000
 H      35.88800000      31.54500000      40.17700000
 H      37.00300000      30.53200000      40.29700000
 O      31.16700000      34.39900000      15.34800000
 H      31.02800000      34.88100000      16.24000000
 H      31.86700000      35.03900000      15.01300000
 O      36.95100000      17.09600000      39.81900000
 H      37.67700000      17.41500000      40.46900000
 H      36.23400000      17.43800000      40.38200000
 O      36.97400000      20.55100000      40.37000000
 H      37.21400000      20.54600000      39.45800000
 H      37.62800000      19.92200000      40.73600000
 O      28.72000000      26.15000000      19.56700000
 H      28.68700000      26.08500000      18.56800000
 H      28.02300000      26.84200000      19.71200000
 O      36.73400000      37.60300000      35.98900000
 H      36.26000000      37.45200000      36.81600000
 H      36.69900000      38.51400000      35.84700000
 O      29.09300000      30.83000000      21.19100000
 H      29.96100000      30.39400000      21.28600000
 H      29.17300000      31.09700000      20.22800000
 O      28.41200000      23.24000000      32.21600000
 H      27.93100000      22.74800000      31.52600000
 H      28.69000000      24.04500000      31.70500000
 O      30.34200000      33.84200000      32.06800000
 H      29.88700000      33.64400000      32.93300000
 H      29.70800000      34.39500000      31.65400000
 O      31.81400000      32.47100000      27.53700000
 H      32.76500000      32.69100000      27.35200000
 H      31.82100000      32.13200000      28.42500000
 O      37.16500000      15.86500000      16.87500000
 H      37.49400000      16.78200000      16.61800000
 H      36.61000000      16.06100000      17.59300000
 O      33.21200000      16.39000000      24.91700000
 H      32.29900000      16.58100000      25.18000000
 H      33.66900000      17.14300000      25.32300000
 O      28.70700000      36.16500000      35.84200000
 H      28.49100000      35.36100000      35.29400000
 H      29.56800000      35.82400000      36.17700000
 O      32.31400000      26.92000000      14.65100000
 H      33.25700000      26.73500000      14.58200000
 H      32.31200000      27.78600000      15.15500000
 O      35.14300000      21.53600000      29.65700000
 H      34.41900000      20.85400000      29.73700000
 H      35.46100000      21.52400000      30.61400000
 O      32.83500000      12.38600000      40.20200000
 H      33.39700000      11.94600000      39.55700000
 H      31.93900000      12.08700000      40.01400000
 O      39.35100000      38.67700000      30.59900000
 H      38.51200000      39.15800000      30.42400000
 H      39.22700000      37.83500000      30.07500000
 O      39.19900000      13.68800000      37.73900000
 H      39.83900000      13.18400000      37.18100000
 H      39.12900000      13.11000000      38.48800000
 O      28.82900000      25.55900000      31.07800000
 H      29.18000000      26.06400000      30.26100000
 H      28.88000000      26.31500000      31.70000000
 O      32.66400000      33.27300000      18.09000000
 H      32.96100000      32.35700000      17.86400000
 H      32.39000000      33.55500000      17.17800000
 O      28.20500000      38.55500000      32.77900000
 H      28.87600000      38.56800000      32.02700000
 H      27.52200000      39.17800000      32.47900000
 O      35.47600000      29.18300000      18.72500000
 H      36.29400000      29.68400000      18.69300000
 H      35.76900000      28.30300000      18.36600000
 O      31.19000000      22.83100000      24.49700000
 H      30.74700000      22.46200000      25.32400000
 H      30.52600000      23.55700000      24.25900000
 O      32.27000000      20.54100000      34.20200000
 H      32.20100000      20.12100000      35.05900000
 H      31.71700000      19.97200000      33.63400000
 O      30.03700000      13.62000000      18.14000000
 H      30.39300000      14.13400000      18.86000000
 H      30.34200000      12.71500000      18.38300000
 O      36.59100000      36.07600000      30.09700000
 H      35.87300000      35.67300000      29.63600000
 H      36.68700000      36.90400000      29.50400000
 O      37.15500000      25.46900000      17.38000000
 H      36.45400000      26.07300000      17.82500000
 H      36.50800000      24.64800000      17.30700000
 O      40.53000000      34.23100000      39.22900000
 H      40.89200000      33.33200000      39.01500000
 H      40.32800000      34.60600000      38.34900000
 O      29.59800000      28.28700000      39.21100000
 H      29.97600000      27.53000000      39.66800000
 H      30.43200000      28.60900000      38.80500000
 O      38.03200000      36.16900000      40.36200000
 H      37.60800000      35.52400000      39.72100000
 H      38.72400000      36.47800000      39.68400000
 O      35.24900000      23.26800000      20.11200000
 H      35.67800000      22.44100000      20.19900000
 H      35.27900000      23.64000000      21.02000000
 O      37.69400000      13.77200000      26.85600000
 H      37.61600000      14.75500000      26.80400000
 H      38.29500000      13.70700000      27.63600000
 O      30.87300000      16.87100000      15.12800000
 H      31.19200000      17.39800000      14.37600000
 H      30.00400000      16.55700000      14.72000000
 O      33.30800000      21.51100000      17.16800000
 H      32.87200000      20.93500000      17.88500000
 H      32.62000000      22.10400000      16.90600000
 O      30.06700000      29.55200000      28.21500000
 H      29.78500000      30.45500000      27.99900000
 H      30.92700000      29.51500000      27.73700000
 O      36.61000000      19.79700000      24.94100000
 H      37.17200000      19.16200000      25.48400000
 H      36.15000000      19.10200000      24.42600000
 O      30.67400000      29.57000000      33.73700000
 H      30.89900000      29.28600000      32.81100000
 H      29.70500000      29.59500000      33.62600000
 O      40.03000000      40.66100000      35.24000000
 H      40.36300000      39.76500000      35.01300000
 H      39.76000000      41.00500000      34.37100000
 O      31.54800000      23.57300000      28.67000000
 H      30.66600000      23.91400000      28.68000000
 H      31.68800000      23.11000000      29.48600000
 O      29.42000000       7.01600000      40.84100000
 H      29.31500000       6.05500000      40.99000000
 H      29.97200000       7.25500000      41.62600000
 O      30.85900000      14.83900000      37.06000000
 H      31.57400000      14.17500000      36.78500000
 H      30.50700000      15.04200000      36.13200000
 O      40.60500000      21.13400000      25.05000000
 H      41.29700000      20.43200000      24.81500000
 H      40.01600000      21.01000000      24.23300000
 O      30.42200000       7.82100000      26.72000000
 H      30.25100000       8.74200000      26.95500000
 H      30.69000000       7.91200000      25.76500000
 O      32.31200000      31.14700000      35.48100000
 H      31.66300000      30.51200000      35.15400000
 H      31.70800000      31.71500000      36.05800000
 O      27.67900000      14.89100000      29.08600000
 H      27.67300000      14.09200000      29.55000000
 H      28.48000000      14.88700000      28.57400000
 O      36.84400000       9.96400000      39.34000000
 H      36.18900000       9.27900000      39.55800000
 H      37.36000000       9.92600000      40.21000000
 O      28.64800000      33.69800000      34.38600000
 H      27.73600000      33.99600000      34.19000000
 H      28.42100000      32.75500000      34.70400000
 O      29.34600000      39.40900000      22.95600000
 H      28.80700000      39.90800000      22.35900000
 H      29.97400000      40.13300000      23.27200000
 O      40.40800000      17.92100000      19.23900000
 H      39.46200000      17.75000000      19.38300000
 H      40.43700000      18.86700000      19.06700000
 O      28.14700000      29.98100000      15.53300000
 H      27.71200000      29.65000000      14.72400000
 H      28.22800000      30.92300000      15.48100000
 O      29.18400000      26.65500000      14.48500000
 H      29.81400000      25.93500000      14.70300000
 H      29.73600000      27.38100000      14.25100000
 O      33.08100000       9.78100000      37.36000000
 H      33.48600000       9.42400000      36.56500000
 H      32.63900000       8.98100000      37.71200000
 O      33.90600000      22.17600000      32.75100000
 H      33.16100000      22.54500000      32.21200000
 H      33.36200000      21.68200000      33.38500000
 O      28.45300000      18.68600000      28.69300000
 H      27.77600000      18.75700000      27.97800000
 H      27.95200000      18.20800000      29.38800000
 O      30.38800000      13.11500000      30.30200000
 H      30.24000000      12.10300000      30.34800000
 H      30.62500000      13.20500000      29.36800000
 O      29.35400000      38.49500000      37.96600000
 H      29.82900000      39.17400000      37.40200000
 H      28.43400000      38.62200000      37.65200000
 O      39.53200000      16.12400000      31.10300000
 H      40.20500000      16.80200000      30.97500000
 H      39.67000000      15.86400000      32.06000000
 O      40.65300000      19.62800000      15.22200000
 H      39.93900000      20.31900000      14.98700000
 H      41.28900000      19.90100000      14.51400000
 O      29.95300000      18.75200000      23.16300000
 H      29.38600000      19.38700000      22.65800000
 H      29.66700000      18.98100000      24.12600000
 O      33.54600000       7.50200000      27.36900000
 H      33.81900000       8.15600000      26.70500000
 H      33.04500000       8.12100000      27.99600000
 O      40.08800000      33.26100000      30.61900000
 H      40.50200000      32.86600000      29.77800000
 H      40.85300000      33.18500000      31.20800000
 O      37.99500000      13.63500000      33.04000000
 H      37.94500000      13.81300000      33.99400000
 H      38.72700000      14.19900000      32.79000000
 O      29.84600000      37.07800000      20.92300000
 H      29.72400000      37.87900000      21.43400000
 H      29.02600000      37.06700000      20.34900000
 O      40.06200000      39.32300000      22.50000000
 H      40.51500000      40.08700000      22.08400000
 H      40.46400000      38.57900000      21.96600000
 O      36.83300000      22.72100000      25.51300000
 H      36.22600000      21.95300000      25.38800000
 H      36.39900000      23.15500000      26.27400000
 O      39.53200000      11.40300000      26.96700000
 H      39.83800000      11.06400000      26.09700000
 H      40.34400000      11.85100000      27.24100000
 O      37.55900000      14.78800000      20.37900000
 H      38.32400000      14.71900000      19.75000000
 H      37.05800000      14.00900000      20.18400000
 O      30.20400000      15.34300000      34.55700000
 H      29.60500000      16.14400000      34.40700000
 H      29.79600000      14.79300000      33.83300000
 O      34.93000000       9.83600000      30.61600000
 H      35.28100000      10.59800000      31.18100000
 H      35.67600000       9.72800000      29.98400000
 O      40.70700000      20.64300000      39.96100000
 H      41.10000000      19.75000000      39.77300000
 H      40.13000000      20.77200000      39.14700000
 O      30.61200000       9.75400000      39.15200000
 H      31.23800000       9.90000000      39.90700000
 H      30.45200000       8.81600000      39.18500000
 O      40.03400000      10.70200000      35.03800000
 H      39.60300000      10.23300000      35.82200000
 H      39.25400000      10.65300000      34.43800000
 O      31.34500000      31.34600000      23.93600000
 H      31.53600000      30.67400000      23.22600000
 H      32.18300000      31.36300000      24.41500000
 O      36.33200000      30.45600000      33.50100000
 H      37.18300000      30.07400000      33.82200000
 H      35.73100000      30.36100000      34.27900000
 O      37.58900000      29.22700000      36.16800000
 H      37.55300000      28.37900000      35.65700000
 H      36.67400000      29.32300000      36.49700000
 O      29.49100000       8.03900000      37.00000000
 H      29.21100000       8.96900000      37.08700000
 H      28.68400000       7.66400000      36.56700000
 O      36.88300000      19.45100000      29.40500000
 H      36.15000000      20.09400000      29.32200000
 H      36.73300000      19.16400000      30.32900000
 O      38.19000000      32.92100000      36.60600000
 H      38.55800000      32.06900000      36.26700000
 H      38.88400000      33.51400000      36.55000000
 O      32.91400000      36.43700000      14.92100000
 H      33.20000000      37.35900000      14.98700000
 H      33.69600000      35.95900000      15.13600000
 O      32.55700000      15.14900000      29.73100000
 H      33.26300000      14.45200000      29.68900000
 H      32.01200000      14.75200000      30.45900000
 O      34.46700000      29.24000000      29.52500000
 H      35.05500000      30.04200000      29.75700000
 H      33.86600000      29.66700000      28.92100000
 O      35.00300000      27.02800000      36.74300000
 H      34.65900000      27.02800000      35.83900000
 H      34.24500000      27.40400000      37.28400000
 O      35.89400000      35.46100000      38.37600000
 H      35.15800000      36.04200000      38.20300000
 H      36.08800000      35.07900000      37.49700000
 O      31.66700000      20.08300000      18.88800000
 H      31.94300000      20.24500000      19.77900000
 H      31.04200000      19.37400000      19.03100000
 O      27.39400000      13.78900000      17.15500000
 H      27.55600000      14.51500000      16.46600000
 H      28.34400000      13.72000000      17.47200000
 O      32.82200000      13.72500000      14.27400000
 H      33.76400000      13.95500000      14.42500000
 H      32.48000000      13.85900000      15.22700000
 O      37.98800000      23.60600000      37.78700000
 H      37.15300000      24.05700000      37.51500000
 H      37.61700000      22.66800000      37.64500000
 O      38.25400000      37.37000000      23.18600000
 H      38.92500000      38.12400000      22.92200000
 H      38.55600000      37.37300000      24.14300000
 O      32.96100000      33.01300000      39.71700000
 H      32.01200000      32.80200000      39.47600000
 H      32.75800000      33.87400000      40.20900000
 O      29.83600000      20.34300000      37.91400000
 H      30.03000000      21.19400000      38.24500000
 H      30.61700000      20.04200000      37.44600000
 O      28.83200000      11.00000000      20.50500000
 H      28.46400000      10.38500000      19.84700000
 H      28.26600000      10.85800000      21.26700000
 O      40.63000000      31.60000000      24.22200000
 H      41.59700000      31.62400000      23.98200000
 H      40.55700000      32.54600000      24.48100000
 O      36.69900000      11.01900000      26.48600000
 H      37.37100000      10.38900000      26.18700000
 H      37.27700000      11.81400000      26.58300000
 O      28.62900000      23.69600000      36.05300000
 H      27.98700000      24.12100000      35.48800000
 H      28.95400000      22.94100000      35.51700000
 O      38.19400000      36.74700000      16.62800000
 H      37.39100000      36.77700000      16.06900000
 H      38.27200000      35.76500000      16.79800000
 O      32.39400000      29.25600000      26.84300000
 H      32.81200000      30.04600000      26.40900000
 H      32.52600000      28.59900000      26.10600000
 O      30.03400000      32.23000000      39.56300000
 H      29.66400000      32.99500000      40.05800000
 H      29.66600000      31.49000000      40.06700000
 O      28.98700000      27.21800000      28.97300000
 H      28.43800000      27.13800000      28.10100000
 H      29.41900000      28.06300000      28.71600000
 O      38.44400000       8.95500000      20.26600000
 H      38.36800000       8.65400000      21.16900000
 H      38.52000000       8.09000000      19.79100000
 O      31.27500000      23.16600000      15.64700000
 H      31.30000000      24.02700000      16.15400000
 H      30.55700000      23.45400000      14.95700000
 O      33.18200000      19.46800000      15.05000000
 H      34.09000000      18.99600000      14.96000000
 H      33.65500000      20.32600000      15.44500000
 O      35.00500000       8.46600000      40.61700000
 H      35.12000000       8.89500000      41.47000000
 H      35.18600000       7.53700000      40.87900000
 O      35.44400000      13.64200000      15.57100000
 H      36.17400000      14.28000000      15.79100000
 H      35.87300000      12.94700000      15.07800000
 O      27.31400000      35.71100000      17.62100000
 H      27.35500000      35.08200000      16.86300000
 H      28.03300000      35.24300000      18.16900000
 O      28.54300000      10.34600000      15.20700000
 H      28.73100000      10.11100000      14.28300000
 H      28.24800000      11.23500000      15.13400000
 O      33.05400000      15.57000000      40.34600000
 H      32.93500000      14.66400000      40.63100000
 H      32.26100000      15.98900000      40.57400000
 O      29.09400000      22.24900000      17.68500000
 H      29.59900000      22.50300000      18.51700000
 H      29.48100000      21.43000000      17.42100000
 O      30.51300000      20.58200000      15.49400000
 H      31.31900000      20.02500000      15.57900000
 H      30.91900000      21.47600000      15.40800000
 O      38.07400000      18.33700000      16.05600000
 H      38.53600000      18.70300000      15.27300000
 H      38.50100000      18.76500000      16.79400000
 O      33.96600000      37.66100000      34.62100000
 H      34.48200000      37.03500000      34.05500000
 H      33.11100000      37.25400000      34.50100000
 O      37.11400000       9.69000000      29.22800000
 H      37.83800000       9.92200000      29.84300000
 H      37.48600000      10.03600000      28.41200000
 O      30.52800000      29.52100000      30.91100000
 H      30.47500000      30.33400000      30.41100000
 H      30.36500000      28.92000000      30.09100000
 O      29.46300000      22.01400000      26.38500000
 H      28.53000000      22.20200000      26.11900000
 H      29.52300000      22.54500000      27.23600000
 O      28.45400000      15.35600000      15.06100000
 H      27.70800000      15.99500000      15.13800000
 H      28.28500000      14.80200000      14.31100000
 O      33.55300000      21.18600000      25.86200000
 H      33.69300000      21.57100000      24.96800000
 H      32.61300000      21.46700000      26.02300000
 O      30.51700000      17.46800000      30.86700000
 H      31.05600000      16.89700000      30.31200000
 H      29.73900000      17.63400000      30.25300000
 O      27.22300000      11.31200000      35.93300000
 H      27.85500000      11.68400000      36.57500000
 H      26.65700000      10.79600000      36.53300000
 O      37.41200000      31.62200000      23.97700000
 H      38.05900000      31.64600000      23.24100000
 H      36.58900000      31.90900000      23.50400000
 O      34.66400000      27.10400000      33.67900000
 H      34.79700000      26.29800000      33.18400000
 H      34.42600000      27.75400000      32.94300000
 O      31.06500000      35.15500000      36.69500000
 H      30.91800000      34.21300000      36.95600000
 H      31.98700000      35.09000000      36.31700000
 O      34.09600000      33.57900000      27.25000000
 H      34.98600000      33.59800000      27.61800000
 H      34.10100000      34.41500000      26.71700000
 O      32.19500000      12.17800000      27.46400000
 H      31.78800000      11.30600000      27.65800000
 H      32.47800000      12.06800000      26.56000000
 O      33.44900000      25.25400000      27.55000000
 H      32.67500000      24.80000000      27.97600000
 H      32.94600000      25.47300000      26.72200000
 O      37.26600000      39.59300000      26.35500000
 H      37.96800000      38.87000000      26.32900000
 H      37.81200000      40.36300000      26.34900000
 O      30.19400000      15.14700000      27.75800000
 H      31.07800000      14.99500000      28.11900000
 H      30.25100000      15.98900000      27.36300000
 O      28.74100000      24.13600000      24.14000000
 H      28.86000000      25.11200000      24.05800000
 H      27.90000000      24.13200000      24.64000000
 O      33.16700000      15.25800000      22.30200000
 H      33.15900000      15.86300000      23.04300000
 H      33.96400000      14.70700000      22.48500000
 O      37.73200000      19.86500000      20.98500000
 H      36.74900000      20.05900000      21.09200000
 H      37.76800000      18.91700000      20.80900000
 O      30.94100000      11.64400000      34.04200000
 H      30.31500000      12.35900000      33.74000000
 H      30.60600000      10.87800000      33.57800000
 O      35.57800000      29.04500000      14.92600000
 H      36.04100000      28.62400000      15.67900000
 H      36.32400000      29.44900000      14.52200000
 O      27.23400000      40.75900000      18.54800000
 H      27.38500000      39.77600000      18.75300000
 H      28.06200000      40.90400000      18.05800000
 O      30.88400000      40.12700000      36.43100000
 H      31.86200000      40.18600000      36.44500000
 H      30.70400000      40.10200000      35.49200000
 O      35.87300000      16.42900000      27.27600000
 H      35.39400000      17.25100000      27.05300000
 H      35.71900000      16.40200000      28.26900000
 O      39.84600000       6.80700000      30.02600000
 H      39.55600000       7.36900000      29.30900000
 H      39.01400000       6.26600000      30.20900000
 O      35.93700000      36.35200000      14.92200000
 H      35.62500000      37.22600000      14.56700000
 H      35.66400000      35.73800000      14.15500000
 O      31.58200000      25.52200000      16.95000000
 H      32.08300000      25.07300000      17.59200000
 H      31.77800000      26.48100000      17.05400000
 O      39.78800000      17.17800000      35.45700000
 H      39.87100000      17.03500000      36.38900000
 H      38.97000000      17.70800000      35.42200000
 O      40.22100000      10.34800000      24.44900000
 H      40.49300000      11.11300000      23.87000000
 H      41.13700000       9.88900000      24.32300000
 O      29.55300000       8.08900000      21.04300000
 H      29.71000000       8.44300000      20.17800000
 H      29.17500000       7.23800000      20.91300000
 O      29.77400000      25.86300000      40.53200000
 H      29.22800000      26.10600000      41.29800000
 H      29.22100000      25.08300000      40.23200000
 O      28.84600000       6.63800000      33.65400000
 H      28.15400000       6.20300000      33.18300000
 H      28.73200000       7.58400000      33.62200000
 O      33.43900000      26.80400000      23.10000000
 H      33.06900000      27.20200000      22.29500000
 H      34.27200000      27.32800000      23.10800000
 O      34.08800000      30.96800000      17.29700000
 H      34.58600000      30.67200000      16.54400000
 H      34.42800000      30.40700000      18.01900000
 O      38.10000000      29.86600000      28.17000000
 H      38.15000000      30.16000000      29.10800000
 H      37.95300000      28.90900000      28.31500000
 O      35.43600000      16.39600000      30.02900000
 H      34.72400000      16.86700000      30.57700000
 H      35.05600000      15.51600000      30.02100000
 O      32.74400000      35.08500000      24.10600000
 H      32.26300000      34.96900000      23.23100000
 H      33.62100000      34.64300000      23.89300000
 O      29.40300000      11.71900000      37.75500000
 H      30.24500000      11.96300000      37.30600000
 H      29.67400000      11.04100000      38.39000000
 O      35.91700000       7.85300000      19.21000000
 H      36.82800000       7.54500000      18.98900000
 H      35.95300000       8.76500000      18.89600000
 O      32.73100000      35.65300000      29.15600000
 H      32.66600000      35.60600000      30.12000000
 H      32.79000000      34.73900000      28.88100000
 O      29.43500000      38.01600000      16.94500000
 H      28.84300000      37.76700000      17.65000000
 H      30.03300000      37.24000000      17.01200000
 O      40.02600000      20.36300000      30.78200000
 H      39.97500000      21.22000000      30.31600000
 H      39.47900000      19.78200000      30.26400000
 O      35.68800000      33.27100000      40.00600000
 H      35.78000000      34.06600000      39.45100000
 H      34.69000000      33.28200000      40.14100000
 O      33.62000000      12.93100000      32.94400000
 H      33.47400000      13.87400000      33.21400000
 H      32.71100000      12.55400000      33.00900000
 O      38.61600000      32.10900000      26.46700000
 H      37.95300000      31.55200000      27.00100000
 H      38.12000000      32.10300000      25.58100000
 O      39.28000000      25.01400000      15.43700000
 H      39.84900000      25.43000000      16.13000000
 H      38.38100000      25.22900000      15.84500000
 O      29.64800000      22.00700000      34.32600000
 H      30.62000000      21.77700000      34.26200000
 H      29.54900000      22.47900000      33.48200000
 O      35.77700000      18.46100000      14.61700000
 H      36.50600000      18.19800000      15.26600000
 H      36.10500000      18.05100000      13.82200000
 O      35.98700000      17.70700000      23.46300000
 H      36.40600000      16.88500000      23.55800000
 H      35.17500000      17.60600000      23.02800000
 O      34.22800000      36.28300000      22.01000000
 H      34.63200000      35.55800000      22.59200000
 H      33.30000000      35.91600000      21.96800000
 O      32.80700000       9.33600000      24.76400000
 H      32.53400000       9.36000000      23.78200000
 H      33.15500000      10.25700000      24.84800000
 O      34.24800000      37.31700000      37.20200000
 H      34.07900000      37.50500000      36.23100000
 H      33.37800000      37.41200000      37.53500000
 O      33.62900000      39.33700000      18.01500000
 H      33.15500000      40.18200000      17.73700000
 H      33.54800000      39.39800000      18.95800000
 O      27.45400000      16.34400000      37.64900000
 H      28.29000000      16.01200000      37.34300000
 H      27.68500000      17.34000000      37.67200000
 O      28.53700000      16.40200000      24.60300000
 H      28.60900000      16.48000000      23.68200000
 H      27.67800000      15.99800000      24.74000000
