45
XYZ file of cluster: frame_17500_1f6e9.9cdc8.6ba31 - created by MolEdiTo
 O       7.85600000      14.32700000      11.52100000
 H       8.55900000      15.08800000      11.64500000
 H       7.75600000      14.16600000      10.57700000
 O       8.18500000      17.39900000      11.74700000
 H       7.29600000      17.10400000      11.75800000
 H       8.46500000      17.33900000      12.69200000
 O       8.45400000      19.86500000      17.23000000
 H       8.37500000      18.95400000      16.93900000
 H       8.67800000      20.18200000      16.34300000
 O       4.47500000      19.31500000      13.68000000
 H       4.60200000      19.54800000      12.76200000
 H       4.17800000      20.19900000      13.98400000
 O       5.51200000      16.41400000      12.83200000
 H       4.94600000      16.33000000      12.02400000
 H       5.24600000      17.26800000      13.34100000
 O       7.17500000      19.71200000      14.54800000
 H       7.17400000      20.70900000      14.65000000
 H       7.49400000      19.46800000      13.64000000
 O      10.80000000      14.43000000      14.63500000
 H      10.26200000      13.65000000      14.40800000
 H      11.65600000      14.07000000      14.77900000
 O       4.52000000      15.35500000      10.27200000
 H       4.49400000      14.63300000      10.84800000
 H       4.21600000      14.97800000       9.38900000
 O       8.83300000      17.09300000      17.14900000
 H       9.10400000      16.92700000      18.04100000
 H       7.90000000      17.17400000      17.33900000
 O       5.13300000      13.92500000      13.91300000
 H       4.21100000      14.21700000      13.91100000
 H       5.63500000      14.71000000      13.79900000
 O       5.71100000      19.22500000      10.86000000
 H       6.19800000      18.61000000      10.24600000
 H       6.41400000      19.85700000      11.06400000
 O       9.15100000      16.87400000      14.35700000
 H       9.76400000      16.12100000      14.44300000
 H       8.96900000      17.14800000      15.31400000
 O       3.27300000      18.07800000      16.03000000
 H       2.70300000      18.75700000      16.36400000
 H       3.77400000      18.47200000      15.26300000
 O       5.91300000      14.72300000      16.83800000
 H       5.86600000      15.52800000      16.21900000
 H       5.00500000      14.37500000      16.76800000
 O       5.98700000      17.55500000      17.61300000
 H       5.93100000      17.63900000      18.63100000
 H       5.18200000      17.94400000      17.21300000
