141
XYZ file of cluster: frame_6000_1ef7c.9b7a7.72b8a - created by MolEdiTo
 O       5.84200000      28.20400000      15.35100000
 H       4.92200000      27.81600000      15.41100000
 H       6.23300000      27.88200000      16.21700000
 O       8.69600000      24.18800000      24.77300000
 H       8.83600000      23.89800000      23.84800000
 H       7.80100000      24.01800000      24.99500000
 O      15.86000000      29.28700000      25.07700000
 H      16.16300000      29.31400000      26.02800000
 H      15.69300000      28.34700000      24.96700000
 O       4.29200000      28.10400000      21.43700000
 H       3.99000000      28.91500000      21.87100000
 H       5.29900000      28.21600000      21.62800000
 O      13.19400000      29.60500000      25.52900000
 H      14.13400000      29.61900000      25.23300000
 H      12.93800000      28.64400000      25.55800000
 O      13.03500000      24.16700000      23.85700000
 H      13.04300000      23.21500000      23.67400000
 H      12.43600000      24.59600000      23.19900000
 O      16.45300000      22.15300000      19.49200000
 H      16.95100000      22.83800000      18.91600000
 H      15.56200000      22.12300000      18.98200000
 O      15.45100000      25.57800000      22.91600000
 H      14.51800000      25.84000000      22.99700000
 H      15.49600000      24.62900000      22.63100000
 O      11.63800000      30.17000000      22.59900000
 H      11.74700000      31.11500000      22.61400000
 H      12.49600000      29.99400000      23.11900000
 O       7.04200000      27.63500000      17.76700000
 H       6.90400000      27.11700000      18.59700000
 H       8.01400000      27.85700000      17.80400000
 O       6.39600000      20.21200000      23.17100000
 H       6.35300000      20.47300000      22.26500000
 H       6.39900000      21.16300000      23.49500000
 O       6.26800000      23.21200000      18.44000000
 H       5.41500000      23.69600000      18.33400000
 H       6.91700000      23.90800000      18.31600000
 O       5.41900000      29.96700000      18.72800000
 H       5.05800000      29.05100000      18.57600000
 H       6.32500000      29.79200000      18.84400000
 O      10.53800000      30.72200000      20.24100000
 H       9.54800000      30.81000000      20.35300000
 H      10.94400000      30.47200000      21.09500000
 O       5.75800000      26.19400000      19.93800000
 H       5.09800000      26.70200000      20.45300000
 H       6.11400000      25.62600000      20.70300000
 O       7.32800000      28.96600000      25.14900000
 H       7.80900000      28.48700000      25.75000000
 H       6.39700000      28.99700000      25.49800000
 O       8.72700000      21.10000000      25.00300000
 H       9.70300000      21.18000000      25.31400000
 H       8.81100000      21.68800000      24.19700000
 O      11.39000000      21.25700000      24.55100000
 H      11.56900000      20.40000000      24.06200000
 H      11.76900000      21.03700000      25.44100000
 O       9.61000000      26.49400000      15.74000000
 H       9.13400000      25.95100000      16.35200000
 H       9.41300000      25.93400000      14.90000000
 O      12.72800000      25.32200000      17.81500000
 H      13.63900000      24.93300000      17.83400000
 H      12.11500000      24.51400000      18.00700000
 O      15.71400000      22.73400000      21.66800000
 H      16.50800000      22.51700000      21.21600000
 H      15.11800000      22.15400000      21.15900000
 O      14.13200000      21.47900000      23.63500000
 H      15.10600000      21.70700000      23.46100000
 H      13.78700000      22.00200000      24.41500000
 O       9.52800000      28.82600000      18.47100000
 H       9.75700000      29.10900000      17.56800000
 H      10.09700000      29.37600000      19.01600000
 O       6.81200000      28.22600000      22.17400000
 H       7.12700000      27.49700000      21.58500000
 H       6.96500000      27.99000000      23.13800000
 O      11.30300000      29.11500000      16.18200000
 H      10.72200000      28.32100000      16.15400000
 H      12.18400000      28.72800000      16.03600000
 O       7.79600000      30.50200000      20.50800000
 H       7.85700000      30.13300000      21.40400000
 H       6.96600000      30.96800000      20.63400000
 O      10.83600000      26.42400000      20.03400000
 H      11.02900000      27.30900000      20.36700000
 H      11.31200000      26.43800000      19.15100000
 O       9.65900000      26.64700000      25.78500000
 H       9.00600000      25.91200000      25.76700000
 H      10.00600000      26.73900000      24.86200000
 O      11.19600000      23.20400000      18.55700000
 H      10.83200000      22.45100000      18.07700000
 H      11.18000000      22.94700000      19.53900000
 O      15.37100000      29.22200000      20.83200000
 H      16.34200000      28.84900000      20.95700000
 H      15.45400000      29.90400000      21.48600000
 O       8.72600000      24.94600000      18.33000000
 H       9.02100000      24.13400000      18.74800000
 H       9.24900000      25.64800000      18.79400000
 O       5.13400000      24.93100000      26.20600000
 H       4.55600000      24.52000000      26.86600000
 H       6.03200000      24.74100000      26.46300000
 O       8.38300000      22.46100000      22.47800000
 H       7.69300000      23.13100000      22.09200000
 H       8.62800000      22.06700000      21.63000000
 O      13.97900000      28.39500000      16.60000000
 H      14.87900000      28.75500000      16.83700000
 H      14.09100000      27.51300000      16.92800000
 O      16.29500000      25.80100000      20.99200000
 H      15.72500000      25.49000000      21.77000000
 H      16.83300000      24.98800000      20.90700000
 O       6.16600000      21.30200000      20.72000000
 H       6.46700000      21.85600000      19.89900000
 H       5.22500000      21.34700000      20.47300000
 O       5.52900000      22.63100000      24.50900000
 H       5.58300000      23.40400000      25.05100000
 H       4.57700000      22.59500000      24.23000000
 O       6.37800000      21.09600000      26.71900000
 H       6.00300000      21.42100000      25.86700000
 H       7.37500000      21.16800000      26.56200000
 O      11.65300000      22.28700000      21.17100000
 H      12.29100000      22.08100000      21.79000000
 H      10.84100000      22.31500000      21.68900000
 O      14.29800000      22.99300000      26.10100000
 H      13.43500000      23.45600000      26.37200000
 H      14.93300000      23.74700000      26.27300000
 O      10.73400000      25.13300000      22.53500000
 H      10.65800000      26.12300000      22.80200000
 H      10.82100000      25.26600000      21.55900000
 O      14.89700000      30.77900000      23.15800000
 H      15.37200000      30.08800000      23.71300000
 H      14.63800000      31.46900000      23.79800000
 O      10.16500000      30.33600000      26.65500000
 H      10.92700000      30.69000000      27.15200000
 H      10.41800000      29.54000000      26.19800000
 O      10.06200000      28.04900000      22.89100000
 H      10.83100000      28.62000000      22.79300000
 H       9.28900000      28.60600000      22.65900000
 O      13.33700000      26.68100000      25.45400000
 H      13.17200000      25.72800000      25.54500000
 H      13.93000000      26.66400000      26.14900000
 O       5.17700000      26.93700000      24.44400000
 H       4.61300000      27.67500000      24.85500000
 H       5.24700000      26.32100000      25.22700000
 O       6.26000000      24.64700000      22.27400000
 H       6.77800000      24.59800000      23.04400000
 H       5.43700000      25.07400000      22.49600000
