90
XYZ file of cluster: frame_6000_a1025.9bcd2.a02fb - created by MolEdiTo
 O      25.19700000      24.40900000      24.07700000
 H      24.22600000      24.49900000      23.96900000
 H      25.28800000      24.70900000      24.95200000
 O      22.69600000      25.02600000      21.67000000
 H      22.46900000      24.66600000      20.80500000
 H      22.35200000      25.90000000      21.38000000
 O      21.98100000      26.63800000      24.20500000
 H      22.08100000      25.73300000      24.44100000
 H      21.11800000      26.92200000      24.62700000
 O      27.95000000      22.94700000      24.76100000
 H      27.14400000      23.41900000      24.42900000
 H      27.98400000      22.86500000      25.71800000
 O      28.79300000      23.84800000      22.07400000
 H      27.97300000      24.00400000      21.60800000
 H      28.66900000      23.38800000      22.90500000
 O      25.22300000      23.12800000      26.97300000
 H      24.66500000      22.77100000      27.73800000
 H      25.00500000      22.41200000      26.27800000
 O      25.56300000      26.80300000      22.05100000
 H      26.50000000      27.12500000      22.07700000
 H      25.14800000      27.14100000      22.91900000
 O      30.30500000      22.02800000      30.55800000
 H      30.61700000      21.44000000      31.18300000
 H      30.11600000      21.37500000      29.80600000
 O      25.43900000      23.71700000      21.28500000
 H      24.49800000      23.44400000      21.31500000
 H      25.58500000      24.53000000      21.91000000
 O      26.88800000      30.85700000      29.78600000
 H      26.31600000      31.62400000      29.48900000
 H      27.05100000      31.09200000      30.71900000
 O      25.62000000      28.18600000      29.65000000
 H      26.18600000      28.99600000      29.66100000
 H      26.21800000      27.36700000      29.44600000
 O      26.08300000      21.04500000      21.11100000
 H      26.80700000      20.77400000      21.70000000
 H      25.89300000      22.03000000      21.26000000
 O      28.04500000      26.68400000      29.94100000
 H      28.89200000      27.05500000      30.41600000
 H      28.11600000      25.73900000      29.90300000
 O      24.46300000      27.54500000      24.53900000
 H      23.58900000      27.34600000      24.14200000
 H      24.40500000      27.43400000      25.53100000
 O      29.05300000      28.23200000      26.43200000
 H      29.32900000      29.15000000      26.61500000
 H      29.73400000      28.01100000      25.78800000
 O      28.05300000      28.61500000      22.40600000
 H      27.46300000      28.77300000      23.24700000
 H      28.48500000      29.48800000      22.44200000
 O      26.16800000      29.49000000      24.27300000
 H      25.44200000      28.86400000      24.49000000
 H      26.33800000      30.08700000      25.05100000
 O      20.74500000      28.04300000      28.24400000
 H      21.13800000      27.63800000      29.09800000
 H      21.49600000      27.98400000      27.60800000
 O      23.16100000      29.82800000      22.19200000
 H      23.94200000      30.31300000      22.57400000
 H      22.83300000      29.19300000      22.81000000
 O      23.18900000      27.35800000      27.05200000
 H      22.62000000      26.49300000      27.08900000
 H      23.89600000      27.13100000      27.70800000
 O      25.17400000      20.90600000      24.09900000
 H      25.63600000      21.53900000      23.46200000
 H      24.66700000      20.25400000      23.60600000
 O      28.05100000      23.65500000      27.61400000
 H      27.62200000      23.53000000      28.49000000
 H      27.35400000      24.11600000      27.07400000
 O      30.43000000      28.41800000      29.85500000
 H      30.03500000      29.34400000      29.78500000
 H      30.40200000      28.07000000      28.90200000
 O      22.26600000      24.85900000      27.34000000
 H      21.80300000      24.25500000      27.96900000
 H      22.83300000      24.14000000      27.01300000
 O      22.41100000      21.59100000      21.13500000
 H      22.49600000      20.78800000      21.72800000
 H      21.45400000      21.82600000      21.14800000
 O      27.02400000      26.66300000      27.43500000
 H      27.72500000      26.56500000      28.11400000
 H      27.22600000      27.58500000      27.08800000
 O      29.67400000      26.51300000      21.59600000
 H      29.19200000      27.26000000      22.06600000
 H      29.30800000      25.64000000      21.99700000
 O      23.15900000      22.18600000      28.68500000
 H      23.53800000      22.24200000      29.60300000
 H      22.78800000      21.23100000      28.63100000
 O      22.82700000      27.50900000      30.50700000
 H      23.72400000      27.73600000      30.13300000
 H      22.62100000      28.24700000      31.05900000
 O      21.81400000      23.49100000      23.86000000
 H      22.23100000      22.64400000      23.47900000
 H      21.71100000      24.03000000      23.07400000
