42
XYZ file of cluster: frame_16500_1a752.19992.be3a8 - created by MolEdiTo
 O       4.22100000       3.23700000      19.66600000
 H       5.01700000       3.67300000      19.22700000
 H       3.36000000       3.61200000      19.19300000
 O       8.13400000       3.11400000      20.69000000
 H       7.81400000       2.21600000      20.69100000
 H       7.51300000       3.59200000      21.28100000
 O       5.19200000       8.28600000      17.75700000
 H       5.91900000       8.06400000      18.32800000
 H       5.53900000       8.25900000      16.84500000
 O       3.20200000       8.40300000      20.42700000
 H       2.31100000       8.44800000      19.88400000
 H       3.94300000       8.34000000      19.70900000
 O      10.92500000       4.36500000      20.44900000
 H      10.53200000       4.46800000      21.32700000
 H      10.20300000       3.69700000      20.05900000
 O       5.67800000       5.73000000      19.39100000
 H       6.54200000       6.09200000      19.11000000
 H       5.63500000       6.16600000      20.29100000
 O       7.71400000       7.62800000      19.20600000
 H       8.46000000       8.13000000      18.73200000
 H       8.17000000       7.28700000      20.06800000
 O       8.90200000       7.20900000      23.29100000
 H       8.04000000       7.25200000      23.81700000
 H       9.36900000       6.44900000      23.73100000
 O       6.46400000       3.95700000      24.36000000
 H       6.84300000       4.27200000      25.20500000
 H       5.82200000       4.65600000      24.19200000
 O       5.36000000       6.66000000      23.57700000
 H       5.67200000       7.01000000      24.48600000
 H       4.57700000       7.24500000      23.39600000
 O       9.52800000       4.78400000      24.47200000
 H      10.46600000       4.80600000      24.70200000
 H       9.17300000       3.99800000      24.91800000
 O      10.49900000      10.25700000      22.38000000
 H       9.83600000      10.55000000      21.61900000
 H      11.15700000      10.96200000      22.32700000
 O       4.18000000      10.41000000      24.80200000
 H       3.85000000      11.36500000      24.67800000
 H       4.94700000      10.48300000      24.15300000
 O       6.39100000       9.79000000      23.05100000
 H       7.22000000       9.55700000      22.60700000
 H       5.70300000       9.80300000      22.39900000
