27
XYZ file of cluster: frame_16500_9a394.ad0a9.cc63c - created by MolEdiTo
 O      17.24400000      18.29500000      18.94200000
 H      18.22000000      18.49000000      19.10400000
 H      17.07800000      17.38300000      19.14400000
 O      14.00700000      18.59800000      20.37500000
 H      14.49900000      19.28100000      20.98000000
 H      13.47100000      17.99900000      20.93800000
 O      15.92700000      15.77000000      19.49000000
 H      16.35500000      14.99800000      19.09400000
 H      15.24100000      16.15500000      18.83500000
 O      19.57500000      15.95200000      18.62600000
 H      18.87200000      16.27800000      19.23900000
 H      19.12100000      15.27700000      18.09900000
 O      17.13100000      17.92700000      25.36400000
 H      18.06400000      18.30100000      25.30800000
 H      17.12400000      17.30400000      24.62200000
 O      19.09900000      15.80800000      24.03700000
 H      19.40300000      15.53500000      24.94100000
 H      19.15800000      14.98000000      23.48400000
 O      19.80300000      18.38400000      22.52200000
 H      19.84900000      17.49600000      22.99400000
 H      19.79500000      19.03400000      23.31200000
 O      19.26100000      19.63500000      25.28500000
 H      18.70700000      20.35100000      24.98100000
 H      19.40700000      19.73800000      26.28600000
 O      15.09300000      16.33200000      23.72200000
 H      14.99600000      16.52400000      22.78200000
 H      15.58000000      15.48500000      23.67000000
