45
XYZ file of cluster: frame_6000_549ce.0.5084e - created by MolEdiTo
 O       7.39000000       3.28900000      10.28900000
 H       7.78000000       3.03300000       9.46300000
 H       7.39500000       4.21100000      10.08300000
 O       8.70700000       6.69800000      11.09600000
 H       9.63700000       6.39200000      11.36500000
 H       8.62000000       6.52600000      10.17600000
 O       9.53900000       3.69300000      12.59800000
 H       9.09700000       3.31100000      11.80400000
 H      10.07500000       3.00800000      13.06500000
 O      12.89200000       2.72400000       9.27000000
 H      13.50500000       2.76500000      10.01800000
 H      12.08400000       3.05400000       9.57100000
 O      12.89800000       6.50100000      13.75000000
 H      13.64800000       6.96400000      14.29600000
 H      12.04500000       6.89000000      13.99700000
 O      13.13900000       7.73100000       7.57200000
 H      12.55100000       7.70300000       8.30200000
 H      13.27400000       6.71200000       7.47600000
 O       8.71300000       2.93200000       7.72800000
 H       9.14200000       3.69000000       7.35000000
 H       7.87000000       2.98100000       7.18300000
 O       9.72900000       6.13200000      14.06400000
 H       9.89000000       6.18500000      14.97700000
 H       9.32600000       5.18400000      13.96000000
 O      10.07500000       1.78400000       9.94000000
 H       9.18300000       1.61400000       9.63500000
 H      10.26200000       1.10100000      10.60200000
 O      10.39900000       5.47900000       8.61600000
 H      10.47400000       5.44800000       9.57400000
 H      11.12000000       4.89900000       8.39600000
 O      11.34300000       5.35800000      11.55300000
 H      10.66800000       4.66900000      11.75800000
 H      11.65300000       5.59200000      12.43100000
 O       8.14700000       0.92800000      12.40400000
 H       9.05400000       0.78700000      12.09400000
 H       8.01500000       0.00000000      12.57000000
 O      14.39400000       6.55100000      11.24100000
 H      14.49600000       7.51500000      11.01000000
 H      14.06400000       6.46700000      12.22200000
 O      13.34900000       1.47500000      12.53300000
 H      13.18300000       0.50700000      12.25900000
 H      12.43800000       1.89700000      12.66800000
 O      11.38600000       1.03300000       7.20000000
 H      11.70500000       1.37700000       8.07900000
 H      10.56300000       1.53000000       7.01200000
