45
XYZ file of cluster: frame_6000_1b9ae.1e033.4a69 - created by MolEdiTo
 O       4.90100000       8.21600000       1.74200000
 H       5.45600000       7.44400000       1.90800000
 H       4.67100000       8.46600000       2.62800000
 O       8.57100000       5.63900000       4.71600000
 H       8.02300000       6.31500000       5.13500000
 H       9.30900000       6.12800000       4.30200000
 O      10.63300000       7.25800000       3.24100000
 H      11.34200000       6.68800000       2.93900000
 H      11.21900000       7.83000000       3.80200000
 O       4.38300000       6.46200000       6.05700000
 H       4.49800000       6.65300000       5.11900000
 H       3.64900000       5.81500000       6.13900000
 O       3.28100000       3.67400000       6.47500000
 H       2.41100000       3.21500000       6.30500000
 H       3.93500000       3.13200000       7.03800000
 O       4.29300000       4.57000000       3.83600000
 H       5.24400000       4.37300000       4.05800000
 H       3.82800000       4.02600000       4.47000000
 O       9.61500000      11.34800000       6.80900000
 H       9.47700000      10.42900000       7.12400000
 H       8.72000000      11.58300000       6.57300000
 O       6.25200000      10.56300000       3.32400000
 H       6.70100000       9.66100000       3.02900000
 H       5.23500000      10.42500000       3.31800000
 O       6.68900000       8.51600000       5.44300000
 H       7.34800000       8.99300000       4.91300000
 H       5.81600000       8.64500000       4.98200000
 O       9.67100000       3.57800000       2.80600000
 H       9.49400000       4.07300000       3.64000000
 H      10.00900000       2.67400000       3.13000000
 O       3.74100000      10.72800000       1.97200000
 H       3.76800000       9.88800000       1.55400000
 H       2.95100000      10.70300000       2.59800000
 O       4.23700000       9.06500000       4.46900000
 H       3.44800000       8.53700000       4.74400000
 H       4.32400000       9.63800000       5.29700000
 O       5.15900000      10.40900000       7.07400000
 H       5.74200000      11.13000000       6.80300000
 H       5.31500000      10.15400000       8.00300000
 O       8.17600000       8.56900000       2.81100000
 H       7.99600000       7.84900000       2.14100000
 H       9.12900000       8.24500000       2.89300000
 O       7.56200000       6.26000000       1.36200000
 H       7.40600000       5.39200000       1.81600000
 H       7.52000000       6.18700000       0.40500000
