33
XYZ file of cluster: frame_6000_74b2.a5cc6.4de3b - created by MolEdiTo
 O       5.69300000      18.15100000      13.57400000
 H       5.86000000      18.68600000      14.34200000
 H       5.61200000      17.18700000      13.86800000
 O       5.65100000      15.51500000      14.28200000
 H       5.89700000      15.15900000      15.16200000
 H       5.97000000      14.86200000      13.67100000
 O       1.75600000      15.73000000       9.95600000
 H       1.40500000      14.77200000       9.98900000
 H       2.67100000      15.60200000      10.25900000
 O       3.52900000      18.80200000      11.31500000
 H       4.27400000      18.64700000      11.95700000
 H       4.02500000      19.13800000      10.51800000
 O       6.10600000      20.59500000       9.83100000
 H       6.66200000      21.25900000      10.24200000
 H       6.49800000      19.68900000       9.97600000
 O       4.98000000      16.28800000      11.47200000
 H       5.54100000      16.34400000      10.64300000
 H       5.63100000      16.28800000      12.19900000
 O       1.29900000      18.84900000      13.08300000
 H       1.74200000      18.34300000      12.40000000
 H       0.63700000      18.22200000      13.37300000
 O       1.70300000      16.60200000       6.94400000
 H       1.84200000      16.34800000       7.88700000
 H       0.84700000      17.01900000       6.78300000
 O       4.32400000      18.56900000       7.38800000
 H       5.18500000      19.03600000       7.17500000
 H       3.65800000      19.23100000       7.52800000
 O       2.72900000      16.03800000      12.94200000
 H       2.59500000      16.90900000      12.49600000
 H       3.67700000      15.84700000      13.11200000
 O       2.97000000      20.16500000      14.72200000
 H       3.93300000      19.99900000      14.56100000
 H       2.43100000      19.58300000      14.04500000
