39
XYZ file of cluster: frame_6000_79436.2b501.c9d65 - created by MolEdiTo
 O      11.18000000       6.84800000      19.78200000
 H      10.94900000       5.87300000      19.94100000
 H      10.59100000       7.31600000      20.42000000
 O      12.56700000       4.17600000      19.04700000
 H      13.49900000       3.91700000      19.11400000
 H      12.69500000       5.17400000      19.07700000
 O      12.96800000       6.83200000      17.79100000
 H      13.17500000       7.81600000      17.57700000
 H      12.22600000       6.95600000      18.50300000
 O      13.76500000       9.76900000      18.72100000
 H      14.23400000      10.27800000      19.40000000
 H      13.74100000      10.57200000      18.08000000
 O      18.36000000      11.50300000      23.34600000
 H      17.87100000      10.82900000      22.84400000
 H      17.70900000      12.25200000      23.37600000
 O      17.77600000       6.27800000      22.19700000
 H      16.78300000       6.23700000      22.16900000
 H      18.22100000       5.40000000      22.30300000
 O      10.63300000       7.25800000      24.50200000
 H      11.34200000       6.68800000      24.20000000
 H      11.21900000       7.83000000      25.06300000
 O      16.82200000       9.25700000      23.21700000
 H      15.89500000       9.54300000      23.62000000
 H      16.69000000       8.45500000      22.59800000
 O      14.34900000      10.04900000      24.24600000
 H      13.54300000       9.44200000      23.99200000
 H      14.33400000      10.64900000      23.39400000
 O      14.83500000       7.01300000      22.77800000
 H      14.63600000       6.96000000      23.72600000
 H      13.99800000       6.77200000      22.38300000
 O      11.84000000       9.66600000      22.27700000
 H      10.95600000       9.53000000      21.84600000
 H      12.47000000       9.29000000      21.53900000
 O      17.36500000       3.90200000      25.25100000
 H      17.93000000       3.85900000      24.48200000
 H      17.41300000       4.76800000      25.65200000
 O      12.63400000       5.59400000      23.87200000
 H      12.15400000       5.02300000      23.30000000
 H      13.03400000       4.94800000      24.49600000
