27
XYZ file of cluster: frame_6000_9ff97.84be8.9b956 - created by MolEdiTo
 O      19.08900000      15.58400000      17.42000000
 H      19.61500000      16.18000000      16.94500000
 H      19.63500000      15.44200000      18.19100000
 O      18.76300000      17.41200000      14.52100000
 H      18.54500000      16.43600000      14.70100000
 H      18.66300000      17.54300000      13.54900000
 O      14.58600000      12.07300000      16.63900000
 H      15.46100000      11.91600000      16.36000000
 H      13.97200000      11.92700000      15.86500000
 O      18.66500000      14.21800000      14.35300000
 H      19.06800000      14.33900000      15.17600000
 H      19.15400000      13.57300000      14.00400000
 O      16.52700000      13.00500000      19.76200000
 H      17.10700000      13.03000000      18.98100000
 H      15.89600000      13.73100000      19.55200000
 O      14.20200000      15.51800000      16.36500000
 H      14.61300000      14.95400000      15.72800000
 H      14.50500000      15.19600000      17.26500000
 O      17.75600000      12.57800000      17.24000000
 H      18.36700000      13.42800000      17.08500000
 H      18.35600000      11.82700000      17.34900000
 O      15.15200000      17.87900000      15.00100000
 H      14.72100000      17.60400000      15.84700000
 H      15.52200000      17.04000000      14.64200000
 O      19.17800000      18.21600000      19.33200000
 H      18.80900000      17.58700000      20.02200000
 H      19.97900000      18.61100000      19.68800000
