141
XYZ file of cluster: frame_9000_74b71.1da7d.9cab1 - created by MolEdiTo
 O      25.25100000      12.15700000      26.68600000
 H      25.30400000      11.21400000      26.49400000
 H      24.45300000      12.28000000      27.16400000
 O      23.62700000      10.95300000      29.57400000
 H      23.92600000      10.06000000      29.10800000
 H      24.46800000      11.36400000      29.85100000
 O      23.95300000      15.10800000      24.55500000
 H      24.23000000      15.62900000      25.40100000
 H      23.15200000      15.56200000      24.17500000
 O      20.40700000      15.12000000      23.75300000
 H      20.81400000      15.79500000      23.12200000
 H      19.56400000      15.56900000      23.93700000
 O      20.53000000      12.54500000      22.68500000
 H      20.18200000      12.15400000      23.54100000
 H      20.76400000      13.47500000      22.86900000
 O      15.22200000      11.26800000      27.71400000
 H      16.10000000      11.43900000      28.10100000
 H      15.20600000      10.29800000      27.51700000
 O      21.81300000       8.68100000      29.66000000
 H      22.14200000       9.61700000      29.56900000
 H      21.20700000       8.62600000      30.49600000
 O      16.50400000       8.65300000      28.28500000
 H      17.29600000       8.16100000      27.88900000
 H      16.94100000       9.37700000      28.88300000
 O      17.92300000      12.72200000      28.23600000
 H      17.44800000      13.50700000      28.60400000
 H      18.43900000      12.99800000      27.48900000
 O      22.51900000       7.39600000      27.41700000
 H      23.05100000       7.98200000      26.84700000
 H      22.62500000       7.87100000      28.37400000
 O      21.66300000       8.93700000      24.14900000
 H      22.59400000       8.82100000      24.60400000
 H      21.08100000       8.93600000      24.90300000
 O      17.69700000      13.54200000      25.20500000
 H      16.89500000      13.05500000      25.52700000
 H      17.53300000      14.49900000      25.42200000
 O      25.08200000      16.48800000      28.01300000
 H      25.54500000      16.09300000      27.24500000
 H      24.36700000      15.83000000      28.20300000
 O      16.69900000       8.09800000      24.07500000
 H      17.43400000       7.70600000      24.58600000
 H      16.84600000       9.07800000      24.07100000
 O      20.58400000      13.18200000      29.66500000
 H      19.99800000      13.97500000      29.75000000
 H      20.59400000      12.81000000      30.59500000
 O      25.77200000      10.13800000      24.75000000
 H      26.68500000       9.80400000      24.51200000
 H      25.51000000      10.84400000      24.10900000
 O      20.20600000       6.18200000      25.27500000
 H      21.07200000       6.66800000      25.43900000
 H      19.53800000       6.92700000      25.36100000
 O      25.37600000       7.14000000      25.75500000
 H      25.03100000       6.36000000      25.24000000
 H      26.14900000       6.76100000      26.25300000
 O      17.45800000      10.42000000      30.42200000
 H      17.45400000      10.93700000      31.24100000
 H      18.05200000      11.05000000      29.88500000
 O      15.21000000       7.05800000      27.95200000
 H      14.96200000       7.41800000      27.02700000
 H      15.74900000       7.77700000      28.34500000
 O      24.58600000       7.61300000      20.69900000
 H      25.32400000       6.99600000      20.60000000
 H      24.88900000       8.23500000      21.48200000
 O      23.95500000       4.77200000      24.63600000
 H      24.01600000       3.85300000      25.10900000
 H      23.37100000       5.36800000      25.22000000
 O      25.12300000      12.35400000      23.40200000
 H      24.76000000      12.85700000      24.14100000
 H      24.34800000      11.98300000      22.90300000
 O      19.33200000      10.60000000      25.51100000
 H      19.14800000      11.48200000      25.77000000
 H      19.04000000      10.67300000      24.59000000
 O      26.28100000       9.06900000      21.60000000
 H      26.85400000       9.75500000      21.17000000
 H      25.71800000       9.58900000      22.16800000
 O      26.18400000      14.41400000      21.67200000
 H      26.05300000      14.84400000      22.57300000
 H      25.94200000      13.57100000      22.00400000
 O      22.49900000      15.30900000      27.07400000
 H      21.62600000      15.28200000      27.40300000
 H      22.57200000      14.36200000      26.83700000
 O      25.17300000       9.38200000      22.47300000
 H      25.13800000       9.62100000      23.46000000
 H      24.70500000      10.15900000      22.05000000
 O      15.97600000      14.85600000      28.75900000
 H      16.26600000      15.72600000      28.44200000
 H      15.03700000      14.84000000      28.42100000
 O      19.35500000       5.91700000      30.07100000
 H      19.21700000       6.31700000      30.91400000
 H      18.60300000       6.14000000      29.48100000
 O      16.86700000       7.26100000      21.37600000
 H      17.54800000       7.72000000      20.80700000
 H      16.97600000       7.49000000      22.33000000
 O      19.26800000       7.67900000      28.25600000
 H      19.91300000       7.06200000      28.72500000
 H      19.51200000       8.49700000      28.69400000
 O      20.21200000       5.10300000      20.43600000
 H      20.38300000       4.75400000      21.38700000
 H      19.86100000       6.01800000      20.54700000
 O      18.81800000       7.34800000      20.77200000
 H      18.68800000       8.37400000      20.47000000
 H      19.65700000       7.39000000      21.24700000
 O      25.78100000      12.72100000      30.01300000
 H      25.13300000      13.46700000      30.34100000
 H      26.69500000      13.05400000      30.02700000
 O      26.45000000      13.49400000      25.29700000
 H      26.38400000      13.01000000      24.43500000
 H      25.74000000      13.00900000      25.78800000
 O      19.46700000      13.23600000      21.27700000
 H      19.25700000      12.43400000      20.82600000
 H      19.79200000      13.03300000      22.20200000
 O      17.99200000      10.85500000      22.92400000
 H      18.54700000      10.68700000      22.10800000
 H      17.73500000      11.84500000      22.94100000
 O      23.15600000      11.42200000      21.74500000
 H      22.30000000      11.06100000      22.10600000
 H      23.01200000      11.94700000      20.92400000
 O      21.94400000       7.78600000      21.57400000
 H      22.92400000       7.62200000      21.44800000
 H      21.92000000       8.47900000      22.28100000
 O      21.43400000       4.94300000      28.66600000
 H      20.48700000       5.14000000      28.93300000
 H      21.77000000       5.65100000      28.14700000
 O      18.29100000      15.65200000      20.59700000
 H      18.67400000      16.11100000      21.26200000
 H      18.59100000      14.71600000      20.64900000
 O      21.95300000      12.30400000      27.39900000
 H      21.31900000      12.66100000      28.11800000
 H      22.28800000      11.56600000      27.87200000
 O      26.12800000      14.96700000      29.31800000
 H      25.66300000      15.71800000      28.85400000
 H      27.05200000      15.15700000      29.55800000
 O      25.13800000       8.46700000      28.61600000
 H      25.82500000       8.88600000      29.18400000
 H      25.19100000       8.65500000      27.65200000
 O      24.36200000       8.70900000      25.49300000
 H      25.24300000       8.86800000      25.05900000
 H      24.41200000       7.71600000      25.71000000
 O      18.96100000       7.91100000      25.58600000
 H      19.12400000       8.89700000      25.52400000
 H      19.19700000       7.74500000      26.57500000
