120
XYZ file of cluster: frame_9000_a1040.485d6.c4dcd - created by MolEdiTo
 O      21.08400000      20.69900000      27.12400000
 H      21.99800000      20.91900000      27.32800000
 H      21.02900000      20.21600000      26.16800000
 O      25.25100000      12.15700000      26.68600000
 H      25.30400000      11.21400000      26.49400000
 H      24.45300000      12.28000000      27.16400000
 O      23.62700000      10.95300000      29.57400000
 H      23.92600000      10.06000000      29.10800000
 H      24.46800000      11.36400000      29.85100000
 O      30.35600000      21.89200000      26.49900000
 H      30.19000000      20.95200000      26.51300000
 H      31.22300000      22.00300000      26.95500000
 O      28.54200000      16.32100000      30.83000000
 H      27.88400000      16.76200000      31.44600000
 H      28.79400000      15.46300000      31.25400000
 O      29.91400000      11.20300000      25.67900000
 H      28.93500000      10.85100000      25.71200000
 H      29.91700000      11.58700000      26.59800000
 O      25.08200000      16.48800000      28.01300000
 H      25.54500000      16.09300000      27.24500000
 H      24.36700000      15.83000000      28.20300000
 O      25.61100000      19.53300000      27.82200000
 H      25.99100000      18.84900000      28.44600000
 H      26.32100000      20.13600000      27.44200000
 O      27.93700000      21.22300000      30.78700000
 H      28.25800000      20.32800000      30.93400000
 H      27.04600000      21.04600000      30.84700000
 O      30.60100000      13.44200000      27.53400000
 H      30.72300000      14.42000000      27.32500000
 H      29.63400000      13.38300000      27.64700000
 O      27.85900000      21.49800000      28.08000000
 H      27.51800000      21.50000000      28.99500000
 H      28.50300000      20.76100000      28.18600000
 O      30.10200000      19.95200000      29.15600000
 H      29.80500000      19.66900000      30.04000000
 H      30.89600000      20.63200000      29.27500000
 O      22.49900000      15.30900000      27.07400000
 H      21.62600000      15.28200000      27.40300000
 H      22.57200000      14.36200000      26.83700000
 O      26.23000000       9.96500000      30.90800000
 H      26.46200000       9.40200000      31.75700000
 H      26.49600000      10.82300000      31.14300000
 O      24.50300000      20.62200000      29.35200000
 H      24.10000000      21.42500000      28.98300000
 H      25.19000000      20.30600000      28.66600000
 O      22.36400000      18.57400000      29.88800000
 H      22.40900000      19.38100000      30.52600000
 H      22.80900000      18.88000000      29.05200000
 O      28.83000000      11.85200000      29.94100000
 H      28.90500000      11.29300000      29.15300000
 H      28.70600000      12.75400000      29.55900000
 O      28.86100000      17.26800000      27.92200000
 H      29.25300000      17.57100000      28.78600000
 H      29.34500000      17.70000000      27.24900000
 O      25.78100000      12.72100000      30.01300000
 H      25.13300000      13.46700000      30.34100000
 H      26.69500000      13.05400000      30.02700000
 O      21.95300000      12.30400000      27.39900000
 H      21.31900000      12.66100000      28.11800000
 H      22.28800000      11.56600000      27.87200000
 O      26.12800000      14.96700000      29.31800000
 H      25.66300000      15.71800000      28.85400000
 H      27.05200000      15.15700000      29.55800000
 O      27.87500000      13.30100000      27.59100000
 H      27.55200000      13.22600000      26.60400000
 H      27.02200000      13.69200000      27.90800000
 O      30.73300000      19.74600000      33.82700000
 H      30.83700000      20.69500000      33.84600000
 H      30.08800000      19.58200000      34.54100000
 O      30.14400000      16.71400000      36.55900000
 H      30.75200000      17.30700000      37.08600000
 H      30.68600000      15.98800000      36.23100000
 O      28.34200000      18.75000000      34.97100000
 H      28.64400000      18.37000000      35.80100000
 H      27.58100000      18.22700000      34.74700000
 O      24.00800000      16.23200000      33.01000000
 H      24.72200000      16.48700000      32.41200000
 H      23.32100000      16.96900000      32.99400000
 O      22.61700000      20.89900000      33.55000000
 H      22.70700000      21.45500000      32.72500000
 H      22.42100000      21.47500000      34.24800000
 O      24.71400000      17.77700000      37.62100000
 H      24.82600000      18.58700000      37.11900000
 H      24.70700000      18.09900000      38.53500000
 O      25.28800000      19.99400000      33.85100000
 H      24.60800000      19.31400000      34.03700000
 H      24.99200000      20.26600000      32.96400000
 O      22.33600000      12.37700000      36.21100000
 H      22.84600000      11.98500000      35.44600000
 H      22.23700000      13.30700000      36.00300000
 O      21.07600000      16.64400000      34.39900000
 H      20.64100000      16.45000000      33.52900000
 H      20.69500000      17.43500000      34.78500000
 O      25.94100000      13.25100000      35.58000000
 H      25.03300000      13.27900000      35.04200000
 H      25.69200000      14.05700000      36.09700000
 O      26.87600000      14.99200000      34.56400000
 H      26.26300000      14.25000000      34.68000000
 H      26.90300000      15.56700000      35.39100000
 O      22.46500000      15.21700000      36.10300000
 H      22.23200000      15.58900000      35.21200000
 H      22.84600000      16.03200000      36.64600000
 O      24.54900000      20.75400000      36.65400000
 H      24.26900000      21.44600000      36.04500000
 H      25.53800000      20.83000000      36.63600000
 O      26.12400000      17.77800000      33.56100000
 H      25.86500000      16.85100000      33.65900000
 H      25.32500000      18.35300000      33.39400000
 O      23.40400000      13.13000000      33.81900000
 H      22.69800000      13.64200000      33.34200000
 H      23.35000000      12.26500000      33.33600000
 O      29.11000000      10.06200000      36.49500000
 H      28.89100000      10.15500000      35.56400000
 H      28.52000000      10.73900000      36.86400000
 O      26.06500000      20.18600000      36.03700000
 H      26.83300000      19.63800000      35.69200000
 H      25.65900000      20.33800000      35.16600000
 O      27.33200000      11.93200000      36.80300000
 H      26.84400000      11.38500000      36.16100000
 H      26.83100000      12.75200000      36.77500000
