138
XYZ file of cluster: frame_9000_4bb8e.4d660.9b8e8 - created by MolEdiTo
 O      13.02700000      12.14600000      21.52600000
 H      13.99800000      12.25900000      21.14700000
 H      12.80100000      11.26300000      21.41500000
 O      10.17900000      15.10000000      22.75400000
 H      11.17500000      14.94500000      22.52600000
 H       9.83000000      15.57300000      21.91800000
 O      13.27100000      14.87700000      29.27000000
 H      12.54100000      15.47800000      29.44700000
 H      12.96100000      14.13400000      28.84800000
 O      20.40700000      15.12000000      23.75300000
 H      20.81400000      15.79500000      23.12200000
 H      19.56400000      15.56900000      23.93700000
 O      20.53000000      12.54500000      22.68500000
 H      20.18200000      12.15400000      23.54100000
 H      20.76400000      13.47500000      22.86900000
 O      15.22200000      11.26800000      27.71400000
 H      16.10000000      11.43900000      28.10100000
 H      15.20600000      10.29800000      27.51700000
 O      16.25400000      18.93200000      25.48500000
 H      15.30500000      19.11500000      25.38900000
 H      16.51400000      19.84400000      25.70200000
 O      13.52600000      19.87600000      23.38500000
 H      13.05700000      19.56500000      24.21700000
 H      12.85200000      19.55200000      22.69900000
 O      16.44000000      20.81200000      28.56800000
 H      15.91600000      21.26900000      27.86600000
 H      15.79800000      20.62000000      29.30800000
 O      17.92300000      12.72200000      28.23600000
 H      17.44800000      13.50700000      28.60400000
 H      18.43900000      12.99800000      27.48900000
 O      17.69700000      13.54200000      25.20500000
 H      16.89500000      13.05500000      25.52700000
 H      17.53300000      14.49900000      25.42200000
 O      20.36300000      18.06100000      22.59000000
 H      21.31200000      17.91400000      22.31300000
 H      20.18900000      18.99500000      22.22000000
 O      12.63600000      16.10000000      25.55000000
 H      13.04700000      16.02700000      24.65100000
 H      13.24500000      15.68800000      26.19900000
 O      20.58400000      13.18200000      29.66500000
 H      19.99800000      13.97500000      29.75000000
 H      20.59400000      12.81000000      30.59500000
 O      17.45800000      10.42000000      30.42200000
 H      17.45400000      10.93700000      31.24100000
 H      18.05200000      11.05000000      29.88500000
 O      15.38800000      16.10400000      20.51000000
 H      16.39600000      16.11100000      20.41300000
 H      15.34200000      16.66400000      21.27100000
 O      13.34600000      16.75700000      22.93300000
 H      12.46800000      17.06900000      23.12700000
 H      13.13300000      16.47600000      21.90700000
 O      14.51000000      20.41300000      30.85700000
 H      14.27900000      19.60800000      31.32600000
 H      13.90300000      21.06700000      31.34200000
 O      19.33200000      10.60000000      25.51100000
 H      19.14800000      11.48200000      25.77000000
 H      19.04000000      10.67300000      24.59000000
 O       9.89700000      10.78000000      21.47600000
 H       9.84300000      10.60800000      22.40200000
 H      10.57200000      10.16700000      21.22200000
 O      18.73500000      18.75700000      28.80300000
 H      18.72200000      18.94500000      29.75100000
 H      18.09700000      19.40600000      28.48900000
 O      15.97600000      14.85600000      28.75900000
 H      16.26600000      15.72600000      28.44200000
 H      15.03700000      14.84000000      28.42100000
 O      19.70200000      15.86100000      28.85800000
 H      20.55900000      16.04600000      29.22900000
 H      19.53700000      16.59000000      28.21500000
 O      11.08800000      21.45000000      27.45500000
 H      10.61100000      21.53300000      26.53400000
 H      10.53300000      20.89200000      27.99400000
 O      10.45900000      11.24900000      26.74700000
 H      10.48300000      12.26100000      26.76800000
 H       9.70700000      11.08000000      27.40400000
 O      20.22900000      17.17400000      26.04200000
 H      21.20500000      17.27100000      25.75100000
 H      19.87800000      18.10600000      26.21000000
 O      11.65900000      19.38600000      29.74700000
 H      11.21000000      19.86300000      29.05500000
 H      12.49100000      19.80800000      30.01000000
 O      13.02900000      12.61100000      27.69200000
 H      12.45800000      12.09300000      27.09900000
 H      13.92600000      12.12100000      27.48800000
 O      14.13900000      21.19300000      27.07300000
 H      13.74200000      22.05600000      26.73900000
 H      13.33400000      20.87600000      27.47000000
 O      16.69100000      17.23500000      27.58200000
 H      16.65800000      17.98400000      26.86000000
 H      17.27600000      17.63700000      28.21700000
 O      11.48600000      16.57200000      30.17200000
 H      11.82100000      17.51200000      30.43400000
 H      10.59000000      16.63000000      30.63900000
 O      12.63200000      12.31500000      24.18300000
 H      12.89600000      12.40900000      23.27100000
 H      12.42200000      11.40500000      24.35600000
 O      12.77600000      15.80000000      21.53700000
 H      12.63300000      14.89100000      21.23800000
 H      13.57700000      15.99000000      21.01500000
 O      16.25100000      17.14100000      22.17600000
 H      15.43400000      17.24900000      22.71900000
 H      16.86700000      16.73500000      22.76900000
 O      20.05800000      20.38500000      20.70500000
 H      19.30700000      20.88500000      20.29100000
 H      19.94600000      20.80900000      21.51600000
 O      19.46700000      13.23600000      21.27700000
 H      19.25700000      12.43400000      20.82600000
 H      19.79200000      13.03300000      22.20200000
 O      17.99200000      10.85500000      22.92400000
 H      18.54700000      10.68700000      22.10800000
 H      17.73500000      11.84500000      22.94100000
 O      12.43500000      19.70800000      21.66200000
 H      13.12400000      20.44800000      21.48400000
 H      12.77600000      18.95400000      21.13100000
 O      15.15400000      11.71400000      24.60900000
 H      15.31900000      11.32600000      25.45400000
 H      14.22300000      12.07900000      24.62600000
 O      18.29100000      15.65200000      20.59700000
 H      18.67400000      16.11100000      21.26200000
 H      18.59100000      14.71600000      20.64900000
 O      17.90000000      17.04800000      24.51100000
 H      17.24200000      17.73700000      24.82700000
 H      18.72900000      17.13800000      25.04300000
 O      10.56200000      13.79200000      26.36400000
 H      10.45800000      13.89900000      25.39900000
 H      10.60200000      14.68700000      26.77800000
 O      20.60000000      20.03200000      24.49900000
 H      20.29400000      20.86300000      24.06300000
 H      20.42100000      19.36200000      23.84400000
 O      11.98100000      18.70500000      25.62400000
 H      12.33800000      17.75500000      25.49900000
 H      11.31100000      18.66900000      26.37100000
 O      12.66100000      10.05700000      29.36200000
 H      12.92600000      10.76900000      28.64900000
 H      13.47300000      10.05600000      29.93900000
 O      15.98600000      20.14300000      22.06100000
 H      15.26900000      20.18500000      22.72000000
 H      16.10600000      19.14700000      21.84900000
