153
XYZ file of cluster: frame_9000_71a24.c1e96.4c536 - created by MolEdiTo
 O      23.95100000      28.69400000      19.44800000
 H      23.63700000      29.31100000      20.14400000
 H      23.09400000      28.46800000      18.97500000
 O      22.48300000      26.73100000      12.20100000
 H      21.74500000      26.16400000      11.91800000
 H      22.12400000      27.28400000      12.92600000
 O      17.75700000      30.57300000      18.96300000
 H      17.43100000      30.29300000      19.86300000
 H      18.44400000      31.30400000      19.09200000
 O      21.28800000      29.61900000      16.11100000
 H      21.92000000      28.90500000      16.43900000
 H      20.41900000      29.16600000      16.32500000
 O      25.25300000      25.86600000      18.85700000
 H      25.56400000      25.82300000      17.83800000
 H      24.68100000      26.67600000      18.89400000
 O      25.97900000      30.49900000      21.45800000
 H      25.13800000      30.58000000      21.01400000
 H      25.83100000      29.68100000      21.93100000
 O      25.95300000      25.81000000      16.44100000
 H      26.64800000      25.19400000      16.27400000
 H      26.50600000      26.60100000      16.61300000
 O      16.97600000      27.35800000      17.50400000
 H      16.73200000      26.39600000      17.36200000
 H      16.32300000      27.74900000      18.14500000
 O      21.65100000      30.42700000      18.81200000
 H      21.38700000      31.32700000      18.65300000
 H      20.99300000      29.90300000      18.36500000
 O      16.35400000      27.06900000      12.53400000
 H      15.76600000      27.65400000      12.02200000
 H      16.41900000      27.48200000      13.42100000
 O      23.92200000      29.25900000      14.48000000
 H      24.20000000      28.72500000      15.26900000
 H      24.78500000      29.83500000      14.33400000
 O      15.95300000      30.05300000      21.13300000
 H      15.18100000      30.57800000      21.41400000
 H      16.40500000      30.03800000      21.96600000
 O      19.82900000      28.54100000      18.28600000
 H      18.88700000      28.44700000      18.11400000
 H      19.95200000      28.23900000      19.22400000
 O      18.05100000      30.12600000      11.04300000
 H      18.43800000      29.96200000      11.92000000
 H      18.11800000      29.28700000      10.54600000
 O      19.05100000      27.59700000      15.61100000
 H      18.96500000      26.98100000      14.83000000
 H      18.22100000      27.50000000      16.07900000
 O      19.60800000      29.24900000      13.23900000
 H      20.04100000      29.79000000      14.00700000
 H      19.81400000      28.25800000      13.41600000
 O      21.13900000      27.87500000      20.73500000
 H      21.40500000      27.12200000      21.31400000
 H      21.32600000      28.73000000      21.26100000
 O      22.80700000      29.93300000      12.16100000
 H      22.82800000      29.57200000      13.08500000
 H      23.51400000      29.49600000      11.66100000
 O      25.68600000      27.49600000      21.77400000
 H      25.93000000      26.62000000      22.18500000
 H      25.63900000      27.30400000      20.78700000
 O      26.67100000      29.18600000      19.32200000
 H      25.98200000      29.79600000      19.63000000
 H      26.49300000      28.85400000      18.35300000
 O      23.41300000      27.21100000      16.21900000
 H      24.28200000      26.81500000      15.91100000
 H      22.99600000      26.51700000      16.73800000
 O      26.31300000      30.16400000      11.91000000
 H      25.90900000      29.28600000      12.00200000
 H      26.09500000      30.50700000      10.98600000
 O      26.51900000      28.20700000      16.13700000
 H      25.94300000      29.00600000      16.22500000
 H      27.36000000      28.47600000      15.75800000
 O      26.11600000      30.51800000      16.03600000
 H      26.87100000      31.18100000      16.14000000
 H      25.35900000      30.89600000      16.64700000
 O      16.83400000      29.21600000      14.67200000
 H      17.74200000      29.50400000      14.38200000
 H      16.63100000      29.73000000      15.45100000
 O      25.18000000      27.43700000      11.95300000
 H      25.88200000      26.76000000      12.00700000
 H      24.39100000      26.88200000      12.22400000
 O      25.16100000      34.90300000      14.17400000
 H      24.89000000      35.83500000      14.05700000
 H      24.86800000      34.58700000      13.27600000
 O      21.15500000      36.90100000      18.47500000
 H      21.78500000      37.01600000      17.77000000
 H      21.58600000      37.13000000      19.29800000
 O      22.89100000      36.35900000      16.08900000
 H      23.23900000      36.99700000      15.38200000
 H      22.96800000      35.38700000      15.84400000
 O      19.23700000      34.41300000      19.67500000
 H      19.63300000      34.52600000      18.76900000
 H      19.52700000      35.20500000      20.22400000
 O      19.46100000      35.93700000      13.94600000
 H      18.54000000      36.15500000      13.93300000
 H      19.76200000      36.66100000      13.36800000
 O      25.12500000      37.33300000      17.24900000
 H      24.89100000      38.13700000      17.82700000
 H      24.24600000      36.87600000      17.13500000
 O      20.54700000      34.19200000      17.34500000
 H      20.04500000      33.98500000      16.57000000
 H      21.25000000      34.59900000      16.80100000
 O      22.50200000      33.80900000      15.29000000
 H      21.89100000      32.99500000      15.32800000
 H      23.27300000      33.46800000      14.79000000
 O      19.18800000      32.47600000      21.22600000
 H      19.26500000      32.99800000      20.36900000
 H      18.35800000      32.83400000      21.73900000
 O      16.18900000      35.69100000      16.97400000
 H      16.29200000      35.44200000      16.08100000
 H      15.97200000      36.69800000      16.85300000
 O      23.00200000      32.88700000      21.15500000
 H      22.66800000      33.56400000      21.81800000
 H      22.30800000      33.00100000      20.47100000
 O      26.21200000      35.09800000      15.99200000
 H      25.41000000      35.14100000      15.32500000
 H      25.86000000      35.47800000      16.83000000
 O      24.08100000      34.11300000      11.65800000
 H      23.27500000      34.58400000      11.23200000
 H      23.64400000      33.22000000      11.82800000
 O      17.76300000      33.34900000      16.36600000
 H      17.32800000      34.20100000      16.61300000
 H      17.59400000      32.77000000      17.14800000
 O      25.58800000      35.78700000      21.04700000
 H      26.38200000      35.78800000      20.46400000
 H      25.64900000      34.87900000      21.42100000
 O      24.18800000      33.01300000      17.67700000
 H      23.90600000      32.79200000      18.62900000
 H      23.52700000      32.71900000      17.02200000
 O      20.86700000      32.51500000       9.95600000
 H      21.31000000      32.46900000      10.78600000
 H      19.87300000      32.54700000      10.25000000
 O      21.23500000      34.16800000      12.33400000
 H      21.49600000      33.40600000      12.83600000
 H      20.80100000      34.80100000      12.92300000
 O      20.21200000      36.82300000      20.43600000
 H      20.38300000      36.47400000      21.38700000
 H      19.86100000      37.73800000      20.54700000
 O      26.40100000      35.32200000      12.64700000
 H      26.47900000      35.44900000      13.59700000
 H      25.46800000      35.09700000      12.37300000
 O      16.33100000      33.17400000      13.10600000
 H      16.50600000      32.34700000      13.63600000
 H      17.01000000      33.03000000      12.39900000
 O      15.43500000      35.94600000      13.80400000
 H      15.72700000      35.02200000      13.76000000
 H      14.56700000      36.01200000      13.26500000
 O      16.00100000      35.00600000      20.51800000
 H      16.25400000      34.70800000      19.67200000
 H      16.88600000      34.94700000      20.94800000
 O      23.30800000      37.07800000      20.29700000
 H      24.12100000      36.44900000      20.30900000
 H      22.88000000      36.82500000      21.12900000
 O      26.08100000      36.46800000      18.71900000
 H      26.56000000      37.26600000      18.91300000
 H      25.28100000      36.90500000      18.34300000
