105
XYZ file of cluster: frame_9000_7875a.c4b0b.c4d50 - created by MolEdiTo
 O      23.78100000      27.50000000      27.70900000
 H      23.88700000      26.80200000      27.08800000
 H      22.90700000      27.88200000      27.63200000
 O      23.52100000      30.28600000      29.59100000
 H      24.53600000      29.98000000      29.51600000
 H      23.13000000      29.64200000      30.22600000
 O      18.49700000      29.79000000      27.66800000
 H      18.69600000      30.36900000      28.43600000
 H      19.31900000      29.30100000      27.57500000
 O      20.31200000      26.26600000      27.79100000
 H      20.98000000      25.55500000      27.65700000
 H      20.88600000      27.12300000      27.72100000
 O      21.28600000      29.00800000      27.57500000
 H      21.13000000      29.48700000      26.69400000
 H      21.71900000      29.75300000      28.10100000
 O      16.51700000      27.62600000      26.72400000
 H      15.73700000      27.94600000      27.19600000
 H      16.25100000      26.73200000      26.39700000
 O      26.10300000      29.24500000      28.74900000
 H      26.39300000      29.75500000      27.98800000
 H      25.62700000      28.41400000      28.42600000
 O      19.43200000      28.41300000      35.45200000
 H      20.06400000      27.90800000      35.96600000
 H      18.52800000      28.11500000      35.80900000
 O      21.30000000      26.82300000      33.05300000
 H      22.16400000      27.39300000      32.90200000
 H      20.89100000      27.22000000      33.77800000
 O      15.66700000      30.75400000      34.98800000
 H      16.71000000      30.56400000      35.05600000
 H      15.67100000      31.72000000      34.69600000
 O      23.48800000      28.59300000      33.79200000
 H      24.38000000      28.24300000      33.50700000
 H      23.74200000      29.04000000      34.65200000
 O      18.19700000      30.16600000      33.33600000
 H      18.58800000      31.00000000      33.00600000
 H      18.80200000      29.70600000      33.98000000
 O      23.42800000      29.63400000      36.98400000
 H      22.55100000      29.61000000      37.37700000
 H      24.05800000      30.08100000      37.62200000
 O      16.84900000      27.78100000      33.82200000
 H      16.33600000      27.60200000      33.04000000
 H      17.22300000      28.69000000      33.72900000
 O      25.52800000      26.81300000      32.87600000
 H      25.63800000      26.37100000      31.96700000
 H      25.51300000      25.99300000      33.50000000
 O      26.03500000      29.04300000      33.99600000
 H      25.81900000      28.61900000      34.85000000
 H      25.53900000      28.36300000      33.39700000
 O      25.72500000      27.53100000      35.78100000
 H      25.75700000      26.58600000      35.37800000
 H      25.23300000      27.32000000      36.53900000
 O      26.42900000      33.38200000      29.86800000
 H      26.03300000      32.51900000      29.70100000
 H      26.21000000      33.63800000      30.79100000
 O      26.07500000      35.58700000      28.93700000
 H      26.55400000      34.74300000      28.90300000
 H      25.08800000      35.32100000      28.84500000
 O      18.84400000      35.81900000      26.82700000
 H      18.25100000      35.89900000      26.09400000
 H      19.62200000      36.17400000      26.41700000
 O      15.92000000      34.21400000      29.95700000
 H      15.75400000      34.37300000      29.06400000
 H      16.87000000      33.94100000      29.81600000
 O      21.43400000      36.66300000      28.66600000
 H      20.48700000      36.86000000      28.93300000
 H      21.77000000      37.37100000      28.14700000
 O      20.73500000      33.28400000      26.20100000
 H      19.95800000      33.29500000      25.67500000
 H      20.47000000      33.69100000      27.02100000
 O      23.48600000      34.48400000      28.35200000
 H      22.80500000      35.10300000      28.79300000
 H      23.36100000      33.56500000      28.86000000
 O      23.92500000      33.77100000      25.88400000
 H      24.67200000      33.34500000      26.31500000
 H      23.49000000      34.16700000      26.63700000
 O      18.74300000      33.89000000      29.09500000
 H      19.23000000      34.29500000      29.82000000
 H      18.78700000      34.51400000      28.28100000
 O      22.81300000      33.15800000      34.72500000
 H      23.57500000      33.11700000      35.40400000
 H      23.09900000      32.46600000      34.08400000
 O      20.72000000      33.97200000      33.49100000
 H      21.49500000      33.63500000      33.99500000
 H      20.96900000      34.85700000      33.15900000
 O      24.90100000      35.82200000      33.45800000
 H      25.17700000      35.50900000      32.59700000
 H      25.62300000      35.39100000      33.99900000
 O      22.23200000      36.36900000      34.09600000
 H      23.14900000      36.12800000      33.90300000
 H      22.11000000      35.65500000      34.85200000
 O      18.89400000      33.20700000      36.45900000
 H      19.47000000      32.39300000      36.42300000
 H      18.10000000      32.83800000      36.86500000
 O      19.08600000      35.96100000      35.21600000
 H      19.22500000      35.14300000      35.71100000
 H      19.92800000      36.08400000      34.74500000
 O      21.25800000      34.71400000      36.74700000
 H      21.62300000      34.44700000      37.63500000
 H      20.58200000      33.99300000      36.54400000
 O      25.88800000      33.87100000      34.60900000
 H      26.66800000      33.69100000      35.21000000
 H      25.62600000      32.91700000      34.67200000
 O      15.73900000      35.39500000      36.30900000
 H      16.56900000      35.82000000      36.37900000
 H      15.44200000      35.58800000      35.41600000
