120
XYZ file of cluster: frame_9000_23d03.201e5.c2b75 - created by MolEdiTo
 O       8.83800000       6.34000000      27.64000000
 H       8.87400000       5.49100000      28.15300000
 H       9.25400000       7.05700000      28.15300000
 O      13.27100000      14.87700000      29.27000000
 H      12.54100000      15.47800000      29.44700000
 H      12.96100000      14.13400000      28.84800000
 O      15.22200000      11.26800000      27.71400000
 H      16.10000000      11.43900000      28.10100000
 H      15.20600000      10.29800000      27.51700000
 O      10.72900000       7.44900000      28.34000000
 H      11.05000000       8.28300000      28.74100000
 H      10.41400000       7.81700000      27.43100000
 O      11.75700000       5.95100000      26.51900000
 H      11.75400000       6.45100000      27.35800000
 H      10.81200000       5.92800000      26.22100000
 O       5.95000000      13.96100000      28.54800000
 H       6.49600000      13.58700000      27.85700000
 H       5.23500000      14.40500000      28.04600000
 O       5.49300000       7.23500000      28.88600000
 H       4.59100000       7.62700000      28.96400000
 H       5.38300000       6.35200000      28.37700000
 O      15.21000000       7.05800000      27.95200000
 H      14.96200000       7.41800000      27.02700000
 H      15.74900000       7.77700000      28.34500000
 O       6.27300000      15.83600000      30.85500000
 H       6.03400000      15.37600000      30.00000000
 H       6.38400000      15.15500000      31.59400000
 O       7.75600000       8.77700000      26.19400000
 H       7.84300000       9.25200000      27.02900000
 H       6.78100000       8.64000000      26.06600000
 O      15.97600000      14.85600000      28.75900000
 H      16.26600000      15.72600000      28.44200000
 H      15.03700000      14.84000000      28.42100000
 O      10.45900000      11.24900000      26.74700000
 H      10.48300000      12.26100000      26.76800000
 H       9.70700000      11.08000000      27.40400000
 O       8.32000000      10.42400000      28.42100000
 H       8.63600000       9.87300000      29.18800000
 H       7.50500000      10.98800000      28.64500000
 O      13.02900000      12.61100000      27.69200000
 H      12.45800000      12.09300000      27.09900000
 H      13.92600000      12.12100000      27.48800000
 O      13.90100000       9.06000000      26.64700000
 H      13.95700000       8.24200000      26.03300000
 H      14.12600000       8.74000000      27.56200000
 O       9.75300000       9.69900000      30.67800000
 H      10.59500000      10.07100000      30.32900000
 H      10.04400000       9.33300000      31.51300000
 O      10.56200000      13.79200000      26.36400000
 H      10.45800000      13.89900000      25.39900000
 H      10.60200000      14.68700000      26.77800000
 O      12.66100000      10.05700000      29.36200000
 H      12.92600000      10.76900000      28.64900000
 H      13.47300000      10.05600000      29.93900000
 O       5.50700000      11.05000000      29.01800000
 H       5.13800000      11.72000000      28.36200000
 H       4.86100000      10.62900000      29.56000000
 O      12.30800000       6.31100000      37.34500000
 H      11.89100000       5.93800000      36.52700000
 H      12.65000000       5.52900000      37.70600000
 O      12.10100000       9.29800000      36.55400000
 H      12.07700000      10.04800000      35.93400000
 H      11.24600000       9.43900000      37.02500000
 O       5.51900000      13.95600000      37.47200000
 H       5.59700000      14.41700000      38.29300000
 H       4.68600000      14.36400000      36.99100000
 O      13.99400000      13.91600000      35.46800000
 H      14.48600000      13.89000000      36.33100000
 H      14.62800000      13.42100000      34.88300000
 O      10.41400000      15.05600000      36.72300000
 H       9.93400000      14.29800000      37.16200000
 H      10.02700000      15.14200000      35.80500000
 O       9.48700000       7.04000000      33.59500000
 H       9.56100000       7.78900000      34.25800000
 H      10.39800000       6.95800000      33.18900000
 O      12.77200000      16.30200000      35.73200000
 H      11.91100000      15.96500000      36.16000000
 H      13.18700000      15.38100000      35.50100000
 O       5.55200000      11.18800000      34.17300000
 H       6.35700000      10.64900000      34.09100000
 H       4.99500000      10.89800000      34.94200000
 O      10.15100000       5.29700000      35.84500000
 H       9.53700000       4.63000000      36.27900000
 H      10.08900000       5.10500000      34.85400000
 O      15.58900000       6.77600000      34.78700000
 H      16.34100000       6.18200000      34.59100000
 H      14.81000000       6.24500000      34.49500000
 O      15.16700000      13.61800000      32.87300000
 H      14.34700000      13.98100000      32.64300000
 H      15.73800000      13.68700000      32.03500000
 O      12.66300000       7.50900000      34.20700000
 H      13.25500000       8.28400000      34.11900000
 H      12.65800000       7.51800000      35.16200000
 O      11.63200000      12.52100000      35.61600000
 H      12.45000000      12.62400000      35.00400000
 H      11.74200000      13.23600000      36.27600000
 O      13.25800000       5.79800000      32.77500000
 H      12.36200000       5.30400000      32.77500000
 H      13.03600000       6.75500000      32.93300000
 O       9.28400000       7.63900000      35.78100000
 H      10.11200000       8.01800000      36.27200000
 H       9.26600000       6.69600000      36.14500000
 O      14.80200000      10.20200000      35.84400000
 H      14.07900000      10.20600000      36.50200000
 H      15.48000000      10.50400000      36.43300000
 O       7.06600000       4.86300000      33.03600000
 H       7.28000000       5.58100000      33.71500000
 H       6.60600000       4.17300000      33.55000000
 O      14.96300000       7.20000000      37.43600000
 H      15.24100000       7.09000000      36.49900000
 H      14.02600000       7.13000000      37.48000000
 O      14.45900000       9.60700000      33.22000000
 H      15.32400000       9.60600000      32.79000000
 H      14.67400000       9.77800000      34.23400000
 O       6.21300000       8.72000000      36.79000000
 H       6.42000000       8.04700000      36.13900000
 H       5.44100000       9.29100000      36.47100000
 O       6.63300000       7.15200000      33.44500000
 H       6.56700000       7.48900000      32.50500000
 H       7.58500000       7.30900000      33.60900000
