157
XYZ file of cluster: frame_9000_47be6.25544.225a4 - created by MolEdiTo
 O      12.30800000       6.31100000       5.49900000
 H      11.89100000       5.93800000       4.68100000
 H      12.65000000       5.52900000       5.86000000
 O      19.45500000      14.09900000       6.18000000
 H      19.06900000      14.72100000       6.77500000
 H      19.95400000      14.60500000       5.54900000
 O      15.94500000      11.00100000      10.87600000
 H      15.23400000      10.91900000      11.55300000
 H      16.73000000      10.44300000      11.11000000
 O      17.86700000      11.61100000      16.46200000
 H      17.60900000      10.89000000      17.04000000
 H      18.19600000      11.16900000      15.59700000
 O      15.62600000      14.41300000       8.35400000
 H      15.70000000      13.81900000       7.60300000
 H      15.85100000      15.25600000       7.94800000
 O      21.60900000      10.87300000      13.02400000
 H      20.71200000      10.78700000      12.64500000
 H      21.83300000      11.83400000      12.99700000
 O      18.78200000      10.46300000      13.91700000
 H      18.46100000      11.34000000      13.50800000
 H      18.47400000       9.73400000      13.37600000
 O      19.82400000      11.58000000       4.76500000
 H      20.76500000      11.79200000       4.48100000
 H      19.48100000      12.31700000       5.34300000
 O      16.02600000      14.06600000      10.73500000
 H      15.74200000      14.23600000       9.77900000
 H      15.41600000      13.38000000      10.95100000
 O      13.83600000      11.61000000      15.00200000
 H      14.19500000      12.22800000      14.24100000
 H      13.20200000      11.17300000      14.51100000
 O      14.28600000       6.94000000       8.44500000
 H      14.53200000       7.90000000       8.43100000
 H      14.60400000       6.61300000       7.58700000
 O      17.90800000       7.49900000       5.28200000
 H      17.04100000       7.92600000       5.49400000
 H      17.88400000       6.73400000       5.85500000
 O      18.29400000      12.76600000      12.34800000
 H      18.79500000      12.71100000      11.46700000
 H      17.47100000      13.24300000      12.07000000
 O      14.45900000       8.41900000      15.37300000
 H      14.92500000       8.74400000      16.16700000
 H      13.56600000       8.45300000      15.71300000
 O      15.72100000       7.59600000      12.80200000
 H      15.11700000       7.79900000      13.60600000
 H      15.05800000       6.99900000      12.34600000
 O      15.20900000       6.32700000      10.36900000
 H      15.89300000       6.02700000       9.70000000
 H      14.63800000       6.95700000       9.70100000
 O      17.60900000       8.67600000      16.88100000
 H      17.76000000       8.71600000      15.90600000
 H      18.25500000       7.98400000      17.21700000
 O      12.69600000      15.06800000       7.62800000
 H      11.75400000      15.14300000       7.69300000
 H      12.83300000      14.35100000       8.26600000
 O      21.02100000      16.21400000       9.12300000
 H      20.06300000      15.90000000       9.23000000
 H      21.67800000      15.52500000       9.32900000
 O      17.93600000       7.61400000      10.34000000
 H      17.17700000       7.12100000      10.62000000
 H      18.34100000       7.15000000       9.57000000
 O      14.20100000      13.47200000      12.99100000
 H      14.79400000      14.25900000      12.86800000
 H      13.77400000      13.41000000      12.11100000
 O      17.98900000      15.75200000       9.94100000
 H      17.41400000      16.19700000       9.23000000
 H      17.36900000      15.15300000      10.35100000
 O      11.23600000       7.71200000       8.65800000
 H      10.70100000       7.30000000       7.98100000
 H      11.53900000       7.00000000       9.30200000
 O      20.67800000       6.58400000      11.88200000
 H      19.69500000       6.51900000      11.66800000
 H      20.88100000       7.48100000      12.34600000
 O      11.24200000       5.67300000       9.74100000
 H      12.24500000       5.66000000       9.85200000
 H      10.95100000       5.09100000      10.50200000
 O      16.09400000      13.43800000       5.43100000
 H      16.58500000      12.63100000       5.73100000
 H      16.63300000      14.16400000       5.59000000
 O      20.78400000       7.99200000       5.45500000
 H      20.50500000       8.78100000       5.99000000
 H      19.92800000       7.59000000       5.16800000
 O      17.78500000       6.14500000      12.94700000
 H      17.43900000       7.00800000      13.19100000
 H      17.00300000       5.55500000      13.06400000
 O      13.80800000      10.14800000      12.46200000
 H      12.84800000      10.15600000      12.11700000
 H      13.95400000       9.26200000      12.46500000
 O      11.66500000      13.71800000      14.91600000
 H      12.38200000      13.15400000      14.60800000
 H      11.85200000      14.52800000      14.37100000
 O      18.74300000       9.51900000       7.97100000
 H      19.48000000       9.29300000       8.62500000
 H      17.99400000       8.97600000       8.34200000
 O      13.34700000       4.93000000      12.13900000
 H      14.04000000       5.31200000      11.52800000
 H      13.23100000       5.61700000      12.80000000
 O      10.33000000      15.77500000      11.06600000
 H      10.24900000      15.95500000      10.14400000
 H      10.86900000      16.54800000      11.38100000
 O      12.63300000       7.60900000      13.04600000
 H      12.54800000       8.17000000      13.85600000
 H      11.72800000       7.16800000      12.95200000
 O      20.80400000      13.49900000       9.38000000
 H      19.96400000      12.98900000       9.34200000
 H      21.57600000      12.92700000       9.24400000
 O      10.01600000      11.66800000       8.50000000
 H       9.19700000      12.20000000       8.59300000
 H      10.44700000      12.19800000       7.82500000
 O      17.90900000       9.06900000      11.85100000
 H      17.22600000       8.44900000      12.22600000
 H      18.26300000       8.42000000      11.19000000
 C      14.26500000      16.50100000      15.68900000
 C      15.02200000      15.74900000      16.78600000
 C      17.00500000      15.24400000      15.23100000
 H      15.33300000      14.09000000      15.31200000
 H      15.41800000      17.73600000      16.35200000
 O      16.30900000      13.73700000      17.05300000
 O      13.42800000      16.16500000      14.88300000
 O      14.64000000      17.79800000      15.68600000
 C      15.88800000      14.68400000      16.09800000
 O      15.85200000      16.67800000      17.47400000
 H      14.30500000      15.36300000      17.53700000
 O      16.88200000      16.00000000      14.30000000
 O      18.24800000      15.02600000      15.69800000
 H      18.10700000      14.50600000      16.44900000
 H      16.45100000      16.14700000      18.13100000
 H      16.66100000      12.87500000      16.63000000
 O      17.45700000      10.56200000       5.49000000
 H      17.97000000      10.23700000       6.32200000
 H      18.18400000      11.13000000       5.06300000
 O      12.82700000      12.95800000      10.55900000
 H      12.93800000      12.13300000      10.02700000
 H      11.92500000      13.19300000      10.41000000
 O      12.15100000      12.23900000       6.57700000
 H      12.46100000      13.20400000       6.57300000
 H      12.07800000      12.04700000       5.66500000
 O      17.10200000       5.74400000       7.48200000
 H      16.13900000       5.59500000       7.77100000
 H      17.38500000       4.85000000       7.78100000
 O      18.31800000      11.84600000       9.38100000
 H      18.26800000      11.03900000       8.85200000
 H      17.48800000      11.91300000       9.81800000
 O      12.55200000      10.13100000       8.73200000
 H      12.49500000       9.14100000       8.70400000
 H      11.91400000      10.32600000       7.99500000
 O      15.54600000       9.80000000       8.25100000
 H      14.66800000       9.84600000       7.73000000
 H      15.30900000      10.20100000       9.14100000
 O      19.70300000       7.62900000       8.19500000
 H      18.99300000       8.02200000       7.67900000
 H      19.95000000       6.84100000       7.68000000
 O      14.96300000       7.20000000       5.59000000
 H      15.24100000       7.09000000       4.65300000
 H      14.02600000       7.13000000       5.63400000
 O      20.75200000      15.43100000      14.28500000
 H      21.38000000      14.67100000      14.16700000
 H      19.89000000      15.20400000      14.81700000
