39
XYZ file of cluster: frame_16000_4d077.c9f0b.6998 - created by MolEdiTo
 O       7.63900000      19.75900000       2.79300000
 H       7.86600000      18.93900000       2.40700000
 H       6.82400000      19.46300000       3.22200000
 O      11.98800000      19.05600000       4.21200000
 H      11.34400000      18.85100000       4.89900000
 H      12.36700000      18.18800000       3.85700000
 O       8.78700000      18.03500000       6.86800000
 H       7.92000000      17.51400000       6.67300000
 H       8.70100000      18.82700000       6.21600000
 O      12.11100000      18.19600000       0.78300000
 H      12.53400000      17.60400000       1.48900000
 H      11.21100000      18.41500000       1.05400000
 O       9.21100000      20.32800000       5.58200000
 H       9.09600000      20.35600000       4.54200000
 H       8.90600000      21.17400000       5.85900000
 O       7.68400000      23.87800000       5.61100000
 H       7.05000000      23.67100000       4.90900000
 H       7.87600000      24.84100000       5.56000000
 O      13.29900000      22.20700000       1.19600000
 H      12.58400000      22.42600000       0.57600000
 H      13.14000000      21.20400000       1.16600000
 O      14.55300000      24.30300000       2.36800000
 H      14.16500000      23.52200000       1.86800000
 H      15.41200000      23.87200000       2.63800000
 O      13.80600000      21.85200000       5.78000000
 H      13.30700000      21.17400000       5.28200000
 H      13.36100000      22.66800000       5.59900000
 O       9.55200000      24.78600000       2.84700000
 H       9.82300000      24.32200000       3.64000000
 H      10.00800000      24.37300000       2.13600000
 O      13.76500000      25.28500000       4.92700000
 H      13.81800000      24.68900000       4.11500000
 H      14.10400000      26.19200000       4.60200000
 O      11.23300000      22.47300000       3.15200000
 H      11.44200000      21.61300000       3.56100000
 H      12.02200000      22.62100000       2.56300000
 O       6.73900000      24.61900000       2.96300000
 H       6.87600000      23.95700000       2.23800000
 H       7.62900000      24.76400000       3.28300000
