42
XYZ file of cluster: frame_16000_79f63.92956.7d61b - created by MolEdiTo
 O      14.70300000      19.84900000      12.76800000
 H      14.57600000      20.21200000      13.64600000
 H      13.96700000      20.23600000      12.38800000
 O      14.02100000      19.89600000      15.40000000
 H      13.82500000      19.89000000      16.36000000
 H      14.79900000      19.28000000      15.46400000
 O      11.62300000      18.36900000      17.55400000
 H      10.91000000      17.68100000      17.61400000
 H      12.12200000      17.89000000      16.77400000
 O      15.43200000      15.89700000      17.35900000
 H      15.52200000      16.20800000      16.43000000
 H      14.78600000      16.55300000      17.73300000
 O      17.40000000      18.47200000      12.61200000
 H      17.47000000      18.23100000      11.64500000
 H      16.55700000      19.00300000      12.62600000
 O      11.03900000      20.03700000      15.20700000
 H      10.67000000      19.17300000      14.84800000
 H      11.91400000      20.08000000      14.91700000
 O      12.26700000      16.83600000      11.95200000
 H      12.48400000      16.03200000      11.36900000
 H      11.30700000      17.03900000      11.89200000
 O      16.76400000      14.57100000      14.05100000
 H      17.52200000      14.64600000      13.50000000
 H      16.21000000      15.17000000      13.56500000
 O      11.71600000      19.51500000      11.92200000
 H      12.32600000      18.74100000      12.10800000
 H      11.69100000      19.64400000      10.94300000
 O      17.61800000      13.87000000      16.61900000
 H      17.56400000      13.95900000      15.64000000
 H      17.32500000      14.78300000      16.86900000
 O      15.44100000      16.52700000      12.38400000
 H      16.26800000      17.04100000      12.47400000
 H      14.75000000      17.12300000      12.45900000
 O      16.17900000      18.26600000      15.92600000
 H      16.99000000      18.67500000      15.54400000
 H      16.40900000      18.33700000      16.85300000
 O      11.23100000      13.43500000      12.27300000
 H      11.74700000      12.71300000      12.58900000
 H      11.92100000      14.14800000      12.10000000
 O      12.16600000      16.84400000      15.43900000
 H      12.24600000      17.31600000      14.57200000
 H      12.09600000      15.83300000      15.32300000
