39
XYZ file of cluster: frame_16000_64f4.9ca93.503a1 - created by MolEdiTo
 O       6.57200000      16.44900000       8.19100000
 H       5.91100000      15.83900000       8.48800000
 H       6.43700000      16.56700000       7.21400000
 O       2.35700000      18.18900000      12.72700000
 H       1.68000000      18.10000000      13.51400000
 H       2.91400000      17.33500000      12.65400000
 O       2.25900000      17.56300000       7.13800000
 H       1.87300000      16.71700000       7.41700000
 H       3.05300000      17.60800000       7.67800000
 O       6.58800000      16.29600000      12.27800000
 H       6.87400000      17.11400000      11.84800000
 H       5.95400000      15.88200000      11.59800000
 O       3.88600000      14.41300000      13.29400000
 H       4.80500000      14.45700000      13.06700000
 H       3.86700000      13.58700000      13.83000000
 O       4.83500000      18.63200000      14.05400000
 H       5.59800000      18.87500000      13.43200000
 H       4.12300000      19.18100000      13.68700000
 O       4.36600000      16.17400000      10.75700000
 H       3.80200000      15.87500000       9.98800000
 H       4.32800000      15.36700000      11.33800000
 O       6.25200000      15.52900000      14.96900000
 H       6.60200000      16.14700000      15.63200000
 H       6.47200000      15.92200000      14.03800000
 O       1.08000000      16.98200000      10.35000000
 H       1.99600000      17.44100000      10.32900000
 H       0.55200000      17.44100000      11.06000000
 O       3.56000000      15.20000000       8.38500000
 H       2.86500000      14.51700000       8.53600000
 H       4.10500000      14.68300000       7.71800000
 O       6.50200000      19.44300000      11.95200000
 H       6.37700000      20.47100000      12.18100000
 H       7.51700000      19.25700000      11.83300000
 O       4.92500000      19.28500000       7.34200000
 H       5.73300000      18.86800000       7.03900000
 H       4.91800000      20.19200000       7.00200000
 O       3.41000000      18.82200000       9.53200000
 H       3.97900000      18.22900000      10.10700000
 H       4.09400000      19.00700000       8.89900000
