42
XYZ file of cluster: frame_16000_9c959.7379a.45aca - created by MolEdiTo
 O      15.87000000      13.42200000       7.71800000
 H      15.23500000      13.40200000       8.54700000
 H      15.94200000      12.52400000       7.43600000
 O      17.95900000      16.84500000      10.38700000
 H      17.64400000      15.88800000      10.23600000
 H      17.93200000      17.16800000       9.45400000
 O      19.19600000      15.58800000      12.74000000
 H      19.37600000      14.74500000      12.53000000
 H      18.43600000      16.02500000      12.19100000
 O      20.18500000      14.74600000       9.04600000
 H      19.30300000      14.38300000       9.37100000
 H      20.46200000      15.47500000       9.62900000
 O      19.19200000      12.93000000      12.39900000
 H      18.42500000      12.43500000      12.72400000
 H      19.67400000      12.16300000      11.90700000
 O      15.06300000      17.11900000       9.49600000
 H      15.61000000      17.84400000       9.93100000
 H      15.29500000      16.35500000      10.09900000
 O      16.76400000      14.57100000      14.05100000
 H      17.52200000      14.64600000      13.50000000
 H      16.21000000      15.17000000      13.56500000
 O      17.51100000      14.05800000      10.23400000
 H      17.61900000      13.36600000      10.96800000
 H      16.65400000      13.77900000       9.77700000
 O      15.51700000      11.99600000      12.28400000
 H      16.34300000      11.45600000      12.51000000
 H      14.75600000      11.46500000      12.67100000
 O      15.44100000      16.52700000      12.38400000
 H      16.26800000      17.04100000      12.47400000
 H      14.75000000      17.12300000      12.45900000
 O      14.58300000      13.41600000      10.04200000
 H      13.69900000      13.78600000      10.06800000
 H      14.86000000      13.30800000      11.00800000
 O      19.46300000      10.37500000       6.76500000
 H      18.79100000      10.68200000       7.42500000
 H      18.97300000      10.01500000       6.08100000
 O      17.86000000      11.07600000       8.99900000
 H      17.55500000      10.76800000       9.84000000
 H      17.30200000      10.73200000       8.22700000
 O      17.63200000      10.65400000      13.04900000
 H      18.02600000      10.05800000      12.37200000
 H      18.19000000      10.37100000      13.77800000
