42
XYZ file of cluster: frame_16000_0.4a356.9fea4 - created by MolEdiTo
 O       0.65700000       7.76900000      16.39000000
 H       0.66700000       7.07600000      15.71800000
 H       0.00000000       7.49000000      17.11300000
 O       6.93900000      13.54200000      16.63900000
 H       6.42100000      14.31500000      16.19900000
 H       7.82400000      13.92800000      16.37100000
 O       5.00500000      12.62700000      14.87800000
 H       5.57000000      13.16700000      15.41600000
 H       5.70000000      12.59800000      14.15100000
 O       2.82600000      10.26300000      15.26100000
 H       3.74600000      10.17700000      15.07000000
 H       2.54400000      10.13800000      16.22500000
 O       1.53400000      12.98700000      14.89500000
 H       2.08100000      12.18100000      14.89800000
 H       1.31800000      12.98500000      13.95700000
 O       3.21200000       6.82000000      16.87500000
 H       3.96500000       7.25600000      16.42600000
 H       2.50700000       7.46500000      17.17200000
 O       6.79400000       7.28900000      18.51700000
 H       6.54600000       6.43600000      18.06700000
 H       5.96400000       7.57200000      18.80100000
 O       5.55300000      10.83400000      17.16300000
 H       6.49200000      10.94700000      17.49500000
 H       5.47200000      11.81400000      16.89400000
 O       1.25900000      14.31300000      17.30500000
 H       1.23600000      13.72400000      16.44800000
 H       1.99900000      14.91300000      17.09100000
 O       3.60400000       9.41800000      19.94500000
 H       3.35800000      10.31100000      19.69800000
 H       4.16400000       9.01500000      19.15800000
 O       2.26700000      11.81600000      18.20800000
 H       2.40000000      12.68000000      17.79100000
 H       1.33000000      11.68800000      18.33200000
 O       5.19300000       8.34000000      15.98500000
 H       5.74800000       9.14700000      16.23600000
 H       5.82400000       7.87800000      15.43500000
 O       0.67600000       9.12900000      19.23300000
 H       1.61100000       9.46800000      19.53100000
 H       0.65400000       8.25900000      19.72800000
 O       4.17600000      12.40600000      19.97700000
 H       4.12700000      13.37100000      20.02400000
 H       3.53300000      12.09100000      19.31200000
