27
XYZ file of cluster: frame_16000_71ea3.a8b5c.d28bf - created by MolEdiTo
 O      16.48500000      19.80000000      19.09200000
 H      17.40200000      19.42300000      18.96000000
 H      15.90200000      19.04600000      19.08300000
 O      17.81000000      15.53600000      19.85300000
 H      18.78100000      15.66600000      19.66900000
 H      17.40800000      15.68800000      19.00800000
 O      11.61200000      14.80600000      20.47400000
 H      12.28300000      14.63200000      21.18500000
 H      12.08800000      14.86700000      19.69900000
 O      14.00500000      18.61000000      18.83200000
 H      13.79800000      18.35500000      19.78300000
 H      13.13800000      18.81400000      18.37600000
 O      13.25800000      16.78400000      24.07700000
 H      12.37400000      16.39500000      24.33000000
 H      13.92700000      16.13600000      24.48800000
 O      16.36700000      17.79400000      22.67700000
 H      16.30800000      17.33500000      23.49700000
 H      16.51000000      17.13200000      21.96000000
 O      16.29200000      14.98900000      23.68500000
 H      16.98500000      14.88000000      22.96500000
 H      16.76500000      15.32200000      24.45200000
 O      10.68900000      15.94400000      25.00700000
 H       9.96600000      16.11800000      24.41100000
 H      10.26900000      15.52300000      25.72600000
 O      12.11100000      18.19600000      22.09100000
 H      12.53400000      17.60400000      22.79700000
 H      11.21100000      18.41500000      22.36200000
