42
XYZ file of cluster: frame_16000_7566b.4f62b.c0c0c - created by MolEdiTo
 O      17.23100000      12.35500000      18.81900000
 H      16.23500000      12.44300000      18.69000000
 H      17.55300000      12.91600000      17.99400000
 O      15.80000000       7.05400000      17.67600000
 H      15.61100000       7.56000000      16.82300000
 H      16.67900000       7.47500000      17.91500000
 O      14.32800000      12.39200000      18.50100000
 H      13.36100000      12.27400000      18.23500000
 H      14.32600000      12.73000000      19.43900000
 O      14.45100000       7.75900000      20.23800000
 H      13.76400000       7.18100000      20.56100000
 H      14.59700000       7.42100000      19.26400000
 O      10.90700000      12.02900000      17.91500000
 H      10.53400000      12.53900000      18.61700000
 H      10.73400000      11.10500000      18.17500000
 O      12.91100000       9.89700000      17.64800000
 H      13.49600000      10.35600000      18.32900000
 H      12.26600000       9.36800000      18.13900000
 O      18.00700000       8.34900000      19.38600000
 H      18.92700000       8.57900000      19.32300000
 H      17.60000000       9.24900000      19.19500000
 O      10.27100000       7.84200000      23.82400000
 H      10.47600000       6.88500000      24.07700000
 H      11.03300000       8.27100000      24.10500000
 O      14.44000000      10.18200000      22.20700000
 H      14.31400000       9.20800000      22.12100000
 H      15.40600000      10.32700000      22.47700000
 O      12.62400000       9.25600000      24.54700000
 H      12.33100000      10.17100000      24.85500000
 H      13.29900000       9.47700000      23.82300000
 O      11.13100000      12.08100000      25.11800000
 H      10.55300000      12.79900000      25.49600000
 H      10.60500000      11.67800000      24.37300000
 O      17.37600000       7.07500000      23.09300000
 H      17.45100000       7.38600000      22.15600000
 H      18.03000000       7.63000000      23.56800000
 O      17.50800000      11.07700000      22.58400000
 H      17.35600000      11.75500000      21.83000000
 H      18.45900000      10.94200000      22.57100000
 O      13.79900000      12.85200000      22.73500000
 H      14.13500000      11.91800000      22.52200000
 H      13.89700000      12.84600000      23.72000000
