45
XYZ file of cluster: frame_16000_7566b.589.c0c0c - created by MolEdiTo
 O      15.80000000       7.05400000      17.67600000
 H      15.61100000       7.56000000      16.82300000
 H      16.67900000       7.47500000      17.91500000
 O      14.37200000       4.93900000      19.45900000
 H      14.69300000       4.17400000      18.93000000
 H      14.40100000       4.48900000      20.35900000
 O      17.34200000       4.59400000      18.63900000
 H      17.02900000       5.18200000      19.29600000
 H      16.92100000       4.75200000      17.76000000
 O      14.39300000       2.36400000      18.19300000
 H      15.29900000       2.09900000      18.14000000
 H      13.99000000       2.53600000      17.33900000
 O      11.34300000       3.29500000      20.36000000
 H      12.16700000       3.31900000      19.79300000
 H      10.53300000       3.06200000      19.91600000
 O      11.61200000       0.92600000      18.80400000
 H      11.77700000       1.45700000      18.01800000
 H      11.25600000       0.03500000      18.56800000
 O      12.53900000       6.63400000      18.12700000
 H      13.35000000       6.14700000      18.46000000
 H      12.86000000       6.96300000      17.34500000
 O      17.30100000       1.84100000      17.32000000
 H      18.13700000       1.31200000      17.35600000
 H      16.92700000       1.65300000      18.22300000
 O      10.27100000       7.84200000      23.82400000
 H      10.47600000       6.88500000      24.07700000
 H      11.03300000       8.27100000      24.10500000
 O      14.58400000       5.95000000      24.23900000
 H      15.24300000       6.63300000      23.89600000
 H      14.97000000       5.12500000      23.94200000
 O      13.29900000       1.03300000      22.50400000
 H      12.58400000       1.25200000      21.88400000
 H      13.14000000       0.03000000      22.47400000
 O      14.55300000       3.12900000      23.67600000
 H      14.16500000       2.34800000      23.17600000
 H      15.41200000       2.69800000      23.94600000
 O      11.23300000       1.29900000      24.46000000
 H      11.44200000       0.43900000      24.86900000
 H      12.02200000       1.44700000      23.87100000
 O      18.26200000       4.29100000      23.30000000
 H      18.64700000       3.95300000      24.19900000
 H      17.75100000       5.10800000      23.56700000
 O      16.29600000       0.97700000      23.28200000
 H      15.69000000       0.97100000      22.54300000
 H      16.18300000       0.09600000      23.60100000
