64
XYZ file of cluster: frame_16000_5cb91.2203a.48001 - created by MolEdiTo
 O      17.14700000       7.07300000       7.90800000
 H      16.16100000       7.05800000       7.70800000
 H      17.50500000       6.19200000       7.56100000
 O      15.96400000       8.96900000       9.62000000
 H      16.60000000       8.17900000       9.59900000
 H      15.18800000       8.68900000       9.08000000
 O      16.39300000       6.45100000      14.59400000
 H      16.93200000       7.12400000      15.13200000
 H      16.96700000       6.40100000      13.74900000
 O      14.29000000       5.95300000      12.73300000
 H      14.71900000       6.47700000      13.43000000
 H      14.91800000       5.28800000      12.41200000
 O      11.59800000       5.52000000      14.90000000
 H      11.69000000       5.41400000      13.91600000
 H      12.39000000       6.04600000      15.18600000
 C       9.33700000      11.70700000       9.61100000
 C       9.42900000      10.15800000       9.99900000
 C      11.82000000      10.36600000      10.78800000
 H      10.19400000      10.33300000      12.03400000
 H       9.90700000      12.90200000      11.13300000
 O      10.47900000       8.35600000      11.38300000
 O      10.54800000      12.18400000       8.92100000
 O       9.05500000      12.50700000      10.76300000
 C      10.42900000       9.81700000      11.13000000
 O       8.11200000       9.69400000      10.44900000
 H       9.66200000       9.61900000       9.09600000
 O      12.51000000       9.13700000      10.18400000
 O      12.61800000      10.72400000      11.83400000
 H      13.16000000       9.92400000      12.00900000
 H       8.13200000       8.69600000      10.30800000
 H      11.17500000       7.95700000      10.80600000
 O      12.36000000       5.68700000       9.62600000
 H      11.56900000       5.34400000      10.21500000
 H      13.07800000       5.94800000      10.24200000
 O      14.17400000       6.91800000       7.89000000
 H      13.54800000       6.44500000       8.48700000
 H      13.59000000       7.55500000       7.39900000
 O      11.45200000       4.14100000      12.01600000
 H      12.24400000       3.81700000      11.48900000
 H      10.80900000       3.41800000      12.01000000
 O      15.03500000       3.71000000       9.01300000
 H      14.51500000       2.95000000       8.58700000
 H      15.04100000       4.22800000       8.20200000
 O      10.27200000       8.23300000      14.33800000
 H       9.76200000       8.10600000      13.47300000
 H      10.82500000       7.45500000      14.40900000
 O      17.84300000       7.23400000      11.67300000
 H      17.56900000       6.55400000      11.03700000
 H      18.84600000       7.25700000      11.46300000
 O      11.32900000       7.72400000       7.46800000
 H      11.20100000       7.56800000       8.41900000
 H      11.42600000       6.71600000       7.24800000
 O      12.01100000       4.42100000       6.92700000
 H      12.71000000       4.08600000       6.28400000
 H      12.37900000       4.26200000       7.78600000
 O      17.66400000       4.71300000      10.13600000
 H      18.29500000       4.52900000       9.48300000
 H      16.83800000       4.47900000       9.66800000
 O      17.63200000      10.65400000      13.04900000
 H      18.02600000      10.05800000      12.37200000
 H      18.19000000      10.37100000      13.77800000
 O      14.25100000       8.74600000      12.88700000
 H      14.97500000       9.07500000      13.41200000
 H      14.60300000       8.56200000      12.00100000
