%chk=cluster_211_i.chk
%mem=6GB
%nproc=4
#b3lyp/6-31G** scrf=(cpcm,Solvent=Water) nosymm force
iop(2/11=1) 
 Geom=(NoDistance,NoAngle)

cluster_211_i

0 1
 O       9.20800000       8.17900000       7.96300000
 H       8.45900000       8.14700000       7.36500000
 H       8.87700000       7.73100000       8.79100000
 O       6.62000000       8.01700000       5.52700000
 H       6.02200000       7.65200000       4.87700000
 H       7.35800000       8.44400000       5.05400000
 O      13.97000000       9.05300000       4.52900000
 H      13.96300000       8.07900000       4.85800000
 H      13.70500000       9.54900000       5.34400000
 O      10.56900000       4.20100000       5.45500000
 H      10.45800000       3.36000000       5.02700000
 H      10.79900000       4.00000000       6.39000000
 O       8.78300000       9.58100000       4.40500000
 H       9.03700000       8.91500000       3.81000000
 H       9.13500000      10.33900000       3.98600000
 O       7.79800000      10.62800000       7.37200000
 H       8.51500000      10.01700000       6.99900000
 H       7.09500000      10.48100000       6.72400000
 O       8.07400000       5.20800000       4.73000000
 H       8.44800000       5.96400000       4.16300000
 H       8.95800000       4.90000000       5.16100000
 O      13.10400000       6.11700000       8.34300000
 H      12.94400000       6.62000000       9.12700000
 H      12.95300000       5.18600000       8.55000000
 O      12.90800000      10.92400000       6.96300000
 H      12.10800000      10.39700000       6.59400000
 H      12.96500000      10.66500000       7.87200000
 O      14.64300000       4.12400000       6.12500000
 H      13.94800000       4.80100000       6.26500000
 H      14.07200000       3.29300000       6.16000000
 C      10.26600000      12.33400000      11.12500000
 C      11.29300000      11.21700000      10.78900000
 C       9.37900000       9.45900000      11.00300000
 H      10.17700000      10.33300000       9.27600000
 H      10.97500000      14.02600000      10.48500000
 O      11.60900000       8.87700000       9.98900000
 O       9.38500000      12.54900000      10.01300000
 O      10.80600000      13.58500000      11.31900000
 C      10.60900000       9.98400000      10.18500000
 O      12.38600000      11.64600000       9.95900000
 H      11.79300000      10.89600000      11.72000000
 O       9.66300000       9.52700000      12.39500000
 O       9.11800000       8.02600000      10.76700000
 H       8.25700000       8.04300000      11.12900000
 H      13.21200000      11.33800000      10.34600000
 H      10.98400000       8.11800000      10.12500000
 O      14.38800000       9.06800000       9.17300000
 H      14.80200000       8.77000000       8.30400000
 H      13.59200000       8.52200000       9.18400000
 O      10.22800000       3.85000000       8.52300000
 H      10.21800000       3.59600000       9.49000000
 H      11.12200000       3.46700000       8.28900000
 O       7.70800000       3.02300000       7.27400000
 H       7.22600000       3.86900000       7.23000000
 H       8.53400000       3.25400000       7.72500000
 O      12.44400000       6.44400000       5.27300000
 H      11.91300000       7.23700000       5.61700000
 H      11.71300000       5.78200000       5.34700000
 O      11.17400000       8.93000000       6.32200000
 H      10.52900000       8.58300000       6.97200000
 H      10.68900000       8.85600000       5.49200000

