96
XYZ file of cluster: frame_19000_9c9ef.99c1c.60d5 - created by MolEdiTo
 O      30.41800000      20.81400000       9.52000000
 H      29.85100000      21.20400000      10.25900000
 H      30.34300000      19.89500000       9.74100000
 O      24.89700000      29.91700000       5.95800000
 H      25.40100000      30.60400000       6.41500000
 H      24.00900000      30.08300000       6.36200000
 O      26.09800000      21.61500000       4.36500000
 H      26.72000000      21.49400000       3.66300000
 H      25.48000000      22.27500000       3.94800000
 O      25.52900000      28.66000000       3.34200000
 H      25.16800000      29.20700000       4.09500000
 H      26.48900000      28.84400000       3.42900000
 O      26.00900000      22.67100000       8.64800000
 H      26.55200000      23.20900000       9.30200000
 H      25.24400000      23.19600000       8.38900000
 O      28.84100000      25.30000000       3.54200000
 H      28.13800000      25.05600000       2.87200000
 H      28.83600000      24.53300000       4.11600000
 O      26.98100000      25.85300000       9.08300000
 H      26.82100000      26.77000000       8.63500000
 H      27.93100000      25.75500000       8.86900000
 O      21.32900000      23.18200000      10.00000000
 H      21.17000000      23.03600000      10.91600000
 H      21.73000000      24.08100000       9.88000000
 O      30.14100000      25.03300000       8.26200000
 H      30.72000000      25.13200000       7.47700000
 H      30.38900000      24.18200000       8.55100000
 O      27.53800000      28.85900000       7.31700000
 H      27.56200000      28.45300000       6.33900000
 H      28.47400000      29.01300000       7.54200000
 O      22.91900000      22.20300000       3.84700000
 H      22.45300000      22.52500000       3.00900000
 H      23.63300000      21.58600000       3.60700000
 O      25.42000000      24.20000000       6.25800000
 H      24.64400000      24.66400000       6.35900000
 H      26.09800000      24.86000000       6.54300000
 O      23.73900000      27.19600000       5.26200000
 H      23.78100000      26.68400000       4.42300000
 H      24.00900000      28.11000000       5.00000000
 O      28.34500000      27.72900000       4.72100000
 H      28.44800000      26.84600000       4.31000000
 H      29.32400000      27.94200000       4.76000000
 O      28.07800000      22.69600000       5.83600000
 H      27.56900000      22.68900000       6.68900000
 H      27.36800000      22.44900000       5.21000000
 O      23.69100000      26.30300000       8.08800000
 H      24.35500000      27.02400000       7.98100000
 H      23.32900000      26.13700000       7.20500000
 O      30.83200000      29.22000000       4.97500000
 H      31.60000000      28.67900000       5.16100000
 H      31.23200000      29.91800000       4.46500000
 O      24.47200000      25.25200000      10.47500000
 H      24.07000000      25.30000000       9.55300000
 H      25.40100000      25.54400000      10.34300000
 O      29.36700000      21.80300000       2.04800000
 H      30.31300000      22.03700000       1.83300000
 H      28.85500000      21.81500000       1.24600000
 O      23.61600000      24.91500000       3.18400000
 H      23.47500000      24.28700000       3.93000000
 H      22.73800000      25.24400000       2.74500000
 O      22.90000000      29.51200000      10.23800000
 H      23.42900000      29.60400000       9.40000000
 H      23.51200000      28.85200000      10.67000000
 O      26.14300000      25.92600000       2.42900000
 H      25.35600000      25.46100000       2.76500000
 H      26.08900000      26.84700000       2.78000000
 O      21.85700000      20.53400000       8.96100000
 H      21.62300000      21.41700000       9.26400000
 H      21.67700000      20.62800000       8.01600000
 O      25.48600000      28.40500000       9.24600000
 H      25.79000000      28.54100000      10.18900000
 H      26.33700000      28.54500000       8.73600000
 O      30.15600000      30.59200000       7.22800000
 H      30.55900000      30.36700000       6.28200000
 H      30.77100000      31.33000000       7.46100000
 O      21.17500000      22.75000000       1.98300000
 H      21.28400000      21.77900000       1.73500000
 H      20.27200000      22.85900000       2.43500000
 O      21.86600000      26.15400000      10.88500000
 H      21.93800000      26.36500000       9.93200000
 H      22.78100000      26.21900000      11.10000000
 O      21.93700000      29.39800000       7.44100000
 H      21.18600000      28.93500000       7.91800000
 H      22.40900000      28.64000000       6.92200000
 O      21.73300000      20.70300000       5.89800000
 H      22.41700000      20.06600000       6.04200000
 H      22.19600000      21.26400000       5.28400000
 O      21.50100000      24.06200000       5.45600000
 H      20.85100000      23.47500000       5.88900000
 H      22.09500000      23.48000000       4.90800000
 O      21.33600000      25.77700000       1.68100000
 H      21.04200000      24.96600000       1.27100000
 H      20.45900000      26.25900000       1.85300000
 O      30.41200000      27.12000000       1.69600000
 H      30.19900000      26.33500000       2.13900000
 H      29.98700000      27.01000000       0.78600000
