154
XYZ file of cluster: frame_19000_2144a.4cd40.65332 - created by MolEdiTo
 O       8.01200000      15.28100000      17.00700000
 H       8.78700000      15.89000000      16.91700000
 H       7.51900000      15.75200000      17.75100000
 O       5.72500000      12.77600000      25.97300000
 H       5.05900000      12.66600000      26.75900000
 H       5.42500000      11.97800000      25.39800000
 O       9.48700000      19.58400000      22.22700000
 H       9.95900000      20.14600000      22.86300000
 H       8.86500000      19.08000000      22.80800000
 O       5.56400000      15.09000000      15.42200000
 H       6.39400000      15.05200000      16.05000000
 H       5.12700000      14.15800000      15.44500000
 O      15.69600000      12.31500000      18.08200000
 H      15.17200000      12.61700000      18.84200000
 H      16.42600000      11.79000000      18.44800000
 O       7.89200000      19.35700000      24.99800000
 H       8.21100000      20.29600000      24.88700000
 H       6.90900000      19.34100000      25.20300000
 O      13.70100000      20.45700000      18.08400000
 H      13.86300000      21.27500000      18.60300000
 H      14.26300000      20.62400000      17.31600000
 O      10.64300000      15.08500000      25.50900000
 H      10.39400000      14.49600000      24.78800000
 H      11.37100000      15.58400000      25.03200000
 O       7.18600000      14.58100000      24.84100000
 H       6.44800000      13.96800000      25.15900000
 H       7.24700000      15.14100000      25.60100000
 O       4.77700000      16.88800000      23.45700000
 H       5.46300000      17.04600000      22.75800000
 H       4.96200000      15.94000000      23.57400000
 O      14.65200000      11.60900000      15.49600000
 H      14.62400000      12.59500000      15.24200000
 H      14.84500000      11.61900000      16.48600000
 O       6.99800000      12.14500000      21.78300000
 H       7.70500000      11.53600000      21.45200000
 H       6.89600000      12.80200000      21.02100000
 O      15.92500000      16.35300000      22.21300000
 H      16.58500000      16.64200000      21.57400000
 H      15.63600000      15.42600000      21.99300000
 O       8.81000000      12.03400000      25.56200000
 H       9.68200000      12.39100000      25.18300000
 H       8.11200000      12.59500000      25.11900000
 C      15.90100000      16.20900000      17.59900000
 C      16.74500000      16.00600000      16.38600000
 C      14.74300000      15.04700000      14.96600000
 H      15.46000000      17.01500000      15.03000000
 H      17.31700000      15.44400000      18.46500000
 O      16.87200000      15.81500000      13.88300000
 O      14.79300000      16.80100000      17.62400000
 O      16.40200000      15.71500000      18.72500000
 C      15.93800000      16.02300000      15.00900000
 O      17.84800000      16.88900000      16.28900000
 H      17.12900000      15.01500000      16.52300000
 O      14.49000000      14.37500000      15.91500000
 O      14.42900000      14.60500000      13.68200000
 H      14.90100000      15.22900000      13.14300000
 H      17.47900000      17.82900000      16.23400000
 H      17.20700000      16.64800000      13.53000000
 O      12.24100000      15.43800000      21.48400000
 H      12.00700000      15.24200000      20.51500000
 H      11.67300000      14.79500000      21.97500000
 O       9.11400000      20.82300000      16.00900000
 H       8.54200000      21.57300000      15.69600000
 H       8.71500000      20.01900000      15.58900000
 O      10.34800000      18.38500000      25.58700000
 H      10.37900000      17.37200000      25.67700000
 H       9.38100000      18.57100000      25.71400000
 O      10.43600000      11.16900000      21.37100000
 H      10.17500000      10.31400000      21.80300000
 H      11.25400000      10.94900000      20.87100000
 O      11.14600000      14.19400000      16.07800000
 H      11.77100000      14.89500000      16.18600000
 H      11.30500000      13.78800000      15.14200000
 O      12.63200000      10.37100000      19.76600000
 H      13.51100000       9.94100000      19.68700000
 H      12.81300000      11.39800000      19.80800000
 O       9.48700000      19.85100000      18.49600000
 H       9.47500000      19.98300000      17.50700000
 H      10.36000000      19.51800000      18.70800000
 O       9.34700000      17.17200000      20.88600000
 H       9.02100000      16.89200000      21.83800000
 H       9.63500000      18.12000000      21.00400000
 O       5.27900000      19.79100000      21.95100000
 H       5.96000000      19.91300000      22.64600000
 H       5.13900000      20.70400000      21.73400000
 O       8.66400000      16.40300000      23.35200000
 H       9.27500000      16.27200000      24.11600000
 H       7.88600000      15.81900000      23.44500000
 O      12.32500000      11.67500000      24.14500000
 H      11.66000000      11.79400000      23.41600000
 H      12.28700000      10.71800000      24.33500000
 O       5.39500000      10.13700000      16.42700000
 H       6.08800000      10.86400000      16.51100000
 H       4.88100000      10.43900000      15.56000000
 O      11.54900000      20.57200000      24.21300000
 H      12.33700000      20.07200000      24.06300000
 H      11.00200000      19.85200000      24.65600000
 O      11.80100000      14.90900000      18.60600000
 H      11.35900000      14.33300000      17.94200000
 H      12.11900000      15.78000000      18.24400000
 O       5.06600000      17.42000000      20.72400000
 H       5.86700000      17.63800000      20.21000000
 H       4.65600000      18.25200000      20.91900000
 O       6.51200000      21.40600000      16.43300000
 H       6.06800000      20.62800000      16.88300000
 H       6.51000000      21.07900000      15.50400000
 O       7.37500000      18.37300000      19.31200000
 H       8.02400000      19.04400000      18.92100000
 H       8.05400000      17.81800000      19.87300000
 O      12.78800000      18.02500000      15.94900000
 H      12.71300000      18.95300000      16.28500000
 H      13.53500000      17.73600000      16.49900000
 O      16.30700000      19.69500000      20.90200000
 H      15.38400000      19.48400000      20.74200000
 H      16.60300000      19.81200000      19.91900000
 O       8.15800000      12.93400000      18.55500000
 H       8.99300000      13.21400000      18.19900000
 H       7.60000000      12.62500000      17.76400000
 O      15.78500000      12.51000000      25.61600000
 H      14.91100000      12.92600000      25.91100000
 H      16.25200000      12.16100000      26.44600000
 O      14.23100000      14.07500000      23.57000000
 H      15.09500000      13.81500000      23.19900000
 H      13.91700000      13.19400000      23.82400000
 O      11.68100000      18.72400000      19.15600000
 H      11.75800000      18.46300000      20.06900000
 H      12.36300000      19.38300000      19.11600000
 O       9.75000000      13.36400000      22.88700000
 H       9.84200000      12.72800000      22.15800000
 H       8.79500000      13.62400000      22.75400000
 O       7.28400000      14.69800000      20.49900000
 H       7.44000000      14.15200000      19.67700000
 H       7.95700000      15.43900000      20.62100000
 O       7.17800000      12.07800000      16.00600000
 H       7.16800000      11.73900000      15.10400000
 H       7.50500000      12.98600000      15.82400000
 O      13.60900000      13.16500000      19.93700000
 H      13.45800000      13.86500000      19.28300000
 H      13.31400000      13.45700000      20.77600000
 O      10.16700000      17.05700000      16.90200000
 H      10.83800000      17.38100000      16.29600000
 H      10.38600000      17.44000000      17.76300000
 O      14.34200000      18.55900000      24.23500000
 H      14.66800000      18.68500000      23.31000000
 H      15.13100000      18.84900000      24.75600000
 O      12.75500000      16.49500000      24.38800000
 H      13.42900000      15.94700000      23.87800000
 H      13.36600000      17.27900000      24.38300000
 O      13.42500000      18.32800000      21.67100000
 H      12.71100000      18.77200000      22.14400000
 H      13.15800000      17.39000000      21.78000000
 O       4.94500000      14.08500000      23.01300000
 H       4.30600000      13.34300000      23.16900000
 H       5.76200000      13.68400000      22.70300000
