105
XYZ file of cluster: frame_19000_4bb10.6f0b.3f14 - created by MolEdiTo
 O      18.16100000      10.79100000       8.69800000
 H      19.12700000      10.44700000       8.45100000
 H      18.55700000      11.27600000       9.46800000
 O      14.78900000       4.68900000       2.79300000
 H      15.05800000       3.93200000       3.36600000
 H      15.39200000       5.41600000       3.14400000
 O      21.51700000       5.94000000       7.40800000
 H      20.84000000       5.92400000       8.16400000
 H      21.69800000       5.00600000       7.15300000
 O      11.87900000       4.94300000       2.30300000
 H      11.93000000       4.29800000       1.54500000
 H      12.79800000       4.90500000       2.58600000
 O      15.66000000       2.65400000       4.66800000
 H      16.02900000       3.39600000       5.13100000
 H      15.02800000       2.19900000       5.28300000
 O      10.47400000       3.17500000       6.71900000
 H      10.66300000       3.05800000       5.76700000
 H       9.79700000       2.50900000       6.82400000
 O      10.36000000       6.94500000      10.43200000
 H      10.82300000       6.57700000       9.66900000
 H      11.06700000       7.32400000      10.91000000
 O      16.78000000       5.99500000       4.14000000
 H      16.01900000       6.11200000       4.75600000
 H      17.49100000       5.71800000       4.77200000
 O      14.39500000       7.07000000       5.86900000
 H      14.93400000       7.67500000       6.39600000
 H      13.68200000       6.84000000       6.40100000
 O      14.98100000       4.63600000       7.39100000
 H      15.73200000       5.27500000       7.43500000
 H      14.08100000       5.08600000       7.30600000
 O      11.91300000       3.41900000       9.42500000
 H      12.11400000       2.57600000       9.08100000
 H      10.88400000       3.37600000       9.38300000
 O      14.31600000      10.14800000       6.52500000
 H      13.56900000      10.54100000       7.04200000
 H      13.95400000       9.99100000       5.67300000
 O      17.34400000       2.33900000       1.99500000
 H      17.00900000       1.38900000       1.90400000
 H      17.00300000       2.74100000       2.85000000
 O      16.58700000       8.82600000       7.23000000
 H      16.19700000       9.62400000       6.82600000
 H      16.94100000       9.25500000       8.01700000
 O      16.69400000       3.88200000       9.94100000
 H      16.74600000       4.72600000      10.40300000
 H      16.69900000       3.30000000      10.68800000
 O      18.95600000       6.67200000      10.86800000
 H      19.23600000       6.11100000      10.08200000
 H      18.12500000       6.26900000      11.09600000
 O      16.43600000       6.70200000       9.15400000
 H      16.75100000       7.35300000       8.49500000
 H      16.17200000       7.20600000       9.96200000
 O      13.54800000       1.28600000       2.30600000
 H      12.72500000       1.41200000       1.88800000
 H      14.01600000       2.08700000       2.02700000
 O      14.24100000       1.77800000       7.07500000
 H      14.58500000       2.60900000       7.50400000
 H      13.40800000       1.62400000       7.57200000
 O      16.66100000       7.92500000       1.93800000
 H      15.74100000       7.61700000       1.61800000
 H      16.78100000       7.40100000       2.76400000
 O      13.95600000       7.75200000       2.96600000
 H      13.98000000       7.32100000       3.83300000
 H      14.22500000       8.58400000       3.34000000
 O      12.23400000       5.44400000       6.51900000
 H      11.74200000       4.60800000       6.71900000
 H      11.87800000       5.79300000       5.70200000
 O      18.67400000       8.47900000       5.24000000
 H      17.83500000       8.20100000       5.67500000
 H      18.40300000       9.46600000       5.35000000
 O      21.50300000       8.07700000       4.82300000
 H      20.62700000       7.87500000       4.35000000
 H      20.97400000       8.32900000       5.59600000
 O      21.63500000       2.34700000       8.70400000
 H      22.15200000       1.54400000       8.43700000
 H      20.73100000       2.07000000       8.56400000
 O      18.81500000       5.30600000       5.92600000
 H      19.28500000       4.54400000       5.63600000
 H      19.41000000       6.09800000       5.96100000
 O      18.58000000       1.79000000       9.35800000
 H      18.52200000       0.89800000       9.74900000
 H      17.82400000       2.27900000       9.75700000
 O      20.89000000       6.22400000       2.44000000
 H      20.16000000       6.88600000       2.28500000
 H      20.64600000       5.52700000       1.82700000
 O      19.40500000       4.91600000       8.84200000
 H      19.27400000       3.97000000       8.95400000
 H      18.78000000       5.11900000       8.09100000
 O      11.25800000       7.16600000       4.31100000
 H      10.32600000       6.93600000       3.97500000
 H      11.20700000       8.08800000       4.64800000
 O      11.03700000       3.01000000       4.04700000
 H      11.19800000       3.99400000       3.73600000
 H      10.88200000       2.39000000       3.29200000
 O      19.94600000       3.73600000       1.35500000
 H      20.09900000       3.27800000       0.51200000
 H      19.39700000       3.12200000       1.87800000
 O      12.77600000       7.16600000       8.55800000
 H      12.59100000       6.30200000       8.20500000
 H      12.64400000       7.71000000       7.75600000
 O      11.86200000      10.70900000       2.03400000
 H      12.20200000      10.09900000       1.37100000
 H      10.96500000      10.36300000       2.29200000
 O      13.25700000       9.40100000      10.09200000
 H      13.23000000       8.45600000       9.79200000
 H      12.70500000       9.89500000       9.48600000
