%chk=cluster_235.chk
%mem=6GB
%nproc=4
#b3lyp/6-311++G** scrf=(cpcm,Solvent=Water) nosymm freq
iop(2/11=1) 
 Geom=(NoDistance,NoAngle)

cluster_235

0 1
 O       6.99800000      15.55000000      19.18300000
 H       7.98100000      15.45800000      19.36000000
 H       6.89700000      15.47600000      18.19100000
 O       9.86800000      16.08600000      19.82500000
 H      10.18500000      16.93300000      20.23200000
 H      10.70400000      15.55700000      19.60500000
 O      12.84500000      10.76400000      17.57800000
 H      12.20400000      10.64600000      16.81300000
 H      12.21900000      10.86000000      18.28100000
 O       8.83300000      17.09300000      17.14900000
 H       9.10400000      16.92700000      18.04100000
 H       7.90000000      17.17400000      17.33900000
 O      12.58000000      14.42700000      19.81100000
 H      13.24400000      13.83500000      19.29300000
 H      13.15300000      14.63400000      20.52800000
 O       7.47700000      17.42200000      23.67300000
 H       7.72800000      16.49500000      23.77700000
 H       7.76600000      17.83500000      24.51700000
 O      13.86500000      18.20300000      22.24700000
 H      14.19700000      17.65900000      22.98600000
 H      14.68000000      18.14200000      21.72800000
 O       7.00000000      12.11200000      23.73200000
 H       6.47300000      11.28400000      23.66900000
 H       7.90600000      11.94500000      23.71800000
 O      10.76500000      17.59900000      23.47100000
 H      10.53900000      18.55800000      23.28500000
 H      11.22700000      17.83200000      24.25600000
 O       9.14700000      15.25000000      24.74000000
 H       9.44100000      14.36400000      24.80100000
 H       9.62100000      15.58000000      23.98600000

