108
XYZ file of cluster: frame_3500_241e3.9d438.119f - created by MolEdiTo
 O       8.90200000      22.41100000       5.72200000
 H       8.94500000      22.87300000       4.83500000
 H       8.27800000      21.70000000       5.44600000
 O       4.81800000      29.56300000       9.66900000
 H       5.41800000      30.23800000       9.21400000
 H       4.63300000      28.76600000       9.13200000
 O      12.02200000      21.79200000       4.77200000
 H      12.27700000      20.85400000       4.49200000
 H      11.60000000      22.25700000       4.09200000
 O      15.03600000      22.13000000       1.26900000
 H      15.60000000      22.02200000       0.50200000
 H      14.58200000      23.05600000       1.29400000
 O       5.82900000      27.75600000       2.14800000
 H       5.17500000      27.71800000       1.43400000
 H       6.62400000      28.16200000       1.70900000
 O      13.05000000      21.90300000       7.52100000
 H      12.54300000      21.99300000       6.62800000
 H      12.74300000      21.03300000       7.89400000
 O       7.37600000      30.28900000       7.81300000
 H       7.19800000      29.38900000       7.47700000
 H       8.20800000      30.09300000       8.30900000
 O       8.37200000      26.36200000       7.86000000
 H       8.75900000      27.21900000       8.03500000
 H       8.93100000      25.54000000       7.94900000
 O       9.59200000      22.92600000       3.10600000
 H       9.84000000      23.19300000       2.18600000
 H       9.15900000      22.03900000       2.89800000
 O       8.09000000      30.66200000       5.20500000
 H       9.01100000      30.70900000       5.50600000
 H       7.64500000      30.53300000       6.02800000
 O       5.88000000      24.99600000      10.36200000
 H       4.96700000      24.69000000      10.10200000
 H       6.37200000      25.20600000       9.57400000
 O      12.48100000      24.04300000       9.31900000
 H      13.32300000      24.64300000       9.10300000
 H      12.64500000      23.29800000       8.77800000
 O       7.14800000      22.24700000       7.82100000
 H       6.87000000      22.92400000       7.16600000
 H       8.13200000      22.16400000       7.55600000
 O      13.63500000      25.36300000       2.40300000
 H      13.59900000      26.24300000       2.03000000
 H      12.83200000      25.32200000       3.00700000
 O      14.66100000      25.97500000       8.55300000
 H      15.16100000      26.72500000       8.16300000
 H      15.26700000      25.56500000       9.27700000
 O      13.89900000      28.68000000       9.15400000
 H      14.00100000      27.71900000       9.24800000
 H      13.57500000      28.78700000      10.10600000
 O      15.05900000      27.97100000       4.58000000
 H      14.88600000      28.95100000       4.65600000
 H      15.68900000      27.87000000       5.37300000
 O       6.53800000      23.49200000       3.03200000
 H       7.54200000      23.29600000       3.14000000
 H       6.59900000      24.46600000       3.06700000
 O      12.67200000      28.07200000       1.92900000
 H      12.35700000      28.99000000       1.99700000
 H      12.10300000      27.64900000       1.24100000
 O       9.89200000      29.53400000       8.24900000
 H      10.20600000      28.92800000       8.99800000
 H      10.63500000      30.16100000       7.99100000
 O      15.09700000      22.27900000      10.83700000
 H      15.23400000      22.47500000       9.84400000
 H      15.60600000      22.95200000      11.30200000
 O       7.92200000      25.64800000       4.89600000
 H       7.69200000      26.60800000       4.89100000
 H       8.85100000      25.63600000       5.22600000
 O       8.26400000      26.07200000       1.91500000
 H       8.10500000      26.97600000       1.54700000
 H       7.45600000      25.61900000       1.66600000
 O      10.64200000      27.94000000       5.35400000
 H      10.51400000      27.03800000       4.98100000
 H      11.48000000      27.58200000       5.80000000
 O       7.57500000      29.18800000       1.04200000
 H       7.03100000      30.05200000       0.97200000
 H       7.97100000      29.07100000       0.14300000
 O      15.80600000      22.62200000       8.25800000
 H      16.60000000      22.19300000       7.79500000
 H      15.04800000      22.42200000       7.63200000
 O      14.86900000      20.53400000       2.77300000
 H      15.81900000      20.83200000       2.83300000
 H      14.69900000      21.10200000       1.98300000
 O      10.00700000      24.20900000       7.73400000
 H      10.87100000      24.14700000       8.25000000
 H       9.94900000      23.32800000       7.24200000
 O      10.74900000      25.06800000       4.45000000
 H      10.42800000      24.14200000       4.54200000
 H      11.58000000      25.16400000       4.89200000
 O       9.80600000      29.75700000       2.49400000
 H       9.86800000      29.20300000       3.27500000
 H       9.77400000      30.61800000       2.82200000
 O      13.05800000      26.25200000       5.79800000
 H      13.78200000      26.67300000       5.25800000
 H      13.46900000      26.13900000       6.69500000
 O      10.76600000      28.77700000       1.36900000
 H      10.56000000      29.59200000       0.80100000
 H      10.37900000      29.00200000       2.20800000
 O       5.79000000      24.83000000       6.25800000
 H       6.62300000      25.29400000       6.60700000
 H       6.19400000      24.10500000       5.78300000
 O      10.03500000      21.04100000       8.87700000
 H       9.38800000      20.28500000       9.05400000
 H      10.91500000      20.72700000       9.23500000
 O       5.01700000      21.22500000      11.00200000
 H       5.28300000      21.54600000      11.82100000
 H       5.78900000      21.28300000      10.46600000
 O       5.29600000      28.23500000       7.03600000
 H       5.22400000      27.28700000       7.29000000
 H       4.77700000      28.38000000       6.21200000
