114
XYZ file of cluster: frame_3500_2c88.9d060.c4fab - created by MolEdiTo
 O       8.57500000      21.23800000      28.47100000
 H       8.34200000      22.16200000      28.64600000
 H       9.52400000      21.30900000      28.38200000
 O      10.17100000      24.22600000      27.07400000
 H      10.36300000      24.00100000      27.99100000
 H       9.20300000      24.12400000      26.89400000
 O       8.31500000      28.53300000      26.93700000
 H       8.71500000      27.65300000      26.66800000
 H       7.39300000      28.48800000      26.59800000
 O       3.05100000      30.44900000      29.30700000
 H       3.64600000      31.23300000      29.23100000
 H       2.31500000      30.75500000      29.89400000
 O      10.18600000      26.64200000      28.89600000
 H      10.12000000      27.38000000      29.49800000
 H      10.69900000      26.92200000      28.20000000
 O       7.32300000      24.12100000      26.43000000
 H       7.54600000      24.57200000      25.57400000
 H       6.79300000      24.76000000      26.99000000
 O       6.94300000      25.90500000      29.19600000
 H       6.39800000      26.72600000      29.35900000
 H       6.39200000      25.37600000      28.66200000
 O       4.52200000      25.01200000      27.66400000
 H       3.94500000      25.70000000      27.22900000
 H       3.98100000      24.18500000      27.61000000
 O       5.87400000      30.41700000      26.48800000
 H       6.50300000      31.04200000      27.01800000
 H       5.10200000      30.95900000      26.30400000
 O       3.32000000      27.39200000      28.00900000
 H       3.93900000      27.96300000      28.50200000
 H       2.60800000      28.01100000      27.78000000
 O       6.31600000      21.34500000      25.65500000
 H       6.90600000      22.05900000      25.91700000
 H       5.82900000      21.15800000      26.51800000
 O       8.82400000      23.68400000      29.61500000
 H       8.16700000      23.37700000      30.27900000
 H       8.43900000      24.61600000      29.46300000
 O       5.36000000      27.92700000      29.64000000
 H       5.37300000      28.88500000      29.72500000
 H       4.83900000      27.66300000      30.45700000
 O       2.68900000      25.36700000      30.28000000
 H       2.04600000      25.83600000      30.86400000
 H       3.04100000      25.94300000      29.58100000
 O       5.37500000      21.61300000      28.55300000
 H       5.01200000      21.92000000      29.44000000
 H       6.34200000      21.82800000      28.66300000
 O       1.77900000      21.72200000      29.90400000
 H       1.31000000      20.82400000      29.99900000
 H       2.28400000      21.58300000      29.03600000
 O      10.25400000      24.11600000      30.76100000
 H       9.80700000      23.61900000      30.14100000
 H       9.68400000      24.95700000      30.92200000
 O       9.84200000      29.68500000      28.74600000
 H      10.37900000      30.37200000      28.24400000
 H       9.23400000      29.40800000      28.09200000
 O       6.96100000      23.13000000      30.17800000
 H       7.04700000      22.78500000      31.06600000
 H       6.05100000      23.52500000      30.28900000
 O       1.15400000      21.15800000      26.76700000
 H       0.82700000      20.25400000      26.50900000
 H       0.35700000      21.64100000      27.02300000
 O       8.90200000      22.41100000      37.41900000
 H       8.94500000      22.87300000      36.53200000
 H       8.27800000      21.70000000      37.14300000
 O       3.90800000      22.77400000      35.58200000
 H       3.33400000      23.53700000      35.26200000
 H       4.81800000      22.98500000      35.18900000
 O       2.69800000      29.48200000      34.46700000
 H       2.80200000      29.01300000      35.37800000
 H       2.28600000      30.30600000      34.79500000
 O       4.30600000      26.86800000      36.11400000
 H       4.57900000      26.05500000      36.65600000
 H       5.05600000      27.07700000      35.53100000
 O       7.57500000      29.18800000      32.73900000
 H       7.03100000      30.05200000      32.66900000
 H       7.97100000      29.07100000      31.84000000
 O       6.53800000      23.49200000      34.72900000
 H       7.54200000      23.29600000      34.83700000
 H       6.59900000      24.46600000      34.76400000
 O       9.59200000      22.92600000      34.80300000
 H       9.84000000      23.19300000      33.88300000
 H       9.15900000      22.03900000      34.59500000
 O       8.09000000      30.66200000      36.90200000
 H       9.01100000      30.70900000      37.20300000
 H       7.64500000      30.53300000      37.72500000
 O       1.80900000      22.22100000      33.73000000
 H       0.94200000      21.99100000      34.04300000
 H       2.38600000      21.78300000      34.37500000
 O      10.74900000      25.06800000      36.14700000
 H      10.42800000      24.14200000      36.23900000
 H      11.58000000      25.16400000      36.58900000
 O      10.76600000      28.77700000      33.06600000
 H      10.56000000      29.59200000      32.49800000
 H      10.37900000      29.00200000      33.90500000
 O       9.80600000      29.75700000      34.19100000
 H       9.86800000      29.20300000      34.97200000
 H       9.77400000      30.61800000      34.51900000
 O       5.82900000      27.75600000      33.84500000
 H       5.17500000      27.71800000      33.13100000
 H       6.62400000      28.16200000      33.40600000
 O       1.34800000      25.49400000      34.75900000
 H       0.91300000      25.71100000      33.92500000
 H       2.30600000      25.51900000      34.50500000
 O       3.38000000      28.01500000      33.15000000
 H       2.61300000      27.87800000      32.60200000
 H       3.01700000      28.48000000      33.95800000
 O       7.92200000      25.64800000      36.59300000
 H       7.69200000      26.60800000      36.58800000
 H       8.85100000      25.63600000      36.92300000
 O       8.26400000      26.07200000      33.61200000
 H       8.10500000      26.97600000      33.24400000
 H       7.45600000      25.61900000      33.36300000
 O       4.10200000      23.19500000      33.15200000
 H       3.60100000      22.37000000      33.08900000
 H       3.41600000      23.87100000      32.78300000
