126
XYZ file of cluster: frame_3500_6f250.6e46.2a26 - created by MolEdiTo
 O      23.30600000       7.26600000       1.67300000
 H      22.97100000       6.35600000       1.44100000
 H      23.34800000       7.60000000       0.77300000
 O      14.75600000       9.41500000       1.15900000
 H      14.25700000       9.11000000       1.94600000
 H      15.67600000       9.67200000       1.59400000
 O      22.57800000       3.42700000       2.52900000
 H      21.91600000       3.10100000       3.19700000
 H      22.14000000       4.15600000       2.18600000
 O      19.25200000       2.18400000       9.69300000
 H      19.55300000       2.78600000      10.31200000
 H      20.04000000       1.91400000       9.23800000
 O      15.26500000       1.00800000       4.97700000
 H      15.34800000       1.99600000       4.79700000
 H      15.99400000       0.88900000       5.63800000
 O      17.17800000       7.09700000      10.41400000
 H      17.22700000       7.66600000      11.14500000
 H      17.40500000       6.12200000      10.71800000
 O      26.03500000       2.54600000       7.55600000
 H      25.27700000       2.82200000       7.04000000
 H      25.96700000       3.10900000       8.44200000
 O      21.26200000       2.29900000       4.92600000
 H      21.60800000       1.52800000       5.40300000
 H      20.82600000       2.80800000       5.66000000
 O      17.48000000       4.17200000       8.31600000
 H      17.90200000       3.49100000       8.97000000
 H      16.62500000       4.23000000       8.82500000
 O      20.79900000       6.37400000       5.24800000
 H      20.49900000       6.17600000       6.18700000
 H      20.29800000       7.18800000       5.05000000
 O      19.80300000      10.53400000      10.86200000
 H      20.24200000      11.14700000      10.17700000
 H      18.96700000      10.22000000      10.47700000
 O      25.03200000       2.88800000      10.36400000
 H      24.34400000       2.55900000      10.95900000
 H      24.57700000       3.70200000      10.05200000
 O      22.33100000       5.33800000       1.07200000
 H      22.40900000       6.03200000       0.34200000
 H      22.53800000       4.54900000       0.55200000
 O      26.33100000       4.99200000       2.03300000
 H      25.92300000       4.36500000       2.68800000
 H      25.59100000       5.58900000       1.82800000
 O      16.75000000       4.94600000       9.91500000
 H      16.66000000       4.52200000      10.79600000
 H      16.59900000       5.83900000      10.37300000
 O      24.67800000      11.19700000       7.11500000
 H      24.85100000      10.30100000       7.62300000
 H      25.58600000      11.49400000       6.94200000
 O      15.02100000       3.29100000       3.12900000
 H      15.78600000       3.35000000       2.44700000
 H      14.47600000       4.12600000       3.01100000
 O      20.25400000       3.66300000       7.14400000
 H      19.37800000       3.69400000       7.51700000
 H      20.75800000       4.22800000       7.74700000
 O      24.63600000       6.04600000       7.45600000
 H      25.44500000       6.09500000       6.97200000
 H      24.19200000       5.34200000       6.95500000
 O      24.57400000      10.05300000       2.83800000
 H      24.03600000       9.26000000       2.74200000
 H      24.14900000      10.56700000       2.10200000
 O      24.13000000       3.62300000       5.66400000
 H      23.74600000       4.16000000       4.97200000
 H      24.58200000       2.84500000       5.28300000
 O      17.30000000      10.01600000       9.68700000
 H      16.37400000      10.00500000       9.19100000
 H      17.39100000       9.01700000       9.89000000
 O      16.17900000       9.01400000       9.25400000
 H      15.41100000       9.04900000       9.84100000
 H      16.19400000       8.03400000       9.10200000
 O      22.15700000       5.93200000       8.89200000
 H      21.83100000       6.53900000       9.54900000
 H      22.97700000       6.30000000       8.53000000
 O      16.65900000       9.34000000       4.17600000
 H      16.51400000       8.49700000       4.74900000
 H      17.61200000       9.47800000       4.23900000
 O      18.49000000       2.74900000       1.93900000
 H      18.55400000       1.86100000       1.58100000
 H      18.46700000       3.29600000       1.11000000
 O      15.42700000      10.61900000       3.25500000
 H      16.23200000      10.10700000       3.52300000
 H      15.82600000      11.53900000       3.05400000
 O      23.72000000       6.65800000       4.40600000
 H      22.90300000       6.82800000       4.90200000
 H      23.61000000       7.01000000       3.55100000
 O      24.95100000       2.00400000       2.44200000
 H      24.90900000       1.57800000       1.57500000
 H      24.17000000       2.59200000       2.43000000
 O      17.15200000       8.82500000       1.50100000
 H      17.69100000       8.01100000       1.10900000
 H      17.69300000       9.15800000       2.22700000
 O      19.79100000       9.66300000       4.89700000
 H      19.36400000       9.77400000       5.80200000
 H      20.72600000      10.19100000       4.91400000
 O      17.18700000       4.01900000       1.75200000
 H      16.84000000       4.10700000       0.76200000
 H      17.96400000       3.40700000       1.82900000
 O      18.08100000       7.23000000       6.06000000
 H      17.19100000       6.77300000       5.85700000
 H      18.17800000       7.17200000       7.05500000
 O      26.32500000       8.26000000       4.24700000
 H      26.34700000       7.54400000       4.96000000
 H      25.35300000       8.38400000       4.18500000
 O      19.26900000      10.49600000       7.34800000
 H      19.87600000      10.98200000       7.92800000
 H      18.63500000      10.10600000       7.93100000
 O      15.65900000       6.61100000       8.10500000
 H      14.92700000       6.01500000       7.78700000
 H      16.26200000       5.95200000       8.49500000
 O      19.50400000       6.10900000       2.31600000
 H      20.11500000       6.06100000       3.06000000
 H      20.11300000       5.96400000       1.56500000
 O      18.86300000       9.00100000       2.06700000
 H      19.11600000       8.15300000       2.39200000
 H      19.26200000       9.62900000       2.70300000
 O      19.19500000       6.56600000       7.59600000
 H      18.97200000       5.57700000       7.53200000
 H      18.78300000       6.82900000       8.35100000
 O      16.62400000       5.07300000       4.82700000
 H      16.65600000       4.52800000       4.00900000
 H      17.51800000       5.22100000       5.10300000
 O      17.91500000       2.09200000       5.18100000
 H      18.28200000       1.51100000       4.49600000
 H      17.99300000       2.93600000       4.73300000
 O      24.42600000       8.34200000       8.93200000
 H      24.35100000       7.78600000       8.18300000
 H      25.37700000       8.35300000       9.06700000
