147
XYZ file of cluster: frame_3500_48b42.0.24d32 - created by MolEdiTo
 O      20.02100000       2.38500000      13.17700000
 H      20.86800000       1.95700000      12.87600000
 H      20.35200000       3.18100000      13.58400000
 O      12.13400000       5.67400000       8.62500000
 H      12.35800000       5.96800000       7.74500000
 H      11.88000000       4.75400000       8.53700000
 O      14.16300000       9.99400000       6.84900000
 H      13.26500000      10.01100000       7.17700000
 H      14.72000000       9.70800000       7.61400000
 O      16.05000000       9.10100000      13.05900000
 H      15.94600000       9.47600000      14.02800000
 H      16.87900000       9.57300000      12.82400000
 O      20.98900000       4.15800000      10.90500000
 H      20.19000000       4.33700000      11.44000000
 H      21.73400000       4.37000000      11.53300000
 O      19.25200000       2.18400000       9.69300000
 H      19.55300000       2.78600000      10.31200000
 H      20.04000000       1.91400000       9.23800000
 O      18.25700000       4.06400000      11.80600000
 H      17.59300000       4.08100000      12.52100000
 H      18.47900000       3.11100000      11.78200000
 O      15.26500000       1.00800000       4.97700000
 H      15.34800000       1.99600000       4.79700000
 H      15.99400000       0.88900000       5.63800000
 O      19.14300000       5.56000000      15.36200000
 H      20.02100000       5.35700000      15.64200000
 H      18.50100000       5.11300000      15.97700000
 O      13.15500000       2.85600000      15.46500000
 H      13.11900000       2.83700000      16.47400000
 H      13.42200000       3.76300000      15.29400000
 O      17.17800000       7.09700000      10.41400000
 H      17.22700000       7.66600000      11.14500000
 H      17.40500000       6.12200000      10.71800000
 O      14.89500000       2.82300000      10.22500000
 H      14.63000000       2.26800000       9.43800000
 H      14.97400000       3.76100000       9.97700000
 O      21.26200000       2.29900000       4.92600000
 H      21.60800000       1.52800000       5.40300000
 H      20.82600000       2.80800000       5.66000000
 O      17.48000000       4.17200000       8.31600000
 H      17.90200000       3.49100000       8.97000000
 H      16.62500000       4.23000000       8.82500000
 O      20.79900000       6.37400000       5.24800000
 H      20.49900000       6.17600000       6.18700000
 H      20.29800000       7.18800000       5.05000000
 O      10.81000000      11.00100000       7.80600000
 H      10.16400000      11.40400000       7.09300000
 H      10.81100000      10.05200000       7.70400000
 O      14.18500000       1.14800000       7.88700000
 H      14.64900000       0.87100000       7.02000000
 H      14.17700000       0.32400000       8.46000000
 O      19.80300000      10.53400000      10.86200000
 H      20.24200000      11.14700000      10.17700000
 H      18.96700000      10.22000000      10.47700000
 O      16.75000000       4.94600000       9.91500000
 H      16.66000000       4.52200000      10.79600000
 H      16.59900000       5.83900000      10.37300000
 O       9.66800000       4.56900000       5.49700000
 H      10.62000000       4.37700000       5.44100000
 H       9.32600000       3.96900000       4.78100000
 O      15.70100000       2.92000000      12.84100000
 H      15.08800000       2.82200000      12.02700000
 H      15.97900000       1.96100000      13.08300000
 O      11.15400000       0.95500000       5.73700000
 H      11.09500000       0.00000000       5.77900000
 H      11.94700000       1.14400000       5.25900000
 O      20.25400000       3.66300000       7.14400000
 H      19.37800000       3.69400000       7.51700000
 H      20.75800000       4.22800000       7.74700000
 O      15.42700000       6.53700000      12.06400000
 H      15.54900000       5.96000000      12.81700000
 H      15.59600000       7.45200000      12.42100000
 O      17.30000000      10.01600000       9.68700000
 H      16.37400000      10.00500000       9.19100000
 H      17.39100000       9.01700000       9.89000000
 O      16.17900000       9.01400000       9.25400000
 H      15.41100000       9.04900000       9.84100000
 H      16.19400000       8.03400000       9.10200000
 O      12.21600000       7.12700000      11.13500000
 H      11.77400000       6.83300000      10.26800000
 H      12.85500000       6.37200000      11.27600000
 O      15.08700000       7.84500000       5.13300000
 H      14.95700000       7.49000000       6.00400000
 H      14.90300000       8.77600000       5.17100000
 O      19.94300000       8.60800000      15.74600000
 H      20.32900000       7.76500000      16.12000000
 H      20.44500000       8.61800000      14.90600000
 O      11.64900000       8.55300000       6.59100000
 H      10.95100000       7.95900000       6.24800000
 H      12.13500000       8.73100000       5.70500000
 O      13.41600000       9.53200000      12.62200000
 H      14.41700000       9.45100000      12.66000000
 H      13.13200000       8.65500000      12.62300000
 O      17.89400000      10.38700000      15.29300000
 H      17.42200000      10.52500000      14.40500000
 H      18.63400000       9.82100000      14.96000000
 O      19.79100000       9.66300000       4.89700000
 H      19.36400000       9.77400000       5.80200000
 H      20.72600000      10.19100000       4.91400000
 O       9.76600000       9.57000000      12.76100000
 H       9.43400000       9.49100000      11.76000000
 H      10.64000000       9.07900000      12.80700000
 O      18.08100000       7.23000000       6.06000000
 H      17.19100000       6.77300000       5.85700000
 H      18.17800000       7.17200000       7.05500000
 O      13.48900000       9.65000000       9.52100000
 H      12.89600000       8.90200000       9.45500000
 H      13.25200000      10.18200000      10.27400000
 O      19.26900000      10.49600000       7.34800000
 H      19.87600000      10.98200000       7.92800000
 H      18.63500000      10.10600000       7.93100000
 O      15.65900000       6.61100000       8.10500000
 H      14.92700000       6.01500000       7.78700000
 H      16.26200000       5.95200000       8.49500000
 O      12.78500000       8.27800000      15.65300000
 H      12.55800000       8.49100000      14.71600000
 H      12.62200000       7.32100000      15.71800000
 O      16.63400000       7.50100000      15.73800000
 H      16.78900000       8.03400000      14.88500000
 H      17.48800000       7.39400000      16.16900000
 O      12.03500000       4.99700000      13.46300000
 H      12.33200000       4.08300000      13.28500000
 H      11.22700000       4.89700000      12.85400000
 O       9.88900000      10.43000000      15.65000000
 H      10.82000000      10.30200000      15.78000000
 H       9.82500000      10.28700000      14.66500000
 O      11.98600000       1.89400000      12.91100000
 H      12.62500000       2.27300000      13.51200000
 H      11.81000000       0.98500000      13.16300000
 O      11.46000000       2.98600000       7.84200000
 H      12.37200000       2.57200000       7.68800000
 H      10.79900000       2.46600000       7.33500000
 O      19.19500000       6.56600000       7.59600000
 H      18.97200000       5.57700000       7.53200000
 H      18.78300000       6.82900000       8.35100000
 O      14.13800000       5.21700000       6.35100000
 H      14.91200000       5.44400000       5.66800000
 H      13.41000000       4.85300000       5.75400000
 O      18.71300000       7.83900000      13.06400000
 H      18.82900000       7.13900000      13.74000000
 H      19.53800000       8.28100000      13.08400000
 O      15.22200000       9.85300000      15.58200000
 H      15.45700000      10.14000000      16.49100000
 H      14.26600000       9.58400000      15.51300000
 O      15.56000000       4.53100000      15.24900000
 H      16.05900000       5.35400000      15.15100000
 H      15.83400000       4.05700000      14.44100000
