175
XYZ file of cluster: frame_3500_4774c.4e3f8.680ef - created by MolEdiTo
 O      12.85000000      16.29200000      25.50800000
 H      13.62300000      16.53300000      26.06100000
 H      12.56400000      15.49700000      26.01800000
 O      11.90600000      19.25800000      21.04100000
 H      11.88500000      20.18800000      20.76900000
 H      11.01400000      19.09500000      21.02000000
 O      15.63300000      21.08600000      16.63000000
 H      14.89900000      20.85900000      17.22300000
 H      15.25500000      21.69300000      15.87600000
 O      18.03900000      15.52800000      24.34400000
 H      17.67100000      14.66100000      24.61800000
 H      17.17900000      15.92100000      24.03300000
 O      17.85500000      18.87400000      21.49300000
 H      17.29900000      19.36800000      20.82800000
 H      17.73500000      19.26100000      22.42800000
 O      10.92900000      11.33300000      18.71900000
 H      10.39100000      12.17800000      18.68000000
 H      11.19000000      11.21800000      17.79800000
 O      13.26500000      20.23500000      17.50000000
 H      12.66900000      19.59100000      17.90900000
 H      12.81000000      21.10800000      17.61000000
 O      20.84600000      16.24400000      17.54500000
 H      19.90600000      16.54300000      17.40000000
 H      21.26800000      16.93600000      18.10700000
 O      16.12800000      15.96900000      23.27700000
 H      15.37500000      16.48300000      22.83000000
 H      15.95900000      15.07600000      23.13700000
 O      10.52400000      17.11000000      17.44600000
 H       9.94200000      16.33500000      17.29900000
 H      11.28900000      16.66000000      17.96100000
 O       9.95900000      14.92200000      24.19400000
 H      10.63900000      14.67400000      24.85900000
 H       9.16600000      14.89200000      24.82000000
 O      18.22300000      19.27900000      24.93000000
 H      17.67700000      20.14400000      25.04700000
 H      17.74700000      18.66200000      25.51800000
 O      20.52400000      15.86700000      20.42200000
 H      20.12700000      15.02100000      20.08200000
 H      20.12000000      16.03500000      21.30000000
 O      12.41800000      16.10900000      15.67600000
 H      11.77700000      16.09800000      15.01200000
 H      11.97100000      16.77200000      16.23800000
 O      17.84700000      16.36300000      20.85300000
 H      17.03100000      16.64100000      21.32300000
 H      18.45600000      17.09000000      21.02400000
 O      13.10600000      13.22100000      18.47400000
 H      13.76800000      13.88400000      18.16100000
 H      13.36500000      13.25600000      19.47600000
 O      20.82600000      18.74600000      21.02500000
 H      21.10900000      18.13300000      20.38100000
 H      19.89300000      18.65900000      20.98500000
 O      15.73500000      10.45100000      24.29100000
 H      16.01400000      11.27800000      23.90100000
 H      14.82300000      10.50100000      24.67200000
 O      18.52200000      15.53500000      15.62000000
 H      18.02800000      15.98900000      16.31700000
 H      18.68500000      14.71300000      16.16900000
 O      20.32800000      16.78300000      23.35500000
 H      19.35600000      16.71400000      23.54700000
 H      20.38400000      17.75200000      23.33200000
 O      17.08700000      20.90600000      23.38700000
 H      17.59400000      20.87600000      24.24000000
 H      16.18200000      21.00700000      23.79000000
 O      20.38700000      11.59900000      18.84000000
 H      19.68500000      11.49000000      18.16300000
 H      21.15700000      11.77800000      18.23300000
 O      17.19300000      12.70700000      22.09400000
 H      16.55700000      13.41900000      22.34300000
 H      18.07100000      12.97100000      22.46200000
 O      12.42000000      11.63900000      16.15500000
 H      12.44800000      12.26100000      16.98700000
 H      12.82400000      12.25700000      15.51600000
 O      12.34800000      11.01700000      21.06100000
 H      12.46900000      10.09300000      20.91200000
 H      12.11200000      11.38500000      20.15200000
 O      12.00700000      12.89800000      24.23200000
 H      12.46500000      12.52200000      23.42300000
 H      11.38900000      12.16200000      24.54900000
 O      13.39300000      17.14500000      18.80700000
 H      13.85000000      17.78500000      18.30900000
 H      13.01300000      17.55700000      19.55000000
 O      20.70500000      18.63400000      25.89700000
 H      20.58600000      17.82900000      26.40500000
 H      19.86100000      18.75200000      25.45500000
 O      10.88300000      16.17700000      23.57000000
 H      10.51000000      15.30800000      23.37800000
 H      11.61000000      15.87300000      24.17900000
 O      17.53500000      12.07600000      18.03900000
 H      16.82800000      11.61000000      17.70000000
 H      17.12200000      12.97000000      18.20300000
 O      11.20700000      15.55800000      19.90400000
 H      11.42500000      15.03200000      20.68000000
 H      10.29800000      15.73400000      19.92600000
 O      14.03200000      15.74700000      19.99000000
 H      13.67600000      16.51400000      19.42000000
 H      13.24200000      15.30600000      20.39300000
 O      16.87000000      16.16000000      26.03500000
 H      16.57200000      16.76300000      26.73800000
 H      16.45100000      16.49000000      25.25000000
 O      15.47600000      14.24300000      25.61800000
 H      15.82600000      15.05900000      26.01500000
 H      15.51300000      13.68100000      26.41500000
 C      16.58800000      15.29500000      17.48700000
 C      15.36800000      16.05200000      16.86700000
 C      15.71500000      15.84200000      14.26800000
 H      16.92200000      16.89900000      15.56400000
 H      15.50400000      15.05100000      19.16800000
 O      15.14700000      17.95300000      15.28300000
 O      17.43100000      14.78500000      16.83000000
 O      16.36000000      14.75200000      18.74100000
 C      15.86300000      16.70000000      15.49900000
 O      14.24300000      15.13300000      16.63100000
 H      15.06400000      16.85800000      17.50800000
 O      14.76000000      15.73500000      13.51000000
 O      16.85200000      15.09300000      14.05400000
 H      17.47600000      15.04600000      14.79900000
 H      13.50100000      15.71100000      16.26000000
 H      14.14500000      17.77900000      15.38200000
 O      19.27500000      14.39100000      19.73600000
 H      19.81800000      13.60500000      19.59100000
 H      18.61400000      14.29300000      18.98000000
 O      10.92400000      20.28600000      26.53400000
 H      10.47600000      19.42500000      26.71700000
 H      10.36900000      20.59600000      25.76000000
 O      20.50900000      19.99300000      17.78700000
 H      21.05000000      20.24000000      18.56600000
 H      19.61300000      20.33900000      18.07400000
 O      11.47900000      19.07300000      23.81900000
 H      11.08700000      18.25400000      24.18100000
 H      11.62400000      18.78000000      22.90300000
 O      14.23200000      20.69500000      24.54100000
 H      13.77300000      19.79500000      24.54000000
 H      13.66800000      21.25100000      23.92200000
 O      20.26500000      13.64700000      22.36200000
 H      20.10700000      12.71700000      22.21900000
 H      19.81500000      14.01800000      21.63900000
 O      14.28900000      17.71500000      22.12900000
 H      13.38500000      17.79400000      21.64700000
 H      14.47100000      18.65200000      21.99700000
 O      19.37200000      11.32200000      21.32900000
 H      20.00800000      11.17900000      20.55100000
 H      18.55000000      11.21200000      20.86200000
 O       9.91600000      21.75100000      23.32200000
 H      10.56300000      22.35100000      23.79600000
 H      10.29900000      20.95600000      23.03200000
 O      15.23500000      11.04000000      20.74700000
 H      14.52700000      11.13300000      21.41300000
 H      15.99900000      11.55500000      21.11200000
 O      16.48400000      18.23600000      18.34500000
 H      16.49900000      19.01000000      17.78300000
 H      16.24300000      18.54800000      19.24500000
 O      17.10800000      16.40200000      18.07500000
 H      16.45000000      17.18600000      18.22700000
 H      16.92200000      15.89200000      18.91900000
 O      15.17100000      14.56600000      22.95800000
 H      15.19200000      14.62800000      23.97000000
 H      14.25200000      14.87900000      22.72100000
 O      18.75400000      14.09200000      16.64700000
 H      17.97500000      13.51700000      16.57000000
 H      19.35100000      13.88900000      15.94100000
 O      13.75400000      12.00400000      26.91100000
 H      13.72100000      12.64500000      26.16500000
 H      13.58700000      11.18700000      26.43400000
 O      15.81100000      19.80000000      20.95100000
 H      15.74300000      20.51300000      20.24100000
 H      16.51300000      19.96800000      21.57400000
 O      11.06500000      14.30500000      16.99100000
 H      11.77400000      13.92900000      17.57100000
 H      11.47500000      14.09900000      16.05700000
 O      11.86200000      14.49700000      21.75500000
 H      11.57500000      14.21800000      22.65300000
 H      11.34000000      13.96700000      21.14200000
 O      13.62900000      17.92000000      25.31200000
 H      13.46400000      17.18200000      24.67900000
 H      12.78200000      18.45500000      25.12200000
