166
XYZ file of cluster: frame_3500_22b6f.1f73e.20c21 - created by MolEdiTo
 O      12.13400000       5.67400000       8.62500000
 H      12.35800000       5.96800000       7.74500000
 H      11.88000000       4.75400000       8.53700000
 O      11.74700000      13.86700000       7.43100000
 H      11.44500000      12.98400000       7.68900000
 H      11.70100000      14.30800000       8.30300000
 O      12.10700000      12.07100000      12.35200000
 H      12.86200000      12.64900000      12.12500000
 H      12.52700000      11.15500000      12.27300000
 O      14.16300000       9.99400000       6.84900000
 H      13.26500000      10.01100000       7.17700000
 H      14.72000000       9.70800000       7.61400000
 O      15.59100000      12.81100000       5.83300000
 H      15.05600000      13.58400000       6.12500000
 H      15.10500000      11.93300000       6.01900000
 O       6.00200000       9.86900000      16.02700000
 H       5.44400000       9.95900000      15.19400000
 H       5.49200000       9.73200000      16.85000000
 O       5.18700000      10.84800000       5.49700000
 H       5.32100000      10.91800000       6.43800000
 H       4.69700000      11.65600000       5.18300000
 O      10.81000000      11.00100000       7.80600000
 H      10.16400000      11.40400000       7.09300000
 H      10.81100000      10.05200000       7.70400000
 O       7.83300000       7.93200000      14.65600000
 H       8.12900000       8.80000000      14.36300000
 H       7.07000000       8.13400000      15.23200000
 O       5.38400000       7.82700000      13.15400000
 H       4.59900000       7.31800000      13.48500000
 H       5.57400000       7.32000000      12.31000000
 O       8.79400000      15.40200000      10.27800000
 H       7.94900000      15.08500000      10.66100000
 H       9.03700000      16.15700000      10.89500000
 O       5.77000000       7.46800000       7.29000000
 H       5.74400000       7.94600000       6.41900000
 H       5.56900000       6.48200000       6.99700000
 O      15.00300000      15.87500000       9.60700000
 H      15.31100000      15.23200000       8.92200000
 H      15.87400000      15.99200000      10.06200000
 O      10.02700000      15.65700000      12.89200000
 H      10.56300000      16.50100000      12.70000000
 H       9.87900000      15.82800000      13.79900000
 O       7.02800000      11.29100000      13.64700000
 H       7.94700000      11.20900000      13.22200000
 H       7.05900000      10.79700000      14.51200000
 O       5.66500000       6.32400000      10.44200000
 H       4.85300000       6.02300000       9.97400000
 H       5.81800000       7.04000000       9.90200000
 O      12.39600000      14.22000000      14.35600000
 H      12.11100000      13.61700000      13.66900000
 H      13.04600000      14.75100000      13.90500000
 O      15.42700000       6.53700000      12.06400000
 H      15.54900000       5.96000000      12.81700000
 H      15.59600000       7.45200000      12.42100000
 O       5.14000000      13.39400000      13.82200000
 H       4.49000000      12.69400000      13.90100000
 H       5.96100000      12.82100000      13.60800000
 O      16.17900000       9.01400000       9.25400000
 H      15.41100000       9.04900000       9.84100000
 H      16.19400000       8.03400000       9.10200000
 O       6.28900000      15.87600000      15.08200000
 H       6.60900000      15.48600000      15.94400000
 H       5.96800000      15.13900000      14.51000000
 O      12.42000000      11.63900000      16.15500000
 H      12.44800000      12.26100000      16.98700000
 H      12.82400000      12.25700000      15.51600000
 O       7.95600000       5.60400000      11.73500000
 H       8.52900000       5.06200000      11.23100000
 H       7.22000000       5.83900000      11.08400000
 O      12.21600000       7.12700000      11.13500000
 H      11.77400000       6.83300000      10.26800000
 H      12.85500000       6.37200000      11.27600000
 O       9.14700000      16.31700000      15.76500000
 H       8.18900000      16.41400000      16.02100000
 H       9.51100000      15.62300000      16.37300000
 O       6.04100000      10.65400000       8.20900000
 H       6.07400000       9.63600000       8.01500000
 H       6.98900000      10.89100000       8.44600000
 O       7.65700000      15.76200000       7.71500000
 H       8.31700000      15.53200000       6.98900000
 H       8.20400000      16.16100000       8.43600000
 O       9.88500000      12.14700000       5.56200000
 H       9.12200000      11.90200000       4.95500000
 H      10.40200000      12.56500000       4.84600000
 O      15.08700000       7.84500000       5.13300000
 H      14.95700000       7.49000000       6.00400000
 H      14.90300000       8.77600000       5.17100000
 O       5.00400000      15.56100000       6.35700000
 H       4.45300000      14.83800000       5.96400000
 H       5.66900000      15.07400000       6.91600000
 O      12.05000000      14.20600000       4.54300000
 H      12.23800000      15.09900000       4.25300000
 H      12.02000000      14.18500000       5.55500000
 O       7.42700000      16.42700000      13.19900000
 H       7.50200000      15.57200000      12.69700000
 H       7.07600000      15.99700000      13.99200000
 O      11.64900000       8.55300000       6.59100000
 H      10.95100000       7.95900000       6.24800000
 H      12.13500000       8.73100000       5.70500000
 O       6.84700000      15.00600000      11.52400000
 H       7.67200000      14.44700000      11.42300000
 H       6.32000000      14.54900000      10.88300000
 C      16.58800000      15.29500000      17.48700000
 C      15.36800000      16.05200000      16.86700000
 C      15.71500000      15.84200000      14.26800000
 H      16.92200000      16.89900000      15.56400000
 H      15.50400000      15.05100000      19.16800000
 O      15.14700000      17.95300000      15.28300000
 O      17.43100000      14.78500000      16.83000000
 O      16.36000000      14.75200000      18.74100000
 C      15.86300000      16.70000000      15.49900000
 O      14.24300000      15.13300000      16.63100000
 H      15.06400000      16.85800000      17.50800000
 O      14.76000000      15.73500000      13.51000000
 O      16.85200000      15.09300000      14.05400000
 H      17.47600000      15.04600000      14.79900000
 H      13.50100000      15.71100000      16.26000000
 H      14.14500000      17.77900000      15.38200000
 O      13.41600000       9.53200000      12.62200000
 H      14.41700000       9.45100000      12.66000000
 H      13.13200000       8.65500000      12.62300000
 O       9.06100000      14.88000000       5.73300000
 H       8.93200000      13.93300000       5.77100000
 H      10.03300000      15.10700000       5.75400000
 O       9.76600000       9.57000000      12.76100000
 H       9.43400000       9.49100000      11.76000000
 H      10.64000000       9.07900000      12.80700000
 O      13.48900000       9.65000000       9.52100000
 H      12.89600000       8.90200000       9.45500000
 H      13.25200000      10.18200000      10.27400000
 O      14.09300000      14.14600000      11.50600000
 H      14.00000000      14.81000000      10.67900000
 H      14.83700000      14.58000000      12.03500000
 O       9.33500000      13.04900000      12.09100000
 H      10.26600000      12.75600000      12.02900000
 H       9.42900000      13.88100000      12.64700000
 O      11.45500000      15.25300000       9.83900000
 H      11.58400000      15.55800000      10.82500000
 H      10.51800000      15.48900000       9.73300000
 O      15.65900000       6.61100000       8.10500000
 H      14.92700000       6.01500000       7.78700000
 H      16.26200000       5.95200000       8.49500000
 O      14.95000000      12.32000000       8.88900000
 H      14.00900000      12.54800000       8.71100000
 H      14.94700000      11.37300000       9.00300000
 O      12.78500000       8.27800000      15.65300000
 H      12.55800000       8.49100000      14.71600000
 H      12.62200000       7.32100000      15.71800000
 O       9.88900000      10.43000000      15.65000000
 H      10.82000000      10.30200000      15.78000000
 H       9.82500000      10.28700000      14.66500000
 O       7.38500000       5.30700000      14.31000000
 H       7.47000000       6.32500000      14.50100000
 H       7.70500000       5.35300000      13.35900000
 O      14.13800000       5.21700000       6.35100000
 H      14.91200000       5.44400000       5.66800000
 H      13.41000000       4.85300000       5.75400000
 O       9.25300000      10.29600000      10.35700000
 H       9.08100000      11.09200000      10.93800000
 H       9.63500000      10.65800000       9.55100000
 O      15.22200000       9.85300000      15.58200000
 H      15.45700000      10.14000000      16.49100000
 H      14.26600000       9.58400000      15.51300000
 O      15.56000000       4.53100000      15.24900000
 H      16.05900000       5.35400000      15.15100000
 H      15.83400000       4.05700000      14.44100000
