166
XYZ file of cluster: frame_3500_69404.7210d.2582a - created by MolEdiTo
 O      22.83700000      24.11800000      15.34400000
 H      23.76400000      23.81100000      15.32500000
 H      22.55400000      24.20300000      14.40800000
 O      22.33500000      24.03200000      12.03400000
 H      21.48900000      24.19200000      12.51000000
 H      22.39000000      24.74900000      11.34300000
 O      23.54900000      22.27600000       9.20500000
 H      24.01200000      22.78900000       9.86000000
 H      23.92400000      21.39000000       9.03200000
 O      21.61900000      16.20300000      14.50800000
 H      21.62500000      15.93900000      13.60400000
 H      20.86000000      15.89100000      14.92100000
 O      24.05100000      15.39100000      10.31700000
 H      24.13400000      15.53800000       9.31500000
 H      24.09700000      16.31200000      10.65600000
 O      18.13700000      16.85400000      11.84000000
 H      18.81800000      16.85600000      12.54700000
 H      17.59700000      17.65100000      12.16300000
 O      18.07600000      22.86200000      12.12900000
 H      18.06800000      21.87600000      11.93000000
 H      18.19300000      23.26800000      11.24100000
 O      20.19600000      16.03900000       8.85700000
 H      20.32800000      15.47100000       8.00200000
 H      19.28500000      15.76000000       9.01800000
 O      19.85300000      25.43300000       9.72500000
 H      20.27700000      24.54100000       9.93400000
 H      20.00000000      25.57500000       8.68400000
 O      21.10900000      17.48700000       6.25400000
 H      21.04900000      16.53300000       6.05900000
 H      20.17200000      17.74900000       5.99200000
 O      17.03100000      24.77800000      10.05300000
 H      17.96400000      25.04300000       9.95900000
 H      16.76500000      24.39100000       9.21000000
 O      22.28200000      20.89100000       6.18000000
 H      23.19400000      21.34600000       6.19700000
 H      22.21200000      20.63000000       7.21000000
 O      19.23800000      17.89900000      14.60200000
 H      20.21800000      17.85400000      14.75100000
 H      18.93900000      17.03500000      14.94800000
 O      15.00300000      15.87500000       9.60700000
 H      15.31100000      15.23200000       8.92200000
 H      15.87400000      15.99200000      10.06200000
 O      24.27100000      18.09500000       5.87500000
 H      23.28300000      18.04400000       5.67800000
 H      24.24300000      18.45700000       6.76900000
 O      23.72800000      21.35900000      12.90600000
 H      22.96500000      20.96800000      13.37900000
 H      23.37000000      21.82400000      12.14800000
 O      18.22200000      17.90100000       7.53700000
 H      19.03600000      17.81000000       7.99500000
 H      17.75500000      17.01300000       7.60300000
 O      24.24000000      17.63600000      12.14300000
 H      24.57600000      18.24900000      12.80000000
 H      24.08200000      16.72100000      12.60000000
 O      25.73900000      26.32900000       6.38000000
 H      26.48000000      25.73200000       6.66800000
 H      25.99800000      26.84500000       5.59500000
 O      19.31700000      20.63500000      11.33000000
 H      18.40900000      20.46700000      11.10700000
 H      19.29400000      20.57500000      12.27800000
 O      25.40600000      23.04400000      14.68500000
 H      26.00400000      23.53700000      14.08700000
 H      24.74200000      22.55200000      14.09600000
 O      24.06700000      23.67300000       6.58200000
 H      24.06400000      23.33600000       7.52200000
 H      24.59200000      24.53300000       6.75400000
 O      25.74300000      17.14000000      16.47800000
 H      25.73500000      17.00500000      15.52600000
 H      25.95500000      16.24200000      16.72900000
 O      17.72400000      20.08800000      11.54600000
 H      17.47900000      19.36400000      10.92800000
 H      17.33500000      19.85100000      12.41000000
 O      18.52200000      15.53500000      15.62000000
 H      18.02800000      15.98900000      16.31700000
 H      18.68500000      14.71300000      16.16900000
 O      26.49900000      20.31900000      12.87800000
 H      26.81700000      20.99000000      12.16400000
 H      25.53300000      20.41000000      12.73000000
 O      22.00900000      19.32800000       8.54300000
 H      21.66600000      18.40900000       8.32600000
 H      22.10700000      19.30800000       9.53400000
 O      20.80000000      22.64500000       9.95200000
 H      20.24900000      22.03000000      10.46800000
 H      21.67900000      22.15300000      10.04000000
 O      22.08600000      18.92500000      11.29000000
 H      22.78900000      18.33000000      11.73300000
 H      21.36800000      19.08200000      11.99200000
 O      17.27700000      15.27400000      10.84200000
 H      18.10800000      15.86600000      10.83900000
 H      16.93500000      15.14200000      11.72500000
 O      26.38100000      20.45700000       7.87500000
 H      27.15800000      19.87300000       7.88400000
 H      25.86900000      19.97600000       8.55600000
 O      25.41600000      24.35400000      10.04600000
 H      24.95800000      25.12000000      10.37000000
 H      25.95500000      24.70800000       9.32400000
 O      18.03700000      15.37800000       5.62900000
 H      17.43200000      15.64200000       4.87000000
 H      18.84100000      15.84800000       5.41100000
 O      16.55600000      18.12700000       9.74200000
 H      17.28100000      17.50800000      10.17400000
 H      16.92600000      18.42500000       8.89600000
 O      19.34500000      20.78300000       8.08900000
 H      20.03600000      20.70700000       7.38700000
 H      19.73200000      20.19200000       8.85000000
 C      16.58800000      15.29500000      17.48700000
 C      15.36800000      16.05200000      16.86700000
 C      15.71500000      15.84200000      14.26800000
 H      16.92200000      16.89900000      15.56400000
 H      15.50400000      15.05100000      19.16800000
 O      15.14700000      17.95300000      15.28300000
 O      17.43100000      14.78500000      16.83000000
 O      16.36000000      14.75200000      18.74100000
 C      15.86300000      16.70000000      15.49900000
 O      14.24300000      15.13300000      16.63100000
 H      15.06400000      16.85800000      17.50800000
 O      14.76000000      15.73500000      13.51000000
 O      16.85200000      15.09300000      14.05400000
 H      17.47600000      15.04600000      14.79900000
 H      13.50100000      15.71100000      16.26000000
 H      14.14500000      17.77900000      15.38200000
 O      17.02900000      25.65600000       6.02300000
 H      17.89800000      25.07200000       6.02200000
 H      16.89600000      25.33000000       5.05600000
 O      24.53900000      26.50500000      12.98300000
 H      24.44300000      27.46700000      12.88200000
 H      23.77800000      26.22000000      12.42100000
 O      25.10700000      19.24700000       9.94700000
 H      24.31500000      19.26000000      10.46500000
 H      25.53000000      18.44600000      10.30000000
 O      16.46200000      18.79000000      13.63100000
 H      15.53100000      18.97300000      13.45100000
 H      16.57100000      17.99300000      14.18500000
 O      17.79500000      18.69100000       5.45600000
 H      16.95600000      18.33600000       5.86900000
 H      18.48300000      18.06300000       5.54700000
 O      15.80600000      22.62200000       8.25800000
 H      16.60000000      22.19300000       7.79500000
 H      15.04800000      22.42200000       7.63200000
 O      19.71500000      21.26800000      14.89100000
 H      18.79500000      20.90600000      15.07300000
 H      19.98300000      21.61300000      15.76200000
 O      17.77600000      21.16900000       6.96400000
 H      17.34600000      20.70500000       6.18300000
 H      18.65800000      20.70900000       7.07700000
 O      19.25700000      23.80200000       6.62100000
 H      19.11500000      23.21700000       7.36200000
 H      20.22400000      23.50800000       6.38900000
 O      16.78700000      25.13400000      13.31300000
 H      17.59900000      24.69600000      12.97900000
 H      17.28800000      25.64000000      13.96300000
 O      24.32700000      14.94200000       6.94100000
 H      23.74400000      15.11700000       6.19000000
 H      24.83200000      15.77800000       6.87000000
 O      15.26400000      18.96500000       7.16100000
 H      15.91500000      19.52800000       7.43400000
 H      14.52500000      19.11800000       7.79000000
 O      19.21800000      23.55300000      13.32700000
 H      19.39600000      22.96100000      14.10100000
 H      18.32500000      23.11800000      12.96500000
 O      18.10200000      20.65900000      15.45400000
 H      18.04600000      20.11100000      14.65100000
 H      17.25100000      20.78900000      15.83300000
 O      22.11000000      19.69700000      14.39000000
 H      22.09200000      19.04800000      15.15400000
 H      21.13000000      19.97600000      14.32500000
