126
XYZ file of cluster: frame_3500_48b42.c4507.0 - created by MolEdiTo
 O      16.79300000      30.03400000       1.93500000
 H      17.49100000      30.25100000       1.28500000
 H      17.01200000      29.11700000       2.25100000
 O      20.41000000      29.67500000       8.09100000
 H      20.98600000      29.75100000       7.30500000
 H      19.87800000      28.84800000       8.01900000
 O      19.16000000      30.17100000       3.52900000
 H      19.81100000      30.37400000       4.19500000
 H      18.84000000      29.28800000       3.77500000
 O      17.24700000      27.52900000       3.22400000
 H      16.37100000      27.77300000       3.70500000
 H      17.14200000      26.54500000       2.97500000
 O      17.34600000      30.41000000       6.83800000
 H      17.92500000      30.37800000       7.58900000
 H      17.85900000      30.97400000       6.26500000
 O      13.63500000      25.36300000       2.40300000
 H      13.59900000      26.24300000       2.03000000
 H      12.83200000      25.32200000       3.00700000
 O      13.89900000      28.68000000       9.15400000
 H      14.00100000      27.71900000       9.24800000
 H      13.57500000      28.78700000      10.10600000
 O      14.66100000      25.97500000       8.55300000
 H      15.16100000      26.72500000       8.16300000
 H      15.26700000      25.56500000       9.27700000
 O      15.05900000      27.97100000       4.58000000
 H      14.88600000      28.95100000       4.65600000
 H      15.68900000      27.87000000       5.37300000
 O      20.61900000      29.49700000      10.80900000
 H      21.41800000      29.78900000      11.18300000
 H      20.68800000      29.48600000       9.79300000
 O      12.67200000      28.07200000       1.92900000
 H      12.35700000      28.99000000       1.99700000
 H      12.10300000      27.64900000       1.24100000
 O       9.89200000      29.53400000       8.24900000
 H      10.20600000      28.92800000       8.99800000
 H      10.63500000      30.16100000       7.99100000
 O      10.64200000      27.94000000       5.35400000
 H      10.51400000      27.03800000       4.98100000
 H      11.48000000      27.58200000       5.80000000
 O      18.48900000      29.67800000       0.92900000
 H      18.74100000      29.87300000       1.87100000
 H      18.30800000      28.72800000       0.75900000
 O      19.04900000      27.14900000       7.18600000
 H      18.38300000      26.46100000       6.93700000
 H      19.73900000      26.76100000       6.66900000
 O      16.62300000      27.55900000       6.77400000
 H      17.14700000      28.37300000       7.05700000
 H      17.41200000      27.04000000       6.57700000
 O      13.05800000      26.25200000       5.79800000
 H      13.78200000      26.67300000       5.25800000
 H      13.46900000      26.13900000       6.69500000
 O      19.67600000      27.44100000       4.21100000
 H      20.31900000      26.79800000       3.79500000
 H      18.98100000      26.83400000       4.40100000
 O      10.76600000      28.77700000       1.36900000
 H      10.56000000      29.59200000       0.80100000
 H      10.37900000      29.00200000       2.20800000
 O      18.08500000      29.72500000       9.86200000
 H      17.65500000      30.61700000      10.03300000
 H      17.65200000      28.95800000      10.36400000
 O      12.13400000      37.16500000       8.62500000
 H      12.35800000      37.45900000       7.74500000
 H      11.88000000      36.24500000       8.53700000
 O      19.25200000      33.67500000       9.69300000
 H      19.55300000      34.27700000      10.31200000
 H      20.04000000      33.40500000       9.23800000
 O      15.26500000      32.49900000       4.97700000
 H      15.34800000      33.48700000       4.79700000
 H      15.99400000      32.38000000       5.63800000
 O      14.89500000      34.31400000      10.22500000
 H      14.63000000      33.75900000       9.43800000
 H      14.97400000      35.25200000       9.97700000
 O      21.26200000      33.79000000       4.92600000
 H      21.60800000      33.01900000       5.40300000
 H      20.82600000      34.29900000       5.66000000
 O      17.48000000      35.66300000       8.31600000
 H      17.90200000      34.98200000       8.97000000
 H      16.62500000      35.72100000       8.82500000
 O      14.18500000      32.63900000       7.88700000
 H      14.64900000      32.36200000       7.02000000
 H      14.17700000      31.81500000       8.46000000
 O      16.75000000      36.43700000       9.91500000
 H      16.66000000      36.01300000      10.79600000
 H      16.59900000      37.33000000      10.37300000
 O       9.66800000      36.06000000       5.49700000
 H      10.62000000      35.86800000       5.44100000
 H       9.32600000      35.46000000       4.78100000
 O      15.02100000      34.78200000       3.12900000
 H      15.78600000      34.84100000       2.44700000
 H      14.47600000      35.61700000       3.01100000
 O      11.15400000      32.44600000       5.73700000
 H      11.09500000      31.49100000       5.77900000
 H      11.94700000      32.63500000       5.25900000
 O      20.25400000      35.15400000       7.14400000
 H      19.37800000      35.18500000       7.51700000
 H      20.75800000      35.71900000       7.74700000
 O      13.92500000      32.47100000       0.93100000
 H      14.21900000      31.74400000       0.31200000
 H      14.46900000      32.27700000       1.71900000
 O      12.26300000      35.46900000       4.17900000
 H      12.63400000      36.20500000       3.58800000
 H      12.63300000      34.65200000       3.78000000
 O      18.49000000      34.24000000       1.93900000
 H      18.55400000      33.35200000       1.58100000
 H      18.46700000      34.78700000       1.11000000
 O      12.40200000      34.68500000       0.95400000
 H      12.39800000      34.81300000       0.00000000
 H      12.94800000      33.75500000       1.18900000
 O      17.18700000      35.51000000       1.75200000
 H      16.84000000      35.59800000       0.76200000
 H      17.96400000      34.89800000       1.82900000
 O      11.46000000      34.47700000       7.84200000
 H      12.37200000      34.06300000       7.68800000
 H      10.79900000      33.95700000       7.33500000
 O      14.13800000      36.70800000       6.35100000
 H      14.91200000      36.93500000       5.66800000
 H      13.41000000      36.34400000       5.75400000
 O      10.07000000      36.01600000       1.94300000
 H      10.86300000      35.40700000       1.91700000
 H       9.36200000      35.45100000       2.34400000
 O      16.62400000      36.56400000       4.82700000
 H      16.65600000      36.01900000       4.00900000
 H      17.51800000      36.71200000       5.10300000
 O      17.91500000      33.58300000       5.18100000
 H      18.28200000      33.00200000       4.49600000
 H      17.99300000      34.42700000       4.73300000
