123
XYZ file of cluster: frame_3500_c74aa.717bf.74013 - created by MolEdiTo
 O      26.86800000      18.90800000      23.64800000
 H      27.53200000      18.96700000      22.83600000
 H      27.50200000      18.92000000      24.35400000
 O      27.03500000      18.10800000      20.04200000
 H      26.75100000      18.75500000      19.34300000
 H      26.46200000      17.39800000      19.86600000
 O      28.80700000      26.02100000      16.65000000
 H      29.40600000      25.29300000      16.32900000
 H      29.26500000      26.80800000      16.44000000
 O      29.09700000      19.77000000      22.00100000
 H      30.06000000      19.62100000      22.08100000
 H      28.92500000      19.71300000      21.07100000
 O      27.07000000      22.19200000      22.07300000
 H      27.92900000      22.17000000      21.50200000
 H      27.09900000      21.43600000      22.62800000
 O      30.24700000      15.16700000      23.52100000
 H      30.65600000      16.08500000      23.72800000
 H      29.45700000      15.12500000      24.01300000
 O      29.35600000      20.54900000      19.13800000
 H      28.60000000      20.39100000      18.67100000
 H      29.87400000      19.65600000      19.03200000
 O      30.45900000      25.62000000      19.87200000
 H      31.20100000      25.34100000      20.42600000
 H      30.28100000      24.84000000      19.25500000
 O      26.85400000      22.42800000      17.05100000
 H      26.40300000      22.49600000      16.18400000
 H      26.50400000      23.18200000      17.62400000
 O      29.61600000      23.14000000      21.05000000
 H      30.47900000      23.62800000      21.09400000
 H      29.90800000      22.38400000      20.51700000
 O      27.32200000      23.62500000      26.45700000
 H      26.93100000      24.49500000      26.16100000
 H      28.04400000      23.90000000      27.09500000
 O      27.61300000      20.89000000      25.87800000
 H      27.78900000      21.85000000      25.63100000
 H      26.75100000      21.00900000      26.29300000
 O      29.19800000      16.64800000      24.56400000
 H      29.57500000      16.64300000      23.59900000
 H      28.27400000      16.32000000      24.46300000
 O      29.16800000      18.21600000      16.12200000
 H      28.99800000      18.32700000      15.15200000
 H      28.42600000      18.59100000      16.62800000
 O      29.81100000      23.15700000      17.84100000
 H      29.19400000      23.27900000      17.18300000
 H      29.51400000      22.28700000      18.14200000
 O      30.26100000      26.48400000      26.00700000
 H      30.52900000      27.18800000      25.36600000
 H      30.24500000      25.65300000      25.45100000
 O      27.11600000      19.56100000      17.55300000
 H      26.43000000      20.28800000      17.44300000
 H      26.61600000      18.74700000      17.13700000
 O      27.21500000      15.76200000      19.35900000
 H      28.06800000      16.30600000      19.54300000
 H      26.48100000      16.29400000      19.69000000
 O      26.92000000      24.83800000      20.69200000
 H      27.75600000      24.40000000      20.50600000
 H      26.49900000      24.83200000      19.82600000
 O      28.99900000      16.46100000      21.72200000
 H      29.61500000      16.28100000      21.02100000
 H      28.28600000      17.08800000      21.39000000
 O      26.33600000      25.62800000      17.57000000
 H      25.56400000      26.02200000      17.07500000
 H      27.15400000      25.77800000      16.99600000
 O      29.65400000      16.07000000      18.74100000
 H      30.19100000      16.87400000      18.63300000
 H      29.71100000      15.77900000      17.80800000
 O      34.91800000      22.49300000      18.95400000
 H      34.14200000      22.76300000      18.44900000
 H      34.63600000      22.99900000      19.77500000
 O      32.95800000      24.00900000      24.18300000
 H      33.71200000      23.81000000      24.74700000
 H      32.57500000      23.19400000      23.91100000
 O      36.28700000      15.97600000      18.73600000
 H      37.13900000      15.65100000      18.35500000
 H      36.28400000      16.92400000      18.42600000
 O      32.49200000      16.48600000      16.06400000
 H      33.13800000      17.21900000      16.20600000
 H      31.62600000      16.95000000      16.05900000
 O      32.33600000      18.74700000      25.54600000
 H      33.13300000      18.18700000      25.26700000
 H      31.60900000      18.30200000      25.07300000
 O      32.74100000      18.39900000      18.87100000
 H      32.94400000      18.91900000      19.72800000
 H      33.42800000      18.54100000      18.24600000
 O      33.66600000      15.44300000      20.34900000
 H      34.29200000      15.60800000      19.67600000
 H      32.86000000      15.93500000      19.99900000
 O      33.95700000      24.38900000      21.16100000
 H      33.77200000      24.27900000      22.13800000
 H      34.50600000      25.18900000      21.07100000
 O      36.56200000      23.84500000      23.79700000
 H      36.49600000      23.26900000      24.59500000
 H      36.42500000      24.73200000      24.13900000
 O      34.90800000      22.03100000      25.25000000
 H      34.16200000      21.30700000      25.46300000
 H      35.72200000      21.47100000      25.35400000
 O      36.06100000      20.17500000      17.29200000
 H      36.52900000      20.74300000      17.91600000
 H      36.81100000      19.64800000      16.84700000
 O      36.60200000      15.17700000      25.55100000
 H      36.19300000      16.09800000      25.61700000
 H      35.88500000      14.63800000      25.98200000
 O      35.83700000      23.00100000      16.08500000
 H      36.63200000      23.19700000      16.71200000
 H      35.49400000      22.15800000      16.44800000
 O      34.50500000      18.22500000      16.17900000
 H      35.05300000      18.99300000      16.55100000
 H      35.12000000      17.94800000      15.47900000
 O      34.74600000      18.16700000      24.54600000
 H      35.31300000      18.19700000      25.37400000
 H      35.01600000      17.34600000      24.16100000
 O      33.29700000      18.89100000      22.18500000
 H      32.93000000      19.06400000      23.08300000
 H      34.20100000      18.47900000      22.33400000
 O      36.98400000      18.44000000      21.10000000
 H      36.05000000      18.71200000      20.83000000
 H      37.01800000      17.47900000      20.90600000
 O      32.72300000      25.05500000      15.71700000
 H      32.77500000      24.12100000      15.88300000
 H      33.37100000      25.38200000      15.06100000
 O      33.25500000      26.93900000      22.83900000
 H      32.32700000      27.15000000      22.75200000
 H      33.12600000      25.98400000      23.13400000
