1281
XYZ file of cluster: frame_2000_21e41.9c778.4a9cd - created by MolEdiTo
 O      31.96000000      29.81900000      23.92400000
 H      32.35400000      28.92100000      23.80200000
 H      31.12900000      29.59100000      24.41300000
 O      32.26300000      30.46600000      30.45700000
 H      32.63300000      30.93100000      31.24700000
 H      32.43000000      31.12500000      29.76200000
 O      12.01800000      38.06600000      19.98400000
 H      12.06600000      39.00200000      19.87400000
 H      11.24100000      37.79900000      19.46100000
 O      30.80300000      38.73900000      38.50900000
 H      31.08700000      38.54700000      37.58700000
 H      30.85000000      39.71700000      38.54300000
 O      10.11800000      35.18000000      22.03300000
 H       9.97300000      36.12200000      21.91000000
 H      10.96000000      35.12500000      22.42800000
 O      19.23000000      32.33700000      21.06300000
 H      19.25000000      32.13800000      22.03100000
 H      20.23400000      32.28800000      20.96200000
 O      13.96200000      31.03800000      17.35200000
 H      13.17500000      30.58700000      16.90400000
 H      14.21900000      31.64200000      16.66600000
 O      10.88100000      40.65500000      21.10800000
 H      10.79900000      41.40500000      21.78300000
 H      10.02100000      40.75600000      20.69600000
 O      34.45100000      31.67700000      14.68500000
 H      34.48800000      32.50000000      14.20700000
 H      33.78400000      31.84300000      15.37400000
 O      20.68200000      30.06900000      16.70400000
 H      19.85400000      29.55600000      16.87200000
 H      20.36600000      30.98400000      16.93300000
 O      22.97500000      29.90500000      37.40800000
 H      21.99300000      29.87900000      37.18700000
 H      23.11300000      30.84300000      37.08000000
 O      19.69800000      39.40200000      27.25000000
 H      18.84000000      38.87800000      27.13900000
 H      19.54000000      40.15400000      26.65200000
 O      10.67200000      28.20100000      17.28400000
 H      11.09000000      28.99800000      16.95700000
 H      10.62300000      28.40100000      18.21000000
 O      23.46900000      37.55700000      20.97800000
 H      24.36200000      37.10800000      21.26200000
 H      23.38500000      38.12000000      21.72800000
 O      38.72200000      38.15100000      23.96100000
 H      38.72400000      37.40200000      23.27900000
 H      39.72100000      38.14100000      24.12600000
 O      36.04700000      36.90700000      26.76100000
 H      35.11400000      36.61300000      26.86600000
 H      36.50900000      36.01700000      26.76200000
 O      10.38900000      40.73500000      25.17900000
 H      10.54700000      41.50300000      24.55700000
 H      11.28000000      40.60800000      25.54600000
 O      32.28600000      40.62100000      18.92000000
 H      32.82900000      41.15700000      19.53400000
 H      32.97900000      40.07600000      18.45100000
 O      11.56200000      32.32800000      25.74200000
 H      11.44800000      31.98700000      24.76600000
 H      12.48300000      31.99700000      25.86600000
 O      15.48700000      28.41600000      16.75700000
 H      14.56200000      28.68500000      16.91900000
 H      15.44300000      28.04400000      15.86500000
 O      14.84000000      27.26400000      32.07400000
 H      14.07600000      27.85200000      32.06300000
 H      15.12200000      27.28000000      31.13900000
 O       7.27500000      33.46700000      28.17700000
 H       8.05700000      33.55500000      27.57400000
 H       7.64300000      32.89500000      28.84400000
 O       8.40600000      29.57600000      36.55300000
 H       8.83800000      30.41900000      36.48400000
 H       8.25500000      29.37800000      35.56600000
 O      35.36200000      33.77300000      21.46200000
 H      35.34300000      33.60700000      20.49700000
 H      35.00500000      32.93400000      21.79000000
 O      12.39700000      36.57400000      40.50200000
 H      12.19600000      37.48400000      40.94700000
 H      12.49400000      36.87200000      39.57200000
 O      15.98100000      31.12300000      19.27600000
 H      16.14400000      30.25400000      19.52600000
 H      15.14200000      31.08500000      18.75700000
 O      31.95300000      38.83700000      24.99600000
 H      31.65300000      39.23500000      24.10200000
 H      32.89600000      38.61300000      24.76400000
 O      13.65600000      36.48000000      33.21200000
 H      12.78100000      36.68300000      32.75500000
 H      13.62000000      35.51200000      33.17900000
 O      25.40500000      30.25100000      18.44700000
 H      26.18900000      29.67600000      18.63100000
 H      25.46800000      30.34900000      17.44100000
 O      15.51300000      30.11300000      35.48300000
 H      15.72100000      30.62500000      36.26000000
 H      15.68800000      29.21000000      35.80200000
 O      21.91700000      31.73000000      21.31000000
 H      22.33100000      31.98600000      22.11800000
 H      22.35400000      30.87300000      21.09500000
 O      37.29600000      34.36100000      37.06500000
 H      38.18700000      34.30600000      36.67100000
 H      37.45300000      34.35400000      37.99300000
 O       7.91500000      28.63400000      33.93400000
 H       8.51800000      28.08400000      33.38900000
 H       7.05200000      28.44300000      33.36100000
 O      10.56600000      39.96500000      31.40700000
 H      10.03300000      39.35900000      31.87400000
 H      11.19700000      40.28400000      32.03900000
 O      33.23200000      28.11900000      13.99300000
 H      33.51100000      27.19700000      13.96700000
 H      33.69900000      28.43000000      14.84200000
 O      33.00400000      31.54700000      39.63900000
 H      33.51500000      31.49500000      38.78900000
 H      32.41000000      30.82500000      39.56700000
 O       6.91000000      37.01400000      28.81500000
 H       7.66900000      36.39900000      28.52300000
 H       7.13500000      37.79500000      28.27900000
 O      12.21400000      37.83300000      29.59400000
 H      11.55800000      38.36300000      29.08000000
 H      12.71100000      37.51200000      28.77900000
 O      32.36000000      35.33000000      19.87300000
 H      31.96700000      35.94600000      20.47000000
 H      31.51500000      34.92200000      19.53500000
 O      34.12100000      36.13900000      15.02100000
 H      34.05300000      37.03500000      14.66600000
 H      34.19700000      36.33800000      16.00400000
 O      28.21600000      27.26400000      14.65200000
 H      28.87200000      27.98300000      14.59200000
 H      27.88200000      27.40500000      15.56200000
 O      29.61700000      37.10500000      28.19500000
 H      28.92800000      37.82800000      28.14600000
 H      30.39800000      37.65300000      28.36600000
 O      25.26100000      34.42700000      24.35900000
 H      25.98800000      34.44300000      25.02800000
 H      24.58100000      34.89700000      24.82000000
 O      24.22300000      33.83800000      15.89200000
 H      23.39600000      33.71800000      15.34900000
 H      24.12600000      32.96600000      16.37200000
 O      34.61600000      38.71600000      38.91900000
 H      34.98100000      38.84500000      38.07000000
 H      33.91900000      38.01800000      38.67300000
 O      30.89100000      34.86500000      27.63800000
 H      30.50100000      35.73900000      27.75600000
 H      31.84100000      35.11600000      27.52100000
 O      19.99700000      34.37000000      24.70100000
 H      20.64900000      35.09400000      24.66300000
 H      20.48000000      33.62300000      24.22100000
 O      33.05700000      28.55200000      39.08100000
 H      32.12200000      28.44600000      38.73000000
 H      33.53800000      27.87900000      38.58800000
 O      14.18600000      30.42200000      23.08600000
 H      13.72800000      29.99700000      23.82700000
 H      14.22500000      29.68300000      22.42100000
 O      14.19200000      30.22500000      28.52900000
 H      13.44800000      29.62200000      28.28900000
 H      14.77100000      29.55500000      28.98200000
 O      29.59700000      30.31100000      35.29900000
 H      29.12600000      30.21300000      36.16600000
 H      30.49900000      30.03000000      35.49100000
 O      22.81600000      38.61500000      13.92700000
 H      22.82000000      38.21100000      14.81400000
 H      23.79100000      38.61800000      13.78400000
 O      22.02700000      29.97300000      31.14000000
 H      21.73600000      29.72800000      32.02100000
 H      22.46600000      30.82400000      31.28100000
 O      40.15200000      33.89600000      26.08600000
 H      40.85400000      34.54600000      25.74300000
 H      40.35600000      33.19200000      25.46200000
 O      17.00300000      33.52200000      36.18900000
 H      17.69800000      33.39000000      35.55000000
 H      16.97900000      32.65200000      36.62400000
 O      37.58200000      38.57800000      30.42100000
 H      37.88300000      38.31400000      31.29200000
 H      38.34500000      38.69300000      29.86600000
 O       8.63400000      31.81300000      33.50400000
 H       8.72800000      31.25100000      34.28200000
 H       9.23100000      31.41000000      32.85500000
 O      11.21700000      34.48500000      15.09000000
 H      11.91400000      34.85600000      15.65200000
 H      11.65400000      33.67900000      14.73900000
 O      24.19500000      34.85500000      13.16400000
 H      24.14000000      34.88100000      14.12800000
 H      24.22100000      33.92200000      13.02000000
 O      22.08900000      36.44100000      23.96000000
 H      22.46300000      35.98700000      23.17000000
 H      21.83600000      37.27600000      23.60700000
 O      38.58000000      32.27800000      16.38500000
 H      37.91600000      31.54400000      16.40800000
 H      39.15700000      31.98200000      17.11100000
 O      33.37800000      31.35600000      25.66700000
 H      32.71200000      30.79900000      25.14000000
 H      33.30700000      30.83500000      26.49500000
 O       9.08700000      28.84900000      26.38400000
 H       9.46600000      28.87400000      25.48700000
 H       8.48000000      29.66200000      26.34300000
 O       9.11900000      38.20300000      37.42200000
 H       8.91800000      39.14500000      37.50600000
 H      10.06800000      38.20000000      37.22100000
 O      20.83100000      32.41300000      38.55400000
 H      21.62200000      32.96400000      38.71800000
 H      20.39100000      32.50800000      39.39700000
 O      40.05400000      35.56600000      22.10400000
 H      39.59400000      34.83400000      21.69600000
 H      40.45400000      35.96200000      21.31200000
 O      12.05500000      29.76100000      15.63800000
 H      11.58700000      30.30700000      14.89800000
 H      12.36500000      28.98100000      15.04300000
 O      10.30900000      40.32000000      39.70500000
 H      10.10400000      40.94300000      38.94200000
 H       9.97800000      40.85300000      40.40100000
 O      22.08200000      37.37300000      16.35000000
 H      22.97000000      37.36600000      16.73900000
 H      21.52000000      37.44400000      17.20400000
 O      19.40200000      35.28900000      17.96500000
 H      19.06100000      35.89000000      17.28400000
 H      18.79200000      35.52800000      18.72300000
 O      37.49700000      34.14400000      27.27300000
 H      37.78800000      34.23100000      28.16500000
 H      38.38500000      34.12100000      26.83400000
 O      27.35000000      27.93100000      17.36700000
 H      27.55800000      28.13500000      18.27200000
 H      26.34500000      27.72600000      17.43000000
 O      37.84300000      31.58300000      22.10600000
 H      37.63400000      31.28200000      21.18600000
 H      36.91800000      31.59400000      22.43100000
 O      34.35700000      33.59000000      26.85900000
 H      35.32600000      33.46100000      26.97200000
 H      34.12800000      32.87200000      26.26100000
 O      21.54200000      33.30100000      15.27100000
 H      20.66500000      32.96000000      15.20300000
 H      21.99400000      32.85500000      16.02600000
 O      33.25300000      30.75800000      18.47100000
 H      33.50100000      31.70700000      18.46500000
 H      32.27300000      30.85300000      18.59000000
 O      40.70500000      40.90000000      40.40300000
 H      40.50300000      40.21200000      39.64900000
 H      41.66700000      40.65600000      40.39200000
 O      26.42900000      31.28900000      24.14800000
 H      26.17500000      31.58500000      25.08800000
 H      25.64500000      30.71300000      23.92000000
 O      29.47400000      40.38400000      34.46700000
 H      29.75600000      40.82900000      33.61000000
 H      28.78200000      39.77600000      34.07800000
 O      31.77400000      32.51000000      23.01200000
 H      31.62900000      31.59100000      23.12000000
 H      31.31000000      32.75200000      22.17200000
 O      34.07000000      28.89500000      16.61700000
 H      33.96700000      28.16900000      17.28600000
 H      33.74800000      29.65500000      17.17000000
 O      31.48100000      39.02200000      35.82600000
 H      32.07600000      39.73600000      36.25100000
 H      30.80900000      39.63800000      35.46300000
 O      11.37100000      33.32300000      39.62100000
 H      10.65900000      33.08400000      40.25900000
 H      10.93900000      33.98300000      39.09200000
 O      40.37000000      30.31400000      21.82800000
 H      39.74400000      29.63500000      22.21300000
 H      39.81800000      31.06000000      21.88200000
 O      20.65700000      30.75400000      26.28500000
 H      20.70200000      30.24200000      27.20300000
 H      20.66500000      31.64800000      26.66500000
 O      35.21600000      37.94400000      19.64700000
 H      35.01500000      38.75000000      19.11600000
 H      35.54700000      38.38200000      20.44700000
 O      19.70000000      40.77500000      29.58800000
 H      18.81000000      40.99200000      29.97600000
 H      19.38500000      40.43500000      28.72900000
 O      13.16000000      28.68500000      20.98700000
 H      12.27500000      28.37600000      20.63600000
 H      13.78400000      28.11800000      20.51800000
 O      29.35000000      37.27300000      31.80000000
 H      29.89900000      37.45200000      32.54900000
 H      29.51400000      38.05900000      31.23900000
 O      17.56800000      38.07500000      18.76000000
 H      17.24600000      37.63100000      19.55900000
 H      18.23300000      38.67200000      19.13500000
 O      12.64000000      40.83200000      26.52400000
 H      13.35200000      41.01000000      27.19600000
 H      13.05400000      40.25300000      25.86400000
 O      21.98200000      29.25900000      24.28000000
 H      21.61800000      29.71800000      25.04100000
 H      21.22100000      29.31600000      23.69400000
 O      13.05700000      33.91400000      18.98800000
 H      12.78300000      33.23600000      18.37100000
 H      12.73000000      33.61700000      19.84000000
 O      18.32200000      34.38500000      26.78300000
 H      18.58600000      34.49500000      25.85400000
 H      19.02000000      33.77700000      27.15400000
 O      36.44500000      31.43000000      19.60600000
 H      35.65400000      31.95100000      19.38700000
 H      36.45000000      30.70700000      18.94500000
 O      10.84500000      34.46500000      37.30700000
 H      11.47900000      35.01100000      36.89800000
 H      10.05300000      34.97000000      37.57600000
 O      15.86700000      39.56300000      17.00500000
 H      16.50500000      40.22400000      17.35700000
 H      16.16300000      38.81500000      17.53300000
 O      36.85900000      28.67800000      20.87200000
 H      36.99300000      27.80700000      20.49500000
 H      35.95500000      28.93800000      20.62200000
 O      28.85300000      29.40500000      22.46600000
 H      28.77500000      29.27400000      23.46700000
 H      28.50000000      30.35700000      22.49700000
 O       6.86800000      29.83900000      15.70600000
 H       6.98200000      29.04500000      15.19500000
 H       6.10900000      29.54900000      16.32000000
 O      21.80600000      38.26200000      36.33800000
 H      21.14000000      37.77100000      36.92200000
 H      22.15900000      38.83800000      37.04100000
 O      19.52300000      38.55300000      14.51700000
 H      19.61300000      39.33600000      15.12400000
 H      20.45000000      38.22300000      14.50300000
 O      32.56400000      30.48800000      13.14900000
 H      32.73300000      29.53800000      13.28400000
 H      32.97700000      30.83800000      13.95800000
 O      37.47500000      30.66700000      32.47700000
 H      37.97700000      31.36800000      32.96700000
 H      37.56900000      30.95400000      31.55600000
 O      33.11300000      40.67400000      36.89000000
 H      34.04400000      40.51100000      36.71800000
 H      33.02800000      41.62800000      36.80500000
 O      34.22400000      33.77500000      40.49900000
 H      33.61300000      33.06300000      40.23200000
 H      35.12900000      33.33000000      40.32200000
 O      19.61400000      29.25100000      22.50300000
 H      18.75000000      28.89500000      22.41600000
 H      19.79700000      29.44500000      21.56300000
 O      13.27000000      32.59500000      14.25100000
 H      12.73200000      32.15200000      13.56000000
 H      14.17200000      32.16700000      14.13000000
 O      12.04700000      40.79900000      17.14800000
 H      11.29100000      40.31200000      17.42200000
 H      11.72500000      41.75300000      17.27600000
 O      29.92500000      37.17600000      24.22100000
 H      30.40900000      37.93100000      24.57400000
 H      30.55400000      36.45700000      24.27800000
 O      13.85000000      40.12200000      30.37900000
 H      13.06900000      39.56900000      30.34600000
 H      13.64100000      40.62200000      31.23200000
 O       9.28900000      31.47600000      15.77600000
 H       9.27100000      32.05000000      14.94400000
 H       8.51600000      30.91200000      15.61800000
 O      34.71400000      40.66200000      26.00500000
 H      34.61200000      39.78500000      25.54900000
 H      35.63400000      40.57400000      26.30100000
 O      25.33100000      29.25200000      35.80800000
 H      24.62200000      29.63900000      36.42800000
 H      25.92000000      30.07000000      35.83800000
 O       7.37500000      27.94500000      17.88700000
 H       7.87800000      28.17000000      17.09600000
 H       6.45700000      28.11500000      17.69600000
 O      16.94400000      32.26600000      25.80900000
 H      17.33800000      33.04900000      26.26500000
 H      17.63100000      32.06300000      25.20000000
 O      38.74100000      34.14800000      29.53800000
 H      39.35200000      34.96000000      29.50500000
 H      39.46500000      33.49700000      29.28400000
 O      24.23800000      29.29700000      28.51700000
 H      24.50100000      29.69600000      29.35500000
 H      23.40600000      28.91400000      28.64200000
 O       7.99900000      28.71400000      20.34000000
 H       7.56100000      29.54000000      20.37700000
 H       7.78600000      28.32700000      19.44300000
 O      20.90200000      40.38300000      34.63000000
 H      21.08900000      40.18200000      33.68300000
 H      21.31300000      39.62700000      35.03700000
 O      29.06200000      33.92000000      24.06600000
 H      29.97500000      33.52700000      23.93100000
 H      28.58800000      33.41000000      23.38000000
 O      11.60700000      35.02300000      25.00200000
 H      11.40100000      34.04800000      25.23900000
 H      12.58300000      35.00100000      24.95300000
 O      19.72800000      29.84300000      19.80800000
 H      19.25000000      29.48300000      19.03900000
 H      19.38600000      30.73700000      19.83000000
 O      21.57800000      40.81200000      40.72300000
 H      22.47700000      40.99600000      40.97600000
 H      21.58900000      39.83700000      41.00600000
 O      12.66800000      28.94400000      32.44100000
 H      12.88000000      28.86000000      33.41400000
 H      11.99900000      29.70100000      32.50800000
 O      25.60800000      35.25300000      39.41100000
 H      26.20400000      34.51100000      39.17800000
 H      26.18500000      35.65400000      40.10600000
 O      28.06200000      35.12500000      29.79600000
 H      28.62200000      35.48500000      29.04800000
 H      28.38500000      35.80300000      30.48300000
 O      30.51000000      34.53800000      35.12600000
 H      30.86600000      34.11600000      34.35800000
 H      31.19900000      35.19000000      35.34300000
 O      38.50400000      33.06400000      33.18800000
 H      38.65600000      33.92400000      32.80500000
 H      37.69000000      33.20300000      33.61900000
 O       9.83200000      36.68100000      13.87500000
 H      10.53800000      37.34200000      13.67000000
 H      10.23600000      36.30700000      14.66900000
 O      38.38800000      34.46200000      14.99700000
 H      38.65200000      33.69600000      15.53000000
 H      37.92300000      35.03200000      15.62000000
 O      22.28200000      28.26000000      17.90100000
 H      21.55600000      28.67300000      17.47300000
 H      21.86200000      27.50900000      18.37400000
 O      23.14600000      33.74800000      39.10800000
 H      23.62600000      34.60800000      38.91400000
 H      23.20000000      33.86100000      40.11200000
 O      34.26900000      31.40300000      32.74700000
 H      34.34400000      32.40700000      32.83900000
 H      35.17500000      31.19300000      32.47300000
 O      10.64500000      37.49600000      25.45200000
 H      11.12900000      36.66400000      25.31900000
 H      10.22000000      37.64100000      24.58100000
 O      27.36800000      34.69400000      26.10300000
 H      27.45800000      35.66600000      26.20300000
 H      27.93600000      34.53800000      25.29900000
 O       9.27500000      39.53200000      17.37200000
 H       8.44600000      39.31100000      16.86300000
 H       9.07200000      40.51300000      17.46100000
 O       9.59400000      31.93500000      36.44100000
 H      10.28000000      32.66700000      36.39400000
 H       9.06900000      32.24800000      37.20000000
 O      39.59700000      29.99500000      29.53500000
 H      40.02200000      29.85700000      30.38500000
 H      40.09600000      30.69400000      29.16800000
 O      35.02500000      28.22600000      28.98500000
 H      35.64800000      28.92700000      29.33700000
 H      35.29800000      27.51800000      29.56900000
 O      23.92400000      32.29700000      36.38300000
 H      24.82600000      32.29600000      36.08600000
 H      23.76300000      33.29300000      36.49200000
 O      26.58100000      28.19700000      27.56100000
 H      26.91900000      29.07800000      27.80400000
 H      25.59200000      28.43800000      27.59300000
 O      29.10200000      31.69000000      16.45400000
 H      28.87800000      32.20900000      15.60100000
 H      28.22300000      31.80800000      16.91100000
 O      16.47900000      39.17900000      31.30500000
 H      15.68300000      39.66900000      30.96500000
 H      17.17400000      39.70600000      30.90300000
 O      12.58100000      31.56700000      37.64800000
 H      12.76800000      32.26000000      38.28500000
 H      13.07700000      31.92600000      36.88700000
 O      31.83200000      35.24500000      24.20000000
 H      31.99100000      34.27000000      24.02300000
 H      32.74800000      35.58300000      24.17400000
 O      11.79700000      36.74900000      36.42800000
 H      12.71500000      36.95000000      36.04400000
 H      11.91300000      37.37700000      37.16900000
 O      22.93100000      40.30500000      38.13800000
 H      23.38000000      40.51900000      37.25500000
 H      22.64600000      41.21800000      38.39000000
 O      22.99600000      39.37000000      23.28700000
 H      23.29000000      40.19700000      22.86300000
 H      23.57200000      39.46000000      24.06900000
 O      10.36900000      36.78600000      17.71100000
 H      11.22700000      36.57800000      17.32200000
 H      10.15500000      37.67200000      17.39100000
 O      25.59900000      36.06400000      21.62100000
 H      26.47800000      36.24600000      22.08300000
 H      25.27200000      35.34500000      22.16700000
 O      21.99500000      40.29800000      17.32800000
 H      22.90100000      40.33200000      17.62100000
 H      21.55300000      39.80500000      18.12600000
 O      15.14800000      33.49700000      32.68100000
 H      15.31300000      32.56100000      32.97400000
 H      16.01400000      33.90100000      32.87200000
 O      29.85900000      30.04000000      14.36200000
 H      30.74600000      30.31800000      13.96100000
 H      29.80500000      30.64800000      15.12000000
 O      40.36000000      31.52100000      25.02000000
 H      39.49000000      31.19500000      24.71200000
 H      40.88500000      30.67700000      24.96300000
 O      11.46700000      29.24200000      37.02900000
 H      10.56800000      29.35100000      37.36100000
 H      11.79600000      30.17300000      37.27000000
 O      24.30000000      38.94200000      26.20300000
 H      23.91200000      39.43200000      27.02000000
 H      25.19200000      38.82800000      26.53900000
 O      40.70600000      28.57400000      24.95500000
 H      39.86100000      28.56500000      24.50800000
 H      40.42500000      28.47300000      25.87100000
 O       9.22800000      35.09100000      30.75200000
 H       9.33400000      35.50300000      29.91400000
 H       9.32300000      34.13400000      30.49300000
 O      30.76500000      28.54300000      33.38800000
 H      31.58200000      28.61100000      33.81200000
 H      30.19300000      29.23400000      33.76700000
 O      36.19400000      30.66300000      35.37400000
 H      37.04300000      30.10600000      35.38400000
 H      35.69300000      30.14800000      34.66600000
 O      20.50700000      34.89000000      40.77100000
 H      20.77700000      34.75000000      39.81600000
 H      21.33100000      34.50800000      41.15700000
 O      28.03300000      37.35900000      37.89200000
 H      28.74900000      37.83600000      38.39200000
 H      27.50300000      36.95300000      38.60100000
 O      27.44100000      33.12300000      39.18800000
 H      27.33400000      32.17200000      39.25400000
 H      27.92500000      33.23900000      38.40200000
 O      39.98500000      39.00800000      38.52200000
 H      39.97100000      39.76400000      37.87500000
 H      39.30400000      38.44900000      38.14200000
 O      23.11900000      37.02600000      34.55200000
 H      22.38500000      36.64700000      34.02100000
 H      22.54300000      37.53300000      35.18100000
 O       7.55400000      27.58400000      28.16100000
 H       6.71500000      27.61200000      27.61200000
 H       7.95600000      28.43000000      27.88900000
 O      29.12100000      32.65400000      26.93700000
 H      28.49000000      33.36200000      26.56400000
 H      29.84300000      33.26800000      27.22200000
 O      30.99000000      33.58500000      29.93600000
 H      31.82000000      33.08300000      29.68700000
 H      30.91300000      34.03200000      29.06000000
 O      35.97700000      40.76900000      36.79600000
 H      35.86100000      40.76900000      37.71800000
 H      36.66200000      40.07400000      36.64100000
 O      35.86600000      40.64800000      31.89900000
 H      35.12800000      40.92400000      31.39800000
 H      36.42300000      40.18900000      31.24000000
 O      32.66400000      35.47100000      36.52200000
 H      33.38400000      34.87100000      36.23300000
 H      32.26800000      34.83600000      37.18200000
 O      11.16000000      40.27000000      34.56000000
 H      10.71000000      39.49500000      34.13400000
 H      11.03200000      40.07000000      35.54000000
 O      30.88200000      39.13300000      15.34400000
 H      31.31800000      40.00300000      15.21100000
 H      31.08000000      38.68100000      14.48700000
 O      39.79600000      30.84200000      18.55900000
 H      39.14500000      30.63300000      19.24200000
 H      40.01100000      29.99300000      18.14700000
 O      15.08500000      32.97900000      29.35700000
 H      14.76000000      32.20200000      28.81900000
 H      15.76800000      32.57100000      29.90500000
 O      28.15600000      32.02000000      22.09500000
 H      27.52500000      31.92500000      21.34900000
 H      27.63200000      31.80900000      22.85500000
 O      30.02100000      39.43100000      17.90200000
 H      30.30500000      39.33100000      17.01100000
 H      30.75700000      40.00200000      18.28100000
 O      36.70900000      35.88300000      16.89000000
 H      36.63500000      36.81400000      16.85900000
 H      35.86100000      35.59200000      17.31600000
 O      38.57500000      29.06600000      35.47100000
 H      39.12500000      29.03500000      34.65400000
 H      38.25700000      28.12400000      35.37100000
 O      20.25100000      32.90700000      27.82000000
 H      19.83600000      32.55900000      28.61200000
 H      20.74700000      33.65100000      28.26800000
 O      17.57100000      33.30900000      19.30100000
 H      18.11900000      33.03800000      19.96100000
 H      16.87300000      32.61200000      19.30900000
 O      36.38800000      36.31400000      34.06700000
 H      37.26200000      36.38800000      34.54800000
 H      35.81500000      36.63900000      34.74500000
 O      38.93800000      27.70800000      15.52500000
 H      38.97900000      26.75900000      15.62700000
 H      39.41800000      27.99500000      16.29300000
 O       7.00200000      31.24400000      20.23100000
 H       6.27400000      31.60200000      20.76300000
 H       7.65900000      31.96500000      20.33900000
 O      39.32800000      29.85900000      13.85200000
 H      39.02200000      29.20600000      14.54000000
 H      38.47400000      30.29800000      13.65000000
 O      18.21100000      36.99500000      16.34200000
 H      18.67700000      37.52700000      15.63300000
 H      18.18600000      37.67000000      17.04800000
 O      12.14600000      31.87000000      29.22600000
 H      12.45100000      32.75700000      29.25400000
 H      12.95300000      31.37200000      28.98500000
 O      21.32200000      29.20000000      28.70100000
 H      20.82600000      28.45400000      28.93900000
 H      21.72700000      29.47800000      29.61900000
 O      21.32900000      33.20600000      30.97100000
 H      20.64600000      32.55000000      30.69800000
 H      20.78500000      34.00100000      31.04800000
 O       8.00200000      32.12200000      38.71600000
 H       7.61800000      32.30600000      39.57800000
 H       7.33700000      32.40600000      38.09600000
 O      21.79700000      34.83900000      28.79700000
 H      21.97600000      34.62200000      29.72600000
 H      21.87800000      35.74300000      28.72300000
 O      36.31200000      38.81000000      22.11300000
 H      36.31700000      39.75700000      22.28400000
 H      37.16800000      38.52600000      22.59500000
 O      19.36900000      38.81400000      23.86200000
 H      19.32600000      39.72300000      24.27100000
 H      19.12100000      38.31900000      24.68800000
 O      14.27300000      33.80300000      24.65200000
 H      14.51900000      33.42200000      23.72900000
 H      14.30900000      32.97600000      25.15800000
 O       8.59800000      34.19500000      24.66300000
 H       9.52300000      34.49300000      24.46600000
 H       8.09200000      34.71000000      24.00400000
 O      27.79200000      39.04300000      28.31800000
 H      27.65400000      39.92400000      27.84100000
 H      28.34900000      39.41700000      29.04800000
 O      16.77400000      31.28300000      37.73500000
 H      16.92700000      31.96200000      38.46300000
 H      17.42700000      30.61700000      37.98000000
 O      33.71100000      36.13400000      39.04100000
 H      33.85900000      35.31900000      39.49200000
 H      33.24600000      35.79000000      38.24000000
 O      28.99900000      29.84700000      25.49500000
 H      28.60900000      29.25400000      26.18100000
 H      29.05000000      30.67600000      25.95000000
 O      39.26700000      35.73500000      18.67200000
 H      39.02300000      35.09600000      19.41200000
 H      38.40700000      35.80300000      18.14100000
 O      20.21200000      40.71200000      21.22600000
 H      21.11400000      40.39600000      21.53800000
 H      19.89400000      39.87000000      20.88200000
 O       8.24100000      39.15500000      27.62500000
 H       9.24600000      38.96200000      27.64900000
 H       8.26100000      40.09300000      27.64800000
 O       8.18900000      40.39900000      20.51800000
 H       7.58300000      40.91900000      19.98400000
 H       7.98000000      39.48400000      20.18400000
 O      34.57300000      31.54400000      23.02500000
 H      34.01200000      31.53300000      23.84900000
 H      34.43500000      30.67000000      22.70400000
 O       8.15600000      35.49600000      37.32000000
 H       8.12400000      36.46500000      37.17600000
 H       7.21400000      35.30800000      37.60500000
 O      31.94500000      38.13000000      27.84300000
 H      32.72100000      37.45400000      27.83600000
 H      31.94500000      38.37600000      26.90700000
 O      34.02500000      28.80900000      32.71400000
 H      33.89800000      29.79300000      32.77000000
 H      33.54000000      28.71800000      31.83000000
 O      13.12100000      28.83000000      35.05300000
 H      12.61400000      29.00700000      35.91100000
 H      14.00600000      29.26500000      35.29400000
 O      14.48100000      27.79000000      40.11700000
 H      13.60100000      27.84300000      40.61600000
 H      14.49600000      26.84000000      39.94500000
 O      16.70300000      36.89200000      24.94000000
 H      15.76900000      36.52400000      24.85100000
 H      17.11400000      36.32500000      24.27500000
 O      26.66700000      35.00700000      16.57300000
 H      25.81600000      34.72600000      16.16900000
 H      26.40100000      35.01800000      17.54300000
 O      29.43800000      35.85700000      21.28400000
 H      29.70200000      36.34800000      22.06700000
 H      29.00700000      36.54900000      20.72100000
 O      10.83800000      32.29000000      17.83400000
 H      10.39800000      31.73900000      17.07200000
 H      10.16000000      32.91900000      17.90900000
 O      26.83900000      39.36900000      17.42000000
 H      27.32500000      39.86300000      18.04400000
 H      27.15800000      39.66100000      16.52800000
 O      13.43900000      40.26400000      22.19700000
 H      12.59300000      40.40700000      21.79100000
 H      14.06000000      40.28700000      21.39500000
 O      25.10400000      30.67400000      30.80700000
 H      24.64000000      30.98800000      31.61800000
 H      25.79300000      31.45800000      30.75400000
 O      39.61700000      38.69500000      28.13100000
 H      38.94700000      38.72300000      27.44100000
 H      40.36400000      39.21500000      27.78600000
 O       7.01100000      30.57200000      27.10700000
 H       6.13300000      30.61500000      27.59300000
 H       7.44100000      31.38300000      27.42000000
 O      12.54400000      37.71400000      13.66800000
 H      13.16000000      37.77400000      12.90200000
 H      13.07000000      38.18600000      14.34000000
 O      40.83500000      32.24800000      28.47800000
 H      41.76000000      32.24600000      28.83400000
 H      40.92700000      32.81300000      27.71300000
 O      31.50500000      37.89800000      33.39400000
 H      31.39400000      38.22800000      34.30900000
 H      31.99300000      38.74300000      33.02100000
 O      14.15500000      40.00000000      19.37600000
 H      14.91500000      39.94500000      18.83200000
 H      13.47500000      40.37800000      18.83900000
 O       8.79000000      33.19000000      20.71400000
 H       9.01900000      33.75800000      19.89400000
 H       8.93400000      33.89500000      21.42300000
 O      28.89600000      39.64000000      30.84700000
 H      29.57600000      40.07800000      30.35900000
 H      28.18500000      40.32400000      30.82200000
 O      38.38000000      30.55700000      37.72900000
 H      37.47200000      30.17200000      37.67300000
 H      38.85400000      29.85500000      37.17100000
 O      18.32400000      28.90400000      17.52400000
 H      18.30600000      27.98600000      17.75300000
 H      17.33300000      28.96900000      17.18900000
 O      36.49600000      30.62300000      29.43700000
 H      37.43000000      30.56600000      29.14400000
 H      36.41100000      31.53400000      29.67600000
 O      29.10700000      29.72500000      38.05000000
 H      28.28900000      29.86400000      38.62100000
 H      29.34100000      28.80300000      38.42400000
 O      34.23200000      37.82800000      24.23700000
 H      34.19600000      36.88100000      24.09800000
 H      34.96000000      38.12600000      23.66300000
 O      34.68800000      37.72100000      36.05200000
 H      34.01700000      37.00400000      36.14200000
 H      34.29300000      38.25500000      35.30500000
 O      37.13300000      38.59900000      16.49800000
 H      37.87000000      39.17400000      16.86500000
 H      37.37100000      38.73300000      15.55400000
 O      34.17400000      36.20800000      17.95800000
 H      34.59200000      36.83300000      18.59500000
 H      33.30400000      36.01200000      18.46400000
 O      22.85500000      37.78100000      30.36000000
 H      23.76000000      37.68500000      30.04700000
 H      22.34700000      37.86000000      29.57100000
 O      16.70500000      30.69300000      33.19400000
 H      17.40100000      30.05000000      33.24100000
 H      16.16700000      30.57900000      33.96700000
 O      34.19900000      29.48500000      20.74500000
 H      33.70400000      28.76800000      20.29500000
 H      34.10400000      30.22200000      20.07900000
 O      27.05800000      30.43600000      39.46000000
 H      26.02200000      30.49300000      39.48400000
 H      27.22100000      30.21100000      40.40300000
 O       8.60400000      34.53100000      34.64300000
 H       8.79100000      34.63000000      35.59000000
 H       9.16100000      33.77900000      34.38500000
 O      33.40100000      32.78100000      29.23200000
 H      33.63300000      32.81400000      28.29200000
 H      34.25800000      32.90400000      29.72800000
 O      23.16000000      31.80300000      17.24500000
 H      22.56100000      31.03500000      17.25500000
 H      23.70500000      31.65100000      17.97800000
 O      26.47100000      31.79200000      35.51900000
 H      27.01300000      32.49900000      35.90200000
 H      26.84600000      31.70100000      34.65300000
 O      20.60500000      37.03300000      33.27700000
 H      20.39600000      37.85300000      32.77400000
 H      20.16400000      36.38600000      32.62600000
 O      16.98800000      40.40900000      40.55300000
 H      17.02700000      39.43900000      40.43400000
 H      17.77500000      40.71700000      40.06400000
 O      23.39700000      32.44000000      23.61000000
 H      23.97700000      31.90900000      24.14300000
 H      23.95800000      33.20700000      23.36600000
 O      14.23400000      39.64500000      39.35500000
 H      14.01400000      40.05800000      40.25400000
 H      15.14700000      40.01600000      39.26100000
 O      21.33400000      29.82200000      14.18000000
 H      21.13500000      29.90200000      15.14900000
 H      21.74600000      28.94400000      14.25400000
 O      32.85300000      35.06200000      32.94200000
 H      32.38100000      35.10900000      32.11800000
 H      32.52400000      35.77000000      33.46400000
 O      10.70900000      31.32900000      20.46900000
 H      10.87600000      31.58900000      19.56300000
 H       9.88100000      31.82100000      20.66700000
 O      31.42000000      33.55500000      14.02600000
 H      31.09900000      34.15900000      13.28400000
 H      30.54700000      33.14400000      14.29600000
 O      19.44000000      31.63200000      24.01200000
 H      19.41700000      30.83000000      23.43000000
 H      19.76100000      31.31700000      24.84400000
 O      24.26500000      30.65800000      39.83800000
 H      23.62800000      31.35100000      39.79300000
 H      23.90800000      30.16200000      39.02700000
 O      24.91400000      37.53000000      16.60300000
 H      25.55300000      38.12200000      16.97100000
 H      25.28800000      37.31200000      15.73000000
 O      25.71200000      36.87100000      33.55600000
 H      25.53000000      36.16300000      32.91000000
 H      24.77800000      37.14700000      33.70000000
 O       6.79000000      37.56100000      39.21400000
 H       7.77700000      37.54900000      39.07600000
 H       6.60700000      38.40800000      38.77100000
 O      34.46600000      38.78300000      33.36900000
 H      35.08700000      39.39000000      32.89000000
 H      34.58400000      37.98500000      32.78600000
 O      37.57000000      38.40000000      36.81700000
 H      38.16100000      37.78200000      36.36400000
 H      36.70600000      37.97700000      36.67000000
 O      34.35900000      39.69400000      17.59800000
 H      34.97600000      39.04000000      17.23400000
 H      34.62600000      40.50100000      17.15700000
 O      25.12700000      27.40300000      33.60000000
 H      25.79200000      27.86800000      33.07500000
 H      25.32500000      27.79800000      34.44700000
 O      23.55300000      36.14200000      26.09100000
 H      22.93400000      36.30700000      25.31100000
 H      23.92800000      37.03700000      26.11200000
 O      21.14400000      34.53100000      35.80900000
 H      22.06200000      34.38600000      36.08000000
 H      21.03900000      35.45200000      36.07000000
 O      28.15700000      40.84700000      40.28300000
 H      27.83100000      41.74000000      40.33400000
 H      28.99100000      40.94100000      39.74300000
 O       9.04200000      34.49600000      18.25600000
 H       9.65900000      35.24000000      18.12700000
 H       8.22000000      34.78500000      17.91300000
 O      40.71100000      29.09900000      39.80000000
 H      40.72300000      30.01600000      40.24600000
 H      41.63200000      28.86400000      40.17600000
 O      30.89600000      27.86000000      21.41900000
 H      30.01800000      28.39800000      21.57400000
 H      30.95400000      27.46600000      22.29000000
 O      27.42900000      39.70400000      21.93100000
 H      28.10600000      39.24100000      21.34000000
 H      27.03800000      38.92900000      22.37100000
 O      36.46200000      27.88300000      31.46500000
 H      36.79200000      28.81400000      31.69400000
 H      35.58400000      28.00800000      31.93200000
 O      14.43300000      31.64300000      26.28000000
 H      15.39200000      31.69700000      26.11200000
 H      14.46800000      30.96300000      26.99500000
 O      39.72000000      32.64300000      36.69100000
 H      40.04000000      33.17800000      37.42200000
 H      39.16500000      32.00200000      37.17600000
 O      17.80800000      37.69600000      27.31600000
 H      17.25500000      37.30600000      26.58700000
 H      18.03500000      36.92800000      27.84600000
 O      12.18600000      27.68000000      30.24600000
 H      12.32200000      28.19700000      31.09000000
 H      11.28500000      27.34600000      30.48000000
 O      14.76600000      27.39700000      23.82000000
 H      14.03100000      27.98300000      23.92200000
 H      14.93400000      27.03000000      24.67200000
 O      24.80800000      27.46300000      17.86400000
 H      24.55800000      26.90700000      18.63500000
 H      23.92200000      27.97300000      17.75000000
 O      23.56900000      36.97300000      38.76200000
 H      23.73500000      37.62000000      38.09300000
 H      24.39500000      36.42700000      38.59200000
 O      40.01000000      28.34800000      33.20900000
 H      40.42900000      29.02800000      32.59800000
 H      40.78200000      28.01300000      33.66500000
 O      38.48100000      33.95900000      20.63400000
 H      38.31300000      33.03400000      20.29800000
 H      37.68500000      34.08300000      21.16400000
 O      29.66200000      33.03500000      32.31200000
 H      30.43400000      32.68400000      32.79500000
 H      30.13000000      33.10800000      31.39200000
 O      17.51800000      36.30000000      30.09700000
 H      16.88100000      35.92800000      29.52300000
 H      17.13600000      37.17000000      30.33300000
 O      26.11800000      28.05100000      21.84500000
 H      26.63500000      27.62300000      22.57800000
 H      25.61500000      28.71300000      22.35900000
 O      32.59800000      33.73600000      16.33900000
 H      31.96700000      33.41500000      15.61900000
 H      32.77300000      34.62500000      15.90400000
 O      38.38400000      28.88500000      23.68000000
 H      37.78700000      28.22500000      24.15800000
 H      37.99700000      28.80800000      22.78400000
 O      30.59200000      28.74700000      18.23500000
 H      30.46800000      29.69000000      18.01000000
 H      29.95700000      28.55600000      18.95600000
 O      16.70400000      33.04500000      40.18700000
 H      16.60700000      33.83700000      40.79900000
 H      15.73600000      32.85100000      40.09800000
 O      28.57400000      34.03000000      36.91500000
 H      27.88100000      34.57800000      36.57200000
 H      29.28500000      34.21000000      36.27300000
 O      20.10900000      29.03400000      34.53200000
 H      20.89400000      29.55200000      34.14800000
 H      20.09300000      29.38300000      35.44300000
 O      25.80000000      39.30400000      39.32400000
 H      26.59300000      39.75300000      39.71100000
 H      25.21500000      40.01900000      39.07000000
 O       9.76600000      37.92900000      22.55900000
 H       8.80300000      38.07900000      22.43300000
 H      10.13100000      38.72100000      22.18300000
 O      27.24100000      37.12100000      14.82100000
 H      27.14000000      36.42900000      15.49500000
 H      28.04000000      37.52600000      15.10300000
 O       9.28600000      35.71600000      27.95100000
 H       9.83400000      36.34300000      27.49600000
 H       9.52700000      34.83300000      27.57400000
 O      21.54900000      37.80500000      28.04900000
 H      22.03600000      38.08300000      27.26000000
 H      20.79600000      38.42000000      27.80500000
 O      34.65500000      33.87500000      35.91000000
 H      34.79000000      33.97900000      34.94300000
 H      35.55900000      33.97800000      36.25500000
 O      12.99800000      35.88400000      16.96000000
 H      13.97900000      35.83700000      16.69300000
 H      13.02800000      35.41000000      17.81800000
 O      16.13900000      39.59000000      36.62500000
 H      16.50200000      38.74600000      36.94300000
 H      16.98600000      40.03600000      36.29600000
 O      23.97500000      40.59300000      35.44700000
 H      24.06100000      40.38000000      34.42300000
 H      24.48100000      39.85400000      35.79600000
 O      19.29100000      37.79400000      20.85600000
 H      18.42900000      37.43500000      20.86500000
 H      19.37200000      38.01800000      21.83600000
 O      11.97800000      28.54600000      27.67500000
 H      12.09400000      28.21200000      28.59000000
 H      11.00400000      28.64300000      27.64300000
 O      25.36400000      34.79300000      31.64700000
 H      25.98500000      34.06800000      31.52900000
 H      25.12300000      34.97200000      30.70900000
 O      34.53500000      35.24800000      24.07600000
 H      34.95300000      34.64400000      24.74400000
 H      35.13800000      35.06400000      23.32100000
 O      26.64800000      28.75100000      31.91200000
 H      25.98200000      29.30900000      31.45900000
 H      27.12700000      29.48800000      32.38600000
 O      17.84700000      33.50500000      32.82400000
 H      17.63900000      32.64300000      32.40100000
 H      18.63400000      33.22700000      33.31300000
 O      17.54400000      35.73200000      14.06100000
 H      17.74000000      34.74600000      13.99000000
 H      17.67800000      35.85100000      14.98600000
 O      15.69300000      31.14600000      13.77900000
 H      15.52900000      30.24400000      14.19900000
 H      16.23300000      30.74000000      13.01900000
 O      35.88500000      33.03300000      30.33500000
 H      36.64900000      33.52200000      29.96600000
 H      35.80600000      33.44700000      31.19000000
 O      12.69500000      28.92000000      24.91400000
 H      12.17700000      28.08400000      24.79800000
 H      12.45100000      29.13400000      25.82100000
 O       7.90600000      40.02500000      24.90800000
 H       7.81000000      39.43500000      25.65700000
 H       8.89700000      40.12100000      24.88700000
 O       6.33300000      40.11400000      37.50100000
 H       7.18900000      40.45900000      37.49700000
 H       5.85200000      40.95900000      37.80500000
 O      24.45000000      29.73000000      23.38800000
 H      23.48900000      29.65400000      23.78100000
 H      24.19100000      29.73200000      22.47000000
 O      18.54100000      40.45000000      36.15900000
 H      18.96600000      40.57800000      37.01900000
 H      19.31900000      40.27600000      35.56800000
 O      17.25200000      37.91600000      39.74200000
 H      17.73100000      37.40000000      40.40400000
 H      17.01200000      37.29600000      39.07100000
 O      40.65300000      32.20100000      14.34900000
 H      40.27300000      31.33700000      14.17500000
 H      39.91300000      32.58000000      14.91700000
 O      22.13900000      34.96400000      18.32100000
 H      21.14700000      34.83400000      18.24500000
 H      22.39600000      34.95100000      17.38700000
 O      40.14300000      27.97900000      27.58100000
 H      39.84100000      27.08000000      27.94400000
 H      39.89800000      28.60000000      28.29700000
 O       6.42700000      28.61900000      37.92200000
 H       7.18400000      29.19500000      37.53100000
 H       5.79700000      28.66000000      37.21800000
 O      10.12100000      37.61100000      34.31400000
 H      10.50800000      37.10000000      35.02900000
 H      10.39400000      37.17000000      33.47200000
 O       7.64000000      36.61600000      32.97900000
 H       8.24900000      36.98700000      33.69700000
 H       8.03000000      35.73200000      32.96000000
 O      22.29000000      39.51900000      32.45200000
 H      22.45300000      38.91400000      31.70700000
 H      23.21900000      39.52600000      32.83500000
 O      40.69000000      34.62600000      38.32400000
 H      40.85000000      35.21600000      37.50900000
 H      41.60000000      34.63000000      38.68500000
 O      32.28500000      30.19200000      35.92700000
 H      33.05600000      30.56800000      36.37400000
 H      32.57200000      29.22600000      35.93700000
 O      27.94400000      30.52000000      28.27600000
 H      28.54000000      30.11200000      28.90100000
 H      28.50200000      31.32700000      28.08200000
 O      31.27600000      40.32600000      22.07400000
 H      32.10500000      40.82100000      22.02000000
 H      31.31300000      39.71500000      21.30600000
 O      19.80100000      36.68100000      37.79200000
 H      18.95300000      36.63200000      38.30800000
 H      19.46800000      36.80800000      36.91100000
 O      15.87400000      35.31200000      27.85900000
 H      15.61800000      34.44800000      28.35100000
 H      16.49200000      34.93100000      27.19000000
 O      13.57800000      39.07600000      24.84500000
 H      13.76600000      39.60500000      24.01600000
 H      13.86300000      38.18700000      24.62100000
 O      24.51600000      34.76500000      28.83200000
 H      23.57800000      34.62600000      28.54900000
 H      24.98300000      34.42300000      28.07500000
 O      14.12600000      33.52700000      36.64800000
 H      14.12500000      34.38300000      37.25900000
 H      14.96600000      33.62000000      36.17300000
 O      13.96500000      39.67100000      15.07700000
 H      13.37300000      39.78900000      15.87800000
 H      14.84200000      39.59700000      15.52100000
 O       9.68700000      32.44100000      27.37300000
 H      10.28800000      32.33600000      26.57800000
 H      10.29800000      32.09200000      28.07300000
 O      14.09300000      36.22400000      20.68700000
 H      13.85200000      35.54600000      20.04000000
 H      13.25800000      36.77200000      20.73700000
 O      18.52600000      28.61600000      32.19300000
 H      19.07400000      28.04100000      31.66000000
 H      19.14700000      28.93300000      32.88000000
 O      36.42100000      27.45700000      13.61500000
 H      36.54100000      28.45300000      13.57500000
 H      37.13700000      27.26600000      14.29100000
 O      28.20100000      39.84300000      15.19500000
 H      29.14100000      39.69300000      14.99800000
 H      27.85500000      39.88400000      14.29100000
 O      23.60200000      29.74100000      20.42600000
 H      22.96500000      29.36600000      19.81100000
 H      24.36800000      29.92400000      19.77400000
 O      16.92900000      30.75500000      30.46700000
 H      16.74500000      30.69500000      31.43800000
 H      16.63700000      29.88300000      30.14500000
 O      10.86100000      39.05300000      27.58000000
 H      11.46600000      39.77300000      27.21100000
 H      10.80200000      38.56200000      26.74800000
 O      32.26200000      39.37100000      30.26500000
 H      32.91400000      39.96900000      29.83000000
 H      31.98400000      38.85700000      29.44000000
 O      35.35700000      34.05900000      32.84700000
 H      35.93800000      34.79700000      33.17200000
 H      34.52000000      34.58000000      32.74800000
 O      19.26700000      32.49300000      16.91400000
 H      18.32900000      32.47300000      16.72600000
 H      19.29800000      33.25300000      17.52800000
 O      12.70600000      35.08100000      29.68200000
 H      13.19600000      34.88500000      28.85600000
 H      12.75900000      36.05100000      29.70400000
 O      40.33200000      28.30700000      17.73400000
 H      41.29100000      28.00800000      17.59500000
 H      40.37600000      28.36000000      18.72300000
 O      39.44000000      35.61100000      32.47500000
 H      39.40500000      35.76100000      31.54100000
 H      40.23700000      36.06100000      32.76600000
 O      13.19100000      40.89300000      33.00000000
 H      13.85300000      41.32400000      33.59800000
 H      12.48400000      40.69100000      33.67800000
 O      24.36300000      39.86300000      18.48500000
 H      25.32700000      39.72100000      18.22600000
 H      24.22100000      38.99100000      18.91400000
 O       6.41400000      32.24600000      24.48300000
 H       7.23900000      32.72400000      24.26400000
 H       5.96000000      32.95100000      25.02600000
 O      21.37000000      38.42300000      19.28800000
 H      22.13000000      38.14700000      19.79900000
 H      20.68000000      38.00200000      19.89700000
 O      30.37900000      33.32200000      40.84200000
 H      30.65800000      33.78400000      41.69000000
 H      29.89900000      32.58300000      41.16800000
 O      10.57900000      28.61800000      20.16600000
 H       9.60300000      28.62000000      20.23200000
 H      10.76300000      29.60900000      20.17300000
 O      37.68400000      39.24400000      13.90700000
 H      38.40700000      38.56500000      13.86500000
 H      37.04100000      38.77000000      13.38300000
 O      27.88400000      27.51300000      36.81500000
 H      28.49000000      28.27000000      36.92900000
 H      27.02000000      27.96700000      36.72300000
 O      15.48300000      28.24400000      37.43500000
 H      14.78500000      27.57200000      37.40800000
 H      15.51600000      28.49500000      38.37200000
 O      28.41200000      37.98100000      19.77400000
 H      28.94900000      38.45200000      19.05000000
 H      27.77000000      37.49700000      19.17200000
 O      28.61400000      33.16100000      14.36800000
 H      27.84300000      33.57100000      14.77100000
 H      28.13700000      32.53900000      13.74000000
 O      15.40000000      36.09500000      15.58300000
 H      16.20600000      36.62100000      15.93500000
 H      15.83900000      35.94300000      14.64500000
 O      22.32800000      30.80200000      34.08200000
 H      22.26600000      31.42000000      34.83400000
 H      23.03600000      31.22200000      33.55800000
 O      11.86600000      38.56000000      38.34300000
 H      11.19500000      39.21400000      38.78000000
 H      12.68500000      39.08100000      38.68400000
 O      39.08600000      36.61100000      35.46800000
 H      39.87000000      36.78900000      36.03000000
 H      39.46600000      36.04600000      34.76000000
 O      31.80000000      31.90400000      33.61200000
 H      32.76100000      31.73600000      33.32400000
 H      31.76600000      31.34100000      34.38600000
 O      17.04900000      36.34400000      37.36600000
 H      16.97100000      35.36900000      37.12800000
 H      17.37500000      36.69000000      36.50100000
 O      15.18300000      30.45300000      40.36900000
 H      15.05000000      29.48100000      40.25700000
 H      15.02600000      30.71200000      39.42300000
 O      39.95300000      39.10000000      21.06500000
 H      40.28900000      38.29300000      20.58400000
 H      40.74200000      39.32200000      21.56600000
 O      25.75700000      34.88700000      19.02500000
 H      24.79400000      35.10200000      19.04100000
 H      25.99100000      35.41800000      19.86200000
 O      33.66900000      35.94500000      27.79600000
 H      33.94200000      35.05200000      27.41800000
 H      34.04800000      35.82600000      28.69700000
 O      10.89700000      36.98700000      31.87800000
 H      11.30600000      37.28100000      31.01600000
 H      10.34700000      36.25100000      31.55000000
 O      29.63100000      29.36900000      30.29300000
 H      30.46800000      29.85400000      30.28900000
 H      29.72500000      28.81000000      30.99000000
 O      19.49800000      40.84200000      16.19200000
 H      20.42800000      40.70500000      16.54300000
 H      19.68300000      41.64500000      15.63000000
 O      37.54500000      39.20100000      26.15100000
 H      37.84000000      38.88500000      25.28900000
 H      37.15700000      38.35300000      26.49300000
 O      29.68600000      33.39200000      20.11500000
 H      29.65100000      34.20000000      20.70700000
 H      28.75600000      33.28300000      19.99600000
 O      27.63900000      38.78200000      33.49700000
 H      27.94600000      38.46300000      32.65100000
 H      26.98300000      38.00000000      33.72800000
 O      10.07600000      30.49400000      39.41800000
 H      10.88700000      30.96300000      39.02000000
 H       9.35400000      31.13300000      39.06000000
 O      12.36600000      33.92000000      32.26000000
 H      13.32100000      33.61200000      32.34500000
 H      12.51700000      34.51800000      31.44900000
 O      16.50300000      37.20500000      21.20500000
 H      16.68600000      36.33500000      21.61000000
 H      15.50100000      37.02600000      21.11000000
 O      16.74900000      40.07300000      22.05300000
 H      16.38300000      40.26300000      22.90900000
 H      16.61400000      39.09800000      21.97600000
 O      33.22200000      29.80100000      27.85400000
 H      33.87400000      29.12700000      28.07900000
 H      32.64100000      29.79000000      28.64500000
 O      13.81300000      38.29700000      35.40500000
 H      14.71300000      38.63900000      35.56400000
 H      13.93700000      37.71600000      34.63800000
 O      17.58300000      35.07900000      22.84900000
 H      18.44000000      34.82300000      23.24700000
 H      17.15900000      34.19600000      22.73600000
 O      19.39800000      31.76200000      30.04800000
 H      18.42300000      31.48000000      29.86600000
 H      19.65400000      30.97000000      30.45600000
 O      13.93600000      37.07300000      27.76900000
 H      14.66600000      36.42200000      27.81400000
 H      14.08800000      37.47300000      26.92400000
 O      27.51300000      28.87300000      19.64800000
 H      28.07800000      29.34500000      20.25500000
 H      26.81400000      28.54400000      20.19800000
 O      14.71300000      35.25000000      38.49000000
 H      15.60800000      35.44600000      38.43600000
 H      14.52000000      35.33800000      39.42500000
 O      18.71500000      37.37000000      35.30200000
 H      19.25300000      36.96600000      34.65300000
 H      17.96800000      37.64400000      34.68000000
 O       7.00900000      37.08100000      14.35100000
 H       6.70300000      37.12400000      13.44000000
 H       7.89100000      36.81100000      14.24000000
 O      20.81500000      35.83300000      14.18700000
 H      20.73000000      36.23400000      15.06700000
 H      21.16700000      34.94800000      14.42600000
 O      30.73000000      31.52000000      18.63000000
 H      30.25200000      31.93100000      17.86700000
 H      30.48200000      32.10600000      19.37900000
 O      25.45600000      38.72600000      36.81700000
 H      26.35700000      38.40500000      36.62500000
 H      25.51700000      38.88800000      37.76300000
 O      19.57900000      32.55300000      34.67100000
 H      20.08900000      33.27100000      35.08000000
 H      19.67200000      31.83100000      35.30800000
 O      30.81400000      27.32300000      15.91800000
 H      30.28700000      27.47600000      16.72300000
 H      31.32400000      28.11600000      15.80900000
 O      23.84600000      40.50100000      28.24300000
 H      23.02300000      40.54700000      28.84100000
 H      24.51500000      40.79300000      28.95700000
 O      24.93300000      39.93300000      33.00000000
 H      25.31800000      40.74300000      32.56800000
 H      25.70800000      39.30200000      32.79900000
 O      37.73200000      31.40200000      40.23400000
 H      38.07900000      30.89700000      39.53400000
 H      38.05500000      32.30300000      39.99400000
 O       6.39200000      33.38100000      33.22900000
 H       7.04600000      32.68900000      32.90300000
 H       7.07900000      33.85800000      33.80600000
 O      29.69100000      35.87500000      39.90300000
 H      30.07600000      35.66300000      39.04700000
 H      29.99900000      35.19300000      40.50000000
 O      17.65600000      32.96700000      13.95900000
 H      18.31400000      32.55700000      13.32200000
 H      16.97900000      32.30200000      13.95700000
 O      23.81600000      32.50300000      32.37200000
 H      22.90300000      32.66900000      32.02100000
 H      24.25800000      33.32700000      32.06900000
 O      36.63200000      30.01500000      17.30700000
 H      36.72700000      29.04900000      17.11400000
 H      35.91100000      30.20700000      16.68200000
 O      26.56800000      37.30900000      26.78600000
 H      26.11400000      36.70700000      27.40500000
 H      27.07800000      37.83700000      27.37000000
 O      16.17600000      32.43400000      22.50600000
 H      15.66700000      31.58500000      22.64400000
 H      16.38000000      32.37000000      21.53800000
 O      22.81600000      34.72700000      21.50100000
 H      22.69900000      34.98600000      20.57700000
 H      22.28900000      33.92700000      21.52900000
 O      25.42700000      37.30400000      29.83300000
 H      25.82400000      36.42900000      29.64200000
 H      25.88200000      37.54000000      30.65700000
 O      26.62800000      32.37500000      19.54000000
 H      26.29300000      33.07500000      19.05500000
 H      26.10000000      31.62600000      19.27300000
 O      20.23500000      28.47300000      38.12400000
 H      19.53700000      27.95500000      38.58200000
 H      21.00200000      27.85500000      38.12600000
 O       8.67500000      32.06400000      30.27600000
 H       9.49700000      31.69900000      30.74800000
 H       7.99500000      31.46700000      30.68900000
 O      38.54200000      40.42700000      17.66700000
 H      39.49600000      40.56600000      17.71300000
 H      38.30600000      40.58500000      18.58600000
 O      27.90000000      30.92100000      33.30300000
 H      28.53700000      30.62900000      34.01200000
 H      28.35600000      31.68500000      32.97700000
 O      34.88900000      37.13600000      30.07900000
 H      34.25900000      37.83600000      29.92800000
 H      35.76200000      37.57800000      30.02100000
 O      16.61000000      37.95300000      33.74400000
 H      16.66900000      38.50500000      32.93700000
 H      15.84500000      37.40400000      33.50500000
 O      34.38200000      31.33400000      37.16600000
 H      35.09000000      31.01100000      36.55100000
 H      34.58500000      32.28600000      37.10700000
 O      31.32000000      33.96500000      38.41000000
 H      31.27700000      33.44900000      39.29300000
 H      30.67600000      33.42800000      37.89500000
 O      20.25600000      30.70900000      36.63300000
 H      20.51100000      31.50100000      37.23200000
 H      20.07300000      30.05700000      37.34200000
 O      27.69700000      34.64600000      33.87800000
 H      27.41800000      35.24200000      33.13300000
 H      28.34800000      34.06500000      33.42000000
 O      38.47000000      33.86100000      39.73700000
 H      39.35000000      34.05300000      39.44600000
 H      38.48300000      34.14800000      40.64700000
 O      25.76400000      30.14200000      15.92700000
 H      25.47300000      30.38800000      15.04000000
 H      26.40000000      29.41300000      15.77500000
 O      16.26900000      28.23700000      29.42300000
 H      15.68800000      27.54400000      29.13100000
 H      17.09400000      27.98800000      29.07700000
 O      34.12800000      33.34000000      18.90500000
 H      33.86200000      33.61300000      18.00100000
 H      33.53900000      33.94900000      19.42800000
 O      40.18000000      36.40700000      29.50000000
 H      41.11500000      36.39200000      29.28400000
 H      40.00600000      37.31300000      29.08300000
 O      23.85800000      35.09400000      36.16200000
 H      24.81300000      35.33100000      36.34100000
 H      23.64300000      35.84200000      35.50000000
 O      11.26400000      30.98300000      23.59800000
 H      11.68100000      30.12800000      23.81900000
 H      11.00300000      30.86000000      22.62800000
 O      17.63800000      28.64100000      39.55600000
 H      17.55400000      29.50600000      40.04900000
 H      17.64300000      28.05000000      40.31100000
 O      27.20700000      32.75900000      30.81200000
 H      27.47600000      33.39500000      30.09000000
 H      28.08700000      32.49700000      31.16000000
 O      19.39800000      35.19800000      31.61200000
 H      18.88800000      35.65900000      30.92400000
 H      18.66200000      34.73000000      32.09600000
 O      27.37900000      37.32100000      23.65600000
 H      27.04100000      37.42100000      24.57200000
 H      28.31600000      37.47200000      23.79600000
 O      34.71900000      33.90200000      13.36700000
 H      34.59400000      34.70000000      13.94500000
 H      35.62300000      34.17200000      13.05100000
 O      35.53600000      29.03400000      39.80600000
 H      35.75500000      29.90400000      40.07600000
 H      34.56100000      29.08400000      39.71100000
 O      26.51500000      35.71600000      36.32600000
 H      26.82300000      35.78200000      35.40300000
 H      26.93100000      36.43300000      36.81200000
 O      12.81600000      32.90100000      21.81000000
 H      11.94100000      32.54200000      21.92900000
 H      13.32700000      32.09700000      21.82400000
 O       8.26900000      27.78800000      39.92400000
 H       7.71500000      28.05200000      39.17200000
 H       9.05400000      28.37100000      39.86500000
 O      25.49000000      31.15200000      26.95700000
 H      26.31900000      31.03500000      27.52400000
 H      24.91900000      30.61200000      27.49300000
 O      14.29800000      36.40200000      23.90500000
 H      13.63700000      36.49100000      23.20800000
 H      14.36500000      35.43100000      23.94600000
 O      40.33600000      35.33800000      13.29800000
 H      39.68400000      35.08400000      13.94800000
 H      40.43800000      34.54900000      12.74100000
 O      11.06000000      31.48600000      31.60400000
 H      11.55700000      32.30700000      31.84700000
 H      11.38700000      31.39200000      30.65800000
