1791
XYZ file of cluster: frame_2000_c482d.26a4.21ca2 - created by MolEdiTo
 O      37.60700000       8.54300000      21.06500000
 H      38.59800000       8.60300000      20.89500000
 H      37.38100000       9.52200000      20.91100000
 O      35.35700000      34.05900000      32.84700000
 H      35.93800000      34.79700000      33.17200000
 H      34.52000000      34.58000000      32.74800000
 O      39.68100000      14.67700000      20.17300000
 H      39.74900000      15.21300000      19.38000000
 H      40.18900000      13.86100000      19.91300000
 O      35.34000000       2.36200000      34.32700000
 H      35.59900000       1.70800000      33.63200000
 H      35.53200000       1.81300000      35.10000000
 O      36.69100000       1.78300000      22.90000000
 H      37.46000000       1.93100000      23.51100000
 H      36.02700000       2.35600000      23.30800000
 O      34.68600000      14.10700000      39.89700000
 H      34.85500000      14.79300000      40.63000000
 H      35.64900000      13.79700000      39.85900000
 O      39.41100000       6.57500000      26.74500000
 H      39.18300000       5.61300000      26.53800000
 H      39.03500000       7.00900000      25.95900000
 O      34.20100000       3.51200000      38.18600000
 H      34.52300000       2.65200000      38.47900000
 H      34.97600000       4.09600000      38.43200000
 O      40.33200000      28.30700000      17.73400000
 H      41.29100000      28.00800000      17.59500000
 H      40.37600000      28.36000000      18.72300000
 O      38.50400000      33.06400000      33.18800000
 H      38.65600000      33.92400000      32.80500000
 H      37.69000000      33.20300000      33.61900000
 O      39.44000000      35.61100000      32.47500000
 H      39.40500000      35.76100000      31.54100000
 H      40.23700000      36.06100000      32.76600000
 O      38.37200000      25.92900000      23.92400000
 H      39.06000000      25.72500000      24.61800000
 H      38.68800000      25.36500000      23.21800000
 O      40.59600000      20.87500000      38.35100000
 H      41.16500000      21.65100000      38.62900000
 H      41.28600000      20.31700000      37.94800000
 O      35.08000000       9.60100000      15.56600000
 H      35.78000000       8.91200000      15.68300000
 H      34.48000000       9.40600000      16.25600000
 O      39.88200000      24.77000000      25.81300000
 H      39.95600000      25.01400000      26.77300000
 H      39.21600000      24.05300000      25.96500000
 O      38.38800000      34.46200000      14.99700000
 H      38.65200000      33.69600000      15.53000000
 H      37.92300000      35.03200000      15.62000000
 O      34.26900000      31.40300000      32.74700000
 H      34.34400000      32.40700000      32.83900000
 H      35.17500000      31.19300000      32.47300000
 O      35.18300000       4.59100000      32.64700000
 H      35.70400000       4.10100000      32.01800000
 H      35.49800000       4.14700000      33.48900000
 O      35.13100000      20.27000000      36.66900000
 H      35.76500000      19.82500000      36.04300000
 H      34.82400000      20.98800000      36.07700000
 O      35.71800000       2.43400000      19.53300000
 H      36.61700000       2.49700000      19.95300000
 H      35.91700000       2.34200000      18.60000000
 O      40.08000000      37.93000000      13.07500000
 H      40.27000000      36.99200000      13.14200000
 H      40.09000000      38.09500000      12.12500000
 O      35.92700000       1.80400000      13.96200000
 H      35.06700000       1.60500000      13.52000000
 H      36.28500000       0.88300000      13.89300000
 O      39.59700000      29.99500000      29.53500000
 H      40.02200000      29.85700000      30.38500000
 H      40.09600000      30.69400000      29.16800000
 O      35.02500000      28.22600000      28.98500000
 H      35.64800000      28.92700000      29.33700000
 H      35.29800000      27.51800000      29.56900000
 O      37.31800000      17.21700000      23.56600000
 H      37.32800000      16.43000000      22.99400000
 H      37.70800000      17.91200000      23.06800000
 O      39.73900000      19.51400000      12.16300000
 H      38.95000000      19.34000000      11.54700000
 H      39.90000000      20.43200000      11.84100000
 O      36.81600000      10.41300000       7.13400000
 H      36.23100000      11.04200000       6.63400000
 H      36.20900000       9.69100000       7.37600000
 O      34.94000000      24.49800000      37.64300000
 H      34.89900000      25.02000000      38.43800000
 H      34.04400000      24.61900000      37.22100000
 O      34.83000000       3.65900000       8.83700000
 H      35.34700000       3.16000000       9.45000000
 H      34.73300000       4.54300000       9.32500000
 O      38.72200000      38.15100000      23.96100000
 H      38.72400000      37.40200000      23.27900000
 H      39.72100000      38.14100000      24.12600000
 O      34.43000000      16.33500000      25.87700000
 H      34.36000000      16.77000000      26.76900000
 H      35.44300000      16.26900000      25.93000000
 O      36.04700000      36.90700000      26.76100000
 H      35.11400000      36.61300000      26.86600000
 H      36.50900000      36.01700000      26.76200000
 O      36.58800000      10.91000000      39.86500000
 H      36.79000000      10.68100000      38.99200000
 H      36.70000000      11.83200000      39.97400000
 O      36.56600000      12.01400000      33.34400000
 H      35.65200000      12.01200000      33.67000000
 H      36.44900000      12.47100000      32.46500000
 O      37.76200000       4.61400000      10.94800000
 H      38.56100000       5.14600000      10.84500000
 H      37.08900000       5.27600000      11.11100000
 O      39.98000000       8.31300000      33.91600000
 H      39.88400000       9.06500000      33.31700000
 H      40.95200000       8.21900000      33.82000000
 O      37.68400000      39.24400000      13.90700000
 H      38.40700000      38.56500000      13.86500000
 H      37.04100000      38.77000000      13.38300000
 O      38.83400000      10.62900000      15.73100000
 H      39.56700000      11.02700000      15.21900000
 H      38.21200000      10.44300000      15.01900000
 O      39.39900000      16.49000000      18.25300000
 H      38.65400000      17.12200000      18.27400000
 H      40.16000000      17.06600000      18.12100000
 O      39.22200000       3.90000000      26.12600000
 H      39.43400000       3.40900000      26.88100000
 H      39.64900000       3.51700000      25.36200000
 O      34.69800000      17.30000000      28.70400000
 H      33.81600000      17.12800000      29.08300000
 H      34.95200000      18.00500000      29.34600000
 O      39.55400000       5.49200000       8.42800000
 H      38.68000000       5.79800000       8.68400000
 H      40.08800000       5.86500000       9.10600000
 O      39.43400000       6.30900000      37.00900000
 H      38.71900000       6.48400000      36.37100000
 H      39.29200000       5.38800000      37.21600000
 O      36.54300000       6.23600000       8.66400000
 H      35.99600000       6.22200000       9.49200000
 H      36.03900000       6.94500000       8.17000000
 O      35.36200000      33.77300000      21.46200000
 H      35.34300000      33.60700000      20.49700000
 H      35.00500000      32.93400000      21.79000000
 O      35.37900000      32.63800000       9.60700000
 H      34.61700000      33.20200000       9.88100000
 H      35.23100000      31.90900000      10.19600000
 O      40.28100000      19.94800000      14.91000000
 H      40.37000000      19.86200000      13.94600000
 H      40.30600000      19.04100000      15.25500000
 O      34.36700000      19.33800000      25.09900000
 H      34.52800000      18.58100000      24.51300000
 H      35.15800000      19.24600000      25.68700000
 O      36.99500000      16.62300000      11.52200000
 H      36.78500000      17.42700000      11.00600000
 H      36.38200000      15.94200000      11.10500000
 O      38.17700000      25.85600000      11.04100000
 H      37.35200000      26.34200000      11.00700000
 H      38.05200000      25.15600000      10.36500000
 O      34.87000000       9.12900000      30.60500000
 H      34.16400000       8.58600000      30.31600000
 H      34.34400000       9.95500000      30.79900000
 O      35.02200000       8.58100000       7.18200000
 H      34.67700000       8.84700000       6.26800000
 H      34.15100000       8.30600000       7.57200000
 O      34.46600000      38.78300000      33.36900000
 H      35.08700000      39.39000000      32.89000000
 H      34.58400000      37.98500000      32.78600000
 O      39.08600000      36.61100000      35.46800000
 H      39.87000000      36.78900000      36.03000000
 H      39.46600000      36.04600000      34.76000000
 O      39.94900000      23.83600000       7.34600000
 H      39.96800000      24.44200000       6.59000000
 H      40.14700000      23.01700000       6.82400000
 O      37.57000000      38.40000000      36.81700000
 H      38.16100000      37.78200000      36.36400000
 H      36.70600000      37.97700000      36.67000000
 O      34.56300000      11.99900000      17.13300000
 H      34.71900000      11.31200000      16.52800000
 H      35.22600000      12.64100000      16.94900000
 O      34.54400000       5.77100000      13.84800000
 H      35.20400000       6.26400000      13.43300000
 H      35.01300000       5.19500000      14.44400000
 O      36.60800000       6.90600000      12.53900000
 H      36.74400000       7.58300000      11.75200000
 H      37.33500000       7.28600000      13.04900000
 O      38.94700000      12.56000000      23.25700000
 H      38.37500000      11.99300000      23.83900000
 H      39.54900000      11.86000000      22.93200000
 O      36.11400000      27.15000000      17.80400000
 H      36.32000000      26.79300000      18.67700000
 H      35.85600000      26.33000000      17.34100000
 O      38.04900000      19.69300000      38.77300000
 H      38.24700000      19.24200000      39.63000000
 H      38.95500000      19.88800000      38.46400000
 O      36.74100000      18.00300000      18.25100000
 H      37.03100000      18.78100000      17.74000000
 H      36.35300000      18.41000000      19.02600000
 O      34.35900000      39.69400000      17.59800000
 H      34.97600000      39.04000000      17.23400000
 H      34.62600000      40.50100000      17.15700000
 O      38.29100000       1.24100000      20.44300000
 H      38.75900000       0.44100000      20.83200000
 H      37.64400000       1.41100000      21.15700000
 O      39.93600000      38.13500000      10.41000000
 H      39.97200000      38.81700000       9.71200000
 H      39.25900000      37.52300000       9.98500000
 O      39.95300000      39.10000000      21.06500000
 H      40.28900000      38.29300000      20.58400000
 H      40.74200000      39.32200000      21.56600000
 O      34.76900000      18.99000000      13.80700000
 H      33.95400000      19.02800000      13.22800000
 H      34.89000000      20.00800000      13.79200000
 O      37.29600000      34.36100000      37.06500000
 H      38.18700000      34.30600000      36.67100000
 H      37.45300000      34.35400000      37.99300000
 O      40.71100000      29.09900000      39.80000000
 H      40.72300000      30.01600000      40.24600000
 H      41.63200000      28.86400000      40.17600000
 O      40.36000000      31.52100000      25.02000000
 H      39.49000000      31.19500000      24.71200000
 H      40.88500000      30.67700000      24.96300000
 O      37.93000000      23.83100000       9.21000000
 H      38.74300000      24.07900000       8.59800000
 H      38.25300000      22.94200000       9.43400000
 O      36.49000000      38.01000000       7.53000000
 H      36.80900000      38.92500000       7.33100000
 H      35.50600000      38.19600000       7.42700000
 O      39.64500000      15.31100000      12.57900000
 H      39.35500000      14.97400000      13.43000000
 H      38.91500000      15.98500000      12.39200000
 O      39.84700000       3.26200000      30.27100000
 H      39.90600000       2.72500000      29.42400000
 H      39.92900000       4.15700000      29.88700000
 O      40.83800000      31.88000000      11.01100000
 H      41.24700000      31.29600000      11.68900000
 H      41.64000000      32.55000000      11.00400000
 O      37.68500000      11.42000000      20.67800000
 H      37.97200000      11.60100000      19.72800000
 H      38.15000000      12.10100000      21.18900000
 O      39.57400000      19.34000000      26.29900000
 H      38.60900000      19.26800000      26.15700000
 H      39.62800000      19.65600000      27.20500000
 O      35.13200000      11.93400000      36.28600000
 H      34.90600000      11.12500000      35.76600000
 H      34.65800000      11.82700000      37.11100000
 O      36.46200000      27.88300000      31.46500000
 H      36.79200000      28.81400000      31.69400000
 H      35.58400000      28.00800000      31.93200000
 O      37.65300000      15.77400000      26.25700000
 H      38.49100000      15.32600000      26.31600000
 H      37.63900000      16.15300000      25.35700000
 O      39.72000000      32.64300000      36.69100000
 H      40.04000000      33.17800000      37.42200000
 H      39.16500000      32.00200000      37.17600000
 O      40.70600000      28.57400000      24.95500000
 H      39.86100000      28.56500000      24.50800000
 H      40.42500000      28.47300000      25.87100000
 O      34.67300000      21.63900000      21.13200000
 H      35.11300000      22.12700000      21.85000000
 H      33.86700000      21.30400000      21.63900000
 O      36.19400000      30.66300000      35.37400000
 H      37.04300000      30.10600000      35.38400000
 H      35.69300000      30.14800000      34.66600000
 O      40.83500000      12.34100000      18.88500000
 H      41.17800000      12.33900000      17.98100000
 H      40.04000000      11.86700000      18.83600000
 O      39.80300000      14.62800000      38.55800000
 H      40.15600000      14.89000000      37.69500000
 H      40.59500000      14.38300000      39.02800000
 O      35.60500000      19.25000000      20.30800000
 H      35.31500000      20.22700000      20.39300000
 H      36.28700000      19.23600000      20.98300000
 O      37.69900000      13.62200000      39.81000000
 H      38.43200000      13.88300000      39.23700000
 H      38.20400000      13.36800000      40.61500000
 O      39.72300000      29.74400000       9.52000000
 H      39.99900000      30.46300000      10.16500000
 H      38.89300000      30.13500000       9.18400000
 O      39.98500000      39.00800000      38.52200000
 H      39.97100000      39.76400000      37.87500000
 H      39.30400000      38.44900000      38.14200000
 O      40.38300000      24.21600000      34.68700000
 H      39.95500000      24.14300000      33.83700000
 H      40.31700000      23.33200000      35.08800000
 O      37.93800000       1.80000000       6.71800000
 H      38.13600000       2.76200000       6.97800000
 H      38.67500000       1.37400000       7.13400000
 O      39.73100000       5.68300000      21.99000000
 H      39.75800000       4.88700000      21.47500000
 H      40.08900000       6.28900000      21.30800000
 O      37.54500000      39.20100000      26.15100000
 H      37.84000000      38.88500000      25.28900000
 H      37.15700000      38.35300000      26.49300000
 O      40.26100000       3.91100000       6.42200000
 H      40.44400000       4.62400000       5.77000000
 H      39.96300000       4.44100000       7.22200000
 O      37.62800000      19.18100000      10.50200000
 H      37.87400000      19.38500000       9.58500000
 H      36.83800000      19.80600000      10.55600000
 O      37.33500000      39.96100000      10.64200000
 H      37.93600000      40.06200000       9.82600000
 H      37.67500000      39.14200000      10.99100000
 O      40.01000000      28.34800000      33.20900000
 H      40.42900000      29.02800000      32.59800000
 H      40.78200000      28.01300000      33.66500000
 O      37.78800000       7.52800000      29.53300000
 H      37.22200000       6.83100000      29.09500000
 H      37.12600000       7.94300000      30.12600000
 O      37.69000000      13.07500000       8.04700000
 H      38.43200000      13.37100000       7.42200000
 H      37.02100000      12.81700000       7.36400000
 O      34.61600000      38.71600000      38.91900000
 H      34.98100000      38.84500000      38.07000000
 H      33.91900000      38.01800000      38.67300000
 O      33.93800000      37.35600000      10.68500000
 H      34.22200000      36.55400000      10.16700000
 H      34.82100000      37.60700000      11.09100000
 O      38.48100000      33.95900000      20.63400000
 H      38.31300000      33.03400000      20.29800000
 H      37.68500000      34.08300000      21.16400000
 O      35.77800000       3.23500000      27.70700000
 H      35.68400000       4.21500000      27.84300000
 H      35.59800000       3.15600000      26.78600000
 O      36.60900000      14.08300000      17.14100000
 H      37.19200000      14.46100000      16.42400000
 H      36.00300000      14.81800000      17.32700000
 O      39.48300000      10.76000000      32.64000000
 H      39.65900000      10.95300000      31.64000000
 H      38.55500000      11.05400000      32.67200000
 O      37.23200000      27.05100000      37.82000000
 H      36.86300000      27.64500000      38.47500000
 H      38.07600000      26.78100000      38.32500000
 O      35.97700000      40.76900000      36.79600000
 H      35.86100000      40.76900000      37.71800000
 H      36.66200000      40.07400000      36.64100000
 O      35.86600000      40.64800000      31.89900000
 H      35.12800000      40.92400000      31.39800000
 H      36.42300000      40.18900000      31.24000000
 O      39.46800000      16.02900000       9.43800000
 H      39.43300000      15.06400000       9.34600000
 H      38.97800000      16.15100000      10.26500000
 O      34.68700000      12.17300000      28.24400000
 H      34.31500000      11.46000000      28.80300000
 H      34.84100000      12.85500000      28.90400000
 O      35.58800000       6.20800000      21.35900000
 H      36.01700000       5.56700000      22.00700000
 H      36.18100000       6.90100000      21.18700000
 O      35.76900000       7.34100000      33.05300000
 H      35.42000000       6.43700000      32.92900000
 H      35.33000000       7.89400000      32.40000000
 O      39.81900000       2.40700000      23.83000000
 H      40.73400000       1.99900000      23.93800000
 H      39.83900000       2.56500000      22.87800000
 O      39.79600000      30.84200000      18.55900000
 H      39.14500000      30.63300000      19.24200000
 H      40.01100000      29.99300000      18.14700000
 O      38.38400000      28.88500000      23.68000000
 H      37.78700000      28.22500000      24.15800000
 H      37.99700000      28.80800000      22.78400000
 O      40.81200000      17.59300000      15.98800000
 H      40.66200000      16.70400000      15.57700000
 H      41.73200000      17.70200000      16.08800000
 O      36.74300000      13.97100000      36.59300000
 H      36.01200000      13.37200000      36.31600000
 H      37.56400000      13.46700000      36.26600000
 O      39.16700000      33.91400000      10.87800000
 H      38.68700000      33.90400000      10.00300000
 H      39.53800000      33.03100000      10.94800000
 O      38.86100000      23.70000000      32.18300000
 H      37.94000000      23.66700000      32.57800000
 H      38.73300000      24.24500000      31.38900000
 O      40.15200000      33.89600000      26.08600000
 H      40.85400000      34.54600000      25.74300000
 H      40.35600000      33.19200000      25.46200000
 O      40.09700000       1.03200000      33.93100000
 H      40.28600000       1.99000000      33.74800000
 H      40.49600000       0.59500000      33.16400000
 O      40.39400000      21.06200000      20.85100000
 H      40.65500000      21.04600000      19.91500000
 H      41.22700000      20.72900000      21.23200000
 O      37.58200000      38.57800000      30.42100000
 H      37.88300000      38.31400000      31.29200000
 H      38.34500000      38.69300000      29.86600000
 O      35.39400000      11.49800000      10.21400000
 H      34.98400000      11.55900000       9.36500000
 H      34.59700000      11.45400000      10.82700000
 O      36.23800000      18.91000000      27.16000000
 H      35.51100000      18.27700000      27.47600000
 H      36.67300000      19.13900000      27.98300000
 O      36.70900000      35.88300000      16.89000000
 H      36.63500000      36.81400000      16.85900000
 H      35.86100000      35.59200000      17.31600000
 O      40.79100000      27.65200000       7.85700000
 H      41.15000000      27.20600000       8.65100000
 H      40.75600000      28.57400000       8.24100000
 O      38.57500000      29.06600000      35.47100000
 H      39.12500000      29.03500000      34.65400000
 H      38.25700000      28.12400000      35.37100000
 O      34.11400000      14.47800000      15.04500000
 H      34.53100000      15.08100000      15.68800000
 H      34.86600000      14.50000000      14.40300000
 O      35.27500000      21.56800000      29.75200000
 H      34.82200000      22.03300000      30.55500000
 H      34.87700000      22.25600000      29.06300000
 O      34.16400000      25.67700000      15.00900000
 H      35.13100000      25.82900000      14.94800000
 H      34.16900000      25.40500000      15.95600000
 O      38.36400000      11.42000000      25.50400000
 H      37.66200000      12.04200000      25.81800000
 H      38.18100000      10.73700000      26.20900000
 O      40.35000000       9.53000000      29.11200000
 H      40.01100000      10.46300000      29.25500000
 H      39.46500000       9.07300000      28.98800000
 O      36.38800000      36.31400000      34.06700000
 H      37.26200000      36.38800000      34.54800000
 H      35.81500000      36.63900000      34.74500000
 O      38.58000000      32.27800000      16.38500000
 H      37.91600000      31.54400000      16.40800000
 H      39.15700000      31.98200000      17.11100000
 O      38.93800000      27.70800000      15.52500000
 H      38.97900000      26.75900000      15.62700000
 H      39.41800000      27.99500000      16.29300000
 O      38.40300000      21.15200000      29.15400000
 H      37.52300000      21.31500000      29.47900000
 H      38.77600000      20.52000000      29.78100000
 O      37.88000000      33.87000000       8.45900000
 H      37.81200000      33.70800000       7.48700000
 H      37.17100000      33.30100000       8.82600000
 O      37.64400000       9.49200000      27.18000000
 H      37.78100000       8.85200000      27.91900000
 H      36.71100000       9.39900000      27.00500000
 O      39.32800000      29.85900000      13.85200000
 H      39.02200000      29.20600000      14.54000000
 H      38.47400000      30.29800000      13.65000000
 O      37.95400000      19.98100000      21.90000000
 H      37.68400000      20.76000000      22.38500000
 H      38.89000000      20.15100000      21.65400000
 O      36.00800000       1.92500000      16.57100000
 H      36.01500000       1.73600000      15.55000000
 H      36.89300000       1.52900000      16.77000000
 O      34.44500000      25.37500000      40.55500000
 H      33.84800000      24.66000000      40.92100000
 H      35.29500000      25.02700000      40.83800000
 O      37.39500000      34.85800000      12.61300000
 H      37.76200000      34.60400000      13.52000000
 H      38.05200000      34.51900000      12.01700000
 O      36.67700000       9.11400000      10.59700000
 H      37.59000000       9.46500000      10.50200000
 H      36.21600000       9.99200000      10.50200000
 O      38.42700000      10.03500000      37.12700000
 H      37.84100000       9.61600000      36.44100000
 H      38.48500000      10.90800000      36.65600000
 O      39.87700000      26.74600000      38.77900000
 H      40.06600000      26.13500000      39.45100000
 H      40.26700000      27.58700000      39.10000000
 O      40.76900000      15.60500000      22.25700000
 H      40.31300000      15.47300000      21.36300000
 H      41.63200000      15.16400000      22.04300000
 O      34.51000000       3.57400000      23.39100000
 H      35.23400000       4.14100000      23.75700000
 H      33.69600000       3.91600000      23.77000000
 O      35.42400000      25.28300000      24.73600000
 H      35.42600000      25.51100000      25.65600000
 H      36.24600000      25.77600000      24.48100000
 O      40.05400000      35.56600000      22.10400000
 H      39.59400000      34.83400000      21.69600000
 H      40.45400000      35.96200000      21.31200000
 O      36.31200000      38.81000000      22.11300000
 H      36.31700000      39.75700000      22.28400000
 H      37.16800000      38.52600000      22.59500000
 O      38.00800000      12.37100000      11.31100000
 H      37.26100000      12.39400000      10.70800000
 H      38.74300000      12.07600000      10.73500000
 O      36.73200000       4.48600000       6.58700000
 H      36.06600000       3.86900000       6.92700000
 H      36.72500000       5.20600000       7.31400000
 O      34.65500000      33.87500000      35.91000000
 H      34.79000000      33.97900000      34.94300000
 H      35.55900000      33.97800000      36.25500000
 O      38.06500000      30.84600000       7.40500000
 H      37.11400000      30.84800000       7.19900000
 H      38.28700000      31.79200000       7.20700000
 O      37.57600000      23.03300000      36.92300000
 H      37.21700000      23.84300000      37.37800000
 H      37.16800000      22.41100000      37.56600000
 O      37.06200000       6.47800000      18.67700000
 H      37.11500000       7.30600000      19.15600000
 H      36.14100000       6.20400000      18.76700000
 O      34.60600000      40.62800000      11.78100000
 H      33.88200000      40.72700000      11.14000000
 H      35.39000000      40.60400000      11.23700000
 O      39.17400000      10.21700000       9.35700000
 H      38.56200000      10.42000000       8.63000000
 H      39.90000000       9.77500000       8.95200000
 O      37.49700000      34.14400000      27.27300000
 H      37.78800000      34.23100000      28.16500000
 H      38.38500000      34.12100000      26.83400000
 O      36.54800000       4.70900000      38.90900000
 H      37.13700000       4.47000000      38.13800000
 H      36.09400000       5.48900000      38.51900000
 O      36.80500000      17.22000000      14.11000000
 H      36.88800000      16.85100000      13.22900000
 H      36.07700000      17.84000000      13.91300000
 O      40.57600000      15.55500000      36.26300000
 H      40.46700000      16.37800000      35.67700000
 H      40.53300000      14.86300000      35.52700000
 O      34.83000000      26.06000000      27.35500000
 H      35.07200000      26.95700000      27.80700000
 H      33.87100000      26.34500000      27.18100000
 O      34.87700000      13.39500000      31.19500000
 H      34.01300000      13.37000000      31.75100000
 H      35.15300000      14.33000000      31.47000000
 O      37.84300000      31.58300000      22.10600000
 H      37.63400000      31.28200000      21.18600000
 H      36.91800000      31.59400000      22.43100000
 O      37.46100000       4.80100000      23.75300000
 H      38.25200000       5.18900000      23.30500000
 H      37.89200000       4.50700000      24.58400000
 O      39.26700000      35.73500000      18.67200000
 H      39.02300000      35.09600000      19.41200000
 H      38.40700000      35.80300000      18.14100000
 O      34.35700000      33.59000000      26.85900000
 H      35.32600000      33.46100000      26.97200000
 H      34.12800000      32.87200000      26.26100000
 O      34.53500000      35.24800000      24.07600000
 H      34.95300000      34.64400000      24.74400000
 H      35.13800000      35.06400000      23.32100000
 O      38.00500000      19.16500000      32.01100000
 H      38.79300000      19.04800000      31.38800000
 H      38.50700000      19.75800000      32.63300000
 O      40.25900000      17.82100000      34.75800000
 H      39.34000000      17.67300000      34.90800000
 H      40.33500000      18.66300000      34.25800000
 O      37.73200000      31.40200000      40.23400000
 H      38.07900000      30.89700000      39.53400000
 H      38.05500000      32.30300000      39.99400000
 O      35.12600000      21.67900000      16.10300000
 H      35.36600000      21.66500000      15.14100000
 H      35.97200000      21.23700000      16.42900000
 O      40.70500000      40.90000000      40.40300000
 H      40.50300000      40.21200000      39.64900000
 H      41.66700000      40.65600000      40.39200000
 O      35.65500000      19.01600000      30.49300000
 H      35.69000000      19.95300000      30.19000000
 H      36.29800000      19.02400000      31.23400000
 O      36.63200000      30.01500000      17.30700000
 H      36.72700000      29.04900000      17.11400000
 H      35.91100000      30.20700000      16.68200000
 O      35.88500000      33.03300000      30.33500000
 H      36.64900000      33.52200000      29.96600000
 H      35.80600000      33.44700000      31.19000000
 O      40.56100000       3.71100000      32.90400000
 H      40.35100000       3.49600000      31.94700000
 H      39.87200000       4.31200000      33.10200000
 O      38.06800000      20.73700000      16.92800000
 H      38.84500000      20.58200000      16.33300000
 H      38.37800000      21.61000000      17.28300000
 O      35.87600000      14.80700000       9.77700000
 H      36.54200000      14.22300000       9.39700000
 H      35.14800000      14.24400000       9.93200000
 O      36.99500000       7.07700000      16.00300000
 H      37.20200000       6.95900000      16.92700000
 H      37.64200000       6.65100000      15.50400000
 O      35.54400000      16.54100000      16.32900000
 H      35.98200000      16.99700000      15.57200000
 H      35.75900000      17.20100000      17.06400000
 O      40.01900000      24.92200000      15.20100000
 H      40.28700000      24.77900000      16.16300000
 H      40.80000000      24.43800000      14.84100000
 O      38.60600000       3.32800000      13.07600000
 H      38.35200000       3.87900000      12.26300000
 H      37.76000000       3.12300000      13.37600000
 O      38.52300000      15.98200000      32.77700000
 H      37.74400000      15.60600000      32.27600000
 H      38.11400000      16.02600000      33.65900000
 O      40.37000000      30.31400000      21.82800000
 H      39.74400000      29.63500000      22.21300000
 H      39.81800000      31.06000000      21.88200000
 O      35.21600000      37.94400000      19.64700000
 H      35.01500000      38.75000000      19.11600000
 H      35.54700000      38.38200000      20.44700000
 O      38.54200000      40.42700000      17.66700000
 H      39.49600000      40.56600000      17.71300000
 H      38.30600000      40.58500000      18.58600000
 O      39.85600000      21.89300000      11.04500000
 H      40.68200000      22.50800000      11.07200000
 H      39.29400000      22.44500000      11.63700000
 O      39.83900000      20.31400000      33.77300000
 H      39.88500000      20.82400000      34.62200000
 H      40.35700000      20.90700000      33.26200000
 O      35.18600000      26.48100000      11.41100000
 H      34.40900000      25.98900000      11.76000000
 H      35.47900000      26.89300000      12.29300000
 O      38.25600000      26.22700000      33.60400000
 H      39.05700000      26.76100000      33.47600000
 H      37.56100000      26.79200000      33.21700000
 O      37.04300000      19.83600000       7.72100000
 H      36.74700000      19.14100000       7.05700000
 H      36.51200000      20.58400000       7.32600000
 O      39.30800000       3.68100000      19.31200000
 H      39.72200000       3.88100000      18.46700000
 H      38.98300000       2.80500000      19.27600000
 O      38.91100000       7.61100000      24.07900000
 H      38.13400000       7.96900000      23.59600000
 H      39.19600000       6.92600000      23.41500000
 O      34.88900000      37.13600000      30.07900000
 H      34.25900000      37.83600000      29.92800000
 H      35.76200000      37.57800000      30.02100000
 O      36.20100000      24.16800000      34.76600000
 H      37.01100000      24.65000000      34.63300000
 H      36.53800000      23.45500000      35.37700000
 O      34.52400000       9.79500000      26.69600000
 H      35.01100000      10.50300000      27.22000000
 H      33.63400000      10.25100000      26.66400000
 O      39.61700000      38.69500000      28.13100000
 H      38.94700000      38.72300000      27.44100000
 H      40.36400000      39.21500000      27.78600000
 O      40.65300000      32.20100000      14.34900000
 H      40.27300000      31.33700000      14.17500000
 H      39.91300000      32.58000000      14.91700000
 O      40.14300000      27.97900000      27.58100000
 H      39.84100000      27.08000000      27.94400000
 H      39.89800000      28.60000000      28.29700000
 O      39.79400000       5.69600000      29.22400000
 H      39.11000000       6.22000000      29.70500000
 H      39.81300000       6.16400000      28.38800000
 O      39.97700000       8.54500000      17.01100000
 H      40.76500000       9.12900000      17.02300000
 H      39.33700000       9.18200000      16.58000000
 O      36.22000000       8.80100000      35.42700000
 H      35.47900000       9.32300000      34.99900000
 H      36.47600000       8.29000000      34.59700000
 O      36.30200000      14.83800000      28.94500000
 H      35.58400000      15.32000000      29.37400000
 H      36.39600000      15.23200000      28.08100000
 O      34.38200000      31.33400000      37.16600000
 H      35.09000000      31.01100000      36.55100000
 H      34.58500000      32.28600000      37.10700000
 O      35.46900000      28.34900000       8.80800000
 H      35.58100000      27.77900000       7.96600000
 H      36.33900000      28.27600000       9.13100000
 O      38.75000000      12.13400000      35.42500000
 H      39.48500000      12.53500000      34.99800000
 H      38.10600000      11.93800000      34.70900000
 O      40.83500000      32.24800000      28.47800000
 H      41.76000000      32.24600000      28.83400000
 H      40.92700000      32.81300000      27.71300000
 O      35.02400000      20.75500000       9.90000000
 H      34.20000000      20.74300000       9.41700000
 H      34.74700000      21.27400000      10.68800000
 O      36.44500000      31.43000000      19.60600000
 H      35.65400000      31.95100000      19.38700000
 H      36.45000000      30.70700000      18.94500000
 O      36.70000000      37.28300000      11.56600000
 H      36.78600000      36.39100000      11.94500000
 H      37.00700000      37.08400000      10.64100000
 O      39.68900000      21.90600000      36.00200000
 H      38.86900000      22.36900000      36.35100000
 H      39.94500000      21.45800000      36.81500000
 O      37.87900000      16.65200000      39.22400000
 H      38.67900000      17.06900000      39.58100000
 H      38.27800000      15.86000000      38.80100000
 O      39.36300000       3.01100000      15.85900000
 H      38.80500000       3.76300000      16.13000000
 H      39.22100000       3.02100000      14.89100000
 O      39.42700000       7.92600000      14.14500000
 H      39.12900000       8.86000000      14.07000000
 H      40.31500000       8.04900000      13.71300000
 O      36.26000000      18.89700000      34.68900000
 H      36.71500000      18.09900000      34.97800000
 H      36.49700000      18.99700000      33.75400000
 O      39.55800000       0.96600000      36.53400000
 H      40.30700000       1.42700000      36.98400000
 H      39.83800000       0.88100000      35.59400000
 O      40.38300000      15.26300000      25.44400000
 H      40.62200000      14.32400000      25.36400000
 H      40.29400000      15.45300000      24.44300000
 O      40.69000000      34.62600000      38.32400000
 H      40.85000000      35.21600000      37.50900000
 H      41.60000000      34.63000000      38.68500000
 O      35.19700000       1.32600000      39.50600000
 H      34.70100000       0.52000000      39.57100000
 H      35.99900000       1.11600000      40.03900000
 O      34.61600000      14.31100000      21.67200000
 H      35.54700000      14.51400000      21.80100000
 H      34.25300000      15.17500000      22.02700000
 O      39.92800000      16.65300000       6.73500000
 H      40.25900000      16.41500000       7.63700000
 H      38.99300000      16.31800000       6.73200000
 O      36.85900000      28.67800000      20.87200000
 H      36.99300000      27.80700000      20.49500000
 H      35.95500000      28.93800000      20.62200000
 O      34.80800000      30.27200000      10.95600000
 H      34.00900000      30.02300000      11.47100000
 H      34.56700000      29.82600000      10.11400000
 O      38.47000000      33.86100000      39.73700000
 H      39.35000000      34.05300000      39.44600000
 H      38.48300000      34.14800000      40.64700000
 O      40.08300000       8.14100000      20.09700000
 H      40.89900000       8.68600000      20.12900000
 H      39.94200000       8.05500000      19.11800000
 O      38.37900000       3.86800000      36.66800000
 H      38.95300000       3.92400000      35.89300000
 H      38.08400000       2.93700000      36.56500000
 O      40.18000000      36.40700000      29.50000000
 H      41.11500000      36.39200000      29.28400000
 H      40.00600000      37.31300000      29.08300000
 O      38.38000000      30.55700000      37.72900000
 H      37.47200000      30.17200000      37.67300000
 H      38.85400000      29.85500000      37.17100000
 O      35.23800000      21.76400000      13.28900000
 H      34.57600000      22.44900000      13.54900000
 H      35.86500000      22.37400000      12.86900000
 O      36.03800000      26.44200000       6.98000000
 H      36.82100000      26.85100000       6.56100000
 H      35.61700000      26.13000000       6.15400000
 O      36.49600000      30.62300000      29.43700000
 H      37.43000000      30.56600000      29.14400000
 H      36.41100000      31.53400000      29.67600000
 O      40.23900000      17.91400000      39.96600000
 H      40.23200000      18.05800000      40.95300000
 H      40.99700000      18.43800000      39.69300000
 O      40.38300000       2.13500000      27.89400000
 H      40.68000000       1.37500000      27.32800000
 H      41.32300000       2.36500000      28.26100000
 O      38.22900000      36.59300000       9.21900000
 H      37.91300000      37.01600000       8.43900000
 H      38.14700000      35.64500000       8.97600000
 O      37.62000000      16.66800000      36.00600000
 H      38.02500000      16.77600000      36.86200000
 H      37.29600000      15.74400000      35.98100000
 O      37.47500000      30.66700000      32.47700000
 H      37.97700000      31.36800000      32.96700000
 H      37.56900000      30.95400000      31.55600000
 O      35.23800000      22.82200000      32.64000000
 H      35.31700000      23.08300000      33.58900000
 H      34.73200000      21.95600000      32.78700000
 O      39.96700000       8.57900000      38.71000000
 H      39.72700000       7.88000000      38.07900000
 H      39.29000000       9.24300000      38.47700000
 O      40.82800000      12.42800000      25.61300000
 H      39.89300000      12.10000000      25.57000000
 H      41.17600000      11.51000000      25.53700000
 O      39.59700000      25.16300000      19.88700000
 H      40.48700000      25.55200000      19.82000000
 H      39.72100000      24.60300000      20.73400000
 O      39.19900000      14.58600000      30.00900000
 H      38.28600000      14.66700000      29.73600000
 H      39.67000000      15.26200000      29.49300000
 O      34.47000000       1.54100000      29.36200000
 H      33.86100000       2.19600000      29.75500000
 H      34.83300000       2.04100000      28.56800000
 O      36.51600000      30.53000000      13.16800000
 H      35.98000000      30.58400000      12.34300000
 H      35.84300000      30.90000000      13.80400000
 O      34.23200000      37.82800000      24.23700000
 H      34.19600000      36.88100000      24.09800000
 H      34.96000000      38.12600000      23.66300000
 O      34.71900000      33.90200000      13.36700000
 H      34.59400000      34.70000000      13.94500000
 H      35.62300000      34.17200000      13.05100000
 O      34.22400000      33.77500000      40.49900000
 H      33.61300000      33.06300000      40.23200000
 H      35.12900000      33.33000000      40.32200000
 O      37.62400000      14.87800000      22.17700000
 H      37.93400000      14.11300000      22.75600000
 H      38.36200000      14.88400000      21.56400000
 O      34.23100000      15.90400000      37.92500000
 H      35.14600000      16.23200000      38.11300000
 H      34.33600000      15.04500000      38.42700000
 O      35.53600000      29.03400000      39.80600000
 H      35.75500000      29.90400000      40.07600000
 H      34.56100000      29.08400000      39.71100000
 O      38.67200000      15.38300000      15.52400000
 H      38.38900000      16.19600000      15.11200000
 H      39.00700000      15.79900000      16.37400000
 O      35.13400000       6.80100000      37.79100000
 H      35.63900000       7.61600000      37.62300000
 H      34.36900000       6.96600000      37.20700000
 O      38.11700000      11.85800000      18.09800000
 H      38.21200000      11.58400000      17.14500000
 H      37.83800000      12.76800000      17.98500000
 O      35.34700000       5.95700000      27.99200000
 H      34.69300000       6.16900000      28.66600000
 H      34.84800000       6.30100000      27.20300000
 O      35.45500000      15.78200000      31.85400000
 H      34.65900000      16.14100000      32.37300000
 H      35.75200000      16.59300000      31.43600000
 O      39.54300000      40.34500000       8.48400000
 H      40.33600000      40.79000000       8.72900000
 H      39.94900000      39.73900000       7.72800000
 O      37.60500000      10.26300000      13.22500000
 H      36.62800000      10.01800000      13.12700000
 H      37.65100000      11.06400000      12.71500000
 O      38.84900000      12.03000000      30.30200000
 H      38.99800000      13.01400000      30.18700000
 H      37.85000000      11.97000000      30.25700000
 O      37.14400000       3.45000000      30.74700000
 H      38.02900000       3.18100000      30.55200000
 H      36.65400000       2.72400000      30.26400000
 O      38.74500000       5.62100000      34.12900000
 H      37.96000000       6.06800000      33.84900000
 H      39.43600000       6.34500000      34.01800000
 O      39.61100000       5.60900000      17.02300000
 H      39.87500000       6.57000000      16.89600000
 H      38.94800000       5.76000000      17.73800000
 O      40.15000000       1.26400000      12.30600000
 H      39.72700000       2.02900000      12.71500000
 H      39.36200000       0.78200000      11.95200000
 O      34.71400000      40.66200000      26.00500000
 H      34.61200000      39.78500000      25.54900000
 H      35.63400000      40.57400000      26.30100000
 O      34.92900000       6.19800000      24.76100000
 H      34.85300000       7.03000000      24.31100000
 H      35.76400000       5.82700000      24.45800000
 O      35.39000000      26.70300000      35.60900000
 H      35.54900000      25.74200000      35.44300000
 H      35.79100000      26.73400000      36.52000000
 O      40.27100000      19.44900000       7.18300000
 H      39.74700000      19.21000000       7.94900000
 H      40.01800000      18.70300000       6.57400000
 O      37.13300000      38.59900000      16.49800000
 H      37.87000000      39.17400000      16.86500000
 H      37.37100000      38.73300000      15.55400000
 O      36.42100000      27.45700000      13.61500000
 H      36.54100000      28.45300000      13.57500000
 H      37.13700000      27.26600000      14.29100000
 O      34.89600000      11.51200000      23.39100000
 H      34.90700000      12.38200000      22.94800000
 H      35.15500000      11.84600000      24.29200000
 O      37.96200000      25.48800000      30.53000000
 H      37.01300000      25.24100000      30.39800000
 H      37.82900000      26.40300000      30.95200000
 O      39.82200000      25.50000000      28.45100000
 H      39.01900000      25.38500000      28.91600000
 H      40.21500000      24.63500000      28.58100000
 O      38.30900000      23.71000000      17.63700000
 H      37.60600000      23.46900000      18.28000000
 H      38.96900000      24.07300000      18.25200000
 O      38.74100000      34.14800000      29.53800000
 H      39.35200000      34.96000000      29.50500000
 H      39.46500000      33.49700000      29.28400000
 O      35.91200000      21.61900000      38.94400000
 H      36.53400000      20.83500000      38.95200000
 H      35.32900000      21.34400000      38.20500000
 O      40.82300000      36.15500000       7.90400000
 H      40.03700000      35.94600000       8.41000000
 H      40.98100000      35.34100000       7.37700000
 O      37.30700000      23.79500000      12.49600000
 H      37.30600000      24.11400000      13.45100000
 H      37.57400000      24.62900000      12.06400000
 O      36.60500000      25.93000000      20.14100000
 H      37.55400000      25.79000000      20.29300000
 H      36.24300000      25.04000000      19.98100000
 O      37.42500000      24.38100000      15.19100000
 H      38.36400000      24.74300000      15.18600000
 H      37.52500000      23.73700000      15.91700000
 O      40.05400000      19.34000000      30.43200000
 H      40.79300000      19.31600000      31.07100000
 H      40.56300000      18.93700000      29.67900000
 O      34.93300000      16.48800000       8.06700000
 H      35.57400000      16.27600000       7.33900000
 H      35.38600000      15.89800000       8.73100000
 O      37.84000000      22.72700000      26.68900000
 H      38.09600000      22.45500000      27.57900000
 H      36.87200000      22.81200000      26.87100000
 O      36.19800000      13.81700000      13.37900000
 H      36.96400000      14.09300000      13.93800000
 H      36.68000000      13.23300000      12.72200000
 O      35.01400000      24.08100000       8.05300000
 H      35.82500000      23.91500000       8.59700000
 H      35.21500000      24.92300000       7.61600000
 O      40.25300000      26.75000000      36.09100000
 H      39.76700000      26.70100000      36.95600000
 H      40.01100000      25.92000000      35.63500000
 O      35.90700000      23.02800000      19.18500000
 H      35.76800000      22.35400000      19.82000000
 H      35.10100000      22.93200000      18.61900000
 O      40.33600000      35.33800000      13.29800000
 H      39.68400000      35.08400000      13.94800000
 H      40.43800000      34.54900000      12.74100000
 O      39.58400000      23.60900000      22.19100000
 H      40.32100000      23.67100000      22.88200000
 H      39.81600000      22.73600000      21.74600000
 O      36.71500000      22.23600000      23.82200000
 H      37.02200000      21.98100000      24.73900000
 H      36.80900000      23.17600000      23.89000000
 O      43.68100000      29.75300000      12.81800000
 H      42.70800000      29.62000000      12.97100000
 H      43.83600000      28.94400000      12.22600000
 O      47.16200000      24.05100000      28.27100000
 H      47.65600000      23.91000000      27.48900000
 H      46.21000000      24.07300000      27.92600000
 O      47.79700000       8.54500000      35.29600000
 H      47.52100000       9.35200000      35.70000000
 H      46.94000000       8.09000000      35.31300000
 O      45.53300000      22.59100000      19.44600000
 H      45.87300000      22.48600000      20.40600000
 H      46.37800000      22.79100000      18.98100000
 O      43.30100000      36.88600000      36.76800000
 H      43.65000000      37.72800000      37.10500000
 H      44.19500000      36.39400000      36.64400000
 O      43.85000000      29.86000000      37.04600000
 H      43.99300000      28.90300000      37.02700000
 H      43.27000000      29.93300000      37.85100000
 O      47.75700000      27.95200000      13.99700000
 H      46.91900000      28.28900000      14.35200000
 H      47.32400000      27.11000000      13.55700000
 O      44.70800000       4.25800000      26.07100000
 H      45.50300000       4.76900000      26.23600000
 H      44.34700000       4.07000000      26.93300000
 O      44.92300000      33.38200000      13.84800000
 H      44.08400000      32.92300000      14.21400000
 H      45.45700000      32.60200000      13.62000000
 O      45.97500000      34.82600000      24.01500000
 H      46.17100000      34.32600000      24.81300000
 H      45.00500000      35.06400000      24.24400000
 O      46.21600000      20.09100000      36.89200000
 H      46.17500000      20.24900000      35.97000000
 H      46.32800000      20.92400000      37.34100000
 O      47.97800000      19.41000000      38.95700000
 H      47.35900000      19.74700000      38.28700000
 H      48.74900000      19.21600000      38.35500000
 O      48.26700000      24.76200000      14.63500000
 H      47.92900000      25.15700000      15.41500000
 H      48.31200000      23.83100000      14.84700000
 O      42.84200000       2.95700000      21.02100000
 H      42.25800000       3.44500000      20.43400000
 H      43.20800000       2.28700000      20.40400000
 O      43.83100000       8.21600000      12.63100000
 H      44.28900000       9.05100000      12.40600000
 H      44.64700000       7.67900000      12.90200000
 O      48.39800000      15.57800000      18.92800000
 H      48.97700000      15.15000000      19.57900000
 H      48.67000000      15.21300000      18.08200000
 O      42.62200000      10.63400000      22.45000000
 H      43.18900000      10.33300000      21.70800000
 H      42.78300000       9.91700000      23.09500000
 O      47.10600000      19.42400000      27.59900000
 H      47.55500000      19.95000000      26.86600000
 H      47.26600000      18.55000000      27.29000000
 O      48.22500000      38.18400000      21.85500000
 H      47.89900000      39.05600000      22.13900000
 H      47.87300000      38.20300000      20.91900000
 O      46.88900000      25.37300000      17.22000000
 H      46.39100000      24.90400000      17.93200000
 H      46.33900000      26.22100000      17.10200000
 O      48.02100000      19.01200000      35.09800000
 H      47.41100000      18.26900000      35.16400000
 H      48.40100000      18.84100000      34.17900000
 O      45.31600000      29.32400000      15.01000000
 H      45.14500000      30.14800000      15.51100000
 H      44.74400000      29.52200000      14.20600000
 O      46.84000000      21.21800000      29.61200000
 H      46.93900000      20.37800000      29.10400000
 H      46.01100000      21.50400000      29.23700000
 O      43.22700000      27.01300000      10.69300000
 H      42.20500000      26.92900000      10.73900000
 H      43.52200000      26.44200000      11.42200000
 O      47.83500000      32.58500000      36.99000000
 H      47.97200000      32.62900000      35.99300000
 H      46.85600000      32.74100000      37.01600000
 O      44.50400000       3.77100000      38.75100000
 H      44.01400000       3.12900000      38.09500000
 H      44.10200000       4.63300000      38.40900000
 O      48.17400000      32.24600000      24.48300000
 H      48.99900000      32.72400000      24.26400000
 H      47.72000000      32.95100000      25.02600000
 O      43.61000000      39.76400000      26.86100000
 H      44.24500000      40.23800000      26.21800000
 H      44.31000000      39.23800000      27.37000000
 O      43.22000000      13.28800000      12.38500000
 H      43.37800000      13.48700000      11.43200000
 H      42.53100000      14.05400000      12.52800000
 O      45.43200000       3.27100000      31.47900000
 H      44.85700000       4.11600000      31.49100000
 H      45.54700000       3.15200000      32.42400000
 O      46.51700000      23.32200000       9.68800000
 H      47.45900000      23.25400000      10.13800000
 H      46.81700000      23.96800000       8.97400000
 O      48.20200000      21.56200000      32.08300000
 H      47.36200000      21.98900000      32.50300000
 H      47.86500000      21.60200000      31.10900000
 O      48.65000000      22.14200000      19.01900000
 H      48.93900000      21.43000000      18.39900000
 H      48.93600000      22.95500000      18.65400000
 O      48.42400000       4.56200000      24.60700000
 H      48.32400000       5.13600000      23.78800000
 H      48.91300000       3.82800000      24.14400000
 O      44.90400000      19.41700000      40.83700000
 H      44.84800000      18.84400000      40.05800000
 H      45.16700000      18.71000000      41.42500000
 O      45.56400000       9.51500000      23.82200000
 H      44.89100000       9.51100000      24.46500000
 H      45.77600000       8.52300000      23.75300000
 O      47.97800000      22.05900000      15.36400000
 H      47.91100000      21.45000000      16.15400000
 H      48.71900000      21.66800000      14.83700000
 O      44.25900000      19.29100000      31.91200000
 H      44.75200000      19.80400000      31.23000000
 H      44.79300000      18.46700000      31.84500000
 O      46.75600000      28.98600000      17.51800000
 H      45.95100000      28.61700000      17.16100000
 H      46.43500000      29.53900000      18.25000000
 O      43.52200000      17.22200000       9.05000000
 H      43.40100000      17.66400000       9.97800000
 H      42.79500000      16.63400000       9.00600000
 O      45.99800000       3.72200000       8.02300000
 H      45.65100000       3.63700000       8.92000000
 H      46.95300000       3.48300000       8.16000000
 O      46.54500000      19.31800000      23.05500000
 H      47.08700000      19.80600000      22.37700000
 H      47.14200000      18.50200000      23.10500000
 O      44.75700000      24.02300000      31.64100000
 H      44.37300000      24.72900000      32.14100000
 H      45.07900000      23.49900000      32.42400000
 O      45.92300000      40.13000000      25.46900000
 H      46.52100000      40.38700000      24.73400000
 H      46.23500000      39.19800000      25.60700000
 O      46.99300000       2.38800000      39.08000000
 H      46.06900000       2.78400000      39.05400000
 H      47.13700000       2.19200000      39.99100000
 O      44.17500000      14.66200000      39.76200000
 H      44.69300000      15.42000000      39.52000000
 H      43.94400000      14.94200000      40.72600000
 O      44.15100000      24.82000000       8.16100000
 H      44.41800000      24.35800000       9.00900000
 H      43.19900000      24.48700000       8.08100000
 O      45.74700000      22.77600000      22.64900000
 H      46.02400000      21.97300000      23.17300000
 H      45.25900000      23.31700000      23.33100000
 O      47.33000000      18.82000000      13.95000000
 H      47.86700000      19.63400000      14.23200000
 H      48.00400000      18.22700000      13.67700000
 O      43.37600000       9.54300000      36.13700000
 H      42.91800000       9.68900000      35.28400000
 H      42.68600000       9.41100000      36.76100000
 O      43.89700000      25.91200000      19.69800000
 H      44.71900000      25.94700000      20.27400000
 H      43.74400000      26.91000000      19.66700000
 O      48.55000000      37.56100000      39.21400000
 H      49.53700000      37.54900000      39.07600000
 H      48.36700000      38.40800000      38.77100000
 O      45.33100000      12.49800000      19.97500000
 H      44.37300000      12.62400000      19.91300000
 H      45.60300000      13.41100000      20.22600000
 O      44.35300000       1.43100000      19.38200000
 H      44.49300000       0.41300000      19.28300000
 H      44.05200000       1.61600000      18.43400000
 O      44.45900000      13.66100000      23.14000000
 H      45.20600000      13.00800000      23.03000000
 H      43.69100000      13.03500000      23.32800000
 O      46.09100000      15.08300000      20.45000000
 H      46.38300000      15.66300000      21.19700000
 H      46.88900000      15.06300000      19.85200000
 O      45.54200000      17.83200000      15.89200000
 H      45.99200000      16.92000000      15.75500000
 H      46.12300000      18.28300000      15.22200000
 O      43.25900000      15.45100000      27.99800000
 H      44.15600000      15.30300000      27.62500000
 H      42.71300000      15.27600000      27.20700000
 O      46.55200000      33.28800000      26.56200000
 H      47.41500000      33.62400000      27.00700000
 H      46.50000000      32.44300000      27.06600000
 O      48.52000000       7.03400000      12.41000000
 H      49.02900000       7.82600000      12.13000000
 H      49.09200000       6.53000000      13.00800000
 O      46.42100000       7.55500000      21.10200000
 H      46.10300000       6.62700000      20.97100000
 H      47.02300000       7.41500000      21.83600000
 O      44.40200000      14.04900000      16.50400000
 H      44.22800000      14.57500000      17.30800000
 H      45.17000000      14.57200000      16.11500000
 O      45.30500000       9.60400000       9.69600000
 H      44.81400000       9.40100000       8.87800000
 H      45.83500000       8.81100000       9.83200000
 O      42.72700000      30.60400000       6.95100000
 H      41.93700000      30.34900000       7.44700000
 H      42.54100000      30.22100000       6.05900000
 O      45.87400000      10.37300000      29.83900000
 H      46.08700000      11.36400000      29.91900000
 H      46.64800000      10.09400000      29.28800000
 O      48.29500000      35.58100000      17.04300000
 H      48.39200000      36.43700000      16.56800000
 H      48.28200000      34.97200000      16.24000000
 O      47.70300000      18.28900000      19.80600000
 H      48.04700000      17.47100000      19.47000000
 H      46.79700000      18.31000000      19.51000000
 O      49.05600000       2.65100000      26.57500000
 H      48.71600000       3.34400000      25.96000000
 H      48.99500000       1.90300000      25.91100000
 O      42.75800000      18.08600000      24.11300000
 H      42.04700000      18.09900000      24.74800000
 H      42.79300000      17.15700000      23.84600000
 O      48.72200000       5.44600000      19.79600000
 H      49.03800000       6.17500000      19.15000000
 H      47.85100000       5.26200000      19.38500000
 O      45.90400000      15.79400000       9.69000000
 H      45.28800000      16.48900000       9.22300000
 H      46.77000000      16.01000000       9.23400000
 O      45.82100000      19.09200000      11.61700000
 H      46.21900000      18.99600000      12.50900000
 H      45.05000000      18.57100000      11.58000000
 O      48.97400000      18.21100000      29.92300000
 H      48.28100000      18.58600000      29.35600000
 H      49.33900000      17.53100000      29.35600000
 O      43.58500000       8.26200000      27.44700000
 H      43.26600000       8.86300000      28.13900000
 H      42.75400000       7.69200000      27.38000000
 O      43.07300000      33.47400000       6.78400000
 H      43.61500000      33.43600000       7.58600000
 H      42.83800000      32.53000000       6.74200000
 O      48.67000000      37.01400000      28.81500000
 H      49.42900000      36.39900000      28.52300000
 H      48.89500000      37.79500000      28.27900000
 O      43.81800000      13.97000000       9.66200000
 H      43.67400000      13.86200000       8.71400000
 H      44.41300000      14.71900000       9.67500000
 O      44.17800000       7.38000000      33.40700000
 H      44.12500000       7.80400000      32.48300000
 H      45.12400000       7.03600000      33.29800000
 O      47.37300000      34.73700000      10.81600000
 H      46.73800000      34.01900000      10.67200000
 H      47.77300000      34.52800000      11.68400000
 O      45.75700000      20.29300000       8.97600000
 H      45.96900000      21.25600000       9.23400000
 H      45.62700000      19.93400000       9.92000000
 O      46.82200000       7.63800000      39.47600000
 H      46.34400000       7.58900000      40.34700000
 H      47.49400000       8.33100000      39.73300000
 O      44.27800000      25.73000000      39.53600000
 H      44.87200000      25.85100000      40.31200000
 H      43.49600000      25.43200000      40.08800000
 O      46.81200000      21.26300000      40.49900000
 H      47.37300000      20.60500000      40.06400000
 H      46.00500000      20.66400000      40.72900000
 O      49.14800000       3.59500000      40.69400000
 H      48.40900000       3.10300000      41.07500000
 H      48.72700000       3.90400000      39.81300000
 O      44.51000000      25.69800000      33.98500000
 H      45.04100000      25.34000000      34.75500000
 H      43.60800000      25.36300000      34.26200000
 O      43.81300000      11.35100000      33.06500000
 H      43.15400000      10.71900000      32.72300000
 H      44.63400000      11.06900000      32.61600000
 O      47.83600000      16.44300000      27.30800000
 H      48.28800000      16.11900000      28.09400000
 H      48.29300000      16.02100000      26.57400000
 O      47.77600000      25.14900000      38.56600000
 H      47.89100000      25.80000000      37.86800000
 H      47.36500000      25.79600000      39.24600000
 O      48.14200000       5.37500000      38.23800000
 H      47.86500000       6.15400000      38.79200000
 H      47.33100000       5.41500000      37.61400000
 O      44.61000000      15.59800000      13.12900000
 H      44.47600000      14.68100000      12.75600000
 H      45.55200000      15.69800000      12.88200000
 O      43.17200000      21.50900000      18.26200000
 H      43.83600000      22.13500000      18.69400000
 H      43.81600000      20.85400000      17.90600000
 O      45.76500000      28.29900000      29.56400000
 H      45.88400000      27.49000000      30.13300000
 H      45.25300000      27.87600000      28.83400000
 O      43.42300000      22.46800000      14.87900000
 H      43.05100000      21.68500000      15.30500000
 H      43.45700000      22.16400000      13.96600000
 O      45.91100000      27.75800000      10.39000000
 H      44.99900000      27.29600000      10.29000000
 H      46.24900000      27.26700000      11.13900000
 O      46.51300000      39.86600000      35.26200000
 H      47.17400000      39.90000000      35.97400000
 H      46.88300000      39.18000000      34.71000000
 O      46.89600000      15.26900000      15.67400000
 H      47.65100000      14.97800000      16.16900000
 H      47.24100000      15.02200000      14.76900000
 O      46.77200000      25.63200000      24.57900000
 H      45.90200000      25.94100000      24.30300000
 H      47.37300000      26.14500000      23.96400000
 O      46.66000000      31.63200000      21.85700000
 H      45.71800000      31.73800000      22.14600000
 H      47.14500000      31.97100000      22.60700000
 O      49.31400000      27.58400000      28.16100000
 H      48.47500000      27.61200000      27.61200000
 H      49.71600000      28.43000000      27.88900000
 O      48.42100000      35.89000000       8.66800000
 H      48.11400000      35.38400000       9.43900000
 H      48.01800000      35.38100000       7.95000000
 O      46.06200000       6.47200000      13.18200000
 H      46.25000000       5.69900000      13.74600000
 H      46.95600000       6.61600000      12.84500000
 O      47.71500000      38.77500000      18.89400000
 H      47.78300000      39.75700000      18.76300000
 H      47.67000000      38.47700000      17.95000000
 O      47.18900000      35.45400000      38.34000000
 H      46.31500000      35.65700000      38.69400000
 H      47.73600000      36.16500000      38.77700000
 O      44.23700000      22.95400000      11.10900000
 H      44.93400000      23.09700000      10.46900000
 H      44.85700000      22.69200000      11.89600000
 O      44.27100000      14.26700000      30.63100000
 H      43.71600000      14.28500000      29.84100000
 H      43.70400000      14.69300000      31.28500000
 O      48.09900000       1.55600000      18.32200000
 H      47.64800000       2.15400000      17.69900000
 H      49.07500000       1.67600000      17.95800000
 O      44.17400000       5.14600000      16.42800000
 H      44.28500000       6.11000000      16.55000000
 H      43.37000000       4.98600000      16.91000000
 O      46.85300000      10.45100000      26.24200000
 H      46.65600000       9.59000000      26.69200000
 H      46.85200000      10.08600000      25.29400000
 O      46.23600000      40.25200000      14.18800000
 H      46.16100000      39.35400000      13.76000000
 H      45.21700000      40.26500000      14.42800000
 O      45.94600000      12.10100000      17.35600000
 H      45.46300000      12.90300000      16.98000000
 H      45.88700000      12.30200000      18.30400000
 O      42.87500000      22.09400000      32.02100000
 H      43.43100000      22.87900000      31.72400000
 H      41.97300000      22.59000000      31.95600000
 O      48.24300000      15.28400000      39.27600000
 H      49.12900000      15.62000000      39.44800000
 H      47.87700000      15.41200000      40.21100000
 O      47.19800000      24.90200000       7.67900000
 H      47.33300000      24.68400000       6.74100000
 H      46.79100000      25.81100000       7.55300000
 O      44.73000000      11.66300000      40.23400000
 H      44.26700000      12.46600000      39.91600000
 H      44.65800000      11.09800000      39.45100000
 O      44.59500000      39.98400000       7.68800000
 H      44.32700000      40.77100000       8.33800000
 H      44.55900000      40.54000000       6.87900000
 O      45.44500000       3.43100000      14.46600000
 H      44.92100000       3.98000000      15.07200000
 H      45.56100000       2.61900000      14.96600000
 O      43.97800000      15.61300000      18.68000000
 H      44.70800000      15.44600000      19.35400000
 H      43.94800000      16.60100000      18.73800000
 O      48.00000000       9.16300000      32.04300000
 H      47.20100000       8.64800000      32.09300000
 H      48.18000000       9.16800000      31.06100000
 O      45.56400000      38.27300000      12.48000000
 H      44.86200000      37.80200000      11.95100000
 H      46.40000000      37.79800000      12.21600000
 O      43.52400000      17.65500000      11.77400000
 H      43.48900000      16.98400000      12.45500000
 H      42.69200000      18.11900000      11.98300000
 O      42.79900000      13.62900000      34.33600000
 H      43.30700000      13.01800000      33.74200000
 H      42.80000000      14.44900000      33.75500000
 O      48.16200000      11.28100000      19.50400000
 H      47.65100000      10.83400000      18.87300000
 H      47.57500000      11.41000000      20.28800000
 O      49.56700000      22.43500000      28.39100000
 H      49.33900000      21.69700000      27.73700000
 H      48.61200000      22.57900000      28.74000000
 O      47.45100000      35.21900000      19.65600000
 H      47.68500000      35.61700000      18.77200000
 H      48.33000000      34.97000000      19.90400000
 O      47.13100000      34.77600000      29.70900000
 H      47.39000000      35.73400000      29.55200000
 H      47.92500000      34.38300000      29.25300000
 O      44.33500000      35.62300000      15.35100000
 H      44.89100000      34.92500000      14.95500000
 H      43.77100000      35.82000000      14.56600000
 O      43.12900000       1.08600000      16.91600000
 H      42.46500000       1.71500000      16.62400000
 H      43.06200000       0.42900000      16.25200000
 O      44.37100000      20.79300000       6.50800000
 H      43.65600000      20.23400000       6.74400000
 H      44.78500000      21.02500000       7.34700000
 O      44.98200000      39.52800000      40.69200000
 H      44.66200000      38.58800000      40.72400000
 H      45.79700000      39.48400000      41.17400000
 O      44.25800000      32.65300000      19.32400000
 H      43.52400000      33.09900000      18.77200000
 H      44.28100000      33.36700000      19.99900000
 O      42.99200000      24.59400000      17.51300000
 H      42.79100000      23.71500000      17.82600000
 H      43.29000000      25.07900000      18.28500000
 O      45.17900000      19.85600000      34.40300000
 H      44.64800000      19.62700000      33.60500000
 H      45.77700000      19.06900000      34.47100000
 O      47.19700000      37.48600000      34.11500000
 H      46.84900000      36.57000000      34.44100000
 H      47.88700000      37.15000000      33.56700000
 O      48.88100000      34.13200000      12.85100000
 H      48.65900000      33.96700000      13.83900000
 H      49.82700000      33.94500000      12.85800000
 O      46.86500000      10.37700000      15.64400000
 H      47.19400000      11.12300000      15.10600000
 H      46.60600000      10.85600000      16.44200000
 O      43.72200000       7.89900000       8.03600000
 H      43.39100000       7.38100000       8.80400000
 H      44.26000000       7.18400000       7.65500000
 O      45.52200000      38.07200000      27.96500000
 H      45.44900000      37.97000000      28.94900000
 H      46.31400000      37.54800000      27.79500000
 O      46.97700000      15.19700000       6.26500000
 H      47.39300000      15.39400000       7.12000000
 H      46.18200000      15.75800000       6.27000000
 O      45.45500000      40.39600000      10.77800000
 H      45.51300000      39.93400000      11.63300000
 H      46.20700000      39.93100000      10.28800000
 O      47.68500000       5.54100000       6.55200000
 H      46.73600000       5.65400000       6.60100000
 H      47.85600000       4.93000000       7.25400000
 O      46.30200000      31.32300000      33.12700000
 H      45.59700000      31.26400000      33.75700000
 H      46.81800000      32.13100000      33.32600000
 O      48.76200000      31.24400000      20.23100000
 H      48.03400000      31.60200000      20.76300000
 H      49.41900000      31.96500000      20.33900000
 O      48.25900000       8.94800000      29.42300000
 H      47.86000000       8.43300000      28.69400000
 H      49.17100000       8.53700000      29.35700000
 O      48.15500000      30.85200000      31.14700000
 H      47.39000000      31.03100000      31.78900000
 H      47.89700000      29.96600000      30.89300000
 O      43.01900000      39.50100000      31.53600000
 H      43.85200000      39.46200000      32.01500000
 H      43.29200000      39.24800000      30.64300000
 O      47.91400000      15.47900000      30.00300000
 H      47.63700000      14.57400000      30.32900000
 H      47.30700000      16.03600000      30.44700000
 O      42.65100000       4.34300000      11.58900000
 H      42.09000000       3.60900000      11.91500000
 H      43.42700000       4.21200000      12.06800000
 O      45.56000000       6.49300000      24.01500000
 H      45.55100000       5.81700000      23.27300000
 H      45.09000000       6.00000000      24.68800000
 O      44.70500000      19.73300000      25.07700000
 H      43.92500000      19.30900000      24.72100000
 H      45.41400000      19.43400000      24.44000000
 O      45.57900000      30.23600000      19.55600000
 H      45.04600000      31.06800000      19.46100000
 H      46.32700000      30.58700000      20.04400000
 O      48.32600000      29.19700000      24.49600000
 H      48.23400000      29.10900000      25.47600000
 H      48.37800000      30.16600000      24.42800000
 O      47.29100000       1.78200000      30.34300000
 H      46.92400000       1.64600000      29.42600000
 H      46.61200000       2.30400000      30.76600000
 O      44.56600000      26.82900000      27.80100000
 H      43.72500000      27.15800000      27.54300000
 H      44.42000000      25.85200000      27.74800000
 O      48.56700000       6.21500000      22.21400000
 H      49.55400000       6.38100000      22.38500000
 H      48.63300000       5.75000000      21.34200000
 O      43.40500000       1.79000000       9.53600000
 H      43.60400000       1.22600000      10.33900000
 H      43.47600000       2.65400000       9.87800000
 O      48.76900000      37.08100000      14.35100000
 H      48.46300000      37.12400000      13.44000000
 H      49.65100000      36.81100000      14.24000000
 O      42.94300000      38.26500000      24.63900000
 H      43.50100000      38.83000000      24.02700000
 H      43.04500000      38.67100000      25.50600000
 O      45.61700000      15.20700000      26.89200000
 H      46.15400000      14.38400000      26.88900000
 H      46.43600000      15.84700000      26.96900000
 O      45.77000000       2.14000000      34.31100000
 H      46.04300000       1.22500000      34.61900000
 H      46.54700000       2.66000000      34.47700000
 O      47.93600000      17.14500000       8.37200000
 H      48.72100000      16.67000000       8.17900000
 H      48.12600000      17.98300000       7.93200000
 O      48.22400000      15.38800000      13.02400000
 H      48.40400000      16.36600000      13.02100000
 H      49.14500000      15.06800000      13.01000000
 O      43.25100000       6.64500000      40.48700000
 H      42.87500000       6.82400000      39.61600000
 H      42.82400000       7.29700000      41.06300000
 O      48.45900000      38.99400000      16.14400000
 H      48.60000000      38.22700000      15.52100000
 H      47.72100000      39.44000000      15.62000000
 O      42.97200000      15.67900000      32.65700000
 H      43.44000000      16.50700000      32.58700000
 H      42.03600000      16.00000000      32.58100000
 O      42.64600000      22.80100000      28.43700000
 H      43.27200000      22.03800000      28.27100000
 H      41.79200000      22.29200000      28.35200000
 O      46.09800000       5.65800000      36.07000000
 H      45.63600000       5.29100000      35.31100000
 H      45.44500000       6.06800000      36.62100000
 O      45.13000000      14.87800000      36.30500000
 H      44.20000000      14.90400000      36.45900000
 H      45.28200000      13.92300000      36.16800000
 O      48.07700000      12.72700000      24.64900000
 H      47.44000000      12.59100000      25.42200000
 H      47.38700000      12.51000000      23.96900000
 O      48.43100000      35.54800000      23.13400000
 H      47.52000000      35.27200000      23.33900000
 H      48.22000000      36.29000000      22.52700000
 O      44.43800000      31.17700000      16.62200000
 H      43.56500000      31.26400000      17.02500000
 H      44.91100000      31.94000000      16.95100000
 O      45.51600000      12.21500000      35.51100000
 H      45.25300000      11.87300000      34.65400000
 H      45.88400000      11.43400000      35.98700000
 O      47.74900000      38.45000000       8.93100000
 H      46.79600000      38.26000000       8.70000000
 H      48.14700000      37.57300000       8.80400000
 O      43.40100000      40.02500000      14.24800000
 H      42.90700000      39.17800000      14.20100000
 H      42.96500000      40.53400000      13.52000000
 O      46.92400000       1.23500000      22.48800000
 H      46.63700000       1.78200000      21.73200000
 H      47.73900000       1.69100000      22.70900000
 O      48.61100000      23.65900000      25.64200000
 H      48.53100000      22.69000000      25.48000000
 H      47.95000000      23.97500000      24.96800000
 O      45.84600000       3.26700000      10.90400000
 H      46.40300000       3.36500000      11.65700000
 H      45.78200000       2.28700000      10.86100000
 O      46.20000000      28.74800000      35.74000000
 H      45.86200000      28.05100000      36.32000000
 H      45.71500000      29.51800000      36.00400000
 O      47.24100000      19.71400000       6.71200000
 H      48.07000000      20.19000000       6.84500000
 H      46.77900000      20.04000000       7.56700000
 O      44.84900000      35.02400000      20.61800000
 H      45.31300000      34.89800000      21.46800000
 H      45.64000000      35.05900000      20.01300000
 O      48.03400000      20.00900000      17.23000000
 H      48.09900000      19.73300000      18.14000000
 H      48.67100000      19.32800000      16.89000000
 O      45.72900000      39.48600000      32.33700000
 H      46.29200000      40.10600000      32.88100000
 H      46.38700000      38.74300000      32.21200000
 O      44.21600000      18.78300000      38.19300000
 H      44.98000000      19.12700000      37.66500000
 H      44.31800000      17.80100000      38.07300000
 O      48.15200000      33.38100000      33.22900000
 H      48.80600000      32.68900000      32.90300000
 H      48.83900000      33.85800000      33.80600000
 O      45.85600000       7.55500000      15.63100000
 H      45.57800000       7.51300000      14.67400000
 H      46.09300000       8.55800000      15.69100000
 O      43.01100000      18.19200000      28.27300000
 H      42.44000000      18.39300000      27.50800000
 H      42.98300000      17.19800000      28.23800000
 O      47.26800000       5.32000000      26.87300000
 H      47.62300000       4.99500000      26.02500000
 H      47.88000000       5.10600000      27.55200000
 O      44.74400000      33.83100000      11.30800000
 H      44.25000000      34.65300000      11.22600000
 H      44.89100000      33.83700000      12.29000000
 O      43.81700000       6.54100000      37.22200000
 H      43.80900000       7.45900000      36.95500000
 H      42.93900000       6.25100000      37.01500000
 O      46.65700000      13.19700000      30.64100000
 H      45.83900000      13.72500000      30.51600000
 H      46.36300000      12.65900000      31.48700000
 O      45.02500000      37.52000000      30.70900000
 H      44.67800000      36.99200000      31.48100000
 H      45.26700000      38.34200000      31.16500000
 O      47.22800000      10.59200000      36.77100000
 H      46.57200000      10.45800000      37.45400000
 H      48.01200000      10.82500000      37.27500000
 O      48.44200000      22.53200000      11.70300000
 H      48.80800000      21.97100000      10.95500000
 H      49.17400000      22.66400000      12.27200000
 O      47.93500000      32.12200000      17.19600000
 H      48.27300000      31.71300000      18.02200000
 H      48.20600000      31.39400000      16.61200000
 O      46.51400000      33.14900000      40.17300000
 H      47.03600000      33.21200000      41.00500000
 H      46.97700000      33.83500000      39.64300000
 O      46.04300000      30.44700000      10.60800000
 H      45.95600000      30.61000000       9.65900000
 H      46.03900000      29.44600000      10.57400000
 O      49.00500000       2.35100000      35.26500000
 H      48.60500000       3.21000000      34.93000000
 H      48.87400000       1.78500000      34.44900000
 O      46.95400000      37.76800000      25.19000000
 H      47.21500000      37.81800000      24.22300000
 H      47.33200000      36.86800000      25.45500000
 O      44.22200000       9.61800000      20.65600000
 H      45.02100000       9.36300000      21.18800000
 H      44.73200000       9.82400000      19.81300000
 O      43.75300000      24.26100000      24.27100000
 H      42.91800000      24.38800000      24.78400000
 H      43.93900000      25.17000000      24.02800000
 O      44.15500000      23.04000000      38.74800000
 H      45.04000000      22.90800000      38.43600000
 H      44.25700000      24.02600000      39.00700000
 O      42.83600000      34.02800000      17.77100000
 H      43.52400000      34.63600000      17.42200000
 H      42.07600000      34.67200000      17.88700000
 O      48.09300000      40.11400000      37.50100000
 H      48.94900000      40.45900000      37.49700000
 H      47.61200000      40.95900000      37.80500000
 O      45.06600000      24.64600000      15.07100000
 H      45.98300000      24.38900000      14.94600000
 H      44.65100000      23.93500000      15.53600000
 O      46.91200000      13.35100000      10.72500000
 H      46.75900000      14.30300000      10.68700000
 H      46.61700000      13.01400000       9.89300000
 O      47.04700000      25.94200000      12.37600000
 H      46.38400000      25.20800000      12.32100000
 H      47.74300000      25.41500000      12.81500000
 O      47.93100000       8.76100000       7.82700000
 H      48.29500000       9.54100000       7.35700000
 H      47.07000000       8.65400000       7.39900000
 O      44.37800000      26.96200000      23.85100000
 H      44.95000000      27.60200000      23.38800000
 H      43.75500000      27.52700000      24.34700000
 O      47.98100000      38.25700000      31.30100000
 H      48.42600000      37.62500000      31.89800000
 H      48.18400000      37.77000000      30.45000000
 O      44.37500000       4.80400000      34.23400000
 H      43.59300000       4.44800000      33.79000000
 H      44.21500000       5.74200000      34.18400000
 O      42.67500000       6.79000000      10.42300000
 H      42.61800000       5.97000000      10.94500000
 H      42.91300000       7.43200000      11.16100000
 O      43.52700000       2.73400000      36.34600000
 H      43.92300000       3.57500000      36.12700000
 H      44.06100000       2.11200000      35.81400000
 O      46.63000000      25.16600000      20.81900000
 H      46.22700000      24.48800000      21.39900000
 H      47.47000000      25.38300000      21.24500000
 O      44.12200000      19.23900000      21.68100000
 H      45.02500000      19.20900000      22.18200000
 H      43.54900000      18.81200000      22.37700000
 O      44.06500000      13.71500000       7.10300000
 H      44.27500000      12.98000000       6.46700000
 H      43.50900000      14.28300000       6.58400000
 O      44.04900000      36.67400000      11.00000000
 H      44.53300000      37.00800000      10.21700000
 H      43.12900000      36.94600000      10.72900000
 O      47.78300000      16.92800000      23.28100000
 H      46.92100000      16.65800000      23.79700000
 H      48.34700000      16.36100000      23.86000000
 O      48.60400000      18.92400000      32.48400000
 H      48.93400000      18.63800000      31.63300000
 H      48.40400000      19.87800000      32.30200000
 O      48.18700000      28.61900000      37.92200000
 H      48.94400000      29.19500000      37.53100000
 H      47.55700000      28.66000000      37.21800000
 O      46.20000000      16.99100000      34.76900000
 H      45.77000000      16.63600000      35.55400000
 H      46.69300000      16.20500000      34.47900000
 O      45.40200000      20.26300000      17.25000000
 H      45.36900000      19.31100000      16.97200000
 H      46.32800000      20.45000000      17.11800000
 O      46.89900000      33.88500000       7.17000000
 H      46.05900000      33.67500000       7.62100000
 H      47.37800000      33.06300000       7.14600000
 O      46.60300000      11.31000000      32.71700000
 H      47.33600000      11.72600000      33.17800000
 H      47.06000000      10.46600000      32.40200000
 O      44.15500000      31.59200000      40.17100000
 H      44.94900000      32.23100000      40.10300000
 H      43.49600000      32.25100000      40.56200000
 O      46.55700000      31.56900000      13.10800000
 H      47.49500000      31.40500000      12.95300000
 H      46.11900000      31.26200000      12.28300000
 O      44.30000000      39.54000000      22.25100000
 H      44.62200000      39.34900000      21.36700000
 H      44.49800000      40.50200000      22.37500000
 O      49.00600000       8.58000000      15.40300000
 H      48.18900000       9.07800000      15.43000000
 H      49.65800000       9.21800000      15.23600000
 O      48.77100000      30.57200000      27.10700000
 H      47.89300000      30.61500000      27.59300000
 H      49.20100000      31.38300000      27.42000000
 O      46.45500000       6.54600000      32.34700000
 H      47.44800000       6.40100000      32.22800000
 H      46.15300000       6.05400000      31.55500000
 O      44.88800000      32.82000000      29.84500000
 H      45.27600000      32.72000000      30.75800000
 H      45.40300000      33.57000000      29.53400000
 O      45.08800000      37.67900000       8.78400000
 H      44.23100000      37.36000000       8.46800000
 H      45.16000000      38.61000000       8.49800000
 O      46.88700000      27.32500000      39.96100000
 H      46.07600000      27.76500000      40.25200000
 H      47.28900000      27.97300000      39.37100000
 O      43.21300000      12.28700000      14.82500000
 H      43.37400000      12.69900000      13.92000000
 H      43.56100000      13.07600000      15.34900000
 O      47.09700000      12.25700000      13.16900000
 H      47.04000000      12.73900000      12.31500000
 H      46.20300000      11.77400000      13.13000000
 O      46.31700000       7.84800000      27.44300000
 H      46.58800000       6.96200000      27.17200000
 H      45.33100000       7.76900000      27.42000000
 O      46.42400000       9.20800000      18.75900000
 H      46.29600000       8.57800000      17.99900000
 H      46.58600000       8.60200000      19.51400000
 O      48.61900000      20.48200000      21.20000000
 H      48.78300000      19.63800000      20.72100000
 H      48.91800000      21.17300000      20.62400000
 O      42.65400000      37.68300000      40.65900000
 H      42.17000000      37.96600000      41.45200000
 H      42.30100000      38.29900000      40.01100000
 O      44.26100000      27.27800000      37.18100000
 H      44.18200000      26.81800000      38.03600000
 H      43.37700000      27.05000000      36.75200000
 O      46.38200000       3.76000000      17.44100000
 H      46.72300000       4.64600000      17.16100000
 H      45.45800000       3.96400000      17.53900000
 O      48.45400000      31.79300000       9.32700000
 H      48.53800000      32.06800000      10.28100000
 H      47.60300000      31.40300000       9.29900000
 O      47.42600000       2.38400000      12.95500000
 H      47.16500000       1.44300000      13.13000000
 H      46.82500000       2.83700000      13.61600000
 O      44.67300000      27.19600000      16.58000000
 H      44.81000000      27.83700000      15.84300000
 H      44.34500000      26.41100000      16.09900000
 O      44.09200000       8.91400000      31.01500000
 H      43.38200000       8.82800000      30.32400000
 H      44.76400000       9.40200000      30.46700000
 O      43.13600000      30.19700000      31.82800000
 H      44.10900000      30.08000000      31.66300000
 H      43.14600000      30.91400000      32.48500000
 O      44.40900000       3.50600000      28.53600000
 H      45.11000000       2.93900000      28.16300000
 H      44.76900000       3.66900000      29.42500000
 O      48.07700000       4.64000000      34.41700000
 H      48.16400000       5.13900000      33.56200000
 H      47.58900000       5.28300000      34.98300000
 O      46.13500000      34.25500000      32.08800000
 H      47.06700000      34.06400000      32.52500000
 H      46.51500000      34.59100000      31.22300000
 O      44.82600000       5.77000000       6.89700000
 H      44.61800000       5.30800000       6.07900000
 H      45.14600000       4.91100000       7.37100000
 O      44.49300000      18.34700000      19.12100000
 H      44.74800000      19.21700000      18.74100000
 H      44.36500000      18.55300000      20.07400000
 O      46.55900000      25.79500000      30.34800000
 H      46.55600000      25.45600000      29.42000000
 H      46.12000000      25.06000000      30.82600000
 O      45.86300000      17.01300000      31.79300000
 H      45.73300000      16.07000000      31.67400000
 H      46.33700000      17.04700000      32.65100000
 O      48.62800000      29.83900000      15.70600000
 H      48.74200000      29.04500000      15.19500000
 H      47.86900000      29.54900000      16.32000000
 O      44.88200000      32.43900000      36.27600000
 H      44.24000000      32.67500000      35.59600000
 H      44.71800000      31.55400000      36.50000000
 O      45.60700000      15.92500000      24.23700000
 H      45.30500000      15.12400000      23.69600000
 H      45.06500000      15.85200000      25.00600000
 O      47.64700000       5.99600000      17.26200000
 H      46.98500000       6.47900000      16.69300000
 H      48.54500000       6.33400000      16.91500000
 O      44.85300000      38.93400000      37.37800000
 H      45.33900000      39.25200000      36.64000000
 H      45.33100000      39.38000000      38.15900000
 O      46.07500000      22.41700000      33.40100000
 H      45.38100000      21.70300000      33.60400000
 H      46.03000000      22.89800000      34.22900000
 O      47.00100000       5.96300000       9.98000000
 H      46.69600000       5.21700000      10.44900000
 H      47.65000000       6.36400000      10.55900000
 O      46.81800000      22.81300000      38.10600000
 H      47.33500000      23.64400000      38.17400000
 H      47.00000000      22.36100000      38.95100000
 O      46.16300000      11.85500000      22.34500000
 H      45.67000000      11.73800000      21.48800000
 H      46.10100000      10.91500000      22.72300000
 O      42.95900000       9.37300000      25.05400000
 H      42.07400000       8.93300000      24.87000000
 H      43.12000000       8.96800000      25.95300000
 O      44.34100000       5.61200000      30.47900000
 H      43.58800000       5.34500000      29.89000000
 H      44.15400000       6.55200000      30.58500000
 O      45.23100000      28.24100000      33.31100000
 H      45.22500000      27.31600000      33.60200000
 H      45.69700000      28.63400000      34.07900000
 O      45.84500000      30.76000000       8.07400000
 H      44.92200000      30.67600000       7.76100000
 H      46.28900000      30.05500000       7.60600000
 O      47.80000000      27.33100000      32.32400000
 H      47.65700000      26.74700000      31.48600000
 H      47.01700000      27.83400000      32.29700000
 O      48.03800000      15.85300000      36.65300000
 H      47.22000000      15.33700000      36.64700000
 H      48.27300000      15.77500000      37.60100000
 O      44.66100000      24.04400000      27.14300000
 H      44.38900000      23.69100000      26.24800000
 H      43.90000000      23.74000000      27.68500000
 O      46.14600000      28.79500000      22.83800000
 H      46.94000000      29.06900000      23.36000000
 H      45.93900000      29.64200000      22.35700000
 O      47.31200000      27.55000000      26.50600000
 H      47.09300000      26.86900000      25.77400000
 H      46.37400000      27.61600000      26.93600000
 O      46.07900000      22.22600000      13.24600000
 H      46.85300000      22.17600000      12.67200000
 H      46.51000000      22.08200000      14.13500000
 O      42.93100000      37.04800000      19.79600000
 H      43.58300000      36.30300000      19.73400000
 H      42.20500000      36.77700000      19.16900000
 O      48.53000000       2.94800000       8.63000000
 H      49.38200000       3.50300000       8.53100000
 H      48.94100000       2.20700000       9.14000000
 O      49.32800000      11.49900000      10.89500000
 H      48.57200000      11.70900000      11.44000000
 H      49.13500000      12.01200000      10.10500000
 O      47.78600000      33.80100000      15.13700000
 H      47.87800000      33.11900000      15.80700000
 H      46.83600000      33.55500000      14.83400000
 O      44.20800000       2.07700000      24.36100000
 H      45.10400000       1.64000000      24.46100000
 H      44.36700000       2.84400000      25.00300000
 O      45.49100000      35.42400000      36.08800000
 H      46.20800000      35.49100000      36.77900000
 H      45.38300000      34.48600000      35.98200000
 O      44.76100000      33.18200000       8.80800000
 H      44.92500000      33.39300000       9.77100000
 H      44.83000000      32.23900000       8.81100000
 O      44.74500000      36.12900000      39.69700000
 H      45.12200000      36.13400000      40.63800000
 H      43.93500000      36.64700000      39.88500000
 O      49.17000000      23.70500000      40.20600000
 H      48.56000000      24.19000000      39.59700000
 H      49.96900000      24.25800000      40.02500000
 O      43.74600000      20.65800000      27.35800000
 H      43.74200000      19.69000000      27.72800000
 H      44.13400000      20.45400000      26.45300000
 O      42.80200000      31.88200000      34.06100000
 H      42.36800000      31.53800000      34.89100000
 H      42.17400000      32.57400000      33.79800000
 O      44.22200000      36.12300000      32.89800000
 H      44.55000000      36.24800000      33.78200000
 H      44.78400000      35.30900000      32.61600000
 O      46.40700000       2.68900000      20.24900000
 H      46.99700000       2.37600000      19.52300000
 H      45.60600000       2.15900000      19.99500000
 O      48.68700000      26.64800000      22.83800000
 H      49.05700000      27.02800000      23.67700000
 H      48.73200000      27.41700000      22.23300000
 O      49.11600000      10.16400000      40.00100000
 H      48.42300000      10.75200000      40.39000000
 H      49.73400000      10.03100000      40.75500000
 O      45.06300000      38.87400000      19.91000000
 H      46.01800000      38.74400000      19.72600000
 H      44.71200000      38.24900000      19.26900000
 O      48.12000000      37.24900000      11.77100000
 H      48.79800000      37.60900000      11.09400000
 H      47.93700000      36.32300000      11.41400000
 O      49.13500000      27.94500000      17.88700000
 H      49.63800000      28.17000000      17.09600000
 H      48.21700000      28.11500000      17.69600000
 O      43.58200000      10.53900000      16.89800000
 H      43.23900000      11.04500000      16.10000000
 H      44.40100000      11.06800000      17.05700000
 O      45.44300000       4.50900000      21.90500000
 H      45.83800000       3.75200000      21.33600000
 H      44.68100000       3.99700000      22.19200000
 O      46.94800000      12.82300000      27.18500000
 H      47.73200000      12.81100000      27.71700000
 H      46.84200000      11.86700000      26.89700000
 O      43.33000000      28.50200000      20.27800000
 H      42.96400000      29.12500000      20.97600000
 H      44.22600000      28.80200000      20.12900000
 O      46.37800000      30.87200000      28.47300000
 H      46.12000000      30.02800000      28.91200000
 H      45.66800000      31.42800000      28.78600000
 O      44.83300000       9.95100000      38.22800000
 H      44.32700000       9.94700000      37.38000000
 H      45.11600000       9.07500000      38.32900000
 O      45.68700000      36.98400000      17.55700000
 H      46.34500000      36.26400000      17.35800000
 H      45.04000000      36.74000000      16.83300000
 O      43.93200000      32.04700000      22.99500000
 H      43.44900000      32.21100000      23.75900000
 H      43.31200000      31.54800000      22.43800000
 O      46.46100000       1.84400000      27.66200000
 H      46.42000000       1.03900000      27.18200000
 H      47.34500000       2.14200000      27.38300000
 O      44.93600000      10.57700000      12.07600000
 H      45.00700000      10.36300000      11.13800000
 H      44.36800000      11.33600000      12.11100000
 O      45.89600000      16.48400000      38.51500000
 H      45.59700000      16.19300000      37.62400000
 H      46.66100000      15.91600000      38.65200000
 O      47.38400000      14.55900000      33.90300000
 H      46.84100000      14.07200000      34.52000000
 H      47.93500000      13.90400000      33.50100000
 O      48.41700000      40.83700000      32.57100000
 H      48.47000000      39.91100000      32.23400000
 H      47.93000000      41.27200000      31.79900000
 O      43.40100000      35.57600000      24.61300000
 H      43.31600000      36.55500000      24.67100000
 H      42.97700000      35.44900000      23.74800000
 O      44.30500000      25.20400000      12.50200000
 H      44.45000000      24.92300000      13.43100000
 H      44.14300000      24.41700000      12.00800000
 O      46.47900000      23.84300000      35.65500000
 H      46.69200000      23.31100000      36.47100000
 H      47.31500000      24.39000000      35.57300000
