126
XYZ file of cluster: frame_2000_7046a.4c7e4.975af - created by MolEdiTo
 O      15.64300000      13.17100000      28.23200000
 H      15.66100000      13.29100000      29.23500000
 H      16.24900000      13.93700000      27.99600000
 O      16.06600000      21.04700000      23.01600000
 H      15.13900000      20.96700000      23.24800000
 H      16.16500000      20.37300000      22.29000000
 O      18.62600000      13.22200000      23.56400000
 H      18.15100000      12.45000000      23.78600000
 H      18.34600000      13.47900000      22.65900000
 O      20.91300000      13.13400000      25.74800000
 H      21.74200000      12.96100000      25.39700000
 H      20.75300000      13.88000000      25.10300000
 O      24.71400000      17.25400000      28.61400000
 H      25.18700000      17.73300000      29.32100000
 H      24.25300000      17.96100000      28.18300000
 O      19.22400000      16.84500000      29.05400000
 H      18.81100000      16.08900000      28.61200000
 H      20.14600000      16.66500000      29.34600000
 O      26.45100000      16.39600000      21.21100000
 H      26.85800000      17.03500000      21.81400000
 H      25.58300000      16.89200000      21.03900000
 O      21.38900000      16.03600000      24.62500000
 H      21.95000000      15.64900000      23.89200000
 H      21.17100000      16.98100000      24.38200000
 O      20.62800000       9.84000000      25.52500000
 H      19.75900000      10.14000000      25.21100000
 H      21.17900000      10.51400000      25.23400000
 O      22.78100000      11.95300000      20.82500000
 H      22.65800000      12.81700000      21.26300000
 H      22.19800000      11.38800000      21.40900000
 O      15.84200000      18.17300000      22.61500000
 H      15.61700000      17.81800000      21.68700000
 H      16.55700000      18.81800000      22.45200000
 O      24.56900000      19.88500000      29.14700000
 H      24.26000000      19.20200000      29.76200000
 H      24.09100000      19.68800000      28.33900000
 O      22.90500000      18.16000000      27.27500000
 H      21.97300000      18.04900000      27.39300000
 H      23.04200000      18.82100000      26.54800000
 O      21.76500000      17.26400000      22.72900000
 H      22.31500000      17.53000000      21.98500000
 H      21.08500000      17.90900000      22.80800000
 O      17.04300000      20.29900000      26.08200000
 H      16.39700000      20.00000000      25.45300000
 H      16.90800000      21.29000000      26.16100000
 O      18.58100000      15.66200000      26.01800000
 H      18.03800000      16.39400000      25.66700000
 H      19.51600000      15.79300000      25.70000000
 O      25.32600000      13.20500000      27.04400000
 H      24.85800000      14.05100000      26.90000000
 H      25.62100000      13.20400000      27.99200000
 O      25.89200000      12.34700000      29.50500000
 H      25.04800000      11.87900000      29.45600000
 H      26.10100000      12.11600000      30.43500000
 O      16.34100000      14.34600000      23.54200000
 H      15.96300000      13.55400000      23.06700000
 H      16.99800000      14.03800000      24.22000000
 O      24.02800000      20.66500000      26.02100000
 H      24.47500000      20.72400000      25.13200000
 H      23.51300000      21.55100000      26.04200000
 O      19.76200000      18.25000000      27.04600000
 H      19.71100000      17.50300000      27.70700000
 H      18.81000000      18.41100000      26.90200000
 O      25.36100000      21.65000000      22.12800000
 H      25.14600000      22.42100000      22.63900000
 H      25.12300000      20.87000000      22.69100000
 O      15.29200000      11.75800000      22.71800000
 H      14.50100000      11.47000000      23.25400000
 H      15.90300000      11.00900000      22.65900000
 O      23.85500000      11.13800000      25.82000000
 H      24.37900000      11.77000000      26.37400000
 H      24.25700000      10.24400000      25.75200000
 O      25.44600000      15.05200000      24.12200000
 H      25.18900000      14.23100000      23.81800000
 H      25.15800000      14.92700000      25.08700000
 O      21.02300000      13.67700000      22.51300000
 H      20.23800000      13.41400000      23.11500000
 H      20.54000000      13.81200000      21.67300000
 O      23.27500000      11.29600000      29.74800000
 H      22.82900000      10.69800000      29.03700000
 H      22.77200000      11.05800000      30.55800000
 O      17.39600000      17.75800000      25.92800000
 H      16.62900000      17.84900000      25.39800000
 H      17.74400000      18.63200000      25.92500000
 O      23.81400000      19.61700000      23.32400000
 H      24.05100000      18.66100000      23.25700000
 H      23.16200000      19.61300000      22.68200000
 O      24.77400000      18.06500000      24.46500000
 H      24.27100000      17.87600000      25.27600000
 H      24.92800000      17.11400000      24.07600000
 O      23.85600000      15.44400000      26.63600000
 H      23.07600000      15.89000000      26.25900000
 H      24.18200000      16.01500000      27.43600000
 O      19.14200000      13.82800000      28.25100000
 H      18.71900000      14.27800000      27.48700000
 H      19.85900000      13.25200000      27.92300000
 O      16.85100000      11.48600000      29.11400000
 H      16.30600000      11.36100000      29.94300000
 H      16.39100000      12.11800000      28.51600000
 O      17.41500000      18.35900000      29.35000000
 H      17.47500000      18.94000000      28.50900000
 H      17.97900000      17.63600000      29.15700000
 O      16.78200000      15.44300000      27.56700000
 H      16.34900000      16.18700000      28.06700000
 H      17.27900000      15.97100000      26.86600000
 O      25.04100000      12.05700000      23.44800000
 H      24.62900000      11.90600000      24.39100000
 H      25.98600000      11.86600000      23.59500000
 O      20.44400000      19.99900000      23.11600000
 H      21.05500000      20.66600000      23.44800000
 H      20.33400000      19.44700000      23.94100000
 O      26.19400000      19.43900000      20.78000000
 H      27.09100000      19.70500000      20.37300000
 H      25.69300000      20.22000000      21.07900000
 O      17.85600000      16.44500000      22.70900000
 H      16.89800000      16.48800000      22.52800000
 H      17.94300000      15.45800000      22.82700000
 O      17.44100000      21.47400000      30.53900000
 H      16.92100000      20.74500000      30.79400000
 H      16.99900000      21.79700000      29.72200000
 O      18.87700000      17.89600000      21.41700000
 H      18.50800000      17.08600000      21.82600000
 H      18.78700000      18.45000000      22.21600000
 O      16.95400000      11.20700000      20.19300000
 H      16.54500000      11.64700000      21.06600000
 H      17.09800000      12.00000000      19.58300000
