117
XYZ file of cluster: frame_2000_9c56d.26234.3352 - created by MolEdiTo
 O      26.40900000      11.43600000       4.95600000
 H      25.79700000      12.22200000       4.84300000
 H      27.30200000      11.90500000       4.94300000
 O      21.15000000      13.76400000       2.38500000
 H      21.90300000      14.19600000       1.91100000
 H      20.54800000      13.45700000       1.65000000
 O      26.76000000       5.71000000       1.18200000
 H      26.64900000       6.29700000       0.41500000
 H      26.16300000       4.90600000       0.94500000
 O      25.13200000      11.62300000      10.89200000
 H      25.10100000      11.79100000       9.91700000
 H      26.02300000      11.17100000      10.97700000
 O      29.27800000      10.57600000       6.04600000
 H      29.49900000       9.98400000       5.30800000
 H      28.58200000       9.99300000       6.43900000
 O      27.58300000      15.53300000       3.54800000
 H      26.68300000      15.89400000       3.56400000
 H      28.09000000      16.29600000       3.84300000
 O      21.21800000       7.55900000       8.35800000
 H      20.56800000       8.18000000       8.64600000
 H      21.46100000       7.22100000       9.25900000
 O      25.77600000      11.08900000       8.37500000
 H      26.62600000      11.05500000       7.90000000
 H      25.24000000      11.71000000       7.84900000
 O      24.48800000      15.15500000      10.51900000
 H      25.24500000      15.66200000      10.13000000
 H      24.80100000      14.76400000      11.38900000
 O      24.38100000      13.66700000       7.66100000
 H      24.38800000      14.58500000       7.30700000
 H      23.42400000      13.65800000       7.90900000
 O      28.29400000      11.58300000      10.51400000
 H      28.77900000      11.97800000       9.77200000
 H      28.23400000      10.57400000      10.36700000
 O      30.58700000      16.04300000       9.77100000
 H      29.87500000      15.32900000       9.49600000
 H      31.41800000      15.51700000      10.01200000
 O      20.78200000       7.63700000       1.03100000
 H      20.19200000       7.91600000       1.78900000
 H      21.14600000       8.50900000       0.67400000
 O      21.50200000      12.52500000       5.06000000
 H      21.04600000      13.01300000       5.75600000
 H      21.23200000      13.03000000       4.23700000
 O      24.44200000      14.04100000       1.74500000
 H      24.12100000      13.78500000       0.90200000
 H      24.80100000      14.92400000       1.67400000
 O      25.80500000       8.84000000       5.80000000
 H      26.09400000       9.74900000       5.61600000
 H      25.07100000       8.69700000       6.45800000
 O      28.70200000      13.24800000       4.91500000
 H      28.55900000      14.07100000       4.33200000
 H      29.33000000      12.86300000       4.28100000
 O      24.46500000      13.33600000       4.28400000
 H      24.03600000      14.06500000       4.72000000
 H      24.33000000      13.48800000       3.32400000
 O      23.91300000       7.87600000       7.38400000
 H      23.04500000       7.99100000       7.93000000
 H      24.42000000       7.27500000       8.00300000
 O      29.41600000      12.70900000       8.02700000
 H      30.26100000      12.86900000       7.54200000
 H      28.76600000      12.61600000       7.32900000
 O      28.06900000       6.06800000       4.05800000
 H      28.32200000       7.00700000       4.01000000
 H      27.49000000       6.04000000       3.23800000
 O      28.84000000      13.94500000       1.54600000
 H      28.37500000      14.38200000       2.26600000
 H      29.72900000      14.52600000       1.49300000
 O      24.46500000       9.79000000       3.03400000
 H      24.46400000       9.67100000       4.02100000
 H      25.28800000      10.22300000       2.84500000
 O      21.44100000       5.59900000       5.74100000
 H      21.09200000       6.00900000       6.52300000
 H      21.99900000       6.26300000       5.25400000
 O      30.08600000       8.01900000       2.05000000
 H      29.94400000       8.90500000       1.67000000
 H      31.11200000       8.13700000       2.02900000
 O      26.39000000       5.54800000       6.47600000
 H      27.09700000       5.90400000       5.93400000
 H      25.96700000       6.35200000       6.74700000
 O      23.02400000       6.53800000       2.99600000
 H      23.59800000       7.32900000       3.25400000
 H      22.46200000       6.91600000       2.25400000
 O      25.51200000       8.73700000      10.07800000
 H      26.24500000       8.08300000      10.23200000
 H      25.67100000       9.27900000       9.26700000
 O      23.35700000      10.74300000       6.09700000
 H      22.45000000      10.83200000       6.33900000
 H      23.42000000      11.46500000       5.42800000
 O      21.70200000      10.60300000       1.90500000
 H      20.97900000      10.98800000       2.50500000
 H      22.50300000      10.42500000       2.44800000
 O      29.22800000       9.12900000       9.87200000
 H      29.82700000       9.76300000       9.30600000
 H      29.78900000       8.29800000       9.73500000
 O      27.12600000      15.38400000       6.51900000
 H      27.47500000      14.59600000       6.08000000
 H      26.60400000      15.96600000       5.88900000
 O      27.89500000      15.13500000       9.66600000
 H      27.75700000      14.72900000       8.77100000
 H      27.72000000      16.12900000       9.54800000
 O      27.61200000       6.98400000      11.01100000
 H      28.40100000       7.09100000      11.56900000
 H      28.04100000       6.93200000      10.12100000
 O      29.67000000       6.36300000       8.82400000
 H      30.59600000       6.60100000       9.05500000
 H      29.88900000       5.50800000       8.31200000
 O      28.85400000      10.85500000       1.40000000
 H      28.70700000      11.84800000       1.39000000
 H      29.60000000      10.73100000       0.68600000
 O      21.56200000      14.73900000       9.06000000
 H      21.41200000      13.86600000       9.51000000
 H      21.76600000      15.44300000       9.73200000
 O      21.47100000      11.38500000       8.66200000
 H      20.94800000      11.78800000       9.36000000
 H      21.69600000      10.51300000       9.14200000
 O      21.11300000       9.12700000       5.13800000
 H      20.52000000       8.78900000       5.88300000
 H      21.99500000       9.16200000       5.50300000
