120
XYZ file of cluster: frame_2000_71e6e.4fa24.c708e - created by MolEdiTo
 O      19.14200000      13.82800000      28.25100000
 H      18.71900000      14.27800000      27.48700000
 H      19.85900000      13.25200000      27.92300000
 O      16.85100000      11.48600000      29.11400000
 H      16.30600000      11.36100000      29.94300000
 H      16.39100000      12.11800000      28.51600000
 O      16.78200000      15.44300000      27.56700000
 H      16.34900000      16.18700000      28.06700000
 H      17.27900000      15.97100000      26.86600000
 O      17.41500000      18.35900000      29.35000000
 H      17.47500000      18.94000000      28.50900000
 H      17.97900000      17.63600000      29.15700000
 O      15.64300000      13.17100000      28.23200000
 H      15.66100000      13.29100000      29.23500000
 H      16.24900000      13.93700000      27.99600000
 O      24.56900000      19.88500000      29.14700000
 H      24.26000000      19.20200000      29.76200000
 H      24.09100000      19.68800000      28.33900000
 O      19.76200000      18.25000000      27.04600000
 H      19.71100000      17.50300000      27.70700000
 H      18.81000000      18.41100000      26.90200000
 O      22.90500000      18.16000000      27.27500000
 H      21.97300000      18.04900000      27.39300000
 H      23.04200000      18.82100000      26.54800000
 O      17.44100000      21.47400000      30.53900000
 H      16.92100000      20.74500000      30.79400000
 H      16.99900000      21.79700000      29.72200000
 O      23.85500000      11.13800000      25.82000000
 H      24.37900000      11.77000000      26.37400000
 H      24.25700000      10.24400000      25.75200000
 O      24.71400000      17.25400000      28.61400000
 H      25.18700000      17.73300000      29.32100000
 H      24.25300000      17.96100000      28.18300000
 O      23.27500000      11.29600000      29.74800000
 H      22.82900000      10.69800000      29.03700000
 H      22.77200000      11.05800000      30.55800000
 O      23.85600000      15.44400000      26.63600000
 H      23.07600000      15.89000000      26.25900000
 H      24.18200000      16.01500000      27.43600000
 O      19.22400000      16.84500000      29.05400000
 H      18.81100000      16.08900000      28.61200000
 H      20.14600000      16.66500000      29.34600000
 O      25.32600000      13.20500000      27.04400000
 H      24.85800000      14.05100000      26.90000000
 H      25.62100000      13.20400000      27.99200000
 O      25.89200000      12.34700000      29.50500000
 H      25.04800000      11.87900000      29.45600000
 H      26.10100000      12.11600000      30.43500000
 O      25.46700000      16.81900000      36.57300000
 H      24.76500000      17.33000000      36.24000000
 H      25.40500000      17.08200000      37.55800000
 O      21.15000000      13.76400000      33.97300000
 H      21.90300000      14.19600000      33.49900000
 H      20.54800000      13.45700000      33.23800000
 O      26.40900000      11.43600000      36.54400000
 H      25.79700000      12.22200000      36.43100000
 H      27.30200000      11.90500000      36.53100000
 O      18.28700000      14.03000000      32.52700000
 H      18.10200000      13.09800000      32.42900000
 H      18.75500000      14.13900000      31.66100000
 O      26.07500000      17.28000000      32.69500000
 H      26.43600000      16.53600000      32.15800000
 H      26.83700000      17.43800000      33.29100000
 O      16.26600000      14.26800000      35.04700000
 H      17.12300000      13.79200000      35.14700000
 H      16.12900000      14.49800000      36.06600000
 O      18.99300000      11.29200000      34.69100000
 H      18.42300000      10.60500000      34.23900000
 H      19.77600000      10.82300000      35.00300000
 O      15.47300000      12.79600000      32.57800000
 H      15.78200000      11.86000000      32.67000000
 H      14.71100000      12.98000000      33.11600000
 O      18.01200000      16.55300000      33.49800000
 H      17.94700000      15.58400000      33.45300000
 H      18.54600000      16.88100000      32.72500000
 O      25.51300000      19.12600000      37.70400000
 H      25.31900000      19.15000000      36.76800000
 H      25.78400000      20.05300000      37.92900000
 O      21.88300000      16.83900000      32.59300000
 H      22.69800000      16.72900000      33.05200000
 H      21.82700000      17.84200000      32.55800000
 O      21.50200000      12.52500000      36.64800000
 H      21.04600000      13.01300000      37.34400000
 H      21.23200000      13.03000000      35.82500000
 O      24.44200000      14.04100000      33.33300000
 H      24.12100000      13.78500000      32.49000000
 H      24.80100000      14.92400000      33.26200000
 O      18.11300000      15.84400000      36.67600000
 H      17.39500000      15.64600000      35.99200000
 H      18.77300000      16.16900000      35.99500000
 O      24.46500000      13.33600000      35.87200000
 H      24.03600000      14.06500000      36.30800000
 H      24.33000000      13.48800000      34.91200000
 O      20.84400000      16.73300000      36.10700000
 H      20.77600000      15.83800000      36.61100000
 H      21.70400000      17.15200000      36.38100000
 O      17.58900000      13.43400000      35.33800000
 H      18.01700000      12.60200000      35.14900000
 H      17.76000000      13.44100000      36.28000000
 O      18.44100000      18.47100000      35.50500000
 H      19.31300000      18.14000000      35.13800000
 H      17.71300000      17.90000000      35.20900000
 O      19.21300000      19.24800000      32.97900000
 H      18.66000000      19.28900000      32.19100000
 H      18.68800000      18.88400000      33.68600000
 O      21.70200000      10.60300000      33.49300000
 H      20.97900000      10.98800000      34.09300000
 H      22.50300000      10.42500000      34.03600000
 O      16.16700000      17.74700000      36.55900000
 H      15.83300000      17.06100000      35.93600000
 H      16.89100000      18.02900000      36.00600000
 O      24.96900000      20.41400000      35.40700000
 H      24.24900000      19.91100000      34.98900000
 H      25.25400000      21.13400000      34.81400000
 O      22.06200000      18.80500000      32.93800000
 H      22.03400000      19.73500000      32.64500000
 H      21.09000000      18.74900000      33.14200000
 O      16.86300000      18.30000000      33.40600000
 H      17.42500000      18.87400000      32.72900000
 H      17.03800000      17.40700000      33.15100000
