102
XYZ file of cluster: frame_2000_0.c7613.0 - created by MolEdiTo
 O       4.80100000      27.46400000       3.67700000
 H       5.40000000      28.09100000       4.13700000
 H       4.86900000      27.61500000       2.72400000
 O       3.37000000      29.30800000       9.00700000
 H       2.40000000      29.28400000       9.08100000
 H       3.70300000      29.86300000       9.84400000
 O       8.21900000      28.06200000       1.85000000
 H       8.74000000      27.58200000       1.16300000
 H       8.90300000      28.57500000       2.38100000
 O       8.65200000      29.69500000       5.67800000
 H       8.32500000      30.15400000       4.89100000
 H       7.78400000      29.77100000       6.17900000
 O      11.22900000      28.24500000      10.72900000
 H      10.41200000      28.71300000      10.87700000
 H      11.64900000      28.83300000      10.11900000
 O       4.95700000      26.97100000       8.92700000
 H       4.92100000      26.49500000       9.77900000
 H       4.43600000      27.77000000       9.15700000
 O       1.82300000      26.56700000      11.36500000
 H       1.89400000      27.12500000      10.50800000
 H       2.02900000      25.64800000      11.02700000
 O       1.62800000      26.87500000       7.69400000
 H       1.06600000      27.71900000       7.49600000
 H       1.99900000      26.53200000       6.89600000
 O       3.29700000      30.62700000       1.11500000
 H       4.26600000      30.42100000       0.91300000
 H       2.82800000      29.82500000       0.79900000
 O      10.42300000      28.36300000       4.38600000
 H      10.04000000      27.54800000       4.17300000
 H       9.71900000      28.88700000       4.81600000
 O       6.52900000      29.20900000       8.09300000
 H       7.40000000      29.00300000       8.34800000
 H       6.06900000      28.34700000       8.36200000
 O       7.39300000      26.27500000       7.12300000
 H       6.55500000      26.43700000       7.57700000
 H       7.11000000      26.03000000       6.25400000
 O       2.49000000      26.89500000       1.49600000
 H       2.63000000      25.98900000       1.27500000
 H       3.37300000      27.38800000       1.31800000
 O       9.51300000      28.93400000       8.30400000
 H       9.59200000      28.93700000       7.28500000
 H       9.55400000      29.91100000       8.53800000
 O       5.27100000      28.37000000       1.00300000
 H       5.28500000      28.51500000       0.00000000
 H       6.12400000      27.99200000       1.20000000
 O       9.86000000      26.24500000       7.62200000
 H       8.90500000      26.37600000       7.78600000
 H      10.16200000      27.07600000       7.98900000
 O      10.06700000      34.30500000       2.99300000
 H       9.71700000      33.33800000       3.04900000
 H       9.40800000      34.51300000       2.30100000
 O       5.28000000      33.38600000       8.04300000
 H       5.68700000      32.50400000       8.28100000
 H       4.37700000      33.47600000       8.57000000
 O       7.43700000      32.15300000       3.58800000
 H       6.78300000      32.84500000       3.90800000
 H       7.21900000      32.08900000       2.67700000
 O       2.60600000      32.35800000       4.07200000
 H       3.51400000      32.25500000       4.27600000
 H       2.58000000      33.06300000       3.42500000
 O       9.02500000      36.89200000       4.25800000
 H       9.70700000      37.30300000       4.81300000
 H       9.48100000      36.10900000       3.83000000
 O       0.90200000      36.12200000       7.05400000
 H       0.54800000      35.93200000       6.23100000
 H       1.82100000      35.76400000       6.98100000
 O       3.38900000      35.42400000       6.21400000
 H       4.31200000      35.72500000       5.96700000
 H       3.60900000      34.50100000       6.53600000
 O       5.41800000      32.12800000       5.67300000
 H       5.22200000      31.47700000       6.41000000
 H       5.89200000      32.86300000       6.10800000
 O       6.13500000      37.06200000       1.29700000
 H       6.06600000      37.76000000       0.56900000
 H       5.74400000      36.32400000       0.86400000
 O       9.73600000      32.87600000       8.82400000
 H      10.60700000      32.76600000       9.27400000
 H       9.40400000      33.67700000       9.24300000
 O       7.07300000      36.61500000       6.59100000
 H       7.68300000      37.12900000       6.00000000
 H       7.23200000      35.71700000       6.30500000
 O       1.11800000      34.78100000      10.65300000
 H       0.50200000      35.45900000      10.37700000
 H       1.33900000      34.38400000       9.79800000
 O       9.09000000      35.97100000       9.43400000
 H      10.00200000      36.16300000       9.74300000
 H       9.04200000      36.30000000       8.48100000
 O       0.78600000      37.07400000       3.03800000
 H       0.41500000      37.93900000       2.64800000
 H       0.00000000      36.53200000       3.27000000
 O       5.61100000      34.61500000       3.53000000
 H       5.03200000      35.41100000       3.78400000
 H       6.51600000      35.06900000       3.42900000
 O       8.72200000      32.18200000       0.88500000
 H       8.95800000      31.45000000       0.35500000
 H       9.52000000      32.84900000       0.76500000
 O       7.69400000      33.61300000       6.79100000
 H       7.29100000      34.15100000       7.56000000
 H       8.29200000      32.92200000       7.17800000
 O       2.80300000      34.62800000       2.31800000
 H       3.71400000      34.54000000       2.01000000
 H       2.32400000      34.14200000       1.61000000
