105
XYZ file of cluster: frame_2000_9d4aa.776d6.9d760 - created by MolEdiTo
 O      20.41100000      24.11700000      22.12700000
 H      20.43700000      25.05700000      22.30400000
 H      21.40500000      23.86400000      22.08600000
 O      21.93900000      21.54200000      30.40800000
 H      21.44200000      22.07300000      31.08200000
 H      21.84100000      22.11200000      29.65800000
 O      26.00700000      24.18800000      24.10600000
 H      26.74400000      24.47300000      23.51900000
 H      26.26200000      23.37700000      24.59600000
 O      24.33900000      26.74400000      23.87100000
 H      24.60300000      25.86200000      24.18000000
 H      23.89700000      27.25300000      24.55000000
 O      29.63200000      16.14100000      22.45500000
 H      29.11300000      15.36300000      22.23800000
 H      28.91700000      16.85700000      22.72200000
 O      28.70200000      21.95200000      26.84000000
 H      27.85400000      21.69800000      27.30800000
 H      29.31300000      22.10300000      27.70000000
 O      24.71400000      17.25400000      28.61400000
 H      25.18700000      17.73300000      29.32100000
 H      24.25300000      17.96100000      28.18300000
 O      23.16000000      25.23500000      28.45500000
 H      22.88700000      26.20100000      28.43100000
 H      23.87500000      25.10900000      28.99000000
 O      26.45100000      16.39600000      21.21100000
 H      26.85800000      17.03500000      21.81400000
 H      25.58300000      16.89200000      21.03900000
 O      21.38900000      16.03600000      24.62500000
 H      21.95000000      15.64900000      23.89200000
 H      21.17100000      16.98100000      24.38200000
 O      29.86800000      18.39200000      24.83800000
 H      29.89100000      18.05500000      25.76500000
 H      30.51600000      17.76900000      24.38200000
 O      24.56900000      19.88500000      29.14700000
 H      24.26000000      19.20200000      29.76200000
 H      24.09100000      19.68800000      28.33900000
 O      22.90500000      18.16000000      27.27500000
 H      21.97300000      18.04900000      27.39300000
 H      23.04200000      18.82100000      26.54800000
 O      29.15300000      23.77600000      24.74800000
 H      29.17700000      23.02400000      25.33800000
 H      29.47900000      23.37400000      23.84000000
 O      21.76500000      17.26400000      22.72900000
 H      22.31500000      17.53000000      21.98500000
 H      21.08500000      17.90900000      22.80800000
 O      30.34500000      25.24500000      28.85700000
 H      29.94700000      25.08800000      29.64300000
 H      30.45600000      26.15500000      28.79000000
 O      30.07200000      21.99800000      29.27500000
 H      30.48000000      22.88500000      29.26700000
 H      30.19200000      21.93200000      30.23300000
 O      24.02800000      20.66500000      26.02100000
 H      24.47500000      20.72400000      25.13200000
 H      23.51300000      21.55100000      26.04200000
 O      25.36100000      21.65000000      22.12800000
 H      25.14600000      22.42100000      22.63900000
 H      25.12300000      20.87000000      22.69100000
 O      22.27200000      23.24800000      25.85600000
 H      21.95400000      23.93700000      25.28500000
 H      22.53200000      23.58800000      26.74000000
 O      25.45200000      24.84600000      30.31900000
 H      25.26500000      23.99900000      30.80600000
 H      25.77300000      25.38200000      31.11400000
 O      23.81400000      19.61700000      23.32400000
 H      24.05100000      18.66100000      23.25700000
 H      23.16200000      19.61300000      22.68200000
 O      24.77400000      18.06500000      24.46500000
 H      24.27100000      17.87600000      25.27600000
 H      24.92800000      17.11400000      24.07600000
 O      20.98700000      23.72900000      29.15000000
 H      20.31500000      24.13900000      28.53700000
 H      21.76700000      24.31800000      29.01900000
 O      23.85600000      15.44400000      26.63600000
 H      23.07600000      15.89000000      26.25900000
 H      24.18200000      16.01500000      27.43600000
 O      27.49300000      17.92700000      23.14600000
 H      26.49900000      18.03500000      23.15700000
 H      27.84200000      18.57200000      23.78700000
 O      28.96200000      26.84300000      25.21700000
 H      28.64200000      26.12100000      24.62000000
 H      29.69500000      26.48900000      25.86600000
 O      20.44400000      19.99900000      23.11600000
 H      21.05500000      20.66600000      23.44800000
 H      20.33400000      19.44700000      23.94100000
 O      27.40000000      26.02200000      28.21700000
 H      27.36000000      25.25200000      27.58300000
 H      27.10500000      25.68400000      29.05100000
 O      26.92500000      21.03900000      24.93300000
 H      26.63400000      21.08300000      25.86900000
 H      27.74600000      21.54300000      24.94500000
 O      26.46000000      21.68300000      28.75000000
 H      25.71600000      21.17800000      28.99700000
 H      26.94700000      21.58200000      29.59600000
 O      26.19400000      19.43900000      20.78000000
 H      27.09100000      19.70500000      20.37300000
 H      25.69300000      20.22000000      21.07900000
 O      29.81100000      17.47200000      29.39600000
 H      28.89800000      17.03400000      29.41800000
 H      29.66100000      18.40200000      29.15900000
 O      29.33800000      21.39900000      23.10100000
 H      28.78200000      21.28000000      22.27300000
 H      29.90100000      20.53400000      23.13600000
 O      28.80300000      19.22700000      28.74200000
 H      28.31800000      20.02300000      28.78800000
 H      29.72900000      19.59300000      28.70200000
