126
XYZ file of cluster: frame_11500_c208c.49fee.4770 - created by MolEdiTo
 O      29.96700000      15.07400000       4.74700000
 H      29.68400000      14.69000000       5.65500000
 H      29.09900000      15.20300000       4.33400000
 O      30.08500000      21.06300000       8.78900000
 H      30.95900000      21.09600000       8.38500000
 H      30.36300000      20.88200000       9.72700000
 O      30.64700000      12.24100000       6.89800000
 H      30.03700000      12.97400000       7.13200000
 H      31.35300000      12.66600000       6.33500000
 O      28.58100000      18.83700000       7.78500000
 H      28.98400000      19.71700000       7.97100000
 H      27.83800000      18.95200000       8.38100000
 O      28.51700000      17.61000000       5.29600000
 H      29.44200000      17.55700000       4.98000000
 H      28.63700000      17.94500000       6.29500000
 O      27.20000000      11.30900000       8.37000000
 H      27.27800000      11.09800000       7.42500000
 H      27.34000000      10.52700000       8.95500000
 O      30.21700000      10.62700000       4.29000000
 H      29.66800000      11.22200000       3.72900000
 H      30.57800000      11.13500000       5.01100000
 O      26.01600000      11.63100000       1.33800000
 H      26.85500000      11.55300000       0.94900000
 H      25.49400000      10.90900000       0.89200000
 O      26.69800000      19.03000000       9.60600000
 H      26.13000000      18.17300000       9.61500000
 H      26.17700000      19.70500000      10.09000000
 O      30.52800000      20.54100000       5.33800000
 H      30.73400000      20.36700000       4.39300000
 H      29.74700000      21.11500000       5.09200000
 O      26.54400000      15.41100000       8.07300000
 H      25.94300000      15.24500000       8.82100000
 H      26.27300000      16.22300000       7.47600000
 O      29.87500000      12.84400000       1.98200000
 H      30.78600000      12.56000000       1.83500000
 H      29.60600000      13.27100000       1.16900000
 O      27.83400000      13.12200000       3.74200000
 H      28.58700000      12.99700000       3.15000000
 H      27.58700000      14.02900000       3.36300000
 O      27.67300000      10.49200000       5.55800000
 H      27.74300000      11.35800000       5.09100000
 H      28.39600000       9.95800000       5.24200000
 O      28.06000000      18.54500000       1.93100000
 H      27.57000000      18.33000000       1.18600000
 H      27.40500000      18.84100000       2.57400000
 O      28.92200000      14.69200000       7.17700000
 H      29.22100000      15.38500000       7.85700000
 H      27.97800000      14.58600000       7.47400000
 O      28.37300000      13.37300000      10.09200000
 H      27.61700000      13.03400000      10.64900000
 H      28.19900000      12.90900000       9.28200000
 O      30.14600000      16.79300000       9.08100000
 H      29.61000000      17.48900000       8.74100000
 H      29.98500000      16.77500000      10.01000000
 O      28.18000000      15.47900000       2.12700000
 H      28.41300000      16.38800000       2.22200000
 H      28.90500000      15.08100000       1.59600000
 O      25.69900000      17.36500000       6.20000000
 H      26.63300000      17.16000000       6.05500000
 H      25.22900000      16.55800000       5.84900000
 O      30.76800000       9.93200000       8.73600000
 H      30.54500000      10.81400000       8.34000000
 H      31.74400000       9.76200000       8.72500000
 O      36.13100000      11.52800000       6.43800000
 H      35.50700000      10.99600000       7.04200000
 H      35.87600000      12.41100000       6.33600000
 O      35.15900000      11.42900000      10.17200000
 H      35.38400000      11.19100000      11.10000000
 H      34.43500000      12.08600000      10.37100000
 O      37.25700000      21.63200000       9.06200000
 H      37.76400000      22.16900000       8.45300000
 H      36.95600000      20.99700000       8.43300000
 O      34.50000000      18.57300000       9.54100000
 H      34.12800000      18.33200000      10.42400000
 H      34.73600000      17.69200000       9.19300000
 O      35.65700000      10.61300000       3.95900000
 H      35.55700000       9.64600000       4.07700000
 H      35.82500000      10.78700000       4.89500000
 O      34.22200000      11.55600000       1.74900000
 H      34.52100000      11.20000000       2.62000000
 H      34.09000000      10.68400000       1.35100000
 O      32.85400000      17.13400000       2.86800000
 H      32.32400000      16.52700000       3.43300000
 H      33.71000000      16.65600000       2.74200000
 O      37.10200000      15.91200000       6.64200000
 H      37.68000000      15.06900000       6.82100000
 H      36.23200000      15.53500000       6.35100000
 O      37.16700000      12.18000000       1.50400000
 H      36.40300000      11.81100000       1.96600000
 H      36.96600000      12.34900000       0.57700000
 O      34.56800000      15.86400000       8.25400000
 H      34.45200000      15.18500000       8.90600000
 H      33.66000000      16.15600000       8.07000000
 O      35.15600000      22.03400000       2.78300000
 H      34.78500000      21.08700000       2.71100000
 H      35.83700000      22.10300000       2.02500000
 O      34.33500000      20.73300000       7.98400000
 H      34.23100000      20.11000000       8.78900000
 H      35.12900000      20.42300000       7.46000000
 O      35.37000000      17.91000000       1.32700000
 H      35.92600000      17.65500000       2.06600000
 H      34.85600000      18.72500000       1.49700000
 O      35.66700000      19.20900000       3.80900000
 H      36.60800000      18.96000000       3.84100000
 H      35.32200000      19.00300000       4.68800000
 O      34.58200000      14.49000000       2.34300000
 H      34.75200000      14.03900000       1.56200000
 H      33.75800000      14.14300000       2.75300000
 O      36.03200000      21.83700000       5.64600000
 H      36.00900000      21.61500000       4.67800000
 H      35.96500000      21.00200000       6.02800000
 O      33.47200000      14.03000000      10.25200000
 H      32.77900000      14.79100000      10.22900000
 H      32.93100000      13.26600000      10.44100000
 O      33.24900000      19.96700000       1.95000000
 H      33.39600000      19.23700000       2.60500000
 H      32.73700000      19.51600000       1.23300000
 O      36.89900000      19.38700000       7.44600000
 H      36.71800000      18.88900000       8.24500000
 H      37.35100000      18.64000000       7.00100000
 O      34.28500000      14.18500000       6.01900000
 H      34.07500000      14.63200000       5.17700000
 H      34.11800000      14.94300000       6.63800000
 O      34.24300000      18.49500000       6.12600000
 H      34.40200000      18.08700000       7.04300000
 H      33.40700000      18.99500000       6.19600000
