132
XYZ file of cluster: frame_11500_c208c.4ae2a.21895 - created by MolEdiTo
 O      29.96700000      15.07400000       4.74700000
 H      29.68400000      14.69000000       5.65500000
 H      29.09900000      15.20300000       4.33400000
 O      30.08500000      21.06300000       8.78900000
 H      30.95900000      21.09600000       8.38500000
 H      30.36300000      20.88200000       9.72700000
 O      30.76000000      21.10700000      11.57300000
 H      30.29800000      20.21900000      11.76200000
 H      30.91700000      21.38700000      12.46700000
 O      29.31300000      14.45000000      12.71400000
 H      28.92000000      13.79600000      12.06300000
 H      29.50600000      13.94300000      13.53100000
 O      30.64700000      12.24100000       6.89800000
 H      30.03700000      12.97400000       7.13200000
 H      31.35300000      12.66600000       6.33500000
 O      29.71500000      12.06700000      14.30700000
 H      30.68600000      11.86800000      14.07000000
 H      29.20100000      11.38700000      13.81400000
 O      28.58100000      18.83700000       7.78500000
 H      28.98400000      19.71700000       7.97100000
 H      27.83800000      18.95200000       8.38100000
 O      28.51700000      17.61000000       5.29600000
 H      29.44200000      17.55700000       4.98000000
 H      28.63700000      17.94500000       6.29500000
 O      27.20000000      11.30900000       8.37000000
 H      27.27800000      11.09800000       7.42500000
 H      27.34000000      10.52700000       8.95500000
 O      26.69800000      19.03000000       9.60600000
 H      26.13000000      18.17300000       9.61500000
 H      26.17700000      19.70500000      10.09000000
 O      30.52800000      20.54100000       5.33800000
 H      30.73400000      20.36700000       4.39300000
 H      29.74700000      21.11500000       5.09200000
 O      26.54400000      15.41100000       8.07300000
 H      25.94300000      15.24500000       8.82100000
 H      26.27300000      16.22300000       7.47600000
 O      30.23400000      19.31400000      14.55200000
 H      30.90000000      18.65300000      14.17900000
 H      30.01200000      18.90800000      15.43300000
 O      27.67300000      10.49200000       5.55800000
 H      27.74300000      11.35800000       5.09100000
 H      28.39600000       9.95800000       5.24200000
 O      28.92200000      14.69200000       7.17700000
 H      29.22100000      15.38500000       7.85700000
 H      27.97800000      14.58600000       7.47400000
 O      28.97100000      18.88300000      11.43900000
 H      28.56500000      19.01000000      10.52800000
 H      28.32000000      18.35000000      11.95000000
 O      28.37300000      13.37300000      10.09200000
 H      27.61700000      13.03400000      10.64900000
 H      28.19900000      12.90900000       9.28200000
 O      30.14600000      16.79300000       9.08100000
 H      29.61000000      17.48900000       8.74100000
 H      29.98500000      16.77500000      10.01000000
 O      25.69900000      17.36500000       6.20000000
 H      26.63300000      17.16000000       6.05500000
 H      25.22900000      16.55800000       5.84900000
 O      28.14100000      16.97000000      13.09300000
 H      27.74000000      17.06800000      14.00700000
 H      28.61500000      16.07700000      13.07000000
 O      30.76800000       9.93200000       8.73600000
 H      30.54500000      10.81400000       8.34000000
 H      31.74400000       9.76200000       8.72500000
 O      36.38800000      21.42200000      14.65500000
 H      36.43200000      22.28700000      14.15000000
 H      36.05500000      20.76500000      14.02200000
 O      36.13100000      11.52800000       6.43800000
 H      35.50700000      10.99600000       7.04200000
 H      35.87600000      12.41100000       6.33600000
 O      35.15900000      11.42900000      10.17200000
 H      35.38400000      11.19100000      11.10000000
 H      34.43500000      12.08600000      10.37100000
 O      37.25700000      21.63200000       9.06200000
 H      37.76400000      22.16900000       8.45300000
 H      36.95600000      20.99700000       8.43300000
 O      34.50000000      18.57300000       9.54100000
 H      34.12800000      18.33200000      10.42400000
 H      34.73600000      17.69200000       9.19300000
 O      36.87600000      17.90500000      16.15200000
 H      37.44300000      18.36200000      15.45400000
 H      37.41700000      17.11500000      16.36000000
 O      37.10200000      15.91200000       6.64200000
 H      37.68000000      15.06900000       6.82100000
 H      36.23200000      15.53500000       6.35100000
 O      36.58800000      13.30700000      12.49400000
 H      36.39500000      12.92900000      11.60700000
 H      37.44000000      12.92000000      12.72300000
 O      34.56800000      15.86400000       8.25400000
 H      34.45200000      15.18500000       8.90600000
 H      33.66000000      16.15600000       8.07000000
 O      35.35000000      10.89800000      14.95900000
 H      35.65600000      11.12100000      15.88600000
 H      35.94000000      10.14300000      14.76000000
 O      34.33500000      20.73300000       7.98400000
 H      34.23100000      20.11000000       8.78900000
 H      35.12900000      20.42300000       7.46000000
 O      36.74100000      18.51100000      13.44500000
 H      36.51900000      18.90500000      12.59400000
 H      36.66300000      17.53300000      13.29500000
 O      33.39800000      16.69100000      14.54500000
 H      33.06000000      16.64500000      15.40400000
 H      33.53300000      15.77500000      14.31300000
 O      33.35000000      17.34100000      12.00700000
 H      32.57300000      17.94600000      12.03500000
 H      33.73300000      17.45400000      12.94200000
 O      35.90400000      15.89400000      11.90700000
 H      35.97500000      14.93000000      12.16800000
 H      34.98000000      16.07000000      12.11600000
 O      36.03200000      21.83700000       5.64600000
 H      36.00900000      21.61500000       4.67800000
 H      35.96500000      21.00200000       6.02800000
 O      33.47200000      14.03000000      10.25200000
 H      32.77900000      14.79100000      10.22900000
 H      32.93100000      13.26600000      10.44100000
 O      36.37600000      14.25500000      15.02300000
 H      36.15800000      14.21800000      14.10900000
 H      35.84600000      13.57100000      15.34600000
 O      33.76700000      11.53400000      12.82800000
 H      34.37900000      11.57400000      13.59300000
 H      33.72500000      10.58100000      12.71800000
 O      36.89900000      19.38700000       7.44600000
 H      36.71800000      18.88900000       8.24500000
 H      37.35100000      18.64000000       7.00100000
 O      34.28500000      14.18500000       6.01900000
 H      34.07500000      14.63200000       5.17700000
 H      34.11800000      14.94300000       6.63800000
 O      36.02100000      20.95200000      11.56200000
 H      36.35700000      20.99700000      10.66200000
 H      35.58200000      21.91000000      11.62300000
 O      34.24300000      18.49500000       6.12600000
 H      34.40200000      18.08700000       7.04300000
 H      33.40700000      18.99500000       6.19600000
