151
XYZ file of cluster: frame_11500_1ce71.4cf0f.6fdc3 - created by MolEdiTo
 O       9.77600000      19.16900000      23.79500000
 H      10.33300000      19.36600000      24.54600000
 H       9.85700000      19.78400000      23.02300000
 O       5.27300000      16.30700000      19.18200000
 H       6.10700000      15.94200000      18.78500000
 H       4.65400000      16.14100000      18.47700000
 O       9.64600000      11.93400000      21.77000000
 H       9.40100000      12.07800000      20.83300000
 H       8.80100000      11.47000000      22.14600000
 O      15.70600000      12.14600000      21.18100000
 H      14.72200000      11.99800000      21.41700000
 H      16.05800000      12.45200000      22.09100000
 O       9.17100000      17.92000000      15.83400000
 H       8.44900000      18.36700000      15.34600000
 H       9.89200000      17.96600000      15.16500000
 O      12.44500000      12.69600000      26.17500000
 H      12.68700000      12.03300000      26.86600000
 H      13.02100000      12.53300000      25.24500000
 O       6.52200000      12.57000000      26.10100000
 H       5.79700000      13.14000000      25.93100000
 H       7.36300000      12.93100000      25.72200000
 O      15.08500000      18.55000000      19.19700000
 H      14.37200000      19.18100000      18.84500000
 H      15.26500000      17.95600000      18.38900000
 O      12.60600000      19.56100000      24.99700000
 H      12.41500000      19.70500000      25.94100000
 H      12.75800000      18.62600000      24.94000000
 O      11.81400000      15.37500000      25.77100000
 H      11.00600000      15.57900000      25.22000000
 H      11.90000000      14.41000000      25.84000000
 O       5.13200000      17.90500000      16.15200000
 H       5.69900000      18.36200000      15.45400000
 H       5.67300000      17.11500000      16.36000000
 O       9.10900000      12.88600000      16.95200000
 H       9.20100000      12.84000000      15.97500000
 H       9.43200000      13.79900000      16.86100000
 O      15.94500000      19.95700000      24.74900000
 H      14.98700000      19.75600000      24.80800000
 H      16.30600000      19.36500000      23.99500000
 O      11.05100000      19.59100000      20.91300000
 H      11.38800000      19.50700000      20.01200000
 H      11.56000000      20.37000000      21.21400000
 O      12.36300000      14.20800000      18.30200000
 H      11.50900000      14.04900000      17.83200000
 H      12.46600000      15.18000000      18.41800000
 O      11.72200000      17.17700000      19.05000000
 H      12.26500000      17.03700000      19.89900000
 H      12.06300000      18.06700000      18.67300000
 O       6.08400000      15.91900000      23.15000000
 H       5.76000000      15.35300000      22.36500000
 H       5.35000000      15.65000000      23.72400000
 C      17.62200000      16.60300000      16.25300000
 C      16.45700000      16.11400000      15.29200000
 C      14.60100000      14.36100000      15.08300000
 H      16.09200000      14.46700000      16.68900000
 H      18.59500000      17.07000000      14.67600000
 O      14.73600000      16.04300000      17.06800000
 O      17.41000000      16.90500000      17.41900000
 O      18.71100000      17.19800000      15.66900000
 C      15.48800000      15.21200000      16.08600000
 O      15.70800000      17.19000000      14.73900000
 H      16.96300000      15.62300000      14.48300000
 O      14.90300000      13.29500000      14.65400000
 O      13.31900000      14.75100000      14.95600000
 H      13.43700000      15.66000000      15.33300000
 H      15.50500000      17.81300000      15.43100000
 H      14.64300000      15.40000000      17.90000000
 O      13.74600000      10.26000000      22.41600000
 H      12.90700000      10.03000000      22.86800000
 H      14.30700000      10.64700000      23.09700000
 O       8.83500000      13.48800000      24.66000000
 H       8.86700000      14.26000000      24.05800000
 H       9.15300000      12.81300000      24.07400000
 O      16.45600000      12.17600000      24.28800000
 H      16.92200000      11.80200000      25.10200000
 H      15.60400000      12.65500000      24.65200000
 O       7.41200000      17.81500000      24.94200000
 H       7.17300000      17.39400000      24.07300000
 H       8.07700000      18.47200000      24.66400000
 O       7.60000000      18.86800000      18.38800000
 H       8.10200000      18.75800000      17.51700000
 H       7.82200000      17.98600000      18.79100000
 O       9.12600000      21.04900000      26.13200000
 H       9.29800000      20.49100000      26.92600000
 H       9.72500000      21.87700000      26.22200000
 O      14.07600000      13.66800000      23.92800000
 H      14.84100000      14.30400000      23.82300000
 H      13.64900000      13.76300000      23.01600000
 O       9.66400000      10.99800000      18.93100000
 H      10.48600000      10.67600000      18.54100000
 H       9.31200000      11.51300000      18.11800000
 O       6.59500000      12.73400000      19.31900000
 H       7.51700000      12.62900000      19.03200000
 H       6.66000000      13.62700000      19.88300000
 O       9.89800000      15.42700000      16.51600000
 H      10.77500000      15.80600000      16.28000000
 H       9.17900000      16.03000000      16.27800000
 O      15.88800000      11.71000000      18.68000000
 H      15.43800000      10.81400000      18.60600000
 H      15.66400000      12.05200000      19.58400000
 O      13.67600000      16.95000000      24.35600000
 H      12.99200000      16.27500000      24.42900000
 H      14.18900000      16.65000000      25.17000000
 O       6.52600000      21.97100000      21.51800000
 H       6.20700000      21.66600000      20.64900000
 H       6.23700000      21.19400000      22.07100000
 O       8.40000000      14.81300000      21.75900000
 H       7.62000000      15.16400000      22.35500000
 H       9.17300000      15.39900000      21.89300000
 O      15.15700000      14.99400000      19.87800000
 H      15.63400000      14.36000000      20.38400000
 H      14.48700000      15.35100000      20.46700000
 O      12.54500000      17.30800000      15.16000000
 H      13.03300000      17.80000000      14.45600000
 H      12.78300000      17.70600000      16.01200000
 O       6.52200000      12.78700000      22.87000000
 H       6.75100000      12.50400000      23.79600000
 H       5.64500000      13.13900000      22.84300000
 O       4.63300000      20.10600000      23.58000000
 H       5.38900000      20.57900000      24.05900000
 H       3.75800000      20.46500000      23.82200000
 O       8.51500000      16.29300000      18.96600000
 H       9.08900000      15.85100000      19.62800000
 H       9.03200000      16.34500000      18.17200000
 O      13.35700000      17.19500000      21.64400000
 H      13.53600000      17.09600000      22.61900000
 H      14.31500000      17.27300000      21.30000000
 O      10.54600000      16.67200000      22.65300000
 H       9.89800000      17.25500000      23.20500000
 H      10.92900000      17.31100000      21.94200000
 O       6.83400000      21.44200000      18.75600000
 H       7.33200000      20.57700000      18.72500000
 H       7.52400000      22.08800000      18.79900000
 O      13.15200000      11.33700000      17.96200000
 H      13.23000000      12.35500000      18.14600000
 H      13.82600000      11.21700000      17.21700000
 O      11.87700000      19.80600000      18.13400000
 H      12.08700000      20.68500000      18.46000000
 H      11.12200000      19.92200000      17.64300000
 O       6.81900000      21.18500000      24.67100000
 H       7.46000000      21.12900000      23.89700000
 H       7.38100000      20.89400000      25.49800000
 O      12.82500000      13.62400000      21.47500000
 H      12.91600000      13.80300000      20.48900000
 H      11.98600000      14.11200000      21.74300000
 O      14.97500000      19.66700000      16.47500000
 H      15.58800000      20.40200000      16.80900000
 H      14.16700000      20.21300000      16.14500000
 O       6.39000000      15.37600000      16.63900000
 H       7.00000000      14.57700000      16.77700000
 H       5.75100000      15.06200000      15.94700000
