126
XYZ file of cluster: frame_11500_25453.c4635.75f52 - created by MolEdiTo
 O       9.33100000      27.08500000      25.24000000
 H       8.58600000      26.90800000      24.67700000
 H       8.82500000      27.49000000      25.98100000
 O       6.79000000      27.83600000      26.33400000
 H       6.19400000      27.20800000      25.98500000
 H       6.22400000      28.47500000      26.70600000
 O      10.33100000      26.90100000      22.05800000
 H       9.40800000      27.26600000      22.18400000
 H      10.78700000      27.18000000      22.87500000
 O       6.76600000      27.37600000      16.12500000
 H       7.23500000      26.52300000      15.76400000
 H       6.12800000      27.48400000      15.47600000
 O      10.63700000      30.41500000      20.66400000
 H       9.68100000      30.27000000      20.71700000
 H      10.76900000      30.91700000      19.81500000
 O       7.12100000      26.16900000      20.80400000
 H       6.62800000      26.88000000      20.28100000
 H       7.76500000      25.88500000      20.10100000
 O       7.99300000      30.18000000      24.12400000
 H       8.14400000      29.30100000      23.77900000
 H       7.04500000      30.27000000      24.43600000
 O      14.93800000      27.97300000      16.55400000
 H      14.19500000      28.59600000      16.85800000
 H      15.70600000      28.04700000      17.20600000
 O      11.89500000      26.04800000      26.15500000
 H      11.03000000      26.47800000      25.71900000
 H      12.05100000      26.65300000      26.92500000
 O      13.75100000      30.66100000      21.80900000
 H      14.02300000      30.08100000      22.56800000
 H      13.02700000      30.25600000      21.40600000
 O      12.39700000      26.07600000      18.33300000
 H      13.28000000      25.60100000      18.55600000
 H      12.67400000      27.04200000      18.57800000
 O      13.84000000      28.49900000      19.27100000
 H      14.46700000      27.87900000      19.74700000
 H      13.86800000      29.24400000      19.95300000
 O      14.28500000      28.04500000      26.76600000
 H      13.67100000      28.35200000      26.08100000
 H      14.61500000      28.81400000      27.25700000
 O      11.45000000      29.11000000      23.94400000
 H      11.41200000      29.46900000      24.83300000
 H      11.39700000      29.89200000      23.30600000
 O       7.80100000      29.82900000      20.69000000
 H       7.24700000      29.76000000      19.91100000
 H       7.16900000      29.99500000      21.46700000
 O      15.12900000      27.61600000      21.55000000
 H      16.09300000      27.59700000      21.77000000
 H      14.65600000      27.30000000      22.33700000
 O      14.45700000      30.72600000      25.13200000
 H      14.93800000      31.51100000      24.87400000
 H      15.08500000      30.20100000      25.57700000
 O       6.88900000      30.31700000      16.73000000
 H       6.64700000      29.49400000      16.32400000
 H       7.80400000      30.35200000      16.62700000
 O       9.77300000      28.56300000      18.11400000
 H      10.12000000      28.81200000      18.94600000
 H      10.25700000      27.72600000      17.95500000
 O       7.34100000      27.57600000      23.07200000
 H       6.45100000      27.29900000      23.44400000
 H       7.37100000      26.92000000      22.33200000
 O       6.90000000      28.03300000      18.62800000
 H       6.72000000      27.71800000      17.67400000
 H       7.80700000      28.27000000      18.61300000
 O      15.69900000      36.04500000      20.65400000
 H      15.00900000      36.52400000      21.11800000
 H      15.33300000      36.08600000      19.73200000
 O       9.67700000      36.58700000      19.29500000
 H      10.03200000      36.68200000      20.20400000
 H       8.70100000      36.64900000      19.30100000
 O      14.25500000      32.68100000      17.53500000
 H      13.38500000      33.21100000      17.68900000
 H      14.28300000      31.97400000      18.26800000
 O      12.15900000      34.19500000      19.08000000
 H      11.84300000      34.73600000      18.34800000
 H      12.13600000      34.66700000      19.92400000
 O       8.04500000      37.06000000      24.65000000
 H       8.23600000      37.50600000      25.52100000
 H       8.28600000      36.11500000      24.74600000
 O      12.22000000      34.87700000      16.10900000
 H      12.19500000      35.73100000      15.52600000
 H      12.15900000      34.17800000      15.42100000
 O       4.84600000      33.81200000      18.24400000
 H       5.44600000      34.59600000      18.04200000
 H       5.29700000      33.03800000      17.80800000
 O       9.83700000      36.71900000      16.51100000
 H      10.76600000      36.93600000      16.28300000
 H       9.91800000      36.73900000      17.49400000
 O      12.57700000      34.74100000      24.87000000
 H      12.86200000      35.41800000      25.53100000
 H      12.85400000      33.87900000      25.21500000
 O      12.57600000      35.16900000      22.13800000
 H      12.43900000      35.11800000      23.10300000
 H      12.95200000      34.40300000      21.75900000
 O      15.09100000      34.30000000      15.32600000
 H      14.95900000      35.30700000      15.24400000
 H      14.49200000      34.04300000      16.10900000
 O       9.85700000      37.81400000      22.36300000
 H       9.66200000      36.89800000      22.19300000
 H      10.01900000      37.84100000      23.31600000
 O       9.56500000      33.25400000      16.96000000
 H       9.60000000      32.41300000      17.46600000
 H      10.25400000      33.88200000      17.30800000
 O      16.53700000      32.90600000      21.07300000
 H      15.59700000      32.73900000      20.74300000
 H      16.49100000      33.56800000      21.91300000
 O       8.64600000      35.35400000      22.01700000
 H       7.88100000      34.77800000      22.38500000
 H       9.21500000      34.69800000      21.55800000
 O       7.16800000      35.33000000      19.36900000
 H       7.41800000      35.63600000      20.30700000
 H       6.31500000      34.83900000      19.51000000
 O       7.06500000      35.54100000      16.54900000
 H       7.85300000      36.15600000      16.58300000
 H       7.50800000      34.74900000      16.83400000
 O       5.75700000      34.13200000      21.53100000
 H       5.30200000      33.96700000      22.42700000
 H       5.33900000      33.42500000      20.92300000
 O      10.78400000      37.28400000      25.71900000
 H      10.60800000      36.30700000      25.88400000
 H      10.39100000      37.75400000      26.39400000
 O       5.86200000      37.06600000      21.23000000
 H       5.63600000      37.92800000      21.56800000
 H       5.52300000      36.47600000      21.99700000
 O      15.28300000      34.82000000      23.86100000
 H      15.99700000      35.25700000      24.37300000
 H      15.10900000      35.45000000      23.12400000
