169
XYZ file of cluster: frame_11500_46985.65fcc.6fdc3 - created by MolEdiTo
 O      16.22200000      17.10700000      21.50400000
 H      16.70900000      17.84000000      21.87300000
 H      16.15600000      17.40400000      20.51500000
 O      17.44300000      19.92100000      19.08500000
 H      17.10600000      20.62300000      18.53100000
 H      16.63800000      19.47300000      19.48900000
 O      15.38700000      21.96500000      20.60700000
 H      16.29600000      21.88800000      20.95000000
 H      15.51700000      22.24100000      19.67400000
 O      13.84900000      26.02500000      23.93900000
 H      13.16200000      26.10400000      24.70400000
 H      14.68100000      26.23900000      24.40000000
 O      14.01400000      23.94500000      16.80600000
 H      13.85900000      24.71000000      16.14500000
 H      13.11900000      23.78700000      17.21000000
 O      18.87300000      16.35800000      22.75400000
 H      19.37400000      16.63100000      21.89800000
 H      19.33300000      15.52100000      22.86500000
 O      15.08500000      18.55000000      19.19700000
 H      14.37200000      19.18100000      18.84500000
 H      15.26500000      17.95600000      18.38900000
 O      12.60600000      19.56100000      24.99700000
 H      12.41500000      19.70500000      25.94100000
 H      12.75800000      18.62600000      24.94000000
 O      19.32900000      20.95200000      25.02600000
 H      18.58100000      20.81700000      25.68300000
 H      19.56400000      20.00500000      24.82400000
 O      21.20000000      22.70200000      24.39500000
 H      20.46200000      22.08900000      24.38200000
 H      21.19600000      23.04300000      25.31300000
 O      21.83200000      19.10000000      21.66600000
 H      21.02700000      19.46600000      21.29700000
 H      22.33400000      18.73500000      20.82200000
 O      16.57800000      26.72300000      18.87500000
 H      17.47200000      26.34700000      18.86000000
 H      16.68700000      27.72300000      18.67500000
 O      19.69600000      21.08900000      20.09900000
 H      19.08100000      20.36500000      19.78400000
 H      19.17300000      21.54200000      20.84000000
 O      20.01800000      18.45600000      24.47900000
 H      20.98400000      18.44800000      24.74200000
 H      19.71300000      17.51300000      24.45900000
 O      16.10000000      24.53100000      21.76400000
 H      16.93600000      24.98300000      21.91000000
 H      15.45200000      24.92400000      22.40500000
 O      15.94500000      19.95700000      24.74900000
 H      14.98700000      19.75600000      24.80800000
 H      16.30600000      19.36500000      23.99500000
 O      17.67700000      16.95700000      25.77600000
 H      17.23400000      17.86600000      25.93400000
 H      17.11800000      16.49800000      25.07300000
 O      11.05100000      19.59100000      20.91300000
 H      11.38800000      19.50700000      20.01200000
 H      11.56000000      20.37000000      21.21400000
 O      11.72200000      17.17700000      19.05000000
 H      12.26500000      17.03700000      19.89900000
 H      12.06300000      18.06700000      18.67300000
 O      19.32700000      27.40200000      24.78500000
 H      20.12000000      27.91800000      24.60400000
 H      19.59000000      26.47100000      24.66400000
 C      17.62200000      16.60300000      16.25300000
 C      16.45700000      16.11400000      15.29200000
 C      14.60100000      14.36100000      15.08300000
 H      16.09200000      14.46700000      16.68900000
 H      18.59500000      17.07000000      14.67600000
 O      14.73600000      16.04300000      17.06800000
 O      17.41000000      16.90500000      17.41900000
 O      18.71100000      17.19800000      15.66900000
 C      15.48800000      15.21200000      16.08600000
 O      15.70800000      17.19000000      14.73900000
 H      16.96300000      15.62300000      14.48300000
 O      14.90300000      13.29500000      14.65400000
 O      13.31900000      14.75100000      14.95600000
 H      13.43700000      15.66000000      15.33300000
 H      15.50500000      17.81300000      15.43100000
 H      14.64300000      15.40000000      17.90000000
 O      16.82000000      21.80100000      26.56300000
 H      16.66800000      21.16400000      25.81100000
 H      16.01900000      21.74800000      27.18200000
 O      10.02100000      25.48200000      19.78000000
 H      10.14200000      26.01000000      20.66700000
 H      10.87700000      25.66600000      19.22700000
 O      19.51500000      25.07500000      21.20700000
 H      18.73800000      25.32400000      21.87800000
 H      20.08300000      24.43400000      21.65800000
 O      14.71700000      24.77900000      19.50000000
 H      15.40800000      25.40500000      19.20900000
 H      15.15600000      24.40700000      20.33400000
 O      21.31200000      17.27800000      16.89200000
 H      21.47700000      16.33600000      16.68100000
 H      20.76600000      17.47400000      16.14200000
 O      15.87900000      24.72900000      25.38300000
 H      15.90000000      24.72200000      26.34700000
 H      15.03100000      24.14100000      25.19000000
 O      11.89500000      26.04800000      26.15500000
 H      11.03000000      26.47800000      25.71900000
 H      12.05100000      26.65300000      26.92500000
 O       9.89800000      15.42700000      16.51600000
 H      10.77500000      15.80600000      16.28000000
 H       9.17900000      16.03000000      16.27800000
 O      12.39700000      26.07600000      18.33300000
 H      13.28000000      25.60100000      18.55600000
 H      12.67400000      27.04200000      18.57800000
 O      12.77900000      22.02300000      19.83100000
 H      12.66100000      22.94700000      20.13200000
 H      13.75800000      21.90000000      20.11200000
 O      13.67600000      16.95000000      24.35600000
 H      12.99200000      16.27500000      24.42900000
 H      14.18900000      16.65000000      25.17000000
 O      19.42500000      20.05100000      16.05200000
 H      19.65400000      19.23000000      16.61200000
 H      20.29400000      20.51500000      16.10700000
 O      17.56600000      22.00500000      22.11500000
 H      16.85000000      22.70700000      22.18700000
 H      18.12000000      22.36100000      22.77200000
 O      12.54500000      17.30800000      15.16000000
 H      13.03300000      17.80000000      14.45600000
 H      12.78300000      17.70600000      16.01200000
 O      10.92900000      22.80000000      16.74100000
 H      10.89800000      23.50200000      16.07000000
 H      11.68900000      22.19700000      16.61700000
 O      13.66600000      22.83800000      24.94500000
 H      13.70700000      21.94400000      24.64400000
 H      12.76500000      23.03700000      25.00300000
 O      17.57400000      22.46600000      15.27300000
 H      18.35300000      22.92700000      15.65500000
 H      17.57900000      21.71300000      15.90200000
 O      19.88700000      26.41500000      18.58300000
 H      20.29900000      25.49600000      18.55500000
 H      19.90600000      26.68000000      19.57800000
 O      11.15900000      24.30400000      23.52300000
 H      10.42900000      23.95000000      22.95700000
 H      11.88900000      24.53200000      22.82800000
 O      18.42600000      24.14400000      23.96100000
 H      19.10900000      24.21000000      24.72900000
 H      17.56400000      24.09900000      24.47700000
 O      13.35700000      17.19500000      21.64400000
 H      13.53600000      17.09600000      22.61900000
 H      14.31500000      17.27300000      21.30000000
 O      10.54600000      16.67200000      22.65300000
 H       9.89800000      17.25500000      23.20500000
 H      10.92900000      17.31100000      21.94200000
 O      17.32700000      19.34500000      22.42800000
 H      17.48200000      20.29400000      22.26100000
 H      18.17700000      19.04700000      22.52200000
 O      11.87700000      19.80600000      18.13400000
 H      12.08700000      20.68500000      18.46000000
 H      11.12200000      19.92200000      17.64300000
 O      10.70000000      23.22800000      26.07700000
 H      10.93800000      23.63400000      25.18100000
 H      10.49100000      23.99200000      26.67000000
 O      19.65500000      17.99400000      20.16700000
 H      19.02700000      18.30000000      19.50300000
 H      20.23700000      17.38800000      19.64000000
 O      18.18600000      23.35200000      19.24100000
 H      18.89200000      22.67100000      19.32000000
 H      18.53300000      24.21500000      19.69900000
 O      19.27500000      24.33900000      16.19000000
 H      19.38500000      23.94900000      17.11000000
 H      20.00700000      25.02000000      16.13400000
 O      16.21600000      22.28500000      17.74400000
 H      15.64500000      22.95300000      17.28200000
 H      16.91500000      22.90500000      18.20100000
 O      14.97500000      19.66700000      16.47500000
 H      15.58800000      20.40200000      16.80900000
 H      14.16700000      20.21300000      16.14500000
 O      12.67500000      24.82800000      21.21200000
 H      13.23400000      25.48700000      21.71000000
 H      13.11400000      24.76700000      20.36100000
