102
XYZ file of cluster: frame_11500_c3597.c017a.c2d59 - created by MolEdiTo
 O      27.67900000      25.78200000      29.29700000
 H      27.58500000      26.54700000      29.89800000
 H      27.66400000      25.04100000      29.91600000
 O      28.22000000      27.36400000      26.10100000
 H      28.93200000      27.14500000      25.39900000
 H      28.18000000      26.61400000      26.72600000
 O      28.85300000      29.51600000      28.27900000
 H      29.05100000      28.58000000      28.05700000
 H      28.22900000      29.44300000      29.10100000
 O      27.44500000      30.42400000      30.40600000
 H      27.99400000      31.00500000      29.82200000
 H      27.05900000      30.99800000      31.09400000
 O      30.12200000      26.86800000      28.73200000
 H      29.19900000      26.47000000      28.71200000
 H      30.70900000      26.11300000      28.56700000
 O      25.67100000      28.05000000      33.50100000
 H      25.40000000      27.95800000      32.59200000
 H      26.60900000      28.42100000      33.50700000
 O      27.10500000      27.30200000      36.11200000
 H      26.98400000      26.48500000      36.68300000
 H      26.51500000      27.21400000      35.34900000
 O      28.66300000      28.50100000      34.10600000
 H      29.46100000      27.95700000      33.82600000
 H      28.29900000      27.90500000      34.72700000
 O      28.79000000      35.83200000      29.22400000
 H      29.15700000      36.67100000      28.90800000
 H      27.86800000      36.03500000      29.24300000
 O      28.20000000      34.84200000      26.28100000
 H      28.00000000      33.97900000      25.90700000
 H      27.82400000      34.87400000      27.19200000
 O      28.98000000      37.84500000      26.59100000
 H      29.00100000      36.88500000      26.61400000
 H      29.61400000      38.24300000      27.19800000
 O      30.53500000      36.15700000      32.71100000
 H      29.69300000      35.97300000      32.27500000
 H      30.81800000      35.23900000      32.50500000
 O      30.02200000      35.23200000      36.23000000
 H      29.56100000      34.61400000      35.65100000
 H      29.38200000      35.41000000      36.95400000
 O      28.55700000      33.44400000      34.81000000
 H      28.17100000      32.86300000      35.40400000
 H      28.27400000      33.13600000      33.93300000
 O      33.12700000      29.96000000      27.06800000
 H      32.44600000      29.85600000      27.74800000
 H      32.56800000      30.09900000      26.30900000
 O      35.10500000      27.65800000      25.72600000
 H      34.56000000      27.12400000      26.35400000
 H      35.46300000      28.39800000      26.27800000
 O      36.93100000      29.84400000      27.38400000
 H      37.25000000      30.18800000      28.20800000
 H      36.34300000      30.54100000      26.97900000
 O      36.47500000      27.28300000      28.73800000
 H      35.72900000      26.72300000      28.45500000
 H      36.39100000      28.26000000      28.54400000
 O      34.95800000      29.82600000      29.76100000
 H      34.16500000      29.25100000      30.08000000
 H      34.58300000      30.66300000      29.38200000
 O      36.82200000      28.47500000      32.66800000
 H      36.01400000      29.03200000      32.87200000
 H      36.62200000      27.86800000      31.93500000
 O      33.92200000      27.20900000      35.75400000
 H      34.84800000      26.99600000      35.94100000
 H      33.62200000      26.32200000      35.49900000
 O      33.01400000      28.00200000      32.39200000
 H      33.35700000      27.06800000      32.64400000
 H      32.54000000      27.70900000      31.55100000
 O      36.49200000      26.60000000      36.50100000
 H      37.29900000      26.84400000      36.06900000
 H      36.78200000      25.98600000      37.19900000
 O      37.11000000      30.67700000      34.93900000
 H      36.31400000      30.18300000      34.58700000
 H      37.46200000      30.24100000      35.72900000
 O      34.64200000      29.82600000      34.21500000
 H      33.93600000      29.72200000      33.55200000
 H      34.15800000      29.25900000      34.83700000
 O      32.77800000      34.40000000      28.65700000
 H      31.91500000      34.81500000      28.90000000
 H      32.54400000      33.45100000      28.40500000
 O      35.82100000      37.96500000      26.38600000
 H      36.44100000      38.13900000      25.57500000
 H      36.12200000      37.05800000      26.66400000
 O      34.74400000      36.67300000      29.60800000
 H      34.83400000      36.18800000      30.46300000
 H      34.04900000      36.09600000      29.17900000
 O      34.97600000      33.66800000      25.99400000
 H      34.09000000      33.26000000      26.35200000
 H      34.61000000      34.06900000      25.17900000
 O      37.03000000      34.57300000      29.78800000
 H      37.26400000      35.08600000      30.62300000
 H      36.97300000      35.18900000      29.04900000
 O      32.81100000      37.69700000      35.00900000
 H      32.23000000      37.16300000      35.55500000
 H      32.75500000      37.12000000      34.23700000
 O      35.60300000      36.41800000      35.73300000
 H      34.89100000      37.09300000      35.63300000
 H      35.57800000      36.07500000      36.69800000
 O      35.07700000      34.99400000      33.39000000
 H      35.41700000      34.07600000      33.40800000
 H      34.71200000      35.16000000      34.27400000
 O      37.80500000      35.42100000      34.47600000
 H      37.67800000      34.49000000      34.75600000
 H      36.93200000      35.76900000      34.75100000
