126
XYZ file of cluster: frame_3000_72da1.3143.2386f - created by MolEdiTo
 O      22.52800000       7.56800000      12.83000000
 H      22.63300000       8.08500000      13.63400000
 H      21.61400000       7.73000000      12.50700000
 O      21.21000000       1.97500000      11.73200000
 H      21.54000000       2.60000000      12.35800000
 H      21.96000000       1.71900000      11.15900000
 O      24.97200000       4.85300000      11.01000000
 H      25.34700000       5.64600000      11.42400000
 H      25.26100000       4.90500000      10.06900000
 O      15.10200000       6.10400000       9.07300000
 H      16.05300000       6.13200000       9.19700000
 H      14.91600000       7.05600000       8.82700000
 O      19.13900000       4.99100000      14.57700000
 H      19.99700000       5.10700000      15.18500000
 H      18.93000000       4.02300000      14.55500000
 O      19.87100000      10.43200000       9.99800000
 H      20.35200000       9.99600000       9.27400000
 H      20.11400000       9.90800000      10.81800000
 O      19.93900000       7.04300000      12.39000000
 H      20.56300000       6.40000000      11.95000000
 H      19.24900000       6.53300000      12.82400000
 O      21.67200000      10.31100000      12.75000000
 H      22.01200000      11.22500000      12.59000000
 H      22.56100000       9.81900000      12.67800000
 O      25.17100000       8.96800000       5.59900000
 H      25.02100000       9.46700000       6.41100000
 H      24.55400000       9.28700000       4.90600000
 O      23.45200000       5.39200000       5.30400000
 H      23.67500000       6.29200000       5.25900000
 H      23.62600000       4.99900000       4.54500000
 O      15.84600000       6.15600000       5.94900000
 H      15.39800000       7.01500000       6.05600000
 H      15.35000000       5.49200000       6.55200000
 O      25.04200000       3.45900000       7.90300000
 H      24.59800000       2.70700000       7.50100000
 H      25.42200000       3.86500000       7.07400000
 O      15.39100000       9.07600000      13.44200000
 H      16.12900000       8.58800000      13.80500000
 H      14.77300000       8.34200000      13.28700000
 O      17.94000000       2.68300000      12.08500000
 H      17.17800000       3.29600000      12.10400000
 H      17.98100000       2.66400000      13.04400000
 O      17.26800000       9.78100000       8.32200000
 H      17.91800000      10.00900000       9.03700000
 H      17.07800000      10.50300000       7.66500000
 O      16.99400000       8.09300000      10.96400000
 H      17.23500000       8.87200000      11.46400000
 H      17.18100000       8.20100000      10.02300000
 O      21.85300000       9.00100000       4.72200000
 H      21.88500000       8.72400000       5.72600000
 H      20.87000000       8.77800000       4.54700000
 O      26.23300000       6.75200000       8.74500000
 H      26.42100000       7.65500000       9.12000000
 H      25.26100000       6.89900000       8.75800000
 O      21.40700000       6.24800000       9.20700000
 H      21.57000000       5.32700000       9.39200000
 H      20.98200000       6.22300000       8.33500000
 O      26.36200000       4.20200000       5.55100000
 H      26.12000000       5.12200000       5.52700000
 H      27.18700000       4.26000000       6.10200000
 O      25.73300000       8.82100000      13.03800000
 H      25.85700000       8.51200000      13.96500000
 H      25.32500000       9.69300000      13.21000000
 O      17.37000000       7.31400000      14.54300000
 H      18.21400000       6.88300000      14.72600000
 H      17.13900000       7.50500000      15.48000000
 O      19.89200000       3.87500000      10.57500000
 H      19.22200000       3.66200000       9.95100000
 H      19.91300000       3.01900000      11.06900000
 O      17.90600000       6.04100000       9.22700000
 H      18.76200000       5.83300000       9.41500000
 H      17.79500000       6.23300000       8.23400000
 O      20.03900000       3.20900000       7.53300000
 H      20.51900000       2.36700000       7.42100000
 H      19.09900000       3.11000000       7.67800000
 O      19.53100000       7.64900000       5.04200000
 H      18.61000000       7.96200000       5.08000000
 H      19.62300000       6.68300000       5.38100000
 O      23.86200000      10.60700000      11.04300000
 H      24.20200000       9.77700000      10.62600000
 H      23.84900000      11.31600000      10.36600000
 O      22.76300000       9.44700000      15.17500000
 H      23.62300000       9.68700000      15.58900000
 H      22.14500000      10.15400000      15.35800000
 O      23.63200000       7.79300000      10.39700000
 H      23.40700000       7.72800000      11.44100000
 H      22.93400000       7.14700000      10.12800000
 O      16.82100000       5.17100000      11.61300000
 H      16.70000000       5.43200000      10.72000000
 H      16.79900000       6.09000000      12.01400000
 O      21.88400000       8.93200000       7.92800000
 H      22.69300000       9.51900000       7.81300000
 H      22.12600000       8.32800000       8.74500000
 O      16.01400000       4.35100000      14.29600000
 H      16.76800000       4.13400000      14.91000000
 H      16.51100000       4.66700000      13.46700000
 O      24.28300000       1.48400000      13.54600000
 H      25.17900000       1.38800000      13.05300000
 H      24.17700000       0.61500000      14.08500000
 O      22.35900000       4.64600000      12.09400000
 H      23.31300000       4.74100000      11.82700000
 H      21.86000000       4.32000000      11.28200000
 O      22.60400000       5.62400000      14.88000000
 H      22.71000000       6.01400000      14.01700000
 H      22.57300000       4.73100000      14.65900000
 O      17.79800000       2.38300000      15.45500000
 H      17.33800000       2.61300000      16.33800000
 H      18.78400000       2.21800000      15.60600000
 O      21.88200000       2.66400000      14.56000000
 H      21.05900000       2.16000000      14.46800000
 H      22.66300000       2.31700000      14.06400000
 O      24.02100000       1.97700000      10.64500000
 H      24.76300000       2.42000000      11.07000000
 H      24.26400000       1.92200000       9.72900000
 O      19.63100000       9.28800000      14.45500000
 H      19.24300000       8.51800000      14.00600000
 H      20.33500000       9.64200000      13.87200000
 O      17.93300000       2.37300000       9.17000000
 H      17.39300000       1.55500000       8.97200000
 H      17.82500000       2.35400000      10.16600000
 O      20.49100000       5.30000000       5.74700000
 H      20.38000000       4.44200000       6.22300000
 H      21.49700000       5.38900000       5.85600000
 O      24.27100000       0.85200000       7.36300000
 H      23.68200000       0.39700000       8.08000000
 H      23.60400000       0.83400000       6.61400000
