111
XYZ file of cluster: frame_3000_ca02d.c7e3c.4ad27 - created by MolEdiTo
 O      28.19900000      27.20100000      20.56300000
 H      27.34100000      27.40300000      21.00700000
 H      28.81900000      27.63400000      21.16900000
 O      29.44500000      29.01900000      18.38200000
 H      29.05100000      28.45700000      19.10600000
 H      29.32100000      29.95500000      18.67300000
 O      27.20100000      28.82100000      14.41300000
 H      26.88700000      29.13900000      13.60000000
 H      26.40300000      28.56200000      14.95200000
 O      29.04300000      27.78600000      11.41800000
 H      28.11600000      28.08000000      11.15500000
 H      29.38500000      28.59400000      11.70000000
 O      26.47100000      29.15700000      17.19300000
 H      27.32600000      28.81100000      17.24400000
 H      26.02900000      28.56900000      17.73300000
 O      26.57000000      29.25300000      11.37500000
 H      25.98400000      29.22500000      10.58800000
 H      26.77800000      30.22900000      11.48700000
 O      29.64000000      27.30200000      14.52400000
 H      28.75500000      27.67900000      14.18000000
 H      29.36500000      26.36900000      14.62000000
 O      26.33100000      26.02000000      11.22900000
 H      27.19700000      25.77500000      11.60200000
 H      26.52100000      26.47900000      10.40700000
 O      30.44600000      32.84700000      20.26800000
 H      29.45400000      32.90700000      20.49500000
 H      30.60000000      33.61100000      19.72500000
 O      26.70800000      33.52000000      11.70900000
 H      27.08200000      34.31400000      12.11500000
 H      26.72300000      33.72100000      10.68000000
 O      30.33400000      32.68300000      11.30300000
 H      30.60500000      31.89600000      10.80400000
 H      30.06800000      32.26300000      12.14000000
 O      30.41400000      35.77300000      15.70700000
 H      29.47600000      35.69700000      15.56500000
 H      30.76200000      36.18000000      14.90200000
 O      28.46800000      35.89600000      12.52500000
 H      27.72900000      36.46300000      12.52900000
 H      28.93500000      36.19600000      11.68600000
 O      29.67800000      35.20700000      18.64600000
 H      30.03800000      35.38300000      17.72700000
 H      29.02200000      34.42700000      18.50000000
 O      28.98300000      32.91100000      14.27900000
 H      29.08200000      33.90800000      14.21400000
 H      28.09100000      32.75300000      14.63200000
 O      27.12000000      36.10300000      19.47700000
 H      28.04700000      36.13100000      19.18100000
 H      27.16200000      36.22300000      20.45000000
 O      27.84300000      32.73800000      18.25700000
 H      27.01400000      32.89000000      18.83200000
 H      27.44900000      32.14100000      17.62200000
 O      27.69300000      35.63000000      15.58500000
 H      27.20000000      35.94600000      16.38500000
 H      27.22700000      35.88900000      14.76600000
 O      32.78000000      28.42700000      16.54200000
 H      32.23200000      28.55800000      17.37300000
 H      32.19700000      27.97200000      15.91700000
 O      35.13600000      27.75000000      18.22400000
 H      34.49200000      27.60400000      17.52100000
 H      36.01200000      27.69500000      17.75600000
 O      32.88100000      26.39900000      19.85900000
 H      33.44700000      27.18400000      19.65700000
 H      32.25800000      26.70000000      20.54100000
 O      34.80300000      27.92200000      13.65800000
 H      34.47400000      27.96100000      12.74800000
 H      35.41200000      28.63400000      13.69300000
 O      36.57600000      27.83800000      20.67600000
 H      36.15700000      27.50800000      21.49200000
 H      36.04000000      27.56800000      19.93900000
 O      34.81000000      30.38900000      15.84900000
 H      34.15700000      29.69500000      16.17200000
 H      35.47100000      30.19500000      16.53400000
 O      33.76600000      27.78200000      11.00300000
 H      33.76000000      28.06300000      10.01000000
 H      32.86300000      28.03800000      11.34800000
 O      35.63900000      26.01800000      15.38700000
 H      35.19000000      26.73000000      14.90400000
 H      36.63300000      26.18800000      15.26300000
 O      34.72500000      30.12100000      20.94900000
 H      35.59500000      30.60500000      21.11700000
 H      34.72600000      29.84900000      20.03300000
 O      32.29000000      29.56500000      13.36900000
 H      32.09300000      28.74400000      13.86700000
 H      32.16300000      30.32400000      13.99500000
 O      33.67200000      37.23800000      10.07900000
 H      33.43800000      36.84900000      10.96200000
 H      33.86500000      36.37000000       9.57200000
 O      32.69000000      35.59400000      12.27100000
 H      31.83500000      35.69200000      12.75700000
 H      33.34500000      34.93800000      12.64400000
 O      36.51700000      36.13600000      12.42100000
 H      36.55000000      36.75800000      11.63100000
 H      36.34900000      36.84300000      13.05700000
 O      34.67300000      33.48200000      11.39300000
 H      34.68800000      33.23100000      12.36700000
 H      33.75800000      33.76100000      11.26600000
 O      34.22300000      34.14300000      14.46500000
 H      34.16300000      34.75100000      15.19900000
 H      34.38600000      33.32000000      15.03400000
 O      36.12500000      37.08000000      18.98500000
 H      37.06200000      36.70200000      19.12200000
 H      35.54100000      36.37600000      19.23200000
 O      35.43500000      33.67100000      18.25900000
 H      34.56700000      33.84600000      17.92500000
 H      36.04700000      33.96400000      17.55100000
 O      35.36100000      37.48100000      15.17200000
 H      35.79400000      36.65900000      15.54800000
 H      35.84800000      38.31000000      15.54800000
 O      33.27500000      35.86900000      20.39000000
 H      33.01600000      36.62000000      20.89100000
 H      32.59200000      35.83500000      19.66200000
