117
XYZ file of cluster: frame_3000_c1d11.4a01f.9ee62 - created by MolEdiTo
 O      25.41000000      20.20300000      24.22100000
 H      26.23800000      19.82900000      24.55600000
 H      24.93000000      20.59900000      24.94000000
 O      28.10800000      16.17600000      27.61800000
 H      27.39700000      15.61000000      27.95900000
 H      28.88600000      16.09300000      28.23400000
 O      30.23700000      15.66100000      20.85100000
 H      29.73500000      16.46100000      20.75300000
 H      29.74900000      15.16600000      21.61200000
 O      26.12000000      14.53700000      25.89200000
 H      26.19700000      14.16600000      26.78400000
 H      26.54100000      15.49700000      25.94300000
 O      28.27800000      20.38400000      30.32000000
 H      28.01700000      21.14000000      30.94500000
 H      28.68700000      20.61300000      29.46800000
 O      29.31000000      17.37200000      25.16100000
 H      29.12900000      17.15000000      26.09100000
 H      29.82000000      16.56300000      24.86500000
 O      27.79700000      11.11200000      21.50900000
 H      27.23600000      11.37300000      22.28400000
 H      27.80700000      11.85300000      20.95300000
 O      30.23200000      14.83200000      24.58500000
 H      29.63600000      14.35800000      25.25300000
 H      30.44900000      14.05800000      23.96400000
 O      26.95200000      12.44300000      23.96500000
 H      27.84100000      12.17400000      24.23200000
 H      26.66100000      12.97900000      24.70700000
 O      28.25900000      17.62300000      30.31200000
 H      28.49700000      17.73200000      29.38700000
 H      28.25800000      18.56500000      30.56300000
 O      28.56500000      20.77400000      20.84200000
 H      27.82700000      21.12700000      21.44100000
 H      29.21000000      21.47700000      20.74300000
 O      28.06900000      20.08700000      25.40000000
 H      28.69200000      19.36400000      25.23100000
 H      27.91200000      20.15400000      26.36900000
 O      26.14600000      16.83700000      22.49600000
 H      26.77700000      16.53500000      23.17200000
 H      26.69900000      17.20600000      21.82300000
 O      29.05300000      18.06000000      21.28200000
 H      28.71900000      18.79900000      21.82400000
 H      29.60600000      18.50000000      20.56900000
 O      27.66700000      14.15200000      21.86800000
 H      27.19000000      14.95900000      21.77600000
 H      27.21500000      13.70400000      22.66800000
 O      30.36600000      10.49900000      21.24300000
 H      30.66400000       9.54300000      21.23300000
 H      29.54800000      10.46400000      21.77900000
 O      29.17900000      12.21600000      26.16100000
 H      28.85700000      11.26200000      26.13400000
 H      30.04100000      11.96400000      26.39200000
 O      26.32200000      20.18400000      28.15700000
 H      26.40100000      19.37000000      28.74200000
 H      25.81300000      19.86700000      27.42700000
 O      36.03300000      17.98200000      22.92600000
 H      35.72500000      18.38900000      23.81100000
 H      35.40300000      17.32300000      22.57700000
 O      33.77400000      18.65300000      29.73100000
 H      34.66300000      18.27300000      29.91200000
 H      33.48500000      17.94000000      29.15300000
 O      35.57400000      15.14300000      27.94200000
 H      35.69300000      16.10700000      27.58300000
 H      34.96100000      14.68500000      27.26800000
 O      33.23200000      13.24000000      27.62000000
 H      32.57600000      12.52900000      27.69900000
 H      33.94800000      12.78100000      28.00400000
 O      35.85300000      13.01800000      21.33600000
 H      36.48100000      12.24700000      21.50200000
 H      35.71000000      12.87400000      20.32800000
 O      33.01600000      20.00700000      24.55300000
 H      32.48700000      20.06900000      25.35300000
 H      33.13400000      19.04100000      24.25800000
 O      32.52300000      10.42400000      28.72800000
 H      32.19200000      10.54400000      29.68200000
 H      33.10300000       9.62000000      28.83800000
 O      36.00300000      11.88200000      27.86000000
 H      35.58600000      11.09000000      28.31100000
 H      35.85400000      11.63500000      26.93000000
 O      35.71900000      14.21500000      23.92800000
 H      35.59300000      14.19300000      22.91900000
 H      35.97900000      13.26000000      24.09900000
 O      34.39000000      16.11200000      21.65800000
 H      33.42400000      16.01900000      21.59400000
 H      34.64500000      15.50300000      20.92300000
 O      33.86400000      15.62100000      25.55700000
 H      32.94000000      15.39700000      25.31200000
 H      34.48800000      15.08800000      24.98200000
 O      33.03600000      16.38000000      28.20700000
 H      33.15600000      16.34000000      27.18600000
 H      33.67300000      15.69400000      28.41600000
 O      36.42300000      17.95000000      29.67500000
 H      36.42000000      17.18000000      29.11400000
 H      36.88700000      18.64300000      29.15300000
 O      32.75900000      20.09000000      27.42200000
 H      32.75300000      21.01500000      27.82900000
 H      32.96500000      19.61900000      28.21900000
 O      35.16300000      11.75500000      25.30600000
 H      35.29700000      10.94300000      24.80300000
 H      34.22000000      11.77900000      25.44900000
 O      35.16300000      21.05800000      22.48000000
 H      34.78200000      20.71700000      23.31200000
 H      35.56000000      20.36000000      21.90600000
 O      37.21000000      16.83900000      20.52200000
 H      37.09700000      17.79200000      20.37300000
 H      36.31400000      16.60800000      20.85500000
 O      36.51400000      16.96400000      26.57200000
 H      36.40300000      17.91100000      26.25100000
 H      37.28100000      16.72700000      26.01300000
 O      32.25000000      13.88500000      30.35100000
 H      33.19900000      13.83000000      30.81600000
 H      32.72900000      14.14900000      29.54000000
 O      32.40500000      12.82200000      22.86800000
 H      32.47400000      11.96900000      23.35500000
 H      32.14800000      12.63000000      21.86400000
 O      35.85500000      19.50800000      25.25800000
 H      34.90300000      19.60300000      25.51300000
 H      36.22100000      20.35500000      25.54200000
