120
XYZ file of cluster: frame_3000_0.9dd35.260b5 - created by MolEdiTo
 O       7.03400000      29.28100000       7.10100000
 H       7.00600000      28.83100000       6.21900000
 H       7.97300000      29.37800000       7.30300000
 O       5.50600000      23.42900000       9.21600000
 H       5.76200000      22.60100000       9.62400000
 H       6.26500000      23.98200000       9.34900000
 O      10.37300000      24.87700000      11.55200000
 H      11.15700000      24.68800000      10.96600000
 H       9.65400000      25.09000000      10.91600000
 O       5.63600000      25.38400000       5.85600000
 H       5.87500000      26.27300000       6.08700000
 H       6.15400000      24.85300000       6.51100000
 O       3.64000000      28.89100000       6.06300000
 H       3.22100000      29.63200000       5.65900000
 H       3.33600000      29.01300000       6.95200000
 O       8.70700000      21.62000000      12.93900000
 H       9.44100000      20.97300000      13.11300000
 H       8.12700000      21.41900000      13.71600000
 O       3.68500000      22.04200000       5.00300000
 H       4.44100000      22.25100000       5.55300000
 H       2.94600000      22.27300000       5.51300000
 O       6.55700000      21.96400000      11.33900000
 H       6.38000000      22.83500000      11.81400000
 H       7.43300000      21.67000000      11.70200000
 O       7.15100000      26.34700000      14.63000000
 H       7.67800000      26.84900000      15.26700000
 H       7.39300000      26.66300000      13.71000000
 O       5.06400000      27.53900000       8.53400000
 H       5.13200000      28.55100000       8.36700000
 H       4.55100000      27.12800000       7.75400000
 O       8.85700000      30.12300000      13.16100000
 H       9.72800000      30.58900000      13.30000000
 H       8.25100000      30.80000000      12.79000000
 O       7.26700000      26.41300000      10.65000000
 H       6.54600000      26.43000000       9.91100000
 H       7.90900000      27.07600000      10.38200000
 O      10.60200000      27.26100000       8.82400000
 H       9.93000000      27.90100000       9.18900000
 H      11.37000000      27.79900000       8.88800000
 O       2.94700000      22.75200000      15.56100000
 H       2.39800000      23.07100000      16.30800000
 H       2.41800000      23.05200000      14.84500000
 O       8.91600000      29.10600000      10.06700000
 H       8.17900000      29.75100000       9.90800000
 H       9.38300000      29.45700000      10.86500000
 O       9.28400000      27.36100000       5.70800000
 H       9.41300000      27.30700000       6.68100000
 H       9.46100000      28.30600000       5.54800000
 O      10.62400000      30.78900000       7.98800000
 H      11.52700000      30.75200000       8.29000000
 H      10.23600000      31.28700000       8.78700000
 O       5.62700000      23.18700000      14.44900000
 H       4.94600000      23.10600000      15.23500000
 H       6.05000000      24.05900000      14.74200000
 O       8.56600000      25.69500000       7.80900000
 H       9.39300000      25.95000000       8.27900000
 H       8.63000000      24.83300000       7.42100000
 O       1.96700000      23.22400000       7.09300000
 H       1.14100000      23.01900000       6.61200000
 H       1.94300000      24.21800000       7.15900000
 O       6.56200000      30.58400000      15.03500000
 H       6.39800000      31.17700000      14.25100000
 H       7.36300000      31.02100000      15.41300000
 O      10.34300000      23.11700000      14.70000000
 H       9.63200000      22.49900000      14.49900000
 H      10.37900000      23.57000000      13.85900000
 O       9.95000000      27.99500000      14.52500000
 H      10.68200000      28.63600000      14.54900000
 H       9.17000000      28.61700000      14.24000000
 O       5.00200000      25.08700000      12.05500000
 H       5.11600000      24.71400000      12.96600000
 H       5.78400000      25.61800000      11.88300000
 O       3.63100000      22.31000000      12.55800000
 H       4.31000000      22.39800000      11.83700000
 H       4.17300000      22.38900000      13.39500000
 O       1.26200000      23.38200000      12.02200000
 H       1.05100000      23.04700000      11.12100000
 H       2.14600000      22.90400000      12.10600000
 O       4.23600000      26.01800000      15.38700000
 H       3.78700000      26.73000000      14.90400000
 H       5.23000000      26.18800000      15.26300000
 O       8.30900000      23.19900000       6.46800000
 H       7.62500000      22.91700000       5.86400000
 H       8.74100000      22.42000000       6.93200000
 O       6.46600000      29.59900000      11.48400000
 H       6.54200000      28.64300000      11.46900000
 H       6.75400000      29.90400000      12.37600000
 O       0.88700000      29.56500000      13.36900000
 H       0.69000000      28.74400000      13.86700000
 H       0.76000000      30.32400000      13.99500000
 O       0.80000000      22.02600000       9.44800000
 H       1.30800000      22.17300000       8.58700000
 H       0.00000000      22.62500000       9.42800000
 O       9.82800000      29.96300000       5.43700000
 H       9.82000000      30.72900000       4.86700000
 H      10.09300000      30.21200000       6.33600000
 O       3.17300000      25.42900000       9.83000000
 H       3.99600000      24.91000000       9.96900000
 H       3.07300000      26.12000000      10.51000000
 O       3.40000000      27.92200000      13.65800000
 H       3.07100000      27.96100000      12.74800000
 H       4.00900000      28.63400000      13.69300000
 O       0.76100000      29.20900000       9.15500000
 H       0.49600000      29.56600000       8.27900000
 H       0.41800000      28.32400000       9.11400000
 O       3.61800000      20.35300000       7.70400000
 H       4.10000000      21.23700000       7.69500000
 H       2.81000000      20.35100000       7.13600000
 O       3.57400000      30.19800000       8.48200000
 H       2.76700000      30.43800000       9.10900000
 H       4.18400000      30.87700000       8.74300000
 O       1.33300000      24.50200000      14.27800000
 H       1.92600000      25.21300000      14.16000000
 H       1.26500000      24.19000000      13.32900000
 O       9.93600000      22.47800000      10.28900000
 H       9.62000000      22.65800000      11.19300000
 H       9.83600000      21.53000000      10.31300000
 O       2.36300000      27.78200000      11.00300000
 H       2.35700000      28.06300000      10.01000000
 H       1.46000000      28.03800000      11.34800000
