135
XYZ file of cluster: frame_3000_73e2c.4af03.9e220 - created by MolEdiTo
 O      22.40100000      11.42500000      24.27600000
 H      23.25700000      11.12800000      24.00900000
 H      21.95400000      11.70800000      23.45800000
 O      22.79700000      19.15600000      23.32700000
 H      23.05100000      18.19800000      23.48900000
 H      23.73500000      19.52000000      23.22300000
 O      19.13000000      11.74400000      23.02700000
 H      18.49300000      11.46900000      22.34500000
 H      19.85300000      12.09800000      22.43800000
 O      24.64700000      13.69900000      21.40900000
 H      24.13100000      13.21900000      20.78900000
 H      24.13800000      13.50900000      22.32000000
 O      21.82600000      13.11900000      22.15200000
 H      22.23400000      12.80700000      21.35600000
 H      21.28600000      13.88200000      21.79500000
 O      17.83600000      14.82400000      23.08400000
 H      18.25800000      14.36800000      22.33800000
 H      18.53400000      15.46700000      23.32800000
 O      20.45900000      10.55200000      29.61200000
 H      19.77400000      10.88500000      30.26100000
 H      21.28500000      10.77800000      29.98100000
 O      20.19100000      20.60800000      29.81800000
 H      21.05400000      20.66100000      30.33100000
 H      20.33500000      20.73300000      28.83100000
 O      19.92800000      17.60600000      29.41200000
 H      20.71100000      17.92600000      28.79500000
 H      19.57900000      18.42900000      29.77000000
 O      20.34900000      14.85700000      30.00600000
 H      20.08100000      15.80500000      29.74600000
 H      20.43000000      14.31100000      29.15100000
 O      17.00600000      18.10600000      23.73300000
 H      16.96800000      17.30700000      23.17000000
 H      17.39000000      18.69400000      22.99200000
 O      26.32200000      20.18400000      28.15700000
 H      26.40100000      19.37000000      28.74200000
 H      25.81300000      19.86700000      27.42700000
 O      20.37000000      13.77200000      26.76000000
 H      20.87600000      12.89600000      26.69700000
 H      19.42600000      13.47300000      26.63000000
 O      25.41000000      20.20300000      24.22100000
 H      26.23800000      19.82900000      24.55600000
 H      24.93000000      20.59900000      24.94000000
 O      16.84300000      17.66900000      29.98800000
 H      17.08800000      17.00300000      29.35900000
 H      17.06300000      18.55600000      29.60800000
 O      26.12000000      14.53700000      25.89200000
 H      26.19700000      14.16600000      26.78400000
 H      26.54100000      15.49700000      25.94300000
 O      17.52500000      15.68700000      27.01900000
 H      16.57300000      15.70100000      27.20700000
 H      17.73700000      14.87000000      26.42600000
 O      25.18400000      17.28600000      26.27100000
 H      24.84800000      17.51600000      25.34800000
 H      24.40000000      17.35900000      26.80600000
 O      17.28400000      21.06900000      29.19900000
 H      18.24100000      20.93000000      28.98500000
 H      16.89800000      21.01000000      28.27300000
 O      24.93200000      10.93300000      26.61200000
 H      24.02100000      11.08200000      26.43200000
 H      24.94600000      10.58000000      27.51600000
 O      23.24300000      14.32200000      25.21000000
 H      24.17100000      14.18200000      25.45200000
 H      22.91600000      13.36500000      25.23600000
 O      22.86000000      20.07800000      26.42100000
 H      22.66100000      19.73900000      25.51600000
 H      23.03200000      21.05700000      26.22400000
 O      22.86300000      12.70100000      29.37000000
 H      22.66000000      12.32500000      28.47400000
 H      22.58900000      13.65100000      29.33700000
 O      17.65400000      13.32300000      25.59400000
 H      16.84300000      12.70400000      25.64800000
 H      17.95500000      12.89900000      24.73600000
 O      19.31200000      20.44400000      23.93300000
 H      19.26100000      19.47800000      24.09100000
 H      19.78600000      20.58600000      23.08300000
 O      22.20900000      11.21800000      27.06300000
 H      21.66900000      10.62700000      27.58400000
 H      22.10800000      10.85800000      26.12000000
 O      17.62600000      19.49100000      20.57500000
 H      18.51400000      19.76200000      20.23000000
 H      17.41300000      20.13000000      21.23900000
 O      24.88700000      10.61200000      23.49200000
 H      25.49700000       9.87000000      23.15100000
 H      25.47200000      11.41600000      23.61800000
 O      18.99900000      17.91100000      25.56200000
 H      18.68700000      17.45300000      26.37600000
 H      18.10800000      18.08100000      25.15200000
 O      22.48700000      15.41400000      28.00800000
 H      22.21300000      15.11500000      27.10600000
 H      22.00500000      16.19500000      28.23200000
 O      19.27500000      10.16600000      25.18500000
 H      19.12400000      10.87800000      24.59200000
 H      19.11900000      10.62300000      25.99900000
 O      23.83800000      16.65200000      23.90000000
 H      23.77800000      15.77600000      24.44700000
 H      24.53100000      16.67800000      23.17500000
 O      15.57700000      12.85900000      28.59400000
 H      14.90600000      12.76300000      27.94500000
 H      15.90700000      11.98300000      28.67400000
 O      22.50100000      18.79400000      28.89000000
 H      22.83400000      19.12700000      27.99200000
 H      23.25100000      18.45200000      29.36000000
 O      26.14600000      16.83700000      22.49600000
 H      26.77700000      16.53500000      23.17200000
 H      26.69900000      17.20600000      21.82300000
 O      15.39700000      15.58600000      23.94200000
 H      15.95200000      15.00300000      23.40700000
 H      15.15500000      14.95100000      24.66200000
 O      25.30800000      14.84000000      28.64100000
 H      24.87200000      14.29100000      29.37200000
 H      24.50800000      15.11600000      28.04600000
 O      16.02600000      10.54800000      21.25500000
 H      15.75700000       9.66300000      21.69600000
 H      15.71100000      11.10700000      21.97700000
 O      18.66000000      10.72500000      27.62700000
 H      19.23900000      10.92900000      28.37100000
 H      17.97600000      10.23100000      28.10400000
 O      16.20000000      20.29700000      26.64500000
 H      16.90700000      20.52000000      25.91900000
 H      15.62800000      19.63100000      26.21200000
 O      25.44700000      17.80200000      29.27700000
 H      25.23400000      17.72200000      30.26600000
 H      25.89400000      16.94000000      29.10200000
 O      20.38000000      17.63300000      22.57200000
 H      21.16000000      18.11800000      22.91000000
 H      20.19300000      17.00700000      23.31100000
 O      20.50000000      15.29600000      24.05300000
 H      21.43100000      15.36400000      23.89800000
 H      20.32800000      14.47700000      24.59500000
 O      25.08500000      10.80500000      29.40300000
 H      24.32500000      11.48500000      29.37400000
 H      24.76100000       9.88600000      29.55300000
 O      19.26600000      20.24600000      27.15500000
 H      19.36200000      19.31300000      27.45700000
 H      19.24700000      20.07100000      26.15300000
