123
XYZ file of cluster: frame_3000_2673d.98e2b.20909 - created by MolEdiTo
 O       7.03400000      29.28100000       7.10100000
 H       7.00600000      28.83100000       6.21900000
 H       7.97300000      29.37800000       7.30300000
 O       5.50600000      23.42900000       9.21600000
 H       5.76200000      22.60100000       9.62400000
 H       6.26500000      23.98200000       9.34900000
 O      11.53700000      28.81600000      11.76800000
 H      12.36200000      28.43700000      12.07800000
 H      10.99900000      28.06300000      11.43900000
 O      14.06500000      26.89600000       8.90000000
 H      14.40300000      26.04700000       9.26800000
 H      14.31100000      26.61100000       7.97600000
 O      10.37300000      24.87700000      11.55200000
 H      11.15700000      24.68800000      10.96600000
 H       9.65400000      25.09000000      10.91600000
 O       5.63600000      25.38400000       5.85600000
 H       5.87500000      26.27300000       6.08700000
 H       6.15400000      24.85300000       6.51100000
 O       8.70700000      21.62000000      12.93900000
 H       9.44100000      20.97300000      13.11300000
 H       8.12700000      21.41900000      13.71600000
 O       6.55700000      21.96400000      11.33900000
 H       6.38000000      22.83500000      11.81400000
 H       7.43300000      21.67000000      11.70200000
 O       7.15100000      26.34700000      14.63000000
 H       7.67800000      26.84900000      15.26700000
 H       7.39300000      26.66300000      13.71000000
 O      12.57300000      25.23200000      15.33600000
 H      12.99500000      25.52000000      14.50700000
 H      12.27000000      24.32800000      15.11200000
 O      13.20300000      29.36200000       9.18300000
 H      13.50200000      28.47300000       8.88100000
 H      13.08400000      29.35100000      10.16200000
 O      15.66600000      30.67700000      15.33800000
 H      16.21300000      29.90400000      15.68100000
 H      16.17200000      31.48100000      15.58200000
 O       8.85700000      30.12300000      13.16100000
 H       9.72800000      30.58900000      13.30000000
 H       8.25100000      30.80000000      12.79000000
 O       7.26700000      26.41300000      10.65000000
 H       6.54600000      26.43000000       9.91100000
 H       7.90900000      27.07600000      10.38200000
 O      10.60200000      27.26100000       8.82400000
 H       9.93000000      27.90100000       9.18900000
 H      11.37000000      27.79900000       8.88800000
 O      11.69300000      22.88900000       5.10800000
 H      11.56500000      22.74900000       4.16600000
 H      10.91300000      22.32200000       5.39800000
 O      13.19100000      20.42400000      14.36300000
 H      13.88500000      19.71400000      14.55100000
 H      13.52100000      21.00700000      13.59000000
 O      13.30600000      25.48600000      12.55100000
 H      12.39200000      25.69100000      12.25600000
 H      13.96500000      26.21300000      12.35500000
 O      13.02800000      28.26500000       5.83000000
 H      13.89100000      28.41600000       6.34400000
 H      12.35100000      28.94800000       6.17600000
 O       8.91600000      29.10600000      10.06700000
 H       8.17900000      29.75100000       9.90800000
 H       9.38300000      29.45700000      10.86500000
 O      13.97500000      21.83400000       6.28300000
 H      14.11600000      22.45600000       7.03200000
 H      13.09400000      22.07600000       5.94100000
 O       9.28400000      27.36100000       5.70800000
 H       9.41300000      27.30700000       6.68100000
 H       9.46100000      28.30600000       5.54800000
 O      10.62400000      30.78900000       7.98800000
 H      11.52700000      30.75200000       8.29000000
 H      10.23600000      31.28700000       8.78700000
 O       5.62700000      23.18700000      14.44900000
 H       4.94600000      23.10600000      15.23500000
 H       6.05000000      24.05900000      14.74200000
 O      15.97000000      24.47100000      15.19500000
 H      16.15100000      24.73500000      16.13400000
 H      15.11500000      24.86200000      14.97000000
 O       8.56600000      25.69500000       7.80900000
 H       9.39300000      25.95000000       8.27900000
 H       8.63000000      24.83300000       7.42100000
 O       6.56200000      30.58400000      15.03500000
 H       6.39800000      31.17700000      14.25100000
 H       7.36300000      31.02100000      15.41300000
 O      10.34300000      23.11700000      14.70000000
 H       9.63200000      22.49900000      14.49900000
 H      10.37900000      23.57000000      13.85900000
 O       9.95000000      27.99500000      14.52500000
 H      10.68200000      28.63600000      14.54900000
 H       9.17000000      28.61700000      14.24000000
 O       5.00200000      25.08700000      12.05500000
 H       5.11600000      24.71400000      12.96600000
 H       5.78400000      25.61800000      11.88300000
 O      14.58200000      22.94400000      11.83800000
 H      13.84200000      22.37700000      11.63500000
 H      14.13500000      23.82200000      12.02900000
 O      12.34800000      24.42400000       9.37300000
 H      12.34500000      24.92400000       8.55700000
 H      11.61600000      23.82600000       9.26300000
 O       8.30900000      23.19900000       6.46800000
 H       7.62500000      22.91700000       5.86400000
 H       8.74100000      22.42000000       6.93200000
 O       6.46600000      29.59900000      11.48400000
 H       6.54200000      28.64300000      11.46900000
 H       6.75400000      29.90400000      12.37600000
 O      15.31200000      27.55000000      11.92900000
 H      15.47000000      27.63700000      10.97300000
 H      15.81900000      28.30200000      12.22400000
 O      14.58400000      28.25800000      14.91800000
 H      15.10800000      28.10900000      14.09900000
 H      14.63200000      29.20000000      15.11700000
 O       9.82800000      29.96300000       5.43700000
 H       9.82000000      30.72900000       4.86700000
 H      10.09300000      30.21200000       6.33600000
 O       9.93600000      22.47800000      10.28900000
 H       9.62000000      22.65800000      11.19300000
 H       9.83600000      21.53000000      10.31300000
 O      14.97600000      22.48100000       8.94500000
 H      15.58200000      21.65300000       9.05600000
 H      14.40200000      22.53600000       9.78700000
 O      12.60800000      25.29100000       6.75600000
 H      12.48800000      24.69400000       6.01000000
 H      12.54500000      26.24100000       6.34900000
 O      12.13300000      21.47400000      11.62700000
 H      11.52600000      21.93800000      11.06500000
 H      11.53000000      20.92600000      12.13500000
