%chk=cluster_454.chk
%mem=6GB
%nproc=4
#b3lyp/6-311++G** scrf=(cpcm,Solvent=Water) nosymm freq
iop(2/11=1) 
 Geom=(NoDistance,NoAngle)

cluster_454

0 1
 O      20.04500000      20.51900000      14.94600000
 H      19.96600000      19.53200000      14.80000000
 H      20.00200000      20.37500000      15.89300000
 O      17.25600000      20.44300000      16.14600000
 H      16.78400000      20.87200000      15.43000000
 H      17.28000000      19.49600000      15.88800000
 O      18.43500000      18.07000000      19.56800000
 H      18.15000000      18.72500000      18.88300000
 H      19.36500000      18.44600000      19.76600000
 O      18.49400000      20.63100000      18.90200000
 H      18.16600000      20.87900000      18.03400000
 H      18.04200000      21.24500000      19.54700000
 O      13.96300000      19.22200000      16.80200000
 H      14.50700000      18.40300000      16.59400000
 H      13.19900000      18.82200000      17.28100000
 O      14.45800000      23.12800000      18.18400000
 H      15.03800000      22.25100000      18.02800000
 H      13.60100000      23.02800000      17.83000000
 O      20.41000000      23.83200000      20.16100000
 H      20.41000000      23.00100000      19.66900000
 H      20.16700000      23.52400000      21.07100000
 O      17.71700000      24.21600000      15.07000000
 H      17.92300000      23.29900000      15.18100000
 H      18.05900000      24.57000000      14.22900000
 O      17.10300000      23.66300000      20.59900000
 H      17.26500000      24.36800000      21.29600000
 H      16.35100000      23.12900000      21.07600000
 O      16.94700000      25.23900000      18.33000000
 H      16.91700000      24.65100000      19.12100000
 H      16.13000000      25.03100000      17.79400000
 O      15.04400000      22.91500000      15.05400000
 H      14.58400000      22.15800000      15.51200000
 H      15.53000000      23.33200000      15.82900000

