222
XYZ file of cluster: frame_14000_c80e9.c59ef.c4c99 - created by MolEdiTo
 O      39.88000000      39.65400000      38.70800000
 H      40.54100000      39.30400000      38.17900000
 H      39.28300000      38.87700000      38.92000000
 O      36.49600000      38.51500000      34.77500000
 H      37.37900000      38.15100000      34.96900000
 H      36.11000000      38.40700000      35.66600000
 O      34.95500000      38.43000000      37.04400000
 H      34.10400000      38.90500000      37.28500000
 H      34.63000000      37.51000000      37.20800000
 O      37.18700000      35.79900000      36.16300000
 H      37.84500000      36.49100000      36.04700000
 H      36.96000000      35.56500000      35.27700000
 O      35.78000000      38.16700000      40.31500000
 H      34.79000000      37.90700000      40.26500000
 H      35.82000000      38.48300000      41.23700000
 O      37.10600000      34.45800000      39.65500000
 H      37.24600000      34.16800000      40.55400000
 H      36.50000000      35.20000000      39.71500000
 O      34.92500000      35.61800000      37.41200000
 H      35.90100000      35.66200000      37.11700000
 H      34.73600000      34.67300000      37.11600000
 O      39.30400000      37.52500000      35.98300000
 H      39.77600000      37.83200000      35.14700000
 H      40.12000000      37.49000000      36.56800000
 O      38.34900000      37.21200000      39.40300000
 H      37.45200000      37.56900000      39.61900000
 H      38.49900000      36.69800000      40.20900000
 O      37.36100000      36.85500000      44.38700000
 H      37.15400000      36.96400000      45.35800000
 H      36.58400000      36.26900000      44.17800000
 O      36.05100000      40.26300000      46.88500000
 H      36.36400000      40.64200000      47.71500000
 H      36.48900000      40.93800000      46.26900000
 O      35.14400000      35.44600000      48.35600000
 H      34.65300000      35.84000000      49.10400000
 H      35.69400000      36.17500000      48.11500000
 O      37.17200000      37.49500000      47.17700000
 H      36.58300000      38.22500000      47.27000000
 H      37.88000000      37.75100000      47.76000000
 O      38.52200000      39.52800000      44.20700000
 H      37.84400000      40.09100000      44.55500000
 H      38.07500000      38.66900000      44.14400000
 O      35.13100000      38.94100000      44.50000000
 H      35.20900000      39.42000000      45.38600000
 H      34.70500000      38.12300000      44.83700000
 O      39.45500000      35.52300000      43.11200000
 H      40.25100000      35.38100000      43.65700000
 H      38.87400000      35.96400000      43.75300000
 O      35.02100000      48.94600000      34.90700000
 H      35.12600000      48.72900000      35.84500000
 H      34.74100000      48.05000000      34.56700000
 O      40.69300000      46.84900000      39.35600000
 H      39.83200000      47.30600000      39.49800000
 H      40.45500000      46.21200000      38.65800000
 O      35.19000000      47.94400000      37.55500000
 H      35.41900000      48.40800000      38.35200000
 H      35.24300000      47.01400000      37.82300000
 O      35.43900000      44.21900000      34.24900000
 H      35.74900000      43.77300000      35.07000000
 H      35.95200000      43.66800000      33.59900000
 O      40.08900000      45.31100000      36.99800000
 H      40.37700000      45.27900000      36.06000000
 H      39.32400000      44.72900000      36.90000000
 O      38.05200000      45.67000000      35.13500000
 H      37.29700000      45.31700000      34.58700000
 H      37.59200000      46.15000000      35.84300000
 O      35.83900000      43.02100000      36.59200000
 H      35.78600000      42.07500000      36.70100000
 H      36.73700000      43.19200000      36.95800000
 O      35.15900000      45.21600000      38.42600000
 H      34.21700000      44.81000000      38.62200000
 H      35.52900000      44.43500000      37.92300000
 O      38.12700000      43.50500000      37.91300000
 H      37.71500000      43.46600000      38.85000000
 H      38.73600000      42.74400000      38.08400000
 O      37.42200000      43.07600000      40.33100000
 H      36.94200000      43.70900000      40.89100000
 H      36.69300000      42.45400000      40.06900000
 O      38.95500000      48.14600000      48.86600000
 H      38.96200000      48.94400000      48.36900000
 H      38.91500000      48.51200000      49.79300000
 O      40.44800000      43.03500000      42.76500000
 H      40.30300000      42.70200000      41.89900000
 H      39.60700000      42.91300000      43.18900000
 O      35.50800000      44.80500000      43.07700000
 H      34.66900000      45.03000000      43.56500000
 H      35.30200000      45.29200000      42.24500000
 O      38.39800000      45.92300000      46.93900000
 H      39.31800000      45.63200000      46.75300000
 H      38.50900000      46.28300000      47.82600000
 O      37.25500000      43.86200000      45.37000000
 H      36.92300000      44.39600000      44.62300000
 H      37.79600000      44.41600000      45.88800000
 O      40.83300000      44.76300000      45.83200000
 H      41.28700000      45.21400000      45.12100000
 H      41.00600000      43.81700000      45.61900000
 O      35.36100000      47.13600000      46.78300000
 H      34.91100000      46.85700000      47.60800000
 H      36.25900000      46.80500000      46.88600000
 O      38.15500000      48.93600000      45.05900000
 H      38.93200000      48.87200000      44.43500000
 H      38.33500000      48.12800000      45.58700000
 O      34.43300000      47.39700000      43.93500000
 H      35.15600000      47.88100000      43.46300000
 H      34.80500000      47.17400000      44.81400000
 O      45.49000000      40.82900000      38.37500000
 H      45.15300000      40.88400000      39.29900000
 H      46.28000000      41.34500000      38.40000000
 O      44.74200000      36.43100000      34.34600000
 H      44.11200000      36.76300000      35.00400000
 H      45.44600000      36.08400000      34.91100000
 O      42.86700000      34.51500000      35.71000000
 H      42.29000000      34.91000000      36.37900000
 H      43.66500000      34.41400000      36.20000000
 O      47.79500000      34.38700000      38.96300000
 H      48.37200000      35.11700000      38.64800000
 H      47.70600000      33.84900000      38.12400000
 O      44.42600000      36.04200000      39.57100000
 H      45.26900000      36.03600000      40.03600000
 H      44.51200000      35.10700000      39.24000000
 O      45.68400000      38.48800000      36.35300000
 H      45.70000000      39.26100000      36.93000000
 H      45.62900000      38.93700000      35.45900000
 O      46.86900000      36.21600000      36.10900000
 H      47.82100000      36.24200000      36.36400000
 H      46.57400000      37.14000000      36.28000000
 O      43.45300000      37.40700000      37.22800000
 H      43.80100000      37.13000000      38.09900000
 H      44.22800000      37.93200000      36.97500000
 O      47.17100000      34.66100000      46.98800000
 H      47.37500000      34.16600000      47.78700000
 H      47.26800000      35.59500000      47.36200000
 O      46.15500000      37.54400000      48.61300000
 H      47.01700000      37.87500000      48.26000000
 H      45.56000000      37.64100000      47.80000000
 O      48.54200000      35.23300000      44.59800000
 H      48.71700000      36.21000000      44.84800000
 H      48.16000000      34.95300000      45.47100000
 O      46.78000000      39.29900000      44.38300000
 H      45.96800000      39.47700000      43.86000000
 H      47.37700000      39.82800000      43.86900000
 O      45.36600000      37.33200000      45.54400000
 H      45.92800000      38.03300000      45.19700000
 H      44.49900000      37.58500000      45.20800000
 O      43.24700000      35.27400000      44.74000000
 H      43.15300000      35.01800000      45.70800000
 H      44.09800000      35.74400000      44.80400000
 O      42.74200000      38.77200000      45.18300000
 H      42.92400000      38.35600000      44.31400000
 H      41.79200000      38.98100000      45.04500000
 O      43.00500000      37.71600000      42.64500000
 H      43.50300000      37.13000000      41.98100000
 H      42.08700000      37.39300000      42.47900000
 O      43.78100000      40.60800000      47.14700000
 H      43.40600000      39.88400000      46.52900000
 H      43.52200000      40.31200000      47.99700000
 O      49.04100000      38.04900000      45.15200000
 H      48.15900000      38.55900000      45.03200000
 H      49.61900000      38.78700000      44.86300000
 O      44.72000000      35.16600000      48.89200000
 H      44.62400000      34.63800000      48.08800000
 H      45.12300000      36.00800000      48.58700000
 O      44.51000000      39.84100000      42.94100000
 H      44.11100000      40.74300000      42.87500000
 H      43.74600000      39.27300000      42.67800000
 O      46.49700000      34.99800000      42.99200000
 H      46.99600000      34.76300000      42.19400000
 H      47.26800000      34.93200000      43.64900000
 O      46.76600000      48.06300000      40.54000000
 H      45.96100000      48.10500000      40.04400000
 H      47.16700000      48.97400000      40.33400000
 O      47.26900000      48.55700000      35.43500000
 H      48.13500000      48.92400000      35.79700000
 H      47.08700000      47.88700000      36.17500000
 O      47.32500000      44.57300000      38.46200000
 H      46.85300000      44.73400000      39.33000000
 H      47.67800000      45.48400000      38.38000000
 O      44.75500000      46.97400000      36.31600000
 H      44.01900000      47.52800000      36.50300000
 H      45.16100000      47.38100000      35.53700000
 O      47.94700000      47.00900000      38.09300000
 H      47.51000000      47.58600000      38.79800000
 H      48.81400000      47.40800000      38.05500000
 O      47.65800000      45.22800000      35.10300000
 H      47.05700000      44.93800000      34.41800000
 H      47.07700000      45.60700000      35.77800000
 O      45.10000000      44.36300000      36.01800000
 H      44.96400000      43.67600000      36.70800000
 H      44.68900000      45.11900000      36.40100000
 O      44.68800000      48.01600000      38.94900000
 H      45.10200000      47.45700000      38.26900000
 H      43.89400000      47.46700000      39.09300000
 O      49.16000000      43.21000000      37.13500000
 H      48.39200000      43.77100000      37.48700000
 H      49.51800000      42.94900000      38.00100000
 O      46.85900000      47.35600000      46.94600000
 H      46.22800000      46.72100000      46.62100000
 H      47.56100000      47.18900000      46.32400000
 O      43.54900000      45.17900000      48.56600000
 H      43.15500000      45.01200000      49.33000000
 H      43.03300000      44.82700000      47.83900000
 O      47.88400000      43.41800000      46.81100000
 H      48.35000000      43.94900000      47.46700000
 H      48.67800000      43.15800000      46.24200000
 O      46.08400000      44.04900000      49.05800000
 H      46.41400000      43.67200000      48.21800000
 H      45.14100000      44.15700000      48.86600000
 O      43.50100000      46.43000000      43.65500000
 H      43.34900000      47.40200000      43.73500000
 H      42.94800000      46.26300000      42.86800000
 O      45.44400000      44.57400000      42.88000000
 H      45.51500000      44.17100000      43.77900000
 H      44.69600000      45.19100000      43.06900000
 O      43.41900000      47.90300000      47.89000000
 H      42.53600000      47.98800000      48.22300000
 H      43.69800000      47.07900000      48.39900000
 O      45.64900000      43.76300000      45.33400000
 H      46.57100000      43.64100000      45.68500000
 H      45.14600000      43.25900000      45.99400000
 O      47.38300000      46.46800000      44.33600000
 H      46.89900000      45.64500000      44.16200000
 H      47.06700000      47.10300000      43.70000000
