570
XYZ file of cluster: frame_14000_74cfb.745b8.9a399 - created by MolEdiTo
 O      29.59200000      20.28200000      40.23400000
 H      30.12700000      21.11700000      40.27200000
 H      29.83100000      19.93000000      39.35600000
 O      38.86100000      22.64500000      39.29700000
 H      38.43700000      21.77200000      39.06100000
 H      38.63000000      22.71600000      40.23000000
 O      26.80800000      32.04400000      29.09200000
 H      27.19500000      32.92700000      29.16500000
 H      25.97400000      32.25600000      29.64300000
 O      27.14100000      31.64500000      36.10400000
 H      27.74000000      32.15700000      36.63000000
 H      26.79900000      30.93900000      36.68100000
 O      37.40200000      29.57600000      40.08300000
 H      37.78200000      29.05600000      39.38500000
 H      38.18600000      30.03600000      40.46500000
 O      30.95700000      21.23000000      29.54300000
 H      31.32500000      21.02600000      30.46100000
 H      30.67000000      20.29500000      29.34700000
 O      20.77400000      37.75800000      40.71300000
 H      20.07000000      38.13200000      41.27600000
 H      21.00000000      38.56400000      40.15100000
 O      30.84800000      24.65400000      33.75400000
 H      30.93000000      25.49100000      34.18200000
 H      30.18200000      24.85800000      33.03700000
 O      39.95900000      31.64600000      37.57600000
 H      39.76200000      32.59100000      37.66400000
 H      39.93800000      31.55700000      36.58400000
 O      35.18200000      32.04900000      34.14800000
 H      35.42100000      31.57000000      34.99800000
 H      35.86500000      31.57600000      33.59700000
 O      36.49600000      38.51500000      34.77500000
 H      37.37900000      38.15100000      34.96900000
 H      36.11000000      38.40700000      35.66600000
 O      33.49400000      33.10500000      36.80000000
 H      34.27800000      32.48300000      36.82500000
 H      32.81000000      32.57000000      36.43700000
 O      39.69600000      30.25700000      33.39900000
 H      40.27600000      29.43200000      33.49600000
 H      40.32500000      30.86600000      33.88300000
 O      34.92500000      35.61800000      37.41200000
 H      35.90100000      35.66200000      37.11700000
 H      34.73600000      34.67300000      37.11600000
 O      21.85100000      25.13400000      30.33300000
 H      21.07200000      24.93600000      30.84200000
 H      22.30400000      24.27900000      30.32500000
 O      29.76700000      39.51800000      40.47500000
 H      29.55200000      40.16300000      41.21800000
 H      29.03600000      39.70700000      39.88000000
 O      32.52800000      39.64400000      37.55300000
 H      32.38700000      40.09200000      36.69700000
 H      32.82900000      40.44200000      38.10100000
 O      27.82900000      25.60600000      27.10200000
 H      28.44500000      25.35600000      27.82700000
 H      28.15900000      24.95600000      26.42800000
 O      30.59800000      20.22000000      33.58700000
 H      29.98000000      20.19500000      34.38900000
 H      30.63300000      21.17900000      33.47900000
 O      25.67500000      34.37200000      31.78100000
 H      25.05100000      34.34800000      32.55600000
 H      26.46800000      33.91100000      32.16800000
 O      24.08000000      27.63400000      28.49300000
 H      23.45800000      28.07700000      27.90500000
 H      24.06300000      28.23300000      29.26300000
 O      32.42000000      30.97800000      35.60100000
 H      32.87000000      30.45400000      34.94100000
 H      31.58400000      31.17000000      35.10900000
 O      22.37300000      34.59100000      37.02600000
 H      22.78300000      35.28200000      36.53100000
 H      23.03900000      34.14500000      37.46000000
 O      21.47100000      33.78000000      39.33700000
 H      20.93900000      34.52900000      39.58400000
 H      21.74100000      33.98800000      38.41800000
 O      22.36700000      33.92000000      31.98600000
 H      22.83600000      33.03600000      31.86100000
 H      22.35100000      33.95500000      32.95500000
 O      25.51300000      35.62600000      36.55600000
 H      26.24800000      36.18900000      36.08600000
 H      25.36500000      36.32700000      37.30200000
 O      37.18700000      35.79900000      36.16300000
 H      37.84500000      36.49100000      36.04700000
 H      36.96000000      35.56500000      35.27700000
 O      35.80700000      30.63900000      29.76300000
 H      35.30700000      31.46800000      29.99000000
 H      35.45300000      29.99800000      30.38300000
 O      30.64700000      30.45800000      33.11200000
 H      31.24300000      29.80800000      32.60800000
 H      31.25700000      31.24700000      33.06500000
 O      23.92000000      21.37500000      35.93800000
 H      23.34800000      22.21300000      36.10700000
 H      23.27600000      20.73300000      36.19800000
 O      32.98200000      27.46800000      29.39200000
 H      33.92500000      27.39200000      29.05300000
 H      32.44300000      27.19600000      28.60400000
 O      29.11200000      33.33600000      37.55900000
 H      29.30600000      34.29500000      37.79600000
 H      29.64500000      32.88400000      38.22500000
 O      37.04100000      20.93900000      35.56100000
 H      37.45300000      21.81400000      35.69700000
 H      36.16700000      21.07400000      35.99000000
 O      29.98000000      35.76800000      35.06000000
 H      30.01600000      35.79500000      35.99500000
 H      29.14400000      36.21900000      34.85200000
 O      34.95500000      38.43000000      37.04400000
 H      34.10400000      38.90500000      37.28500000
 H      34.63000000      37.51000000      37.20800000
 O      21.39700000      31.03300000      33.34400000
 H      20.62400000      31.45500000      32.90400000
 H      20.96100000      30.26500000      33.72800000
 O      27.27000000      37.22400000      35.37800000
 H      27.43700000      37.89700000      36.06200000
 H      27.02700000      37.70800000      34.63300000
 O      25.59000000      37.36100000      32.70800000
 H      26.23600000      37.71600000      32.06800000
 H      25.47100000      36.44300000      32.49600000
 O      26.68600000      24.37800000      31.48400000
 H      25.72500000      24.13400000      31.33400000
 H      27.00800000      23.50300000      31.68000000
 O      38.05500000      25.86900000      40.25200000
 H      37.65700000      25.13500000      40.77200000
 H      39.00500000      25.68100000      40.32800000
 O      35.46400000      34.59100000      33.58900000
 H      35.45100000      33.74600000      34.12300000
 H      34.54700000      34.90300000      33.72900000
 O      23.48700000      39.16500000      27.08600000
 H      24.41100000      39.44800000      27.08500000
 H      23.21200000      39.04600000      28.01700000
 O      28.39200000      22.61600000      37.25900000
 H      27.52600000      23.00600000      36.82200000
 H      28.34500000      23.14900000      38.06500000
 O      32.36500000      33.76700000      39.05700000
 H      32.80100000      33.64600000      38.16800000
 H      32.50200000      32.87700000      39.41300000
 O      24.19800000      31.93200000      40.58100000
 H      24.17400000      32.60900000      41.27800000
 H      24.53100000      32.43200000      39.81900000
 O      28.98900000      22.48300000      28.26000000
 H      29.73800000      21.92200000      28.75300000
 H      29.10400000      23.33500000      28.75900000
 O      32.48300000      32.46000000      33.02500000
 H      33.37800000      32.23800000      33.53000000
 H      32.09400000      33.08100000      33.68400000
 O      20.53600000      24.96600000      36.10400000
 H      21.22400000      24.90800000      35.41300000
 H      20.18500000      24.06400000      36.03500000
 O      29.62200000      34.19700000      31.57600000
 H      29.46000000      33.87800000      32.49200000
 H      30.14800000      33.47100000      31.17900000
 O      30.17600000      36.76900000      30.82800000
 H      29.97000000      35.96300000      31.34300000
 H      31.12800000      36.70200000      30.72500000
 O      35.58100000      29.58100000      27.13200000
 H      35.76800000      30.21000000      26.33200000
 H      35.80900000      30.21900000      27.84700000
 O      31.93000000      27.50600000      35.01500000
 H      32.63900000      27.97700000      34.48400000
 H      32.40400000      26.72100000      35.33600000
 O      23.34500000      30.51700000      36.69400000
 H      23.34600000      31.22000000      36.05100000
 H      24.27000000      30.50100000      36.98400000
 O      38.35400000      31.93800000      27.63300000
 H      39.18400000      31.89500000      27.18500000
 H      38.44900000      31.15600000      28.27600000
 O      28.61000000      20.11800000      36.03700000
 H      28.64600000      21.08600000      36.24600000
 H      27.76400000      20.14800000      35.56100000
 O      36.21700000      28.54000000      31.47200000
 H      35.53700000      27.88400000      31.44800000
 H      36.99000000      27.98100000      31.08300000
 O      34.36500000      28.77500000      33.96300000
 H      34.94800000      28.37700000      34.53300000
 H      34.78800000      28.70200000      33.08700000
 O      34.76600000      22.95600000      38.38300000
 H      34.75400000      22.35000000      37.56800000
 H      33.81700000      23.22400000      38.24400000
 O      37.10100000      23.65100000      36.54200000
 H      36.62400000      23.14600000      37.21000000
 H      36.37200000      24.22000000      36.23100000
 O      25.80600000      36.27200000      29.50300000
 H      26.34400000      35.52900000      29.95900000
 H      26.30100000      37.04400000      29.87600000
 O      27.76800000      37.84900000      30.58500000
 H      27.85300000      38.80700000      30.32100000
 H      28.72200000      37.58300000      30.55800000
 O      20.82300000      40.05200000      35.54000000
 H      21.03100000      39.99900000      34.57300000
 H      20.99000000      41.01700000      35.65200000
 O      36.92200000      40.39000000      32.96900000
 H      36.95100000      39.73700000      32.20900000
 H      36.76100000      39.72100000      33.67500000
 O      22.24100000      39.02900000      29.51800000
 H      22.31700000      38.16900000      29.96500000
 H      22.46900000      39.61600000      30.24200000
 O      21.63200000      26.24800000      38.31600000
 H      21.05700000      25.66900000      37.72200000
 H      20.90400000      26.90600000      38.52400000
 O      22.76800000      38.43900000      36.96000000
 H      21.94900000      38.70000000      36.47200000
 H      23.08200000      37.77400000      36.39600000
 O      24.39100000      34.34400000      34.42000000
 H      23.93300000      35.18000000      34.23100000
 H      24.41100000      34.29500000      35.37300000
 O      23.80000000      23.87200000      40.30000000
 H      23.85900000      24.81300000      40.01400000
 H      24.33200000      23.95200000      41.18800000
 O      28.71200000      28.38100000      30.54400000
 H      29.61100000      28.70800000      30.64100000
 H      28.56600000      28.49000000      29.57100000
 O      37.98300000      36.31000000      32.26000000
 H      38.84500000      36.14500000      32.70800000
 H      37.87700000      35.40700000      31.82300000
 O      38.40500000      27.73500000      38.23500000
 H      39.25100000      27.24500000      38.15200000
 H      37.91700000      27.05800000      38.83300000
 O      37.10600000      34.45800000      39.65500000
 H      37.24600000      34.16800000      40.55400000
 H      36.50000000      35.20000000      39.71500000
 O      20.83500000      22.32400000      35.40200000
 H      19.91300000      22.06800000      35.21900000
 H      21.19700000      22.54800000      34.50500000
 O      21.41800000      40.27700000      39.59200000
 H      20.94600000      40.55200000      38.79700000
 H      20.88000000      40.61600000      40.31100000
 O      39.40100000      26.55000000      35.27300000
 H      39.09700000      25.61300000      35.36900000
 H      40.04300000      26.60600000      36.01600000
 O      23.79300000      26.66400000      39.79100000
 H      22.99600000      26.69100000      39.18600000
 H      23.82200000      27.65200000      39.95200000
 O      27.98800000      34.53900000      29.40600000
 H      28.43100000      35.21600000      28.85500000
 H      28.52100000      34.68300000      30.24400000
 O      37.86700000      22.34200000      32.79000000
 H      37.15200000      21.92600000      32.26000000
 H      37.48000000      23.18900000      33.10600000
 O      31.72100000      31.10400000      29.65200000
 H      32.21200000      30.75900000      28.93700000
 H      30.79000000      31.22000000      29.19500000
 O      35.04000000      29.28100000      38.90000000
 H      34.96500000      28.34400000      39.15800000
 H      35.90900000      29.44800000      39.36600000
 O      40.81300000      38.66600000      33.85400000
 H      40.97700000      38.42900000      32.93100000
 H      41.53600000      39.25300000      34.09200000
 O      29.15800000      39.07700000      27.88800000
 H      29.90600000      39.21700000      28.50800000
 H      29.48100000      39.38900000      27.03700000
 O      29.31700000      36.45000000      27.93300000
 H      30.33000000      36.56500000      28.04300000
 H      29.07300000      37.38100000      27.96700000
 O      36.78900000      27.45500000      35.13800000
 H      37.07300000      28.22100000      35.66400000
 H      37.70600000      27.16200000      34.83800000
 O      40.12300000      33.39400000      31.35600000
 H      40.21600000      34.24100000      31.93600000
 H      39.12400000      33.35600000      31.38800000
 O      36.20400000      21.99400000      30.71000000
 H      36.74400000      21.91900000      29.91100000
 H      35.93500000      21.03900000      30.81000000
 O      35.08800000      34.80300000      29.95000000
 H      34.70800000      34.01000000      30.30500000
 H      34.60700000      35.53000000      30.35600000
 O      35.58400000      30.93200000      36.65300000
 H      36.54200000      30.70500000      36.69500000
 H      35.18700000      30.14500000      37.06000000
 O      30.93000000      22.79200000      40.73700000
 H      31.32200000      23.58900000      41.10400000
 H      31.01800000      22.18000000      41.51300000
 O      24.18400000      40.05900000      38.73600000
 H      23.14100000      40.15500000      38.87100000
 H      24.11200000      39.36900000      38.03200000
 O      24.16500000      34.50200000      28.14900000
 H      24.11700000      33.86500000      28.90100000
 H      24.63000000      35.22900000      28.65100000
 O      27.96700000      30.21900000      39.24100000
 H      28.27900000      29.71500000      40.06300000
 H      28.52700000      29.79500000      38.59600000
 O      31.71400000      40.04100000      28.91500000
 H      31.66600000      40.86100000      28.35700000
 H      32.06000000      40.45300000      29.73400000
 O      39.89500000      24.96900000      29.45500000
 H      39.82800000      23.97300000      29.69100000
 H      40.11300000      25.27700000      30.37200000
 O      35.56000000      26.86600000      28.32500000
 H      35.70400000      27.81500000      28.08300000
 H      36.35400000      26.69100000      28.88500000
 O      34.97300000      38.41900000      29.45800000
 H      35.86200000      38.43900000      29.87700000
 H      34.93400000      39.34800000      29.12300000
 O      22.37300000      27.64500000      31.27300000
 H      22.60300000      26.77600000      30.99800000
 H      23.17800000      27.91000000      31.75500000
 O      35.43100000      26.54600000      39.44300000
 H      35.12300000      25.75300000      40.02600000
 H      36.37500000      26.56600000      39.79900000
 O      29.93100000      32.01500000      40.18300000
 H      29.13000000      31.57200000      40.05700000
 H      30.62700000      31.39100000      40.16900000
 O      23.39300000      26.52200000      34.51600000
 H      24.00300000      26.84000000      33.79900000
 H      23.00000000      25.70200000      34.08800000
 O      27.91400000      37.98900000      38.21000000
 H      27.84400000      38.94300000      38.41500000
 H      27.12000000      37.61800000      38.63900000
 O      29.27800000      25.41700000      31.79900000
 H      29.13000000      26.36700000      31.96300000
 H      28.28900000      25.17500000      31.80400000
 O      37.97700000      29.61900000      36.45900000
 H      38.58800000      30.17000000      36.99200000
 H      38.17100000      28.69800000      36.83900000
 O      32.06200000      28.94200000      31.28200000
 H      32.08200000      29.75500000      30.71100000
 H      32.28800000      28.27200000      30.65600000
 O      29.30600000      27.35900000      37.44900000
 H      29.42200000      27.71100000      36.56900000
 H      28.31300000      27.22600000      37.50200000
 O      27.39000000      33.37200000      33.71900000
 H      27.82500000      32.50100000      33.81700000
 H      26.91400000      33.39800000      34.60500000
 O      39.48200000      23.59500000      35.19700000
 H      39.23900000      23.27600000      34.33200000
 H      38.67100000      23.41400000      35.72300000
 O      32.83800000      30.81800000      39.83100000
 H      33.10700000      30.62500000      40.71100000
 H      33.44400000      30.27900000      39.28700000
 O      38.81400000      34.06600000      37.63700000
 H      38.16200000      34.40100000      36.96100000
 H      38.40700000      34.34500000      38.45000000
 O      40.46300000      26.17600000      37.77700000
 H      40.77900000      25.26000000      38.04300000
 H      41.30800000      26.67800000      37.88100000
 O      25.03600000      33.12900000      37.85900000
 H      25.34700000      33.81300000      37.18800000
 H      25.85200000      32.63200000      37.93500000
 O      37.92300000      27.03200000      29.99800000
 H      38.62800000      27.68600000      29.73700000
 H      38.48600000      26.21400000      29.81100000
 O      32.40300000      39.47600000      33.16700000
 H      31.69300000      38.86500000      32.85200000
 H      33.15000000      38.83600000      33.06500000
 O      29.60800000      35.97700000      37.74500000
 H      28.96100000      36.62900000      37.98000000
 H      30.43300000      36.43800000      38.10000000
 O      31.90100000      35.76100000      40.73800000
 H      31.55100000      36.33800000      39.97600000
 H      32.05600000      34.97500000      40.11900000
 O      39.30400000      37.52500000      35.98300000
 H      39.77600000      37.83200000      35.14700000
 H      40.12000000      37.49000000      36.56800000
 O      26.44700000      26.38900000      40.24700000
 H      26.65400000      26.65100000      39.34700000
 H      25.49500000      26.17200000      40.15900000
 O      22.50100000      36.62100000      30.68200000
 H      22.24200000      35.76400000      31.11900000
 H      23.29500000      36.45800000      30.22500000
 O      22.17700000      30.22000000      29.09900000
 H      21.35600000      30.75500000      28.93500000
 H      21.88600000      29.51300000      29.69400000
 O      21.32900000      31.13400000      39.71100000
 H      21.34100000      32.09300000      39.76600000
 H      22.30000000      30.90100000      39.57700000
 O      31.10200000      37.78600000      38.96500000
 H      30.76800000      38.32500000      39.70800000
 H      31.65300000      38.44000000      38.48100000
 O      40.70000000      36.40800000      28.85700000
 H      39.91400000      35.85100000      28.83300000
 H      41.07000000      36.25200000      27.96200000
 O      29.41200000      24.92800000      29.06800000
 H      30.32900000      24.72500000      29.20900000
 H      29.22700000      25.34800000      29.95200000
 O      27.43800000      27.58100000      33.00600000
 H      27.97800000      28.00900000      33.69600000
 H      27.83700000      27.95600000      32.19600000
 O      26.62400000      24.98000000      34.24500000
 H      26.80700000      25.91000000      34.02400000
 H      26.47800000      24.60600000      33.31400000
 O      40.68900000      29.09000000      28.77900000
 H      41.53700000      29.56000000      28.64800000
 H      40.13600000      29.80100000      29.20600000
 O      34.55900000      33.99000000      27.27800000
 H      34.71500000      34.88600000      26.99100000
 H      34.98900000      33.95000000      28.13200000
 O      35.43300000      40.88100000      27.98100000
 H      36.26400000      40.75800000      27.64400000
 H      35.56700000      41.42000000      28.79500000
 O      22.19900000      24.35400000      33.39500000
 H      22.87200000      23.79900000      32.88200000
 H      21.43500000      24.23500000      32.79800000
 O      26.76200000      20.70800000      27.74600000
 H      27.45200000      21.29900000      28.19200000
 H      26.27200000      20.28300000      28.40600000
 O      33.43100000      23.50400000      34.30400000
 H      32.60300000      23.97900000      34.51400000
 H      34.10700000      24.22300000      34.28100000
 O      31.92500000      37.32300000      28.16900000
 H      31.81400000      38.30100000      28.28500000
 H      32.23800000      37.07400000      29.06400000
 O      40.03700000      33.18300000      40.31600000
 H      39.79100000      34.02600000      40.73100000
 H      39.84900000      33.45700000      39.38900000
 O      21.35100000      26.57700000      28.09400000
 H      20.59600000      27.03300000      28.49400000
 H      21.68800000      26.09000000      28.86400000
 O      37.40200000      38.58300000      30.93800000
 H      37.70100000      37.74000000      31.35700000
 H      38.05900000      38.64300000      30.21800000
 O      24.39700000      29.24800000      40.46200000
 H      25.00100000      28.87200000      41.09500000
 H      24.30300000      30.16700000      40.65400000
 O      26.99200000      21.93800000      32.34400000
 H      27.34200000      21.15800000      31.81900000
 H      27.30100000      21.72500000      33.26500000
 O      30.97000000      21.88400000      36.21800000
 H      30.16200000      22.33900000      36.50300000
 H      31.64100000      22.38100000      36.80400000
 O      26.59900000      26.66700000      37.50700000
 H      26.08700000      27.01900000      36.74600000
 H      26.56900000      25.68500000      37.26300000
 O      37.10400000      25.18200000      33.09700000
 H      36.54400000      25.20100000      33.86200000
 H      36.68600000      25.85400000      32.50900000
 O      34.57000000      26.50700000      31.58400000
 H      34.50700000      25.50900000      31.48400000
 H      33.86000000      26.76600000      30.97700000
 O      38.72600000      30.61800000      29.96100000
 H      37.80300000      30.89000000      30.18900000
 H      39.18600000      31.02500000      30.70300000
 O      31.93800000      24.22400000      29.51600000
 H      32.22600000      24.60300000      30.33300000
 H      32.71000000      23.76000000      29.19800000
 O      33.50300000      26.50600000      37.03200000
 H      34.16000000      26.51800000      37.72000000
 H      32.68600000      26.35000000      37.53600000
 O      21.98700000      28.62200000      35.26800000
 H      22.64400000      27.85400000      35.16000000
 H      22.51700000      29.20800000      35.82600000
 O      34.24000000      23.90500000      31.15800000
 H      35.06200000      23.49600000      30.80000000
 H      33.88100000      23.14000000      31.68300000
 O      31.30100000      26.25100000      38.64600000
 H      31.16500000      26.62800000      39.51800000
 H      30.54400000      26.63200000      38.11700000
 O      33.78200000      32.40900000      30.81700000
 H      33.31800000      32.61200000      31.65700000
 H      33.08300000      31.98000000      30.31200000
 O      37.93900000      40.42900000      27.43200000
 H      38.47600000      41.18000000      27.66700000
 H      38.46600000      39.69800000      27.83800000
 O      32.92900000      37.03500000      30.74100000
 H      33.46600000      37.07900000      31.62700000
 H      33.60200000      37.57300000      30.22200000
 O      27.86500000      28.20300000      27.82000000
 H      27.64900000      27.29100000      27.55500000
 H      28.32300000      28.52500000      26.99600000
 O      23.53800000      38.87300000      33.50900000
 H      23.61100000      39.71400000      33.10600000
 H      24.35500000      38.36300000      33.12000000
 O      35.09200000      37.27200000      32.63600000
 H      35.76300000      36.55700000      32.70600000
 H      35.46900000      37.79900000      33.40400000
 O      35.35000000      25.33100000      35.36400000
 H      35.70600000      26.27400000      35.41600000
 H      34.54100000      25.42700000      35.97600000
 O      34.64300000      24.09400000      28.36600000
 H      35.52800000      23.74900000      28.47300000
 H      34.79000000      24.94800000      27.94400000
 O      37.53000000      33.45100000      32.10500000
 H      36.58200000      33.77200000      32.35200000
 H      37.45200000      32.48600000      32.20600000
 O      21.81900000      22.22200000      30.66500000
 H      22.02000000      21.28500000      30.96200000
 H      21.11200000      22.13800000      30.04200000
 O      37.14600000      30.79600000      32.74400000
 H      37.99800000      30.39600000      33.04800000
 H      36.68900000      29.91700000      32.51400000
 O      27.89100000      40.66900000      29.99100000
 H      27.39900000      41.05600000      29.20500000
 H      28.49300000      41.39400000      30.23400000
 O      24.32300000      22.64500000      31.96400000
 H      25.23000000      22.26700000      32.02600000
 H      23.82700000      21.81200000      31.75900000
 O      39.27800000      38.58400000      29.00600000
 H      39.68400000      37.71000000      29.04800000
 H      40.11800000      39.07000000      28.69900000
 O      29.41300000      28.50300000      34.81500000
 H      30.29300000      28.04300000      34.91200000
 H      29.65700000      29.27300000      34.34200000
 O      34.56400000      36.64700000      27.19000000
 H      34.80000000      37.28700000      27.90200000
 H      33.56000000      36.70100000      27.23700000
 O      40.41400000      35.53400000      33.14300000
 H      41.25300000      36.05500000      32.90800000
 H      40.66300000      35.15300000      34.00300000
 O      39.25800000      22.63400000      30.55100000
 H      38.60100000      22.59900000      31.27600000
 H      40.08600000      22.70900000      31.04600000
 O      23.93300000      31.62500000      32.38300000
 H      24.64700000      31.32500000      33.04600000
 H      23.11700000      31.28900000      32.89900000
 O      21.13700000      33.92800000      27.37300000
 H      22.06000000      34.20500000      27.71500000
 H      20.65400000      34.06900000      28.22100000
 O      23.53200000      24.05900000      37.37800000
 H      23.55100000      23.70300000      38.27900000
 H      23.00800000      24.87000000      37.53700000
 O      29.26100000      31.20100000      28.53900000
 H      29.40500000      31.21000000      27.59500000
 H      28.36500000      31.48500000      28.65800000
 O      30.03900000      32.80000000      34.96200000
 H      30.09300000      33.81500000      34.90700000
 H      29.64300000      32.77900000      35.88600000
 O      35.78000000      38.16700000      40.31500000
 H      34.79000000      37.90700000      40.26500000
 H      35.82000000      38.48300000      41.23700000
 O      25.23800000      36.92000000      39.12800000
 H      24.46400000      37.19600000      39.56200000
 H      25.62400000      36.33600000      39.84000000
 O      27.27800000      40.54000000      39.26100000
 H      27.29500000      41.50300000      39.12000000
 H      26.32400000      40.37600000      39.42300000
 O      25.64800000      30.27500000      38.12400000
 H      25.15600000      29.77800000      38.84400000
 H      26.52600000      30.22600000      38.55400000
 O      37.31800000      22.97300000      28.25500000
 H      38.01000000      22.86200000      28.85500000
 H      37.83100000      22.90800000      27.36300000
 O      21.14900000      22.06000000      27.92900000
 H      21.06000000      21.65000000      27.02600000
 H      22.10000000      22.01500000      28.04300000
 O      24.82400000      28.10700000      32.51800000
 H      25.78300000      27.86000000      32.59800000
 H      24.92600000      29.06100000      32.82500000
 O      34.25500000      21.51300000      36.12000000
 H      34.00700000      22.06500000      35.34300000
 H      33.60800000      20.79400000      35.95500000
 O      24.03500000      32.33300000      29.64500000
 H      24.14900000      32.17200000      30.55700000
 H      23.36000000      31.71700000      29.33200000
 O      38.34900000      37.21200000      39.40300000
 H      37.45200000      37.56900000      39.61900000
 H      38.49900000      36.69800000      40.20900000
 O      27.45800000      22.72800000      40.11800000
 H      27.39500000      22.82400000      41.04000000
 H      27.17400000      21.83600000      39.96100000
 O      28.11600000      30.45100000      32.49200000
 H      28.15300000      30.08700000      31.55600000
 H      29.10600000      30.55200000      32.61500000
 O      25.95400000      30.05200000      27.49700000
 H      26.09500000      30.86000000      28.07400000
 H      26.55000000      29.39400000      27.98600000
 O      38.41600000      34.64900000      28.76800000
 H      37.58100000      34.71300000      29.12100000
 H      38.49600000      33.63400000      28.59200000
 O      26.17900000      23.86700000      36.56600000
 H      25.22900000      23.91600000      36.78600000
 H      26.14200000      24.12000000      35.59100000
 O      32.74800000      35.24700000      34.61200000
 H      33.03700000      35.45000000      35.53200000
 H      31.95200000      35.79400000      34.52400000
 O      25.81200000      30.34200000      33.82600000
 H      26.66200000      30.36000000      33.34000000
 H      26.10800000      30.73200000      34.68300000
 O      22.53200000      36.42200000      34.46700000
 H      22.90000000      37.30400000      34.14400000
 H      21.63800000      36.42900000      34.10700000
 O      32.02600000      23.62500000      38.20300000
 H      31.59200000      23.14200000      39.00500000
 H      31.77600000      24.52800000      38.37400000
 O      39.88000000      39.65400000      38.70800000
 H      40.54100000      39.30400000      38.17900000
 H      39.28300000      38.87700000      38.92000000
