1254
XYZ file of cluster: frame_14000_9c835.22f14.4ac39 - created by MolEdiTo
 O      36.29600000      28.02500000      19.96000000
 H      35.71200000      28.72600000      20.38300000
 H      35.94200000      27.19300000      20.32000000
 O      36.31000000      22.71600000      15.49800000
 H      35.94300000      23.55000000      15.06700000
 H      36.27300000      23.03100000      16.43400000
 O      39.75800000      22.05700000      22.90900000
 H      40.19600000      22.00700000      21.98800000
 H      40.59800000      22.31400000      23.35400000
 O      35.40000000      25.08800000      23.92900000
 H      35.84800000      25.99900000      23.98900000
 H      36.16900000      24.52100000      23.75800000
 O      35.00600000      28.11800000      22.79900000
 H      34.80300000      27.87500000      23.69900000
 H      35.90500000      28.55700000      22.92000000
 O      31.10200000      34.79400000      16.61400000
 H      30.37500000      34.89500000      17.27100000
 H      31.45600000      33.91500000      16.81000000
 O      30.27600000      31.91400000      14.85000000
 H      30.11300000      31.54800000      15.70800000
 H      29.34500000      32.09300000      14.51300000
 O      36.04500000      10.76900000      33.80400000
 H      36.31400000      11.52900000      34.32200000
 H      35.16600000      10.56900000      34.09000000
 O      27.82900000      25.60600000      27.10200000
 H      28.44500000      25.35600000      27.82700000
 H      28.15900000      24.95600000      26.42800000
 O      30.59800000      20.22000000      33.58700000
 H      29.98000000      20.19500000      34.38900000
 H      30.63300000      21.17900000      33.47900000
 O      36.43300000      16.23700000      20.25400000
 H      37.20200000      16.04300000      20.77900000
 H      36.55600000      15.76000000      19.41900000
 O      32.58800000      13.95300000      18.56800000
 H      33.06100000      13.09600000      18.37800000
 H      32.87500000      14.46000000      17.81300000
 O      35.63800000      18.78800000      20.70800000
 H      36.20900000      17.97200000      20.40700000
 H      35.41000000      18.48900000      21.58800000
 O      37.06000000      20.34200000      26.49400000
 H      37.29800000      20.17900000      27.41700000
 H      37.53600000      19.58300000      26.01700000
 O      36.43000000      30.95200000      18.22100000
 H      36.23500000      30.86500000      19.16000000
 H      37.14000000      31.57800000      18.24900000
 O      35.58200000       7.49500000      40.45100000
 H      36.53700000       7.80500000      40.47800000
 H      35.22300000       8.33600000      40.88400000
 O      29.60100000      26.01900000      24.65100000
 H      28.87800000      26.67000000      24.87100000
 H      30.40800000      26.52200000      24.80200000
 O      35.65500000       7.17300000      27.55500000
 H      35.51800000       7.48900000      26.69200000
 H      35.24300000       7.84400000      28.15400000
 O      29.11200000      33.33600000      37.55900000
 H      29.30600000      34.29500000      37.79600000
 H      29.64500000      32.88400000      38.22500000
 O      36.18800000      16.45800000      30.68500000
 H      36.51500000      15.61800000      30.96400000
 H      35.61400000      16.22700000      29.94600000
 O      38.05500000      25.86900000      40.25200000
 H      37.65700000      25.13500000      40.77200000
 H      39.00500000      25.68100000      40.32800000
 O      35.74600000      35.25000000      23.28300000
 H      36.28400000      35.73000000      22.63800000
 H      34.85100000      35.37000000      22.97300000
 O      35.46400000      34.59100000      33.58900000
 H      35.45100000      33.74600000      34.12300000
 H      34.54700000      34.90300000      33.72900000
 O      28.39200000      22.61600000      37.25900000
 H      27.52600000      23.00600000      36.82200000
 H      28.34500000      23.14900000      38.06500000
 O      37.92900000       8.54000000      40.42800000
 H      37.87800000       8.90300000      39.47300000
 H      38.54900000       9.23400000      40.79000000
 O      33.47900000      34.10300000      18.94600000
 H      32.78100000      34.58000000      19.42200000
 H      33.03100000      33.42800000      18.48300000
 O      38.69300000      38.20600000      25.76900000
 H      37.92900000      37.56200000      25.67200000
 H      38.22100000      38.92100000      26.22300000
 O      34.95900000      26.66400000      17.36600000
 H      34.84300000      25.85200000      16.90000000
 H      35.87500000      26.93300000      17.18100000
 O      32.09100000      32.50100000      23.24000000
 H      32.30700000      32.59500000      24.23000000
 H      33.01300000      32.59400000      22.86400000
 O      33.44600000      14.54300000      36.82000000
 H      33.87100000      14.06600000      37.53200000
 H      32.92300000      15.29000000      37.29000000
 O      36.21700000      28.54000000      31.47200000
 H      35.53700000      27.88400000      31.44800000
 H      36.99000000      27.98100000      31.08300000
 O      38.85900000       6.83400000      21.72300000
 H      39.34700000       6.93300000      22.59600000
 H      39.12900000       7.70700000      21.31300000
 O      34.36500000      28.77500000      33.96300000
 H      34.94800000      28.37700000      34.53300000
 H      34.78800000      28.70200000      33.08700000
 O      39.88000000      20.55400000      18.42800000
 H      39.54300000      20.20800000      17.60200000
 H      39.59000000      21.51300000      18.38900000
 O      35.29400000      27.53700000      14.35600000
 H      35.89600000      28.03500000      14.96800000
 H      35.22800000      28.20300000      13.62700000
 O      32.89900000      21.10400000      16.56800000
 H      32.12000000      20.57000000      16.79400000
 H      33.47400000      20.98600000      17.33100000
 O      40.23000000       7.15400000      23.99000000
 H      39.96200000       6.39700000      24.51600000
 H      40.44300000       7.80600000      24.68400000
 O      27.76800000      37.84900000      30.58500000
 H      27.85300000      38.80700000      30.32100000
 H      28.72200000      37.58300000      30.55800000
 O      36.45000000      20.20500000      14.61300000
 H      36.10100000      20.97400000      15.08000000
 H      37.29200000      20.62600000      14.21300000
 O      28.71200000      28.38100000      30.54400000
 H      29.61100000      28.70800000      30.64100000
 H      28.56600000      28.49000000      29.57100000
 O      37.98300000      36.31000000      32.26000000
 H      38.84500000      36.14500000      32.70800000
 H      37.87700000      35.40700000      31.82300000
 O      29.75500000      26.95100000      19.73900000
 H      29.39600000      26.01900000      19.71700000
 H      30.70900000      26.80400000      19.46600000
 O      28.40300000      21.49200000      15.44400000
 H      27.80400000      22.22900000      15.41200000
 H      29.05900000      21.79900000      14.81400000
 O      37.39400000      34.70100000      17.39200000
 H      37.26600000      34.71900000      18.33500000
 H      38.36900000      34.62600000      17.29700000
 O      29.05800000      12.20400000      30.99400000
 H      29.97200000      11.84500000      30.99500000
 H      28.97400000      12.37200000      31.95600000
 O      29.15800000      39.07700000      27.88800000
 H      29.90600000      39.21700000      28.50800000
 H      29.48100000      39.38900000      27.03700000
 O      36.94900000       8.26100000      33.53600000
 H      36.71900000       9.22500000      33.49300000
 H      36.17000000       7.88300000      34.02000000
 O      32.09300000      16.33000000      38.40200000
 H      31.52700000      17.06900000      38.06700000
 H      32.56100000      16.79700000      39.12300000
 O      31.07600000      13.59000000      35.38800000
 H      31.52500000      13.43600000      34.50400000
 H      31.86700000      13.84800000      35.86400000
 O      36.20400000      21.99400000      30.71000000
 H      36.74400000      21.91900000      29.91100000
 H      35.93500000      21.03900000      30.81000000
 O      40.48300000      12.34400000      21.88300000
 H      39.95700000      12.94800000      21.29100000
 H      40.68400000      13.06200000      22.54800000
 O      33.30600000      28.30900000      25.25000000
 H      32.84500000      29.06600000      25.57500000
 H      33.26200000      27.72900000      26.01200000
 O      31.56100000      35.32800000      20.35100000
 H      30.92700000      35.93600000      19.95400000
 H      30.99700000      34.88400000      20.99700000
 O      39.83700000      11.18800000      37.02600000
 H      39.89600000      11.57500000      36.17500000
 H      40.44400000      11.72300000      37.53900000
 O      39.40100000      17.50800000      38.85300000
 H      39.18000000      18.28700000      38.29400000
 H      38.51300000      17.25500000      39.22100000
 O      39.83800000      17.15900000      22.65400000
 H      39.12100000      17.45000000      23.19200000
 H      39.98800000      17.84500000      22.02300000
 O      31.71400000      40.04100000      28.91500000
 H      31.66600000      40.86100000      28.35700000
 H      32.06000000      40.45300000      29.73400000
 O      39.89500000      24.96900000      29.45500000
 H      39.82800000      23.97300000      29.69100000
 H      40.11300000      25.27700000      30.37200000
 O      36.29100000       9.72000000      21.08000000
 H      36.46500000       9.29000000      21.97100000
 H      37.09600000      10.24300000      20.94100000
 O      35.56000000      26.86600000      28.32500000
 H      35.70400000      27.81500000      28.08300000
 H      36.35400000      26.69100000      28.88500000
 O      34.97300000      38.41900000      29.45800000
 H      35.86200000      38.43900000      29.87700000
 H      34.93400000      39.34800000      29.12300000
 O      35.43100000      26.54600000      39.44300000
 H      35.12300000      25.75300000      40.02600000
 H      36.37500000      26.56600000      39.79900000
 O      37.97700000      29.61900000      36.45900000
 H      38.58800000      30.17000000      36.99200000
 H      38.17100000      28.69800000      36.83900000
 O      32.06200000      28.94200000      31.28200000
 H      32.08200000      29.75500000      30.71100000
 H      32.28800000      28.27200000      30.65600000
 O      32.83800000      30.81800000      39.83100000
 H      33.10700000      30.62500000      40.71100000
 H      33.44400000      30.27900000      39.28700000
 O      38.81400000      34.06600000      37.63700000
 H      38.16200000      34.40100000      36.96100000
 H      38.40700000      34.34500000      38.45000000
 O      40.46300000      26.17600000      37.77700000
 H      40.77900000      25.26000000      38.04300000
 H      41.30800000      26.67800000      37.88100000
 O      26.97800000      14.46700000      18.27800000
 H      27.92300000      14.52500000      18.07600000
 H      26.68100000      15.45000000      18.04600000
 O      30.23000000       9.47400000      17.16300000
 H      29.36700000       9.34800000      16.68300000
 H      30.85100000       9.58600000      16.41700000
 O      32.40300000      39.47600000      33.16700000
 H      31.69300000      38.86500000      32.85200000
 H      33.15000000      38.83600000      33.06500000
 O      27.53800000      21.64600000      21.68800000
 H      27.17500000      21.90500000      20.83200000
 H      28.44300000      21.94900000      21.65100000
 O      39.60800000      31.38700000      21.76500000
 H      39.16900000      30.51400000      21.84400000
 H      39.35300000      31.75700000      22.63600000
 O      32.40900000      12.95000000      32.98100000
 H      33.14700000      12.61800000      32.43900000
 H      31.85200000      12.19800000      33.08600000
 O      35.18200000      39.92600000      21.35400000
 H      34.97300000      40.60700000      20.74700000
 H      35.74900000      39.33600000      20.98600000
 O      32.10900000      16.73100000      25.19300000
 H      31.78500000      17.09400000      24.37500000
 H      32.99500000      17.19700000      25.24600000
 O      31.10200000      37.78600000      38.96500000
 H      30.76800000      38.32500000      39.70800000
 H      31.65300000      38.44000000      38.48100000
 O      37.64700000      17.94400000      24.66600000
 H      37.37000000      16.96700000      24.76300000
 H      37.01600000      18.16400000      23.97500000
 O      40.26800000      25.24200000      15.93600000
 H      41.09400000      25.61900000      15.57600000
 H      39.89800000      24.78200000      15.12000000
 O      39.09100000      25.95000000      19.38800000
 H      39.72700000      25.81900000      20.12100000
 H      39.29200000      26.90200000      19.20000000
 O      30.94400000      36.96600000      24.50800000
 H      31.11100000      36.42600000      23.74200000
 H      31.03000000      36.26500000      25.22300000
 O      40.68900000      29.09000000      28.77900000
 H      41.53700000      29.56000000      28.64800000
 H      40.13600000      29.80100000      29.20600000
 O      35.43300000      40.88100000      27.98100000
 H      36.26400000      40.75800000      27.64400000
 H      35.56700000      41.42000000      28.79500000
 O      39.81200000      10.88600000      16.52800000
 H      39.43700000      11.37000000      17.31600000
 H      39.54000000      11.58300000      15.78900000
 O      31.84500000      28.09300000      13.53900000
 H      31.78200000      27.11700000      13.58300000
 H      32.01400000      28.35700000      14.41000000
 O      36.77100000      28.94100000      16.13300000
 H      36.89000000      29.49500000      16.88700000
 H      37.37700000      28.16900000      16.42500000
 O      32.06000000      13.71500000      29.95000000
 H      31.56400000      13.13500000      29.33500000
 H      32.54500000      13.09300000      30.50100000
 O      31.93800000      24.22400000      29.51600000
 H      32.22600000      24.60300000      30.33300000
 H      32.71000000      23.76000000      29.19800000
 O      38.72600000      30.61800000      29.96100000
 H      37.80300000      30.89000000      30.18900000
 H      39.18600000      31.02500000      30.70300000
 O      35.21100000      16.29300000      13.86700000
 H      34.25700000      16.04700000      13.95100000
 H      35.14300000      17.29600000      13.94400000
 O      28.11700000      39.25000000      15.22700000
 H      28.30700000      38.62500000      14.49900000
 H      27.25700000      38.90800000      15.56000000
 O      30.08600000      37.89900000      19.35200000
 H      29.77200000      37.13700000      18.76500000
 H      29.39300000      37.91700000      19.97000000
 O      39.50700000       9.72500000      22.15500000
 H      39.96100000       9.39000000      22.93700000
 H      39.98100000      10.59600000      22.10100000
 O      30.18400000      31.78200000      21.16500000
 H      31.10900000      31.93700000      21.51600000
 H      29.68400000      31.70000000      22.00500000
 O      35.02100000       7.12900000      34.90700000
 H      35.12600000       6.91200000      35.84500000
 H      34.74100000       6.23300000      34.56700000
 O      38.30600000      13.29600000      27.75900000
 H      38.88400000      13.50300000      27.02600000
 H      38.16500000      14.11300000      28.27200000
 O      40.78800000      17.85800000      26.12100000
 H      40.71200000      17.09200000      26.66600000
 H      39.89000000      17.87200000      25.73800000
 O      35.14500000      32.58300000      23.36200000
 H      35.68000000      33.41100000      23.52100000
 H      35.39400000      32.09700000      24.15500000
 O      29.41300000      28.50300000      34.81500000
 H      30.29300000      28.04300000      34.91200000
 H      29.65700000      29.27300000      34.34200000
 O      31.40500000      15.60400000      31.80000000
 H      31.74100000      15.14600000      30.98200000
 H      31.69400000      14.96900000      32.46600000
 O      40.41400000      35.53400000      33.14300000
 H      41.25300000      36.05500000      32.90800000
 H      40.66300000      35.15300000      34.00300000
 O      28.38300000      28.39600000      24.78300000
 H      27.75400000      29.17800000      24.65800000
 H      28.76600000      28.39000000      23.91600000
 O      36.43500000      23.63000000      18.08100000
 H      36.55600000      23.88100000      19.03900000
 H      35.42600000      23.65400000      18.03700000
 O      32.62400000      28.38000000      16.24100000
 H      33.25800000      27.75700000      16.22300000
 H      33.07300000      29.12800000      16.64400000
 O      33.48000000      10.18800000      37.62000000
 H      34.15000000      10.80800000      37.49200000
 H      33.40300000       9.77500000      36.64400000
 O      37.31600000      20.58100000      38.96200000
 H      36.41400000      20.89000000      38.67300000
 H      37.08300000      19.59800000      39.00700000
 O      37.31800000      22.97300000      28.25500000
 H      38.01000000      22.86200000      28.85500000
 H      37.83100000      22.90800000      27.36300000
 O      39.22900000      39.20800000      19.83300000
 H      38.38900000      38.85700000      19.43500000
 H      38.77600000      40.01500000      20.25300000
 O      32.61500000      39.41200000      22.85800000
 H      32.60500000      40.06500000      23.58300000
 H      33.34600000      39.70200000      22.29700000
 O      28.91200000       8.92200000      31.22700000
 H      28.44300000       9.64700000      31.81400000
 H      28.27600000       8.21900000      31.46000000
 O      32.92800000      36.61600000      22.43600000
 H      32.57500000      36.35900000      21.57400000
 H      32.65600000      37.54800000      22.48900000
 O      33.05200000      11.76800000      26.77000000
 H      32.46000000      11.52700000      26.07500000
 H      32.48700000      11.69600000      27.57600000
 O      28.03300000      28.41400000      18.40600000
 H      28.69300000      27.71200000      18.70000000
 H      28.51800000      29.20100000      18.74700000
 O      30.37900000      22.99800000      18.07300000
 H      30.59900000      23.73700000      17.47100000
 H      29.94300000      23.48900000      18.82400000
 O      32.94700000      22.93900000      21.16900000
 H      33.77100000      22.43500000      21.45300000
 H      33.15700000      23.83200000      21.51900000
 O      28.24600000      19.98800000      30.69400000
 H      28.86700000      19.35000000      30.35800000
 H      27.39900000      19.53400000      30.49600000
 O      32.23900000      15.91600000      13.95200000
 H      31.63200000      16.64800000      13.98000000
 H      32.37700000      15.76400000      12.97700000
 O      28.02600000      33.72200000      22.23400000
 H      27.30200000      33.04100000      22.29000000
 H      27.70500000      34.20100000      21.40900000
 O      30.95700000      21.23000000      29.54300000
 H      31.32500000      21.02600000      30.46100000
 H      30.67000000      20.29500000      29.34700000
 O      39.95900000      31.64600000      37.57600000
 H      39.76200000      32.59100000      37.66400000
 H      39.93800000      31.55700000      36.58400000
 O      35.18200000      32.04900000      34.14800000
 H      35.42100000      31.57000000      34.99800000
 H      35.86500000      31.57600000      33.59700000
 O      39.37100000      13.88500000      25.12200000
 H      39.80900000      14.34000000      24.34500000
 H      39.98300000      13.20800000      25.32200000
 O      31.09000000      11.63300000      28.70200000
 H      30.74700000      10.73100000      28.77800000
 H      30.23600000      12.10400000      28.42300000
 O      37.05700000      40.83700000      14.36800000
 H      37.59100000      41.64500000      14.52500000
 H      36.96000000      40.53000000      15.25800000
 O      34.92500000      35.61800000      37.41200000
 H      35.90100000      35.66200000      37.11700000
 H      34.73600000      34.67300000      37.11600000
 O      36.48100000      37.44900000      15.83700000
 H      35.95200000      36.64000000      16.14300000
 H      36.57100000      37.23900000      14.85300000
 O      29.03400000      16.90100000      31.52700000
 H      28.46800000      16.67900000      32.27900000
 H      29.79300000      16.34500000      31.72100000
 O      35.80700000      30.63900000      29.76300000
 H      35.30700000      31.46800000      29.99000000
 H      35.45300000      29.99800000      30.38300000
 O      29.16900000      17.69700000      19.58200000
 H      29.69500000      17.79600000      18.73700000
 H      28.29000000      17.54300000      19.25400000
 O      30.64700000      30.45800000      33.11200000
 H      31.24300000      29.80800000      32.60800000
 H      31.25700000      31.24700000      33.06500000
 O      28.94700000      12.85700000      33.66500000
 H      29.68900000      13.16900000      34.28900000
 H      28.21500000      13.10700000      34.28200000
 O      28.98900000      22.48300000      28.26000000
 H      29.73800000      21.92200000      28.75300000
 H      29.10400000      23.33500000      28.75900000
 O      39.00400000      28.59000000      26.32900000
 H      39.56400000      29.11700000      26.93200000
 H      39.23200000      27.68100000      26.71900000
 O      31.06900000      10.75700000      32.59800000
 H      31.40200000       9.84200000      32.64000000
 H      30.15300000      10.49800000      32.90800000
 O      32.92900000       7.86800000      39.23100000
 H      33.83900000       7.63300000      39.64000000
 H      33.24000000       8.70000000      38.77500000
 O      39.93200000      32.83000000      19.45900000
 H      39.83300000      33.70300000      19.96700000
 H      39.82300000      32.22100000      20.28100000
 O      31.07600000      22.61900000      24.49200000
 H      31.65800000      22.27600000      25.20800000
 H      31.43700000      23.51200000      24.49400000
 O      32.48300000      32.46000000      33.02500000
 H      33.37800000      32.23800000      33.53000000
 H      32.09400000      33.08100000      33.68400000
 O      29.62200000      34.19700000      31.57600000
 H      29.46000000      33.87800000      32.49200000
 H      30.14800000      33.47100000      31.17900000
 O      30.17600000      36.76900000      30.82800000
 H      29.97000000      35.96300000      31.34300000
 H      31.12800000      36.70200000      30.72500000
 O      31.25900000      25.16300000      16.75700000
 H      32.01500000      24.94900000      16.21600000
 H      31.64100000      25.73200000      17.42900000
 O      27.34100000       6.80200000      32.07100000
 H      28.12700000       6.47300000      32.52700000
 H      26.83800000       7.23100000      32.74900000
 O      37.81600000      16.69200000      27.90000000
 H      38.58900000      16.08500000      28.04300000
 H      37.50800000      16.40000000      27.03500000
 O      32.27600000      14.35700000      24.10300000
 H      32.35900000      15.13800000      24.62500000
 H      31.50700000      14.42100000      23.61200000
 O      36.92200000      40.39000000      32.96900000
 H      36.95100000      39.73700000      32.20900000
 H      36.76100000      39.72100000      33.67500000
 O      35.79000000      25.01400000      13.95300000
 H      35.10600000      25.00600000      13.26000000
 H      35.58500000      25.97100000      14.35200000
 O      40.66900000      34.97100000      21.13100000
 H      41.21900000      34.57300000      21.86000000
 H      40.11500000      35.58800000      21.64900000
 O      39.95000000      16.00500000      36.74100000
 H      40.76000000      16.44200000      36.36400000
 H      39.67200000      16.62400000      37.44100000
 O      33.32000000      14.80500000      16.19600000
 H      33.59400000      13.94200000      15.84900000
 H      32.81700000      15.13900000      15.39500000
 O      32.78900000       9.94500000      20.28700000
 H      33.55900000      10.13300000      20.87600000
 H      32.10900000       9.92100000      20.89100000
 O      37.10600000      34.45800000      39.65500000
 H      37.24600000      34.16800000      40.55400000
 H      36.50000000      35.20000000      39.71500000
 O      36.49600000      10.12200000      15.03000000
 H      35.78500000      10.33000000      15.65800000
 H      36.92400000       9.36800000      15.47500000
 O      27.98800000      34.53900000      29.40600000
 H      28.43100000      35.21600000      28.85500000
 H      28.52100000      34.68300000      30.24400000
 O      34.31700000      14.21100000      26.03700000
 H      34.00000000      13.40000000      26.40400000
 H      33.70500000      14.24100000      25.21300000
 O      40.81300000      38.66600000      33.85400000
 H      40.97700000      38.42900000      32.93100000
 H      41.53600000      39.25300000      34.09200000
 O      36.52400000      24.77000000      20.68300000
 H      37.39800000      24.90100000      20.27900000
 H      36.76100000      24.21900000      21.43300000
 O      40.30500000       8.16800000      31.62900000
 H      40.12500000       7.50100000      30.94600000
 H      40.85200000       7.70100000      32.26400000
 O      36.78900000      27.45500000      35.13800000
 H      37.07300000      28.22100000      35.66400000
 H      37.70600000      27.16200000      34.83800000
 O      31.56300000       8.01400000      27.11500000
 H      31.56100000       8.76900000      26.49000000
 H      30.98600000       8.44500000      27.81600000
 O      30.87600000      19.45900000      21.33400000
 H      30.45000000      19.66000000      20.43200000
 H      30.82000000      20.35600000      21.71000000
 O      35.08800000      34.80300000      29.95000000
 H      34.70800000      34.01000000      30.30500000
 H      34.60700000      35.53000000      30.35600000
 O      39.31300000      17.08500000      19.47200000
 H      38.76600000      16.99400000      18.68100000
 H      39.48500000      18.06200000      19.46000000
 O      37.61400000      19.36200000      29.15100000
 H      37.62300000      18.50900000      28.78700000
 H      36.88100000      19.41000000      29.76300000
 O      30.93000000      22.79200000      40.73700000
 H      31.32200000      23.58900000      41.10400000
 H      31.01800000      22.18000000      41.51300000
 O      40.82800000      12.06800000      32.34800000
 H      40.30500000      11.55700000      31.66200000
 H      41.61900000      12.22800000      31.86000000
 O      30.01500000      14.43200000      18.77700000
 H      30.91900000      14.15200000      18.93900000
 H      30.20600000      15.32000000      18.34500000
 O      39.56900000      19.17300000      15.36500000
 H      39.28200000      18.77200000      14.51300000
 H      39.99400000      18.31000000      15.64200000
 O      27.39000000      33.37200000      33.71900000
 H      27.82500000      32.50100000      33.81700000
 H      26.91400000      33.39800000      34.60500000
 O      38.40800000      19.08200000      34.11400000
 H      37.77500000      19.60000000      34.68700000
 H      38.71000000      19.80900000      33.57300000
 O      29.30600000      27.35900000      37.44900000
 H      29.42200000      27.71100000      36.56900000
 H      28.31300000      27.22600000      37.50200000
 O      29.22200000       7.98500000      21.45500000
 H      29.74500000       7.68700000      20.61300000
 H      28.34700000       8.15700000      21.02200000
 O      37.92300000      27.03200000      29.99800000
 H      38.62800000      27.68600000      29.73700000
 H      38.48600000      26.21400000      29.81100000
 O      29.41200000      24.92800000      29.06800000
 H      30.32900000      24.72500000      29.20900000
 H      29.22700000      25.34800000      29.95200000
 O      27.43800000      27.58100000      33.00600000
 H      27.97800000      28.00900000      33.69600000
 H      27.83700000      27.95600000      32.19600000
 O      29.38400000      28.17100000      22.12700000
 H      30.35600000      28.11700000      22.30700000
 H      29.33800000      27.65100000      21.31800000
 O      38.68600000       9.65200000      19.36000000
 H      38.63900000      10.54700000      18.93200000
 H      39.31800000       9.85300000      20.10800000
 O      38.49300000      22.47700000      25.63900000
 H      37.92600000      21.84400000      26.04300000
 H      38.72500000      22.01200000      24.78000000
 O      36.26800000      12.62800000      22.69200000
 H      36.56400000      11.93700000      23.26700000
 H      35.33800000      12.37800000      22.53500000
 O      37.58500000      14.43300000      31.71900000
 H      37.64600000      14.14700000      32.71200000
 H      37.64700000      13.53600000      31.34800000
 O      36.67700000      11.55100000      39.93700000
 H      37.47400000      12.06400000      40.18700000
 H      37.07300000      10.96400000      39.26600000
 O      33.50300000      26.50600000      37.03200000
 H      34.16000000      26.51800000      37.72000000
 H      32.68600000      26.35000000      37.53600000
 O      39.84800000      28.67400000      18.96600000
 H      40.76500000      28.57600000      18.60000000
 H      39.42900000      29.18000000      18.22000000
 O      38.85000000       6.55500000      27.75600000
 H      37.88200000       6.67400000      27.61000000
 H      39.13100000       7.48200000      27.57400000
 O      31.30100000      26.25100000      38.64600000
 H      31.16500000      26.62800000      39.51800000
 H      30.54400000      26.63200000      38.11700000
 O      33.78200000      32.40900000      30.81700000
 H      33.31800000      32.61200000      31.65700000
 H      33.08300000      31.98000000      30.31200000
 O      32.92900000      37.03500000      30.74100000
 H      33.46600000      37.07900000      31.62700000
 H      33.60200000      37.57300000      30.22200000
 O      29.52100000      31.72300000      25.82900000
 H      29.77200000      32.59300000      25.54300000
 H      28.94400000      31.45000000      25.07800000
 O      35.35000000      25.33100000      35.36400000
 H      35.70600000      26.27400000      35.41600000
 H      34.54100000      25.42700000      35.97600000
 O      34.64300000      24.09400000      28.36600000
 H      35.52800000      23.74900000      28.47300000
 H      34.79000000      24.94800000      27.94400000
 O      37.53000000      33.45100000      32.10500000
 H      36.58200000      33.77200000      32.35200000
 H      37.45200000      32.48600000      32.20600000
 O      37.14600000      30.79600000      32.74400000
 H      37.99800000      30.39600000      33.04800000
 H      36.68900000      29.91700000      32.51400000
 O      28.61400000      37.01700000      13.79100000
 H      27.95300000      36.32500000      13.94600000
 H      29.43200000      36.60900000      14.16900000
 O      28.53900000      13.92400000      38.00900000
 H      28.95800000      13.06400000      37.85700000
 H      29.04600000      14.31000000      38.73100000
 O      27.89100000      40.66900000      29.99100000
 H      27.39900000      41.05600000      29.20500000
 H      28.49300000      41.39400000      30.23400000
 O      33.78800000      13.35500000      39.31100000
 H      34.70000000      13.05700000      39.40500000
 H      33.34600000      12.94400000      40.08700000
 O      34.56400000      36.64700000      27.19000000
 H      34.80000000      37.28700000      27.90200000
 H      33.56000000      36.70100000      27.23700000
 O      36.64900000      14.80700000      18.03900000
 H      36.77400000      14.44000000      17.09400000
 H      36.09900000      14.06300000      18.42600000
 O      30.47600000      34.65700000      22.85200000
 H      29.63200000      34.18000000      22.76100000
 H      31.06400000      33.91500000      23.09600000
 O      33.45900000      36.20300000      16.33700000
 H      33.49300000      37.08200000      16.71100000
 H      32.55100000      35.94200000      16.50300000
 O      33.27300000       7.50100000      25.09300000
 H      32.90200000       6.62700000      24.74700000
 H      32.74200000       7.57800000      25.86800000
 O      40.82900000      21.85000000      15.76100000
 H      40.32000000      22.32100000      15.09500000
 H      40.49500000      20.90800000      15.56700000
 O      30.18600000      20.13300000      17.18700000
 H      29.52300000      20.24200000      16.47800000
 H      30.41000000      21.08200000      17.38100000
 O      30.47300000      18.38400000      29.50800000
 H      30.49900000      17.88400000      30.30400000
 H      30.52700000      17.65000000      28.86100000
 O      38.41600000      34.64900000      28.76800000
 H      37.58100000      34.71300000      29.12100000
 H      38.49600000      33.63400000      28.59200000
 O      32.74800000      35.24700000      34.61200000
 H      33.03700000      35.45000000      35.53200000
 H      31.95200000      35.79400000      34.52400000
 O      29.00800000      35.50200000      18.43000000
 H      28.44100000      35.90200000      17.73000000
 H      28.34500000      34.85200000      18.81400000
 O      31.79600000      27.69700000      22.98500000
 H      32.19700000      28.08900000      23.77900000
 H      32.53500000      27.65800000      22.38800000
 O      30.80200000      35.35800000      13.99000000
 H      30.95200000      35.34400000      14.95500000
 H      31.24600000      34.47800000      13.79400000
 O      35.65100000      10.25600000      26.38700000
 H      36.23200000      10.29700000      27.16900000
 H      34.89500000      10.84700000      26.74400000
 O      29.59200000      20.28200000      40.23400000
 H      30.12700000      21.11700000      40.27200000
 H      29.83100000      19.93000000      39.35600000
 O      37.40200000      29.57600000      40.08300000
 H      37.78200000      29.05600000      39.38500000
 H      38.18600000      30.03600000      40.46500000
 O      37.29600000      10.57000000      24.25600000
 H      38.01300000      10.01300000      24.47600000
 H      36.75400000      10.55200000      25.11300000
 O      36.49600000      38.51500000      34.77500000
 H      37.37900000      38.15100000      34.96900000
 H      36.11000000      38.40700000      35.66600000
 O      33.49400000      33.10500000      36.80000000
 H      34.27800000      32.48300000      36.82500000
 H      32.81000000      32.57000000      36.43700000
 O      28.81700000      24.31700000      19.95900000
 H      28.52700000      24.45100000      20.87700000
 H      28.08400000      23.76100000      19.61500000
 O      29.76700000      39.51800000      40.47500000
 H      29.55200000      40.16300000      41.21800000
 H      29.03600000      39.70700000      39.88000000
 O      32.52800000      39.64400000      37.55300000
 H      32.38700000      40.09200000      36.69700000
 H      32.82900000      40.44200000      38.10100000
 O      32.42000000      30.97800000      35.60100000
 H      32.87000000      30.45400000      34.94100000
 H      31.58400000      31.17000000      35.10900000
 O      40.67800000      16.60800000      15.78600000
 H      40.88500000      15.80900000      15.27400000
 H      41.10500000      16.41800000      16.63700000
 O      32.98200000      27.46800000      29.39200000
 H      33.92500000      27.39200000      29.05300000
 H      32.44300000      27.19600000      28.60400000
 O      37.04100000      20.93900000      35.56100000
 H      37.45300000      21.81400000      35.69700000
 H      36.16700000      21.07400000      35.99000000
 O      29.98000000      35.76800000      35.06000000
 H      30.01600000      35.79500000      35.99500000
 H      29.14400000      36.21900000      34.85200000
 O      29.87200000      18.42400000      38.06700000
 H      29.63900000      18.80700000      37.21200000
 H      29.15500000      17.79100000      38.15500000
 O      38.23800000      29.12400000      13.77400000
 H      37.90700000      28.98000000      14.64100000
 H      38.36200000      28.18400000      13.43800000
 O      32.36500000      33.76700000      39.05700000
 H      32.80100000      33.64600000      38.16800000
 H      32.50200000      32.87700000      39.41300000
 O      28.41400000       6.04000000      39.58100000
 H      28.52800000       6.98600000      39.30000000
 H      27.48100000       5.98500000      39.55700000
 O      40.49800000      25.43500000      22.05800000
 H      39.97300000      25.23400000      22.84800000
 H      40.78700000      24.53300000      21.79100000
 O      39.51400000      37.60800000      21.80700000
 H      38.71200000      37.07600000      21.55000000
 H      39.50000000      38.28700000      21.05000000
 O      30.51100000      21.92500000      21.99300000
 H      30.69200000      22.20200000      22.94800000
 H      31.45500000      22.14000000      21.68100000
 O      35.58100000      29.58100000      27.13200000
 H      35.76800000      30.21000000      26.33200000
 H      35.80900000      30.21900000      27.84700000
 O      28.61200000      18.34800000      26.27600000
 H      28.44600000      18.64200000      25.33700000
 H      28.17700000      18.97100000      26.81700000
 O      28.78900000      30.58800000      22.96600000
 H      29.13200000      29.78000000      22.53100000
 H      27.91400000      30.39600000      23.13000000
 O      31.93000000      27.50600000      35.01500000
 H      32.63900000      27.97700000      34.48400000
 H      32.40400000      26.72100000      35.33600000
 O      38.35400000      31.93800000      27.63300000
 H      39.18400000      31.89500000      27.18500000
 H      38.44900000      31.15600000      28.27600000
 O      38.93100000      32.22800000      24.20700000
 H      38.90000000      33.17300000      24.45000000
 H      39.32100000      31.80500000      24.98700000
 O      34.79200000      37.05200000      19.36700000
 H      34.11100000      37.60600000      19.01000000
 H      34.29500000      36.23300000      19.53000000
 O      32.88700000       9.57200000      16.19700000
 H      32.99100000       8.89900000      16.85100000
 H      33.33100000       9.18100000      15.41500000
 O      34.76600000      22.95600000      38.38300000
 H      34.75400000      22.35000000      37.56800000
 H      33.81700000      23.22400000      38.24400000
 O      38.81600000      34.66400000      25.69300000
 H      38.39700000      34.35600000      26.44600000
 H      38.16400000      35.32400000      25.36900000
 O      29.85400000       8.69600000      35.30900000
 H      29.99100000       8.27700000      36.15600000
 H      29.66200000       7.91400000      34.70600000
 O      39.18700000      12.78000000      14.88700000
 H      38.46000000      13.30200000      15.38900000
 H      38.61300000      12.17500000      14.35600000
 O      38.81700000      12.35400000      18.57700000
 H      37.97400000      12.67500000      18.16300000
 H      39.05400000      13.15700000      19.15400000
 O      29.72700000       9.39000000      28.70000000
 H      29.37300000       9.12400000      29.57200000
 H      29.02400000       9.37700000      28.09200000
 O      39.61200000      23.31300000      18.28100000
 H      38.81100000      23.86800000      18.17500000
 H      40.16300000      23.60400000      17.51800000
 O      27.32500000      27.78500000      15.01800000
 H      27.92600000      27.59100000      15.77400000
 H      27.95000000      27.82600000      14.26600000
 O      32.16500000       7.87800000      22.22700000
 H      32.29600000       8.05700000      23.16800000
 H      31.25600000       7.75900000      22.10100000
 O      34.21600000      25.99900000      20.79200000
 H      34.56100000      26.42400000      21.54400000
 H      35.04000000      25.49800000      20.43000000
 O      32.82900000      22.64000000      14.33600000
 H      32.78600000      22.15400000      15.14700000
 H      33.67600000      22.30900000      13.93300000
 O      37.31000000      14.19300000      34.47900000
 H      36.90300000      15.03600000      34.23300000
 H      37.38200000      14.35700000      35.46100000
 O      39.59400000      19.84000000      36.85300000
 H      38.66700000      19.99600000      36.53700000
 H      40.11100000      19.96500000      36.02200000
 O      29.00600000      14.36900000      23.45200000
 H      28.79700000      14.57900000      22.46200000
 H      29.41500000      15.23800000      23.66200000
 O      31.80700000      30.24800000      26.45400000
 H      30.90200000      30.53200000      26.26200000
 H      32.26200000      31.13400000      26.51000000
 O      27.85800000      37.75800000      24.48700000
 H      28.69700000      38.00500000      24.93200000
 H      27.58500000      37.00300000      25.13600000
 O      36.00700000       7.27200000      19.43400000
 H      36.72300000       7.67800000      18.83000000
 H      36.09200000       7.87600000      20.19200000
 O      35.58400000      30.93200000      36.65300000
 H      36.54200000      30.70500000      36.69500000
 H      35.18700000      30.14500000      37.06000000
 O      36.65600000      17.80500000      39.18300000
 H      36.31100000      16.97200000      39.56000000
 H      35.91400000      18.03300000      38.54700000
 O      27.96700000      30.21900000      39.24100000
 H      28.27900000      29.71500000      40.06300000
 H      28.52700000      29.79500000      38.59600000
 O      34.83300000      19.07100000      37.86000000
 H      34.91700000      18.39200000      37.16400000
 H      33.90300000      19.42100000      37.60500000
 O      32.47700000      17.40700000      22.63800000
 H      32.04400000      18.19500000      22.26100000
 H      32.63300000      16.90500000      21.80200000
 O      36.04400000      30.98400000      21.02800000
 H      35.53400000      31.05900000      21.85200000
 H      36.74600000      30.38300000      21.24400000
 O      29.27800000      25.41700000      31.79900000
 H      29.13000000      26.36700000      31.96300000
 H      28.28900000      25.17500000      31.80400000
 O      29.67300000      16.13700000      36.03200000
 H      29.51200000      15.45800000      36.71300000
 H      30.46100000      15.77200000      35.55300000
 O      32.39800000      32.70500000      26.12800000
 H      32.94300000      32.93200000      26.88300000
 H      31.62500000      33.32700000      26.25300000
 O      39.41100000      25.02100000      24.33700000
 H      39.65700000      25.10400000      25.30500000
 H      38.81300000      24.28100000      24.36700000
 O      37.57800000      10.66600000      28.33600000
 H      37.54300000      10.64700000      29.28900000
 H      37.78000000      11.63600000      28.14300000
 O      31.90100000      35.76100000      40.73800000
 H      31.55100000      36.33800000      39.97600000
 H      32.05600000      34.97500000      40.11900000
 O      28.92100000      36.81700000      21.96700000
 H      29.27100000      36.04900000      22.49700000
 H      28.84300000      37.48300000      22.64800000
 O      33.66200000      11.44200000      17.92000000
 H      33.43700000      10.82200000      18.65800000
 H      33.29500000      10.95600000      17.20500000
 O      39.75600000      14.66700000      30.07100000
 H      40.35600000      14.97800000      30.79700000
 H      38.93500000      14.89300000      30.40800000
 O      30.38300000      16.71000000      17.37300000
 H      30.74400000      16.11500000      16.61900000
 H      30.48000000      17.55900000      16.93100000
 O      34.55900000      33.99000000      27.27800000
 H      34.71500000      34.88600000      26.99100000
 H      34.98900000      33.95000000      28.13200000
 O      36.18100000      34.03900000      19.86200000
 H      36.16600000      33.28900000      20.50700000
 H      35.32700000      33.92200000      19.49000000
 O      28.37500000      25.16500000      22.50200000
 H      28.97900000      25.40500000      23.22100000
 H      27.65500000      24.83600000      23.06100000
 O      37.81700000       9.75100000      38.19200000
 H      38.64800000      10.19600000      37.85900000
 H      37.09000000      10.15400000      37.74000000
 O      33.43100000      23.50400000      34.30400000
 H      32.60300000      23.97900000      34.51400000
 H      34.10700000      24.22300000      34.28100000
 O      32.26800000      33.05300000      13.55900000
 H      31.65300000      32.53800000      14.06100000
 H      33.08700000      32.59300000      13.73300000
 O      28.99600000      11.51800000      19.44500000
 H      29.42500000      10.93200000      18.78400000
 H      29.43900000      12.37800000      19.17500000
 O      29.07800000      11.64500000      24.07900000
 H      28.43200000      11.37600000      23.33700000
 H      28.99800000      12.61500000      23.93100000
 O      40.62500000      15.63600000      27.79500000
 H      41.40800000      15.09900000      27.64300000
 H      40.40800000      15.40900000      28.71800000
 O      28.03800000       9.65600000      33.57000000
 H      27.46900000      10.22200000      34.14500000
 H      28.71000000       9.42800000      34.23000000
 O      32.36400000      26.98100000      19.04500000
 H      32.77400000      26.59200000      19.85800000
 H      33.16600000      27.24300000      18.59000000
 O      36.64600000      36.48700000      25.47200000
 H      36.27800000      35.94900000      24.73200000
 H      35.84000000      36.62900000      25.98600000
 O      37.10400000      25.18200000      33.09700000
 H      36.54400000      25.20100000      33.86200000
 H      36.68600000      25.85400000      32.50900000
 O      28.55900000      12.15000000      15.47100000
 H      28.77200000      12.97200000      14.95100000
 H      28.00700000      12.54000000      16.17800000
 O      27.87800000      14.99500000      27.45900000
 H      27.43300000      15.61900000      28.10800000
 H      28.78600000      15.34600000      27.51100000
 O      30.29300000      14.59200000      40.51200000
 H      29.69400000      15.40400000      40.73200000
 H      31.03500000      15.05600000      40.09100000
 O      34.24000000      23.90500000      31.15800000
 H      35.06200000      23.49600000      30.80000000
 H      33.88100000      23.14000000      31.68300000
 O      37.93900000      40.42900000      27.43200000
 H      38.47600000      41.18000000      27.66700000
 H      38.46600000      39.69800000      27.83800000
 O      35.08400000      15.69600000      40.27800000
 H      34.44000000      15.05000000      39.91600000
 H      35.35700000      15.39500000      41.12000000
 O      33.02000000       7.88400000      18.27300000
 H      33.83200000       7.42800000      18.45300000
 H      33.02200000       8.56300000      18.97200000
 O      35.38900000      19.39900000      31.09100000
 H      35.62200000      18.43900000      31.05000000
 H      34.39300000      19.31900000      31.32700000
 O      30.47600000       7.57700000      19.19400000
 H      30.06600000       8.23200000      18.65300000
 H      31.38200000       7.72100000      19.04600000
 O      30.15100000      40.34700000      21.90400000
 H      31.00200000      39.88300000      22.04500000
 H      30.53600000      41.28000000      21.91600000
 O      37.20700000      15.11100000      22.50200000
 H      37.08000000      15.18000000      23.49600000
 H      36.75300000      14.22800000      22.39000000
 O      32.46600000      38.55200000      18.25300000
 H      32.26700000      39.03900000      17.41900000
 H      31.60300000      38.27300000      18.49600000
 O      29.76000000      17.62700000      13.71200000
 H      28.92200000      17.76500000      14.12200000
 H      29.48700000      17.49800000      12.76500000
 O      27.99900000      16.20400000      33.98400000
 H      27.65800000      15.29900000      34.35800000
 H      28.60700000      16.37000000      34.75500000
 O      34.72200000      15.28500000      28.78000000
 H      33.90500000      14.80600000      28.96200000
 H      34.75700000      15.16400000      27.83400000
 O      29.26100000      31.20100000      28.53900000
 H      29.40500000      31.21000000      27.59500000
 H      28.36500000      31.48500000      28.65800000
 O      30.03900000      32.80000000      34.96200000
 H      30.09300000      33.81500000      34.90700000
 H      29.64300000      32.77900000      35.88600000
 O      35.78000000      38.16700000      40.31500000
 H      34.79000000      37.90700000      40.26500000
 H      35.82000000      38.48300000      41.23700000
 O      30.32000000      30.18900000      18.89500000
 H      30.96500000      29.58800000      19.31100000
 H      30.16700000      30.82500000      19.65500000
 O      34.25500000      21.51300000      36.12000000
 H      34.00700000      22.06500000      35.34300000
 H      33.60800000      20.79400000      35.95500000
 O      38.34900000      37.21200000      39.40300000
 H      37.45200000      37.56900000      39.61900000
 H      38.49900000      36.69800000      40.20900000
 O      36.92800000      38.51600000      18.46000000
 H      36.82400000      38.17200000      17.53500000
 H      36.10600000      38.10400000      18.83900000
 O      34.25300000      12.67900000      14.42500000
 H      34.39000000      12.48300000      13.52000000
 H      33.28600000      12.55900000      14.53300000
 O      36.48500000      31.33100000      25.43800000
 H      36.98200000      31.86500000      26.13900000
 H      37.03900000      31.59300000      24.64600000
 O      28.11600000      30.45100000      32.49200000
 H      28.15300000      30.08700000      31.55600000
 H      29.10600000      30.55200000      32.61500000
 O      39.88000000      39.65400000      38.70800000
 H      40.54100000      39.30400000      38.17900000
 H      39.28300000      38.87700000      38.92000000
 O      33.23300000      15.97900000      20.46900000
 H      33.05200000      15.16800000      20.00300000
 H      34.20500000      15.93700000      20.56600000
 O      28.73500000      15.14400000      20.91200000
 H      29.33100000      14.81100000      20.15700000
 H      28.85900000      16.10300000      20.70200000
 O      31.11200000      11.02000000      38.70600000
 H      30.50400000      11.12000000      37.95200000
 H      32.01100000      10.75100000      38.25900000
 O      31.04400000       6.94100000      37.48900000
 H      31.68200000       6.45700000      36.96100000
 H      31.69900000       7.35900000      38.18600000
 O      38.86100000      22.64500000      39.29700000
 H      38.43700000      21.77200000      39.06100000
 H      38.63000000      22.71600000      40.23000000
 O      34.92400000      20.36100000      18.41200000
 H      34.99300000      19.49300000      18.86100000
 H      35.84600000      20.51200000      18.09300000
 O      37.76700000      29.01200000      22.35300000
 H      38.38100000      28.47000000      22.91600000
 H      37.71300000      28.48800000      21.56000000
 O      30.84800000      24.65400000      33.75400000
 H      30.93000000      25.49100000      34.18200000
 H      30.18200000      24.85800000      33.03700000
 O      32.68500000      40.22200000      16.05200000
 H      32.58700000      39.46300000      15.40100000
 H      32.64100000      40.97900000      15.54700000
 O      28.60500000       9.42000000      40.00900000
 H      29.43500000       9.95300000      39.85700000
 H      28.26600000       9.88100000      40.79000000
 O      40.66600000      38.17200000      14.44200000
 H      41.32500000      38.61000000      13.91700000
 H      40.41100000      37.41100000      13.83600000
 O      33.57500000      18.91400000      14.35000000
 H      34.11700000      19.66700000      14.08800000
 H      33.88100000      18.83500000      15.28400000
 O      39.69600000      30.25700000      33.39900000
 H      40.27600000      29.43200000      33.49600000
 H      40.32500000      30.86600000      33.88300000
 O      28.75800000      12.58400000      27.84000000
 H      28.37300000      13.48000000      27.95400000
 H      28.08000000      12.16100000      27.36100000
 O      35.99000000       8.28400000      23.82300000
 H      35.12000000       8.07000000      24.23200000
 H      36.17100000       9.18400000      24.17300000
 O      40.09900000      34.61000000      17.09600000
 H      40.82000000      34.13100000      16.63600000
 H      40.32300000      35.52100000      16.92400000
 O      37.18700000      35.79900000      36.16300000
 H      37.84500000      36.49100000      36.04700000
 H      36.96000000      35.56500000      35.27700000
 O      38.55100000      40.26500000      22.78500000
 H      38.98600000      39.45000000      22.55600000
 H      38.04900000      40.49400000      21.99300000
 O      35.46000000      12.18500000      36.56300000
 H      36.25300000      12.79200000      36.49800000
 H      34.74900000      12.87400000      36.31500000
 O      29.14200000       7.85400000      24.04700000
 H      29.20600000       7.87800000      23.05500000
 H      28.39100000       8.54400000      24.14000000
 O      32.40400000      19.55500000      36.22900000
 H      31.82200000      20.34100000      36.35900000
 H      32.09700000      19.21400000      35.38000000
 O      29.99600000      34.48900000      26.11200000
 H      29.06100000      34.16600000      25.98100000
 H      29.83100000      35.06700000      26.89300000
 O      34.95500000      38.43000000      37.04400000
 H      34.10400000      38.90500000      37.28500000
 H      34.63000000      37.51000000      37.20800000
 O      39.51500000      16.94100000      31.60900000
 H      39.54500000      17.03100000      32.56700000
 H      40.45300000      16.49400000      31.53800000
 O      37.15600000      11.63000000      31.20500000
 H      36.38500000      11.53300000      30.56600000
 H      36.74700000      11.20500000      32.02600000
 O      36.44700000      35.59100000      13.54500000
 H      37.31600000      35.15200000      13.32300000
 H      36.17500000      35.03700000      14.30300000
 O      29.26900000      14.35200000      14.16400000
 H      28.39900000      14.71100000      14.37400000
 H      29.45400000      14.69200000      13.30000000
 O      39.90500000      13.17900000      34.58000000
 H      40.15900000      12.64000000      33.77400000
 H      39.01200000      13.45300000      34.30400000
 O      39.13400000       9.03200000      26.81800000
 H      39.88700000       9.66900000      26.77200000
 H      38.50900000       9.53900000      27.46700000
 O      31.76200000      26.26800000      27.16400000
 H      31.93000000      25.97300000      26.22500000
 H      31.63200000      25.36800000      27.59500000
 O      37.21900000      36.34700000      21.05000000
 H      36.52500000      36.78000000      20.57700000
 H      37.05300000      35.42500000      20.74000000
 O      33.46000000      23.30300000      18.42400000
 H      33.47100000      23.05800000      19.36800000
 H      32.57000000      23.14600000      18.24800000
 O      34.36300000      19.71100000      25.52400000
 H      33.78900000      20.44400000      25.80900000
 H      35.17500000      19.97100000      26.04900000
 O      28.61000000      20.11800000      36.03700000
 H      28.64600000      21.08600000      36.24600000
 H      27.76400000      20.14800000      35.56100000
 O      37.10100000      23.65100000      36.54200000
 H      36.62400000      23.14600000      37.21000000
 H      36.37200000      24.22000000      36.23100000
 O      30.16300000      16.39000000      26.93000000
 H      30.91300000      16.47300000      26.27600000
 H      29.57300000      17.12800000      26.55800000
 O      37.16200000      23.15800000      22.85900000
 H      36.59200000      22.55300000      22.42100000
 H      38.01600000      22.72100000      22.86800000
 O      40.15700000      26.03400000      26.85500000
 H      40.22700000      25.64200000      27.75400000
 H      41.13100000      26.28800000      26.70500000
 O      28.78600000      23.12700000      25.51200000
 H      29.63800000      22.99600000      25.05300000
 H      29.08500000      22.93500000      26.43300000
 O      37.36400000      18.93600000      17.57400000
 H      37.84100000      18.96900000      16.69400000
 H      36.68500000      18.25800000      17.43800000
 O      38.40500000      27.73500000      38.23500000
 H      39.25100000      27.24500000      38.15200000
 H      37.91700000      27.05800000      38.83300000
 O      40.60400000      31.38400000      26.36400000
 H      41.47800000      31.76700000      26.62500000
 H      40.80100000      30.72400000      25.69700000
 O      35.40000000      16.97900000      17.19600000
 H      35.89900000      16.16200000      17.46900000
 H      34.52000000      16.56700000      17.21500000
 O      39.40100000      26.55000000      35.27300000
 H      39.09700000      25.61300000      35.36900000
 H      40.04300000      26.60600000      36.01600000
 O      37.86700000      22.34200000      32.79000000
 H      37.15200000      21.92600000      32.26000000
 H      37.48000000      23.18900000      33.10600000
 O      31.72100000      31.10400000      29.65200000
 H      32.21200000      30.75900000      28.93700000
 H      30.79000000      31.22000000      29.19500000
 O      35.04000000      29.28100000      38.90000000
 H      34.96500000      28.34400000      39.15800000
 H      35.90900000      29.44800000      39.36600000
 O      40.75000000      12.06300000      40.00900000
 H      41.14600000      12.80200000      39.46000000
 H      41.53100000      11.42800000      39.92800000
 O      39.64100000       9.18000000      34.43300000
 H      38.72100000       9.32900000      34.76200000
 H      39.40100000       8.85100000      33.53900000
 O      29.31700000      36.45000000      27.93300000
 H      30.33000000      36.56500000      28.04300000
 H      29.07300000      37.38100000      27.96700000
 O      32.48500000      25.12600000      24.62100000
 H      33.45200000      25.14600000      24.38800000
 H      32.12300000      25.47900000      23.78600000
 O      32.32100000       7.92200000      32.82400000
 H      33.00600000       7.70000000      32.17900000
 H      31.72900000       7.17000000      32.74900000
 O      40.12300000      33.39400000      31.35600000
 H      40.21600000      34.24100000      31.93600000
 H      39.12400000      33.35600000      31.38800000
 O      39.37200000      30.85900000      17.49300000
 H      39.82500000      30.97100000      16.67800000
 H      39.62600000      31.65500000      17.96400000
 O      27.83400000       9.60100000      16.02200000
 H      27.92600000      10.54800000      15.65900000
 H      27.07800000       9.73600000      16.61000000
 O      36.48300000      27.60700000      25.28600000
 H      35.86700000      27.98000000      25.96600000
 H      37.27600000      28.13300000      25.57400000
 O      39.77200000       9.17200000      13.97000000
 H      39.01500000       9.82600000      13.87800000
 H      40.05300000       9.42300000      14.87200000
 O      29.93100000      32.01500000      40.18300000
 H      29.13000000      31.57200000      40.05700000
 H      30.62700000      31.39100000      40.16900000
 O      27.91400000      37.98900000      38.21000000
 H      27.84400000      38.94300000      38.41500000
 H      27.12000000      37.61800000      38.63900000
 O      39.48200000      23.59500000      35.19700000
 H      39.23900000      23.27600000      34.33200000
 H      38.67100000      23.41400000      35.72300000
 O      40.01600000      10.50300000      30.49100000
 H      39.03300000      10.37200000      30.71900000
 H      40.35000000       9.62100000      30.81800000
 O      29.60800000      35.97700000      37.74500000
 H      28.96100000      36.62900000      37.98000000
 H      30.43300000      36.43800000      38.10000000
 O      29.21100000      11.26100000      36.67400000
 H      29.65200000      10.62900000      36.08000000
 H      28.31100000      11.20900000      36.22800000
 O      39.30400000      37.52500000      35.98300000
 H      39.77600000      37.83200000      35.14700000
 H      40.12000000      37.49000000      36.56800000
 O      33.07600000      40.77600000      25.74000000
 H      33.15300000      41.74700000      25.77600000
 H      33.66700000      40.58200000      26.54600000
 O      37.28300000       7.98700000      16.19600000
 H      37.82400000       7.44800000      16.76200000
 H      36.40200000       7.56100000      16.23900000
 O      31.94600000      32.30900000      17.66300000
 H      31.34000000      31.67900000      18.14100000
 H      32.53700000      31.65500000      17.25700000
 O      40.25400000      19.25900000      30.13200000
 H      39.35900000      19.45100000      29.74600000
 H      39.97500000      18.57700000      30.81700000
 O      37.35900000       8.17600000      30.85300000
 H      37.28600000       8.11700000      31.81100000
 H      38.04800000       7.49600000      30.66300000
 O      40.70000000      36.40800000      28.85700000
 H      39.91400000      35.85100000      28.83300000
 H      41.07000000      36.25200000      27.96200000
 O      30.73700000      11.39500000      21.40600000
 H      30.08900000      11.62700000      22.12900000
 H      30.10500000      11.33800000      20.65200000
 O      37.03700000      15.29900000      25.16600000
 H      37.68700000      14.56300000      25.15800000
 H      36.26200000      14.75500000      25.50300000
 O      39.57700000      27.77300000      23.91500000
 H      39.37100000      28.12700000      24.79200000
 H      39.46600000      26.84300000      24.05400000
 O      31.92500000      37.32300000      28.16900000
 H      31.81400000      38.30100000      28.28500000
 H      32.23800000      37.07400000      29.06400000
 O      40.03700000      33.18300000      40.31600000
 H      39.79100000      34.02600000      40.73100000
 H      39.84900000      33.45700000      39.38900000
 O      29.46500000      25.85900000      14.79800000
 H      29.97800000      25.70100000      15.60700000
 H      29.97900000      25.23900000      14.18100000
 O      37.40200000      38.58300000      30.93800000
 H      37.70100000      37.74000000      31.35700000
 H      38.05900000      38.64300000      30.21800000
 O      30.97000000      21.88400000      36.21800000
 H      30.16200000      22.33900000      36.50300000
 H      31.64100000      22.38100000      36.80400000
 O      35.81500000      12.81700000      19.40700000
 H      35.24900000      12.08700000      19.00500000
 H      35.86400000      12.48600000      20.31300000
 O      33.49400000      12.25500000      22.38400000
 H      32.63700000      11.88800000      22.07000000
 H      33.06600000      13.00700000      22.92300000
 O      34.57000000      26.50700000      31.58400000
 H      34.50700000      25.50900000      31.48400000
 H      33.86000000      26.76600000      30.97700000
 O      36.66200000      13.87700000      15.51200000
 H      36.04600000      13.25200000      15.09700000
 H      36.37200000      14.71400000      15.24800000
 O      38.94300000      22.87900000      14.29500000
 H      38.58900000      22.58600000      13.44100000
 H      38.17100000      22.69000000      14.87100000
 O      35.67900000      21.78400000      20.99500000
 H      35.89800000      22.05300000      20.11900000
 H      35.76000000      20.83600000      20.97000000
 O      34.25800000      30.57400000      17.11200000
 H      35.14000000      30.64500000      17.59400000
 H      34.53500000      30.78900000      16.18600000
 O      31.57600000      12.59500000      14.04600000
 H      31.07900000      13.39500000      13.93400000
 H      30.95400000      12.03700000      14.55900000
 O      36.40800000      16.55700000      33.65100000
 H      36.24000000      16.58300000      32.68500000
 H      37.11700000      17.24700000      33.70000000
 O      27.86500000      28.20300000      27.82000000
 H      27.64900000      27.29100000      27.55500000
 H      28.32300000      28.52500000      26.99600000
 O      37.68300000      14.32800000      37.07900000
 H      37.61900000      14.05400000      38.08400000
 H      38.53300000      14.79400000      37.15100000
 O      33.55200000       9.47400000      34.91600000
 H      33.95800000       8.60000000      34.77800000
 H      32.76200000       9.38300000      34.32600000
 O      35.09200000      37.27200000      32.63600000
 H      35.76300000      36.55700000      32.70600000
 H      35.46900000      37.79900000      33.40400000
 O      35.00100000       8.80900000      29.66300000
 H      34.49100000       7.99200000      29.92900000
 H      35.85200000       8.66800000      30.06000000
 O      39.28400000       7.44000000      18.06300000
 H      38.98300000       8.26500000      18.45400000
 H      40.22600000       7.46800000      18.22300000
 O      33.64800000      11.18800000      30.81100000
 H      33.98900000      10.24700000      30.71500000
 H      32.86200000      11.04300000      30.24600000
 O      39.07600000      14.14500000      20.50800000
 H      39.25300000      15.06400000      20.31800000
 H      38.40300000      14.21700000      21.18400000
 O      34.98200000      16.90700000      36.08700000
 H      35.46800000      17.02800000      35.29000000
 H      34.67800000      15.96800000      36.07300000
 O      29.48800000      17.07900000      23.24100000
 H      29.89600000      17.37900000      22.40200000
 H      28.57900000      17.55700000      23.17700000
 O      32.16200000      38.33700000      14.35700000
 H      31.60600000      37.55000000      14.12800000
 H      33.04400000      38.08700000      13.98800000
 O      39.27800000      38.58400000      29.00600000
 H      39.68400000      37.71000000      29.04800000
 H      40.11800000      39.07000000      28.69900000
 O      34.72400000      31.45400000      14.28500000
 H      35.10900000      32.27900000      14.60100000
 H      35.22400000      31.21400000      13.47800000
 O      38.21300000      26.85400000      16.82000000
 H      39.08900000      26.58700000      16.45600000
 H      38.20300000      26.37400000      17.66300000
 O      35.18300000      18.02300000      23.29400000
 H      34.90300000      18.49700000      24.11900000
 H      34.37000000      17.57000000      23.03400000
 O      39.25800000      22.63400000      30.55100000
 H      38.60100000      22.59900000      31.27600000
 H      40.08600000      22.70900000      31.04600000
 O      32.83400000      22.26900000      26.70600000
 H      33.39300000      22.98600000      27.02600000
 H      32.59400000      21.88400000      27.60000000
 O      32.52500000      18.68400000      32.01700000
 H      32.13200000      17.78100000      31.84800000
 H      31.78400000      19.01500000      32.60400000
 O      38.38900000      13.75500000      39.65000000
 H      39.22400000      13.40800000      39.99800000
 H      38.23700000      14.51000000      40.32200000
 O      35.27600000      33.76500000      15.49100000
 H      36.01000000      34.08500000      16.11100000
 H      34.47900000      34.11300000      15.91800000
 O      30.56600000      39.45500000      25.23100000
 H      31.53300000      39.65700000      25.37500000
 H      30.64100000      38.56100000      24.85200000
 O      30.67100000      10.39800000      25.79600000
 H      30.02700000      10.68400000      26.49500000
 H      30.19400000      10.85600000      25.03100000
 O      32.02600000      23.62500000      38.20300000
 H      31.59200000      23.14200000      39.00500000
 H      31.77600000      24.52800000      38.37400000
