%chk=cluster_101.chk
%mem=6GB
%nproc=4
#b3lyp/6-311++G** scrf=(cpcm,Solvent=Water) nosymm freq
iop(2/11=1) 
 Geom=(NoDistance,NoAngle)

cluster_101

0 1
 O       6.06900000       3.71400000       3.45000000
 H       5.32900000       3.64400000       4.11300000
 H       6.85800000       4.21300000       3.94400000
 O       3.90500000       1.06500000      11.39900000
 H       4.06100000       1.69300000      10.62100000
 H       4.44200000       0.22100000      11.26300000
 O       4.65200000       6.64600000       3.90100000
 H       3.73600000       6.96800000       3.86600000
 H       4.65100000       6.03000000       3.11900000
 O      10.56900000       4.20100000       5.45500000
 H      10.45800000       3.36000000       5.02700000
 H      10.79900000       4.00000000       6.39000000
 O       8.07400000       5.20800000       4.73000000
 H       8.44800000       5.96400000       4.16300000
 H       8.95800000       4.90000000       5.16100000
 O       4.12700000       3.36500000       5.20000000
 H       3.96300000       4.24800000       5.64500000
 H       3.20700000       2.99800000       5.15400000
 O       5.18500000       6.52000000       9.36200000
 H       4.81500000       6.20000000       8.49500000
 H       4.71200000       5.81200000       9.95600000
 O       5.11800000       5.97800000       6.61100000
 H       4.91800000       6.08700000       5.60600000
 H       5.80500000       6.73300000       6.67400000
 O       7.70800000       3.02300000       7.27400000
 H       7.22600000       3.86900000       7.23000000
 H       8.53400000       3.25400000       7.72500000
 O      10.22800000       3.85000000       8.52300000
 H      10.21800000       3.59600000       9.49000000
 H      11.12200000       3.46700000       8.28900000
 O       8.91700000       1.57200000       4.31600000
 H       8.96000000       0.76300000       4.91600000
 H       8.35400000       2.25500000       4.74000000
 O       5.38900000       2.49400000       9.40500000
 H       5.31800000       3.13800000       8.68200000
 H       5.89500000       1.77900000       8.94400000

