163
XYZ file of cluster: frame_8500_4c08e.6aca3.6e160 - created by MolEdiTo
 O      15.52400000      23.18300000      26.66100000
 H      16.26900000      23.11500000      26.05000000
 H      15.73800000      22.70800000      27.50800000
 O      16.13000000      25.35100000      15.66100000
 H      15.44400000      26.09000000      15.57500000
 H      15.73900000      24.91900000      16.40400000
 O      17.44900000      18.98100000      23.36000000
 H      18.43100000      19.03500000      23.55400000
 H      17.41200000      19.40600000      22.47300000
 O      11.40000000      17.79300000      23.63200000
 H      10.45100000      17.50800000      23.75600000
 H      11.28500000      18.66000000      23.24700000
 O      18.38300000      17.12800000      20.69200000
 H      18.94500000      17.29000000      21.51200000
 H      18.02000000      17.96600000      20.44300000
 O      11.25600000      19.83300000      15.89300000
 H      11.85400000      19.21000000      15.43900000
 H      10.67200000      19.36000000      16.52700000
 O      10.98200000      21.80500000      24.15600000
 H      10.34100000      22.45200000      24.00300000
 H      11.21900000      21.44900000      23.29800000
 O      14.82200000      25.41600000      21.58800000
 H      15.60800000      25.92100000      21.89400000
 H      14.74100000      24.64400000      22.21300000
 O      20.34500000      21.74700000      22.67600000
 H      19.97700000      21.36800000      21.84900000
 H      20.51600000      22.70100000      22.57000000
 O      13.87500000      25.93300000      19.13800000
 H      14.15800000      26.86700000      19.17400000
 H      14.44900000      25.56500000      19.88500000
 O      18.90900000      17.24500000      17.65000000
 H      19.54300000      17.68200000      18.31300000
 H      19.48100000      17.13000000      16.87300000
 O      13.06200000      24.41500000      16.91400000
 H      13.26800000      24.93400000      17.75800000
 H      13.37300000      24.92400000      16.05700000
 O      16.65700000      19.58900000      25.99100000
 H      16.63300000      19.62900000      25.00500000
 H      16.29900000      18.67600000      26.03100000
 O      17.16500000      23.99500000      18.05700000
 H      16.72400000      23.18700000      18.18800000
 H      18.13000000      23.96400000      18.12000000
 O      20.39600000      26.75200000      16.20700000
 H      20.57200000      25.83400000      16.62900000
 H      20.83600000      27.43100000      16.78500000
 C      15.64100000      17.25800000      15.79700000
 C      15.36000000      16.04100000      16.74900000
 C      15.99400000      14.50000000      14.76800000
 H      17.34300000      15.34800000      16.22900000
 H      16.81300000      17.50800000      17.13000000
 O      16.33100000      13.79900000      17.07700000
 O      15.06100000      17.48400000      14.73400000
 O      16.56300000      18.02500000      16.30600000
 C      16.35000000      14.97600000      16.22000000
 O      15.48600000      16.39300000      18.13500000
 H      14.31200000      15.70800000      16.51100000
 O      14.83700000      14.47400000      14.36100000
 O      16.93800000      13.83900000      14.12300000
 H      17.76400000      13.96100000      14.62800000
 H      15.08900000      15.66700000      18.69200000
 H      17.06500000      13.92100000      17.73600000
 O      11.04600000      15.39700000      21.36300000
 H      11.79600000      16.05900000      21.52100000
 H      11.35200000      14.68900000      21.96200000
 O      12.21400000      21.62300000      18.45600000
 H      11.53400000      21.22300000      17.83600000
 H      11.78500000      22.52200000      18.52700000
 O      21.03600000      24.44600000      22.73500000
 H      21.24200000      24.71100000      21.84400000
 H      20.21200000      24.93400000      23.00000000
 O      17.12000000      15.90400000      24.24300000
 H      16.16200000      16.18900000      24.34600000
 H      17.40400000      16.74800000      23.84400000
 O      15.85500000      21.62100000      17.98400000
 H      16.31200000      20.82100000      17.55400000
 H      15.75300000      22.10200000      17.07500000
 O      12.77500000      25.39800000      24.48400000
 H      12.74600000      26.12800000      25.12000000
 H      12.45700000      25.84200000      23.65800000
 O      18.75700000      22.66500000      20.22400000
 H      18.98400000      23.60000000      19.97400000
 H      18.03200000      22.58400000      20.89800000
 O      18.29900000      23.17400000      25.21300000
 H      18.20700000      22.70600000      24.30200000
 H      19.17200000      22.92200000      25.63500000
 O      13.54400000      20.24800000      22.95800000
 H      14.33100000      19.80400000      22.68500000
 H      12.81600000      19.78700000      22.46700000
 O       9.92100000      25.49000000      16.62000000
 H      10.39600000      25.94800000      15.85200000
 H      10.68200000      25.09300000      17.03600000
 O      16.87700000      22.15200000      23.08400000
 H      16.05100000      21.81500000      22.59500000
 H      16.51400000      22.72000000      23.76700000
 O      10.85500000      20.05800000      26.17100000
 H      11.75900000      19.71400000      25.93200000
 H      10.73000000      20.67200000      25.44800000
 O      17.50100000      19.79700000      20.57800000
 H      16.80700000      20.49900000      20.79300000
 H      17.94100000      20.32900000      19.89700000
 O      11.02700000      26.24300000      19.62100000
 H      10.84600000      27.10300000      19.17400000
 H      11.88300000      25.97800000      19.18900000
 O      13.87200000      19.09500000      26.52800000
 H      14.25500000      18.68200000      25.71200000
 H      14.55600000      19.81600000      26.68300000
 O      10.80200000      20.46100000      21.78300000
 H      11.06600000      20.74300000      20.85200000
 H       9.80500000      20.59900000      21.77600000
 O      20.80600000      17.19100000      15.38600000
 H      21.27300000      17.96100000      15.18100000
 H      21.50700000      16.71800000      15.90600000
 O      20.66500000      17.02000000      26.12400000
 H      20.01700000      16.65100000      25.41500000
 H      20.31400000      17.78000000      26.64600000
 O      10.41400000      23.85600000      22.10400000
 H      10.64300000      24.64700000      22.63000000
 H      11.26400000      23.51200000      21.70100000
 O      10.47600000      22.44900000      16.05800000
 H      10.98000000      23.09600000      16.55200000
 H      10.92900000      21.61400000      15.89100000
 O      14.73800000      17.35200000      24.28400000
 H      13.82800000      17.04300000      24.48200000
 H      14.84400000      17.51400000      23.28000000
 O      12.05700000      16.57000000      17.27900000
 H      11.61400000      15.84300000      17.66000000
 H      12.96300000      16.47800000      17.62900000
 O      20.52800000      18.64500000      19.36100000
 H      20.37700000      18.20300000      20.24000000
 H      21.49800000      18.81200000      19.42800000
 O      20.66700000      20.22900000      25.05100000
 H      20.27000000      20.94400000      24.46600000
 H      21.41600000      20.64700000      25.47700000
 O      21.64900000      21.96800000      19.20000000
 H      21.95200000      21.07300000      18.86200000
 H      20.69500000      21.72800000      19.39900000
 O      19.61700000      23.66300000      16.88600000
 H      19.19800000      23.20900000      16.07600000
 H      20.57700000      23.39900000      16.92900000
 O      18.47100000      25.77800000      23.69200000
 H      17.75700000      26.43500000      23.64000000
 H      18.18800000      25.08600000      22.99600000
 O      15.07300000      21.56800000      20.53600000
 H      15.26600000      21.68600000      19.55400000
 H      14.46700000      20.78900000      20.61000000
 O      14.70000000      17.81600000      21.50800000
 H      14.18800000      18.35400000      20.90800000
 H      15.09200000      17.06400000      20.99700000
 O      20.27100000      18.30800000      22.81900000
 H      20.71700000      18.83500000      23.42800000
 H      20.58000000      17.38600000      23.03700000
 O      19.62900000      25.29800000      19.79600000
 H      20.38000000      25.16200000      19.15700000
 H      19.73300000      26.20600000      19.93200000
 O      12.60700000      22.80100000      21.16000000
 H      13.35600000      22.63100000      21.77300000
 H      13.04800000      22.69300000      20.35700000
 O      13.28400000      19.50200000      19.99500000
 H      12.49100000      18.88800000      19.83200000
 H      13.01000000      20.34500000      19.57000000
 O      14.23400000      23.22900000      23.91800000
 H      13.49800000      23.80500000      24.35200000
 H      13.74400000      22.41500000      23.75800000
