108
XYZ file of cluster: frame_8500_2b4d.0.2709 - created by MolEdiTo
 O       1.02400000       9.04800000       6.62300000
 H       1.80800000       8.58100000       6.85900000
 H       0.42800000       8.27000000       6.34100000
 O       8.62500000       7.25200000       5.39900000
 H       8.49300000       8.09900000       5.74800000
 H       8.22000000       7.35800000       4.51800000
 O       4.21500000       2.08700000       9.14300000
 H       4.77300000       1.36200000       8.80300000
 H       4.78300000       2.90800000       8.83100000
 O       2.88400000       7.15700000       8.33300000
 H       3.27100000       6.64600000       7.58200000
 H       3.50500000       7.90200000       8.48000000
 O       2.52100000       8.00900000       1.89000000
 H       2.16100000       7.09600000       1.67300000
 H       1.88500000       8.68300000       1.54900000
 O       1.35500000      10.01400000       9.37600000
 H       0.34900000      10.25400000       9.35200000
 H       1.54800000       9.61200000       8.48800000
 O       7.94300000       0.70400000      11.06100000
 H       7.74700000       0.66200000      10.09200000
 H       7.35500000       0.00000000      11.32900000
 O       6.48500000       5.29800000       1.38800000
 H       5.91700000       5.48200000       2.15100000
 H       7.04200000       6.10300000       1.35000000
 O       8.64500000       9.82000000       3.26100000
 H       8.86500000      10.71100000       2.97300000
 H       9.41300000       9.62800000       3.86700000
 O       4.10300000       9.86300000       5.36500000
 H       4.35300000       9.05300000       4.86500000
 H       3.45500000      10.35800000       4.72300000
 O       0.95000000       3.81800000       7.13100000
 H       0.53200000       4.71800000       7.15200000
 H       1.19800000       3.71900000       6.12400000
 O       9.56100000       3.29200000       6.92900000
 H       9.60200000       2.33000000       7.24600000
 H       9.43500000       3.85800000       7.76700000
 O       6.47600000       2.79000000       2.85500000
 H       7.28200000       3.05500000       3.37600000
 H       6.39600000       3.43800000       2.16100000
 O       2.30500000       4.65800000       9.55700000
 H       2.28500000       5.54100000       9.11400000
 H       1.66400000       4.12800000       9.08300000
 O       5.92900000       9.10800000       1.21300000
 H       6.19600000       9.08800000       0.31300000
 H       6.16700000      10.08600000       1.50700000
 O       1.58900000       3.67100000       4.17400000
 H       1.03100000       2.85100000       3.89700000
 H       1.94900000       4.19100000       3.39900000
 O       9.86400000       1.55800000       3.43900000
 H       8.96700000       1.58200000       3.01900000
 H      10.28900000       1.02400000       2.68100000
 O       9.09200000       7.56600000       1.34000000
 H       9.41400000       6.91500000       2.03500000
 H       9.20600000       8.49100000       1.85700000
 O       9.64800000       9.75900000       7.40400000
 H      10.08300000      10.25100000       6.69700000
 H       8.98400000      10.52300000       7.61100000
 O       3.14700000       1.18300000       5.45600000
 H       3.26500000       2.14000000       5.38400000
 H       3.83000000       0.79400000       6.07700000
 O       6.48700000      10.59900000       6.37600000
 H       7.02000000      11.21700000       5.88800000
 H       5.73300000      10.34500000       5.77800000
 O       0.93100000       6.35700000       5.19100000
 H       1.71300000       6.76000000       4.85300000
 H       1.15900000       5.36100000       5.19700000
 O       7.27000000       3.92800000      10.51800000
 H       7.44400000       4.07700000       9.59700000
 H       6.28400000       4.01500000      10.61200000
 O       4.00100000       6.00600000       5.95000000
 H       4.90000000       5.87300000       5.69500000
 H       3.60000000       5.20500000       5.62300000
 O       1.90900000       4.51500000       1.41600000
 H       1.08200000       4.63200000       0.82800000
 H       2.60100000       4.39700000       0.71800000
 O       1.64100000       1.79000000      10.32900000
 H       0.98400000       1.39500000       9.77800000
 H       2.41200000       2.01600000       9.73300000
 O       5.09600000       7.34900000       3.36600000
 H       5.39800000       7.89400000       2.60900000
 H       4.12200000       7.57100000       3.58900000
 O       8.28000000       3.93100000       4.53200000
 H       8.76800000       3.72000000       5.39300000
 H       7.92100000       4.85100000       4.68200000
 O       6.13000000       4.01200000       7.94500000
 H       5.98100000       3.70900000       7.00400000
 H       6.94800000       4.57000000       7.88100000
 O       4.93400000       3.48700000       4.96700000
 H       5.60300000       2.95800000       4.39400000
 H       4.25000000       3.74600000       4.33100000
 O       4.74800000       5.50400000      10.79200000
 H       4.01200000       5.40500000      10.09000000
 H       4.36700000       4.96600000      11.56400000
 O       8.19500000       5.78700000       8.43000000
 H       8.78600000       6.24200000       7.80300000
 H       7.60000000       6.56500000       8.61900000
 O       4.30700000       9.07600000      10.87300000
 H       4.20100000       9.09000000       9.85700000
 H       4.05900000      10.03500000      11.06000000
 O       4.40300000       9.87100000       8.03600000
 H       4.40000000       9.78400000       7.07600000
 H       5.34500000      10.07600000       8.14200000
 O       6.61700000       7.74400000       9.28000000
 H       5.69300000       7.74500000       9.61800000
 H       6.71700000       8.65000000       8.91700000
 O      10.51100000       6.02600000       3.19200000
 H      10.88700000       5.15200000       2.92700000
 H      10.21100000       5.79700000       4.07700000
