102
XYZ file of cluster: frame_8500_9cd6a.9c736.44d8 - created by MolEdiTo
 O      23.50900000      24.72900000       3.16400000
 H      22.82900000      25.41300000       3.19600000
 H      24.05000000      25.11500000       2.45700000
 O      29.81600000      21.41800000      10.45800000
 H      29.84900000      21.61900000       9.48800000
 H      28.85000000      21.15600000      10.56900000
 O      26.14200000      26.33200000       4.14000000
 H      25.23100000      25.99500000       4.48600000
 H      26.19100000      27.25000000       4.52300000
 O      21.11800000      26.45700000       3.23000000
 H      20.28700000      26.18900000       3.63600000
 H      20.81600000      26.15100000       2.33400000
 O      23.42300000      21.14100000       0.98000000
 H      23.60800000      21.02300000       1.88500000
 H      23.33000000      20.21600000       0.55200000
 O      21.32300000      22.97200000       2.68500000
 H      21.01000000      23.55200000       3.40400000
 H      22.29200000      22.75500000       2.91200000
 O      28.71600000      27.94200000       6.81700000
 H      29.47000000      28.56200000       6.91000000
 H      27.99100000      28.42000000       7.32200000
 O      21.04200000      22.03300000       8.82200000
 H      20.22500000      21.59000000       9.15100000
 H      21.75300000      21.76500000       9.47900000
 O      24.13800000      27.02300000       1.67700000
 H      23.28200000      27.51400000       1.37800000
 H      24.81100000      27.09000000       0.94500000
 O      26.48500000      27.05900000       9.30100000
 H      26.83200000      26.78100000      10.19700000
 H      25.55600000      27.28000000       9.60500000
 O      24.25600000      21.09500000       3.83100000
 H      23.76000000      21.67300000       4.43600000
 H      25.20300000      21.37100000       3.85000000
 O      24.28100000      25.59500000       6.54100000
 H      24.45800000      24.69000000       6.20900000
 H      23.40100000      25.72000000       6.78100000
 O      29.57600000      28.07500000       3.97200000
 H      29.60100000      28.52600000       4.83700000
 H      29.00600000      28.69400000       3.54600000
 O      30.09400000      26.10800000       8.36900000
 H      29.73500000      25.58900000       9.15500000
 H      29.37600000      26.65400000       7.99200000
 O      23.17200000      29.84500000       5.93200000
 H      23.77200000      29.20600000       5.51800000
 H      23.38700000      29.55200000       6.84300000
 O      28.77600000      22.37500000       7.81200000
 H      28.80500000      22.90500000       8.58900000
 H      27.93700000      22.77500000       7.38700000
 O      24.15000000      20.58900000       7.72400000
 H      24.19900000      21.34800000       8.37900000
 H      24.64300000      20.81400000       6.94500000
 O      28.41800000      25.23400000       5.86200000
 H      27.89400000      25.97200000       5.34000000
 H      29.22600000      25.65100000       6.19200000
 O      29.78600000      22.32700000       3.92300000
 H      30.69000000      22.68600000       4.11100000
 H      29.65000000      21.78600000       4.69000000
 O      26.22500000      23.76900000       2.38600000
 H      26.63400000      24.55800000       2.28000000
 H      25.29700000      23.96500000       2.60900000
 O      26.19100000      29.91200000       4.68100000
 H      25.98800000      30.83700000       4.36500000
 H      26.40900000      29.86000000       5.69000000
 O      26.48800000      24.10000000       7.53000000
 H      26.64900000      24.93500000       7.98100000
 H      26.99400000      24.28500000       6.72000000
 O      22.64300000      25.64500000       9.49000000
 H      21.95100000      25.45700000       8.77500000
 H      23.49400000      25.47600000       9.13200000
 O      26.25100000      29.57900000       7.40500000
 H      26.03700000      28.79400000       8.03400000
 H      26.08800000      30.44200000       7.91400000
 O      23.25000000      28.95500000       8.83200000
 H      22.87000000      29.07700000       9.66800000
 H      22.99300000      27.93300000       8.64400000
 O      23.32800000      22.75600000       6.11000000
 H      23.31200000      22.86400000       7.13200000
 H      22.43100000      23.05000000       5.84600000
 O      27.24900000      26.26000000       1.58700000
 H      27.25200000      27.04800000       0.98600000
 H      26.86600000      26.58200000       2.46400000
 O      21.25300000      29.15600000       3.65400000
 H      20.41400000      28.81000000       3.32200000
 H      21.82300000      28.38700000       3.78400000
 O      28.22900000      29.90000000       1.61900000
 H      28.48900000      29.14600000       1.02200000
 H      27.35000000      29.93900000       1.43200000
 O      28.83800000      24.43600000       9.80700000
 H      29.21400000      23.63400000      10.17200000
 H      28.24100000      24.81200000      10.49400000
 O      21.65800000      27.20600000       6.80900000
 H      21.36400000      26.29000000       6.94500000
 H      20.87800000      27.79900000       6.66300000
 O      23.94700000      23.08000000       9.07100000
 H      24.08400000      23.17600000      10.03500000
 H      24.82900000      23.23700000       8.63200000
 O      30.48800000      25.77500000       3.21200000
 H      29.92400000      26.63700000       3.33200000
 H      29.91900000      25.01900000       3.53000000
 O      26.78600000      22.69500000       4.95600000
 H      26.57200000      22.79500000       4.01300000
 H      27.44400000      23.38400000       5.02500000
