102
XYZ file of cluster: frame_8500_806b.243dd.9fd31 - created by MolEdiTo
 O       1.41600000      14.29100000      28.81100000
 H       2.29500000      14.18200000      28.46100000
 H       1.03500000      13.47300000      29.22400000
 O       4.25900000      13.53400000      22.65500000
 H       3.52700000      13.14400000      22.16500000
 H       5.01500000      13.27100000      22.12400000
 O       5.35300000      13.12800000      25.27000000
 H       5.02100000      13.40800000      24.43200000
 H       4.52100000      12.90100000      25.82300000
 O       4.04800000       4.85700000      29.61500000
 H       4.99800000       5.12300000      29.83500000
 H       3.56100000       5.75100000      29.49600000
 O      10.61100000       8.20400000      23.54600000
 H      10.04600000       8.71200000      23.00500000
 H      10.51700000       7.31400000      23.26700000
 O      10.39200000      10.25800000      30.12400000
 H      11.04200000       9.66300000      29.80900000
 H      10.88400000      10.96600000      30.67000000
 O       9.64400000      14.44100000      24.67900000
 H       9.22900000      14.21900000      23.81900000
 H       9.88900000      15.36000000      24.49100000
 O      10.60500000      11.45700000      23.22200000
 H      10.68500000      11.96100000      22.45100000
 H       9.69500000      10.99300000      23.04500000
 O       8.24300000      11.67500000      25.80100000
 H       8.98300000      12.20800000      25.55500000
 H       8.59000000      11.19500000      26.56100000
 O       2.89300000       7.37400000      27.74600000
 H       3.04700000       6.65700000      27.13500000
 H       3.57000000       8.10700000      27.55900000
 O       4.85300000      15.67500000      30.27400000
 H       5.77900000      15.86500000      30.04800000
 H       4.61700000      16.42400000      30.91600000
 O       9.10100000       9.63400000      27.19700000
 H       8.94600000       9.32200000      28.14000000
 H       9.09800000       8.75700000      26.71800000
 O       3.13700000      12.13700000      27.47900000
 H       3.86200000      11.59200000      27.85600000
 H       2.25300000      11.74300000      27.74000000
 O       3.46900000       7.85700000      23.83000000
 H       3.18900000       8.58500000      24.42400000
 H       3.42300000       6.90500000      24.18600000
 O       4.53600000      15.59400000      27.64200000
 H       3.71300000      16.08200000      27.46700000
 H       4.37600000      15.44400000      28.64300000
 O       6.35400000      15.65700000      24.85300000
 H       5.68100000      16.35600000      24.95200000
 H       5.95100000      14.84200000      25.18100000
 O       8.92500000       8.77100000      20.50400000
 H       8.68900000       9.68600000      20.67200000
 H       8.41600000       8.12600000      21.11500000
 O       2.66200000      14.51100000      25.99200000
 H       2.24800000      13.74400000      26.47400000
 H       3.48200000      14.57700000      26.61700000
 O       2.91600000      15.83700000      22.79300000
 H       3.38100000      15.03300000      22.54900000
 H       3.26800000      16.04200000      23.70300000
 O       2.84400000      10.64000000      30.04900000
 H       2.81900000      10.07900000      30.85500000
 H       3.26900000      11.54600000      30.32900000
 O       5.66600000       8.55300000      27.22800000
 H       5.87200000       9.52900000      27.24800000
 H       6.41200000       8.15400000      27.75500000
 O       5.26300000       8.50700000      21.78400000
 H       4.48100000       8.20600000      22.38700000
 H       5.33000000       7.79400000      21.08100000
 O       6.13000000      11.37300000      21.33100000
 H       6.96600000      11.32700000      21.81700000
 H       5.70100000      10.53300000      21.44100000
 O       7.57800000      14.62500000      28.38000000
 H       7.66600000      13.68200000      28.41400000
 H       7.03800000      14.82500000      27.54700000
 O       8.02900000      10.15700000      23.34600000
 H       7.99000000      10.25300000      24.32600000
 H       7.59200000       9.32100000      23.21400000
 O       9.53300000       5.61300000      23.47700000
 H       8.79800000       5.97100000      24.06900000
 H       9.11300000       5.58500000      22.48900000
 O       3.11200000      10.80000000      24.83800000
 H       3.09200000      11.05400000      25.74700000
 H       3.72600000      11.28600000      24.36000000
 O       5.85100000      11.40800000      27.59900000
 H       6.70300000      11.46200000      28.13500000
 H       6.15600000      11.65600000      26.68900000
 O       7.46900000       7.64300000      29.17500000
 H       8.15500000       7.60000000      29.94000000
 H       7.33000000       6.74800000      28.79400000
 O       8.78900000       7.05300000      25.90600000
 H       9.55200000       6.78700000      25.41800000
 H       8.65600000       6.38700000      26.59900000
 O       8.15200000      11.46800000      29.57200000
 H       7.86300000      12.03200000      30.34500000
 H       8.99700000      10.93700000      29.77400000
 O       3.17300000       5.07700000      22.59200000
 H       3.05900000       5.74700000      21.96900000
 H       2.25200000       4.68300000      22.78700000
 O       7.27800000      13.80600000      22.89700000
 H       7.45700000      13.05500000      23.49400000
 H       7.24100000      14.59000000      23.44000000
 O       7.20800000       7.50700000      23.59400000
 H       6.23900000       7.35100000      23.74700000
 H       7.71200000       7.46500000      24.47900000
