154
XYZ file of cluster: frame_8500_221ee.6aca3.4b722 - created by MolEdiTo
 O       6.91200000      25.89900000      14.84500000
 H       6.83100000      25.60100000      15.79300000
 H       7.74900000      25.50400000      14.51200000
 O       5.52800000      23.22000000      17.43900000
 H       4.82700000      23.79300000      17.73700000
 H       6.33300000      23.65400000      17.92400000
 O      16.13000000      25.35100000      15.66100000
 H      15.44400000      26.09000000      15.57500000
 H      15.73900000      24.91900000      16.40400000
 O       9.95400000      18.86800000      18.91500000
 H       9.33800000      18.67100000      18.16300000
 H       9.35000000      19.54100000      19.34300000
 O       9.53700000      20.34700000      11.75600000
 H      10.02000000      19.63200000      11.18800000
 H       9.18400000      19.79600000      12.44500000
 O       6.94700000      16.84500000      18.98400000
 H       7.35700000      16.88800000      18.12800000
 H       5.99300000      16.86600000      18.71400000
 O      11.25600000      19.83300000      15.89300000
 H      11.85400000      19.21000000      15.43900000
 H      10.67200000      19.36000000      16.52700000
 O      12.12700000      19.64700000      12.93000000
 H      13.02000000      19.74700000      12.41900000
 H      11.79000000      20.53800000      12.79700000
 O      11.33600000      17.68900000      10.53600000
 H      11.68300000      18.04200000       9.67900000
 H      11.87000000      18.25000000      11.15400000
 O       5.11500000      16.02000000      20.83200000
 H       5.74600000      16.19500000      21.59700000
 H       5.64200000      16.13900000      19.96500000
 O       8.41400000      20.81700000      20.92900000
 H       7.47100000      20.54700000      21.02600000
 H       8.38900000      21.47600000      20.23300000
 O      13.87500000      25.93300000      19.13800000
 H      14.15800000      26.86700000      19.17400000
 H      14.44900000      25.56500000      19.88500000
 O      13.06200000      24.41500000      16.91400000
 H      13.26800000      24.93400000      17.75800000
 H      13.37300000      24.92400000      16.05700000
 O       7.55200000      26.15300000      17.93900000
 H       8.38800000      26.22100000      17.43500000
 H       7.84000000      26.00100000      18.81200000
 O      13.71600000      20.62000000      10.61000000
 H      14.66000000      20.43500000      10.85900000
 H      13.67200000      21.63300000      10.68000000
 C      15.64100000      17.25800000      15.79700000
 C      15.36000000      16.04100000      16.74900000
 C      15.99400000      14.50000000      14.76800000
 H      17.34300000      15.34800000      16.22900000
 H      16.81300000      17.50800000      17.13000000
 O      16.33100000      13.79900000      17.07700000
 O      15.06100000      17.48400000      14.73400000
 O      16.56300000      18.02500000      16.30600000
 C      16.35000000      14.97600000      16.22000000
 O      15.48600000      16.39300000      18.13500000
 H      14.31200000      15.70800000      16.51100000
 O      14.83700000      14.47400000      14.36100000
 O      16.93800000      13.83900000      14.12300000
 H      17.76400000      13.96100000      14.62800000
 H      15.08900000      15.66700000      18.69200000
 H      17.06500000      13.92100000      17.73600000
 O      12.21400000      21.62300000      18.45600000
 H      11.53400000      21.22300000      17.83600000
 H      11.78500000      22.52200000      18.52700000
 O      15.44700000      18.37600000      12.00900000
 H      15.53500000      18.20800000      12.95700000
 H      15.91300000      17.58200000      11.59900000
 O       8.05400000      18.05800000      21.25600000
 H       7.59600000      17.64000000      20.46000000
 H       9.04500000      18.05600000      21.06100000
 O       7.29800000      21.02600000      14.45500000
 H       7.29800000      20.68500000      13.53300000
 H       6.39000000      20.68900000      14.76000000
 O      10.70200000      22.63000000      10.75900000
 H      10.25000000      21.69300000      11.06600000
 H      11.56500000      22.64000000      11.27800000
 O       8.78700000      26.82500000      11.64400000
 H       8.94400000      26.79900000      10.65200000
 H       8.05600000      26.19100000      11.85200000
 O       9.92100000      25.49000000      16.62000000
 H      10.39600000      25.94800000      15.85200000
 H      10.68200000      25.09300000      17.03600000
 O      11.46500000      26.31200000      10.74900000
 H      11.05100000      25.48200000      10.46000000
 H      11.57100000      26.13900000      11.69300000
 O       9.05900000      16.42800000      12.25400000
 H       9.80700000      17.02200000      11.99800000
 H       9.45700000      16.12300000      13.11900000
 O       8.64400000      23.66300000      14.34600000
 H       8.22200000      22.73200000      14.26900000
 H       9.31200000      23.63100000      15.03600000
 O      11.02700000      26.24300000      19.62100000
 H      10.84600000      27.10300000      19.17400000
 H      11.88300000      25.97800000      19.18900000
 O       8.56400000      24.94000000      20.37000000
 H       9.25600000      25.64800000      20.32600000
 H       8.93300000      24.42000000      21.12800000
 O       7.61000000      22.06300000      10.70300000
 H       6.78500000      21.51700000      10.59700000
 H       8.36100000      21.51100000      10.67700000
 O       7.16000000      24.77900000      11.93400000
 H       7.48400000      24.30000000      12.64500000
 H       7.36600000      24.25600000      11.17000000
 O      10.80200000      20.46100000      21.78300000
 H      11.06600000      20.74300000      20.85200000
 H       9.80500000      20.59900000      21.77600000
 O       8.07000000      17.43400000      15.68700000
 H       7.43100000      16.79800000      15.22100000
 H       7.49800000      18.17800000      15.97100000
 O      12.06200000      22.56000000      13.30800000
 H      11.55000000      22.92700000      14.00800000
 H      12.96900000      22.50600000      13.69000000
 O      10.47600000      22.44900000      16.05800000
 H      10.98000000      23.09600000      16.55200000
 H      10.92900000      21.61400000      15.89100000
 O      10.60600000      16.36100000      14.84100000
 H       9.73500000      16.54300000      15.29600000
 H      11.21900000      16.59200000      15.57200000
 O       6.40500000      16.78800000      10.40200000
 H       6.36200000      17.16600000      11.32100000
 H       5.58500000      16.37600000      10.14800000
 O      12.05700000      16.57000000      17.27900000
 H      11.61400000      15.84300000      17.66000000
 H      12.96300000      16.47800000      17.62900000
 O       5.23700000      25.96200000      10.46800000
 H       6.10300000      25.78200000      10.04100000
 H       5.21500000      25.39300000      11.31400000
 O      14.66600000      20.07600000      14.27200000
 H      14.57800000      19.06100000      14.34200000
 H      14.27500000      20.35300000      15.08000000
 O       8.07700000      20.24800000      17.02100000
 H       8.00600000      20.58300000      16.11900000
 H       7.98400000      21.13800000      17.42500000
 O      15.07300000      21.56800000      20.53600000
 H      15.26600000      21.68600000      19.55400000
 H      14.46700000      20.78900000      20.61000000
 O       6.18100000      18.95100000      12.33300000
 H       5.93000000      19.38700000      11.47100000
 H       5.36200000      19.16100000      12.88100000
 O       5.20600000      19.55700000      15.66900000
 H       5.73200000      19.98300000      16.39000000
 H       4.40000000      19.15400000      16.07200000
 O      12.60700000      22.80100000      21.16000000
 H      13.35600000      22.63100000      21.77300000
 H      13.04800000      22.69300000      20.35700000
 O       4.69500000      23.59600000      13.49800000
 H       4.75000000      22.59600000      13.61400000
 H       5.54600000      24.02400000      13.64600000
 O       8.19800000      22.91600000      18.35300000
 H       8.56000000      23.56500000      19.02300000
 H       8.64700000      23.22200000      17.54300000
 O      13.28400000      19.50200000      19.99500000
 H      12.49100000      18.88800000      19.83200000
 H      13.01000000      20.34500000      19.57000000
