138
XYZ file of cluster: frame_8500_23cdb.6d71c.c65ca - created by MolEdiTo
 O       8.22300000      19.73300000      27.59100000
 H       8.55900000      19.71200000      26.68000000
 H       7.59600000      18.99900000      27.61500000
 O      15.52400000      23.18300000      26.66100000
 H      16.26900000      23.11500000      26.05000000
 H      15.73800000      22.70800000      27.50800000
 O       7.02500000      23.41000000      26.07500000
 H       6.48400000      23.82700000      26.74800000
 H       6.77200000      22.45500000      26.20700000
 O      10.33800000      23.40300000      27.35000000
 H      10.31100000      22.69000000      26.71400000
 H       9.47500000      23.45400000      27.73300000
 O       5.28700000      20.32800000      30.26000000
 H       6.02100000      20.76600000      30.74900000
 H       4.76500000      19.71800000      30.89000000
 O       4.85300000      15.67500000      30.27400000
 H       5.77900000      15.86500000      30.04800000
 H       4.61700000      16.42400000      30.91600000
 O       7.15900000      18.00000000      30.08800000
 H       8.07600000      18.01600000      30.45500000
 H       6.78200000      18.73000000      30.56200000
 O      16.53400000      16.23200000      28.10000000
 H      16.89500000      15.37300000      27.95000000
 H      15.55500000      16.02100000      28.02600000
 O      13.66700000      16.58000000      27.72800000
 H      13.75400000      17.34600000      27.20600000
 H      12.96900000      16.11300000      27.11400000
 O      11.53800000      26.56300000      29.36600000
 H      12.16900000      25.76500000      29.17300000
 H      10.68000000      26.24700000      29.02200000
 O      10.85500000      20.05800000      26.17100000
 H      11.75900000      19.71400000      25.93200000
 H      10.73000000      20.67200000      25.44800000
 O      13.87200000      19.09500000      26.52800000
 H      14.25500000      18.68200000      25.71200000
 H      14.55600000      19.81600000      26.68300000
 O       9.54100000      21.02000000      30.39500000
 H       9.63600000      20.63700000      29.43100000
 H      10.13900000      21.78900000      30.49100000
 O      15.67000000      19.07000000      29.78400000
 H      14.73800000      19.26700000      30.09200000
 H      15.59200000      18.23200000      29.26300000
 O      13.05300000      19.86100000      29.74400000
 H      12.58400000      19.17400000      30.33400000
 H      12.90600000      19.50500000      28.84200000
 O      15.47400000      25.17200000      29.75400000
 H      15.33300000      24.23100000      29.89500000
 H      14.73400000      25.35300000      29.14900000
 O      14.00800000      14.95100000      30.07600000
 H      13.91600000      14.14200000      29.54300000
 H      13.79200000      15.77500000      29.59000000
 O      14.72900000      25.79600000      26.87800000
 H      15.11000000      24.96000000      26.59200000
 H      15.23400000      26.38200000      26.27500000
 O      13.15400000      23.93200000      28.35300000
 H      13.80300000      24.07500000      27.62500000
 H      12.35600000      23.60400000      27.92100000
 O       6.62300000      17.48100000      27.37800000
 H       5.91900000      16.93400000      26.90000000
 H       6.38800000      17.33200000      28.33200000
 O      10.18000000      17.07600000      28.37900000
 H       9.31300000      16.60800000      28.21400000
 H      10.26800000      17.64600000      27.62000000
 O       8.01400000      23.86300000      28.97300000
 H       8.20600000      24.81700000      29.10800000
 H       7.83300000      23.39700000      29.77400000
 O      10.56400000      26.14600000      26.57200000
 H      10.71700000      25.24600000      26.87600000
 H       9.63300000      26.14100000      26.21300000
 O       6.06400000      21.28600000      27.63900000
 H       5.99200000      21.56100000      28.56500000
 H       6.85900000      20.67600000      27.69400000
 O      10.97900000      16.40400000      34.75000000
 H      11.13400000      15.89400000      33.95800000
 H      10.27300000      17.08200000      34.56800000
 O       8.08800000      22.24800000      35.36100000
 H       8.88900000      21.87900000      35.03600000
 H       8.32200000      23.25100000      35.41900000
 O      13.68600000      21.84100000      35.41600000
 H      13.94900000      21.32500000      36.22400000
 H      14.53800000      22.03300000      34.98100000
 O       7.27000000      22.20200000      32.42500000
 H       8.18700000      21.75300000      32.28500000
 H       7.19700000      22.25500000      33.40500000
 O      13.41600000      24.83900000      33.26500000
 H      14.29000000      24.48000000      33.08700000
 H      13.50000000      25.81200000      33.41700000
 O      12.14400000      18.72700000      36.53100000
 H      12.45000000      19.33600000      37.22100000
 H      12.65200000      17.96700000      36.78300000
 O       7.69300000      16.51400000      34.86200000
 H       7.62700000      15.95400000      34.05800000
 H       7.12500000      17.20700000      34.53300000
 O       8.62500000      25.12100000      35.14100000
 H       9.27700000      25.52600000      34.47100000
 H       8.61000000      25.79800000      35.85500000
 O       4.85600000      15.63000000      36.67400000
 H       5.52700000      15.83200000      37.42300000
 H       4.68100000      16.46100000      36.19300000
 O      15.24200000      18.66000000      35.65600000
 H      14.98500000      19.39400000      36.30200000
 H      14.62200000      17.97100000      35.86900000
 O      15.26800000      25.68400000      35.95600000
 H      15.91500000      25.04500000      35.69100000
 H      14.56400000      25.03100000      36.11000000
 O       5.63500000      24.80100000      33.86500000
 H       6.58000000      24.95200000      34.03800000
 H       5.56800000      25.46900000      33.14000000
 O      10.81400000      22.27000000      34.73300000
 H      11.74200000      22.12900000      34.96200000
 H      10.92300000      22.66000000      33.84900000
 O      15.11600000      22.54700000      32.30800000
 H      15.28500000      21.89100000      33.04900000
 H      14.57000000      22.12800000      31.61900000
 O      12.89600000      17.74500000      32.95100000
 H      13.82400000      17.60100000      33.17600000
 H      12.46400000      17.77900000      33.86200000
 O      11.03500000      23.46900000      32.33100000
 H      12.01600000      23.71100000      32.48800000
 H      10.67600000      24.25100000      31.87800000
 O      12.66800000      24.39800000      36.42700000
 H      11.87300000      24.72700000      35.88800000
 H      12.85000000      23.50400000      35.93100000
 O       5.90600000      20.50700000      36.04300000
 H       6.02500000      21.39000000      36.30900000
 H       5.18700000      20.60400000      35.29800000
 O       9.47100000      18.58900000      36.45200000
 H       9.15800000      18.20400000      37.30100000
 H      10.41100000      18.37200000      36.37400000
 O       7.30900000      19.13300000      34.22300000
 H       8.10800000      19.57900000      34.37400000
 H       6.78800000      19.35400000      35.06200000
 O      15.13500000      16.25200000      34.00000000
 H      15.60400000      15.84800000      33.20800000
 H      14.22500000      15.81200000      34.12600000
 O       9.74100000      17.35300000      32.32000000
 H       9.91200000      17.33900000      31.32100000
 H      10.37500000      18.06700000      32.61600000
