123
XYZ file of cluster: frame_8500_74fab.c3a01.480a2 - created by MolEdiTo
 O      15.43300000      28.39100000      14.72900000
 H      16.38500000      28.51000000      14.94500000
 H      15.08500000      29.30800000      14.64900000
 O      25.86000000      30.65400000      19.53700000
 H      24.84500000      30.71700000      19.48500000
 H      26.25900000      30.37400000      18.70200000
 O      17.45500000      26.92800000      12.14000000
 H      18.35800000      26.88100000      11.76200000
 H      17.55900000      26.59600000      13.04200000
 O      18.44700000      28.71800000      14.93300000
 H      19.23100000      28.35100000      15.31800000
 H      18.73400000      29.69900000      14.81300000
 O      17.52100000      26.85600000      21.11100000
 H      17.69700000      26.51500000      20.26800000
 H      17.96900000      27.71900000      21.04200000
 O      25.58400000      29.38600000      13.65300000
 H      24.80900000      28.85800000      13.76200000
 H      25.22200000      30.25100000      13.83900000
 O      20.22200000      27.27900000      11.26300000
 H      20.78900000      27.71800000      11.96600000
 H      20.06600000      28.12700000      10.73900000
 O      19.32000000      29.46300000       9.98100000
 H      19.38100000      30.10300000       9.24200000
 H      18.56800000      29.83000000      10.51100000
 O      20.39600000      26.75200000      16.20700000
 H      20.57200000      25.83400000      16.62900000
 H      20.83600000      27.43100000      16.78500000
 O      19.29900000      30.01600000      18.25800000
 H      19.45600000      29.33700000      18.96500000
 H      18.57800000      29.70400000      17.69700000
 O      24.21900000      26.29000000      19.31500000
 H      24.82200000      25.72600000      19.90600000
 H      24.34200000      25.90300000      18.42800000
 O      25.41000000      25.81500000      13.69300000
 H      24.66400000      25.27800000      13.41300000
 H      24.98700000      26.68400000      13.62300000
 O      17.11900000      30.31400000      11.40200000
 H      16.80800000      30.91400000      12.15400000
 H      16.43900000      29.64200000      11.31600000
 O      22.63600000      28.25100000      17.93700000
 H      22.15600000      28.90700000      18.49500000
 H      23.14400000      27.69600000      18.59700000
 O      23.06800000      27.62700000      21.59800000
 H      23.45100000      27.40200000      20.71600000
 H      23.87600000      28.08400000      22.09000000
 O      20.22800000      28.08000000      20.44300000
 H      19.58400000      28.60300000      20.90400000
 H      21.12600000      28.23000000      20.92000000
 O      16.27400000      27.82000000      10.01400000
 H      15.52500000      27.15600000      10.13300000
 H      16.88400000      27.53500000      10.80700000
 O      24.12300000      27.09100000      11.37300000
 H      23.40900000      27.54300000      11.89200000
 H      23.62200000      26.72100000      10.60400000
 O      17.67600000      27.30900000      18.03800000
 H      17.66800000      26.36400000      17.74300000
 H      16.73900000      27.48900000      18.22400000
 O      22.52600000      27.89600000      14.85500000
 H      21.55500000      27.57900000      14.94700000
 H      22.75400000      28.23800000      15.75500000
 O      22.02900000      29.07700000      12.22300000
 H      22.20900000      29.11900000      13.13700000
 H      21.90800000      30.04700000      11.94000000
 O      24.04200000      35.93400000      15.43900000
 H      23.87900000      36.84100000      15.89900000
 H      24.88500000      36.10800000      15.01100000
 O      27.13000000      34.70900000      18.62200000
 H      26.19800000      34.40600000      18.47200000
 H      27.58600000      34.46200000      17.79100000
 O      19.35800000      34.27300000      18.33500000
 H      18.56100000      34.80800000      18.02300000
 H      18.99900000      33.38500000      18.45300000
 O      23.37400000      32.82800000      14.22800000
 H      22.59500000      33.17900000      14.75200000
 H      23.12900000      32.78000000      13.29400000
 O      15.32200000      34.42700000      11.83700000
 H      15.37600000      35.37900000      12.00000000
 H      15.99300000      34.14300000      11.18900000
 O      22.62600000      33.28500000      11.63100000
 H      23.03100000      34.12900000      11.49200000
 H      22.06800000      33.00000000      10.85700000
 O      24.43100000      34.65000000      18.05600000
 H      24.44000000      35.17800000      17.23100000
 H      23.88300000      33.84600000      17.89700000
 O      25.06900000      34.69100000      11.40000000
 H      25.32100000      35.36600000      12.09700000
 H      25.47200000      33.86800000      11.62200000
 O      20.93200000      32.55300000      15.83200000
 H      20.64200000      32.12100000      16.65100000
 H      21.04200000      33.49300000      16.02500000
 O      21.29400000      35.65300000      17.30100000
 H      20.61900000      35.09700000      17.84000000
 H      21.75700000      36.17200000      17.99400000
 O      19.39000000      34.00400000      13.12700000
 H      19.64300000      34.14200000      12.17800000
 H      20.20400000      34.34600000      13.62400000
 O      23.26000000      36.71600000      19.56600000
 H      23.60200000      36.91800000      20.48500000
 H      23.85400000      36.00500000      19.17100000
 O      19.07500000      36.85800000      16.28800000
 H      18.22400000      36.51000000      16.56000000
 H      19.77300000      36.27900000      16.58100000
 O      21.62500000      35.21300000      14.25600000
 H      22.15500000      35.55200000      15.05600000
 H      22.30400000      35.00200000      13.57800000
 O      22.89600000      32.41200000      19.26900000
 H      22.09400000      32.98200000      19.06000000
 H      22.90700000      32.33800000      20.29500000
 O      16.73000000      36.04000000      20.83800000
 H      15.96000000      36.54700000      21.25300000
 H      17.37100000      36.71600000      20.80200000
 O      16.87900000      33.42800000      19.84900000
 H      16.90300000      34.38100000      20.15600000
 H      17.45200000      32.88700000      20.35600000
 O      17.73300000      32.95400000      15.36700000
 H      16.95500000      32.79200000      14.86800000
 H      18.30800000      33.38500000      14.71100000
 O      17.33600000      36.12700000      13.53000000
 H      17.86400000      36.89600000      13.88600000
 H      17.98300000      35.54300000      13.01100000
 O      16.68300000      35.32800000      16.49500000
 H      17.13000000      34.49900000      16.14400000
 H      15.79700000      35.25900000      16.27400000
