39
XYZ file of cluster: frame_5500_1fa53.f759.4e3c - created by MolEdiTo
 O       6.79600000       4.28200000       5.03500000
 H       7.26100000       4.51100000       4.19700000
 H       6.79500000       5.14800000       5.58700000
 O       7.07900000       6.42600000       1.07700000
 H       7.65900000       6.88600000       0.42900000
 H       6.25500000       6.97100000       0.99400000
 O       8.36800000       1.89900000       5.57400000
 H       7.58400000       1.42700000       5.27300000
 H       8.03800000       2.81700000       5.46900000
 O      10.09500000       3.67300000       1.37000000
 H      10.67700000       3.79800000       0.57900000
 H      10.51100000       2.93400000       1.88400000
 O       7.07300000       6.13500000       7.31300000
 H       6.40300000       6.73800000       7.00500000
 H       7.85100000       6.36800000       6.72800000
 O       8.68300000       6.55100000       4.90300000
 H       8.70800000       7.29500000       4.30000000
 H       8.52500000       5.88900000       4.19900000
 O       7.06700000       1.50900000       2.88200000
 H       7.71200000       2.27400000       2.65800000
 H       6.65600000       1.91000000       3.64500000
 O       8.02100000       4.80200000       2.80400000
 H       7.82100000       5.56200000       2.24200000
 H       8.84800000       4.38400000       2.40600000
 O       3.72200000       5.17800000       5.66500000
 H       4.30900000       4.53000000       6.15400000
 H       2.81300000       4.82800000       5.71200000
 O       4.07400000       1.35900000       4.01900000
 H       3.91100000       2.31400000       3.83600000
 H       3.78600000       1.38000000       4.96400000
 O      11.11200000       6.25800000       6.96200000
 H      10.55500000       6.25700000       6.20200000
 H      10.45800000       6.20700000       7.72200000
 O       4.12400000       7.37700000       7.11800000
 H       4.01800000       6.58500000       6.58700000
 H       4.68600000       7.99700000       6.53000000
 O       5.56100000       6.93900000       3.98500000
 H       5.94600000       6.95000000       3.07300000
 H       4.69200000       6.55800000       3.87300000
