36
XYZ file of cluster: frame_5500_14db6.c1c80.a4382 - created by MolEdiTo
 O       4.48800000      19.81600000      15.91900000
 H       4.81500000      20.38500000      15.19500000
 H       5.06000000      20.15500000      16.67000000
 O       6.21900000      17.42800000      17.74000000
 H       6.63700000      17.09900000      16.91200000
 H       6.09100000      18.37300000      17.56200000
 O       1.85400000      20.18700000      16.71300000
 H       2.63400000      20.29400000      16.14900000
 H       2.15200000      19.46200000      17.34800000
 O       4.16400000      17.03500000      15.40900000
 H       4.28500000      17.22300000      14.48000000
 H       4.30300000      17.89000000      15.85500000
 O       3.20900000      18.27900000      18.61900000
 H       3.39200000      17.68200000      19.35600000
 H       4.08900000      18.54600000      18.29300000
 O       8.14500000      22.42000000      14.85800000
 H       7.20700000      22.62800000      14.61100000
 H       8.30800000      21.62200000      14.40800000
 O       7.08900000      25.30500000      19.33800000
 H       7.07800000      26.06600000      19.97800000
 H       6.26600000      24.87400000      19.66600000
 O       3.36800000      25.51400000      17.94000000
 H       3.02800000      25.96800000      17.10700000
 H       4.01400000      24.80700000      17.62900000
 O       5.68100000      22.17100000      17.99900000
 H       5.41400000      22.70700000      18.75200000
 H       6.48700000      22.57400000      17.74200000
 O       4.86900000      23.75000000      20.67400000
 H       4.11900000      24.09600000      21.17300000
 H       5.48200000      23.63000000      21.42000000
 O       6.11900000      24.84500000      16.26300000
 H       5.89500000      24.72300000      15.28900000
 H       7.03200000      25.09200000      16.28600000
 O       2.57500000      23.75200000      14.60400000
 H       3.50900000      23.77600000      14.89300000
 H       1.94400000      24.02700000      15.29500000
