45
XYZ file of cluster: frame_5500_3e47.1a671.4a15f - created by MolEdiTo
 O       1.24600000      10.09200000      13.05200000
 H       2.08800000       9.63100000      13.01800000
 H       0.63200000       9.39800000      13.45700000
 O       2.64700000       5.49000000      12.51100000
 H       2.02900000       4.74300000      12.73000000
 H       2.51000000       5.57100000      11.49800000
 O       7.07300000       6.13500000       7.31300000
 H       6.40300000       6.73800000       7.00500000
 H       7.85100000       6.36800000       6.72800000
 O       1.19300000       4.19000000       7.16400000
 H       0.34600000       3.78200000       7.31000000
 H       0.91700000       5.11200000       7.24000000
 O       1.56200000       7.83200000       6.55900000
 H       1.56600000       8.81100000       6.50000000
 H       2.29400000       7.61400000       7.15900000
 O       4.58400000       3.21300000       7.64700000
 H       5.05000000       2.32100000       7.74100000
 H       4.65900000       3.66700000       8.48200000
 O       6.52900000       9.35100000      14.28600000
 H       5.78100000       9.97100000      14.00400000
 H       5.99800000       8.55100000      14.70400000
 O       5.19100000       6.35900000      12.50300000
 H       5.37800000       7.31600000      12.52300000
 H       4.20000000       6.33500000      12.41200000
 O       6.92700000       8.27200000       9.71500000
 H       6.73900000       8.77100000      10.56400000
 H       6.31500000       8.75300000       9.09100000
 O       3.16600000       9.53800000       9.10500000
 H       3.15400000       9.54700000       8.13500000
 H       3.87300000      10.13700000       9.22900000
 O       4.31700000       9.71200000      12.14400000
 H       3.91100000       9.75900000      11.23200000
 H       4.10100000      10.54700000      12.55600000
 O       7.46100000       5.18800000      13.96000000
 H       7.85000000       5.24300000      13.06000000
 H       6.55500000       4.86200000      13.78700000
 O       2.63500000       6.46600000       9.97200000
 H       2.43000000       7.37000000      10.34500000
 H       2.21600000       6.51800000       9.15000000
 O       2.81200000       3.10700000      10.44800000
 H       1.91300000       3.42400000      10.17000000
 H       3.48400000       3.79700000      10.20900000
 O       5.69100000       4.71100000       9.74700000
 H       6.01000000       5.37800000       9.06800000
 H       5.66900000       5.26800000      10.58100000
