36
XYZ file of cluster: frame_10000_c7257.597eb.9f234 - created by MolEdiTo
 O      20.77200000      10.99800000      14.00200000
 H      20.34200000      11.76600000      13.51500000
 H      19.98800000      10.40600000      14.01800000
 O      19.11600000      14.17000000      14.91900000
 H      19.18500000      14.80700000      15.65700000
 H      19.18900000      13.35300000      15.47700000
 O      18.18000000       9.63700000      14.46300000
 H      17.52700000      10.05400000      13.86100000
 H      17.68700000       8.75300000      14.43300000
 O      20.61300000       8.47600000      16.24200000
 H      20.49600000       7.64300000      15.64000000
 H      20.99500000       8.21200000      17.13100000
 O      19.86300000      10.69000000      18.86000000
 H      20.65400000      10.14600000      19.08900000
 H      19.14100000      10.12000000      18.69100000
 O      18.07500000       8.91500000      17.72100000
 H      17.83700000       8.14600000      18.34700000
 H      18.55100000       8.51500000      17.02600000
 O      18.61400000      13.18400000      18.53200000
 H      18.92600000      12.81400000      17.63300000
 H      19.25800000      12.70500000      19.04100000
 O      19.27500000      11.81500000      16.22600000
 H      20.09500000      11.32100000      16.00900000
 H      18.80000000      10.96300000      16.36400000
 O      24.50400000      12.76800000      14.65400000
 H      24.65200000      12.93400000      13.66100000
 H      23.71500000      12.19300000      14.61400000
 O      24.46000000       9.34000000      15.22500000
 H      23.82900000       8.84300000      15.69400000
 H      23.81800000       9.87100000      14.61300000
 O      23.65100000      13.58300000      20.15300000
 H      23.23700000      13.84300000      19.24900000
 H      24.18900000      14.40000000      20.41400000
 O      23.53600000       7.90100000      19.27900000
 H      22.95600000       8.13800000      20.03000000
 H      24.31100000       8.44300000      19.32500000
