27
XYZ file of cluster: frame_10000_0.9f0c7.a7fb1 - created by MolEdiTo
 O       6.88900000      18.81400000      18.63300000
 H       7.45000000      18.62600000      17.83900000
 H       7.08600000      19.77300000      18.87200000
 O       3.14300000      18.45500000      14.26600000
 H       2.19200000      18.57800000      14.49300000
 H       3.63800000      19.19700000      14.62300000
 O       2.16400000      13.58300000      20.15300000
 H       1.75000000      13.84300000      19.24900000
 H       2.70200000      14.40000000      20.41400000
 O       3.69800000      18.39400000      18.13700000
 H       3.58800000      17.67100000      17.48100000
 H       4.69400000      18.36500000      18.15200000
 O       6.10400000      15.56500000      15.44900000
 H       5.33200000      15.83900000      14.86800000
 H       5.88500000      14.60600000      15.59500000
 O       5.83800000      16.47100000      17.87000000
 H       5.53200000      16.12900000      16.94200000
 H       6.83000000      16.61500000      17.58600000
 O       0.97100000      19.58100000      18.31400000
 H       0.00000000      19.38200000      18.39100000
 H       1.42200000      18.90100000      18.84100000
 O       4.06000000      15.50500000      20.27000000
 H       4.34500000      15.55100000      19.29800000
 H       3.96800000      16.43300000      20.51600000
 O       2.42200000      15.36600000      16.01000000
 H       2.66900000      14.39600000      15.70400000
 H       1.84700000      15.18200000      16.75900000
