39
XYZ file of cluster: frame_4500_24ecb.50d3a.a06a9 - created by MolEdiTo
 O       8.93100000      10.86400000      19.63100000
 H       8.93900000      11.42500000      18.75300000
 H       8.04200000      10.32400000      19.40400000
 O      10.67800000      13.76900000      15.37900000
 H      10.90500000      12.89400000      14.95200000
 H      10.49400000      14.48900000      14.73700000
 O      11.03500000       8.58000000      17.77200000
 H      10.59800000       9.36600000      18.20500000
 H      10.32000000       8.12900000      17.23400000
 O       4.04800000      11.18800000      16.01800000
 H       4.50400000      10.69500000      15.25400000
 H       3.23600000      11.63500000      15.63400000
 O       9.79100000       7.66800000      15.34600000
 H      10.52600000       7.05600000      15.21800000
 H       9.00400000       7.06200000      15.33900000
 O       4.44800000      14.44600000      16.05800000
 H       4.29200000      14.01400000      15.19200000
 H       3.45400000      14.53100000      16.27600000
 O       6.57800000       9.30800000      19.44200000
 H       5.98200000       8.70300000      18.87700000
 H       6.85700000       8.80000000      20.27000000
 O       6.69200000       9.02300000      14.56800000
 H       6.63000000       8.79500000      15.51800000
 H       7.22600000       8.33000000      14.07500000
 O       8.63800000      12.34800000      17.32100000
 H       9.41300000      12.79000000      16.75200000
 H       7.76300000      12.42000000      16.86600000
 O      10.09700000      10.64100000      15.14000000
 H       9.31400000      11.05800000      14.99000000
 H       9.92400000       9.67200000      15.38500000
 O       5.09500000      12.49600000      18.42100000
 H       5.90600000      11.96200000      18.12800000
 H       4.96900000      13.17500000      17.68600000
 O       3.39300000      10.49300000      19.06300000
 H       4.09700000      11.07600000      18.76100000
 H       3.89200000       9.85000000      19.56700000
 O       6.72500000      13.30200000      15.59000000
 H       6.45000000      12.96600000      14.66500000
 H       5.93900000      13.81700000      15.74700000
