42
XYZ file of cluster: frame_4500_975f6.47b55.9b0f4 - created by MolEdiTo
 O      18.03000000       8.70700000      18.81600000
 H      17.70800000       8.66300000      19.77900000
 H      17.25500000       8.93700000      18.35200000
 O      20.08500000       6.92800000      17.40900000
 H      20.63800000       7.43900000      16.72500000
 H      19.29800000       7.55700000      17.45900000
 O      17.63500000       6.94800000      14.50700000
 H      18.27400000       6.26000000      14.78300000
 H      18.07200000       7.19800000      13.60500000
 O      19.50400000      13.70900000      18.53500000
 H      19.41700000      12.85100000      18.08100000
 H      20.48500000      13.92000000      18.68400000
 O      14.89500000      11.34200000      15.98600000
 H      14.88800000      11.68100000      15.06600000
 H      14.80200000      10.37500000      15.81800000
 O      14.26700000       8.46600000      16.16400000
 H      14.67100000       8.63300000      17.04000000
 H      13.26600000       8.64200000      16.29500000
 O      19.13700000      13.31100000      15.89200000
 H      18.58000000      14.04400000      15.56700000
 H      19.72800000      13.90500000      16.29100000
 O      17.01400000      12.14600000      20.04600000
 H      17.91700000      11.78400000      19.85000000
 H      17.14700000      12.80200000      20.76000000
 O      16.38800000       9.46800000      13.97300000
 H      17.15200000      10.03700000      14.16300000
 H      16.58300000       8.53900000      14.39000000
 O      14.39600000      11.98000000      18.75700000
 H      14.61300000      11.67000000      17.83400000
 H      15.28400000      12.05500000      19.19300000
 O      15.05900000       9.13500000      18.69900000
 H      14.69900000      10.03000000      18.67400000
 H      14.74900000       8.69200000      19.56200000
 O      14.12900000      14.79800000      13.77800000
 H      14.52500000      13.89900000      13.65300000
 H      14.03300000      14.65900000      14.76300000
 O      18.47100000      11.17200000      14.46200000
 H      18.05400000      11.49000000      13.61900000
 H      18.67900000      12.01700000      15.02200000
 O      19.63400000      10.99300000      20.12400000
 H      19.54200000      10.16900000      20.66000000
 H      20.11800000      10.68100000      19.34100000
