45
XYZ file of cluster: frame_4500_4a65a.2324e.61be - created by MolEdiTo
 O      13.71900000       6.11200000       5.79900000
 H      13.98600000       6.55900000       6.62400000
 H      13.45600000       6.88100000       5.32200000
 O       6.52000000       3.56800000       4.04100000
 H       7.31300000       3.06800000       3.70300000
 H       6.85900000       3.70600000       4.96500000
 O       9.82900000      10.56700000       6.62700000
 H       9.65800000      11.24700000       7.34900000
 H       9.93000000      11.13000000       5.82000000
 O       8.89300000       5.79600000       2.55000000
 H       9.05500000       5.76300000       3.59700000
 H       9.81400000       5.92800000       2.30800000
 O       6.84900000       7.92900000       1.79700000
 H       7.54300000       7.27500000       1.70600000
 H       7.15500000       8.73800000       2.38700000
 O       7.25600000      10.61600000       2.06300000
 H       6.68200000      11.27900000       1.69400000
 H       8.10300000      11.15300000       2.13900000
 O      11.49100000       3.62500000       6.35500000
 H      12.30700000       3.40000000       5.89900000
 H      11.67500000       3.70800000       7.29900000
 O      10.44000000       9.17400000       3.92900000
 H      10.08500000       8.89500000       4.77700000
 H       9.67500000       9.18200000       3.32600000
 O      13.52600000       7.98200000       0.86500000
 H      13.51500000       8.85200000       1.34300000
 H      12.52500000       7.83600000       0.79600000
 O      13.14700000       9.79900000       3.31700000
 H      13.22300000      10.78100000       3.08800000
 H      12.21900000       9.66400000       3.01400000
 O       8.60900000       7.88300000       6.67100000
 H       7.68200000       8.14300000       6.45100000
 H       9.11600000       8.74000000       6.89800000
 O      13.98900000       9.10600000       6.30100000
 H      13.69900000       9.71300000       5.60100000
 H      14.84600000       9.41100000       6.71200000
 O       9.63500000       5.77500000       5.17900000
 H      10.00400000       5.23600000       5.90200000
 H       9.48300000       6.61400000       5.57300000
 O      11.02100000       9.38500000       0.80900000
 H      10.07900000       9.59100000       0.53600000
 H      11.41200000      10.36900000       0.73100000
 O      11.62700000       6.13900000       2.89700000
 H      11.42800000       6.07800000       3.86700000
 H      11.75900000       5.24700000       2.53800000
