36
XYZ file of cluster: frame_17500_20778.a3056.6222 - created by MolEdiTo
 O       7.47700000      17.42200000       2.37700000
 H       7.72800000      16.49500000       2.48100000
 H       7.76600000      17.83500000       3.22100000
 O       7.17400000      17.09900000       5.33200000
 H       6.29300000      16.92400000       4.95600000
 H       7.83300000      16.44400000       4.92800000
 O       3.87500000      19.65300000       1.37000000
 H       4.54600000      20.36000000       1.27500000
 H       3.44800000      19.81200000       2.20100000
 O       4.61300000      16.29300000       6.03200000
 H       3.97400000      16.17800000       6.73900000
 H       4.04600000      16.18900000       5.26300000
 O       3.74300000      14.18600000       1.49500000
 H       3.40200000      15.05600000       1.77900000
 H       3.61400000      14.24200000       0.53500000
 O      10.39100000      15.56200000       6.36100000
 H       9.45800000      15.24100000       6.31100000
 H      11.12400000      14.94200000       6.49700000
 O       5.91800000      20.18300000       5.27300000
 H       5.86600000      20.47000000       4.31500000
 H       6.80500000      20.33700000       5.65200000
 O       4.10600000      19.53500000       7.15400000
 H       4.55100000      19.23400000       7.97500000
 H       4.77500000      19.48900000       6.47000000
 O      10.48700000      20.24100000       1.95000000
 H       9.91900000      20.86000000       2.58700000
 H       9.81900000      20.02000000       1.25200000
 O       3.58700000      16.62900000       3.26100000
 H       4.30200000      17.01700000       2.74900000
 H       2.79200000      17.23700000       3.26100000
 O       9.14700000      15.25000000       3.44400000
 H       9.44100000      14.36400000       3.50500000
 H       9.62100000      15.58000000       2.69000000
 O       8.45900000      19.49600000       6.41600000
 H       9.26300000      19.10100000       6.80100000
 H       7.95000000      18.63800000       6.26300000
