36
XYZ file of cluster: frame_17500_cd38.9a75b.4a2c5 - created by MolEdiTo
 O       2.64500000      17.51200000      11.77600000
 H       2.47800000      17.40300000      10.85200000
 H       2.48000000      18.41800000      11.97200000
 O       4.47500000      19.31500000      13.68000000
 H       4.60200000      19.54800000      12.76200000
 H       4.17800000      20.19900000      13.98400000
 O       5.51200000      16.41400000      12.83200000
 H       4.94600000      16.33000000      12.02400000
 H       5.24600000      17.26800000      13.34100000
 O       6.31500000      17.53800000       8.52600000
 H       6.65100000      17.47200000       7.63500000
 H       5.62400000      16.85200000       8.62900000
 O       2.85100000      15.94700000      14.37200000
 H       2.92100000      16.71800000      14.98000000
 H       2.72500000      16.34700000      13.43700000
 O       4.52000000      15.35500000      10.27200000
 H       4.49400000      14.63300000      10.84800000
 H       4.21600000      14.97800000       9.38900000
 O       2.15000000      18.37800000       9.23800000
 H       2.70600000      19.04000000       8.84800000
 H       1.25100000      18.82200000       9.31300000
 O       5.13300000      13.92500000      13.91300000
 H       4.21100000      14.21700000      13.91100000
 H       5.63500000      14.71000000      13.79900000
 O       5.71100000      19.22500000      10.86000000
 H       6.19800000      18.61000000      10.24600000
 H       6.41400000      19.85700000      11.06400000
 O       1.96000000      15.77700000       8.20500000
 H       1.10300000      15.28900000       8.29000000
 H       1.86800000      16.65500000       8.57200000
 O       1.58400000      14.16400000      10.98900000
 H       2.05700000      13.44100000      10.58500000
 H       2.17200000      14.92300000      10.79700000
 O       4.10600000      19.53500000       7.15400000
 H       4.55100000      19.23400000       7.97500000
 H       4.77500000      19.48900000       6.47000000
