36
XYZ file of cluster: frame_17500_9ddb7.77f92.99236 - created by MolEdiTo
 O      19.95000000      15.19700000      17.74400000
 H      20.52000000      15.92100000      18.07500000
 H      20.13100000      14.57300000      18.45500000
 O      16.98400000      13.84600000      14.37900000
 H      17.36500000      14.66200000      14.00300000
 H      16.88500000      14.06600000      15.33300000
 O      19.48400000      15.10600000      14.30100000
 H      20.29600000      14.72200000      14.77000000
 H      19.44800000      14.70800000      13.35800000
 O      13.86700000      15.29500000      14.49600000
 H      13.57500000      15.39400000      15.41500000
 H      14.84200000      15.17900000      14.50300000
 O      16.08500000      17.05900000      16.57600000
 H      16.35700000      17.19800000      15.63200000
 H      16.47800000      16.18500000      16.78100000
 O      18.65300000      11.74600000      14.62000000
 H      18.12100000      11.01400000      14.20500000
 H      18.04100000      12.52400000      14.57500000
 O      17.34800000      14.66500000      17.07000000
 H      17.50800000      14.54700000      18.05800000
 H      18.31600000      14.76800000      16.93200000
 O      18.55000000      17.51900000      15.01100000
 H      19.01500000      17.66600000      15.84500000
 H      18.71200000      16.58700000      14.83400000
 O      18.14800000      10.44000000      18.53900000
 H      18.24000000      11.08000000      19.29300000
 H      18.66700000      10.79100000      17.76200000
 O      17.59700000      13.31900000      19.49000000
 H      16.58000000      13.17800000      19.60800000
 H      17.99900000      13.38400000      20.34500000
 O      14.87300000      12.43700000      15.75800000
 H      14.84900000      11.50600000      15.44700000
 H      14.51700000      12.87900000      14.92700000
 O      14.88000000      12.28400000      18.79200000
 H      14.00100000      11.87200000      18.55600000
 H      15.15700000      12.70800000      18.00100000
