33
XYZ file of cluster: frame_17500_73ba.c0e92.9464 - created by MolEdiTo
 O       3.87500000      19.65300000       1.37000000
 H       4.54600000      20.36000000       1.27500000
 H       3.44800000      19.81200000       2.20100000
 O       0.81000000      20.56500000       1.97600000
 H       1.15100000      19.66900000       1.73700000
 H       1.39400000      20.99300000       2.63200000
 O       1.74000000      17.90500000       5.78900000
 H       1.39700000      17.21700000       6.37900000
 H       2.21900000      18.48900000       6.45700000
 O       3.12700000      20.29700000       4.00300000
 H       2.96800000      21.08800000       4.56600000
 H       3.20400000      19.62600000       4.64800000
 O       0.93800000      17.79300000       2.63700000
 H       0.89800000      16.78700000       2.67300000
 H       0.62200000      18.25700000       3.39900000
 O       5.91800000      20.18300000       5.27300000
 H       5.86600000      20.47000000       4.31500000
 H       6.80500000      20.33700000       5.65200000
 O       4.10600000      19.53500000       7.15400000
 H       4.55100000      19.23400000       7.97500000
 H       4.77500000      19.48900000       6.47000000
 O       4.12700000      24.61000000       5.20000000
 H       3.96300000      25.49300000       5.64500000
 H       3.20700000      24.24300000       5.15400000
 O       1.34900000      23.75700000       5.73800000
 H       0.85000000      24.47400000       5.19200000
 H       0.69200000      23.36500000       6.39500000
 O       6.00600000      22.74300000       2.03700000
 H       6.27300000      23.26700000       2.87600000
 H       6.27600000      23.21000000       1.22300000
 O       3.07500000      23.69800000       1.76100000
 H       3.89900000      24.21800000       1.57200000
 H       2.75900000      23.53300000       0.80900000
