114
XYZ file of cluster: frame_16000_3c37.4d9d.7a338 - created by MolEdiTo
 O       5.11500000       6.13900000      19.37000000
 H       5.22800000       7.06600000      19.56300000
 H       5.99500000       5.75800000      19.63300000
 O       8.01000000       2.60100000      18.98300000
 H       7.21000000       3.02300000      18.66600000
 H       8.46700000       3.26800000      19.59400000
 O       7.96400000       8.00500000      22.68400000
 H       7.46400000       8.09200000      21.83600000
 H       7.76600000       8.84500000      23.18500000
 O      10.30800000       3.77400000      26.44200000
 H      11.26000000       3.47400000      26.26400000
 H       9.80400000       3.21900000      25.83300000
 O       2.80300000       8.15500000      25.65300000
 H       1.82400000       8.31000000      25.99700000
 H       3.18400000       9.03200000      25.25900000
 O      10.70200000       6.83400000      20.87900000
 H      10.41300000       7.01100000      21.84300000
 H      11.67400000       6.90300000      20.91800000
 O       7.69400000       3.20400000      23.21600000
 H       8.38400000       3.96100000      23.14700000
 H       6.89200000       3.66700000      23.55600000
 O       4.63800000       1.62000000      21.03000000
 H       4.00000000       0.87900000      20.89500000
 H       4.25300000       2.33900000      20.47800000
 O       5.72300000       8.76800000      20.34600000
 H       5.48000000       8.94700000      21.24000000
 H       6.38900000       9.46100000      20.22900000
 O       0.82100000       6.48400000      22.13000000
 H       1.25800000       5.76900000      21.61300000
 H       0.48500000       7.21400000      21.48700000
 O       3.39400000       5.60200000      24.66900000
 H       2.86100000       5.36000000      23.78300000
 H       3.22800000       6.44600000      24.98400000
 O       2.02100000       4.65500000      16.77300000
 H       2.24700000       4.21600000      15.88800000
 H       1.26300000       5.22600000      16.61600000
 O       8.94700000       9.55600000      25.55000000
 H       8.52800000       9.25400000      26.35900000
 H       8.13100000      10.02500000      25.23200000
 O       2.48300000      10.55900000      17.09600000
 H       2.63400000       9.76600000      16.65100000
 H       2.64800000      10.36100000      18.06700000
 O       5.45300000       1.53900000      25.15000000
 H       4.69300000       2.08500000      24.95800000
 H       5.67900000       1.30100000      24.18200000
 O       5.50100000       3.74200000      17.81700000
 H       4.60100000       4.12500000      17.96500000
 H       5.50900000       3.40300000      16.90800000
 O       3.69600000       8.37000000      22.34200000
 H       3.35100000       7.49500000      22.58800000
 H       3.22000000       8.96100000      22.94300000
 O       9.95600000       3.91400000      16.61900000
 H      10.53400000       3.42200000      15.97500000
 H       9.03200000       3.55300000      16.46000000
 O      11.15500000      10.71000000      18.24900000
 H      10.26500000      10.36000000      17.82300000
 H      11.06600000      10.41100000      19.18800000
 O       2.83500000       2.83200000      19.12700000
 H       2.65300000       1.88000000      18.77100000
 H       2.27500000       3.38300000      18.55200000
 O       7.52600000       6.33100000      25.98400000
 H       8.39200000       6.43000000      26.21000000
 H       6.92600000       6.99200000      26.56800000
 O       6.00200000       5.25200000      23.68300000
 H       6.58100000       5.82800000      24.23600000
 H       5.10400000       5.41900000      24.17900000
 O       5.58400000       9.78400000      16.91000000
 H       5.28900000      10.77000000      17.06800000
 H       4.95900000       9.26200000      16.34300000
 O       8.44600000       9.21400000      19.76000000
 H       8.65900000       9.58400000      18.87400000
 H       8.22400000       8.42700000      19.35300000
 O       8.77600000      10.23200000      16.95400000
 H       7.87800000      10.23400000      16.50500000
 H       9.31400000      10.44600000      16.13600000
 O       7.94400000       7.44700000      17.17000000
 H       7.39200000       7.09500000      16.43800000
 H       8.42000000       8.23200000      16.81500000
 O       8.90600000       1.21900000      21.37600000
 H       8.31500000       0.63000000      21.86500000
 H       8.42600000       2.03000000      21.41600000
 O       8.26200000       5.72600000      19.49900000
 H       8.40700000       5.84700000      18.54700000
 H       8.95900000       6.16400000      19.99500000
 O       2.21200000       7.71800000      18.67000000
 H       1.47500000       7.45400000      19.22300000
 H       2.74800000       6.90200000      18.54600000
 O       9.26600000       5.39800000      23.52200000
 H       8.87900000       6.31600000      23.39000000
 H       9.31300000       5.38300000      24.51900000
 O       2.41900000      10.09700000      23.88300000
 H       2.64200000      11.04700000      23.82600000
 H       1.47000000      10.17100000      23.63600000
 O       3.16700000       4.81200000      21.02100000
 H       2.87600000       4.66300000      20.08200000
 H       3.97500000       5.32900000      20.88600000
 O       1.36500000       2.75200000      22.54300000
 H       1.68500000       1.86800000      22.73200000
 H       2.09500000       3.03500000      21.95100000
 O       3.12900000      10.62300000      19.91100000
 H       2.44300000      10.85200000      20.56000000
 H       3.31500000       9.70500000      20.11700000
 O       8.33600000       1.77100000      25.89000000
 H       7.76600000       1.64400000      25.14800000
 H       7.87800000       1.29200000      26.56500000
 O      10.68700000       8.60900000      23.78700000
 H      11.47600000       8.92400000      24.26100000
 H      10.07700000       8.54500000      24.56100000
 O       6.54100000       9.99200000      24.40200000
 H       6.13200000       9.04500000      24.52800000
 H       6.05500000      10.36100000      25.23800000
 O      10.72900000      10.06900000      21.12100000
 H      10.03400000       9.38400000      20.98600000
 H      11.06600000       9.85600000      22.02700000
