111
XYZ file of cluster: frame_16000_10e3.202f4.21f7 - created by MolEdiTo
 O       8.52900000       7.56000000       4.29600000
 H       8.27100000       7.13300000       3.46700000
 H       7.72000000       7.97100000       4.61300000
 O       3.12400000       9.82800000       7.49000000
 H       3.19400000       8.88600000       7.80400000
 H       3.55100000      10.36800000       8.22900000
 O       3.09000000      14.17700000      10.77800000
 H       3.04200000      14.91200000      11.43200000
 H       4.02200000      14.33700000      10.48100000
 O       4.52500000      11.86800000       4.34100000
 H       5.26000000      11.42200000       3.98100000
 H       4.82400000      12.78200000       4.49700000
 O       7.28600000      14.06300000       6.90600000
 H       7.40500000      14.48700000       5.96100000
 H       7.01500000      13.12400000       6.73800000
 O       8.51700000       9.30900000       1.60800000
 H       8.80800000       8.88900000       0.76400000
 H       8.05500000       8.59400000       2.11100000
 O       2.75300000      13.08900000       7.13200000
 H       2.44600000      12.30900000       6.55100000
 H       1.93600000      13.52100000       7.34000000
 O       1.02700000      11.73000000       5.21100000
 H       0.46400000      12.26800000       4.63900000
 H       0.60000000      10.89300000       5.48700000
 O       8.10100000      15.20700000       3.13000000
 H       8.90300000      15.77700000       2.98200000
 H       8.54100000      14.51400000       3.66900000
 O       8.19400000       6.55300000       1.53200000
 H       7.71000000       6.41800000       0.61600000
 H       8.68100000       5.66000000       1.41700000
 O       7.74400000      10.94500000       4.21200000
 H       7.05600000      10.78400000       4.92600000
 H       7.74400000      10.15100000       3.61600000
 O       4.68700000      14.57900000       8.11900000
 H       4.11100000      13.84100000       7.86300000
 H       5.40300000      14.50300000       7.48700000
 O       6.40800000       8.79700000       9.07200000
 H       5.85000000       7.98800000       9.09700000
 H       7.37400000       8.45800000       9.26100000
 O       2.51800000       9.03100000       4.75700000
 H       3.18200000       8.26800000       4.70900000
 H       3.09600000       9.74200000       5.09900000
 O       2.57300000      14.36100000       4.34200000
 H       3.06500000      13.97600000       5.14100000
 H       3.02000000      13.91600000       3.60100000
 O       3.17800000       7.45400000       1.72900000
 H       3.81000000       8.04400000       1.33700000
 H       2.50500000       7.08600000       1.06800000
 O       9.90200000      11.29800000       7.96600000
 H       9.78300000      11.59700000       6.98200000
 H      10.51100000      11.92500000       8.35400000
 O       4.61600000       6.66100000       8.14800000
 H       4.07500000       6.22300000       7.47600000
 H       4.66500000       5.99200000       8.93600000
 O       0.99900000      15.85600000       2.62200000
 H       0.13600000      15.41500000       2.89600000
 H       1.68000000      15.37100000       3.17700000
 O       5.84500000       8.91300000       3.40000000
 H       5.76700000       7.92300000       3.44000000
 H       5.24600000       9.10900000       2.58200000
 O       3.93000000       6.65600000       4.84700000
 H       3.45700000       6.26600000       4.05800000
 H       4.38800000       5.83000000       5.18900000
 O       2.08100000      11.40300000       2.06000000
 H       2.18600000      12.20300000       1.46600000
 H       2.60500000      11.58300000       2.88600000
 O       7.98100000       6.72700000       7.74400000
 H       6.99400000       6.71700000       7.73400000
 H       8.20200000       5.93200000       7.15300000
 O       9.96500000      14.27300000       5.42900000
 H      10.35600000      14.55500000       6.28600000
 H      10.28400000      13.39000000       5.29100000
 O       9.05600000      14.98600000       8.66700000
 H       8.86900000      15.93800000       8.88000000
 H       8.64700000      14.76100000       7.80300000
 O       2.90500000      16.44600000       7.49000000
 H       3.60800000      15.80000000       7.87500000
 H       2.24000000      15.75100000       7.10900000
 O      10.61200000       5.91100000       5.42500000
 H      10.77100000       6.72400000       5.95800000
 H       9.90000000       6.38900000       4.84500000
 O       4.48100000      10.03600000       1.15500000
 H       4.72100000      10.39900000       0.27600000
 H       3.58900000      10.43000000       1.42600000
 O       1.00700000       4.89600000       2.09200000
 H       0.60300000       5.78400000       1.99600000
 H       0.63000000       4.18000000       1.46200000
 O       7.91800000      12.18400000       0.97700000
 H       7.81400000      12.72000000       1.79200000
 H       8.07600000      11.26000000       1.38000000
 O      10.55700000       8.34500000       6.95600000
 H      11.01500000       9.13800000       7.34900000
 H       9.75900000       8.21500000       7.54600000
 O      10.43700000      11.57100000       5.12100000
 H      10.77200000      10.81300000       4.62800000
 H       9.45300000      11.45100000       4.91900000
 O       9.34900000       8.95800000       9.77000000
 H      10.30200000       9.16100000       9.97400000
 H       9.03300000       9.83000000       9.48000000
 O       5.71200000      14.54800000       4.28100000
 H       6.48300000      14.86500000       3.84300000
 H       5.05100000      15.29300000       4.14900000
 O       6.27300000      10.85600000       7.14800000
 H       5.35200000      10.85900000       6.83400000
 H       6.31300000      10.17600000       7.87400000
 O       9.52900000       5.63000000       9.88200000
 H       9.90100000       5.53200000       8.94900000
 H       8.84700000       6.31500000       9.73200000
 O       3.72100000      11.68600000       9.88200000
 H       4.42300000      11.56300000      10.53300000
 H       3.20400000      12.44100000      10.20700000
