160
XYZ file of cluster: frame_16000_662db.691da.4d488 - created by MolEdiTo
 O      16.57800000      25.30800000      19.84300000
 H      15.96900000      26.06700000      19.92500000
 H      16.87600000      25.23000000      18.88700000
 O      15.25300000      20.17100000      15.84200000
 H      15.93300000      20.55100000      15.23900000
 H      15.83100000      19.57600000      16.38900000
 O      23.01500000      25.36500000      13.10500000
 H      23.23600000      24.40700000      13.06700000
 H      22.77700000      25.57100000      14.04000000
 O      23.91800000      16.19900000      13.62100000
 H      23.91800000      16.57900000      12.66800000
 H      24.68700000      15.59200000      13.71100000
 O      20.71200000      24.80100000      18.73500000
 H      20.16800000      25.65400000      18.78700000
 H      21.52200000      25.14300000      18.41100000
 O      17.25800000      21.71600000      14.58900000
 H      17.96700000      21.19100000      14.19300000
 H      17.58600000      22.60400000      14.76900000
 O      21.84000000      23.86800000      15.74000000
 H      21.98200000      22.90600000      16.03200000
 H      22.23100000      24.40200000      16.42900000
 O      25.97300000      26.11600000      13.74300000
 H      26.77600000      26.63100000      13.44800000
 H      26.12900000      25.89700000      14.66600000
 O      20.31800000      24.88400000      10.94200000
 H      20.75400000      24.90700000      10.04800000
 H      20.98200000      25.26500000      11.60400000
 O      16.66200000      17.39700000      20.03700000
 H      16.77400000      18.04700000      20.73900000
 H      16.94600000      17.83700000      19.19800000
 O      20.02100000      18.73000000      11.06400000
 H      21.00700000      18.70300000      11.21900000
 H      19.76900000      18.09300000      10.35600000
 O      21.84400000      16.26400000      21.51700000
 H      21.83100000      15.54700000      20.81900000
 H      21.08000000      16.84100000      21.41700000
 O      22.00900000      16.76700000      16.55700000
 H      21.33900000      16.32400000      15.93200000
 H      21.44100000      17.26800000      17.14500000
 O      23.89900000      23.58100000      11.36000000
 H      23.87700000      22.57100000      11.37900000
 H      24.84900000      23.92400000      11.41600000
 O      20.80200000      22.56700000      20.52200000
 H      20.48800000      23.42200000      20.08400000
 H      19.94200000      22.23200000      20.92200000
 O      18.20200000      22.82000000      19.21100000
 H      17.22800000      22.70000000      19.01400000
 H      18.44200000      23.45100000      18.49400000
 C      14.20800000      16.10100000      16.55700000
 C      15.04300000      15.74700000      15.29500000
 C      17.33600000      16.61100000      16.13600000
 H      16.39800000      14.66500000      16.69400000
 H      13.16800000      14.60800000      16.08300000
 O      17.23700000      14.52100000      14.75800000
 O      14.32900000      17.19700000      17.12700000
 O      13.38600000      15.09100000      16.89700000
 C      16.50100000      15.34000000      15.75600000
 O      14.50300000      14.62100000      14.59600000
 H      15.07000000      16.68600000      14.67900000
 O      17.01000000      17.79300000      16.02600000
 O      18.59100000      16.27500000      16.50300000
 H      18.56900000      15.36100000      16.31100000
 H      14.84900000      14.55800000      13.64300000
 H      16.82100000      13.65200000      14.60100000
 O      25.66500000      22.62700000      16.04200000
 H      26.24200000      22.32700000      15.33000000
 H      26.14700000      22.49700000      16.92000000
 O      17.85100000      25.91400000      11.73300000
 H      18.84700000      25.73900000      11.57200000
 H      17.80400000      26.37200000      12.58200000
 O      17.20400000      19.68800000      10.16800000
 H      17.67300000      20.52800000      10.18800000
 H      17.56700000      19.13700000      10.90400000
 O      20.73200000      18.70700000      18.31900000
 H      21.08900000      19.19500000      19.12300000
 H      19.72800000      18.90000000      18.43300000
 O      23.12600000      21.15800000      16.32100000
 H      23.99600000      21.61000000      16.35400000
 H      23.26500000      20.47900000      15.60200000
 O      20.82600000      17.20000000      13.77700000
 H      20.59900000      18.01400000      13.23800000
 H      20.98400000      17.59700000      14.65100000
 O      23.98100000      18.30700000      19.97000000
 H      24.46100000      17.49400000      20.29200000
 H      23.40300000      18.63200000      20.73000000
 O      17.89900000      18.98800000      12.95200000
 H      18.72900000      19.27400000      12.53600000
 H      17.88500000      17.94400000      12.91300000
 O      24.16500000      15.44800000      17.73600000
 H      23.54200000      16.07000000      17.21200000
 H      24.96900000      16.04000000      17.99000000
 O      25.88000000      16.42300000      20.67200000
 H      25.94000000      15.76200000      19.93500000
 H      26.71600000      16.19200000      21.22900000
 O      17.86600000      19.96600000      18.75400000
 H      16.94700000      19.87700000      18.61300000
 H      18.08100000      20.93100000      18.64800000
 O      20.27600000      21.34700000      13.38100000
 H      21.09400000      21.88400000      13.34900000
 H      20.33600000      20.82800000      14.26100000
 O      15.39000000      23.78100000      10.83900000
 H      15.72200000      22.85100000      10.94900000
 H      16.16800000      24.10500000      10.25300000
 O      25.44100000      24.57000000      20.39900000
 H      25.02700000      23.87300000      19.92600000
 H      25.27500000      24.48700000      21.30600000
 O      17.54400000      16.19200000      12.57900000
 H      17.47400000      15.56700000      13.38300000
 H      18.23200000      15.85200000      12.05100000
 O      19.14200000      24.54900000      14.44600000
 H      19.09600000      25.40300000      14.93000000
 H      20.06700000      24.37400000      14.29000000
 O      15.80400000      21.18700000      12.54500000
 H      16.07800000      20.26700000      12.76600000
 H      16.45600000      21.63000000      13.22500000
 O      18.38200000      22.15300000      11.24600000
 H      19.29000000      22.00400000      11.70300000
 H      18.54800000      23.02000000      10.89400000
 O      21.17100000      19.74100000      20.96000000
 H      20.31300000      20.06700000      21.13800000
 H      21.71400000      20.59000000      20.85500000
 O      24.40200000      20.65700000      11.80800000
 H      25.24600000      20.11100000      11.60000000
 H      24.29800000      20.58700000      12.74900000
 O      23.39500000      23.16500000      18.66900000
 H      22.63700000      22.89300000      19.21100000
 H      23.70000000      22.26900000      18.32400000
 O      16.07300000      24.52400000      13.67200000
 H      15.69600000      24.56500000      12.77800000
 H      17.01400000      24.46300000      13.43700000
 O      22.95100000      26.21100000      20.21200000
 H      22.99200000      26.34200000      21.17800000
 H      23.62600000      25.48900000      20.01500000
 O      15.07800000      16.90900000      11.28600000
 H      14.74600000      17.72900000      11.75200000
 H      15.87800000      16.64400000      11.89600000
 O      22.92800000      18.44000000      11.14500000
 H      22.85500000      18.97500000      10.29200000
 H      23.65000000      18.89000000      11.62500000
 O      24.11000000      19.19900000      14.62200000
 H      23.69700000      18.25200000      14.65300000
 H      25.10500000      19.17500000      14.61100000
 O      18.92800000      25.30000000      21.24800000
 H      18.13500000      24.82300000      20.87100000
 H      18.51200000      26.09600000      21.71100000
 O      20.01600000      22.32200000      17.05000000
 H      20.06500000      23.32600000      17.01700000
 H      20.46800000      22.07500000      17.83400000
 O      17.49500000      25.06700000      16.99200000
 H      17.31400000      24.40500000      16.27400000
 H      17.58400000      25.85900000      16.46500000
 O      19.89600000      20.01700000      15.65600000
 H      19.75900000      19.21400000      16.21700000
 H      19.75100000      20.83200000      16.15300000
 O      24.78800000      25.13300000      16.46600000
 H      24.47600000      25.26300000      17.44400000
 H      25.12400000      24.18400000      16.31500000
 O      24.79500000      18.99200000      17.48900000
 H      24.22500000      18.91200000      18.25800000
 H      24.41200000      19.70000000      16.90100000
