45
XYZ file of cluster: frame_17000_207f7.c4b4c.24d52 - created by MolEdiTo
 O       9.50300000      19.86700000       6.39900000
 H       9.42900000      19.12000000       6.98200000
 H       8.95300000      19.71000000       5.54300000
 O       7.65900000      19.28100000       4.25900000
 H       7.37100000      19.16200000       3.32900000
 H       7.09800000      18.69200000       4.73000000
 O       3.40200000      18.41100000       4.11800000
 H       2.86800000      19.25300000       4.06400000
 H       4.32600000      18.71800000       3.83100000
 O       7.96200000      17.97500000       7.69600000
 H       7.21100000      18.46200000       7.52700000
 H       7.71100000      17.02300000       7.77700000
 O      10.53200000      18.34900000       9.21900000
 H      10.40000000      17.41000000       9.46600000
 H       9.60400000      18.58400000       9.02900000
 O       6.39000000      18.49900000      10.06700000
 H       6.49700000      19.45700000      10.14700000
 H       7.27400000      18.16600000      10.15700000
 O       4.80300000      19.22300000       7.31200000
 H       4.65000000      19.54500000       8.19000000
 H       4.26300000      19.84500000       6.74700000
 O      10.43800000      23.38400000       5.96000000
 H       9.93400000      22.53200000       6.01300000
 H       9.79200000      23.91600000       6.40300000
 O      10.64900000      23.91100000       3.15400000
 H      10.28100000      24.26200000       3.98600000
 H      10.68000000      22.95500000       3.28400000
 O       3.87800000      22.59400000       6.01000000
 H       3.03200000      23.09900000       6.17000000
 H       4.47200000      23.06100000       6.55000000
 O       5.82700000      22.54900000      10.33400000
 H       5.65300000      23.08500000      11.16400000
 H       6.80000000      22.64000000      10.16800000
 O       7.83800000      24.12200000       3.87600000
 H       7.99100000      23.55200000       4.66900000
 H       8.59100000      24.68700000       3.83500000
 O       4.78500000      25.20700000       5.02200000
 H       5.59100000      25.47400000       4.52100000
 H       4.45900000      24.42500000       4.51300000
 O       5.30200000      24.05800000       7.92200000
 H       4.83700000      24.83500000       7.53300000
 H       5.13800000      24.03800000       8.91200000
 O       8.86500000      23.04400000       9.75700000
 H       9.06600000      22.73100000       8.86000000
 H       9.01000000      22.44700000      10.43400000
