61
XYZ file of cluster: frame_17000_54025.5df7c.5b735 - created by MolEdiTo
 O      12.85500000      16.49200000      10.80800000
 H      13.34300000      17.10400000      10.22300000
 H      13.57700000      16.02400000      11.25600000
 O      11.92100000      13.81400000      12.96100000
 H      12.83800000      14.16600000      12.95200000
 H      12.18600000      12.83200000      13.05400000
 O      13.86600000      12.55400000      11.34400000
 H      14.12500000      13.03000000      10.53200000
 H      13.72400000      11.57100000      11.11900000
 O      10.95000000      16.32500000      12.70600000
 H      11.12800000      15.35800000      12.83000000
 H      11.66600000      16.52000000      12.07400000
 O       9.31700000      12.37300000      17.85300000
 H       9.29300000      11.37700000      18.03300000
 H      10.00200000      12.54100000      17.14400000
 O       8.44000000      17.49200000      16.68700000
 H       8.04000000      17.68600000      15.87000000
 H       9.29100000      17.96400000      16.57600000
 O      10.59700000      11.80600000      15.36600000
 H      10.57200000      10.94700000      14.78000000
 H      11.47500000      11.75200000      15.87300000
 O      13.24800000      10.68100000      14.50100000
 H      13.15700000       9.98900000      15.14600000
 H      13.03400000      10.30200000      13.62400000
 C       9.37900000      11.30900000      10.31000000
 C      10.82700000      11.29800000       9.61000000
 C      11.25500000       9.36000000      11.30200000
 H      11.26900000       9.18200000       9.19600000
 H       7.71200000      12.04700000       9.78000000
 O      13.00200000      10.00900000       9.64800000
 O       8.69300000       9.95900000      10.30900000
 O       8.65100000      12.35400000       9.67300000
 C      11.58500000       9.97600000       9.90000000
 O      10.87200000      11.36200000       8.16000000
 H      11.38700000      12.13900000      10.10600000
 O      11.56000000      10.32700000      12.32400000
 O      11.94500000       8.13200000      11.37800000
 H      12.70300000       8.25100000      11.99000000
 H      11.83600000      11.26000000       7.83100000
 H      13.30800000       9.13700000       9.46600000
 O       7.41400000      11.71700000      15.44700000
 H       8.03500000      11.00800000      15.13100000
 H       7.86000000      11.93200000      16.26900000
 O      13.47600000      17.69400000      15.63400000
 H      13.70100000      17.36400000      16.54700000
 H      12.52800000      17.91300000      15.79500000
 O      12.83200000      11.70200000      17.26300000
 H      13.02000000      12.38400000      17.98300000
 H      12.48600000      10.98200000      17.89000000
 O       8.86900000      13.21300000      13.04600000
 H       9.75400000      13.48900000      12.99200000
 H       8.82400000      12.58700000      13.82800000
 O      14.39800000      15.31600000      13.69800000
 H      15.00200000      15.93900000      13.16600000
 H      14.24300000      15.87600000      14.49500000
 O       8.68200000      17.63300000      11.42900000
 H       9.57800000      17.37700000      11.65700000
 H       8.34200000      18.25500000      12.07200000
 O      10.36100000      15.32000000      15.45100000
 H      10.38600000      16.21300000      14.96200000
 H      10.42100000      14.58200000      14.78300000
