73
XYZ file of cluster: frame_17000_2317b.16de3.4ecaa - created by MolEdiTo
 O       3.63500000       8.46500000       6.75600000
 H       3.86500000       9.26700000       7.30500000
 H       3.15100000       7.83600000       7.33500000
 O       3.66300000       4.34500000      14.53000000
 H       3.11900000       3.48800000      14.54300000
 H       3.17100000       4.85000000      13.78200000
 O       5.68800000       8.51600000      13.83900000
 H       5.47300000       7.61000000      13.55500000
 H       6.67200000       8.63800000      13.92100000
 O       6.75000000       5.16500000      11.43300000
 H       6.72800000       6.05200000      11.77100000
 H       6.00600000       4.71100000      11.85900000
 O       4.78700000       8.21600000       9.96700000
 H       5.02500000       9.08600000       9.62300000
 H       3.84100000       8.28400000       9.67800000
 O       5.30200000       2.93000000       7.92200000
 H       4.83700000       3.70700000       7.53300000
 H       5.13800000       2.91000000       8.91200000
 O       5.57000000       2.78400000      13.29100000
 H       5.52300000       1.97900000      13.83200000
 H       5.50800000       3.57400000      13.91600000
 O       9.90800000       6.22600000      10.30300000
 H      10.29300000       6.60800000      11.10200000
 H      10.60300000       6.17800000       9.59500000
 O       7.91000000       8.03500000      11.89600000
 H       8.32300000       7.30300000      11.40600000
 H       7.89200000       8.75800000      11.26300000
 O       3.57100000       4.11800000      11.34500000
 H       4.07600000       3.76400000      12.11300000
 H       3.63300000       5.11100000      11.50800000
 O       4.78100000      10.79000000      11.58400000
 H       4.17600000      11.45300000      11.97900000
 H       5.24200000      10.28900000      12.34900000
 O       3.65400000       6.81900000      11.90600000
 H       3.09700000       7.54400000      12.37900000
 H       4.23800000       7.28500000      11.22600000
 O       9.21000000       9.77200000      13.97700000
 H       9.28500000       8.84000000      14.17300000
 H       8.67500000       9.82400000      13.17400000
 O      10.96300000       5.92000000       7.48800000
 H      11.49900000       5.41300000       6.74700000
 H      10.44700000       6.65000000       7.01100000
 O       7.81400000       6.58800000       8.48900000
 H       8.52400000       6.76400000       9.12800000
 H       7.26100000       6.00100000       9.02300000
 O       7.40900000       4.93400000      14.46400000
 H       7.27700000       4.30200000      15.22800000
 H       7.92700000       4.42800000      13.86200000
 O       9.75100000       4.13400000      12.60200000
 H      10.68600000       3.90300000      12.29400000
 H       9.25700000       4.22200000      11.80000000
 C       9.37900000      11.30900000      10.31000000
 C      10.82700000      11.29800000       9.61000000
 C      11.25500000       9.36000000      11.30200000
 H      11.26900000       9.18200000       9.19600000
 H       7.71200000      12.04700000       9.78000000
 O      13.00200000      10.00900000       9.64800000
 O       8.69300000       9.95900000      10.30900000
 O       8.65100000      12.35400000       9.67300000
 C      11.58500000       9.97600000       9.90000000
 O      10.87200000      11.36200000       8.16000000
 H      11.38700000      12.13900000      10.10600000
 O      11.56000000      10.32700000      12.32400000
 O      11.94500000       8.13200000      11.37800000
 H      12.70300000       8.25100000      11.99000000
 H      11.83600000      11.26000000       7.83100000
 H      13.30800000       9.13700000       9.46600000
 O      10.19100000       6.71700000      13.91600000
 H       9.63600000       6.02700000      13.43300000
 H      10.57400000       6.35200000      14.73000000
 O       4.36700000       5.73800000       8.13400000
 H       4.99800000       6.01200000       8.84800000
 H       3.56600000       6.22500000       8.36100000
