129
XYZ file of cluster: frame_8000_72be2.46e22.9828f - created by MolEdiTo
 O      20.54800000      20.69100000      23.34000000
 H      20.43800000      19.70900000      23.41100000
 H      21.58700000      20.87900000      23.37200000
 O      17.34900000      19.76500000      21.43400000
 H      16.39100000      19.80400000      21.25300000
 H      17.56200000      18.95700000      21.95600000
 O      15.27800000      20.56200000      24.71200000
 H      15.95200000      19.96700000      24.97600000
 H      15.45400000      21.47000000      25.05800000
 O      17.33500000      13.10300000      22.47600000
 H      17.87600000      12.34900000      22.04500000
 H      17.87100000      13.82400000      22.27700000
 O      26.04700000      20.12400000      25.00300000
 H      25.31700000      20.07300000      25.65300000
 H      25.70200000      19.49200000      24.27300000
 O      17.58600000      18.98900000      25.15200000
 H      17.62700000      18.39900000      25.95900000
 H      17.30600000      18.24000000      24.53300000
 O      15.30000000      12.07500000      29.04100000
 H      15.09300000      12.11900000      28.09900000
 H      16.19000000      12.52700000      29.18500000
 O      19.60300000      15.13700000      22.02100000
 H      19.97400000      15.70400000      22.71500000
 H      20.03300000      14.26000000      22.22400000
 O      18.72900000      21.03900000      29.65100000
 H      18.45000000      21.22000000      30.56300000
 H      18.11500000      21.49100000      29.01300000
 O      15.64200000      15.89500000      21.00400000
 H      14.68800000      15.67600000      21.02700000
 H      15.85700000      15.11500000      20.44400000
 O      22.57900000       9.69600000      27.17000000
 H      23.56100000       9.67500000      27.27500000
 H      22.48300000      10.62500000      27.31800000
 O      16.82600000      16.83900000      23.54400000
 H      16.47900000      16.56600000      22.63500000
 H      17.23700000      16.01500000      23.82500000
 O      20.93800000      11.61300000      29.61200000
 H      20.00400000      11.79400000      29.32300000
 H      20.86500000      10.74600000      29.95600000
 O      25.48700000      18.81100000      22.10100000
 H      24.88900000      18.08900000      22.00400000
 H      25.71200000      18.72300000      21.11200000
 O      20.99000000      17.67700000      29.82400000
 H      20.53200000      17.77000000      30.76100000
 H      20.20100000      17.23200000      29.42100000
 O      20.54300000      11.80900000      22.45400000
 H      20.06600000      11.63900000      21.61200000
 H      21.12900000      12.57000000      22.29900000
 O      17.01900000      14.85200000      28.92500000
 H      17.66400000      15.48800000      29.26900000
 H      16.12800000      15.16300000      29.12500000
 O      20.11900000      14.35600000      26.24000000
 H      20.00200000      14.50700000      27.19900000
 H      20.94800000      14.86900000      26.08900000
 O      22.96500000      17.47000000      21.21000000
 H      22.53100000      17.97300000      21.88100000
 H      22.57200000      17.91100000      20.39600000
 O      25.82900000      15.82400000      26.95300000
 H      25.14700000      15.57100000      26.28600000
 H      25.44100000      15.70200000      27.85800000
 O      24.42300000      18.17200000      25.78200000
 H      23.73000000      17.99600000      26.47400000
 H      24.40800000      17.46900000      25.09600000
 O      18.32400000      12.40500000      29.51500000
 H      17.97100000      13.27800000      29.16700000
 H      18.25300000      12.50200000      30.57800000
 O      22.56000000      14.04600000      22.13400000
 H      23.11100000      13.54900000      21.46000000
 H      22.65500000      14.95000000      21.83100000
 O      17.33600000      14.51500000      25.30400000
 H      18.38000000      14.35200000      25.35200000
 H      17.07600000      15.15700000      25.95100000
 O      25.32700000      13.85300000      28.93200000
 H      24.43700000      14.19400000      29.12000000
 H      25.28000000      13.09200000      29.51500000
 O      16.93700000      10.36500000      26.99700000
 H      17.89600000      10.52800000      26.81100000
 H      16.48600000      11.20900000      26.65500000
 O      18.73000000      21.55500000      25.48400000
 H      19.65100000      21.64700000      25.82100000
 H      18.80300000      20.97200000      24.68300000
 O      23.77800000      14.47900000      25.49500000
 H      24.38400000      13.82900000      25.86300000
 H      23.21400000      13.85100000      25.20900000
 O      21.81400000      12.53800000      24.84700000
 H      21.65000000      12.47200000      23.87000000
 H      21.00000000      13.07600000      25.22100000
 O      23.13900000      16.17600000      29.03300000
 H      22.67200000      16.82100000      29.64800000
 H      22.45500000      15.48200000      28.75200000
 O      16.83700000      21.00000000      27.58400000
 H      16.09600000      21.31400000      27.06000000
 H      17.58100000      20.82700000      26.92400000
 O      25.24700000      11.51300000      24.74600000
 H      25.65600000      10.61900000      25.00400000
 H      24.31100000      11.15100000      24.89600000
 O      20.85900000      14.39600000      28.99200000
 H      20.37500000      14.73900000      29.80400000
 H      21.05300000      13.46000000      29.26600000
 O      15.65900000       9.95300000      23.90500000
 H      16.11900000      10.74300000      23.61900000
 H      16.42200000       9.20400000      23.99600000
 O      18.36100000      10.86600000      24.22800000
 H      18.81100000      10.55900000      25.06800000
 H      19.07100000      11.32300000      23.74200000
 O      18.87000000      17.39700000      27.27600000
 H      19.52700000      18.12800000      27.42600000
 H      18.09800000      17.64100000      27.87900000
 O      15.53500000      12.61900000      25.91400000
 H      14.97800000      12.66500000      25.08900000
 H      16.17600000      13.36400000      25.76700000
 O      25.23000000      16.14400000      20.53000000
 H      25.17300000      16.66500000      19.59800000
 H      24.53400000      16.52000000      21.13200000
 O      17.01500000      18.53400000      28.84700000
 H      16.66200000      19.32200000      28.39200000
 H      16.89200000      18.89100000      29.73100000
 O      23.89300000      21.68100000      30.11300000
 H      24.63000000      21.07300000      30.02100000
 H      23.39600000      21.40300000      31.02500000
 O      20.70900000      17.59600000      23.73700000
 H      20.06900000      17.52600000      24.44800000
 H      21.50900000      17.77300000      24.23200000
 O      20.33000000      19.86300000      27.63600000
 H      19.72100000      20.23900000      28.33500000
 H      20.99400000      20.54100000      27.42700000
 O      21.70200000      17.81900000      26.39200000
 H      22.06600000      18.51600000      26.97600000
 H      20.86800000      17.48000000      26.84200000
