102
XYZ file of cluster: frame_8000_cd34a.20a95.9f2fb - created by MolEdiTo
 O      27.55700000      15.47200000      21.92800000
 H      26.60200000      15.64100000      21.64700000
 H      27.68100000      14.51400000      21.95700000
 O      28.64500000       6.42900000      28.85500000
 H      28.91500000       6.10400000      27.96600000
 H      28.61000000       5.54100000      29.32800000
 O      26.47600000       8.10200000      29.33800000
 H      27.35900000       7.64600000      29.44900000
 H      26.27300000       8.40600000      30.27500000
 O      26.61600000      10.50700000      20.96600000
 H      27.45500000      10.63400000      20.54100000
 H      26.26800000       9.75500000      20.51100000
 O      30.37900000      15.60700000      21.14100000
 H      30.52800000      15.96000000      22.10600000
 H      29.46400000      15.33900000      21.09500000
 O      28.33000000      10.22900000      24.69500000
 H      28.31000000       9.62500000      23.89800000
 H      27.48700000       9.92100000      25.11400000
 O      28.58200000       8.49300000      22.33000000
 H      28.80300000       7.85700000      22.98600000
 H      29.28800000       8.97700000      22.03500000
 O      29.24800000      12.38200000      28.16600000
 H      28.47400000      12.62400000      27.51000000
 H      29.78900000      11.71000000      27.73700000
 O      29.78300000      11.65000000      22.88800000
 H      28.87000000      12.12700000      22.78500000
 H      29.43800000      11.12100000      23.67100000
 O      29.09200000      14.34900000      30.28600000
 H      29.09200000      13.56100000      29.60600000
 H      30.01700000      14.36600000      30.66800000
 O      27.21200000      12.85600000      26.36800000
 H      26.56300000      12.51400000      25.73500000
 H      26.56000000      13.13800000      27.09700000
 O      27.07000000      12.70700000      22.74200000
 H      26.56500000      12.32000000      23.48100000
 H      26.68000000      12.20000000      21.97300000
 O      28.43900000      15.42300000      24.74600000
 H      27.87000000      15.18900000      23.98100000
 H      27.83700000      15.30400000      25.48500000
 O      26.52000000       6.62500000      23.56600000
 H      27.36800000       6.43400000      23.12800000
 H      26.33300000       5.71600000      23.99800000
 O      29.06200000       5.58400000      23.15900000
 H      29.00800000       4.97100000      23.85000000
 H      29.97600000       5.46600000      22.85800000
 O      28.85200000       5.23200000      26.32800000
 H      28.23200000       4.66900000      25.78600000
 H      28.58600000       5.99200000      25.88200000
 O      36.47100000      12.76700000      25.10000000
 H      35.88000000      13.13200000      25.74800000
 H      35.80400000      12.42800000      24.40800000
 O      33.28900000      14.84600000      30.38300000
 H      33.99400000      14.14600000      30.30000000
 H      33.70900000      15.50100000      30.96100000
 O      34.91000000       8.89700000      29.28700000
 H      35.84400000       8.73800000      29.23800000
 H      34.70300000       8.24900000      30.00700000
 O      36.47200000      15.11000000      28.87400000
 H      36.57100000      16.05100000      29.13200000
 H      36.30700000      15.19000000      27.87800000
 O      35.18800000      15.61000000      26.36200000
 H      34.77700000      16.15900000      26.93200000
 H      34.88400000      15.89900000      25.55500000
 O      36.39600000       9.71800000      26.38700000
 H      36.88200000      10.23400000      27.11900000
 H      35.59600000       9.28800000      26.72900000
 O      32.21000000       7.85300000      25.85000000
 H      32.31800000       7.97100000      26.83200000
 H      32.12200000       8.76100000      25.45700000
 O      34.00300000      12.17700000      28.79100000
 H      33.35800000      12.51800000      28.02300000
 H      34.62500000      11.68600000      28.22600000
 O      35.46300000      11.11600000      22.54500000
 H      34.59900000      10.92200000      22.84800000
 H      35.30900000      11.34200000      21.60800000
 O      32.69900000      13.94000000      26.94400000
 H      33.04500000      14.82900000      26.90100000
 H      31.85500000      14.01000000      27.47000000
 O      34.66700000       7.78500000      22.13900000
 H      34.35300000       8.68300000      21.89900000
 H      34.53700000       7.39300000      21.19700000
 O      36.30300000       5.19600000      22.22500000
 H      35.65800000       5.87100000      22.56100000
 H      35.64100000       4.45000000      22.10900000
 O      32.87300000      10.22600000      21.41000000
 H      32.89400000      10.58300000      20.50300000
 H      32.18200000      10.73300000      21.86900000
 O      33.44300000       6.15800000      24.18400000
 H      33.08900000       6.78800000      24.87800000
 H      34.15500000       6.66600000      23.76800000
 O      32.23900000       8.84600000      28.46900000
 H      31.70100000       9.01200000      29.31800000
 H      33.14200000       8.92800000      28.73800000
 O      33.43200000      13.27200000      24.42600000
 H      32.57500000      12.94900000      23.93800000
 H      33.09200000      13.54000000      25.30100000
 O      34.33900000      13.39300000      20.92700000
 H      35.03100000      13.30300000      21.55500000
 H      33.85900000      14.18900000      21.32200000
 O      36.11500000       4.54900000      27.67900000
 H      36.26300000       5.51600000      27.64300000
 H      36.17600000       4.24100000      26.71900000
