132
XYZ file of cluster: frame_8000_72be2.23634.9cd57 - created by MolEdiTo
 O      17.33500000      13.10300000      22.47600000
 H      17.87600000      12.34900000      22.04500000
 H      17.87100000      13.82400000      22.27700000
 O      23.15100000       8.76700000      29.95200000
 H      22.27200000       8.77100000      29.52200000
 H      23.33900000       7.88500000      30.34100000
 O      22.99500000      10.30300000      21.81100000
 H      23.19500000       9.44300000      22.29800000
 H      22.03200000      10.18700000      21.66000000
 O      16.75300000       5.28400000      20.46900000
 H      17.36300000       4.87300000      21.16200000
 H      17.35900000       6.11400000      20.20000000
 O      25.74100000       8.84400000      25.45800000
 H      25.53700000       8.18600000      24.75300000
 H      25.30100000       8.37200000      26.18200000
 O      15.65000000       5.30400000      27.56200000
 H      15.59600000       6.19700000      27.67000000
 H      16.37000000       4.96000000      28.17800000
 O      15.30000000      12.07500000      29.04100000
 H      15.09300000      12.11900000      28.09900000
 H      16.19000000      12.52700000      29.18500000
 O      19.60300000      15.13700000      22.02100000
 H      19.97400000      15.70400000      22.71500000
 H      20.03300000      14.26000000      22.22400000
 O      15.75400000       5.56800000      23.08600000
 H      15.94200000       5.89900000      22.23100000
 H      15.59200000       4.59500000      22.93300000
 O      19.82300000       8.72300000      29.65300000
 H      19.57500000       8.88500000      28.71000000
 H      20.24300000       7.82100000      29.78100000
 O      19.54000000       5.71400000      20.63700000
 H      19.95100000       6.12600000      21.38800000
 H      19.65100000       4.80800000      20.78900000
 O      20.70100000       6.15400000      29.76000000
 H      19.81900000       5.86700000      29.43200000
 H      21.33100000       5.38000000      29.66900000
 O      15.64200000      15.89500000      21.00400000
 H      14.68800000      15.67600000      21.02700000
 H      15.85700000      15.11500000      20.44400000
 O      22.57900000       9.69600000      27.17000000
 H      23.56100000       9.67500000      27.27500000
 H      22.48300000      10.62500000      27.31800000
 O      20.93800000      11.61300000      29.61200000
 H      20.00400000      11.79400000      29.32300000
 H      20.86500000      10.74600000      29.95600000
 O      20.54300000      11.80900000      22.45400000
 H      20.06600000      11.63900000      21.61200000
 H      21.12900000      12.57000000      22.29900000
 O      17.01900000      14.85200000      28.92500000
 H      17.66400000      15.48800000      29.26900000
 H      16.12800000      15.16300000      29.12500000
 O      20.11900000      14.35600000      26.24000000
 H      20.00200000      14.50700000      27.19900000
 H      20.94800000      14.86900000      26.08900000
 O      19.98700000       7.09200000      23.28100000
 H      20.85300000       7.51100000      23.32600000
 H      19.91300000       6.69500000      24.16700000
 O      25.82900000      15.82400000      26.95300000
 H      25.14700000      15.57100000      26.28600000
 H      25.44100000      15.70200000      27.85800000
 O      17.61600000       7.56900000      26.12200000
 H      17.87300000       6.70200000      25.87500000
 H      16.80900000       7.46400000      26.74300000
 O      18.32400000      12.40500000      29.51500000
 H      17.97100000      13.27800000      29.16700000
 H      18.25300000      12.50200000      30.57800000
 O      22.56000000      14.04600000      22.13400000
 H      23.11100000      13.54900000      21.46000000
 H      22.65500000      14.95000000      21.83100000
 O      17.33600000      14.51500000      25.30400000
 H      18.38000000      14.35200000      25.35200000
 H      17.07600000      15.15700000      25.95100000
 O      25.32700000      13.85300000      28.93200000
 H      24.43700000      14.19400000      29.12000000
 H      25.28000000      13.09200000      29.51500000
 O      16.93700000      10.36500000      26.99700000
 H      17.89600000      10.52800000      26.81100000
 H      16.48600000      11.20900000      26.65500000
 O      18.01800000       5.74800000      29.44800000
 H      17.98500000       5.35500000      30.34100000
 H      17.54500000       6.60100000      29.57200000
 O      23.77800000      14.47900000      25.49500000
 H      24.38400000      13.82900000      25.86300000
 H      23.21400000      13.85100000      25.20900000
 O      18.76000000       9.34200000      21.86300000
 H      19.21600000       8.55500000      22.26700000
 H      18.74200000       9.93100000      22.59700000
 O      24.31100000       7.11600000      27.52900000
 H      23.47200000       6.91800000      28.01500000
 H      24.98500000       7.26200000      28.24800000
 O      21.81400000      12.53800000      24.84700000
 H      21.65000000      12.47200000      23.87000000
 H      21.00000000      13.07600000      25.22100000
 O      23.13900000      16.17600000      29.03300000
 H      22.67200000      16.82100000      29.64800000
 H      22.45500000      15.48200000      28.75200000
 O      25.24700000      11.51300000      24.74600000
 H      25.65600000      10.61900000      25.00400000
 H      24.31100000      11.15100000      24.89600000
 O      25.10600000      10.32900000      28.09300000
 H      24.91400000      10.01300000      28.95900000
 H      25.98500000       9.87800000      27.94200000
 O      25.40700000       7.53900000      21.35600000
 H      25.35500000       6.56300000      21.08400000
 H      26.01400000       7.52700000      22.15400000
 O      20.85900000      14.39600000      28.99200000
 H      20.37500000      14.73900000      29.80400000
 H      21.05300000      13.46000000      29.26600000
 O      15.65900000       9.95300000      23.90500000
 H      16.11900000      10.74300000      23.61900000
 H      16.42200000       9.20400000      23.99600000
 O      18.36100000      10.86600000      24.22800000
 H      18.81100000      10.55900000      25.06800000
 H      19.07100000      11.32300000      23.74200000
 O      23.42200000       5.65900000      24.82300000
 H      23.71900000       5.60200000      25.78100000
 H      22.63600000       5.06700000      24.83100000
 O      15.53500000      12.61900000      25.91400000
 H      14.97800000      12.66500000      25.08900000
 H      16.17600000      13.36400000      25.76700000
 O      19.57500000       9.72200000      26.40200000
 H      20.48500000       9.50200000      26.03700000
 H      18.99800000       8.94400000      26.29300000
 O      16.55900000       8.30700000      28.87300000
 H      15.73700000       8.59800000      29.36800000
 H      16.86000000       9.12200000      28.31700000
 O      23.36700000       8.01500000      23.29200000
 H      24.10600000       7.87000000      22.67600000
 H      23.49800000       7.19300000      23.79900000
 O      22.84000000       5.27500000      21.71600000
 H      22.52800000       5.95900000      22.30200000
 H      22.65900000       5.67300000      20.80900000
