102
XYZ file of cluster: frame_8000_9b4d7.c743d.53fa - created by MolEdiTo
 O      24.25100000      27.94300000       3.97200000
 H      23.81700000      27.19100000       4.48700000
 H      23.92500000      27.92000000       3.08200000
 O      26.66400000      26.59500000       6.20900000
 H      26.87500000      27.03500000       5.34700000
 H      26.19400000      25.87400000       5.79600000
 O      29.51700000      29.84100000       5.96400000
 H      29.54200000      28.90200000       5.58400000
 H      29.56600000      30.38800000       5.15800000
 O      23.53600000      30.55200000       9.56900000
 H      23.87800000      29.73300000       9.24500000
 H      24.20300000      31.21000000       9.23600000
 O      20.91400000      30.56000000      10.94600000
 H      21.59900000      30.20200000      10.28100000
 H      20.13700000      30.41500000      10.43000000
 O      27.50700000      27.19900000       9.98100000
 H      27.95000000      27.30500000       9.09100000
 H      26.90000000      26.44200000       9.82700000
 O      21.83900000      27.12800000      10.19700000
 H      22.76800000      27.00100000      10.14200000
 H      21.39000000      26.35000000      10.66300000
 O      26.48300000      30.51400000       7.09400000
 H      27.11400000      30.10400000       7.68800000
 H      27.07500000      31.20600000       6.77300000
 O      22.94400000      29.14300000       6.31800000
 H      22.99900000      28.86400000       7.26400000
 H      23.84100000      28.88300000       6.03900000
 O      29.09600000      27.28100000       7.57500000
 H      28.23800000      27.01400000       7.10400000
 H      29.52900000      26.45200000       7.38200000
 O      24.74300000      27.88800000       8.53600000
 H      24.47800000      26.96300000       8.54800000
 H      25.71300000      27.84500000       8.15700000
 O      28.26400000      29.70300000       9.10700000
 H      28.16900000      28.90100000       9.68200000
 H      28.62400000      29.36600000       8.29300000
 O      23.06900000      27.66700000       1.41500000
 H      23.44200000      26.98900000       0.80700000
 H      23.37000000      28.48300000       1.12400000
 O      27.23400000      28.22000000       3.91500000
 H      27.46000000      29.12400000       3.64800000
 H      26.32900000      28.31300000       4.12600000
 O      20.20600000      28.35000000       5.52500000
 H      21.19300000      28.36000000       5.39700000
 H      19.88000000      27.82800000       4.74300000
 O      20.41800000      28.55300000       2.48500000
 H      20.83700000      27.82100000       1.94800000
 H      21.00000000      29.32600000       2.23900000
 O      25.47000000      30.24100000       2.63200000
 H      24.86400000      29.50400000       3.03400000
 H      25.44500000      30.97100000       3.27000000
 O      26.39600000      27.00500000       1.15800000
 H      25.81100000      26.32200000       1.52200000
 H      26.85600000      27.42100000       1.98300000
 O      30.67800000      34.52200000       9.26900000
 H      29.91400000      34.32300000       9.86200000
 H      31.19700000      35.16300000       9.84400000
 O      25.24900000      35.51400000       9.80700000
 H      25.37100000      36.45000000       9.69300000
 H      24.47700000      35.33000000      10.34600000
 O      22.35000000      35.03600000       8.19400000
 H      22.58000000      35.78800000       8.79500000
 H      23.10600000      35.06400000       7.56500000
 O      28.79500000      33.22600000       3.66500000
 H      29.14700000      34.12600000       3.37900000
 H      27.97000000      33.48300000       4.28900000
 O      24.75100000      34.32300000       7.10900000
 H      25.17000000      34.90100000       7.78700000
 H      25.26500000      33.48500000       7.20600000
 O      27.12900000      34.18100000       1.62500000
 H      27.41800000      33.48600000       2.24500000
 H      27.79900000      34.84900000       1.39600000
 O      26.27100000      34.05700000       4.73100000
 H      25.41300000      34.10600000       5.17900000
 H      26.49700000      34.99600000       4.93700000
 O      30.62200000      37.17900000       1.37800000
 H      30.60400000      36.66600000       2.20300000
 H      30.70200000      36.51700000       0.67600000
 O      21.31000000      32.52700000       8.07500000
 H      21.87200000      31.99200000       7.43900000
 H      21.85700000      33.26600000       8.43800000
 O      23.08500000      36.82700000       5.25400000
 H      23.15400000      36.04800000       4.54600000
 H      22.22500000      37.11700000       5.23900000
 O      24.20200000      34.61400000       1.31000000
 H      24.30900000      35.55500000       1.07600000
 H      25.09100000      34.32300000       1.55500000
 O      27.60300000      36.37700000       5.28400000
 H      27.70500000      37.05600000       5.99200000
 H      27.96400000      36.92300000       4.55000000
 O      28.09900000      34.10100000      10.16400000
 H      27.88000000      34.54200000       9.31900000
 H      28.02300000      33.15000000       9.86900000
 O      22.67100000      34.59700000       3.78000000
 H      23.07700000      34.09100000       3.09400000
 H      22.42700000      33.91300000       4.37100000
 O      30.08700000      35.63700000       3.85000000
 H      30.96500000      35.31400000       3.42400000
 H      30.43200000      36.12200000       4.65600000
 O      28.25200000      34.36700000       7.26700000
 H      28.09300000      34.95800000       6.46400000
 H      29.04400000      34.78100000       7.62600000
