120
XYZ file of cluster: frame_8000_4854d.1e50.9cd57 - created by MolEdiTo
 O      10.00800000       1.69800000      22.13100000
 H      10.50000000       1.90800000      22.95200000
 H       9.25900000       2.28700000      22.11800000
 O      14.09500000       9.64300000      29.21300000
 H      13.19000000       9.88100000      28.98000000
 H      14.44700000      10.48800000      29.41200000
 O      12.10900000      10.33000000      24.65400000
 H      12.90300000      10.75900000      24.15800000
 H      11.27400000      10.37500000      24.11700000
 O      16.75300000       5.28400000      20.46900000
 H      17.36300000       4.87300000      21.16200000
 H      17.35900000       6.11400000      20.20000000
 O      11.87200000       8.60400000      26.94700000
 H      12.58600000       7.96600000      26.94600000
 H      12.02600000       8.96500000      26.07600000
 O      14.85400000       8.63900000      26.54800000
 H      15.40800000       9.29900000      25.97900000
 H      14.72200000       9.03300000      27.44500000
 O      18.64600000       4.58900000      24.84400000
 H      18.20000000       3.89100000      25.38400000
 H      18.20900000       4.37100000      23.95600000
 O      15.75400000       5.56800000      23.08600000
 H      15.94200000       5.89900000      22.23100000
 H      15.59200000       4.59500000      22.93300000
 O      15.65000000       5.30400000      27.56200000
 H      15.59600000       6.19700000      27.67000000
 H      16.37000000       4.96000000      28.17800000
 O      19.82300000       8.72300000      29.65300000
 H      19.57500000       8.88500000      28.71000000
 H      20.24300000       7.82100000      29.78100000
 O      19.54000000       5.71400000      20.63700000
 H      19.95100000       6.12600000      21.38800000
 H      19.65100000       4.80800000      20.78900000
 O      15.87000000       2.72100000      26.77800000
 H      15.98900000       3.71600000      26.80900000
 H      14.96600000       2.39800000      27.08600000
 O      20.70100000       6.15400000      29.76000000
 H      19.81900000       5.86700000      29.43200000
 H      21.33100000       5.38000000      29.66900000
 O      14.12500000       8.27800000      22.08800000
 H      14.52800000       8.71900000      22.94100000
 H      13.59600000       9.02300000      21.70700000
 O      11.94400000      10.66000000      21.39200000
 H      11.07900000      11.02500000      21.70100000
 H      11.69700000      10.35200000      20.53400000
 O      11.59000000       1.48800000      24.58800000
 H      11.88600000       2.41000000      24.53200000
 H      12.08500000       1.09000000      25.30700000
 O      12.51300000       0.87500000      21.03100000
 H      11.78300000       1.49700000      21.18400000
 H      12.02100000       0.24600000      20.39900000
 O      11.06600000       7.95300000      22.08400000
 H      11.67900000       8.77600000      22.31300000
 H      11.52100000       7.27900000      21.61500000
 O      19.98700000       7.09200000      23.28100000
 H      20.85300000       7.51100000      23.32600000
 H      19.91300000       6.69500000      24.16700000
 O      17.61600000       7.56900000      26.12200000
 H      17.87300000       6.70200000      25.87500000
 H      16.80900000       7.46400000      26.74300000
 O      18.50500000       3.25700000      22.31200000
 H      19.43100000       3.18500000      21.89700000
 H      18.05800000       2.42300000      22.06800000
 O      16.93700000      10.36500000      26.99700000
 H      17.89600000      10.52800000      26.81100000
 H      16.48600000      11.20900000      26.65500000
 O      21.56200000       3.32500000      25.08000000
 H      20.79800000       3.75300000      24.58300000
 H      21.13600000       2.62300000      25.65700000
 O      18.01800000       5.74800000      29.44800000
 H      17.98500000       5.35500000      30.34100000
 H      17.54500000       6.60100000      29.57200000
 O      18.76000000       9.34200000      21.86300000
 H      19.21600000       8.55500000      22.26700000
 H      18.74200000       9.93100000      22.59700000
 O      14.39300000       3.20500000      21.36300000
 H      14.92200000       3.05500000      22.14100000
 H      13.69800000       2.51600000      21.41700000
 O      20.34300000       0.84900000      29.43300000
 H      19.84800000       0.86400000      30.29100000
 H      21.30100000       0.82200000      29.64200000
 O      13.11600000       2.28000000      27.35900000
 H      13.09900000       3.18600000      26.91900000
 H      12.80200000       2.52300000      28.28600000
 O      10.90400000       5.86200000      27.15300000
 H      11.73300000       5.86100000      26.51300000
 H      11.11000000       6.62300000      27.74900000
 O      13.07900000       6.29000000      25.72000000
 H      13.67500000       7.07900000      25.38300000
 H      13.39000000       5.54100000      25.19300000
 O      15.63800000       2.43200000      23.59100000
 H      15.39100000       1.41500000      23.52600000
 H      15.36600000       2.55100000      24.51200000
 O      13.22900000       3.70300000      30.01900000
 H      12.37000000       4.21000000      30.01100000
 H      13.14500000       3.42300000      30.94600000
 O      12.99200000       5.77100000      21.55700000
 H      13.68700000       5.25200000      21.14100000
 H      13.45600000       6.61400000      21.84600000
 O      15.65900000       9.95300000      23.90500000
 H      16.11900000      10.74300000      23.61900000
 H      16.42200000       9.20400000      23.99600000
 O      19.34100000       1.80400000      26.87800000
 H      18.66300000       1.13700000      26.52700000
 H      19.58000000       1.36400000      27.72600000
 O      18.36100000      10.86600000      24.22800000
 H      18.81100000      10.55900000      25.06800000
 H      19.07100000      11.32300000      23.74200000
 O      19.57500000       9.72200000      26.40200000
 H      20.48500000       9.50200000      26.03700000
 H      18.99800000       8.94400000      26.29300000
 O      16.55900000       8.30700000      28.87300000
 H      15.73700000       8.59800000      29.36800000
 H      16.86000000       9.12200000      28.31700000
 O      12.80800000       4.01600000      23.88300000
 H      11.91500000       4.36500000      23.80300000
 H      13.31700000       4.36300000      23.13100000
 O      17.02200000       2.05300000      29.27700000
 H      17.55000000       2.82600000      29.10900000
 H      16.62600000       1.92600000      28.32900000
