120
XYZ file of cluster: frame_8000_26c56.c5abb.9e610 - created by MolEdiTo
 O      13.03400000      27.43400000      23.48200000
 H      13.86200000      26.93700000      23.79500000
 H      12.28600000      27.46200000      24.13600000
 O       8.96500000      29.53600000      28.33300000
 H       9.89400000      29.79800000      28.09300000
 H       8.39300000      29.55100000      27.53400000
 O       6.00000000      28.20300000      29.64400000
 H       5.48800000      27.45200000      29.98600000
 H       6.63500000      28.40200000      30.40800000
 O      13.54700000      28.69600000      29.95300000
 H      13.31100000      27.88300000      29.47700000
 H      13.83400000      28.42900000      30.87000000
 O      10.40000000      28.82400000      22.55800000
 H      10.75500000      29.68800000      22.78700000
 H      10.38400000      28.30500000      23.39300000
 O       9.17300000      26.33600000      22.93200000
 H       9.60600000      27.15300000      22.42600000
 H       8.97200000      25.66700000      22.18600000
 O       4.96300000      30.07600000      22.33200000
 H       5.04800000      31.06200000      22.55400000
 H       5.87900000      29.76000000      22.37800000
 O      14.29800000      27.39800000      26.39800000
 H      15.19100000      26.99000000      26.08500000
 H      14.00600000      27.06700000      27.27800000
 O       8.12900000      29.28600000      25.35400000
 H       7.33900000      29.41300000      25.86600000
 H       8.11600000      29.95900000      24.54700000
 O      11.88600000      29.74500000      27.95000000
 H      12.52800000      30.39600000      27.82500000
 H      12.02400000      29.50300000      28.94700000
 O       9.50300000      26.97000000      29.31900000
 H       8.67800000      26.45000000      29.48800000
 H       9.13400000      27.77300000      28.95100000
 O       7.60300000      30.11100000      21.78300000
 H       8.45600000      30.42400000      22.10300000
 H       7.55600000      30.52500000      20.84700000
 O       6.05400000      27.53700000      24.18100000
 H       6.99200000      27.14700000      24.28400000
 H       5.60200000      27.47300000      25.06600000
 O      14.68700000      29.92100000      23.44500000
 H      13.81800000      30.27500000      23.26900000
 H      14.55100000      28.94000000      23.65100000
 O      15.40200000      29.80800000      28.08000000
 H      14.83000000      29.49000000      27.42000000
 H      14.97900000      29.36300000      28.81800000
 O      15.83400000      27.60500000      22.51900000
 H      14.98000000      27.40000000      22.12500000
 H      16.14900000      28.41000000      22.00900000
 O       5.93200000      29.46300000      27.45200000
 H       6.06100000      28.95400000      28.35600000
 H       5.01300000      29.61100000      27.18200000
 O      10.80600000      28.10500000      25.26700000
 H      11.28500000      28.27100000      26.04500000
 H       9.91000000      28.57500000      25.38600000
 O      10.00800000      33.39900000      22.13100000
 H      10.50000000      33.60900000      22.95200000
 H       9.25900000      33.98800000      22.11800000
 O      10.27000000      36.46400000      23.54200000
 H       9.97400000      36.78100000      22.63100000
 H       9.72300000      36.96000000      24.22100000
 O      15.65000000      37.00500000      27.56200000
 H      15.59600000      37.89800000      27.67000000
 H      16.37000000      36.66100000      28.17800000
 O      15.75400000      37.26900000      23.08600000
 H      15.94200000      37.60000000      22.23100000
 H      15.59200000      36.29600000      22.93300000
 O       6.02900000      37.21100000      30.47700000
 H       6.91700000      37.45200000      30.68800000
 H       6.16500000      36.49700000      29.82300000
 O      15.87000000      34.42200000      26.77800000
 H      15.98900000      35.41700000      26.80900000
 H      14.96600000      34.09900000      27.08600000
 O       6.58200000      36.83900000      25.41100000
 H       6.01100000      37.65800000      25.34600000
 H       7.43500000      37.21300000      25.68900000
 O      11.59000000      33.18900000      24.58800000
 H      11.88600000      34.11100000      24.53200000
 H      12.08500000      32.79100000      25.30700000
 O      12.51300000      32.57600000      21.03100000
 H      11.78300000      33.19800000      21.18400000
 H      12.02100000      31.94700000      20.39900000
 O       5.93000000      34.15100000      23.59100000
 H       6.41900000      33.99300000      24.38900000
 H       6.41700000      34.80500000      23.07900000
 O       8.52500000      33.21800000      30.32700000
 H       8.89400000      32.48400000      29.78300000
 H       7.96900000      32.70700000      30.91300000
 O      14.39300000      34.90600000      21.36300000
 H      14.92200000      34.75600000      22.14100000
 H      13.69800000      34.21700000      21.41700000
 O       8.27800000      35.75200000      29.34200000
 H       8.46100000      34.84100000      29.68100000
 H       8.73900000      36.40800000      29.99100000
 O       9.75400000      34.93400000      26.87200000
 H      10.06800000      35.83300000      26.85300000
 H       9.22500000      35.01200000      27.69500000
 O      13.11600000      33.98100000      27.35900000
 H      13.09900000      34.88700000      26.91900000
 H      12.80200000      34.22400000      28.28600000
 O      15.63800000      34.13300000      23.59100000
 H      15.39100000      33.11600000      23.52600000
 H      15.36600000      34.25200000      24.51200000
 O      13.22900000      35.40400000      30.01900000
 H      12.37000000      35.91100000      30.01100000
 H      13.14500000      35.12400000      30.94600000
 O      12.99200000      37.47200000      21.55700000
 H      13.68700000      36.95300000      21.14100000
 H      13.45600000      38.31500000      21.84600000
 O       7.74800000      35.50800000      22.00700000
 H       8.33000000      36.28100000      22.05100000
 H       7.04300000      35.92900000      21.46900000
 O       5.53300000      33.13500000      29.61900000
 H       6.28900000      33.69300000      29.65100000
 H       5.89200000      32.38200000      29.10800000
 O      12.80800000      35.71700000      23.88300000
 H      11.91500000      36.06600000      23.80300000
 H      13.31700000      36.06400000      23.13100000
 O       7.51200000      33.81200000      25.90100000
 H       8.45400000      33.83300000      26.05400000
 H       7.19200000      34.65000000      26.34100000
