376
XYZ file of cluster: frame_6000_22b51.20ad4.4a899 - created by MolEdiTo
 O      14.84300000      19.38500000      13.71200000
 H      13.99900000      19.86400000      13.53200000
 H      15.43800000      20.09800000      14.06700000
 O       8.23900000      10.29900000      23.02000000
 H       7.84300000      10.98100000      22.42400000
 H       8.93600000       9.92400000      22.50400000
 O      18.70500000       8.19100000      26.10200000
 H      19.20700000       8.78800000      26.62700000
 H      18.65800000       7.35300000      26.63900000
 O       8.04900000      12.51300000      21.20100000
 H       7.80100000      13.40000000      20.85200000
 H       8.08400000      12.06000000      20.25300000
 O      10.09400000       9.07100000      21.41900000
 H      10.68000000       8.53500000      21.98600000
 H      10.78200000       9.59300000      21.01400000
 O      21.03200000      13.97400000      22.05700000
 H      21.53000000      14.58300000      22.66400000
 H      20.15600000      14.30100000      22.08700000
 O      16.94100000      19.75100000      24.95700000
 H      17.34900000      20.42400000      24.40200000
 H      16.62700000      19.11200000      24.32700000
 O      16.27300000      15.60100000      25.61800000
 H      16.33500000      15.83900000      26.52300000
 H      15.53100000      14.94400000      25.59800000
 O       8.12000000      20.78100000      27.70100000
 H       7.72100000      21.66600000      27.65100000
 H       8.93900000      20.93400000      27.15600000
 O      14.76900000      19.68000000      26.73400000
 H      15.57900000      20.03300000      26.27100000
 H      15.09300000      19.68700000      27.66300000
 O      10.72200000      18.54000000      23.87900000
 H      11.34200000      18.96300000      24.48000000
 H       9.93800000      18.45100000      24.47900000
 O      10.58900000      12.31200000      22.55900000
 H       9.73400000      12.12800000      22.07900000
 H      11.17100000      11.68200000      22.03200000
 O       7.82600000      20.73800000      24.06800000
 H       8.37800000      20.48000000      24.84300000
 H       6.95900000      20.37300000      24.32300000
 O      10.97200000       8.62000000      25.18800000
 H      10.05400000       8.29300000      25.01600000
 H      10.79800000       9.53100000      25.50100000
 O       8.25900000      17.78800000      25.13700000
 H       7.71700000      17.95600000      24.37500000
 H       7.74600000      17.12000000      25.61200000
 O       9.25000000      17.10000000      22.23600000
 H       9.85900000      17.72700000      22.77400000
 H       8.43700000      17.11600000      22.75700000
 O      18.92600000      16.75300000      25.32500000
 H      17.98500000      16.35900000      25.29300000
 H      18.89100000      17.05900000      24.37300000
 O      21.57500000      10.11100000      25.42000000
 H      21.21200000      10.30900000      24.50100000
 H      20.71400000      10.15300000      25.96100000
 O      12.18400000      19.95100000      25.63900000
 H      11.87600000      19.64600000      26.57700000
 H      13.12200000      20.10300000      25.83500000
 O      15.84800000       7.08200000      24.30000000
 H      15.23100000       7.83000000      24.35500000
 H      16.04100000       6.87600000      25.23900000
 O       6.94200000       6.95400000      26.95600000
 H       7.11900000       7.56700000      26.20300000
 H       5.92100000       6.87000000      26.85000000
 O       7.49100000      16.50800000      16.80600000
 H       6.87800000      15.75000000      17.06600000
 H       6.89100000      17.22700000      17.10300000
 O       7.41200000      16.07800000      13.03500000
 H       7.47600000      17.06100000      12.81800000
 H       7.28500000      16.15300000      13.98000000
 O      11.55500000      12.66200000      18.00000000
 H      12.51900000      12.68000000      17.79500000
 H      11.19300000      13.37200000      17.45500000
 O      14.35700000      15.95600000      22.18500000
 H      13.52700000      16.04300000      22.69700000
 H      14.36900000      14.99200000      21.97200000
 O      18.64300000      12.74900000      20.56900000
 H      18.99200000      13.34400000      19.80600000
 H      19.31900000      12.05300000      20.42500000
 O      18.59200000      12.43000000      17.46800000
 H      19.16800000      11.72200000      17.19900000
 H      19.30000000      13.11500000      17.71300000
 O      10.30200000      16.84000000      27.00100000
 H      11.11200000      17.28300000      26.90100000
 H       9.71100000      17.17900000      26.33300000
 O       7.36800000      17.56900000      19.72000000
 H       8.25700000      17.56900000      19.38500000
 H       7.27300000      17.99900000      20.50400000
 O      17.86600000      14.56800000      13.78500000
 H      17.48700000      13.95300000      14.43500000
 H      18.02900000      13.98000000      13.03100000
 O      16.02800000       6.31600000      27.00800000
 H      16.23500000       5.59400000      27.59500000
 H      15.83600000       6.99900000      27.67400000
 O       8.12000000       6.87500000      16.55700000
 H       7.95500000       7.62500000      15.98500000
 H       7.35400000       6.36900000      16.42800000
 O      13.84100000      10.24600000      15.61500000
 H      14.08700000      10.64700000      16.51600000
 H      13.15900000      10.92900000      15.35000000
 O      10.13900000      16.56500000      19.59300000
 H      10.52200000      15.64500000      19.85000000
 H       9.77600000      16.75800000      20.48700000
 O      17.46000000      10.91400000      22.72600000
 H      18.28000000      11.30000000      23.00700000
 H      17.53100000      10.01000000      22.98300000
 O      20.57700000      11.62100000      14.51900000
 H      20.84600000      12.40600000      14.01200000
 H      21.17300000      11.54100000      15.26300000
 O      20.60700000      15.86200000      14.52100000
 H      19.68700000      15.74500000      14.68400000
 H      20.82800000      15.13900000      13.92200000
 O       7.63300000      14.81400000      20.18500000
 H       7.75200000      15.71000000      20.38200000
 H       7.89200000      14.78900000      19.28000000
 O      10.97500000      19.57000000      15.66200000
 H      10.43200000      18.81000000      15.99600000
 H      11.57000000      19.57200000      16.52300000
 O      10.58800000       7.62600000      17.44300000
 H      10.44300000       8.56100000      17.49900000
 H       9.63700000       7.39300000      17.18600000
 O      13.68200000      13.48000000      20.96700000
 H      14.39600000      13.30000000      21.58200000
 H      14.14800000      13.32900000      20.10900000
 O      17.13200000      19.84000000      16.46500000
 H      16.41900000      20.47000000      16.14800000
 H      17.78100000      20.09700000      15.75000000
 O      17.93700000      18.42700000      27.15600000
 H      17.53500000      19.00700000      26.46600000
 H      18.26000000      17.70600000      26.56200000
 O      16.71700000      10.49600000      20.19100000
 H      16.84300000      10.73800000      21.10200000
 H      17.57400000      10.73900000      19.79500000
 C      20.19400000      21.13700000      22.40500000
 C      19.96600000      20.28300000      21.18600000
 C      21.95300000      20.94600000      19.90300000
 H      20.10100000      20.22200000      19.13800000
 H      20.01600000      20.39900000      24.13000000
 O      19.76600000      22.23400000      19.78900000
 O      21.57700000      21.03600000      22.86900000
 O      19.35700000      20.59700000      23.41200000
 C      20.41500000      20.92800000      19.85900000
 O      20.52900000      18.96500000      21.33700000
 H      18.87100000      20.16000000      21.11600000
 O      22.39700000      20.27600000      18.73100000
 O      22.43600000      21.94700000      19.12300000
 H      22.66000000      21.06500000      18.60000000
 H      19.83000000      18.43100000      21.84400000
 H      18.85800000      21.97400000      19.47800000
 O      20.35700000      10.78100000      20.15500000
 H      20.36000000       9.87400000      20.48400000
 H      20.98900000      10.67000000      19.42800000
 O      17.42200000      21.34800000      19.24300000
 H      17.15200000      20.80700000      18.45100000
 H      16.59200000      21.38600000      19.74800000
 O      17.61700000      12.38800000      26.76300000
 H      17.46800000      11.47400000      26.95900000
 H      18.48100000      12.56900000      27.18300000
 O      18.69300000      17.47000000      22.63400000
 H      18.72900000      16.50000000      22.39400000
 H      17.79600000      17.57800000      22.77300000
 O      14.46300000       9.61200000      24.44700000
 H      14.05600000       9.22500000      25.27300000
 H      14.63400000      10.54700000      24.77500000
 O      14.22900000      10.22200000      19.32400000
 H      15.21000000      10.24100000      19.47300000
 H      14.13700000       9.23700000      19.16600000
 O      15.90600000      13.23000000      19.42200000
 H      16.41000000      14.02200000      19.19800000
 H      16.60000000      12.64500000      19.74900000
 O      16.65600000      12.97700000      15.60500000
 H      15.81700000      12.68800000      15.98600000
 H      17.25900000      12.77600000      16.34900000
 O       7.71200000      14.73000000      25.73500000
 H       7.44000000      14.86600000      24.81400000
 H       7.46700000      13.77200000      25.83300000
 O      14.13400000      17.57200000      19.50300000
 H      14.96700000      17.94000000      19.80100000
 H      13.85800000      16.99800000      20.23700000
 O      15.05700000      12.27300000      23.05800000
 H      15.90800000      11.83800000      23.04700000
 H      14.40900000      11.52200000      23.00700000
 O      19.04000000      13.54900000      24.39600000
 H      18.64900000      13.52800000      25.25300000
 H      19.66200000      12.80000000      24.42700000
 O      18.03500000      18.28300000      18.73800000
 H      17.66900000      18.82600000      19.44600000
 H      17.73800000      18.74300000      17.92100000
 O      12.20600000      15.59400000      23.87100000
 H      12.82000000      14.85300000      24.18400000
 H      11.37400000      15.15200000      24.16700000
 O      20.55100000       8.75500000      21.74300000
 H      19.83300000       8.67300000      22.39800000
 H      20.84200000       7.81600000      21.71400000
 O      15.74300000       6.34300000      14.47500000
 H      15.45200000       7.26200000      14.15000000
 H      15.71600000       6.45900000      15.39300000
 O      12.57500000       8.46800000      22.90400000
 H      13.26200000       9.08100000      23.12700000
 H      12.15100000       8.29400000      23.74200000
 O      10.04400000      17.27500000      16.94300000
 H      10.27800000      16.96400000      17.83200000
 H       9.12700000      17.01600000      16.90600000
 O       9.79700000      14.36100000      16.22800000
 H      10.08300000      15.22600000      16.59900000
 H       9.90800000      14.53500000      15.26400000
 O      21.62200000       6.89700000      24.35700000
 H      21.44200000       6.26200000      23.60700000
 H      20.73600000       7.04900000      24.68800000
 O       7.72700000       8.57100000      14.61900000
 H       7.13400000       9.37100000      14.44700000
 H       8.60600000       8.97500000      14.44900000
 O      20.45600000      16.91700000      17.67600000
 H      19.63000000      17.35200000      17.84400000
 H      20.63600000      17.10400000      16.70200000
 O      18.42300000       8.35700000      23.42100000
 H      18.53800000       8.28200000      24.39000000
 H      17.80000000       7.63100000      23.26600000
 O       6.74000000      14.75800000      23.16000000
 H       7.33400000      14.60200000      22.43800000
 H       6.15800000      13.92300000      23.09700000
 O       9.85400000      10.24900000      17.66100000
 H      10.30100000      11.06700000      17.89100000
 H       8.95100000      10.45800000      18.06800000
 O      18.98700000      20.43000000      14.34100000
 H      19.11200000      19.70600000      13.72400000
 H      19.37800000      21.18000000      13.87000000
 O      13.59900000       8.14900000      13.80000000
 H      12.67400000       7.87000000      14.00400000
 H      13.73600000       8.87900000      14.41000000
 O      13.85200000      14.95000000      27.96400000
 H      13.61300000      15.84600000      27.68300000
 H      12.90100000      14.50900000      27.90800000
 O      14.12700000      15.52000000      17.57600000
 H      14.18100000      16.20600000      18.33200000
 H      14.64800000      16.07200000      16.94500000
 O       9.67600000       7.26400000      28.01400000
 H      10.05100000       6.78300000      27.21900000
 H       8.74600000       6.95100000      27.86100000
 O      12.03700000      18.96200000      18.62100000
 H      11.46600000      18.38300000      19.13000000
 H      12.90900000      18.50000000      18.74800000
 O      15.96100000      10.32300000      13.45800000
 H      15.37500000      10.40000000      14.21500000
 H      15.40300000      10.71200000      12.71900000
 O      14.18600000      11.95100000      26.40300000
 H      13.64100000      11.93400000      27.21900000
 H      15.05900000      11.77400000      26.72300000
 O      10.91100000      14.27300000      20.70100000
 H      11.84900000      14.36000000      20.98500000
 H      10.62200000      13.69500000      21.38200000
 O      20.40500000      12.72100000      27.37600000
 H      21.05600000      12.84700000      26.68700000
 H      20.95000000      13.07900000      28.14400000
 O      10.24900000       9.85000000      14.71000000
 H      10.11100000      10.66500000      14.33600000
 H      10.33100000       9.94900000      15.66900000
 O      13.18800000      17.01300000      26.54300000
 H      13.74700000      17.82800000      26.47000000
 H      12.90700000      16.88300000      25.60000000
 O      18.75700000       6.30100000      14.88700000
 H      18.86700000       7.30100000      14.94200000
 H      18.18800000       6.30000000      14.11600000
 O      16.31900000       9.75400000      26.86400000
 H      17.12600000       9.20700000      26.59800000
 H      15.97700000       9.06100000      27.54400000
 O       7.71000000      12.88300000      18.00600000
 H       8.30500000      13.23700000      17.32000000
 H       6.90400000      13.02600000      17.47800000
 O      19.58600000      10.25700000      27.58100000
 H      19.88600000      11.21700000      27.63400000
 H      19.36900000      10.20500000      28.57800000
 O      15.90600000      17.01700000      16.10700000
 H      16.00100000      18.01000000      16.06300000
 H      16.07400000      16.85500000      15.14300000
 O      17.01500000      15.49800000      18.50600000
 H      17.39200000      16.33900000      18.89600000
 H      16.68000000      15.87300000      17.64100000
 O      15.68400000       6.87600000      17.52800000
 H      14.79600000       7.16900000      17.71300000
 H      16.17300000       7.26800000      18.32900000
 O      15.13300000      14.81900000      13.73800000
 H      16.12300000      15.01100000      13.63400000
 H      15.25100000      13.99000000      14.24100000
 O      13.49200000      20.94900000      20.48400000
 H      14.17400000      21.17600000      21.12400000
 H      13.14100000      20.10900000      20.90300000
 O      16.14200000      18.86000000      20.83000000
 H      16.42100000      18.11700000      21.43300000
 H      15.75200000      19.45000000      21.42700000
 O      20.55000000      11.34900000      23.02300000
 H      20.43900000      12.20200000      22.57600000
 H      20.75900000      10.78800000      22.21500000
 O      18.40500000      10.01400000      14.72900000
 H      19.11600000      10.69800000      14.59400000
 H      17.77400000      10.32300000      14.01900000
 O      10.89900000      11.35100000      25.05000000
 H      10.90600000      11.52000000      24.07100000
 H      10.94400000      12.29700000      25.33700000
 O      19.29500000       7.52800000      19.06600000
 H      18.88900000       8.23600000      18.51700000
 H      18.79500000       7.68400000      19.92400000
 O      14.05000000      13.98300000      24.82600000
 H      14.59400000      13.45200000      24.23200000
 H      14.05600000      13.36800000      25.60300000
 O      10.46600000      13.83800000      25.76100000
 H       9.69000000      14.44400000      25.84400000
 H      10.83700000      13.94400000      26.69000000
 O      12.06000000      10.90700000      20.65500000
 H      12.93000000      10.59600000      20.40000000
 H      11.90300000      11.53700000      19.95000000
 O      18.43300000      14.84000000      22.14800000
 H      18.44900000      14.22800000      22.90900000
 H      18.27000000      14.26600000      21.39500000
 O       7.91400000      20.42500000      21.42700000
 H       7.98200000      20.56600000      22.42300000
 H       6.93500000      20.66500000      21.33800000
 O       9.31800000      10.46500000      27.07700000
 H       9.89600000      10.81600000      26.34300000
 H       8.73200000       9.86700000      26.62800000
 O       7.64400000      10.21300000      19.07600000
 H       6.97800000      10.24900000      18.39300000
 H       7.10200000      10.15400000      19.86600000
 O      20.00900000      14.24900000      18.66300000
 H      19.72700000      14.97100000      18.11200000
 H      20.92500000      14.43400000      18.89700000
 O      14.24400000      12.74700000      17.34500000
 H      14.10800000      13.72100000      17.37200000
 H      14.65800000      12.61200000      18.24600000
 O      18.14700000       9.21200000      17.50000000
 H      17.22100000       9.49800000      17.62800000
 H      18.26300000       9.52100000      16.55500000
 O       6.81400000      11.14400000      28.04600000
 H       7.52900000      10.45200000      28.02400000
 H       6.82400000      11.43500000      27.13100000
 O      12.28100000      12.24300000      14.73000000
 H      11.47900000      12.09200000      14.15000000
 H      12.30200000      13.19900000      14.76800000
 O      16.16500000      17.38700000      23.69600000
 H      15.36600000      17.07200000      23.26200000
 H      16.19200000      16.69600000      24.43400000
 O      13.31800000       8.00000000      17.54600000
 H      13.30800000       8.79400000      16.90100000
 H      12.41800000       7.77100000      17.45000000
 O      20.37300000      19.82900000      25.94100000
 H      19.93500000      20.26200000      26.70800000
 H      20.40900000      18.85700000      26.17300000
 O      11.73800000      17.10500000      13.34900000
 H      11.73600000      16.79200000      14.26000000
 H      11.33900000      18.01600000      13.49900000
 O      12.26700000      18.86900000      21.64700000
 H      11.29300000      19.01900000      21.56000000
 H      12.25600000      18.41700000      22.52900000
 O       8.69900000      20.92900000      18.82100000
 H       8.09400000      20.30600000      18.43200000
 H       8.52600000      20.86300000      19.82800000
 O       9.26400000      19.56900000      13.37000000
 H       8.50900000      20.06500000      13.72200000
 H       9.95600000      19.84900000      13.98300000
 O      13.24100000       7.97500000      26.45900000
 H      13.28700000       7.02700000      26.34100000
 H      12.34900000       8.12000000      26.13900000
 O       8.06000000       8.47400000      24.92400000
 H       7.86100000       7.59800000      24.45000000
 H       7.97600000       9.03900000      24.09600000
 O      12.61200000      14.93100000      15.11100000
 H      13.21300000      15.01100000      15.93000000
 H      13.33600000      14.96500000      14.41800000
 O       8.39100000       6.91800000      19.99300000
 H       7.98600000       7.13100000      19.12400000
 H       8.86700000       7.70900000      20.25700000
 O      21.01100000      16.53400000      27.14600000
 H      20.24600000      16.52800000      26.48600000
 H      21.49100000      15.72100000      26.81700000
 O       7.24000000      11.92600000      25.28200000
 H       6.36700000      11.58400000      24.88900000
 H       7.82900000      11.43300000      24.60300000
