552
XYZ file of cluster: frame_6000_72b84.c4e6c.73444 - created by MolEdiTo
 O      29.01300000      38.39900000      25.47700000
 H      28.10900000      38.31900000      25.80400000
 H      28.91300000      38.65900000      24.55200000
 O      25.63800000      36.70000000      30.28900000
 H      26.41500000      36.29600000      30.78900000
 H      26.09400000      37.51500000      29.85400000
 O      24.06800000      35.67400000      37.79800000
 H      23.29100000      35.25500000      38.08900000
 H      24.78000000      35.02500000      37.99900000
 O      35.73500000      40.58600000      22.91800000
 H      36.28000000      39.94900000      22.48000000
 H      35.98300000      40.40000000      23.83100000
 O      28.93700000      38.40300000      35.96400000
 H      27.96100000      38.38900000      36.23400000
 H      28.86200000      38.06400000      35.07000000
 O      22.44200000      35.16000000      22.62800000
 H      21.75200000      34.97100000      22.05300000
 H      22.32300000      36.08900000      22.84200000
 O      35.01400000      37.34300000      23.90900000
 H      35.67200000      36.64000000      23.94900000
 H      35.39400000      38.06900000      24.49800000
 O      38.43600000      34.13400000      38.98900000
 H      38.52700000      35.05400000      39.33100000
 H      38.13800000      33.70800000      39.85200000
 O      40.07500000      38.79100000      28.14700000
 H      39.71900000      39.69300000      28.29100000
 H      39.78500000      38.60600000      27.25400000
 O      35.53400000      34.84000000      33.02000000
 H      36.49900000      35.10300000      32.76400000
 H      35.36300000      34.15000000      32.33000000
 O      35.10400000      40.72100000      27.87000000
 H      35.88300000      40.53900000      28.44500000
 H      34.35600000      40.78000000      28.48400000
 O      35.93900000      37.76700000      36.16400000
 H      36.60000000      37.90800000      36.88500000
 H      35.99800000      36.84500000      36.00500000
 O      27.05800000      35.83400000      23.60700000
 H      26.18400000      36.12000000      24.05700000
 H      27.25200000      36.73800000      23.20100000
 O      27.00900000      38.75300000      29.40900000
 H      27.31900000      38.54800000      28.52500000
 H      27.87800000      39.19400000      29.76600000
 O      38.93600000      37.73500000      30.54500000
 H      39.07800000      38.43700000      29.88000000
 H      39.88200000      37.59900000      30.82100000
 O      28.78700000      35.69800000      27.04700000
 H      29.31900000      36.03700000      27.74100000
 H      28.36300000      36.52600000      26.74500000
 O      25.71500000      40.57700000      31.24000000
 H      25.49000000      41.37600000      30.75600000
 H      26.03200000      39.96500000      30.53500000
 O      27.57000000      40.69800000      33.35500000
 H      27.62900000      39.75100000      33.57700000
 H      26.80200000      40.63900000      32.73900000
 O      39.94200000      38.10000000      36.15400000
 H      40.14700000      38.29100000      37.14700000
 H      40.06700000      38.98900000      35.82100000
 O      21.48300000      38.62800000      19.96700000
 H      21.69400000      38.30800000      20.90500000
 H      20.76400000      38.05000000      19.66900000
 O      38.16600000      35.49400000      32.58600000
 H      38.87400000      34.89200000      32.88600000
 H      38.63000000      36.22300000      32.15700000
 O      36.07200000      37.68900000      30.63900000
 H      36.55600000      38.09500000      31.37300000
 H      36.53500000      38.12200000      29.91800000
 O      27.74100000      40.61200000      23.09000000
 H      27.46600000      41.29000000      22.39600000
 H      28.21800000      41.29800000      23.66400000
 O      32.05900000      34.65400000      28.02800000
 H      32.29200000      34.87200000      27.11100000
 H      32.48800000      33.80800000      28.15500000
 O      32.02000000      37.70400000      38.24400000
 H      31.82000000      38.64500000      37.98500000
 H      32.76700000      37.89400000      38.85900000
 O      30.97000000      36.69500000      32.63900000
 H      30.90400000      36.03800000      33.38300000
 H      30.96900000      36.13900000      31.85000000
 O      35.95900000      36.05100000      39.37500000
 H      36.22400000      35.69900000      40.26900000
 H      36.27900000      35.35600000      38.81700000
 O      39.59900000      35.53200000      35.39000000
 H      38.60100000      35.62100000      35.47200000
 H      39.86900000      36.40900000      35.79800000
 O      22.51200000      39.29300000      39.17800000
 H      23.39000000      39.48100000      38.78600000
 H      22.68500000      38.45500000      39.72500000
 O      21.99300000      34.65700000      27.66500000
 H      22.46100000      35.17800000      28.32500000
 H      21.42300000      34.06900000      28.20600000
 O      31.95200000      38.66900000      28.53700000
 H      32.43000000      39.48300000      28.93900000
 H      32.50800000      37.99900000      29.04300000
 O      32.76900000      35.60800000      25.43400000
 H      33.31100000      36.07000000      24.77400000
 H      31.90900000      35.50100000      25.00400000
 O      21.88900000      37.37900000      30.60300000
 H      21.34900000      38.14400000      30.32000000
 H      21.17800000      36.69300000      30.46900000
 O      39.41400000      37.20400000      23.97000000
 H      39.96000000      36.56500000      24.45700000
 H      38.53000000      36.69500000      24.12100000
 O      33.00700000      35.36400000      21.47500000
 H      32.46200000      35.51400000      20.74500000
 H      32.54000000      34.62500000      21.97600000
 O      26.61400000      38.25300000      26.54100000
 H      26.11000000      37.52700000      26.05800000
 H      26.02100000      39.02000000      26.32800000
 O      37.20900000      40.47500000      29.38500000
 H      37.06900000      40.75800000      30.28300000
 H      38.14500000      40.88900000      29.22300000
 O      25.00800000      36.29700000      25.41800000
 H      24.14400000      36.72400000      25.61700000
 H      24.69000000      35.33900000      25.56200000
 O      22.10000000      37.98100000      22.39000000
 H      21.78000000      38.80200000      22.85100000
 H      23.01100000      38.29200000      22.12300000
 O      23.85100000      36.86700000      40.64100000
 H      24.16600000      36.22900000      39.97700000
 H      24.67200000      37.15400000      41.13700000
 O      30.78600000      34.69800000      34.44500000
 H      30.04700000      34.11000000      34.64800000
 H      31.00800000      35.12200000      35.27100000
 O      22.82200000      40.61500000      27.74400000
 H      22.52200000      39.67900000      27.79500000
 H      23.77900000      40.38200000      27.52000000
 O      34.66600000      39.40400000      34.44400000
 H      34.34500000      38.67300000      33.89600000
 H      34.85400000      38.86300000      35.31100000
 O      31.24800000      40.35100000      26.31200000
 H      30.28700000      40.15300000      26.22400000
 H      31.54000000      39.63200000      26.95300000
 O      33.42400000      36.86400000      30.39200000
 H      34.23800000      37.36200000      30.49900000
 H      33.74800000      35.94100000      30.47500000
 O      30.09500000      34.96800000      24.72400000
 H      29.32600000      34.93400000      24.15600000
 H      29.59900000      35.17300000      25.59700000
 O      27.84600000      37.98300000      22.10400000
 H      28.80900000      37.86600000      21.95200000
 H      27.79200000      38.93400000      22.29000000
 O      38.29300000      35.42100000      27.34100000
 H      37.90400000      35.55600000      28.23400000
 H      39.20600000      35.24000000      27.54400000
 O      28.02600000      35.58500000      31.33200000
 H      28.89400000      35.51600000      30.93400000
 H      27.80900000      34.64300000      31.47900000
 O      30.18500000      35.95300000      39.69900000
 H      31.04300000      36.26000000      39.30500000
 H      30.18700000      36.58100000      40.48800000
 O      23.83000000      36.06600000      33.56300000
 H      24.65000000      36.18400000      33.13200000
 H      23.52100000      35.19500000      33.34000000
 O      37.62300000      38.14700000      38.40900000
 H      36.77400000      37.74400000      38.70500000
 H      38.20500000      37.59400000      38.95600000
 O      28.48300000      37.77700000      33.47600000
 H      27.92400000      37.06100000      33.08300000
 H      29.29600000      37.45000000      33.15600000
 O      23.08900000      39.20500000      32.23800000
 H      22.90700000      38.36200000      31.73500000
 H      23.97800000      39.48100000      31.98600000
 O      21.89700000      39.35500000      34.83000000
 H      22.45900000      38.82300000      35.47100000
 H      22.43000000      39.12500000      33.99000000
 O      31.41200000      39.15100000      31.46800000
 H      31.30200000      38.23300000      31.79100000
 H      31.28400000      39.67400000      32.23100000
 O      35.24400000      34.18200000      27.74800000
 H      34.67300000      34.96100000      27.78600000
 H      35.84000000      34.38400000      28.56300000
 O      32.30100000      35.55700000      36.66500000
 H      32.70700000      36.12300000      36.00700000
 H      32.21500000      36.18600000      37.43300000
 O      35.87900000      36.24900000      20.53700000
 H      35.47300000      35.35300000      20.33600000
 H      35.82800000      36.30100000      21.44000000
 O      24.46700000      39.21500000      22.06900000
 H      25.23800000      39.17800000      22.69700000
 H      24.95000000      39.43000000      21.23100000
 O      20.06300000      35.65800000      25.26000000
 H      20.96800000      35.80800000      25.52300000
 H      19.57100000      35.68500000      26.05200000
 O      27.98300000      34.49800000      20.88400000
 H      27.30900000      33.83700000      20.56900000
 H      27.52500000      34.86600000      21.65600000
 O      31.90500000      40.67400000      38.18800000
 H      32.56900000      41.32500000      38.22300000
 H      31.21100000      41.01300000      38.81900000
 O      24.05500000      34.71800000      29.60900000
 H      24.73600000      35.42500000      29.88200000
 H      23.67300000      34.47600000      30.47600000
 O      38.16000000      38.61100000      21.92600000
 H      38.63100000      38.09400000      22.62800000
 H      38.53400000      39.48000000      22.14200000
 O      37.19300000      38.89900000      32.93600000
 H      37.99100000      38.60300000      33.29700000
 H      36.47200000      38.48700000      33.46200000
 O      39.55200000      39.36900000      25.61000000
 H      39.52200000      38.49200000      25.15000000
 H      39.84100000      39.99500000      24.96400000
 O      22.66500000      37.39900000      25.84500000
 H      22.51300000      38.34300000      25.74400000
 H      22.70400000      37.30700000      26.84300000
 O      33.59900000      36.99800000      33.56300000
 H      34.03000000      36.15500000      33.41500000
 H      32.84600000      36.90000000      32.90900000
 O      27.38700000      36.05400000      38.46000000
 H      27.03400000      36.69800000      37.82800000
 H      28.12300000      36.52300000      38.82800000
 O      25.07400000      40.38300000      38.18000000
 H      25.16900000      41.03000000      37.44300000
 H      25.33300000      40.94200000      38.92700000
 O      37.24500000      35.82600000      24.87800000
 H      37.19700000      34.85700000      24.67600000
 H      37.63300000      35.77400000      25.76000000
 O      36.90200000      35.28100000      29.66700000
 H      37.06900000      34.67300000      30.33700000
 H      36.72000000      36.13900000      30.19700000
 O      30.50400000      35.73400000      30.06000000
 H      30.88000000      36.52900000      29.68300000
 H      30.81900000      35.09400000      29.37500000
 O      23.20500000      37.66500000      28.52600000
 H      22.73100000      37.51600000      29.36400000
 H      24.06300000      37.20600000      28.82300000
 O      36.47400000      35.15400000      35.44000000
 H      36.07600000      35.02000000      34.54000000
 H      36.55800000      34.22000000      35.70100000
 O      36.20200000      40.08300000      25.44500000
 H      36.99300000      40.40800000      25.91000000
 H      35.53300000      40.18100000      26.15900000
 O      29.20800000      40.44200000      30.03500000
 H      30.00200000      39.88600000      30.06200000
 H      29.47700000      41.14500000      30.63400000
 O      30.48400000      38.42400000      21.25900000
 H      30.91800000      37.87900000      20.62500000
 H      31.18300000      38.67500000      21.86700000
 O      40.14800000      39.84700000      32.73700000
 H      39.92900000      40.27300000      33.58700000
 H      40.18800000      40.71100000      32.17600000
 O      23.76100000      37.47000000      35.89900000
 H      23.77100000      36.93800000      35.07800000
 H      23.83000000      36.69000000      36.58200000
 O      20.19500000      34.38200000      36.37500000
 H      19.96700000      35.36000000      36.54100000
 H      20.94900000      34.31800000      36.95500000
 O      39.14400000      36.62600000      39.87100000
 H      39.90800000      36.05200000      39.74100000
 H      39.12400000      36.64000000      40.84300000
 O      33.45700000      38.02600000      21.89400000
 H      33.97600000      37.80900000      22.70200000
 H      33.15200000      37.06000000      21.71300000
 O      20.31300000      37.20400000      37.08100000
 H      19.74900000      37.70500000      37.67000000
 H      21.03500000      37.78900000      36.85500000
 O      33.68100000      37.52300000      40.27600000
 H      33.38500000      36.71700000      40.82400000
 H      34.52600000      37.19800000      40.00600000
 O      26.45800000      38.07700000      36.76200000
 H      25.60500000      37.71900000      36.45800000
 H      26.14900000      38.91200000      37.15300000
 O      23.28000000      43.03100000      23.90000000
 H      23.59600000      42.37800000      23.22500000
 H      22.66000000      43.56600000      23.35500000
 O      40.37800000      42.86800000      35.24400000
 H      39.81100000      43.63900000      35.38200000
 H      41.18000000      43.11700000      35.64900000
 O      22.23400000      44.08400000      35.57100000
 H      23.16300000      43.84900000      35.51500000
 H      21.82900000      43.21900000      35.78000000
 O      24.86000000      46.34100000      22.10000000
 H      24.11600000      46.47700000      21.52200000
 H      25.56600000      46.02800000      21.55000000
 O      36.50900000      43.36700000      38.47400000
 H      37.31600000      43.89300000      38.24600000
 H      36.78200000      42.49400000      38.03700000
 O      37.38300000      43.54200000      31.89100000
 H      37.56100000      42.74200000      32.38800000
 H      38.31800000      43.79800000      31.67500000
 O      20.83100000      43.97800000      22.60300000
 H      20.01400000      43.67600000      22.13900000
 H      20.91100000      43.17700000      23.24100000
 O      38.63700000      47.51400000      33.85400000
 H      38.73400000      47.89200000      32.95800000
 H      37.92600000      48.09100000      34.24500000
 O      25.22000000      44.82700000      30.28900000
 H      24.47500000      44.88700000      29.64000000
 H      25.87400000      45.45000000      29.92200000
 O      40.35200000      46.09900000      27.88200000
 H      40.72800000      46.71100000      28.48300000
 H      39.81100000      46.68900000      27.28900000
 O      33.47700000      47.40000000      35.85300000
 H      33.97400000      47.73700000      35.12200000
 H      34.15600000      47.37500000      36.55900000
 O      39.64200000      43.92900000      40.66900000
 H      39.42400000      43.93700000      39.71200000
 H      40.17200000      44.68300000      40.79400000
 O      24.66600000      47.79100000      35.64600000
 H      24.26300000      48.64300000      35.83300000
 H      25.54100000      47.89300000      36.06900000
 O      30.14900000      47.23200000      25.05100000
 H      29.52800000      47.95100000      24.94700000
 H      30.92800000      47.67500000      24.63200000
 O      38.93800000      44.32400000      20.46700000
 H      38.99100000      43.92400000      21.33800000
 H      37.95500000      44.42100000      20.38900000
 O      33.82200000      44.95900000      31.18900000
 H      33.87400000      45.38000000      30.26800000
 H      32.88700000      45.06200000      31.41100000
 O      25.78300000      43.91800000      40.02000000
 H      25.48000000      44.79900000      40.29100000
 H      26.64900000      43.85200000      40.47300000
 O      36.86700000      47.08400000      21.64500000
 H      36.74200000      46.16200000      21.19600000
 H      36.51100000      47.67400000      20.97200000
 O      29.27800000      47.45100000      27.67400000
 H      29.74600000      47.45400000      26.77000000
 H      29.77900000      46.70600000      28.05600000
 O      40.77800000      46.60500000      30.76400000
 H      40.26400000      47.46900000      30.82600000
 H      41.62700000      46.90400000      31.11700000
 O      39.26300000      42.62300000      38.22700000
 H      40.17100000      42.23800000      38.41700000
 H      38.74800000      41.79500000      38.29600000
 O      28.71900000      44.29700000      34.98100000
 H      29.38000000      43.71500000      35.36500000
 H      28.31700000      43.75600000      34.26700000
 O      38.35500000      45.38300000      37.59800000
 H      38.63800000      45.09700000      36.71000000
 H      37.66800000      46.02700000      37.33700000
 O      29.58500000      49.19900000      33.43500000
 H      28.81200000      48.60300000      33.62400000
 H      30.01500000      49.09500000      34.33200000
 O      21.51200000      43.28400000      31.40600000
 H      21.77500000      42.51500000      31.92600000
 H      20.97300000      43.79900000      32.09000000
 O      29.08200000      47.62700000      38.08900000
 H      29.55300000      46.77500000      37.88800000
 H      28.16500000      47.39300000      37.90300000
 O      31.62700000      43.13500000      33.45100000
 H      32.38800000      43.57200000      33.96600000
 H      31.15800000      42.81100000      34.26000000
 O      33.02900000      42.89500000      21.76500000
 H      33.25200000      41.94900000      21.87600000
 H      32.33800000      42.98200000      22.45500000
 O      25.26300000      46.60400000      39.54600000
 H      25.34100000      47.61000000      39.55500000
 H      25.76000000      46.41300000      38.73300000
 O      38.63000000      46.63700000      23.56400000
 H      37.97900000      46.86500000      22.85000000
 H      39.41500000      47.11000000      23.20300000
 O      38.98600000      47.63500000      39.85500000
 H      38.49000000      47.06600000      39.23400000
 H      39.74400000      47.88600000      39.26700000
 O      39.01400000      44.45600000      25.42900000
 H      38.42000000      44.85300000      26.13200000
 H      38.88100000      45.16900000      24.75400000
 O      27.74000000      48.20000000      31.01300000
 H      27.97100000      47.31400000      31.31900000
 H      28.36800000      48.20000000      30.23400000
 O      39.65800000      42.92600000      23.16700000
 H      40.61500000      43.08300000      23.40200000
 H      39.24700000      43.38300000      23.91700000
 O      22.22300000      46.60300000      36.65200000
 H      22.36000000      45.69200000      36.22600000
 H      23.03700000      46.99900000      36.29700000
 O      34.88200000      44.84400000      26.66100000
 H      34.75800000      44.01400000      27.13200000
 H      34.69100000      44.53300000      25.73400000
 O      36.28100000      44.75000000      20.54300000
 H      35.90400000      44.15900000      19.80200000
 H      35.93500000      44.22000000      21.28300000
 O      32.26700000      48.69800000      24.18900000
 H      32.72800000      48.08900000      23.55100000
 H      32.09300000      49.41800000      23.51200000
 O      24.38700000      47.57500000      29.38100000
 H      25.08100000      47.55400000      28.71100000
 H      24.85200000      47.47000000      30.19100000
 O      24.84500000      44.55500000      33.47900000
 H      24.77800000      44.45900000      32.50500000
 H      24.49200000      45.48300000      33.60300000
 O      22.69700000      44.65100000      29.20400000
 H      22.27900000      44.25400000      29.95500000
 H      22.78600000      43.90500000      28.58300000
 O      20.76700000      44.48900000      26.51300000
 H      21.67900000      44.90100000      26.49100000
 H      20.92400000      43.65900000      26.87800000
 O      21.62200000      48.69200000      24.35700000
 H      21.44200000      48.05700000      23.60700000
 H      20.73600000      48.84400000      24.68800000
 O      28.15500000      46.93100000      34.34200000
 H      28.87600000      46.34700000      34.61900000
 H      27.78600000      46.41000000      33.58600000
 O      37.29600000      45.98600000      26.98600000
 H      37.32400000      46.25700000      27.91400000
 H      36.33400000      45.77200000      26.87100000
 O      26.11500000      45.14400000      24.82000000
 H      25.42000000      45.77900000      24.71400000
 H      26.37300000      45.00000000      23.85600000
 O      40.34100000      48.46200000      26.45400000
 H      41.19200000      48.95900000      26.52300000
 H      40.40300000      48.20500000      25.48700000
 O      25.29700000      48.85800000      31.97600000
 H      25.51700000      49.63300000      32.57100000
 H      26.23700000      48.64800000      31.74400000
 O      27.23100000      46.14900000      36.55900000
 H      27.70100000      45.28500000      36.41400000
 H      27.36500000      46.50800000      35.64200000
 O      33.49600000      45.99100000      28.76500000
 H      33.93100000      45.63400000      27.89500000
 H      33.48600000      46.98200000      28.46900000
 O      37.12300000      47.98200000      29.05400000
 H      37.73100000      48.45400000      29.65800000
 H      36.83500000      47.26600000      29.68100000
 O      37.74700000      49.26300000      26.76600000
 H      38.65300000      48.92100000      26.51700000
 H      37.43100000      48.55600000      27.36300000
 O      31.73900000      45.75400000      34.94000000
 H      32.18300000      44.90200000      34.81100000
 H      32.49000000      46.27300000      35.33100000
 O      35.46800000      47.32000000      40.45800000
 H      35.20900000      46.78500000      41.21600000
 H      35.65400000      48.18600000      40.83900000
 O      30.51600000      42.66300000      35.80500000
 H      29.92700000      41.88200000      36.06900000
 H      31.33000000      42.38900000      36.33300000
 O      35.87500000      44.95200000      33.93300000
 H      35.18500000      44.43900000      34.35700000
 H      35.91000000      44.46000000      33.10300000
 O      20.24700000      48.39600000      32.21000000
 H      20.25800000      47.44100000      32.32800000
 H      21.11200000      48.47300000      31.76400000
 O      25.11400000      44.18300000      36.24100000
 H      25.83700000      44.82300000      36.47400000
 H      25.16600000      44.09700000      35.26000000
 O      26.26700000      49.27200000      23.21600000
 H      25.84800000      48.86000000      24.07100000
 H      26.17000000      48.53900000      22.61700000
 O      29.47200000      49.37300000      39.92300000
 H      29.35200000      48.70400000      39.24500000
 H      29.62200000      50.16700000      39.28000000
 O      38.82800000      48.69000000      31.20900000
 H      39.42300000      48.96500000      30.48600000
 H      38.55400000      49.57300000      31.48000000
 O      27.24500000      44.71800000      21.74100000
 H      28.05200000      45.20000000      22.03200000
 H      27.25400000      45.01200000      20.77300000
 O      33.84400000      44.26800000      24.21300000
 H      34.65900000      43.87600000      23.81000000
 H      33.21300000      43.53000000      24.10400000
 O      30.40000000      44.22500000      31.16000000
 H      30.62600000      45.19600000      31.33800000
 H      30.72600000      43.84000000      31.98400000
 O      31.38500000      44.95600000      21.11600000
 H      30.97300000      44.66200000      20.28800000
 H      32.19600000      44.35100000      21.15500000
 O      34.35000000      48.91700000      30.87900000
 H      34.08800000      48.64000000      29.99900000
 H      33.43300000      49.07200000      31.24600000
 O      33.24300000      42.66300000      29.87800000
 H      32.70200000      42.21600000      30.63100000
 H      33.45800000      43.48600000      30.43900000
 O      30.74800000      45.60100000      37.78000000
 H      30.97500000      45.51800000      36.82100000
 H      31.56200000      46.02100000      38.11300000
 O      28.58000000      44.10900000      27.58100000
 H      29.39100000      44.65900000      27.51100000
 H      28.81800000      43.50800000      28.30200000
 O      31.35700000      46.53300000      32.08900000
 H      31.67700000      47.43400000      31.94200000
 H      31.61100000      46.38000000      33.03700000
 O      29.28400000      46.67300000      22.02800000
 H      30.04100000      46.14200000      21.67500000
 H      29.70900000      46.99800000      22.84500000
 O      33.00000000      46.42900000      22.64700000
 H      32.39800000      45.90200000      22.06400000
 H      33.33400000      45.73800000      23.20000000
 O      20.02700000      47.90800000      35.92300000
 H      20.87900000      47.41300000      36.10400000
 H      19.95700000      48.42000000      36.77900000
 O      31.28500000      49.05400000      35.62900000
 H      32.11400000      48.48500000      35.67300000
 H      31.24500000      49.26900000      36.55900000
 O      21.89000000      45.44900000      39.01500000
 H      21.50000000      44.60900000      38.76600000
 H      22.04900000      45.84200000      38.11200000
 O      33.45600000      43.69200000      35.06500000
 H      33.99400000      42.87000000      34.84200000
 H      33.72800000      43.71900000      36.02800000
 O      21.23100000      45.56100000      33.40700000
 H      21.88600000      46.26100000      33.11100000
 H      21.70600000      45.01100000      33.99900000
 O      29.28600000      44.52200000      24.38600000
 H      28.81400000      44.43400000      25.23000000
 H      29.73400000      45.39100000      24.53400000
 O      33.98000000      44.20900000      38.07300000
 H      34.93200000      43.96300000      38.18100000
 H      34.03800000      45.14400000      38.32800000
 O      36.47100000      45.83700000      30.75000000
 H      36.96100000      45.15400000      31.18500000
 H      35.55700000      45.66300000      31.05900000
 O      27.79200000      45.39500000      31.71900000
 H      27.45000000      44.49100000      31.91900000
 H      28.69000000      45.16100000      31.50000000
 O      39.21200000      43.58400000      28.15900000
 H      39.16200000      43.46700000      27.19500000
 H      39.81600000      44.35200000      28.29100000
 O      30.93200000      45.46800000      28.56000000
 H      30.98700000      44.52400000      28.75600000
 H      31.91100000      45.69500000      28.70500000
 O      26.47800000      47.02400000      27.60400000
 H      26.65900000      46.23800000      27.07000000
 H      27.45100000      47.25500000      27.83700000
 O      39.98000000      43.90300000      31.34600000
 H      40.57000000      43.90900000      30.55900000
 H      39.81800000      44.88700000      31.40200000
 O      34.68500000      47.71800000      33.37000000
 H      35.30300000      46.90900000      33.44000000
 H      34.67100000      47.82600000      32.42300000
 O      32.88100000      47.37500000      38.87400000
 H      33.67500000      47.25800000      39.42500000
 H      32.91200000      48.30400000      38.55600000
 O      25.12400000      48.41300000      25.45200000
 H      25.55100000      47.85400000      26.14700000
 H      24.49000000      48.92700000      26.02800000
 O      21.54800000      46.87100000      28.73500000
 H      22.05300000      46.00200000      28.68100000
 H      22.35700000      47.37800000      29.05000000
 O      31.16500000      42.91200000      23.75600000
 H      30.43100000      43.56200000      23.98300000
 H      31.20500000      42.54000000      24.68000000
 O      36.22000000      47.44300000      37.51000000
 H      36.78600000      48.20000000      37.28600000
 H      35.94600000      47.68800000      38.42400000
 O      23.67000000      47.07000000      33.19100000
 H      24.39100000      47.67000000      32.77600000
 H      23.90100000      47.40200000      34.11100000
 O      38.27300000      45.05300000      34.92600000
 H      37.32800000      44.92500000      34.62900000
 H      38.47600000      45.81300000      34.33500000
 O      33.38000000      48.51900000      28.26800000
 H      32.65900000      48.91200000      27.65500000
 H      34.13900000      49.11500000      27.90900000
 O      21.40500000      47.62900000      21.95000000
 H      22.22100000      47.61800000      21.34500000
 H      21.13600000      46.69400000      21.88000000
 O      24.98900000      42.69800000      26.06500000
 H      25.68600000      43.34600000      26.09000000
 H      24.45500000      42.97400000      25.31000000
 O      29.51500000      44.17900000      39.91000000
 H      30.30400000      44.51500000      40.45100000
 H      29.61800000      44.64000000      39.09500000
