948
XYZ file of cluster: frame_6000_2146f.72e1f.9a8ad - created by MolEdiTo
 O      23.74300000      26.81100000      30.34200000
 H      24.64700000      26.80300000      29.92800000
 H      23.33800000      27.63100000      29.96900000
 O      17.74500000      21.67500000      30.61400000
 H      18.51600000      21.33300000      31.12000000
 H      17.26800000      22.13900000      31.35400000
 O      22.78000000      30.84000000      36.80600000
 H      22.35100000      29.91600000      36.78300000
 H      22.00400000      31.25900000      37.32200000
 O      38.43600000      34.13400000      38.98900000
 H      38.52700000      35.05400000      39.33100000
 H      38.13800000      33.70800000      39.85200000
 O      25.55900000      30.62700000      37.13900000
 H      25.53100000      29.63500000      37.28000000
 H      24.59400000      30.81700000      37.24400000
 O      21.69600000      28.21700000      37.02600000
 H      21.45800000      28.06600000      37.92200000
 H      20.80000000      28.15000000      36.56400000
 O      27.16100000      27.42500000      35.30300000
 H      27.11100000      27.87800000      36.11100000
 H      27.52100000      28.17400000      34.75100000
 O       7.14900000      33.34200000      30.91500000
 H       6.94700000      32.43900000      31.16200000
 H       7.27400000      33.73700000      31.79000000
 O      17.97100000      22.63100000      35.87100000
 H      18.52400000      22.29500000      35.08000000
 H      18.23600000      23.58500000      35.80100000
 O       8.39600000      21.18800000      38.46700000
 H       8.39900000      20.26500000      38.83900000
 H       9.09900000      21.56400000      39.03100000
 O      30.29600000      31.40200000      37.08300000
 H      29.49000000      31.22500000      37.57400000
 H      30.93400000      30.82500000      37.58000000
 O      35.38100000      27.24900000      40.26200000
 H      36.15900000      26.62400000      40.54000000
 H      35.29400000      26.90900000      39.36400000
 O      27.16200000      22.10700000      35.13400000
 H      27.15700000      21.15600000      34.81100000
 H      27.50400000      21.94500000      36.02500000
 O      27.00900000      38.75300000      29.40900000
 H      27.31900000      38.54800000      28.52500000
 H      27.87800000      39.19400000      29.76600000
 O      22.74900000      24.67600000      28.82800000
 H      23.06500000      25.28800000      29.52300000
 H      22.27100000      24.03100000      29.39200000
 O      31.77000000      30.18400000      39.88900000
 H      32.24300000      29.81600000      39.06500000
 H      32.57800000      30.62500000      40.23100000
 O      38.93600000      37.73500000      30.54500000
 H      39.07800000      38.43700000      29.88000000
 H      39.88200000      37.59900000      30.82100000
 O      19.42100000      29.71800000      39.74900000
 H      20.04900000      29.05300000      40.20900000
 H      19.22800000      30.32800000      40.52000000
 O       9.22900000      30.52100000      39.29200000
 H       9.73300000      31.32400000      39.04400000
 H       8.46300000      30.62400000      38.78000000
 O      13.36000000      29.34800000      33.83800000
 H      14.09800000      29.98600000      33.89600000
 H      12.72400000      29.92700000      33.28100000
 O      19.81600000      26.70600000      33.75900000
 H      19.55600000      25.88100000      33.31000000
 H      20.75100000      26.74700000      33.54900000
 O      38.25800000      29.20900000      40.49100000
 H      37.39200000      28.63300000      40.54800000
 H      38.82000000      28.72100000      41.15000000
 O      39.59900000      35.53200000      35.39000000
 H      38.60100000      35.62100000      35.47200000
 H      39.86900000      36.40900000      35.79800000
 O       7.93900000      31.43000000      36.68100000
 H       7.36300000      31.05100000      35.97800000
 H       8.78400000      31.07200000      36.36600000
 O      21.99300000      34.65700000      27.66500000
 H      22.46100000      35.17800000      28.32500000
 H      21.42300000      34.06900000      28.20600000
 O      14.47400000      40.18700000      35.51500000
 H      15.06500000      40.88700000      35.85900000
 H      13.68400000      40.76200000      35.28200000
 O      17.87800000      21.49100000      39.50900000
 H      17.88000000      22.48200000      39.65300000
 H      18.68400000      21.22100000      40.02700000
 O      10.64400000      34.80400000      35.74900000
 H      10.83800000      35.61200000      35.22600000
 H       9.70900000      34.97500000      35.90800000
 O      40.41400000      25.57500000      30.59300000
 H      40.17300000      26.05300000      31.44000000
 H      41.15500000      25.04000000      30.99000000
 O      11.68900000      23.37300000      32.84100000
 H      10.92600000      24.01900000      32.62700000
 H      11.93200000      23.76900000      33.71900000
 O      25.54300000      30.69600000      30.98800000
 H      26.23500000      29.98700000      31.02400000
 H      25.66400000      30.89100000      30.02000000
 O      22.82200000      40.61500000      27.74400000
 H      22.52200000      39.67900000      27.79500000
 H      23.77900000      40.38200000      27.52000000
 O      36.75900000      24.46800000      32.65600000
 H      37.51700000      23.86200000      32.44100000
 H      36.64300000      24.23800000      33.57800000
 O      40.59700000      32.15500000      39.33300000
 H      40.10900000      31.28400000      39.11800000
 H      39.81700000      32.77200000      39.21800000
 O      27.81600000      30.91400000      38.90200000
 H      26.99400000      30.83700000      38.47100000
 H      27.97400000      31.90500000      38.89300000
 O       6.39300000      27.54300000      31.68700000
 H       6.95800000      27.71300000      30.90400000
 H       6.36200000      26.56200000      31.61400000
 O      20.15900000      39.43300000      29.44300000
 H      20.42800000      39.91900000      30.24000000
 H      19.28400000      39.89300000      29.26200000
 O      10.23900000      36.72900000      29.39900000
 H      10.51500000      35.96900000      29.87600000
 H       9.36100000      36.54000000      29.10500000
 O      38.29300000      35.42100000      27.34100000
 H      37.90400000      35.55600000      28.23400000
 H      39.20600000      35.24000000      27.54400000
 O      18.32200000      30.30700000      33.67200000
 H      18.63600000      30.70800000      32.86000000
 H      17.58800000      30.89400000      33.89300000
 O       6.72700000      33.66600000      38.13200000
 H       7.18900000      32.83600000      37.86100000
 H       7.46500000      34.11900000      38.53200000
 O      15.48500000      26.07700000      29.55700000
 H      16.31700000      25.79600000      30.02000000
 H      14.99300000      25.24300000      29.55500000
 O      37.62300000      38.14700000      38.40900000
 H      36.77400000      37.74400000      38.70500000
 H      38.20500000      37.59400000      38.95600000
 O      12.17800000      32.83500000      36.79800000
 H      11.64400000      33.51200000      36.35200000
 H      11.63000000      32.74400000      37.62700000
 O      36.44200000      23.47200000      35.23300000
 H      35.56300000      23.62100000      35.62400000
 H      36.96700000      23.18000000      36.05000000
 O      33.43400000      30.95300000      30.40100000
 H      32.48400000      30.91200000      30.68400000
 H      33.69000000      30.11300000      30.84100000
 O      16.45000000      30.51500000      40.34300000
 H      16.33200000      30.60700000      39.35300000
 H      17.19200000      31.10700000      40.51700000
 O      22.69600000      28.74400000      28.74800000
 H      22.02400000      29.27300000      28.20100000
 H      23.51100000      28.95700000      28.33400000
 O      29.21900000      27.33700000      37.84900000
 H      28.48800000      27.73100000      38.38000000
 H      29.96200000      27.30200000      38.53500000
 O      34.16100000      24.18000000      27.88100000
 H      34.81500000      23.46400000      27.71200000
 H      34.64100000      24.80200000      28.45600000
 O      40.75400000      21.20900000      38.70600000
 H      41.34900000      20.51200000      38.35100000
 H      41.30500000      21.69400000      39.31700000
 O      28.43600000      31.46300000      29.44500000
 H      27.58200000      31.06500000      29.12000000
 H      28.67300000      31.99100000      28.69700000
 O      12.38700000      20.76500000      35.07700000
 H      11.60900000      21.03100000      35.56500000
 H      12.34500000      21.20700000      34.25300000
 O      29.78500000      21.55200000      30.81900000
 H      29.18200000      21.88500000      31.49700000
 H      30.68900000      21.84600000      31.16500000
 O      11.81400000      30.98100000      32.34400000
 H      12.06800000      31.43600000      31.57600000
 H      10.98100000      31.33700000      32.55200000
 O      27.38700000      36.05400000      38.46000000
 H      27.03400000      36.69800000      37.82800000
 H      28.12300000      36.52300000      38.82800000
 O      17.95500000      28.01800000      32.25400000
 H      18.07300000      28.92300000      32.63600000
 H      18.68800000      27.56000000      32.75700000
 O      36.90200000      35.28100000      29.66700000
 H      37.06900000      34.67300000      30.33700000
 H      36.72000000      36.13900000      30.19700000
 O      10.14900000      25.75400000      36.46000000
 H       9.76000000      25.05000000      36.91700000
 H       9.55000000      26.47200000      36.50000000
 O      13.38100000      21.43700000      29.67700000
 H      14.32400000      21.11300000      29.76700000
 H      13.41400000      21.62600000      28.71500000
 O      39.72000000      26.63700000      32.82700000
 H      40.07900000      27.28200000      33.50800000
 H      39.50500000      25.97700000      33.48100000
 O       6.41400000      30.83100000      29.06800000
 H       7.20100000      30.41900000      29.49800000
 H       5.92700000      29.95700000      28.94300000
 O      31.89200000      28.65600000      33.25400000
 H      31.75200000      28.27300000      34.18000000
 H      31.97100000      29.58900000      33.52400000
 O      38.39800000      29.00900000      30.85600000
 H      39.23500000      29.19500000      31.26600000
 H      37.93700000      28.32000000      31.29200000
 O      28.19400000      24.91600000      37.93100000
 H      28.70100000      24.52500000      37.27700000
 H      28.44200000      25.88700000      37.85100000
 O      25.00700000      25.61300000      26.96300000
 H      25.66500000      24.87000000      26.84200000
 H      25.14600000      25.79100000      27.95500000
 O      23.76100000      37.47000000      35.89900000
 H      23.77100000      36.93800000      35.07800000
 H      23.83000000      36.69000000      36.58200000
 O      20.43200000      27.47600000      28.76000000
 H      19.85600000      28.15800000      29.20400000
 H      21.31600000      27.78400000      28.86000000
 O      20.19500000      34.38200000      36.37500000
 H      19.96700000      35.36000000      36.54100000
 H      20.94900000      34.31800000      36.95500000
 O      30.07300000      23.02100000      37.23600000
 H      30.08200000      22.07800000      36.99800000
 H      30.05600000      22.97500000      38.19800000
 O      25.94700000      33.15400000      36.63000000
 H      25.88100000      32.13300000      36.52700000
 H      25.12100000      33.39000000      36.08000000
 O      12.23200000      24.67400000      35.22400000
 H      12.82200000      25.46300000      35.28800000
 H      11.38500000      25.08100000      35.39800000
 O      19.28300000      39.02700000      34.10900000
 H      20.22600000      39.28600000      34.36000000
 H      19.23100000      38.19100000      34.49300000
 O      20.31300000      37.20400000      37.08100000
 H      19.74900000      37.70500000      37.67000000
 H      21.03500000      37.78900000      36.85500000
 O      16.79900000      36.97100000      36.75900000
 H      17.32400000      36.99600000      37.61100000
 H      16.42000000      37.85900000      36.81000000
 O      19.39500000      32.08400000      31.84500000
 H      19.78600000      32.02500000      30.92100000
 H      18.63300000      32.68900000      31.58900000
 O      26.45800000      38.07700000      36.76200000
 H      25.60500000      37.71900000      36.45800000
 H      26.14900000      38.91200000      37.15300000
 O      30.03800000      28.11200000      31.25300000
 H      30.72700000      28.14400000      31.98400000
 H      30.57100000      27.58500000      30.57700000
 O       8.28500000      24.25600000      29.74900000
 H       8.13400000      24.53300000      28.83800000
 H       9.16200000      23.87300000      29.66800000
 O      38.78100000      22.73200000      27.62400000
 H      38.01200000      22.40100000      28.11500000
 H      39.48200000      22.25000000      28.12300000
 O      40.48300000      22.04700000      30.20700000
 H      41.19100000      22.65800000      30.48600000
 H      41.00100000      21.21000000      30.27100000
 O      22.68000000      23.92000000      39.31400000
 H      22.57100000      24.60800000      40.00200000
 H      21.85900000      24.07800000      38.77700000
 O      25.63800000      36.70000000      30.28900000
 H      26.41500000      36.29600000      30.78900000
 H      26.09400000      37.51500000      29.85400000
 O      24.06800000      35.67400000      37.79800000
 H      23.29100000      35.25500000      38.08900000
 H      24.78000000      35.02500000      37.99900000
 O      16.08100000      31.67800000      37.82800000
 H      17.00400000      32.03900000      37.86900000
 H      15.61300000      32.43100000      37.45400000
 O       7.74400000      27.33700000      34.45900000
 H       7.42300000      26.47500000      34.88800000
 H       7.17700000      27.36400000      33.63000000
 O      34.43200000      23.37500000      31.07000000
 H      35.04200000      24.04700000      31.37400000
 H      34.99700000      22.92200000      30.42000000
 O      14.90000000      31.03000000      30.65100000
 H      15.77900000      31.29600000      30.50400000
 H      14.93700000      30.09700000      30.97200000
 O      40.13300000      30.53200000      33.46500000
 H      40.25800000      31.38900000      34.03000000
 H      40.59000000      30.91700000      32.65700000
 O      15.04800000      34.55300000      32.19300000
 H      14.14400000      34.24600000      32.49700000
 H      15.40000000      34.74400000      33.13000000
 O      17.41500000      33.58300000      31.14000000
 H      17.19600000      33.12400000      30.28700000
 H      16.50100000      33.77000000      31.50300000
 O       9.57100000      33.32200000      29.54400000
 H       8.62000000      33.43900000      29.57900000
 H       9.74800000      33.24600000      30.51200000
 O      40.07500000      38.79100000      28.14700000
 H      39.71900000      39.69300000      28.29100000
 H      39.78500000      38.60600000      27.25400000
 O      15.65600000      21.18000000      36.45200000
 H      16.57600000      21.53100000      36.29700000
 H      15.78100000      20.94600000      37.41800000
 O      37.40300000      28.91900000      28.34600000
 H      36.38700000      28.90600000      28.34900000
 H      37.59600000      28.92900000      29.29100000
 O      28.80100000      22.97000000      33.03700000
 H      28.14600000      22.82800000      33.76200000
 H      28.67600000      23.86600000      32.78600000
 O      25.97100000      34.00400000      39.77100000
 H      26.05500000      33.51600000      38.91400000
 H      26.55800000      34.77500000      39.62800000
 O      19.77200000      20.54700000      32.21500000
 H      19.92600000      21.11200000      33.00100000
 H      19.99200000      19.66700000      32.48900000
 O       9.74000000      35.52700000      32.36700000
 H      10.15400000      36.13500000      33.02300000
 H       8.84300000      35.87100000      32.33200000
 O      12.32100000      32.50500000      30.17400000
 H      13.29600000      32.35700000      30.08800000
 H      12.10800000      32.48200000      29.21800000
 O      20.18400000      38.90100000      26.88000000
 H      19.25000000      38.63900000      26.96700000
 H      20.42700000      39.00100000      27.85100000
 O      20.83200000      32.66000000      28.91800000
 H      20.81500000      32.01500000      28.16500000
 H      21.68900000      32.46800000      29.29500000
 O      30.35200000      26.95600000      27.57600000
 H      31.04100000      26.88900000      28.30000000
 H      29.76100000      27.62000000      27.92200000
 O       8.27200000      40.66400000      38.17500000
 H       7.49800000      41.19000000      38.10100000
 H       7.91700000      39.84100000      38.58500000
 O      32.53800000      21.41900000      32.04200000
 H      33.37200000      21.84300000      31.71500000
 H      32.92500000      21.26200000      33.04500000
 O       6.47400000      30.70000000      32.08200000
 H       7.16800000      30.08800000      32.25600000
 H       5.67700000      30.28100000      32.42000000
 O      32.02000000      37.70400000      38.24400000
 H      31.82000000      38.64500000      37.98500000
 H      32.76700000      37.89400000      38.85900000
 O      30.97000000      36.69500000      32.63900000
 H      30.90400000      36.03800000      33.38300000
 H      30.96900000      36.13900000      31.85000000
 O      35.95900000      36.05100000      39.37500000
 H      36.22400000      35.69900000      40.26900000
 H      36.27900000      35.35600000      38.81700000
 O      10.69500000      22.77300000      28.59700000
 H      10.54600000      22.31900000      27.77200000
 H      10.64800000      22.08600000      29.26300000
 O      31.95200000      38.66900000      28.53700000
 H      32.43000000      39.48300000      28.93900000
 H      32.50800000      37.99900000      29.04300000
 O      24.66300000      20.82200000      31.51100000
 H      25.51800000      20.28500000      31.64600000
 H      24.88400000      21.56800000      32.12800000
 O      13.11000000      25.38800000      38.57800000
 H      13.07600000      24.64000000      37.91200000
 H      12.13500000      25.51200000      38.71800000
 O      32.60200000      29.17700000      37.59000000
 H      32.23000000      28.64000000      36.85800000
 H      33.49100000      29.30500000      37.33400000
 O      15.44100000      34.33800000      39.58700000
 H      15.33200000      34.24000000      38.64400000
 H      14.86900000      33.64600000      39.98300000
 O      23.85100000      36.86700000      40.64100000
 H      24.16600000      36.22900000      39.97700000
 H      24.67200000      37.15400000      41.13700000
 O      30.78600000      34.69800000      34.44500000
 H      30.04700000      34.11000000      34.64800000
 H      31.00800000      35.12200000      35.27100000
 O      19.13300000      22.02600000      28.33500000
 H      19.98300000      22.02900000      28.86000000
 H      18.48900000      21.86400000      29.05000000
 O      14.52400000      39.99500000      29.29400000
 H      15.10900000      39.76900000      30.05200000
 H      13.71600000      39.48600000      29.58000000
 O      39.28600000      32.88600000      31.24500000
 H      39.91500000      32.43300000      30.62400000
 H      39.88600000      33.38500000      31.80200000
 O      32.52100000      31.01100000      34.15900000
 H      33.42100000      30.92600000      33.78900000
 H      32.61000000      31.68600000      34.82200000
 O      33.76400000      26.04000000      33.52100000
 H      32.94400000      26.39400000      33.70900000
 H      33.60100000      25.28200000      32.94000000
 O      10.39200000      37.24800000      34.33100000
 H      10.06800000      37.58500000      35.19800000
 H      10.98000000      37.93700000      34.03600000
 O      30.18500000      35.95300000      39.69900000
 H      31.04300000      36.26000000      39.30500000
 H      30.18700000      36.58100000      40.48800000
 O       9.84800000      25.20700000      32.31600000
 H       8.92700000      25.43800000      32.49000000
 H      10.04000000      25.70400000      31.52000000
 O       6.56400000      24.80600000      34.86100000
 H       6.45000000      24.43000000      35.75100000
 H       7.02700000      24.06600000      34.41800000
 O      37.19200000      31.31800000      31.98600000
 H      37.93600000      31.94600000      31.97900000
 H      37.68900000      30.50600000      31.81800000
 O      28.51300000      33.47500000      35.38400000
 H      27.66800000      33.42900000      35.89500000
 H      28.34600000      32.90100000      34.62200000
 O      23.17000000      20.57400000      38.71900000
 H      23.62700000      21.22300000      39.34700000
 H      23.00700000      19.86200000      39.41100000
 O      10.72400000      22.66600000      36.20000000
 H      11.13900000      22.66400000      37.10900000
 H      11.28900000      23.32400000      35.78200000
 O      20.41200000      21.87600000      34.55400000
 H      20.74400000      21.88800000      35.45300000
 H      20.72200000      22.73400000      34.28200000
 O      22.75100000      26.30600000      32.95100000
 H      23.44000000      26.34800000      33.59700000
 H      23.22200000      26.55300000      32.07000000
 O      31.90500000      40.67400000      38.18800000
 H      32.56900000      41.32500000      38.22300000
 H      31.21100000      41.01300000      38.81900000
 O      13.42600000      37.33300000      37.75400000
 H      13.39400000      37.48700000      36.81800000
 H      14.30000000      37.70100000      37.96100000
 O      16.63000000      39.17800000      27.68100000
 H      15.76800000      39.13400000      28.10700000
 H      17.10800000      39.75000000      28.37000000
 O      15.80500000      39.22600000      38.41000000
 H      15.96700000      40.10100000      37.95400000
 H      15.09200000      39.57200000      39.08800000
 O       6.85400000      39.78100000      30.23300000
 H       6.81700000      40.00500000      29.31800000
 H       7.40800000      40.52400000      30.61200000
 O      33.59900000      36.99800000      33.56300000
 H      34.03000000      36.15500000      33.41500000
 H      32.84600000      36.90000000      32.90900000
 O      31.25200000      25.23600000      33.05900000
 H      31.40500000      25.03100000      33.99200000
 H      30.26800000      25.28600000      33.03600000
 O      25.07400000      40.38300000      38.18000000
 H      25.16900000      41.03000000      37.44300000
 H      25.33300000      40.94200000      38.92700000
 O      30.50400000      35.73400000      30.06000000
 H      30.88000000      36.52900000      29.68300000
 H      30.81900000      35.09400000      29.37500000
 O      32.13400000      29.35300000      27.38600000
 H      31.98000000      30.08400000      27.98800000
 H      33.11900000      29.29900000      27.31900000
 O      15.28100000      28.38500000      31.32700000
 H      15.43000000      27.71100000      30.67000000
 H      15.85600000      28.10900000      32.03500000
 O      11.10300000      25.50500000      27.60900000
 H      11.15800000      24.80800000      28.30600000
 H      10.12900000      25.56800000      27.52700000
 O      36.47400000      35.15400000      35.44000000
 H      36.07600000      35.02000000      34.54000000
 H      36.55800000      34.22000000      35.70100000
 O      12.29400000      38.63800000      30.10200000
 H      11.70700000      39.44500000      30.19100000
 H      11.61100000      37.93900000      30.08500000
 O      10.82300000      32.94000000      39.44800000
 H      11.18400000      33.80200000      39.60700000
 H      11.04800000      32.43000000      40.26100000
 O      18.43500000      28.97600000      29.74600000
 H      18.15200000      28.51200000      30.58400000
 H      17.64200000      28.74300000      29.20700000
 O       8.73000000      35.32200000      39.01300000
 H       8.66300000      35.65800000      39.91700000
 H       9.56200000      34.79200000      39.04600000
 O       9.95200000      23.79400000      38.77300000
 H      10.29000000      24.49100000      39.37600000
 H       9.04600000      24.18000000      38.57300000
 O      10.25300000      27.28000000      30.36900000
 H      10.03200000      27.84600000      29.68800000
 H      10.96800000      27.72000000      30.84100000
 O      22.58600000      33.93300000      31.81700000
 H      22.00000000      33.72200000      32.56200000
 H      22.66700000      33.07600000      31.36500000
 O      33.68100000      37.52300000      40.27600000
 H      33.38500000      36.71700000      40.82400000
 H      34.52600000      37.19800000      40.00600000
 O      12.34200000      35.46200000      30.68100000
 H      12.41800000      34.51600000      30.76100000
 H      12.03700000      35.71300000      31.60800000
 O      27.31100000      28.64500000      31.34000000
 H      28.28100000      28.54500000      31.23200000
 H      27.31600000      28.89200000      32.28900000
 O      13.26400000      22.11600000      37.87800000
 H      13.92100000      21.89700000      37.21800000
 H      13.36500000      21.44500000      38.58400000
 O       9.76500000      32.78200000      32.71400000
 H       8.93300000      32.84700000      33.24500000
 H       9.96800000      33.77600000      32.73000000
 O      39.68800000      29.74800000      38.29800000
 H      39.03200000      29.89200000      37.63300000
 H      39.04000000      29.47300000      39.06900000
 O      11.22600000      28.82800000      36.53200000
 H      10.34300000      28.48600000      36.79100000
 H      10.99000000      29.60000000      35.97600000
 O      25.66200000      27.96000000      37.90600000
 H      25.39700000      27.04900000      37.76600000
 H      26.06100000      27.88600000      38.79500000
 O      27.65500000      29.63600000      33.86900000
 H      26.83900000      30.23000000      33.76400000
 H      28.35300000      30.33400000      33.90400000
 O      35.53400000      34.84000000      33.02000000
 H      36.49900000      35.10300000      32.76400000
 H      35.36300000      34.15000000      32.33000000
 O      12.31900000      38.91800000      33.27400000
 H      12.42700000      39.77200000      33.78300000
 H      12.73700000      39.17900000      32.46400000
 O      14.80100000      23.57600000      34.55400000
 H      13.86200000      23.77000000      34.82500000
 H      15.12000000      23.10900000      35.36500000
 O      14.66200000      36.61500000      27.23700000
 H      13.64500000      36.50000000      27.08800000
 H      14.58100000      36.83300000      28.18400000
 O      20.10000000      34.14000000      40.57000000
 H      19.20600000      34.51100000      40.37100000
 H      20.52800000      35.02800000      40.84500000
 O       9.64000000      30.80500000      35.03000000
 H       9.31700000      31.53100000      34.44700000
 H       9.68200000      30.05500000      34.36100000
 O       9.70200000      38.55300000      36.57700000
 H       9.07600000      39.25200000      36.89300000
 H      10.18700000      38.30900000      37.41200000
 O      17.85600000      35.27800000      39.83200000
 H      16.96800000      34.82400000      39.77500000
 H      17.61700000      36.20900000      39.76900000
 O      11.64400000      33.33900000      27.56700000
 H      11.00100000      33.57700000      28.25500000
 H      11.12900000      33.04300000      26.82200000
 O      24.29200000      22.13700000      36.58300000
 H      24.51600000      21.59100000      35.80800000
 H      23.74000000      21.53800000      37.08100000
 O      34.11300000      28.64000000      31.40000000
 H      34.82100000      28.09500000      31.84100000
 H      33.36700000      28.40400000      32.01200000
 O      25.71500000      40.57700000      31.24000000
 H      25.49000000      41.37600000      30.75600000
 H      26.03200000      39.96500000      30.53500000
 O      39.94200000      38.10000000      36.15400000
 H      40.14700000      38.29100000      37.14700000
 H      40.06700000      38.98900000      35.82100000
 O      11.97000000      35.50800000      39.51000000
 H      12.49900000      35.72900000      40.30500000
 H      12.17000000      36.15400000      38.84900000
 O      36.07200000      37.68900000      30.63900000
 H      36.55600000      38.09500000      31.37300000
 H      36.53500000      38.12200000      29.91800000
 O      23.54100000      32.95200000      35.21500000
 H      22.66600000      33.08600000      34.81900000
 H      23.37200000      32.13700000      35.78400000
 O      15.66100000      35.46000000      34.52800000
 H      16.16400000      35.81400000      35.29500000
 H      14.91800000      36.16100000      34.55600000
 O      31.70700000      23.89100000      30.50700000
 H      31.33900000      24.19800000      31.36000000
 H      32.67300000      23.98600000      30.68100000
 O      32.05900000      34.65400000      28.02800000
 H      32.29200000      34.87200000      27.11100000
 H      32.48800000      33.80800000      28.15500000
 O      18.62100000      24.88700000      32.00100000
 H      18.41800000      24.98000000      31.01100000
 H      17.92400000      24.26400000      32.21800000
 O      23.94400000      22.24800000      27.65300000
 H      23.53900000      23.10200000      27.82900000
 H      23.79200000      22.14000000      26.70600000
 O      35.32100000      32.04700000      37.60300000
 H      35.39700000      31.09200000      37.42400000
 H      34.45800000      32.23700000      37.12300000
 O      26.88300000      25.24400000      40.22100000
 H      27.74200000      25.29800000      40.66200000
 H      27.24900000      25.04900000      39.26700000
 O      21.88900000      37.37900000      30.60300000
 H      21.34900000      38.14400000      30.32000000
 H      21.17800000      36.69300000      30.46900000
 O      37.20900000      40.47500000      29.38500000
 H      37.06900000      40.75800000      30.28300000
 H      38.14500000      40.88900000      29.22300000
 O      21.63000000      29.87500000      32.52700000
 H      22.19100000      29.03600000      32.33700000
 H      21.87000000      30.04600000      33.44300000
 O      34.58000000      21.00800000      28.37100000
 H      33.61800000      21.02300000      28.32600000
 H      34.77200000      20.69800000      27.45900000
 O      18.27000000      33.22300000      37.73700000
 H      18.93900000      33.63100000      37.06500000
 H      18.47100000      33.77100000      38.52000000
 O      38.91800000      25.38500000      38.73500000
 H      38.19500000      25.21100000      38.15400000
 H      38.48500000      25.35400000      39.60500000
 O      18.66700000      25.27100000      36.11500000
 H      17.74300000      25.66500000      36.07800000
 H      19.14000000      25.94700000      35.70400000
 O      24.92400000      25.76900000      34.54600000
 H      25.54400000      26.48000000      34.64000000
 H      24.78700000      25.53500000      35.48100000
 O      33.42400000      36.86400000      30.39200000
 H      34.23800000      37.36200000      30.49900000
 H      33.74800000      35.94100000      30.47500000
 O      14.93000000      27.33200000      38.05800000
 H      14.49600000      28.14200000      38.38100000
 H      14.21400000      26.65900000      38.28500000
 O      36.74700000      22.20400000      29.45600000
 H      36.90300000      21.64800000      30.23600000
 H      36.07300000      21.63100000      28.98300000
 O       6.92700000      24.92300000      31.74300000
 H       6.93500000      24.12000000      32.34600000
 H       7.49800000      24.63000000      31.03200000
 O      28.02600000      35.58500000      31.33200000
 H      28.89400000      35.51600000      30.93400000
 H      27.80900000      34.64300000      31.47900000
 O      29.03300000      21.52700000      28.08400000
 H      29.63200000      22.31300000      27.90000000
 H      29.00900000      21.54300000      29.05700000
 O      30.71100000      30.79400000      30.74700000
 H      30.38300000      29.87500000      30.89300000
 H      29.91900000      31.14100000      30.24500000
 O      35.23600000      30.51200000      33.80000000
 H      34.93500000      30.02700000      33.05900000
 H      35.99900000      30.98700000      33.38500000
 O      32.73100000      32.82500000      36.66200000
 H      32.42800000      33.81500000      36.56300000
 H      31.79500000      32.45900000      36.72300000
 O      16.49000000      23.25900000      32.41300000
 H      16.11400000      23.33200000      33.33400000
 H      15.67600000      23.30300000      31.89200000
 O      28.15800000      32.70200000      31.76900000
 H      28.80700000      32.12600000      32.21700000
 H      28.21900000      32.39200000      30.83800000
 O      14.92400000      36.56100000      30.30700000
 H      14.87300000      35.80900000      30.94300000
 H      13.95300000      36.80300000      30.21800000
 O      37.40000000      22.82400000      37.71200000
 H      36.65200000      22.59300000      38.28100000
 H      38.01500000      22.08100000      37.90100000
 O       6.97100000      38.23800000      39.06900000
 H       7.30600000      37.57600000      39.78400000
 H       6.47900000      37.53400000      38.56900000
 O      27.66400000      28.34600000      39.95300000
 H      27.61100000      29.25100000      39.52800000
 H      26.79600000      28.31200000      40.42300000
 O      23.08900000      39.20500000      32.23800000
 H      22.90700000      38.36200000      31.73500000
 H      23.97800000      39.48100000      31.98600000
 O      24.69000000      32.88600000      27.26600000
 H      24.58700000      33.24600000      26.37100000
 H      24.23800000      33.49600000      27.82600000
 O      31.41200000      39.15100000      31.46800000
 H      31.30200000      38.23300000      31.79100000
 H      31.28400000      39.67400000      32.23100000
 O       6.34100000      21.30000000      30.38400000
 H       6.84500000      20.61300000      29.90300000
 H       6.98100000      21.40700000      31.14000000
 O      35.24400000      34.18200000      27.74800000
 H      34.67300000      34.96100000      27.78600000
 H      35.84000000      34.38400000      28.56300000
 O       8.35700000      21.82900000      35.82000000
 H       8.37100000      21.57100000      36.76700000
 H       9.20500000      22.30600000      35.84200000
 O      37.19300000      38.89900000      32.93600000
 H      37.99100000      38.60300000      33.29700000
 H      36.47200000      38.48700000      33.46200000
 O      18.19900000      38.19100000      39.32600000
 H      18.61000000      38.99900000      39.75200000
 H      17.29300000      38.58200000      39.20100000
 O      31.56800000      24.79200000      35.71000000
 H      31.03500000      24.39100000      36.41000000
 H      32.42600000      24.34500000      35.79900000
 O      34.99200000      25.62400000      37.97600000
 H      35.37900000      24.72700000      37.77000000
 H      34.18500000      25.35400000      38.45300000
 O      23.20500000      37.66500000      28.52600000
 H      22.73100000      37.51600000      29.36400000
 H      24.06300000      37.20600000      28.82300000
 O      13.35700000      27.04500000      35.37700000
 H      12.78500000      27.51800000      36.01000000
 H      13.49300000      27.77300000      34.68800000
 O      25.84600000      30.74100000      28.33500000
 H      25.44800000      30.20000000      27.54500000
 H      25.45900000      31.57700000      28.09100000
 O      29.20800000      40.44200000      30.03500000
 H      30.00200000      39.88600000      30.06200000
 H      29.47700000      41.14500000      30.63400000
 O      40.14800000      39.84700000      32.73700000
 H      39.92900000      40.27300000      33.58700000
 H      40.18800000      40.71100000      32.17600000
 O      17.05300000      35.71500000      29.23800000
 H      17.29000000      35.15300000      29.95400000
 H      16.17100000      36.09100000      29.54700000
 O      38.05300000      25.18500000      29.06300000
 H      38.16500000      24.52100000      28.33300000
 H      38.90200000      25.18700000      29.48200000
 O      33.19900000      32.09200000      27.85900000
 H      34.02100000      32.48900000      27.71300000
 H      33.22800000      31.69700000      28.76500000
 O      30.31700000      23.38100000      40.05600000
 H      30.40200000      22.75000000      40.78300000
 H      30.10700000      24.19000000      40.60800000
 O      21.38400000      31.29400000      40.83700000
 H      20.81600000      32.08400000      40.59900000
 H      22.22500000      31.82900000      41.00400000
 O       7.69000000      22.85000000      33.28200000
 H       7.75400000      22.55500000      34.17900000
 H       8.03800000      22.01000000      32.81900000
 O      39.14400000      36.62600000      39.87100000
 H      39.90800000      36.05200000      39.74100000
 H      39.12400000      36.64000000      40.84300000
 O      24.55500000      24.83700000      37.06800000
 H      23.82100000      24.97300000      37.69900000
 H      24.44900000      23.83000000      36.94900000
 O      14.07400000      30.69100000      27.96100000
 H      14.32200000      31.55300000      27.54700000
 H      14.54000000      30.80700000      28.81900000
 O      20.90700000      23.26100000      30.40500000
 H      20.24400000      23.77100000      30.95800000
 H      21.33900000      22.81800000      31.22000000
 O      19.75900000      35.83900000      30.06200000
 H      19.69200000      34.89200000      30.21100000
 H      18.89000000      35.99200000      29.66300000
 O      18.32900000      24.38300000      39.87700000
 H      18.39300000      24.47000000      40.87300000
 H      17.96800000      25.32400000      39.69800000
 O      21.94700000      33.82500000      38.54000000
 H      21.69200000      32.91400000      38.28900000
 H      21.33700000      33.93600000      39.29700000
 O      16.19800000      28.30900000      28.24900000
 H      15.81900000      27.52800000      28.58300000
 H      15.70900000      28.43900000      27.38100000
 O      28.93700000      38.40300000      35.96400000
 H      27.96100000      38.38900000      36.23400000
 H      28.86200000      38.06400000      35.07000000
 O       7.55200000      36.92200000      31.22400000
 H       7.43000000      37.91100000      31.14600000
 H       7.81700000      36.70600000      30.30600000
 O      17.28800000      26.92800000      39.18100000
 H      17.97100000      27.33800000      38.56300000
 H      16.48300000      27.21300000      38.73400000
 O      17.86100000      40.80500000      29.40800000
 H      17.87600000      41.79500000      29.63100000
 H      17.75600000      40.47400000      30.38700000
 O      21.23100000      32.64600000      33.83200000
 H      20.81300000      33.21700000      34.45500000
 H      20.41000000      32.35000000      33.36400000
 O      23.01400000      31.47100000      30.72000000
 H      22.41300000      30.86100000      31.16400000
 H      23.88200000      31.10800000      30.92600000
 O      28.94400000      33.63200000      38.97500000
 H      29.28100000      33.83200000      38.10000000
 H      29.49300000      34.26300000      39.50000000
 O      20.38000000      31.44100000      37.94700000
 H      20.12300000      30.68100000      38.44600000
 H      19.42100000      31.68800000      37.65300000
 O      18.40100000      25.42900000      29.34200000
 H      19.15300000      25.95400000      28.98500000
 H      18.04700000      25.12400000      28.46400000
 O      35.36400000      29.47000000      36.69500000
 H      35.26600000      29.85600000      35.80400000
 H      35.57800000      28.54400000      36.51800000
 O      35.10400000      40.72100000      27.87000000
 H      35.88300000      40.53900000      28.44500000
 H      34.35600000      40.78000000      28.48400000
 O      12.52100000      27.63500000      31.68100000
 H      13.34400000      28.13600000      31.29400000
 H      12.63700000      27.87400000      32.63800000
 O      35.53100000      26.84800000      35.59600000
 H      35.21500000      26.48600000      36.50600000
 H      34.99000000      26.21200000      35.03800000
 O      32.04300000      26.94000000      29.72900000
 H      32.52100000      26.08900000      29.52800000
 H      32.78800000      27.54500000      29.62800000
 O       7.59900000      36.43300000      28.58700000
 H       7.37900000      35.46100000      28.45400000
 H       6.75300000      36.87700000      28.30300000
 O      35.93900000      37.76700000      36.16400000
 H      36.60000000      37.90800000      36.88500000
 H      35.99800000      36.84500000      36.00500000
 O       9.49800000      30.41100000      29.04600000
 H       9.77000000      31.34600000      29.17800000
 H      10.43200000      30.05400000      29.03000000
 O      10.67300000      21.33300000      40.19700000
 H      10.80800000      22.30000000      40.09900000
 H      11.60100000      20.97700000      39.95400000
 O      28.60600000      26.15800000      33.31000000
 H      27.95600000      26.46200000      33.98700000
 H      29.20300000      26.92000000      33.26500000
 O      27.57000000      40.69800000      33.35500000
 H      27.62900000      39.75100000      33.57700000
 H      26.80200000      40.63900000      32.73900000
 O      31.85800000      23.05800000      28.03100000
 H      32.77100000      23.56200000      28.11400000
 H      31.59600000      23.35900000      28.97100000
 O      38.16600000      35.49400000      32.58600000
 H      38.87400000      34.89200000      32.88600000
 H      38.63000000      36.22300000      32.15700000
 O      15.90600000      31.86900000      34.66900000
 H      16.09900000      31.62000000      35.57900000
 H      15.59200000      32.77400000      34.69900000
 O      12.09500000      36.02300000      27.32000000
 H      11.43400000      35.32200000      26.88400000
 H      11.65600000      36.06000000      28.23000000
 O      38.59300000      27.47700000      35.62800000
 H      37.71500000      27.52200000      35.29400000
 H      38.76100000      26.60400000      35.87700000
 O      32.71300000      21.13900000      37.79900000
 H      32.33800000      20.39200000      38.34000000
 H      32.01600000      21.21700000      37.08900000
 O       7.56500000      33.32800000      33.98500000
 H       6.66300000      33.05200000      34.13400000
 H       7.71200000      33.91500000      34.79400000
 O      33.01000000      24.59900000      39.41200000
 H      32.75700000      25.08600000      40.17900000
 H      32.38700000      23.84300000      39.39600000
 O      19.49600000      28.61400000      35.50800000
 H      19.61800000      27.89300000      34.82600000
 H      19.42900000      29.40000000      34.91100000
 O      10.96400000      28.39900000      39.36100000
 H      11.47600000      28.77100000      38.63700000
 H      10.33900000      29.13000000      39.48900000
 O      33.75500000      23.07000000      36.00600000
 H      33.93300000      22.39400000      35.32700000
 H      33.45200000      22.51500000      36.74200000
 O      22.51200000      39.29300000      39.17800000
 H      23.39000000      39.48100000      38.78600000
 H      22.68500000      38.45500000      39.72500000
 O       8.02900000      35.58400000      36.06900000
 H       8.36400000      35.75100000      36.99000000
 H       7.39200000      36.30900000      35.97300000
 O      18.11100000      40.39600000      32.01700000
 H      18.12000000      41.35600000      32.36100000
 H      18.49500000      39.98300000      32.84400000
 O      12.79400000      33.57400000      33.27900000
 H      12.54300000      32.73700000      32.89500000
 H      12.21300000      33.58300000      34.10800000
 O      34.66600000      39.40400000      34.44400000
 H      34.34500000      38.67300000      33.89600000
 H      34.85400000      38.86300000      35.31100000
 O      36.14600000      27.03300000      32.30800000
 H      36.55400000      26.12600000      32.28800000
 H      35.77800000      26.95400000      33.27000000
 O      26.41200000      22.34900000      38.19000000
 H      26.98300000      23.13000000      38.22700000
 H      25.59100000      22.64400000      37.74100000
 O      35.33700000      32.95300000      31.07800000
 H      34.71900000      32.40400000      30.58900000
 H      36.05000000      32.20500000      31.22200000
 O      36.82000000      20.95600000      34.16000000
 H      37.67500000      20.57000000      34.47800000
 H      37.10900000      21.89100000      34.26000000
 O      13.86300000      37.39000000      34.76900000
 H      13.24900000      37.78800000      34.07800000
 H      14.18100000      38.25100000      35.10900000
 O      23.83000000      36.06600000      33.56300000
 H      24.65000000      36.18400000      33.13200000
 H      23.52100000      35.19500000      33.34000000
 O       7.45800000      25.57300000      38.69000000
 H       7.63800000      26.02400000      39.54200000
 H       6.98900000      26.35400000      38.26100000
 O      28.48300000      37.77700000      33.47600000
 H      27.92400000      37.06100000      33.08300000
 H      29.29600000      37.45000000      33.15600000
 O      21.89700000      39.35500000      34.83000000
 H      22.45900000      38.82300000      35.47100000
 H      22.43000000      39.12500000      33.99000000
 O      31.46300000      27.60500000      40.04700000
 H      31.45200000      28.59200000      40.23300000
 H      32.16900000      27.42800000      40.76600000
 O       8.59200000      28.16900000      36.81100000
 H       8.27400000      27.90800000      35.89900000
 H       7.80900000      28.60800000      37.13400000
 O      32.30100000      35.55700000      36.66500000
 H      32.70700000      36.12300000      36.00700000
 H      32.21500000      36.18600000      37.43300000
 O      39.86000000      24.48000000      34.49500000
 H      39.48300000      23.63800000      34.77800000
 H      39.90100000      24.26300000      33.50300000
 O      15.50400000      38.94200000      31.77800000
 H      15.55300000      38.02800000      31.33000000
 H      16.48000000      39.03600000      32.01200000
 O      34.88900000      33.27200000      39.89200000
 H      35.07700000      32.98500000      38.97400000
 H      34.50000000      32.43400000      40.27200000
 O      22.06500000      23.57900000      33.11500000
 H      22.42100000      24.45400000      32.79300000
 H      22.86400000      23.16900000      33.46200000
 O      24.05500000      34.71800000      29.60900000
 H      24.73600000      35.42500000      29.88200000
 H      23.67300000      34.47600000      30.47600000
 O      24.52200000      22.87900000      33.93900000
 H      24.48700000      23.81200000      34.17800000
 H      25.34900000      22.59000000      34.26700000
 O      16.02300000      26.10500000      35.87000000
 H      15.19000000      25.99500000      35.46200000
 H      15.83300000      26.73800000      36.59300000
 O      11.45200000      38.77100000      38.85900000
 H      11.53600000      38.61500000      39.81500000
 H      12.16000000      38.10900000      38.52900000
 O      10.61900000      25.90700000      40.39300000
 H      11.27700000      26.02100000      41.09900000
 H      10.76000000      26.83000000      39.99600000
 O      33.91200000      20.91000000      34.19600000
 H      33.92000000      19.99300000      34.48700000
 H      34.87900000      20.99300000      33.95100000
 O      25.39500000      31.17700000      33.58400000
 H      25.39900000      31.23100000      32.63000000
 H      24.71600000      31.83100000      33.81200000
 O      11.31500000      21.18200000      31.38600000
 H      12.10000000      21.40700000      30.83000000
 H      11.35400000      21.98400000      32.01900000
 O       9.71500000      28.76600000      33.43200000
 H      10.25700000      28.43800000      32.73600000
 H       9.10000000      28.07500000      33.65700000
 O      34.97900000      22.58700000      38.96200000
 H      34.70700000      22.82500000      39.86200000
 H      34.24600000      22.08200000      38.60500000
 O      13.66700000      29.85700000      38.23700000
 H      14.42800000      30.37700000      37.83800000
 H      13.02000000      29.96600000      37.53000000
 O      14.12000000      40.25900000      40.23600000
 H      14.16600000      40.22100000      41.21000000
 H      14.34400000      41.19900000      40.05900000
 O      10.45600000      40.79200000      30.24600000
 H      10.08000000      41.13100000      29.43100000
 H       9.64900000      40.88100000      30.82100000
 O      37.63900000      32.71900000      36.63200000
 H      36.76400000      32.51400000      37.10700000
 H      37.97300000      33.38500000      37.30000000
 O      14.16300000      23.95800000      30.39600000
 H      13.46900000      24.15600000      31.01900000
 H      13.93200000      23.01900000      30.11800000
 O      31.07700000      27.51300000      35.95900000
 H      31.42000000      26.57800000      36.03600000
 H      30.47300000      27.64200000      36.71500000
 O      40.05800000      32.44200000      35.14400000
 H      40.19400000      33.40900000      35.24400000
 H      39.22700000      32.33000000      35.62100000
 O      20.18100000      24.04200000      38.20900000
 H      19.52000000      24.17700000      38.91100000
 H      19.75000000      24.55900000      37.50400000
 O      14.66100000      33.88100000      36.72100000
 H      14.40500000      34.64100000      36.16200000
 H      13.80000000      33.39300000      36.69700000
 O      30.51800000      21.21200000      33.98700000
 H      29.86500000      21.89800000      33.69200000
 H      31.18300000      21.37200000      33.26700000
 O      25.55300000      20.49700000      28.98800000
 H      25.07100000      20.69900000      29.86900000
 H      25.26200000      21.35300000      28.55200000
 O      17.31300000      31.32000000      29.50600000
 H      17.14900000      31.23700000      28.53800000
 H      17.79700000      30.45700000      29.64100000
 O      26.09000000      27.12900000      29.20500000
 H      26.46000000      27.62900000      29.95800000
 H      26.36600000      27.68300000      28.45500000
 O      39.04000000      22.80500000      32.38300000
 H      39.22100000      21.93600000      32.80000000
 H      39.27600000      22.51200000      31.44000000
 O      21.10600000      21.70200000      37.23100000
 H      21.78600000      21.57600000      37.96900000
 H      20.58800000      22.44700000      37.55700000
 O      11.92400000      29.55100000      28.90300000
 H      12.37900000      28.67000000      28.71300000
 H      12.58600000      30.08700000      28.32800000
 O      29.50600000      31.42100000      34.21600000
 H      29.46500000      31.52000000      35.20800000
 H      30.46300000      31.19300000      34.11400000
 O      35.48400000      25.89100000      29.65000000
 H      35.77000000      26.64600000      30.27800000
 H      36.37500000      25.52400000      29.53800000
