915
XYZ file of cluster: frame_6000_72b84.9afed.23ce7 - created by MolEdiTo
 O      29.01300000      38.39900000      25.47700000
 H      28.10900000      38.31900000      25.80400000
 H      28.91300000      38.65900000      24.55200000
 O      22.55300000      30.68200000      16.72300000
 H      22.75200000      29.74100000      16.56800000
 H      22.44700000      30.70200000      17.70300000
 O      20.83000000      32.16500000      21.41800000
 H      20.37400000      31.99500000      22.27200000
 H      20.42100000      33.08800000      21.28000000
 O      25.07700000      28.48000000      26.63800000
 H      24.99700000      27.53800000      26.71400000
 H      25.39900000      28.63200000      25.75600000
 O      27.31100000      28.64500000      31.34000000
 H      28.28100000      28.54500000      31.23200000
 H      27.31600000      28.89200000      32.28900000
 O      35.15900000      28.94000000      21.79700000
 H      34.56600000      28.74800000      22.55200000
 H      34.79400000      28.35500000      21.11500000
 O      25.63800000      36.70000000      30.28900000
 H      26.41500000      36.29600000      30.78900000
 H      26.09400000      37.51500000      29.85400000
 O      37.99200000      33.98600000       7.88200000
 H      38.94600000      33.96500000       7.96300000
 H      37.75400000      33.05500000       8.20500000
 O      25.44300000      29.21500000      15.12100000
 H      24.57700000      29.02000000      14.76800000
 H      25.96800000      29.30800000      14.28900000
 O      35.19300000      31.11300000       6.75400000
 H      35.73700000      31.27500000       7.47400000
 H      35.75500000      30.59900000       6.11000000
 O      24.06800000      35.67400000      37.79800000
 H      23.29100000      35.25500000      38.08900000
 H      24.78000000      35.02500000      37.99900000
 O      35.73500000      40.58600000      22.91800000
 H      36.28000000      39.94900000      22.48000000
 H      35.98300000      40.40000000      23.83100000
 O      28.93700000      38.40300000      35.96400000
 H      27.96100000      38.38900000      36.23400000
 H      28.86200000      38.06400000      35.07000000
 O      24.57600000      40.15200000      14.83300000
 H      24.28100000      39.60900000      15.57100000
 H      25.49300000      40.40000000      15.11700000
 O      22.44200000      35.16000000      22.62800000
 H      21.75200000      34.97100000      22.05300000
 H      22.32300000      36.08900000      22.84200000
 O      22.78000000      30.84000000      36.80600000
 H      22.35100000      29.91600000      36.78300000
 H      22.00400000      31.25900000      37.32200000
 O      38.43600000      34.13400000      38.98900000
 H      38.52700000      35.05400000      39.33100000
 H      38.13800000      33.70800000      39.85200000
 O      35.01400000      37.34300000      23.90900000
 H      35.67200000      36.64000000      23.94900000
 H      35.39400000      38.06900000      24.49800000
 O      40.13300000      30.53200000      33.46500000
 H      40.25800000      31.38900000      34.03000000
 H      40.59000000      30.91700000      32.65700000
 O      39.68800000      29.74800000      38.29800000
 H      39.03200000      29.89200000      37.63300000
 H      39.04000000      29.47300000      39.06900000
 O      35.63700000      28.69600000      18.54200000
 H      35.22100000      29.35900000      17.96000000
 H      34.90900000      28.44800000      19.12100000
 O      34.84000000      28.73200000      26.37500000
 H      34.41500000      27.99500000      25.97400000
 H      35.80200000      28.66700000      25.99800000
 O      22.12900000      29.51600000      24.23800000
 H      22.12200000      30.02100000      25.07600000
 H      22.20700000      28.58700000      24.48400000
 O      25.55900000      30.62700000      37.13900000
 H      25.53100000      29.63500000      37.28000000
 H      24.59400000      30.81700000      37.24400000
 O      25.66200000      27.96000000      37.90600000
 H      25.39700000      27.04900000      37.76600000
 H      26.06100000      27.88600000      38.79500000
 O      27.65500000      29.63600000      33.86900000
 H      26.83900000      30.23000000      33.76400000
 H      28.35300000      30.33400000      33.90400000
 O      29.56500000      40.43200000      16.69300000
 H      30.52700000      40.27600000      16.62100000
 H      29.40400000      40.35300000      17.61200000
 O      21.23100000      32.64600000      33.83200000
 H      20.81300000      33.21700000      34.45500000
 H      20.41000000      32.35000000      33.36400000
 O      40.07500000      38.79100000      28.14700000
 H      39.71900000      39.69300000      28.29100000
 H      39.78500000      38.60600000      27.25400000
 O      23.01400000      31.47100000      30.72000000
 H      22.41300000      30.86100000      31.16400000
 H      23.88200000      31.10800000      30.92600000
 O      31.49000000      28.70300000      10.95900000
 H      32.03400000      29.50400000      10.99900000
 H      31.52400000      28.31100000      11.83700000
 O      35.53400000      34.84000000      33.02000000
 H      36.49900000      35.10300000      32.76400000
 H      35.36300000      34.15000000      32.33000000
 O      21.69600000      28.21700000      37.02600000
 H      21.45800000      28.06600000      37.92200000
 H      20.80000000      28.15000000      36.56400000
 O      23.66200000      36.03900000      10.44100000
 H      24.37300000      36.75200000      10.54800000
 H      23.89900000      35.47700000      11.23300000
 O      28.94400000      33.63200000      38.97500000
 H      29.28100000      33.83200000      38.10000000
 H      29.49300000      34.26300000      39.50000000
 O      25.02300000      31.08900000       9.80200000
 H      24.54400000      31.88100000       9.56300000
 H      24.67200000      31.03300000      10.72100000
 O      37.40300000      28.91900000      28.34600000
 H      36.38700000      28.90600000      28.34900000
 H      37.59600000      28.92900000      29.29100000
 O      35.27500000      37.88700000      14.12400000
 H      34.90500000      37.04700000      14.50200000
 H      36.07300000      38.02600000      14.65400000
 O      39.50900000      27.85200000      27.08300000
 H      40.05400000      28.70000000      27.37600000
 H      38.69800000      28.12700000      27.51900000
 O      27.16100000      27.42500000      35.30300000
 H      27.11100000      27.87800000      36.11100000
 H      27.52100000      28.17400000      34.75100000
 O      35.36400000      29.47000000      36.69500000
 H      35.26600000      29.85600000      35.80400000
 H      35.57800000      28.54400000      36.51800000
 O      25.69600000      29.00600000      23.96300000
 H      26.54700000      28.98000000      23.45900000
 H      25.36300000      29.85100000      23.68400000
 O      35.10400000      40.72100000      27.87000000
 H      35.88300000      40.53900000      28.44500000
 H      34.35600000      40.78000000      28.48400000
 O      25.97100000      34.00400000      39.77100000
 H      26.05500000      33.51600000      38.91400000
 H      26.55800000      34.77500000      39.62800000
 O      36.35900000      34.94900000      10.00100000
 H      36.84700000      34.82700000       9.15600000
 H      35.46600000      35.08000000       9.76500000
 O      27.78100000      33.05100000      24.34500000
 H      27.30900000      33.91400000      24.24000000
 H      27.19600000      32.58700000      23.71000000
 O      39.23900000      32.75100000      15.88100000
 H      38.95800000      33.20000000      15.09500000
 H      38.40500000      32.70700000      16.37100000
 O      31.31000000      37.32500000      18.78000000
 H      31.69000000      36.90600000      17.98500000
 H      31.57100000      38.28100000      18.62500000
 O      30.80800000      29.51400000      18.58900000
 H      31.34600000      29.53800000      19.40900000
 H      29.90600000      29.36200000      18.99300000
 O      30.29600000      31.40200000      37.08300000
 H      29.49000000      31.22500000      37.57400000
 H      30.93400000      30.82500000      37.58000000
 O      35.93900000      37.76700000      36.16400000
 H      36.60000000      37.90800000      36.88500000
 H      35.99800000      36.84500000      36.00500000
 O      32.23300000      33.08100000      22.92700000
 H      31.54800000      32.95000000      23.63200000
 H      32.91400000      32.41000000      23.25800000
 O      28.67400000      34.66600000      11.54900000
 H      28.22900000      35.44900000      11.29400000
 H      29.37100000      34.56700000      10.87300000
 O      27.05800000      35.83400000      23.60700000
 H      26.18400000      36.12000000      24.05700000
 H      27.25200000      36.73800000      23.20100000
 O      40.28100000      36.70900000      19.04600000
 H      39.52000000      37.32900000      19.09100000
 H      40.44900000      36.52400000      20.00600000
 O      29.62400000      31.40000000       7.84600000
 H      29.90400000      30.76500000       7.17800000
 H      30.21200000      32.14500000       7.59300000
 O      27.00900000      38.75300000      29.40900000
 H      27.31900000      38.54800000      28.52500000
 H      27.87800000      39.19400000      29.76600000
 O      38.93600000      37.73500000      30.54500000
 H      39.07800000      38.43700000      29.88000000
 H      39.88200000      37.59900000      30.82100000
 O      28.78700000      35.69800000      27.04700000
 H      29.31900000      36.03700000      27.74100000
 H      28.36300000      36.52600000      26.74500000
 O      23.71800000      33.30000000      15.39700000
 H      23.11000000      33.98700000      15.63400000
 H      23.29700000      32.49200000      15.74600000
 O      31.77000000      30.18400000      39.88900000
 H      32.24300000      29.81600000      39.06500000
 H      32.57800000      30.62500000      40.23100000
 O      40.36900000      35.41100000      15.94900000
 H      40.18200000      34.49000000      16.17900000
 H      40.21700000      35.84100000      16.85600000
 O      34.11300000      28.64000000      31.40000000
 H      34.82100000      28.09500000      31.84100000
 H      33.36700000      28.40400000      32.01200000
 O      32.65400000      35.48800000      17.03900000
 H      32.08200000      35.34300000      16.27600000
 H      32.37300000      34.74600000      17.60500000
 O      25.71500000      40.57700000      31.24000000
 H      25.49000000      41.37600000      30.75600000
 H      26.03200000      39.96500000      30.53500000
 O      26.35600000      34.26700000       8.59900000
 H      26.47300000      34.24300000       9.57900000
 H      26.79500000      35.14300000       8.41400000
 O      27.57000000      40.69800000      33.35500000
 H      27.62900000      39.75100000      33.57700000
 H      26.80200000      40.63900000      32.73900000
 O      20.81000000      34.41000000       8.54400000
 H      21.15800000      34.23400000       9.45600000
 H      19.86700000      34.49000000       8.77500000
 O      39.94200000      38.10000000      36.15400000
 H      40.14700000      38.29100000      37.14700000
 H      40.06700000      38.98900000      35.82100000
 O      21.48300000      38.62800000      19.96700000
 H      21.69400000      38.30800000      20.90500000
 H      20.76400000      38.05000000      19.66900000
 O      21.49600000      32.76400000      25.47900000
 H      22.33100000      33.00200000      24.98600000
 H      21.39900000      33.54600000      26.13000000
 O      23.97100000      33.75200000      24.46700000
 H      23.56700000      34.20600000      23.67400000
 H      24.60500000      33.18300000      24.08500000
 O      40.53700000      28.35000000      19.92600000
 H      40.86500000      29.02500000      20.51700000
 H      40.13200000      27.70500000      20.52700000
 O      36.07200000      37.68900000      30.63900000
 H      36.55600000      38.09500000      31.37300000
 H      36.53500000      38.12200000      29.91800000
 O      27.46200000      36.82800000       7.47100000
 H      26.87600000      37.55900000       7.79200000
 H      27.56600000      37.12400000       6.54900000
 O      38.27000000      38.86100000       8.51700000
 H      37.91400000      38.44200000       9.35000000
 H      38.63800000      38.07100000       8.11400000
 O      38.16600000      35.49400000      32.58600000
 H      38.87400000      34.89200000      32.88600000
 H      38.63000000      36.22300000      32.15700000
 O      23.54100000      32.95200000      35.21500000
 H      22.66600000      33.08600000      34.81900000
 H      23.37200000      32.13700000      35.78400000
 O      27.20500000      37.15800000      10.75300000
 H      26.95200000      37.95200000      10.30600000
 H      26.63900000      37.22700000      11.56400000
 O      32.50900000      32.90400000      18.30500000
 H      32.33300000      31.97700000      17.99400000
 H      32.05100000      32.82600000      19.19700000
 O      27.74100000      40.61200000      23.09000000
 H      27.46600000      41.29000000      22.39600000
 H      28.21800000      41.29800000      23.66400000
 O      31.50000000      27.82300000      16.28300000
 H      30.73900000      27.25300000      16.31200000
 H      31.32000000      28.35100000      17.11800000
 O      21.24900000      38.58300000      10.43800000
 H      20.93300000      39.20300000      11.09900000
 H      22.21700000      38.74400000      10.47400000
 O      40.29000000      37.37700000      11.09400000
 H      39.61200000      37.24800000      10.44700000
 H      39.88600000      36.91200000      11.84200000
 O      20.83200000      32.66000000      28.91800000
 H      20.81500000      32.01500000      28.16500000
 H      21.68900000      32.46800000      29.29500000
 O      25.69200000      35.20300000      15.93600000
 H      24.90400000      34.58800000      16.02400000
 H      26.09200000      34.80800000      15.08700000
 O      38.25800000      29.20900000      40.49100000
 H      37.39200000      28.63300000      40.54800000
 H      38.82000000      28.72100000      41.15000000
 O      32.32500000      38.01600000      15.03000000
 H      33.14500000      38.35700000      14.61400000
 H      31.72900000      38.68800000      14.63100000
 O      32.05900000      34.65400000      28.02800000
 H      32.29200000      34.87200000      27.11100000
 H      32.48800000      33.80800000      28.15500000
 O      32.02000000      37.70400000      38.24400000
 H      31.82000000      38.64500000      37.98500000
 H      32.76700000      37.89400000      38.85900000
 O      27.31600000      28.88200000       6.75400000
 H      26.43100000      29.31200000       6.55400000
 H      27.45400000      29.33500000       7.62100000
 O      36.44500000      33.23000000      25.37700000
 H      35.72200000      32.73000000      24.99800000
 H      36.05200000      33.50900000      26.20900000
 O      31.30000000      29.32100000      24.81600000
 H      30.73800000      30.10200000      24.79500000
 H      31.68700000      29.41100000      25.73200000
 O      37.11700000      35.77200000      15.61400000
 H      36.95400000      34.91600000      16.04600000
 H      36.48900000      36.33400000      16.16500000
 O      30.97000000      36.69500000      32.63900000
 H      30.90400000      36.03800000      33.38300000
 H      30.96900000      36.13900000      31.85000000
 O      35.95900000      36.05100000      39.37500000
 H      36.22400000      35.69900000      40.26900000
 H      36.27900000      35.35600000      38.81700000
 O      33.20800000      32.84600000       8.21700000
 H      32.44000000      33.10400000       7.64100000
 H      33.80800000      32.44900000       7.61700000
 O      22.48000000      31.28100000      19.41600000
 H      21.77700000      31.41800000      20.06900000
 H      22.82800000      32.25600000      19.38300000
 O      39.59900000      35.53200000      35.39000000
 H      38.60100000      35.62100000      35.47200000
 H      39.86900000      36.40900000      35.79800000
 O      31.06000000      40.61400000       9.33900000
 H      31.38900000      40.04700000      10.12700000
 H      31.25800000      39.95600000       8.63700000
 O      28.78100000      28.01000000      10.62700000
 H      28.25200000      28.64400000      10.06600000
 H      29.68400000      28.44200000      10.60800000
 O      22.51200000      39.29300000      39.17800000
 H      23.39000000      39.48100000      38.78600000
 H      22.68500000      38.45500000      39.72500000
 O      21.99300000      34.65700000      27.66500000
 H      22.46100000      35.17800000      28.32500000
 H      21.42300000      34.06900000      28.20600000
 O      34.78600000      38.90700000       9.02900000
 H      34.72200000      39.96700000       8.98300000
 H      35.09100000      38.92900000       9.96300000
 O      33.00400000      34.91000000       9.92900000
 H      33.24300000      34.06500000       9.45700000
 H      33.42700000      35.54800000       9.33200000
 O      33.66800000      31.53200000      25.34600000
 H      33.82100000      30.58700000      25.39100000
 H      33.13400000      31.65000000      26.17200000
 O      21.24100000      34.89900000      11.45600000
 H      22.01400000      35.51500000      11.50300000
 H      20.48100000      35.48400000      11.56000000
 O      31.95200000      38.66900000      28.53700000
 H      32.43000000      39.48300000      28.93900000
 H      32.50800000      37.99900000      29.04300000
 O      28.83000000      40.28800000      19.42800000
 H      27.95500000      40.04600000      19.69200000
 H      29.39800000      39.91300000      20.11000000
 O      32.76900000      35.60800000      25.43400000
 H      33.31100000      36.07000000      24.77400000
 H      31.90900000      35.50100000      25.00400000
 O      35.32100000      32.04700000      37.60300000
 H      35.39700000      31.09200000      37.42400000
 H      34.45800000      32.23700000      37.12300000
 O      21.88900000      37.37900000      30.60300000
 H      21.34900000      38.14400000      30.32000000
 H      21.17800000      36.69300000      30.46900000
 O      34.58300000      28.69800000      13.50700000
 H      34.97400000      29.57000000      13.61100000
 H      35.31600000      28.13300000      13.17300000
 O      22.98200000      32.13000000      11.40900000
 H      22.05300000      32.50000000      11.32500000
 H      23.37200000      32.98600000      11.77800000
 O      27.56800000      30.07600000       9.38700000
 H      28.22500000      30.78800000       9.25400000
 H      26.74500000      30.59700000       9.50600000
 O      39.41400000      37.20400000      23.97000000
 H      39.96000000      36.56500000      24.45700000
 H      38.53000000      36.69500000      24.12100000
 O      32.65900000      31.32200000      14.32000000
 H      31.93000000      31.01500000      13.73900000
 H      32.15800000      31.77200000      15.01300000
 O      33.00700000      35.36400000      21.47500000
 H      32.46200000      35.51400000      20.74500000
 H      32.54000000      34.62500000      21.97600000
 O      26.61400000      38.25300000      26.54100000
 H      26.11000000      37.52700000      26.05800000
 H      26.02100000      39.02000000      26.32800000
 O      37.20900000      40.47500000      29.38500000
 H      37.06900000      40.75800000      30.28300000
 H      38.14500000      40.88900000      29.22300000
 O      32.07500000      38.78300000      11.48000000
 H      32.07800000      37.77700000      11.63000000
 H      33.04000000      38.91400000      11.50600000
 O      40.26000000      27.06400000      17.24300000
 H      40.50600000      26.53400000      18.05300000
 H      40.34400000      27.95000000      17.63400000
 O      39.66800000      36.66800000       7.93100000
 H      40.11300000      35.75100000       8.01300000
 H      40.41300000      37.11000000       7.50200000
 O      40.14300000      39.96700000      14.91900000
 H      39.66700000      40.16000000      15.67600000
 H      39.47000000      39.91400000      14.19100000
 O      32.60200000      29.17700000      37.59000000
 H      32.23000000      28.64000000      36.85800000
 H      33.49100000      29.30500000      37.33400000
 O      25.00800000      36.29700000      25.41800000
 H      24.14400000      36.72400000      25.61700000
 H      24.69000000      35.33900000      25.56200000
 O      37.10100000      30.06700000      20.25900000
 H      36.85100000      29.41900000      19.56200000
 H      36.35100000      29.87600000      20.90100000
 O      21.63000000      29.87500000      32.52700000
 H      22.19100000      29.03600000      32.33700000
 H      21.87000000      30.04600000      33.44300000
 O      22.52400000      37.80500000      13.32500000
 H      21.61800000      37.37700000      13.33800000
 H      22.60600000      38.05900000      14.21100000
 O      22.10000000      37.98100000      22.39000000
 H      21.78000000      38.80200000      22.85100000
 H      23.01100000      38.29200000      22.12300000
 O      27.02600000      33.98800000      13.82600000
 H      27.61800000      33.66400000      14.59700000
 H      27.72600000      34.17100000      13.14700000
 O      23.51000000      39.71300000      18.45200000
 H      23.59900000      40.67700000      18.37900000
 H      22.76000000      39.63300000      19.03900000
 O      23.85100000      36.86700000      40.64100000
 H      24.16600000      36.22900000      39.97700000
 H      24.67200000      37.15400000      41.13700000
 O      21.14700000      28.02400000      18.99200000
 H      20.71900000      28.35300000      19.81100000
 H      22.03700000      27.74600000      19.43200000
 O      25.54300000      30.69600000      30.98800000
 H      26.23500000      29.98700000      31.02400000
 H      25.66400000      30.89100000      30.02000000
 O      21.21100000      30.39800000      26.84000000
 H      20.26700000      30.21200000      26.57000000
 H      21.34100000      31.21000000      26.27700000
 O      32.91700000      31.14900000      10.32100000
 H      32.73200000      31.58900000       9.48400000
 H      32.32500000      31.65400000      10.88000000
 O      22.82200000      40.61500000      27.74400000
 H      22.52200000      39.67900000      27.79500000
 H      23.77900000      40.38200000      27.52000000
 O      30.78600000      34.69800000      34.44500000
 H      30.04700000      34.11000000      34.64800000
 H      31.00800000      35.12200000      35.27100000
 O      26.40700000      40.03000000      10.75900000
 H      27.07700000      40.60500000      10.26900000
 H      26.91100000      39.90700000      11.61700000
 O      40.59700000      32.15500000      39.33300000
 H      40.10900000      31.28400000      39.11800000
 H      39.81700000      32.77200000      39.21800000
 O      21.16200000      34.65100000      19.20400000
 H      20.84300000      34.81400000      20.09400000
 H      22.10400000      34.39200000      19.36600000
 O      34.66600000      39.40400000      34.44400000
 H      34.34500000      38.67300000      33.89600000
 H      34.85400000      38.86300000      35.31100000
 O      37.65200000      28.98300000       8.23700000
 H      38.52000000      28.64400000       8.56600000
 H      37.44100000      28.32200000       7.52800000
 O      40.40900000      28.93900000       7.77800000
 H      41.21600000      29.49600000       7.94300000
 H      40.87300000      28.03100000       7.86100000
 O      32.62300000      36.10900000      12.19600000
 H      33.11900000      35.72200000      12.98100000
 H      33.01700000      35.58400000      11.45300000
 O      27.81600000      30.91400000      38.90200000
 H      26.99400000      30.83700000      38.47100000
 H      27.97400000      31.90500000      38.89300000
 O      22.85900000      28.23900000      15.35600000
 H      21.97700000      27.98800000      15.73200000
 H      22.85800000      27.73300000      14.55400000
 O      31.24800000      40.35100000      26.31200000
 H      30.28700000      40.15300000      26.22400000
 H      31.54000000      39.63200000      26.95300000
 O      33.42400000      36.86400000      30.39200000
 H      34.23800000      37.36200000      30.49900000
 H      33.74800000      35.94100000      30.47500000
 O      39.28600000      32.88600000      31.24500000
 H      39.91500000      32.43300000      30.62400000
 H      39.88600000      33.38500000      31.80200000
 O      38.12800000      39.33300000      13.11400000
 H      37.48900000      39.72200000      12.45500000
 H      38.13100000      38.42000000      12.87100000
 O      30.09500000      34.96800000      24.72400000
 H      29.32600000      34.93400000      24.15600000
 H      29.59900000      35.17300000      25.59700000
 O      35.47000000      31.43700000      14.67700000
 H      34.60000000      31.58500000      14.29400000
 H      35.57200000      32.17400000      15.27200000
 O      20.72100000      37.56700000       8.02900000
 H      21.07500000      37.80500000       8.90500000
 H      20.76500000      36.63000000       8.02000000
 O      27.84600000      37.98300000      22.10400000
 H      28.80900000      37.86600000      21.95200000
 H      27.79200000      38.93400000      22.29000000
 O      38.29300000      35.42100000      27.34100000
 H      37.90400000      35.55600000      28.23400000
 H      39.20600000      35.24000000      27.54400000
 O      24.94700000      37.54700000      12.57400000
 H      25.19000000      37.55900000      13.51300000
 H      23.97500000      37.60200000      12.68000000
 O      31.41400000      29.12400000      21.26200000
 H      31.81700000      29.21100000      22.10600000
 H      30.74900000      28.45200000      21.39900000
 O      34.92600000      36.84500000      17.04600000
 H      33.96400000      36.55800000      16.96800000
 H      34.82300000      37.47400000      17.80000000
 O      32.52100000      31.01100000      34.15900000
 H      33.42100000      30.92600000      33.78900000
 H      32.61000000      31.68600000      34.82200000
 O      26.19500000      28.99700000      12.64000000
 H      26.98900000      29.11000000      12.10500000
 H      25.46700000      28.99300000      11.96000000
 O      26.24400000      33.83300000      18.51200000
 H      26.29000000      34.41100000      17.73200000
 H      26.14400000      32.91900000      18.18800000
 O      35.33700000      32.95300000      31.07800000
 H      34.71900000      32.40400000      30.58900000
 H      36.05000000      32.20500000      31.22200000
 O      28.02600000      35.58500000      31.33200000
 H      28.89400000      35.51600000      30.93400000
 H      27.80900000      34.64300000      31.47900000
 O      30.18500000      35.95300000      39.69900000
 H      31.04300000      36.26000000      39.30500000
 H      30.18700000      36.58100000      40.48800000
 O      23.64000000      30.91800000      22.56300000
 H      22.69600000      31.04500000      22.29600000
 H      23.45500000      30.21900000      23.23600000
 O      30.71100000      30.79400000      30.74700000
 H      30.38300000      29.87500000      30.89300000
 H      29.91900000      31.14100000      30.24500000
 O      35.23600000      30.51200000      33.80000000
 H      34.93500000      30.02700000      33.05900000
 H      35.99900000      30.98700000      33.38500000
 O      22.09000000      29.53800000      11.90400000
 H      22.38200000      30.38200000      11.58100000
 H      21.53100000      29.76300000      12.66000000
 O      23.97200000      28.78900000       8.62300000
 H      24.45300000      29.67500000       8.69900000
 H      23.65100000      28.91300000       7.71500000
 O      37.26600000      28.65900000      25.17800000
 H      37.10700000      27.69900000      25.13200000
 H      38.22600000      28.64800000      25.38800000
 O      38.60100000      33.20900000      13.26800000
 H      37.58500000      33.28800000      13.28600000
 H      38.63500000      32.31100000      12.78400000
 O      37.62300000      38.14700000      38.40900000
 H      36.77400000      37.74400000      38.70500000
 H      38.20500000      37.59400000      38.95600000
 O      23.83000000      36.06600000      33.56300000
 H      24.65000000      36.18400000      33.13200000
 H      23.52100000      35.19500000      33.34000000
 O      37.19200000      31.31800000      31.98600000
 H      37.93600000      31.94600000      31.97900000
 H      37.68900000      30.50600000      31.81800000
 O      32.73100000      32.82500000      36.66200000
 H      32.42800000      33.81500000      36.56300000
 H      31.79500000      32.45900000      36.72300000
 O      34.84300000      33.63400000      16.33800000
 H      35.07000000      34.07900000      17.19800000
 H      33.89100000      33.85300000      16.30900000
 O      35.59200000      30.83500000      10.66100000
 H      34.62500000      31.07400000      10.71700000
 H      35.58500000      30.03800000      10.18000000
 O      34.74100000      39.03100000      11.61800000
 H      34.86200000      38.47500000      12.40200000
 H      35.50100000      39.67700000      11.64900000
 O      35.21500000      28.49200000       9.27000000
 H      36.15800000      28.64900000       9.14200000
 H      35.30800000      27.75500000       9.98800000
 O      34.48400000      34.91800000      13.78700000
 H      35.03700000      34.34900000      13.22700000
 H      34.53900000      34.54700000      14.69100000
 O      28.15800000      32.70200000      31.76900000
 H      28.80700000      32.12600000      32.21700000
 H      28.21900000      32.39200000      30.83800000
 O      28.48300000      37.77700000      33.47600000
 H      27.92400000      37.06100000      33.08300000
 H      29.29600000      37.45000000      33.15600000
 O      27.66400000      28.34600000      39.95300000
 H      27.61100000      29.25100000      39.52800000
 H      26.79600000      28.31200000      40.42300000
 O      23.08900000      39.20500000      32.23800000
 H      22.90700000      38.36200000      31.73500000
 H      23.97800000      39.48100000      31.98600000
 O      37.53500000      32.11100000      18.28600000
 H      37.02100000      31.51500000      18.81600000
 H      38.04700000      32.64600000      18.91300000
 O      32.08100000      27.90100000      13.53700000
 H      33.02100000      28.29100000      13.62700000
 H      31.88300000      27.80000000      14.49600000
 O      33.43400000      30.95300000      30.40100000
 H      32.48400000      30.91200000      30.68400000
 H      33.69000000      30.11300000      30.84100000
 O      30.34500000      34.79700000       9.53100000
 H      31.30200000      34.94400000       9.70300000
 H      30.40900000      34.45800000       8.60000000
 O      24.69000000      32.88600000      27.26600000
 H      24.58700000      33.24600000      26.37100000
 H      24.23800000      33.49600000      27.82600000
 O      21.89700000      39.35500000      34.83000000
 H      22.45900000      38.82300000      35.47100000
 H      22.43000000      39.12500000      33.99000000
 O      29.35900000      34.00900000      16.42200000
 H      29.97200000      34.61600000      15.88100000
 H      29.03700000      34.68700000      17.05100000
 O      28.51300000      33.47500000      35.38400000
 H      27.66800000      33.42900000      35.89500000
 H      28.34600000      32.90100000      34.62200000
 O      25.91800000      39.11700000      19.71200000
 H      26.36100000      38.45100000      19.10400000
 H      25.03900000      39.13000000      19.35800000
 O      31.41200000      39.15100000      31.46800000
 H      31.30200000      38.23300000      31.79100000
 H      31.28400000      39.67400000      32.23100000
 O      28.45800000      33.08200000      27.31600000
 H      28.04500000      33.01100000      26.45100000
 H      28.43000000      34.07200000      27.37600000
 O      35.24400000      34.18200000      27.74800000
 H      34.67300000      34.96100000      27.78600000
 H      35.84000000      34.38400000      28.56300000
 O      30.83000000      35.51500000      14.84700000
 H      30.62900000      35.58600000      13.89400000
 H      31.11000000      36.46100000      14.98400000
 O      34.04700000      30.45100000      16.91500000
 H      34.31400000      31.19700000      16.37200000
 H      33.18600000      30.20500000      16.60400000
 O      26.95500000      37.30200000      17.59500000
 H      27.83800000      36.97500000      17.91400000
 H      26.69900000      36.50000000      17.01500000
 O      30.63800000      40.04400000      13.70100000
 H      31.03600000      39.84200000      12.82900000
 H      30.52500000      41.04400000      13.54700000
 O      31.46300000      27.60500000      40.04700000
 H      31.45200000      28.59200000      40.23300000
 H      32.16900000      27.42800000      40.76600000
 O      22.69600000      28.74400000      28.74800000
 H      22.02400000      29.27300000      28.20100000
 H      23.51100000      28.95700000      28.33400000
 O      24.46700000      39.21500000      22.06900000
 H      25.23800000      39.17800000      22.69700000
 H      24.95000000      39.43000000      21.23100000
 O      32.30100000      35.55700000      36.66500000
 H      32.70700000      36.12300000      36.00700000
 H      32.21500000      36.18600000      37.43300000
 O      20.35000000      33.62800000      14.45600000
 H      20.92300000      32.93200000      14.38200000
 H      19.63000000      33.39900000      15.09100000
 O      35.87900000      36.24900000      20.53700000
 H      35.47300000      35.35300000      20.33600000
 H      35.82800000      36.30100000      21.44000000
 O      20.06300000      35.65800000      25.26000000
 H      20.96800000      35.80800000      25.52300000
 H      19.57100000      35.68500000      26.05200000
 O      20.90900000      28.68700000      21.82900000
 H      21.49000000      28.95300000      22.58900000
 H      20.37700000      27.95500000      22.28500000
 O      25.43300000      27.37200000      17.18300000
 H      24.93800000      28.04600000      17.68200000
 H      25.61700000      27.88200000      16.37200000
 O      27.98300000      34.49800000      20.88400000
 H      27.30900000      33.83700000      20.56900000
 H      27.52500000      34.86600000      21.65600000
 O      24.58500000      29.26300000      19.09600000
 H      23.76900000      29.73800000      19.28300000
 H      24.29300000      28.33800000      19.33800000
 O      38.10200000      30.99800000      11.83200000
 H      37.23900000      31.09400000      11.34400000
 H      37.80900000      30.38800000      12.55500000
 O      34.88900000      33.27200000      39.89200000
 H      35.07700000      32.98500000      38.97400000
 H      34.50000000      32.43400000      40.27200000
 O      27.74900000      31.21800000      21.40500000
 H      27.59600000      30.84600000      20.48500000
 H      28.30500000      30.56200000      21.75900000
 O      31.90500000      40.67400000      38.18800000
 H      32.56900000      41.32500000      38.22300000
 H      31.21100000      41.01300000      38.81900000
 O      38.80500000      40.42200000      17.55500000
 H      38.36000000      39.77600000      18.14700000
 H      39.15800000      41.03200000      18.22100000
 O      37.59400000      29.58000000      14.33000000
 H      37.07500000      30.41200000      14.61100000
 H      37.37900000      29.05000000      15.12900000
 O      24.05500000      34.71800000      29.60900000
 H      24.73600000      35.42500000      29.88200000
 H      23.67300000      34.47600000      30.47600000
 O      28.43600000      31.46300000      29.44500000
 H      27.58200000      31.06500000      29.12000000
 H      28.67300000      31.99100000      28.69700000
 O      30.96400000      32.87900000      20.34900000
 H      31.25000000      32.77700000      21.32700000
 H      30.23200000      33.51100000      20.49900000
 O      38.16000000      38.61100000      21.92600000
 H      38.63100000      38.09400000      22.62800000
 H      38.53400000      39.48000000      22.14200000
 O      28.17600000      28.74700000      23.00500000
 H      28.51600000      28.09900000      22.39000000
 H      28.50600000      28.39700000      23.84200000
 O      25.66000000      32.89300000      22.18600000
 H      24.88600000      32.34600000      22.00500000
 H      26.36000000      32.31000000      21.83400000
 O      34.43600000      36.24300000       8.22700000
 H      34.62300000      37.20500000       8.43200000
 H      35.08300000      36.22200000       7.45900000
 O      29.83500000      37.57800000       8.71900000
 H      30.08100000      36.83500000       9.30500000
 H      28.91300000      37.42700000       8.52700000
 O      29.98100000      39.41100000       6.48500000
 H      29.55700000      39.06400000       7.29800000
 H      30.90000000      39.07400000       6.58400000
 O      30.28600000      31.95500000      24.34400000
 H      29.35900000      32.06500000      24.10100000
 H      30.37300000      32.63400000      25.01400000
 O      24.34400000      27.41800000      10.96800000
 H      24.78800000      26.64700000      10.54900000
 H      24.14100000      27.93800000      10.10200000
 O      30.20300000      31.42900000      16.27100000
 H      29.56800000      32.14600000      16.38700000
 H      29.95800000      30.84900000      17.02400000
 O      29.27500000      27.57300000      25.08900000
 H      30.13400000      28.08300000      24.77000000
 H      29.67900000      27.30000000      25.93000000
 O      37.19300000      38.89900000      32.93600000
 H      37.99100000      38.60300000      33.29700000
 H      36.47200000      38.48700000      33.46200000
 O      36.09500000      33.22300000      12.07500000
 H      35.77900000      32.41100000      11.58400000
 H      36.06400000      33.91600000      11.38900000
 O      37.84600000      38.21700000      19.01600000
 H      38.29100000      38.29600000      19.91800000
 H      36.98000000      37.88700000      19.35300000
 O      22.66500000      37.39900000      25.84500000
 H      22.51300000      38.34300000      25.74400000
 H      22.70400000      37.30700000      26.84300000
 O      25.39500000      31.17700000      33.58400000
 H      25.39900000      31.23100000      32.63000000
 H      24.71600000      31.83100000      33.81200000
 O      39.55200000      39.36900000      25.61000000
 H      39.52200000      38.49200000      25.15000000
 H      39.84100000      39.99500000      24.96400000
 O      33.59900000      36.99800000      33.56300000
 H      34.03000000      36.15500000      33.41500000
 H      32.84600000      36.90000000      32.90900000
 O      27.38700000      36.05400000      38.46000000
 H      27.03400000      36.69800000      37.82800000
 H      28.12300000      36.52300000      38.82800000
 O      33.59900000      27.84500000      19.97600000
 H      32.78400000      28.30300000      20.34200000
 H      33.19300000      26.94000000      19.86400000
 O      28.98600000      35.95400000      18.44000000
 H      28.54300000      35.45800000      19.13500000
 H      29.57600000      36.56200000      18.95000000
 O      25.07400000      40.38300000      38.18000000
 H      25.16900000      41.03000000      37.44300000
 H      25.33300000      40.94200000      38.92700000
 O      37.24500000      35.82600000      24.87800000
 H      37.19700000      34.85700000      24.67600000
 H      37.63300000      35.77400000      25.76000000
 O      38.30200000      36.14000000      13.13500000
 H      38.66000000      35.25000000      13.09600000
 H      37.86100000      36.12900000      14.02000000
 O      36.90200000      35.28100000      29.66700000
 H      37.06900000      34.67300000      30.33700000
 H      36.72000000      36.13900000      30.19700000
 O      30.50400000      35.73400000      30.06000000
 H      30.88000000      36.52900000      29.68300000
 H      30.81900000      35.09400000      29.37500000
 O      23.20500000      37.66500000      28.52600000
 H      22.73100000      37.51600000      29.36400000
 H      24.06300000      37.20600000      28.82300000
 O      32.13400000      29.35300000      27.38600000
 H      31.98000000      30.08400000      27.98800000
 H      33.11900000      29.29900000      27.31900000
 O      22.25800000      35.21700000      16.41600000
 H      21.95400000      35.24900000      17.31700000
 H      22.27900000      36.17900000      16.14200000
 O      37.80600000      31.51600000       8.40100000
 H      37.78200000      30.61200000       8.03700000
 H      38.58000000      31.42200000       8.94300000
 O      34.99400000      33.61000000      19.54100000
 H      35.62200000      33.05100000      19.00100000
 H      34.12400000      33.23300000      19.23700000
 O      22.67200000      38.03900000      16.11200000
 H      23.03600000      38.48300000      16.95700000
 H      21.89600000      38.70100000      15.98900000
 O      32.40700000      40.00800000      18.72500000
 H      33.14200000      40.17600000      18.05500000
 H      32.26700000      40.94700000      19.00000000
 O      36.83700000      40.70500000      15.26400000
 H      37.34800000      40.27000000      14.58500000
 H      37.42100000      40.50200000      16.06500000
 O      36.47400000      35.15400000      35.44000000
 H      36.07600000      35.02000000      34.54000000
 H      36.55800000      34.22000000      35.70100000
 O      27.92300000      39.75900000      13.23000000
 H      28.82100000      39.84800000      13.54700000
 H      27.42600000      39.69900000      14.05100000
 O      25.84600000      30.74100000      28.33500000
 H      25.44800000      30.20000000      27.54500000
 H      25.45900000      31.57700000      28.09100000
 O      23.66100000      40.12200000      10.40600000
 H      23.28100000      40.31800000      11.31100000
 H      24.61600000      39.96400000      10.68400000
 O      37.33700000      27.46700000      12.63700000
 H      37.67100000      28.18300000      13.17600000
 H      38.17000000      26.90600000      12.57500000
 O      38.18000000      31.58700000      24.16600000
 H      37.76200000      30.67100000      24.08800000
 H      37.57800000      32.02900000      24.78800000
 O      39.18800000      33.75700000      19.60400000
 H      39.22100000      33.10000000      20.33100000
 H      39.78600000      34.44100000      19.91200000
 O      37.63900000      32.71900000      36.63200000
 H      36.76400000      32.51400000      37.10700000
 H      37.97300000      33.38500000      37.30000000
 O      36.20200000      40.08300000      25.44500000
 H      36.99300000      40.40800000      25.91000000
 H      35.53300000      40.18100000      26.15900000
 O      21.55500000      27.99500000       9.69500000
 H      21.72100000      28.52900000      10.56200000
 H      22.50500000      28.07000000       9.37200000
 O      38.39800000      29.00900000      30.85600000
 H      39.23500000      29.19500000      31.26600000
 H      37.93700000      28.32000000      31.29200000
 O      31.89200000      28.65600000      33.25400000
 H      31.75200000      28.27300000      34.18000000
 H      31.97100000      29.58900000      33.52400000
 O      29.20800000      40.44200000      30.03500000
 H      30.00200000      39.88600000      30.06200000
 H      29.47700000      41.14500000      30.63400000
 O      30.48400000      38.42400000      21.25900000
 H      30.91800000      37.87900000      20.62500000
 H      31.18300000      38.67500000      21.86700000
 O      34.85000000      38.44700000      19.45700000
 H      34.21200000      38.65400000      20.14700000
 H      35.12800000      37.53700000      19.79100000
 O      40.14800000      39.84700000      32.73700000
 H      39.92900000      40.27300000      33.58700000
 H      40.18800000      40.71100000      32.17600000
 O      40.05800000      32.44200000      35.14400000
 H      40.19400000      33.40900000      35.24400000
 H      39.22700000      32.33000000      35.62100000
 O      39.61600000      31.40700000      21.22600000
 H      39.24900000      31.34600000      22.13000000
 H      38.96200000      30.75300000      20.80700000
 O      23.76100000      37.47000000      35.89900000
 H      23.77100000      36.93800000      35.07800000
 H      23.83000000      36.69000000      36.58200000
 O      20.43200000      27.47600000      28.76000000
 H      19.85600000      28.15800000      29.20400000
 H      21.31600000      27.78400000      28.86000000
 O      26.91700000      40.13800000      15.79800000
 H      27.94500000      40.03600000      15.89700000
 H      26.69700000      39.51000000      16.55400000
 O      26.26000000      31.87200000      15.86100000
 H      25.50400000      32.27800000      15.34500000
 H      26.15300000      30.93700000      15.82400000
 O      33.19900000      32.09200000      27.85900000
 H      34.02100000      32.48900000      27.71300000
 H      33.22800000      31.69700000      28.76500000
 O      37.44900000      37.26500000      10.63900000
 H      37.38500000      36.77100000      11.52300000
 H      36.96500000      36.60300000      10.12000000
 O      20.19500000      34.38200000      36.37500000
 H      19.96700000      35.36000000      36.54100000
 H      20.94900000      34.31800000      36.95500000
 O      20.63400000      30.35600000      14.55700000
 H      21.27600000      30.70700000      15.20400000
 H      20.38300000      29.52600000      15.01100000
 O      21.38400000      31.29400000      40.83700000
 H      20.81600000      32.08400000      40.59900000
 H      22.22500000      31.82900000      41.00400000
 O      22.58600000      33.93300000      31.81700000
 H      22.00000000      33.72200000      32.56200000
 H      22.66700000      33.07600000      31.36500000
 O      24.37200000      34.13700000      12.84900000
 H      25.36600000      34.08700000      12.92400000
 H      24.08500000      33.93000000      13.74200000
 O      25.94700000      33.15400000      36.63000000
 H      25.88100000      32.13300000      36.52700000
 H      25.12100000      33.39000000      36.08000000
 O      25.10600000      38.52000000       7.82400000
 H      24.44200000      38.84300000       8.46800000
 H      25.38200000      39.35700000       7.39400000
 O      39.14400000      36.62600000      39.87100000
 H      39.90800000      36.05200000      39.74100000
 H      39.12400000      36.64000000      40.84300000
 O      23.75500000      34.33300000      19.86000000
 H      24.62200000      34.15000000      19.42600000
 H      24.01300000      34.75600000      20.69200000
 O      31.14800000      32.75700000      11.62100000
 H      30.16400000      32.84400000      11.46100000
 H      31.24800000      33.65200000      11.98800000
 O      32.67600000      38.99800000       7.30900000
 H      33.49200000      39.14100000       7.92100000
 H      33.09500000      38.44000000       6.64100000
 O      33.45700000      38.02600000      21.89400000
 H      33.97600000      37.80900000      22.70200000
 H      33.15200000      37.06000000      21.71300000
 O      28.12300000      27.88800000      19.40700000
 H      27.75100000      27.04400000      19.05000000
 H      27.43400000      28.51000000      19.22600000
 O      20.31300000      37.20400000      37.08100000
 H      19.74900000      37.70500000      37.67000000
 H      21.03500000      37.78900000      36.85500000
 O      33.68100000      37.52300000      40.27600000
 H      33.38500000      36.71700000      40.82400000
 H      34.52600000      37.19800000      40.00600000
 O      27.17800000      30.46200000      18.75900000
 H      27.38500000      30.48500000      17.83200000
 H      26.25100000      30.16600000      18.72200000
 O      40.52000000      29.36900000      14.49800000
 H      39.56600000      29.51600000      14.75500000
 H      40.96500000      29.71700000      15.30700000
 O      26.45800000      38.07700000      36.76200000
 H      25.60500000      37.71900000      36.45800000
 H      26.14900000      38.91200000      37.15300000
 O      40.59300000      33.90200000       8.19400000
 H      41.55600000      34.11600000       8.27400000
 H      40.50700000      33.20800000       8.86000000
 O      29.50600000      31.42100000      34.21600000
 H      29.46500000      31.52000000      35.20800000
 H      30.46300000      31.19300000      34.11400000
 O      33.30900000      28.99400000       7.20400000
 H      33.66200000      29.86900000       6.93900000
 H      33.91700000      28.82800000       7.95300000
 O      30.03800000      28.11200000      31.25300000
 H      30.72700000      28.14400000      31.98400000
 H      30.57100000      27.58500000      30.57700000
 O      26.66200000      32.71300000       6.14300000
 H      27.10600000      32.42400000       6.95900000
 H      26.25800000      33.55000000       6.52100000
 O      21.94700000      33.82500000      38.54000000
 H      21.69200000      32.91400000      38.28900000
 H      21.33700000      33.93600000      39.29700000
 O      33.32000000      28.06000000      23.58100000
 H      33.14300000      27.14500000      23.84000000
 H      32.56800000      28.52100000      24.04600000
 O      40.17100000      32.10300000      10.32000000
 H      40.90800000      31.74900000      10.89400000
 H      39.41200000      31.77300000      10.84800000
