361
XYZ file of cluster: frame_6000_6e8a5.23649.4c27a - created by MolEdiTo
 O      26.44700000      19.39900000      16.85200000
 H      25.58300000      19.03900000      17.15300000
 H      26.99300000      19.35300000      17.63000000
 O      32.18500000       8.77500000      22.27200000
 H      31.52300000       9.50200000      22.24700000
 H      32.99000000       9.32900000      22.43300000
 O      27.85900000      18.67900000      27.55300000
 H      26.93300000      18.83500000      27.88600000
 H      28.17300000      17.96600000      28.18400000
 O      35.00200000      18.63400000      17.41900000
 H      34.40500000      17.95900000      17.07400000
 H      34.38400000      19.38800000      17.36500000
 O      21.84000000      11.19100000      17.11900000
 H      21.64700000      10.26700000      17.33500000
 H      22.79000000      11.26900000      17.23400000
 O      21.03200000      13.97400000      22.05700000
 H      21.53000000      14.58300000      22.66400000
 H      20.15600000      14.30100000      22.08700000
 O      23.57500000      20.83500000      16.07200000
 H      23.29200000      19.86900000      16.19200000
 H      22.75300000      21.27800000      15.70600000
 O      29.54400000      14.88100000      27.39000000
 H      29.07700000      15.55000000      27.92400000
 H      28.85900000      14.14500000      27.38500000
 O      35.54400000      17.85100000      14.05900000
 H      35.52300000      18.73800000      14.44300000
 H      34.70500000      17.45500000      14.46600000
 O      29.24000000      17.84600000      22.29900000
 H      29.17900000      18.10700000      23.27800000
 H      28.69600000      17.02000000      22.34500000
 O      24.24400000      12.06100000      19.66500000
 H      23.69300000      11.31700000      20.04500000
 H      23.65200000      12.84400000      19.82200000
 O      23.35700000       9.66600000      20.51300000
 H      23.46400000       9.45900000      21.42600000
 H      24.09400000       9.14100000      20.12600000
 O      27.76000000      15.82100000      22.38700000
 H      27.27800000      15.24900000      23.02200000
 H      28.11500000      15.14500000      21.76000000
 O      24.65100000      21.44300000      22.71000000
 H      25.02300000      20.70800000      22.18700000
 H      24.18900000      21.94700000      21.99800000
 O      27.02100000      13.58600000      15.08900000
 H      26.37300000      13.40800000      15.82200000
 H      27.00200000      12.80300000      14.54100000
 O      32.68400000      18.55100000      25.46800000
 H      32.34700000      19.48100000      25.69700000
 H      31.83300000      18.07500000      25.53800000
 O      33.31300000      20.70500000      17.62400000
 H      33.22700000      21.57400000      18.06400000
 H      32.98700000      20.07200000      18.30600000
 O      23.91700000      10.87700000      24.44800000
 H      24.01100000      10.12600000      23.79900000
 H      23.09400000      10.55400000      24.91600000
 O      21.57500000      10.11100000      25.42000000
 H      21.21200000      10.30900000      24.50100000
 H      20.71400000      10.15300000      25.96100000
 O      32.22800000      18.89200000      19.11200000
 H      32.02400000      18.09100000      19.62700000
 H      31.50300000      18.79900000      18.43300000
 O      27.54900000      20.35900000      25.36400000
 H      27.66100000      20.43400000      26.32700000
 H      28.14900000      19.58400000      25.25900000
 O      34.61900000      16.28400000      21.07700000
 H      34.08000000      15.86500000      21.81800000
 H      35.16600000      15.53300000      20.82600000
 O      24.64700000       8.65500000      16.53900000
 H      24.71400000       9.60900000      16.31800000
 H      24.96800000       8.21500000      15.71400000
 O      22.73000000       8.04700000      26.72400000
 H      22.39000000       7.21800000      26.44800000
 H      22.25200000       8.65400000      26.09000000
 O      34.28300000      11.39500000      22.13800000
 H      34.25200000      11.85300000      21.28400000
 H      35.04900000      10.83700000      22.10400000
 O      27.61500000      16.18600000      18.13500000
 H      27.66900000      15.56700000      18.78600000
 H      26.67800000      16.35000000      17.98100000
 O      24.51000000      12.78400000      26.15900000
 H      24.61000000      12.49200000      27.06200000
 H      24.41800000      11.95500000      25.64200000
 O      30.24000000       6.74000000      17.82400000
 H      30.69300000       6.11200000      17.30400000
 H      30.89400000       6.98700000      18.55800000
 O      32.17400000      12.35800000      25.42800000
 H      32.74200000      11.78600000      25.96400000
 H      32.10300000      13.11100000      26.05500000
 O      30.91600000      18.77700000      13.58500000
 H      30.38300000      19.32800000      14.15000000
 H      31.56600000      19.49300000      13.26500000
 O      32.00700000       8.25100000      26.46400000
 H      32.29700000       7.78500000      25.62200000
 H      31.29800000       8.79100000      26.08100000
 O      29.98600000      17.85000000      17.66400000
 H      30.68900000      17.38100000      17.14300000
 H      29.25700000      17.23900000      17.48300000
 O      20.57700000      11.62100000      14.51900000
 H      20.84600000      12.40600000      14.01200000
 H      21.17300000      11.54100000      15.26300000
 O      20.60700000      15.86200000      14.52100000
 H      19.68700000      15.74500000      14.68400000
 H      20.82800000      15.13900000      13.92200000
 O      30.53300000      16.14400000      25.11900000
 H      30.45000000      15.21500000      24.69300000
 H      30.35500000      15.86100000      26.07000000
 O      33.61800000      16.66700000      15.81000000
 H      32.77700000      16.89100000      15.30600000
 H      33.23800000      16.24400000      16.58800000
 O      24.25400000      18.10800000      17.89300000
 H      23.86700000      18.04100000      18.79400000
 H      23.46700000      17.76000000      17.40900000
 O      27.74000000      10.30300000      21.77000000
 H      27.42400000      10.82900000      20.95500000
 H      26.83300000      10.09000000      22.12300000
 O      21.66500000       8.86400000      13.81000000
 H      22.01300000       9.29200000      12.99500000
 H      21.01500000       9.54700000      14.10100000
 O      25.23900000      16.87100000      24.95300000
 H      25.72000000      17.14600000      25.78300000
 H      24.48700000      17.52500000      25.07400000
 O      27.40900000      12.97800000      27.24600000
 H      26.42700000      12.82900000      27.40900000
 H      27.68600000      12.20000000      27.85200000
 C      20.19400000      21.13700000      22.40500000
 C      19.96600000      20.28300000      21.18600000
 C      21.95300000      20.94600000      19.90300000
 H      20.10100000      20.22200000      19.13800000
 H      20.01600000      20.39900000      24.13000000
 O      19.76600000      22.23400000      19.78900000
 O      21.57700000      21.03600000      22.86900000
 O      19.35700000      20.59700000      23.41200000
 C      20.41500000      20.92800000      19.85900000
 O      20.52900000      18.96500000      21.33700000
 H      18.87100000      20.16000000      21.11600000
 O      22.39700000      20.27600000      18.73100000
 O      22.43600000      21.94700000      19.12300000
 H      22.66000000      21.06500000      18.60000000
 H      19.83000000      18.43100000      21.84400000
 H      18.85800000      21.97400000      19.47800000
 O      20.35700000      10.78100000      20.15500000
 H      20.36000000       9.87400000      20.48400000
 H      20.98900000      10.67000000      19.42800000
 O      24.23400000      15.41400000      14.13300000
 H      24.65100000      16.24500000      14.45300000
 H      24.89700000      15.06900000      13.46600000
 O      30.47700000      13.87800000      23.76200000
 H      29.58600000      13.60600000      24.00700000
 H      31.00400000      13.07700000      24.04500000
 O      27.75200000      20.86900000      14.94200000
 H      27.24100000      21.70000000      14.66700000
 H      27.03700000      20.47200000      15.47600000
 O      32.26700000       6.90300000      24.18900000
 H      32.72800000       6.29400000      23.55100000
 H      32.09300000       7.62300000      23.51200000
 O      29.75800000      10.49900000      24.86100000
 H      29.15200000      11.28900000      24.82000000
 H      30.56500000      10.96900000      25.17200000
 O      33.55300000      11.50000000      18.08800000
 H      32.69500000      11.06200000      18.25600000
 H      33.46600000      11.76800000      17.17700000
 O      23.82600000       8.55300000      23.01600000
 H      24.72600000       8.13200000      22.88200000
 H      23.37300000       7.74800000      23.35700000
 O      34.83900000      16.92800000      26.03700000
 H      33.95100000      17.44400000      25.94100000
 H      34.57600000      16.35400000      26.74400000
 O      20.55100000       8.75500000      21.74300000
 H      19.83300000       8.67300000      22.39800000
 H      20.84200000       7.81600000      21.71400000
 O      27.11300000      11.75900000      19.41800000
 H      27.38200000      12.12200000      18.55600000
 H      26.18600000      12.10100000      19.42800000
 O      28.86500000       7.74600000      24.86400000
 H      28.06300000       7.99000000      24.39200000
 H      29.28100000       8.64200000      24.87600000
 O      30.25300000      20.58200000      21.39400000
 H      29.73500000      21.41300000      21.66900000
 H      29.85700000      19.93500000      21.99900000
 O      21.62200000       6.89700000      24.35700000
 H      21.44200000       6.26200000      23.60700000
 H      20.73600000       7.04900000      24.68800000
 O      22.45800000      17.64600000      15.27200000
 H      23.28700000      17.13300000      15.04600000
 H      21.74400000      17.10600000      14.97300000
 O      34.58000000      21.00800000      28.37100000
 H      33.61800000      21.02300000      28.32600000
 H      34.77200000      20.69800000      27.45900000
 O      21.67200000       8.57500000      18.32900000
 H      20.85100000       8.14800000      18.57300000
 H      22.16800000       8.61900000      19.19000000
 O      28.25800000      12.86200000      24.81400000
 H      27.98300000      12.85200000      25.76900000
 H      27.37700000      13.25400000      24.48000000
 O      22.78900000      14.31000000      19.98900000
 H      22.30000000      14.27700000      20.81000000
 H      22.85400000      15.31800000      19.92700000
 O      33.57200000      13.49100000      20.04900000
 H      34.50400000      13.62600000      20.13500000
 H      33.43700000      12.85600000      19.38100000
 O      23.10300000      19.42300000      26.00700000
 H      23.38200000      20.25600000      25.52400000
 H      22.30700000      19.76200000      26.42100000
 O      25.69700000       8.13400000      13.89100000
 H      25.59800000       7.52100000      13.12500000
 H      26.42700000       7.71600000      14.36900000
 O      32.57500000      19.45600000      22.49000000
 H      31.78000000      19.72000000      21.90000000
 H      32.63600000      20.28400000      23.00700000
 O      34.15200000       7.90500000      16.98400000
 H      33.51000000       8.56500000      16.73800000
 H      34.76400000       7.86600000      16.22700000
 O      25.91100000      14.47500000      24.18200000
 H      25.61200000      15.28800000      24.70200000
 H      25.22600000      13.87000000      24.45700000
 O      23.26400000      14.28600000      16.29300000
 H      22.40600000      13.99200000      15.92400000
 H      23.65200000      14.73300000      15.52600000
 O      20.40500000      12.72100000      27.37600000
 H      21.05600000      12.84700000      26.68700000
 H      20.95000000      13.07900000      28.14400000
 O      29.81800000      20.65700000      18.08700000
 H      29.51600000      19.92800000      17.49000000
 H      29.59200000      20.22200000      18.95700000
 O      27.92300000      18.84000000      19.75700000
 H      28.42300000      18.81700000      20.59500000
 H      28.00300000      17.97000000      19.41600000
 O      29.03900000       9.44500000      15.73800000
 H      28.52800000      10.21100000      15.43700000
 H      28.83200000       9.50100000      16.73300000
 O      26.26700000       7.47700000      23.21600000
 H      25.84800000       7.06500000      24.07100000
 H      26.17000000       6.74400000      22.61700000
 O      31.49100000       9.85000000      18.04400000
 H      30.60400000       9.35500000      18.02600000
 H      31.96700000       9.19900000      18.58100000
 O      33.63800000      10.72800000      26.78700000
 H      33.43500000      10.30800000      27.65500000
 H      34.21900000       9.97800000      26.47200000
 O      25.13600000      16.86800000      22.12800000
 H      25.44500000      16.96600000      23.09000000
 H      26.01700000      16.72000000      21.71900000
 O      31.08100000      16.95500000      20.61500000
 H      30.23400000      17.26300000      21.04800000
 H      31.61500000      16.73100000      21.39500000
 O      24.78400000       7.64100000      19.38700000
 H      24.70700000       8.09100000      18.52500000
 H      25.70800000       7.59300000      19.51900000
 O      34.45800000      20.25700000      14.94800000
 H      34.86400000      21.18900000      15.13300000
 H      33.89100000      20.20600000      15.76700000
 O      22.34400000      14.47000000      25.86100000
 H      22.48300000      14.66900000      24.90200000
 H      23.20900000      13.95500000      25.97400000
 O      28.56300000       7.96400000      20.91900000
 H      28.64600000       8.79800000      21.36800000
 H      28.62600000       7.35400000      21.61900000
 O      32.24400000      16.49100000      23.00500000
 H      31.73700000      16.50800000      23.88200000
 H      32.40700000      17.43300000      22.94700000
 O      35.15200000      18.92400000      21.49500000
 H      34.85300000      18.00400000      21.46700000
 H      34.31000000      19.28600000      21.92300000
 O      34.87200000      13.14700000      24.24100000
 H      33.99400000      13.34900000      24.59200000
 H      34.61700000      12.38600000      23.61100000
 O      32.12100000       7.82200000      19.74300000
 H      31.84300000       8.40000000      20.52100000
 H      32.72000000       7.17900000      20.10800000
 O      30.08400000      11.73300000      13.99300000
 H      30.35900000      12.31500000      14.77500000
 H      30.46000000      10.92500000      14.31000000
 O      21.97200000      17.94600000      23.47700000
 H      21.73900000      18.81600000      23.07400000
 H      22.06200000      18.19400000      24.43600000
 O      20.00900000      14.24900000      18.66300000
 H      19.72700000      14.97100000      18.11200000
 H      20.92500000      14.43400000      18.89700000
 O      31.29900000      20.77400000      26.29800000
 H      30.32900000      20.66000000      26.29400000
 H      31.28100000      21.57100000      26.87800000
 O      33.56300000      12.11900000      15.11900000
 H      34.23900000      12.80200000      14.91000000
 H      33.75500000      11.44100000      14.36700000
 O      35.31100000      14.27900000      17.57600000
 H      35.46700000      14.26400000      16.57400000
 H      34.33300000      13.91100000      17.48800000
 O      25.36400000      13.25100000      17.52900000
 H      24.59000000      13.85100000      17.15800000
 H      24.90400000      12.96700000      18.32400000
 O      31.04800000      13.55300000      15.94000000
 H      31.20600000      14.48100000      16.16800000
 H      31.99000000      13.26900000      15.71700000
 O      28.23200000      15.78800000      14.48000000
 H      27.55500000      16.45800000      14.64800000
 H      27.73800000      14.96400000      14.64100000
 O      32.08000000      14.18200000      27.40000000
 H      31.10100000      14.28100000      27.53200000
 H      32.42900000      14.97800000      27.80500000
 O      30.48400000      10.80500000      21.81600000
 H      29.53800000      10.89500000      22.02700000
 H      30.69300000      11.70000000      21.45900000
 O      24.49400000      18.30900000      27.85800000
 H      24.96500000      18.94900000      28.37400000
 H      23.96900000      18.91700000      27.25400000
 O      26.99800000      21.35800000      20.62300000
 H      27.34700000      20.45000000      20.28500000
 H      26.44200000      21.52200000      19.80000000
 O      28.74400000      12.67600000      17.41800000
 H      29.71900000      12.98900000      17.29500000
 H      28.35600000      13.38000000      16.82100000
 O      22.89200000      17.38100000      20.35100000
 H      22.13200000      17.70200000      20.88700000
 H      23.62600000      17.36900000      20.98700000
 O      25.45700000      17.84400000      14.45500000
 H      25.61900000      18.20400000      13.61300000
 H      25.75300000      18.46600000      15.09700000
 O      28.50600000      14.28200000      20.36200000
 H      29.42800000      13.96100000      20.60600000
 H      28.04900000      13.44300000      20.16200000
 O      23.00800000      15.34200000      23.29800000
 H      22.58400000      16.25600000      23.17400000
 H      23.88800000      15.53500000      22.93800000
 O      31.09300000      13.50900000      21.05300000
 H      31.96600000      13.76500000      20.64700000
 H      31.07400000      14.20600000      21.75300000
 O      32.51800000      15.46900000      18.23600000
 H      31.95700000      16.01600000      18.80200000
 H      33.13700000      15.04100000      18.86200000
 O      28.42400000       9.35800000      18.59100000
 H      28.08800000      10.26300000      18.92400000
 H      28.57100000       8.99900000      19.50700000
 O      35.01000000      20.16700000      25.84700000
 H      35.22800000      20.69700000      25.09200000
 H      34.45900000      19.49500000      25.53700000
 O      23.03100000       6.84200000      15.20100000
 H      22.62000000       7.66900000      14.75500000
 H      23.52000000       7.33100000      15.90900000
 O      24.82300000      11.22300000      15.66300000
 H      24.71300000      12.17200000      15.90000000
 H      25.54700000      11.29100000      15.01500000
 O      25.12400000       6.61800000      25.45200000
 H      25.55100000       6.05900000      26.14700000
 H      24.49000000       7.13200000      26.02800000
 O      28.94500000      18.17900000      25.10300000
 H      28.62700000      18.20200000      25.98600000
 H      29.52300000      17.36100000      25.14200000
 O      31.03200000      16.55300000      15.00000000
 H      30.17400000      16.13800000      14.69600000
 H      30.93500000      17.32900000      14.36800000
 O      33.38000000       6.72400000      28.26800000
 H      32.65900000       7.11700000      27.65500000
 H      34.13900000       7.32000000      27.90900000
 O      27.44600000       6.78000000      16.09100000
 H      28.20500000       7.33800000      16.39300000
 H      26.92900000       6.69200000      16.90600000
 O      31.33300000       8.95200000      14.00800000
 H      31.50400000       7.98800000      13.88800000
 H      30.44800000       8.85000000      14.50900000
 O      21.01100000      16.53400000      27.14600000
 H      20.24600000      16.52800000      26.48600000
 H      21.49100000      15.72100000      26.81700000
