126
XYZ file of cluster: frame_15500_991db.4bc6b.330c - created by MolEdiTo
 O      21.13500000      14.80700000       2.18600000
 H      21.91000000      14.19000000       2.08700000
 H      20.54900000      14.29800000       2.85200000
 O      23.59700000      16.96900000       4.97200000
 H      22.88600000      17.30100000       4.41600000
 H      23.82100000      16.13700000       4.52600000
 O      24.58200000      21.14200000       8.69600000
 H      24.35300000      20.38600000       8.08700000
 H      25.54100000      21.08400000       8.60100000
 O      21.55100000      10.69700000       1.54300000
 H      21.58800000      10.79800000       2.54000000
 H      21.55100000       9.72200000       1.52900000
 O      29.50500000      18.26000000       5.11400000
 H      29.21900000      18.15200000       4.19100000
 H      30.33400000      18.75000000       5.19800000
 O      21.32600000      14.27300000       5.46200000
 H      22.11200000      14.29600000       6.02600000
 H      20.55200000      14.41100000       6.08000000
 O      23.92400000      19.94300000       1.64400000
 H      23.52800000      19.48000000       0.92000000
 H      23.35300000      19.60900000       2.35400000
 O      21.95100000      11.76500000       4.20200000
 H      21.47200000      12.46200000       4.72500000
 H      22.88600000      11.83800000       4.45700000
 O      27.66900000      11.46400000       6.33000000
 H      27.52800000      10.82800000       5.56100000
 H      28.67000000      11.61500000       6.28800000
 O      26.20800000      12.80100000       2.43800000
 H      27.15500000      12.52800000       2.65800000
 H      25.73400000      12.02900000       2.81500000
 O      25.26300000      17.00400000       1.67500000
 H      24.85700000      17.90900000       1.89700000
 H      24.95200000      16.37800000       2.33300000
 O      29.52600000      18.92600000       8.33600000
 H      29.94000000      18.65400000       9.16100000
 H      30.12000000      18.39100000       7.70200000
 O      24.43800000      10.72900000       3.73000000
 H      24.69600000       9.95700000       4.24300000
 H      24.52400000      10.45900000       2.83400000
 O      28.82300000      15.60800000       5.99400000
 H      27.91000000      15.73600000       6.33700000
 H      29.35300000      16.36300000       6.24500000
 O      24.31500000      14.69300000       3.22100000
 H      24.36300000      14.19800000       2.41300000
 H      24.59900000      14.13500000       3.97100000
 O      24.72500000      12.32100000      10.54100000
 H      24.35600000      12.74000000      11.27200000
 H      23.91400000      11.83800000      10.26400000
 O      27.27200000      15.66500000       3.25300000
 H      26.40600000      15.14900000       3.06900000
 H      27.46200000      15.52100000       4.20300000
 O      30.35000000      12.05000000       5.51900000
 H      30.04600000      12.92000000       5.28500000
 H      30.87200000      11.70000000       4.80200000
 O      30.78800000      16.17500000       9.76800000
 H      29.84800000      16.03400000      10.09200000
 H      30.97100000      17.12100000       9.91400000
 O      21.53700000      19.88700000       7.41800000
 H      22.25100000      19.85600000       8.08800000
 H      20.96800000      19.16300000       7.68700000
 O      30.09900000      14.15600000       3.62100000
 H      29.94300000      14.73900000       4.35000000
 H      30.86500000      14.56400000       3.21600000
 O      22.38200000      19.34600000      10.15000000
 H      22.30000000      19.89600000      10.91000000
 H      22.61300000      18.55300000      10.56600000
 O      22.84200000      16.97800000       8.11800000
 H      23.36200000      16.27900000       7.64700000
 H      23.57700000      17.35400000       8.68500000
 O      25.90200000      13.53300000       5.71300000
 H      26.68500000      12.92100000       5.92200000
 H      26.07400000      14.26200000       6.32600000
 O      28.79200000      11.80500000       2.59200000
 H      29.11600000      12.63700000       3.07700000
 H      29.47400000      11.76600000       1.92300000
 O      26.82900000      13.83500000       9.27300000
 H      26.18100000      13.28100000       9.68300000
 H      26.87800000      14.65400000       9.80700000
 O      20.26600000      17.11700000       8.01600000
 H      21.28100000      17.20900000       8.04000000
 H      19.93000000      16.33500000       7.46700000
 O      29.56100000      18.65600000       2.07000000
 H      28.97300000      18.96600000       1.41900000
 H      30.46700000      18.75900000       1.71000000
 O      24.21300000      19.67800000       6.52800000
 H      23.44600000      19.42100000       5.99600000
 H      24.84400000      18.95300000       6.54100000
 O      24.99400000      17.49600000       9.53100000
 H      24.85300000      16.80500000      10.20500000
 H      24.93000000      18.26600000      10.06200000
 O      23.54300000      12.76500000       1.36300000
 H      23.28400000      12.54200000       0.41300000
 H      22.97900000      12.05100000       1.79900000
 O      22.37400000      10.80200000      10.83300000
 H      21.59000000      11.00800000      11.40100000
 H      22.19600000       9.84400000      10.51600000
 O      26.86900000      19.56100000       1.01600000
 H      26.74600000      18.80200000       0.43500000
 H      25.98200000      19.53000000       1.45000000
 O      26.33600000      16.32900000       6.86400000
 H      26.14200000      16.37800000       7.82500000
 H      26.02400000      17.18900000       6.52800000
 O      28.93600000      12.25900000       9.10200000
 H      28.19200000      12.96600000       9.14700000
 H      28.52200000      11.39400000       9.19700000
 O      28.18100000      16.41200000      10.61900000
 H      28.37500000      17.42600000      10.85700000
 H      27.24000000      16.45500000      10.51700000
 O      21.89900000      19.21900000       3.31400000
 H      21.37500000      19.80900000       3.84900000
 H      21.14800000      18.53000000       3.28300000
 O      26.71200000      18.64100000       5.98500000
 H      27.19300000      19.16300000       6.67500000
 H      27.31200000      18.63600000       5.23400000
 O      22.31000000      14.27200000       9.77700000
 H      23.00500000      14.35400000       9.04800000
 H      21.58400000      13.86400000       9.31700000
 O      24.05900000      14.40400000       7.42800000
 H      24.52500000      13.97900000       6.65800000
 H      24.65900000      15.17400000       7.69000000
 O      22.96300000      11.79600000       7.45000000
 H      23.06600000      12.70400000       7.75700000
 H      23.89800000      11.51100000       7.70100000
 O      27.20500000      20.68600000       7.80300000
 H      27.59500000      21.38100000       7.18600000
 H      27.82700000      19.91300000       7.89000000
