99
XYZ file of cluster: frame_15500_599c.c768c.9da8d - created by MolEdiTo
 O       8.67300000      28.80100000      21.92100000
 H       7.89600000      28.66400000      22.51300000
 H       8.62700000      29.76400000      21.80800000
 O       1.85300000      29.71300000      20.78600000
 H       2.28600000      28.84300000      20.68500000
 H       2.00800000      30.03400000      21.71700000
 O       1.96200000      27.98000000      23.45100000
 H       2.23100000      27.84300000      22.54300000
 H       1.85600000      27.11900000      23.90400000
 O       9.94800000      26.84000000      23.90800000
 H      10.48700000      27.31200000      23.22600000
 H       9.49400000      27.52700000      24.45100000
 O       2.74100000      26.33400000      25.98700000
 H       2.18600000      25.58400000      25.74900000
 H       3.52900000      26.16700000      25.44800000
 O       1.86600000      28.77900000      27.37000000
 H       2.19100000      27.88000000      27.14400000
 H       0.93800000      28.68400000      27.63400000
 O       9.49500000      29.99400000      29.86400000
 H       9.93500000      29.11500000      30.10300000
 H       9.03500000      29.68400000      29.04700000
 O       4.91800000      28.86900000      23.28700000
 H       5.27400000      28.13500000      22.69100000
 H       5.21600000      28.57700000      24.12500000
 O       1.43500000      27.42000000      30.29100000
 H       1.51900000      26.60500000      29.65700000
 H       0.72900000      27.88300000      29.78700000
 O       8.52000000      28.69600000      27.62900000
 H       7.72200000      28.21100000      27.38900000
 H       8.80600000      29.14200000      26.80200000
 O       7.19400000      30.20300000      25.51500000
 H       7.42700000      30.76800000      26.30800000
 H       6.81900000      30.80900000      24.81800000
 O       6.74800000      26.81600000      22.90200000
 H       7.37700000      26.06600000      22.87100000
 H       6.71100000      27.01000000      23.90500000
 O      10.32000000      29.37200000      25.36100000
 H      11.25600000      29.63000000      25.05800000
 H       9.82600000      30.18200000      25.09600000
 O       4.95900000      28.07500000      27.87000000
 H       4.15200000      28.45900000      28.34100000
 H       4.84500000      27.24300000      28.35700000
 O       6.68200000      27.11400000      30.37800000
 H       6.22400000      27.24800000      31.22700000
 H       5.99400000      27.40400000      29.80600000
 O       6.51700000      27.62500000      25.53600000
 H       5.91100000      27.63100000      26.36000000
 H       6.63200000      28.61100000      25.44600000
 O       3.60700000      34.12900000      25.08300000
 H       4.59100000      34.28100000      25.28400000
 H       3.41800000      34.18600000      26.00300000
 O       3.23800000      32.86500000      27.90500000
 H       3.18000000      32.83700000      28.79800000
 H       3.16300000      31.89400000      27.72300000
 O      10.80900000      33.76300000      29.73000000
 H      10.34600000      32.92400000      30.00400000
 H      10.28800000      34.42400000      30.14300000
 O       8.14800000      33.03300000      21.24200000
 H       7.31700000      33.31100000      21.68100000
 H       8.13000000      33.56900000      20.40900000
 O       4.21900000      35.66800000      22.19300000
 H       4.65700000      36.22000000      22.92000000
 H       3.29600000      36.01800000      22.20900000
 O       2.09800000      32.22900000      30.92700000
 H       2.87500000      32.55600000      31.40400000
 H       2.14300000      31.32300000      31.21800000
 O       2.50500000      32.39400000      23.47400000
 H       3.10200000      32.90800000      24.05400000
 H       2.40000000      31.61500000      23.99500000
 O       8.70400000      35.96300000      28.32300000
 H       7.86200000      36.50200000      28.09400000
 H       9.04200000      36.15700000      29.23900000
 O       6.01700000      34.70500000      26.41500000
 H       6.41500000      35.62700000      26.53400000
 H       6.16400000      34.20100000      27.19000000
 O       5.71500000      32.98400000      23.30600000
 H       4.90200000      33.54700000      23.21800000
 H       5.42100000      32.04500000      22.94500000
 O       9.17600000      33.14800000      27.10300000
 H      10.17600000      32.90100000      27.16500000
 H       8.87300000      33.68500000      27.88400000
 O       8.46100000      36.00300000      24.46400000
 H       8.68500000      35.44000000      23.74400000
 H       7.45800000      36.11800000      24.38500000
 O      10.33800000      32.68100000      23.14300000
 H       9.63000000      32.92100000      22.46000000
 H      10.45500000      33.48900000      23.70500000
 O       5.19700000      32.44200000      30.63100000
 H       4.97400000      33.33100000      30.35200000
 H       6.07100000      32.62200000      31.07300000
 O      11.45000000      36.11300000      27.06200000
 H      10.49000000      35.92200000      26.93500000
 H      11.52600000      36.36900000      27.99500000
 O       5.50400000      35.39000000      29.44400000
 H       6.06600000      35.82000000      30.14400000
 H       5.45300000      36.10500000      28.74500000
 O       2.57700000      35.94500000      27.30500000
 H       1.64500000      35.64100000      27.22600000
 H       3.01800000      35.13800000      27.58200000
