105
XYZ file of cluster: frame_15500_9deee.bfff3.72cb2 - created by MolEdiTo
 O      28.84000000      28.09100000      17.15500000
 H      29.63700000      28.32800000      17.69500000
 H      28.15800000      28.72600000      17.45100000
 O      28.15400000      30.46000000      19.06400000
 H      28.27900000      30.13400000      19.98100000
 H      27.27500000      30.07400000      18.71100000
 O      24.71200000      27.10500000      22.84600000
 H      25.29600000      27.87100000      23.00700000
 H      24.95900000      26.86500000      21.85000000
 O      25.05900000      29.36800000      26.12300000
 H      24.34300000      29.24400000      25.39300000
 H      25.56700000      30.21600000      25.86400000
 O      22.66000000      29.50500000      20.45800000
 H      23.30200000      28.76800000      20.53200000
 H      22.00000000      29.45000000      21.20100000
 O      27.29700000      25.49900000      18.17700000
 H      27.52100000      26.13800000      17.51700000
 H      27.48000000      24.63300000      17.68200000
 O      22.16600000      25.85100000      23.16100000
 H      22.48800000      24.93100000      23.03900000
 H      22.94400000      26.48400000      22.98100000
 O      24.89400000      28.02800000      20.27600000
 H      25.83200000      28.35500000      20.04500000
 H      24.57600000      27.47200000      19.54300000
 O      29.12400000      30.38000000      23.65600000
 H      29.98600000      30.90700000      23.54400000
 H      29.36700000      29.52200000      24.09600000
 O      28.93700000      26.95400000      24.93400000
 H      29.59700000      26.79100000      24.25900000
 H      28.11400000      26.83300000      24.45700000
 O      26.62200000      28.95800000      23.45500000
 H      27.35500000      28.98100000      22.73600000
 H      26.90000000      29.76700000      23.91200000
 O      23.50200000      29.87300000      23.81100000
 H      24.06500000      30.63000000      23.51900000
 H      23.67300000      29.11400000      23.21200000
 O      20.55700000      27.47100000      17.63000000
 H      21.37500000      27.95600000      17.31900000
 H      20.68500000      26.61000000      18.19000000
 O      26.11900000      28.70200000      17.70200000
 H      26.39000000      29.02800000      16.79600000
 H      25.66400000      27.91600000      17.37800000
 O      24.35000000      26.60200000      17.22900000
 H      24.37600000      25.68000000      17.10000000
 H      23.77900000      27.01900000      16.53900000
 O      22.67000000      29.48700000      17.47700000
 H      21.87600000      30.03900000      17.74600000
 H      23.19400000      29.33900000      18.28700000
 O      27.80000000      27.96400000      20.59200000
 H      28.12700000      27.41400000      19.87800000
 H      27.38000000      27.27000000      21.13900000
 O      22.52700000      33.39400000      26.55700000
 H      21.75100000      33.64300000      27.18100000
 H      22.12300000      33.16300000      25.66700000
 O      29.10400000      36.07900000      21.94200000
 H      29.57000000      35.71800000      22.72600000
 H      28.55100000      35.37000000      21.48400000
 O      24.06600000      32.72000000      15.69400000
 H      23.79300000      31.87500000      16.16000000
 H      23.48200000      32.60700000      14.86000000
 O      29.39000000      33.61100000      17.43900000
 H      30.24000000      33.57600000      17.99000000
 H      28.89200000      32.76800000      17.61700000
 O      29.86400000      35.87100000      26.59300000
 H      29.63000000      36.07400000      27.46900000
 H      29.01700000      35.59800000      26.18700000
 O      22.68800000      33.82000000      21.36200000
 H      23.19900000      33.06300000      21.28300000
 H      21.89700000      33.34200000      21.83200000
 O      25.82000000      34.19800000      17.10100000
 H      25.04300000      33.70400000      16.68900000
 H      26.58100000      33.84400000      16.54600000
 O      22.62000000      34.06600000      18.38200000
 H      22.82700000      34.82300000      18.98600000
 H      23.42400000      33.53500000      18.21400000
 O      23.64100000      36.01100000      20.23800000
 H      24.63100000      36.08300000      20.39300000
 H      23.36700000      35.17300000      20.77000000
 O      30.71700000      34.76900000      23.52100000
 H      31.62500000      34.30900000      23.59200000
 H      30.48800000      34.96000000      24.46900000
 O      28.96100000      35.62600000      15.40300000
 H      29.11200000      35.07100000      16.14400000
 H      29.76600000      35.64900000      14.87400000
 O      27.94800000      35.08200000      19.15800000
 H      27.74700000      34.53300000      18.35300000
 H      28.83300000      34.60500000      19.40700000
 O      26.30300000      36.36000000      21.05800000
 H      27.06500000      36.10300000      20.39900000
 H      26.74800000      36.68400000      21.84700000
 O      25.43500000      33.21500000      20.40800000
 H      25.25700000      32.47300000      19.75000000
 H      25.62200000      33.98900000      19.82600000
 O      26.97400000      32.73000000      25.44500000
 H      27.81000000      32.21400000      25.56900000
 H      27.20200000      33.45200000      26.03900000
 O      20.85900000      34.09300000      16.03000000
 H      21.68000000      34.12200000      16.53300000
 H      21.14000000      33.44200000      15.35100000
 O      23.10600000      35.46800000      23.65600000
 H      24.12900000      35.36400000      23.94600000
 H      22.86600000      34.70400000      23.08000000
 O      25.13200000      33.62100000      23.43500000
 H      25.19300000      33.53800000      22.45600000
 H      26.05100000      33.38700000      23.72000000
