108
XYZ file of cluster: frame_15500_9ea5d.44d7.6e502 - created by MolEdiTo
 O      30.27700000       6.54300000      24.77800000
 H      30.32100000       5.82400000      25.46900000
 H      30.09200000       7.29300000      25.42000000
 O      22.68800000       2.49700000      21.36200000
 H      23.19900000       1.74000000      21.28300000
 H      21.89700000       2.01900000      21.83200000
 O      22.62000000       2.74300000      18.38200000
 H      22.82700000       3.50000000      18.98600000
 H      23.42400000       2.21200000      18.21400000
 O      23.95200000       9.54700000      21.45600000
 H      23.60400000       9.58800000      20.50900000
 H      23.31100000       9.97100000      21.98500000
 O      30.49900000       7.53300000      15.24900000
 H      29.91700000       8.09700000      14.60700000
 H      30.81500000       8.31300000      15.82300000
 O      29.60000000       5.93200000      18.23400000
 H      28.97800000       5.22700000      18.59300000
 H      29.10600000       6.18800000      17.42800000
 O      28.54300000       7.74200000      22.60300000
 H      29.10300000       7.01000000      22.27800000
 H      28.16300000       7.40700000      23.49100000
 O      27.42900000      10.53300000      19.24800000
 H      26.61500000      10.76000000      19.75600000
 H      27.65400000       9.55400000      19.41900000
 O      23.10600000       4.14500000      23.65600000
 H      24.12900000       4.04100000      23.94600000
 H      22.86600000       3.38100000      23.08000000
 O      26.15700000       7.59500000      20.09500000
 H      25.34600000       8.18500000      20.25100000
 H      25.90100000       6.70900000      20.59900000
 O      29.39000000       2.28800000      17.43900000
 H      30.24000000       2.25300000      17.99000000
 H      28.89200000       1.44500000      17.61700000
 O      24.08500000       7.50800000      15.89400000
 H      24.22800000       7.38000000      14.86100000
 H      24.77800000       7.04600000      16.42200000
 O      25.88400000      10.36700000      24.95700000
 H      25.57800000       9.49900000      24.67700000
 H      25.94700000      10.36000000      25.93100000
 O      21.27500000       9.22000000      24.04400000
 H      22.05000000       8.71900000      24.44400000
 H      20.65000000       8.83400000      24.71200000
 O      25.43500000       1.89200000      20.40800000
 H      25.25700000       1.15000000      19.75000000
 H      25.62200000       2.66600000      19.82600000
 O      22.01000000       6.71800000      18.62700000
 H      22.31700000       6.05900000      19.30300000
 H      21.33200000       6.24600000      18.06500000
 O      25.42200000       8.11700000      23.37000000
 H      26.24000000       7.86800000      22.90100000
 H      24.86200000       8.39900000      22.58800000
 O      20.85900000       2.77000000      16.03000000
 H      21.68000000       2.79900000      16.53300000
 H      21.14000000       2.11900000      15.35100000
 O      22.52700000       2.07100000      26.55700000
 H      21.75100000       2.32000000      27.18100000
 H      22.12300000       1.84000000      25.66700000
 O      26.37300000       6.17700000      17.00700000
 H      26.00700000       5.35200000      16.70400000
 H      26.39400000       5.87400000      17.97600000
 O      29.10400000       4.75600000      21.94200000
 H      29.57000000       4.39500000      22.72600000
 H      28.55100000       4.04700000      21.48400000
 O      22.98100000       7.54200000      25.45000000
 H      23.91600000       7.70600000      25.49200000
 H      22.85000000       6.86800000      26.17600000
 O      29.86400000       4.54800000      26.59300000
 H      29.63000000       4.75100000      27.46900000
 H      29.01700000       4.27500000      26.18700000
 O      25.82000000       2.87500000      17.10100000
 H      25.04300000       2.38100000      16.68900000
 H      26.58100000       2.52100000      16.54600000
 O      23.64100000       4.68800000      20.23800000
 H      24.63100000       4.76000000      20.39300000
 H      23.36700000       3.85000000      20.77000000
 O      30.71700000       3.44600000      23.52100000
 H      31.62500000       2.98600000      23.59200000
 H      30.48800000       3.63700000      24.46900000
 O      27.28100000       7.92700000      14.99900000
 H      27.00500000       7.44300000      15.81200000
 H      27.19000000       7.26800000      14.28000000
 O      26.83800000       5.71400000      24.43100000
 H      26.94800000       5.59300000      25.39700000
 H      26.10200000       6.28600000      24.28800000
 O      26.97400000       1.40700000      25.44500000
 H      27.81000000       0.89100000      25.56900000
 H      27.20200000       2.12900000      26.03900000
 O      25.13200000       2.29800000      23.43500000
 H      25.19300000       2.21500000      22.45600000
 H      26.05100000       2.06400000      23.72000000
 O      24.06600000       1.39700000      15.69400000
 H      23.79300000       0.55200000      16.16000000
 H      23.48200000       1.28400000      14.86000000
 O      28.96100000       4.30300000      15.40300000
 H      29.11200000       3.74800000      16.14400000
 H      29.76600000       4.32600000      14.87400000
 O      23.16200000       9.23400000      18.95400000
 H      22.32100000       9.63800000      18.52100000
 H      23.12600000       8.27600000      18.70500000
 O      27.94800000       3.75900000      19.15800000
 H      27.74700000       3.21000000      18.35300000
 H      28.83300000       3.28200000      19.40700000
 O      26.30300000       5.03700000      21.05800000
 H      27.06500000       4.78000000      20.39900000
 H      26.74800000       5.36100000      21.84700000
 O      21.90800000       6.44800000      23.13700000
 H      22.24900000       5.52200000      23.35000000
 H      22.25200000       6.98900000      23.85000000
