132
XYZ file of cluster: frame_15500_43db.6f199.765cc - created by MolEdiTo
 O      10.97500000      18.73900000      19.36800000
 H      11.38400000      19.19200000      20.16900000
 H      10.35800000      19.47400000      19.21100000
 O       4.47000000      20.45400000      25.55700000
 H       5.22800000      20.98000000      25.63700000
 H       4.39100000      20.04900000      26.40300000
 O       6.06600000      18.26300000      16.91800000
 H       7.00800000      18.37900000      17.17900000
 H       6.27400000      17.88900000      16.01300000
 O       9.24500000      20.33400000      21.81400000
 H       9.12200000      19.46300000      21.32600000
 H       9.35600000      20.17700000      22.78700000
 O       1.54000000      24.23400000      17.59400000
 H       1.00100000      24.42900000      16.82600000
 H       2.10100000      24.96300000      17.65300000
 O      11.39400000      23.42700000      26.61200000
 H      11.34400000      23.52200000      25.62000000
 H      10.51500000      22.98300000      26.67700000
 O       6.97900000      21.71200000      20.37400000
 H       6.65100000      21.11900000      19.64400000
 H       7.89700000      21.44500000      20.51300000
 O      10.96100000      15.85700000      18.99700000
 H      10.05300000      15.62000000      19.28500000
 H      11.10600000      16.84600000      19.32700000
 O      10.36500000      17.22400000      22.73600000
 H      11.03000000      17.26900000      23.43800000
 H      10.63800000      17.73600000      21.98300000
 O       5.19300000      23.88600000      25.68500000
 H       4.78300000      24.30400000      24.85800000
 H       6.01400000      23.45500000      25.40200000
 O       3.80800000      18.70700000      22.69100000
 H       4.67800000      19.26900000      22.64800000
 H       3.86200000      18.28900000      23.57600000
 O       8.74400000      18.81800000      15.99700000
 H       8.15400000      19.24000000      15.32200000
 H       9.65100000      19.18200000      15.75700000
 O       2.51600000      16.04200000      16.47000000
 H       2.91700000      15.64800000      17.23800000
 H       2.78800000      15.58300000      15.68500000
 O      10.49200000      16.42700000      26.01700000
 H      11.31300000      15.85800000      26.04200000
 H       9.68400000      15.92200000      25.81100000
 O       8.45300000      24.24800000      22.17600000
 H       9.13400000      24.40700000      21.51000000
 H       7.77100000      23.85500000      21.66500000
 O      10.13400000      21.30000000      24.68300000
 H      10.38200000      20.60300000      25.36800000
 H      10.92100000      21.46200000      24.06700000
 O       7.21400000      17.91500000      23.25200000
 H       7.89200000      17.30800000      23.56300000
 H       6.46700000      17.98200000      23.94200000
 O       6.73300000      17.86600000      20.50600000
 H       7.13300000      17.18400000      21.07200000
 H       6.70700000      18.69200000      21.07300000
 O       3.22400000      15.55400000      26.01800000
 H       2.38600000      15.92100000      26.32200000
 H       2.98700000      14.60500000      26.14300000
 O       2.56300000      21.09000000      21.10800000
 H       3.53600000      21.23600000      20.85100000
 H       2.54000000      20.15100000      21.34600000
 O       7.37400000      26.07400000      18.46200000
 H       8.28700000      26.33700000      18.85200000
 H       6.83900000      26.44400000      19.15700000
 O       3.08200000      18.68800000      17.37300000
 H       2.86500000      17.78000000      16.95600000
 H       3.78500000      19.16300000      16.85600000
 O       2.18800000      16.80800000      21.74700000
 H       2.86300000      16.22100000      21.35700000
 H       2.64000000      17.59400000      21.91300000
 O       9.64600000      20.96900000      18.54700000
 H      10.29200000      21.04000000      17.86700000
 H       8.95000000      20.54200000      18.02600000
 O       8.78800000      14.77700000      17.04100000
 H       8.97100000      15.74000000      16.84900000
 H       9.62300000      14.25400000      16.63700000
 O       5.70600000      23.78400000      18.43500000
 H       6.04000000      22.87200000      18.34700000
 H       6.43200000      24.21500000      17.98100000
 O       4.08800000      17.13700000      19.39800000
 H       4.97700000      17.41800000      19.75000000
 H       3.89800000      17.95500000      18.88000000
 O       2.20100000      24.73800000      20.96200000
 H       2.46200000      23.99000000      20.44000000
 H       1.31900000      24.87000000      20.70900000
 O       3.57000000      21.70300000      16.05000000
 H       2.61300000      21.47300000      16.11200000
 H       3.42800000      22.67800000      16.19200000
 O       5.68400000      20.82800000      17.93500000
 H       5.01500000      21.25300000      17.42500000
 H       5.88200000      19.99900000      17.31100000
 O       3.76800000      25.93000000      17.85300000
 H       4.20500000      25.21400000      18.27400000
 H       4.33900000      26.76200000      17.95000000
 O       2.74100000      26.33400000      25.98700000
 H       2.18600000      25.58400000      25.74900000
 H       3.52900000      26.16700000      25.44800000
 O       7.14400000      21.88900000      24.79500000
 H       7.68000000      21.03900000      25.00600000
 H       7.79600000      22.60200000      24.82000000
 O      10.73600000      23.17400000      20.66500000
 H      11.43200000      22.72600000      20.10600000
 H      10.25700000      22.48600000      21.18300000
 O       5.41200000      23.94600000      21.13500000
 H       5.98100000      23.11200000      21.12600000
 H       5.54000000      24.26400000      20.13800000
 O       8.49200000      24.21700000      25.63200000
 H       7.93900000      25.02600000      25.34200000
 H       9.30100000      24.25100000      25.14800000
 O       5.07800000      17.19300000      25.00100000
 H       4.56100000      16.40900000      25.23100000
 H       4.82300000      17.84600000      25.67700000
 O       4.69200000      15.51400000      21.61400000
 H       4.54100000      16.37500000      21.23100000
 H       5.52500000      15.44300000      22.18200000
 O       7.73600000      15.26000000      26.23100000
 H       7.18000000      15.08600000      25.34300000
 H       7.69400000      16.21800000      26.47300000
 O       5.58000000      20.84600000      22.52200000
 H       6.16900000      21.15800000      21.82100000
 H       5.92100000      21.40900000      23.26300000
 O       1.49100000      23.82100000      26.47400000
 H       1.55000000      23.08000000      25.75500000
 H       0.55200000      23.91400000      26.78100000
 O       1.97500000      20.98000000      24.48600000
 H       2.68700000      20.54300000      24.92600000
 H       2.39500000      21.62100000      23.86100000
 O       6.74800000      26.81600000      22.90200000
 H       7.37700000      26.06600000      22.87100000
 H       6.71100000      27.01000000      23.90500000
 O       3.86400000      24.85000000      23.54800000
 H       4.65800000      25.10800000      23.02900000
 H       3.39000000      24.47700000      22.79200000
