157
XYZ file of cluster: frame_13000_26778.1fcb7.2636e - created by MolEdiTo
 O      10.65500000      13.34600000      16.17000000
 H      10.14700000      13.30400000      15.35300000
 H      10.95500000      14.24200000      16.14200000
 O      11.27800000      10.50700000      12.11400000
 H      11.88900000       9.83900000      12.40200000
 H      10.52200000       9.89700000      12.08800000
 O      15.85100000       7.48900000      15.33600000
 H      15.38200000       6.88200000      14.67200000
 H      16.17200000       8.17500000      14.72500000
 O      11.92100000      13.30800000      11.48900000
 H      11.78900000      13.49000000      10.50100000
 H      11.38900000      12.51400000      11.62400000
 O      10.51400000       5.89000000       9.66000000
 H       9.58400000       5.82600000       9.72700000
 H      10.48600000       6.86900000       9.67400000
 O       8.95100000       4.29200000      13.23900000
 H       9.68700000       4.07700000      13.90300000
 H       9.06200000       5.27700000      13.28700000
 O      10.09600000      14.04200000       9.24500000
 H       9.26000000      14.37200000       9.37500000
 H      10.31800000      14.21200000       8.32400000
 O      13.03000000      15.34700000      12.56000000
 H      12.60600000      14.46000000      12.18900000
 H      13.81000000      15.35200000      11.94400000
 O       5.95800000       9.55300000      13.10500000
 H       6.17800000       8.64200000      13.04200000
 H       4.95700000       9.54400000      12.98600000
 O      15.11400000       7.01500000      10.33500000
 H      15.43100000       6.15600000       9.89600000
 H      15.89000000       7.45500000      10.89300000
 O      12.20200000       5.13700000      11.48900000
 H      12.78300000       5.92900000      11.58100000
 H      11.65200000       5.24200000      10.58100000
 O       7.07000000      14.39800000      12.02000000
 H       7.86300000      13.73800000      12.04900000
 H       6.30600000      13.77100000      11.98800000
 O       5.92300000      15.79300000      15.04300000
 H       6.17000000      15.51500000      14.10300000
 H       4.96800000      15.87600000      15.05800000
 O       9.05400000      12.59200000      11.26900000
 H       9.53300000      13.14800000      10.70200000
 H       8.39000000      12.20400000      10.63300000
 O      11.74700000      12.48400000       6.34100000
 H      11.56400000      13.42600000       6.58800000
 H      10.88100000      12.09500000       6.54500000
 C      14.56800000      14.46100000      15.77100000
 C      15.82700000      14.86200000      14.98800000
 C      16.25900000      17.12100000      16.40900000
 H      17.08200000      15.18800000      16.85500000
 H      13.51900000      15.43800000      14.47900000
 O      18.16000000      16.04100000      15.35400000
 O      14.65500000      13.84700000      16.85500000
 O      13.38400000      15.06700000      15.40300000
 C      16.80800000      15.74200000      15.91900000
 O      16.52200000      13.68900000      14.50700000
 H      15.41000000      15.44000000      14.18200000
 O      15.07000000      17.35300000      16.38800000
 O      17.17400000      17.99900000      16.85000000
 H      17.95600000      17.51100000      16.59300000
 H      16.89900000      13.30900000      15.34500000
 H      18.00500000      16.32000000      14.42700000
 O      14.17700000       5.36200000       8.18600000
 H      14.57200000       6.07500000       7.59600000
 H      13.31900000       5.31500000       7.72000000
 O      14.65900000      12.15900000       6.35900000
 H      13.78700000      12.57400000       6.56000000
 H      14.54100000      11.23000000       6.25100000
 O      14.89700000       9.70800000      13.43600000
 H      15.39000000       9.37400000      12.68500000
 H      14.02200000       9.23200000      13.50400000
 O       7.30200000      12.01400000       9.20600000
 H       6.94000000      11.07200000       9.24700000
 H       6.53600000      12.48700000       8.99900000
 O      12.86900000       8.26500000      11.17500000
 H      13.70400000       7.66100000      11.14400000
 H      12.69700000       8.18000000      10.23100000
 O      10.32000000       5.75100000       6.54800000
 H       9.59700000       6.25200000       7.08600000
 H      10.19700000       4.90300000       6.94900000
 O       6.83100000       6.82800000      12.02400000
 H       6.49200000       6.32400000      11.23500000
 H       7.75500000       6.61300000      12.18500000
 O      15.42300000      15.32200000      10.96900000
 H      15.25200000      16.04900000      10.25800000
 H      15.44600000      14.49200000      10.34500000
 O       6.87900000       9.64700000       6.45000000
 H       5.94500000       9.77200000       6.22100000
 H       7.40700000      10.05400000       5.72800000
 O       9.03000000      12.91200000      14.00200000
 H       9.30000000      12.68100000      13.09700000
 H       8.53100000      12.11600000      14.32700000
 O       6.25700000       9.55000000       9.65900000
 H       5.60200000       9.25000000      10.37400000
 H       5.98000000       8.96100000       8.97300000
 O       8.41800000       9.40100000      11.59800000
 H       7.85200000       9.21600000      10.80800000
 H       7.84800000       9.62300000      12.43500000
 O      14.82300000       6.36900000       5.76700000
 H      15.50200000       7.11700000       5.64700000
 H      14.27600000       6.33000000       4.93400000
 O       9.51600000      11.61600000       7.45800000
 H       8.84600000      11.14100000       6.92200000
 H       9.07400000      11.87700000       8.29300000
 O      14.79100000      12.46500000      11.90200000
 H      13.82600000      12.70200000      12.09100000
 H      15.18400000      12.26300000      12.81400000
 O       6.96500000      15.22200000       8.37300000
 H       6.06800000      15.02700000       8.04600000
 H       7.27200000      16.05200000       7.98000000
 O      12.97500000       9.10900000       5.46100000
 H      12.20100000       8.51000000       5.66200000
 H      13.45400000       9.09900000       6.30200000
 O      15.55800000      10.33000000      10.08700000
 H      15.32800000      10.94000000      10.83300000
 H      14.88300000      10.58400000       9.44700000
 O       9.12900000      14.10000000       6.07100000
 H       8.15700000      14.21800000       6.11000000
 H       9.38900000      14.39800000       5.15100000
 O       8.30100000      10.35900000      15.04400000
 H       8.83300000       9.58000000      15.11600000
 H       7.48100000      10.03900000      15.41200000
 O       9.87700000       7.26100000      12.17600000
 H       9.61400000       8.22900000      11.85900000
 H      10.75200000       7.39900000      12.61200000
 O       9.82600000      15.93200000      13.91300000
 H       9.16500000      16.58700000      13.54100000
 H       9.60900000      15.01600000      13.52400000
 O      11.93100000       8.05700000      14.71100000
 H      12.04100000       7.20700000      15.29700000
 H      11.57700000       8.76700000      15.29900000
 O      15.19300000       8.86400000       7.41900000
 H      14.85700000       8.89600000       8.34400000
 H      16.06000000       8.54400000       7.69300000
 O      10.16800000       8.95500000       8.93700000
 H       9.36700000       8.64900000       8.34200000
 H      10.47300000       9.77900000       8.46000000
 O       5.61300000      12.32700000      13.76600000
 H       5.96900000      12.54800000      14.67300000
 H       5.64500000      11.36800000      13.67300000
 O      13.08000000      11.61600000      14.41000000
 H      12.48700000      11.63300000      15.17800000
 H      12.46200000      11.26600000      13.73400000
 O      12.76500000      10.98200000       9.03500000
 H      11.95700000      11.28800000       8.52600000
 H      12.31200000      10.66000000       9.87100000
 O       5.96900000       6.94100000      14.93500000
 H       5.37400000       6.19900000      14.55500000
 H       6.29300000       7.17600000      14.07500000
 O      13.88300000       5.59400000      14.09400000
 H      13.13600000       5.34800000      13.51500000
 H      14.45300000       4.77300000      14.19500000
 O       9.78800000       6.14300000      15.12800000
 H      10.42000000       6.61100000      14.52900000
 H       9.14700000       6.78800000      15.52600000
 O       8.23600000       7.53100000       7.57200000
 H       7.69400000       8.04400000       7.00800000
 H       7.62700000       6.84000000       7.90500000
