99
XYZ file of cluster: frame_13000_c6513.3607.c74de - created by MolEdiTo
 O      30.36100000       1.07000000      28.69400000
 H      29.71500000       0.45400000      29.04700000
 H      31.03000000       0.43300000      28.40900000
 O      29.14000000       7.21900000      29.18100000
 H      29.21100000       7.42600000      28.19000000
 H      28.49500000       6.41300000      29.32400000
 O      27.53700000       5.09600000      27.75600000
 H      26.69900000       5.42100000      27.42500000
 H      27.94000000       4.55700000      26.97500000
 O      26.25100000       8.12400000      29.09900000
 H      26.86800000       7.90000000      28.32200000
 H      26.43700000       7.30900000      29.65900000
 O      30.38300000       2.87300000      26.65500000
 H      30.70600000       2.61900000      27.58300000
 H      29.43800000       2.59800000      26.52400000
 O      28.42700000      10.22500000      30.56600000
 H      27.52000000       9.88300000      30.52300000
 H      28.48000000      10.47900000      31.51400000
 O      26.79300000       2.34500000      28.58700000
 H      26.16200000       2.93700000      29.06100000
 H      27.59900000       2.77600000      28.31100000
 O      28.57800000       1.08100000      35.51500000
 H      28.88900000       0.64500000      34.73600000
 H      27.73200000       1.49900000      35.20600000
 O      30.37100000       6.90800000      33.21400000
 H      30.78700000       6.08600000      32.87100000
 H      30.17400000       7.40100000      32.33100000
 O      26.55000000       6.07300000      32.42600000
 H      25.99100000       5.26500000      32.16100000
 H      27.31800000       5.72700000      33.06100000
 O      29.36800000       6.11000000      36.20200000
 H      29.79900000       5.23900000      36.20800000
 H      28.51000000       5.90800000      35.83000000
 O      29.94800000       3.34900000      36.55700000
 H      30.05600000       2.36600000      36.39000000
 H      28.97600000       3.58200000      36.54600000
 O      26.50600000       8.54400000      35.92600000
 H      27.30000000       8.24400000      35.36500000
 H      27.06500000       9.04100000      36.64500000
 O      30.58200000       3.66900000      32.43800000
 H      31.46100000       3.22000000      32.52100000
 H      30.36000000       3.49600000      31.52200000
 O      28.93700000       8.46000000      35.18500000
 H      28.84600000       7.54000000      35.68000000
 H      29.73000000       8.23100000      34.62200000
 O      28.15200000       4.44300000      33.80200000
 H      29.03900000       4.21000000      33.31100000
 H      27.77100000       3.56800000      33.93500000
 O      26.31300000       2.40800000      34.40700000
 H      25.55600000       1.91400000      33.99200000
 H      25.95900000       3.25100000      34.68900000
 O      34.48600000       3.16800000      27.77400000
 H      34.66400000       2.70500000      26.90100000
 H      35.16500000       3.86800000      27.89400000
 O      34.82800000       2.21100000      30.52500000
 H      34.70400000       2.23300000      29.51300000
 H      34.81200000       1.30100000      30.66200000
 O      34.41400000       7.18800000      29.79300000
 H      35.10200000       7.70300000      29.52800000
 H      33.87500000       7.93100000      30.11000000
 O      35.77700000       5.43000000      28.50500000
 H      35.85500000       5.75800000      27.58800000
 H      35.19500000       6.09100000      29.08500000
 O      32.63200000       5.56500000      27.76000000
 H      33.42700000       5.09200000      28.08800000
 H      32.19000000       5.82800000      28.63600000
 O      35.39700000      10.79100000      30.09000000
 H      36.03000000      10.03200000      30.02100000
 H      35.20900000      10.98900000      30.99900000
 O      32.82400000       9.44800000      30.78500000
 H      31.86500000       9.40000000      30.81600000
 H      32.96400000      10.23500000      30.22600000
 O      33.35400000       7.98100000      26.53400000
 H      33.16600000       7.48000000      25.73300000
 H      33.43200000       7.31500000      27.25400000
 O      36.67700000       8.56300000      29.40000000
 H      37.10900000       8.15800000      28.61100000
 H      37.00400000       7.97400000      30.17300000
 O      33.96000000       9.57400000      34.60100000
 H      34.37600000       8.60600000      34.59400000
 H      33.48200000       9.67600000      33.72800000
 O      33.73600000       1.46100000      35.91000000
 H      33.82100000       0.78700000      35.20800000
 H      34.57900000       1.96500000      36.10800000
 O      36.24000000       2.60300000      35.71700000
 H      37.09800000       2.87900000      36.05100000
 H      36.40100000       2.33200000      34.85200000
 O      36.05900000       5.99000000      35.88300000
 H      36.11300000       6.66500000      36.63800000
 H      35.17600000       5.46400000      36.15000000
 O      33.91000000       4.78500000      36.80100000
 H      33.05100000       4.49700000      36.58900000
 H      34.34500000       4.05500000      37.39300000
 O      36.83300000       8.70600000      35.34100000
 H      36.48800000       9.58200000      35.65800000
 H      36.10900000       8.05300000      35.26700000
 O      37.14000000       4.22200000      32.73500000
 H      36.51100000       3.51200000      32.60700000
 H      36.84200000       4.94500000      32.08700000
