169
XYZ file of cluster: frame_13000_67dc8.206f2.4ca53 - created by MolEdiTo
 O      20.22200000       5.38400000      10.79900000
 H      19.98700000       6.22500000      10.35400000
 H      20.30800000       5.61500000      11.75800000
 O      15.85100000       7.48900000      15.33600000
 H      15.38200000       6.88200000      14.67200000
 H      16.17200000       8.17500000      14.72500000
 O      18.56600000      13.32600000      12.82800000
 H      17.81100000      13.54300000      13.46600000
 H      18.17500000      13.28800000      11.94000000
 O      21.54700000      10.36000000      20.93000000
 H      20.85500000       9.78900000      20.53400000
 H      21.29700000      10.59200000      21.84800000
 O      26.95000000       7.04400000      11.12800000
 H      26.04500000       7.33900000      11.43100000
 H      26.77200000       7.04100000      10.15800000
 O      25.70400000       5.78000000      15.02600000
 H      26.60100000       5.83000000      14.49200000
 H      25.78800000       4.94300000      15.56600000
 O      20.75000000       7.56200000      13.82300000
 H      21.41100000       8.04600000      14.34700000
 H      20.00500000       7.28400000      14.41400000
 O      15.11400000       7.01500000      10.33500000
 H      15.43100000       6.15600000       9.89600000
 H      15.89000000       7.45500000      10.89300000
 O      23.69700000       6.98600000      11.58500000
 H      23.32400000       7.33000000      10.74400000
 H      23.87500000       6.06200000      11.40200000
 O      21.53100000       4.59400000      14.00100000
 H      20.55600000       4.67200000      14.15300000
 H      21.87200000       5.44500000      14.29700000
 O      25.82900000       8.81400000      14.36500000
 H      26.63900000       8.39200000      14.00900000
 H      25.65200000       8.31700000      15.21100000
 O      26.32700000      12.48900000      11.99300000
 H      27.07900000      13.12800000      12.28700000
 H      25.65200000      12.52500000      12.72400000
 C      14.56800000      14.46100000      15.77100000
 C      15.82700000      14.86200000      14.98800000
 C      16.25900000      17.12100000      16.40900000
 H      17.08200000      15.18800000      16.85500000
 H      13.51900000      15.43800000      14.47900000
 O      18.16000000      16.04100000      15.35400000
 O      14.65500000      13.84700000      16.85500000
 O      13.38400000      15.06700000      15.40300000
 C      16.80800000      15.74200000      15.91900000
 O      16.52200000      13.68900000      14.50700000
 H      15.41000000      15.44000000      14.18200000
 O      15.07000000      17.35300000      16.38800000
 O      17.17400000      17.99900000      16.85000000
 H      17.95600000      17.51100000      16.59300000
 H      16.89900000      13.30900000      15.34500000
 H      18.00500000      16.32000000      14.42700000
 O      16.55700000      15.02200000      21.26100000
 H      16.12700000      15.33000000      22.06000000
 H      15.90500000      14.43300000      20.88600000
 O      20.42700000      14.90600000      16.50100000
 H      20.56200000      15.78400000      16.98000000
 H      19.47500000      15.06300000      16.27800000
 O      24.09800000      12.52100000      14.13300000
 H      24.06000000      13.21900000      14.92200000
 H      23.56700000      11.83600000      14.52000000
 O      19.65500000      12.66200000      21.06700000
 H      18.71300000      12.78600000      21.35300000
 H      19.57600000      11.75300000      20.71900000
 O      22.14400000      13.72800000      20.68000000
 H      21.17400000      13.30400000      20.82300000
 H      22.68500000      12.96300000      20.55500000
 O      18.61200000      15.87600000      10.82500000
 H      17.70100000      15.49200000      10.97200000
 H      19.08600000      15.27700000      10.20900000
 O      26.12100000      14.81300000      19.53900000
 H      25.39200000      14.15700000      19.40100000
 H      26.56600000      15.00800000      18.70600000
 O      16.11500000      12.87600000      19.20500000
 H      15.61700000      13.33300000      18.44600000
 H      16.78600000      12.38800000      18.74500000
 O      19.91500000       5.33400000      16.25300000
 H      18.99400000       4.92700000      16.18400000
 H      19.88800000       5.81000000      17.15200000
 O      16.55100000      10.16500000      17.74700000
 H      16.92600000      10.75200000      17.03100000
 H      15.70200000       9.87400000      17.30200000
 O      24.39900000      16.39900000      12.70800000
 H      23.79100000      17.15100000      12.55700000
 H      23.82100000      15.63700000      12.95800000
 O      24.54900000       5.39300000      19.72200000
 H      24.31900000       6.04400000      20.33900000
 H      23.74700000       5.37500000      19.10200000
 O      22.81600000       9.77300000      15.86400000
 H      22.85400000       9.72600000      14.87300000
 H      23.68100000      10.23600000      16.05700000
 O      21.07100000      11.61100000      14.86800000
 H      21.90100000      12.06000000      15.28700000
 H      21.04700000      10.60500000      15.14400000
 O      23.62500000      16.42000000      19.15100000
 H      23.46100000      15.60000000      18.63700000
 H      22.79100000      16.90000000      18.92500000
 O      22.73800000       9.89000000      13.01700000
 H      21.93000000      10.23200000      12.52400000
 H      23.37700000       9.39200000      12.42600000
 O      19.70900000       6.85600000      18.40500000
 H      18.84200000       7.25200000      18.13000000
 H      19.74200000       6.97200000      19.42500000
 O      26.56700000       7.81600000      16.77600000
 H      25.83500000       7.10300000      16.66100000
 H      26.92000000       7.84000000      17.72900000
 O      19.89200000       8.52300000      11.11100000
 H      20.44200000       8.36700000      11.89600000
 H      20.64500000       8.62500000      10.50200000
 O      22.80000000      12.98000000      11.59400000
 H      23.57000000      12.67000000      12.11600000
 H      22.11900000      12.23100000      11.67300000
 O      23.39700000       6.98700000      14.36400000
 H      24.26400000       6.57300000      14.72100000
 H      23.57100000       7.15900000      13.34500000
 O      26.83700000       7.75100000      19.43800000
 H      27.46600000       7.42000000      20.10600000
 H      26.13900000       8.12100000      20.05500000
 O      17.09700000       8.75600000      11.65900000
 H      17.81800000       8.23200000      11.26800000
 H      16.79200000       9.40800000      10.98300000
 O      22.07700000      13.02200000      17.69700000
 H      21.56000000      13.77600000      17.36600000
 H      22.56100000      13.30000000      18.56100000
 O      22.66700000       5.98600000      17.51200000
 H      22.13900000       5.82200000      16.69700000
 H      23.00900000       6.86300000      17.31700000
 O      18.01100000      10.51500000      13.62100000
 H      17.46200000       9.86100000      13.11000000
 H      17.90500000      11.38200000      13.20800000
 O      24.78600000      12.41200000      18.49000000
 H      24.11600000      12.19600000      17.81200000
 H      25.62600000      12.22500000      18.07800000
 O      20.38900000      11.13300000      11.93800000
 H      20.19900000      11.18200000      12.93300000
 H      19.44500000      11.23400000      11.61200000
 O      23.96500000       9.00900000      19.46900000
 H      24.25600000       9.89200000      19.53500000
 H      23.11900000       9.14100000      18.96500000
 O      20.58300000       6.71200000      20.97000000
 H      20.73500000       6.32900000      21.87000000
 H      19.85400000       7.34700000      21.25200000
 O      24.93300000      14.66500000       9.95600000
 H      24.77000000      13.72000000      10.29000000
 H      24.66000000      15.30900000      10.66700000
 O      16.82400000       5.88500000      17.36100000
 H      16.40600000       6.34900000      18.07400000
 H      16.51000000       6.53300000      16.60500000
 O      17.86500000       5.04300000      19.96900000
 H      17.91900000       5.37400000      19.02700000
 H      18.24500000       4.15900000      19.90700000
 O      23.27700000      14.95400000      15.82300000
 H      22.51800000      15.61600000      15.79500000
 H      22.94600000      14.26200000      16.38900000
 O      17.75200000      12.02600000      16.39000000
 H      18.35400000      11.42300000      15.99500000
 H      18.22000000      12.48600000      17.09900000
 O      25.90400000      10.81600000      16.23700000
 H      26.73100000      10.65700000      16.77300000
 H      26.09100000      10.33300000      15.41100000
 O      18.65200000      13.79100000      18.79600000
 H      17.86300000      13.93000000      19.34700000
 H      19.40000000      13.79600000      19.48000000
 O      20.65100000      15.62800000      13.34600000
 H      20.31300000      15.27600000      14.19400000
 H      20.07600000      15.25600000      12.67600000
 O      19.22500000      10.46800000      18.78100000
 H      18.45700000       9.99400000      18.44200000
 H      19.85600000      10.42500000      18.06600000
