108
XYZ file of cluster: frame_13000_c6513.c2dea.0 - created by MolEdiTo
 O      26.44300000      26.03000000      10.84700000
 H      26.66800000      25.47800000      11.62000000
 H      27.35800000      26.23500000      10.41800000
 O      29.13800000      26.76100000      10.50100000
 H      29.06400000      27.36100000      11.28000000
 H      29.46600000      25.94200000      10.97700000
 O      29.47500000      30.53200000       7.47300000
 H      28.87100000      29.83800000       7.26000000
 H      28.99300000      30.91900000       8.24500000
 O      30.18000000      29.44600000       2.25600000
 H      30.40000000      28.49500000       2.34300000
 H      31.00500000      29.88200000       2.56800000
 O      27.01000000      28.45900000       2.59200000
 H      27.44800000      28.91100000       3.35100000
 H      27.55000000      28.79300000       1.79100000
 O      29.20200000      25.47400000       8.01500000
 H      29.01000000      26.12600000       8.77400000
 H      28.42000000      25.35800000       7.45600000
 O      26.96300000      25.84300000       3.72400000
 H      26.74900000      26.14700000       4.62100000
 H      26.99700000      26.68100000       3.19100000
 O      30.59300000      28.23500000       5.42100000
 H      30.92200000      29.00500000       6.02300000
 H      29.80400000      28.66200000       4.96600000
 O      27.59400000      29.07100000       5.44900000
 H      27.94200000      29.96100000       5.18700000
 H      26.92900000      29.31300000       6.17900000
 O      29.69700000      26.55400000       2.78500000
 H      28.73600000      26.66100000       2.86500000
 H      29.68800000      25.81700000       2.08600000
 O      26.55100000      29.60800000       8.16100000
 H      25.98000000      28.78000000       7.98900000
 H      26.77600000      29.43400000       9.14100000
 O      28.57800000      32.38700000       3.99300000
 H      28.88900000      31.95100000       3.21400000
 H      27.73200000      32.80500000       3.68400000
 O      30.75100000      34.82000000       8.85200000
 H      31.09900000      35.72900000       8.79300000
 H      29.85600000      35.14300000       8.44400000
 O      27.81400000      35.79100000      10.55300000
 H      27.24600000      36.60600000      10.42500000
 H      27.42500000      35.15500000       9.87900000
 O      29.94800000      34.65500000       5.03500000
 H      30.05600000      33.67200000       4.86800000
 H      28.97600000      34.88800000       5.02400000
 O      27.42400000      35.09200000       6.47200000
 H      27.30400000      34.58700000       7.26200000
 H      26.53000000      34.85200000       6.05800000
 O      28.89400000      32.82500000       9.97000000
 H      29.10500000      33.73100000      10.19900000
 H      29.45200000      32.32100000      10.59600000
 O      30.58200000      34.97500000       0.91600000
 H      31.46100000      34.52600000       0.99900000
 H      30.36000000      34.80200000       0.00000000
 O      28.15200000      35.74900000       2.28000000
 H      29.03900000      35.51600000       1.78900000
 H      27.77100000      34.87400000       2.41300000
 O      26.31300000      33.71400000       2.88500000
 H      25.55600000      33.22000000       2.47000000
 H      25.95900000      34.55700000       3.16700000
 O      34.21300000      29.47700000       2.35100000
 H      34.46400000      28.60100000       2.74300000
 H      34.69000000      29.30900000       1.51700000
 O      36.88400000      27.99700000       8.14600000
 H      37.65100000      28.60100000       8.32900000
 H      36.57400000      28.24400000       7.27900000
 O      34.55100000      26.63300000       3.21000000
 H      34.39400000      25.74900000       3.60800000
 H      34.58600000      26.46400000       2.25100000
 O      37.04000000      26.26600000       1.12800000
 H      36.11300000      25.91500000       0.97500000
 H      37.40200000      25.78000000       1.93700000
 O      33.60900000      29.31500000      10.10900000
 H      33.83900000      28.34000000      10.32800000
 H      33.80900000      29.34700000       9.19500000
 O      33.51200000      30.25200000       6.81600000
 H      32.64800000      30.51200000       7.22000000
 H      33.53900000      30.80000000       6.01900000
 O      36.61200000      25.44200000       9.40900000
 H      36.94600000      26.38000000       9.10000000
 H      36.35300000      24.98800000       8.53100000
 O      34.49400000      26.68900000      11.05000000
 H      34.74000000      26.01500000      10.37200000
 H      35.37400000      27.02600000      11.41000000
 O      35.38400000      27.33400000       5.68200000
 H      35.07500000      26.95300000       4.85200000
 H      34.62300000      27.13700000       6.22900000
 O      36.55300000      30.21500000      10.57300000
 H      36.72400000      30.15900000       9.58800000
 H      37.31200000      29.77200000      10.95600000
 O      37.05700000      36.17700000       7.78600000
 H      36.30100000      35.73400000       7.34700000
 H      37.66100000      36.21300000       7.00800000
 O      33.73600000      32.76700000       4.38800000
 H      33.82100000      32.09300000       3.68600000
 H      34.57900000      33.27100000       4.58600000
 O      36.24000000      33.90900000       4.19500000
 H      37.09800000      34.18500000       4.52900000
 H      36.40100000      33.63800000       3.33000000
 O      34.70600000      34.22600000       7.48100000
 H      33.92700000      34.48900000       8.04500000
 H      34.70100000      33.27000000       7.62600000
 O      33.91000000      36.09100000       5.27900000
 H      33.05100000      35.80300000       5.06700000
 H      34.34500000      35.36100000       5.87100000
 O      37.14000000      35.52800000       1.21300000
 H      36.51100000      34.81800000       1.08500000
 H      36.84200000      36.25100000       0.56500000
