342
XYZ file of cluster: frame_4000_9c100.c52ad.7598b - created by MolEdiTo
 O      34.69900000      37.09400000      28.20400000
 H      34.64600000      37.97400000      28.65200000
 H      34.62900000      37.37100000      27.29900000
 O      36.03200000      34.41200000      29.72900000
 H      36.28000000      35.24500000      30.19000000
 H      36.60600000      33.79800000      30.18000000
 O      38.20000000      39.85800000      35.98600000
 H      38.06600000      39.17300000      36.67800000
 H      38.10900000      39.27600000      35.19500000
 O      31.22700000      37.15600000      28.52700000
 H      31.91600000      36.70100000      29.07400000
 H      31.20900000      38.05300000      28.95800000
 O      39.80600000      35.84200000      26.73900000
 H      39.78900000      35.34700000      25.85900000
 H      39.58500000      36.70600000      26.44300000
 O      37.28100000      40.12100000      27.51200000
 H      36.80400000      40.93500000      27.64800000
 H      36.85400000      39.59300000      28.18800000
 O      32.95100000      40.31400000      28.19500000
 H      32.16900000      39.99800000      27.74900000
 H      32.76200000      40.03300000      29.11600000
 O      31.38600000      39.20500000      30.16700000
 H      31.98000000      38.96400000      30.87700000
 H      30.71100000      39.75900000      30.60900000
 O      27.82200000      37.10400000      24.07800000
 H      28.63400000      37.40100000      23.71800000
 H      27.55500000      37.93800000      24.60800000
 O      40.32300000      37.74800000      37.01600000
 H      40.80000000      38.53100000      36.63400000
 H      40.12800000      37.21400000      36.25400000
 O      39.71500000      37.89400000      30.92000000
 H      40.09500000      38.03800000      31.80900000
 H      40.48600000      38.14000000      30.38600000
 O      37.59200000      39.30900000      31.62100000
 H      38.20500000      38.64000000      31.26800000
 H      38.17500000      40.11300000      31.65700000
 O      29.52000000      34.46000000      34.50100000
 H      29.51200000      35.24000000      33.86300000
 H      28.69300000      34.04500000      34.24100000
 O      29.29200000      36.54300000      30.42400000
 H      30.01100000      36.68000000      29.75900000
 H      28.51400000      36.55400000      29.86100000
 O      38.49500000      37.19300000      24.54000000
 H      37.58900000      37.22900000      24.78100000
 H      38.38000000      36.97200000      23.54600000
 O      35.69700000      35.12400000      26.69700000
 H      34.73400000      34.94100000      26.82800000
 H      35.77300000      35.74200000      27.47400000
 O      28.96600000      40.43500000      31.10900000
 H      28.23200000      40.64600000      31.73400000
 H      28.43600000      40.24300000      30.37200000
 O      31.00400000      36.84100000      40.59800000
 H      30.85000000      36.19000000      41.31600000
 H      30.69000000      36.22100000      39.87800000
 O      29.04200000      39.15700000      25.59700000
 H      29.82100000      39.79600000      25.75800000
 H      29.33000000      38.82300000      24.71700000
 O      32.40200000      37.51900000      24.56600000
 H      32.96100000      38.01700000      25.18000000
 H      33.03300000      37.28100000      23.85500000
 O      37.56400000      38.43000000      38.27000000
 H      37.45200000      37.50700000      38.56700000
 H      38.20200000      38.77600000      38.91500000
 O      32.31000000      34.44900000      23.42800000
 H      32.26800000      34.24300000      24.34800000
 H      31.36700000      34.75800000      23.26900000
 O      40.08700000      34.25600000      28.96500000
 H      39.91000000      34.85900000      28.17600000
 H      40.17800000      33.40300000      28.62800000
 O      37.37100000      35.75700000      38.96400000
 H      37.31900000      35.08100000      39.66200000
 H      37.46700000      35.17400000      38.18900000
 O      38.39800000      38.69000000      21.72900000
 H      39.39800000      38.57300000      21.79800000
 H      38.10000000      37.76700000      21.63900000
 O      36.32000000      34.48600000      23.90500000
 H      36.95300000      33.72300000      24.07500000
 H      36.27300000      34.80300000      24.82600000
 O      35.38400000      39.28700000      29.79500000
 H      35.05500000      40.15000000      30.01400000
 H      36.14900000      39.20400000      30.44600000
 O      29.75400000      37.11000000      33.12100000
 H      30.35500000      37.81200000      33.40900000
 H      29.70800000      37.11400000      32.12300000
 O      35.00800000      39.25100000      37.85100000
 H      35.92900000      39.45600000      37.97500000
 H      34.60400000      39.98300000      38.38900000
 O      27.97800000      38.12800000      27.89900000
 H      28.36900000      38.50400000      27.03700000
 H      27.25800000      37.60000000      27.45000000
 O      40.02800000      40.43900000      27.09600000
 H      39.04400000      40.30000000      27.33300000
 H      40.06100000      40.07300000      26.17600000
 O      27.33300000      38.41000000      33.39300000
 H      26.86200000      38.14100000      32.58300000
 H      28.17800000      37.96500000      33.34100000
 O      27.68800000      38.87600000      39.97100000
 H      26.88400000      38.53100000      39.54000000
 H      28.09200000      38.07500000      40.32200000
 O      32.83000000      36.05300000      32.77500000
 H      32.99200000      35.66400000      31.95100000
 H      33.06400000      37.00200000      32.56700000
 O      27.27800000      36.81500000      37.83400000
 H      27.78200000      37.16800000      37.08400000
 H      26.41500000      37.23200000      37.73300000
 O      33.00600000      35.54400000      29.76200000
 H      33.79100000      35.90800000      29.39900000
 H      33.28800000      34.63300000      29.92500000
 O      34.51000000      36.94500000      23.10300000
 H      35.27400000      37.56800000      23.16300000
 H      34.95800000      36.10500000      23.42700000
 O      27.38100000      34.61700000      28.78300000
 H      27.83300000      35.26100000      28.24500000
 H      27.58100000      33.78300000      28.28300000
 O      37.80000000      36.10900000      22.02300000
 H      38.10400000      35.59600000      21.22200000
 H      37.18000000      35.40300000      22.38500000
 O      33.50500000      38.65000000      32.03600000
 H      33.23000000      39.48500000      32.49300000
 H      34.47600000      38.88100000      31.85500000
 O      34.78800000      38.51600000      25.78200000
 H      35.30900000      38.79300000      25.03500000
 H      34.78300000      39.34100000      26.31000000
 O      32.52100000      36.44000000      21.16000000
 H      32.98200000      36.22400000      21.99800000
 H      32.34100000      37.39500000      21.29700000
 O      30.84500000      34.80400000      38.80700000
 H      31.69000000      34.33100000      38.48400000
 H      30.24600000      34.71300000      38.06700000
 O      29.95100000      36.41100000      26.16100000
 H      30.64300000      36.65900000      25.60600000
 H      30.26100000      36.73000000      26.98600000
 O      34.89600000      36.91600000      39.17300000
 H      35.80500000      36.53200000      39.03900000
 H      34.92600000      37.56400000      38.45300000
 O      38.83500000      39.10600000      40.62300000
 H      38.38800000      38.65600000      41.38100000
 H      39.16200000      39.94400000      41.09300000
 O      37.59600000      38.13400000      33.99600000
 H      36.70800000      37.71400000      34.10700000
 H      37.51400000      38.56500000      33.13500000
 O      31.59400000      38.67400000      35.01100000
 H      31.79100000      37.69500000      35.19400000
 H      31.68300000      38.99800000      35.91600000
 O      39.25600000      35.13500000      31.19600000
 H      39.63800000      34.84200000      30.34300000
 H      39.50200000      36.09500000      31.14500000
 O      30.08600000      38.24800000      23.21700000
 H      30.97900000      37.94400000      23.39300000
 H      30.20200000      38.82500000      22.46500000
 O      32.00500000      35.86400000      35.44700000
 H      32.69800000      35.33800000      34.96500000
 H      31.20500000      35.42100000      35.14300000
 O      35.30300000      36.60500000      34.27900000
 H      34.35200000      36.70400000      33.93200000
 H      35.18000000      36.09700000      35.14000000
 O      31.47800000      40.49200000      25.52400000
 H      32.08000000      40.03200000      24.89200000
 H      31.40500000      41.36100000      25.03900000
 O      28.48900000      35.04600000      20.14700000
 H      28.56800000      36.03600000      19.96500000
 H      28.02100000      35.02200000      20.99500000
 O      28.13600000      34.55400000      25.81600000
 H      27.35800000      35.14300000      25.64200000
 H      28.82100000      35.32600000      25.90300000
 O      39.66300000      36.24600000      34.71100000
 H      38.93500000      36.72000000      34.33000000
 H      39.42700000      35.26000000      34.61700000
 O      36.20500000      36.44700000      31.56000000
 H      37.02000000      36.35100000      32.04000000
 H      35.55900000      36.49100000      32.37000000
 O      36.32400000      39.04200000      23.52800000
 H      37.07000000      39.03300000      22.86700000
 H      35.93400000      39.86900000      23.31500000
 O      30.39600000      40.06200000      20.87300000
 H      30.72800000      40.96600000      21.14000000
 H      31.24400000      39.61500000      20.62900000
 O      32.83100000      38.96800000      21.52400000
 H      33.38900000      39.60900000      20.94700000
 H      33.46600000      38.88900000      22.23900000
 O      39.19700000      42.79700000      23.71700000
 H      38.70000000      43.13700000      22.91600000
 H      38.66100000      42.02000000      23.97000000
 O      34.52400000      42.28100000      23.49800000
 H      35.10000000      42.87600000      24.11600000
 H      33.99500000      43.04600000      23.11800000
 O      35.47600000      46.63400000      28.66000000
 H      35.24600000      46.93900000      29.55900000
 H      35.48700000      47.51100000      28.18000000
 O      35.22000000      45.86700000      38.78400000
 H      35.28900000      44.89700000      38.64700000
 H      34.25100000      45.96700000      38.75300000
 O      34.01300000      48.93200000      36.75800000
 H      33.92100000      48.14100000      36.22100000
 H      33.15000000      49.39800000      36.63400000
 O      31.50900000      46.86400000      26.56500000
 H      31.75100000      47.74700000      26.25500000
 H      32.00400000      46.29300000      25.91500000
 O      32.51100000      44.81800000      38.75400000
 H      32.15900000      45.58700000      39.24200000
 H      31.78700000      44.17500000      38.78400000
 O      26.87300000      47.80600000      39.28900000
 H      27.43400000      47.99000000      38.50700000
 H      27.58100000      47.53500000      39.91700000
 O      35.32800000      43.63000000      27.76900000
 H      34.44200000      43.40100000      27.93300000
 H      35.37800000      44.58700000      27.93000000
 O      40.06400000      47.88000000      39.70300000
 H      39.37900000      47.33700000      39.26700000
 H      39.93500000      48.74300000      39.19900000
 O      38.16900000      43.80200000      38.52600000
 H      38.25100000      43.31400000      39.36100000
 H      39.05300000      44.08900000      38.34600000
 O      38.04300000      48.36700000      29.75700000
 H      37.89100000      48.77400000      28.84400000
 H      38.31100000      47.47200000      29.47000000
 O      30.42500000      46.47400000      29.00900000
 H      31.09800000      46.80800000      28.34000000
 H      30.81100000      45.65900000      29.26500000
 O      35.76200000      47.84500000      31.10700000
 H      36.76100000      47.92500000      30.89100000
 H      35.50900000      48.74800000      31.01100000
 O      28.36100000      43.94800000      27.95000000
 H      28.09800000      44.65500000      28.60200000
 H      27.90500000      43.21100000      28.36700000
 O      38.42100000      45.25700000      25.87800000
 H      38.26400000      46.03300000      25.26300000
 H      39.20700000      44.85200000      25.37700000
 O      28.94300000      48.26900000      32.87000000
 H      29.21700000      47.49600000      33.35600000
 H      28.92500000      47.96300000      31.94000000
 O      38.87900000      46.04100000      36.34000000
 H      38.41400000      46.83700000      36.01800000
 H      38.49600000      46.07600000      37.26600000
 O      38.08800000      47.34900000      24.28900000
 H      37.51300000      48.01700000      24.79200000
 H      38.71700000      47.96800000      23.88700000
 O      34.50800000      45.71300000      32.41200000
 H      34.87000000      46.46700000      31.92900000
 H      35.01900000      45.81800000      33.25400000
 O      29.00600000      45.17300000      37.34600000
 H      28.96300000      44.34100000      37.77400000
 H      28.08900000      45.51700000      37.43100000
 O      36.90600000      48.15100000      20.16000000
 H      37.91500000      48.18600000      19.93700000
 H      36.94700000      48.92400000      20.83000000
 O      28.98400000      42.73900000      34.60100000
 H      29.21200000      42.50600000      33.68900000
 H      29.83000000      42.90800000      35.10500000
 O      31.47900000      44.13800000      21.31700000
 H      31.85400000      44.15600000      20.40500000
 H      30.65100000      44.70400000      21.05700000
 O      37.46000000      43.27300000      21.62800000
 H      37.10300000      42.67200000      21.00100000
 H      36.78900000      44.03600000      21.62600000
 O      28.18300000      47.23200000      30.47300000
 H      27.41600000      46.58900000      30.49500000
 H      28.81600000      46.61200000      29.91500000
 O      32.37500000      48.88900000      30.28800000
 H      32.83100000      49.47300000      30.83900000
 H      32.36800000      48.06200000      30.86000000
 O      32.83200000      42.09100000      33.37800000
 H      32.35000000      41.47500000      33.92100000
 H      33.08300000      42.74400000      34.10300000
 O      32.20600000      47.91200000      22.29500000
 H      33.06100000      48.40000000      22.21200000
 H      32.55400000      47.01000000      22.11300000
 O      31.15300000      43.39800000      35.92000000
 H      32.07300000      43.49600000      35.66500000
 H      31.33300000      43.24100000      36.90700000
 O      33.96900000      42.97500000      31.00300000
 H      34.07100000      43.89000000      31.29600000
 H      33.62600000      42.48800000      31.80800000
 O      36.10600000      43.68000000      25.14100000
 H      37.07100000      43.96500000      25.24300000
 H      35.97900000      43.51800000      26.12600000
 O      31.87500000      43.95600000      29.48800000
 H      32.63200000      43.90600000      30.20300000
 H      32.06500000      43.12500000      29.02300000
 O      34.05700000      43.69300000      35.22200000
 H      34.63000000      44.40100000      34.85200000
 H      34.73500000      43.17200000      35.72600000
 O      39.67900000      43.46000000      34.99200000
 H      38.93900000      42.80600000      35.30500000
 H      39.32200000      44.29600000      35.37300000
 O      35.98400000      46.73500000      22.41400000
 H      36.70700000      46.98100000      23.01900000
 H      36.11300000      47.33300000      21.64700000
 O      39.32400000      42.82000000      32.16300000
 H      39.41200000      43.54900000      31.52400000
 H      39.60100000      43.20400000      32.96600000
 O      38.20100000      45.75800000      28.56900000
 H      37.22100000      45.92600000      28.65300000
 H      38.33900000      45.38000000      27.71600000
 O      39.99000000      45.13100000      30.59300000
 H      40.68500000      45.75000000      30.33200000
 H      39.32900000      45.35700000      29.94700000
 O      37.56100000      46.93300000      38.68300000
 H      37.40900000      47.91000000      38.65800000
 H      36.64100000      46.56200000      38.59100000
 O      31.72200000      44.06600000      23.92100000
 H      31.59100000      44.13500000      22.93100000
 H      32.49000000      44.71200000      23.96500000
 O      34.06900000      45.64500000      23.77600000
 H      34.77300000      45.42400000      24.46700000
 H      34.67700000      46.10300000      23.14600000
 O      31.97700000      47.01400000      32.80500000
 H      32.64000000      46.29300000      32.55500000
 H      31.38600000      46.47800000      33.42100000
 O      30.51600000      42.57900000      38.57400000
 H      29.56200000      42.42700000      38.31900000
 H      30.54200000      41.89400000      39.27900000
 O      28.55100000      48.40700000      37.14800000
 H      28.33300000      48.85600000      36.28200000
 H      29.38800000      47.94100000      36.95300000
 O      30.03200000      46.01500000      34.73900000
 H      29.54600000      45.14400000      34.58600000
 H      30.32800000      45.76900000      35.65000000
 O      37.71800000      48.25100000      34.43000000
 H      38.49500000      47.74200000      34.14600000
 H      37.74500000      49.04100000      33.81200000
 O      27.50600000      44.57600000      25.53100000
 H      26.63700000      44.65600000      25.92900000
 H      28.00200000      44.22400000      26.28500000
 O      35.88800000      46.07200000      34.59500000
 H      36.37700000      46.90700000      34.58200000
 H      36.46400000      45.48100000      35.08600000
 O      34.46500000      42.75000000      39.73500000
 H      33.76500000      43.32200000      39.39600000
 H      34.00100000      42.03800000      40.16200000
 O      27.83400000      42.61400000      38.60500000
 H      26.88900000      42.67500000      38.21800000
 H      27.75000000      41.72700000      39.05600000
 O      28.80900000      47.23700000      25.70600000
 H      28.53600000      46.42800000      25.21700000
 H      29.63200000      46.96900000      26.16700000
 O      36.47300000      43.52100000      36.56600000
 H      36.98500000      43.75500000      37.31300000
 H      37.01600000      42.72100000      36.27400000
 O      29.14000000      45.52000000      20.89000000
 H      28.71600000      45.13200000      21.69200000
 H      28.59900000      46.30400000      20.76100000
