1131
XYZ file of cluster: frame_4000_9bb0c.73931.b84 - created by MolEdiTo
 O      39.64200000      25.85500000      17.52200000
 H      38.83800000      25.43100000      17.07600000
 H      40.26700000      25.84000000      16.71900000
 O      34.95800000      24.50000000      16.54100000
 H      34.37300000      23.75400000      17.01100000
 H      35.28200000      24.90400000      17.40400000
 O      40.21600000      37.25600000       7.33600000
 H      40.84900000      36.49100000       7.29200000
 H      39.95400000      37.26800000       8.26000000
 O      36.89600000      21.34800000      30.77300000
 H      36.87300000      21.06100000      31.71300000
 H      37.09100000      22.28100000      30.95200000
 O      37.69600000      22.79000000       4.44500000
 H      37.52600000      22.08400000       3.76200000
 H      37.91900000      22.21300000       5.20000000
 O      31.03700000      31.10900000      26.48900000
 H      31.76300000      30.43100000      26.45100000
 H      30.83700000      30.99400000      27.44800000
 O      37.85700000      33.73800000      26.44200000
 H      38.55500000      34.37000000      26.59500000
 H      37.08100000      34.32700000      26.62400000
 O      39.55800000      38.19800000       9.91000000
 H      40.05700000      38.83500000      10.50100000
 H      38.86300000      38.86600000       9.69300000
 O      39.93600000      32.66700000      37.59100000
 H      39.88900000      32.57900000      38.53900000
 H      40.53100000      33.51700000      37.49100000
 O      32.81800000      36.74500000      11.92800000
 H      32.36600000      35.89100000      12.17400000
 H      32.99700000      37.11400000      12.81700000
 O      39.96900000      31.75500000      17.66900000
 H      39.04800000      31.76100000      17.43700000
 H      40.35400000      32.27200000      16.98800000
 O      29.71900000      20.11300000      16.68900000
 H      29.78300000      21.01200000      16.97800000
 H      29.57500000      19.62200000      17.50900000
 O      33.92300000      30.49400000      32.00100000
 H      34.77100000      30.55000000      31.50500000
 H      34.24300000      30.93400000      32.80800000
 O      28.04700000      34.12900000       3.89600000
 H      28.39500000      33.68900000       4.71800000
 H      27.35900000      34.68000000       4.29100000
 O      27.33300000      38.41000000      33.39300000
 H      26.86200000      38.14100000      32.58300000
 H      28.17800000      37.96500000      33.34100000
 O      27.68800000      38.87600000      39.97100000
 H      26.88400000      38.53100000      39.54000000
 H      28.09200000      38.07500000      40.32200000
 O      30.95800000      35.45000000       7.20200000
 H      31.64400000      35.74400000       7.91700000
 H      30.18100000      35.97000000       7.60500000
 O      35.89200000      35.18300000      14.98900000
 H      35.55200000      34.53300000      15.63700000
 H      35.79000000      36.00300000      15.56000000
 O      33.78900000      23.91200000       7.22700000
 H      34.72000000      23.78700000       7.12000000
 H      33.78300000      24.78600000       7.75700000
 O      38.43500000      31.70800000      13.82800000
 H      38.78000000      32.54200000      13.56700000
 H      38.17200000      31.81800000      14.73700000
 O      37.86400000      26.06500000      20.52600000
 H      38.10800000      26.89900000      20.05000000
 H      38.77600000      25.65600000      20.51500000
 O      29.44300000      32.01500000      14.36000000
 H      28.60900000      32.53200000      14.55200000
 H      29.10800000      31.39900000      13.69000000
 O      35.20800000      33.88100000       7.80100000
 H      35.24800000      32.90600000       7.82000000
 H      35.79700000      34.08700000       7.02100000
 O      31.39000000      34.72500000      19.44500000
 H      30.96000000      34.61900000      20.30400000
 H      32.02700000      35.32500000      19.57600000
 O      33.03900000      21.77000000       1.13300000
 H      32.60500000      22.65500000       1.36000000
 H      32.47700000      21.18200000       1.68000000
 O      29.33300000      33.96000000      23.33800000
 H      29.16000000      34.03100000      24.32700000
 H      28.52300000      34.28400000      22.95500000
 O      34.12900000      36.10200000      18.83900000
 H      33.94300000      36.92100000      18.29500000
 H      33.65800000      36.34500000      19.66300000
 O      38.20000000      39.85800000      35.98600000
 H      38.06600000      39.17300000      36.67800000
 H      38.10900000      39.27600000      35.19500000
 O      28.91300000      21.46200000      27.84400000
 H      29.35300000      20.60800000      28.01300000
 H      29.63000000      22.10700000      27.79000000
 O      27.95300000      26.28300000      36.70800000
 H      28.57400000      25.85800000      36.05500000
 H      28.32600000      27.20600000      36.76300000
 O      29.29200000      36.54300000      30.42400000
 H      30.01100000      36.68000000      29.75900000
 H      28.51400000      36.55400000      29.86100000
 O      30.63300000      23.71000000      36.08500000
 H      30.42600000      23.06200000      35.37500000
 H      29.69500000      23.88400000      36.43400000
 O      38.93700000      29.59200000      28.61100000
 H      38.48600000      30.42000000      28.45600000
 H      39.47600000      29.57600000      27.78000000
 O      37.51100000      27.36300000      27.91800000
 H      37.90700000      28.22200000      28.11000000
 H      38.29400000      26.80500000      27.69700000
 O      27.44800000      24.17400000      16.62200000
 H      27.89800000      23.42700000      16.11400000
 H      26.53200000      23.87900000      16.63000000
 O      28.87400000      31.26700000      38.92500000
 H      28.80400000      32.04700000      39.56700000
 H      29.33900000      31.78800000      38.20400000
 O      28.96600000      40.43500000      31.10900000
 H      28.23200000      40.64600000      31.73400000
 H      28.43600000      40.24300000      30.37200000
 O      30.09000000      34.94500000       2.51700000
 H      30.54700000      34.09700000       2.75400000
 H      29.22300000      34.71400000       2.95000000
 O      32.38100000      24.39500000      32.44600000
 H      31.74200000      23.75700000      32.86800000
 H      33.18300000      24.27200000      33.01400000
 O      33.32600000      26.18300000      23.11900000
 H      33.20900000      25.58300000      23.89200000
 H      33.95200000      25.64100000      22.58700000
 O      31.72800000      25.69500000       9.60800000
 H      32.67600000      25.88700000       9.68500000
 H      31.42600000      25.92400000      10.52400000
 O      30.69200000      21.30100000      12.40100000
 H      30.41000000      22.22700000      12.61900000
 H      29.99300000      20.75900000      12.85200000
 O      39.33700000      24.62700000       9.30300000
 H      40.15800000      24.48900000       9.80400000
 H      39.16400000      23.69100000       9.00400000
 O      40.52200000      27.44800000      36.01500000
 H      39.86700000      27.60200000      35.24800000
 H      39.92700000      27.53900000      36.76700000
 O      29.24600000      23.59000000      20.83300000
 H      28.66400000      24.22400000      21.33800000
 H      29.75200000      23.20600000      21.59300000
 O      33.33900000      22.28900000      11.79000000
 H      32.43400000      22.01400000      12.04800000
 H      33.30200000      22.30300000      10.82900000
 O      31.25100000      36.79600000       4.06900000
 H      30.39200000      37.27100000       4.39100000
 H      30.76900000      35.99200000       3.63700000
 O      29.25800000      38.99000000      13.04800000
 H      29.10700000      38.32600000      12.34700000
 H      30.17700000      39.18800000      12.97800000
 O      31.97800000      32.43300000      15.27600000
 H      31.07000000      32.14800000      14.94700000
 H      31.60900000      33.13100000      15.88900000
 O      38.53800000      39.80300000      19.15600000
 H      38.52800000      39.58700000      20.13100000
 H      39.20800000      39.18400000      18.80900000
 O      34.78500000      27.54400000      35.40800000
 H      35.01700000      26.58200000      35.65100000
 H      35.10800000      27.96800000      36.22700000
 O      30.26400000      31.61500000      22.36900000
 H      29.42300000      31.35900000      21.91800000
 H      29.97500000      32.46500000      22.77000000
 O      27.28400000      21.55200000      20.77500000
 H      27.83600000      22.35300000      20.73400000
 H      27.54200000      21.23800000      21.69200000
 O      31.47800000      40.49200000      25.52400000
 H      32.08000000      40.03200000      24.89200000
 H      31.40500000      41.36100000      25.03900000
 O      30.74900000      27.70800000       1.93800000
 H      30.14900000      28.37400000       1.56200000
 H      30.49800000      27.78000000       2.89000000
 O      27.62400000      21.64300000      36.32300000
 H      26.98400000      21.94600000      37.02300000
 H      27.04300000      21.84000000      35.53600000
 O      29.29500000      31.50200000      17.59500000
 H      28.58100000      30.75000000      17.52800000
 H      29.23300000      31.74900000      16.64600000
 O      28.81500000      21.71500000       4.12200000
 H      28.23500000      20.94000000       4.46000000
 H      28.40100000      22.41600000       4.65300000
 O      36.15000000      33.38800000      34.04400000
 H      35.60700000      33.69900000      34.83700000
 H      35.86300000      32.43000000      34.01200000
 O      29.86300000      22.57400000       1.93000000
 H      29.37400000      22.04100000       2.60300000
 H      30.62900000      22.78900000       2.47800000
 O      29.04100000      29.33000000      32.12600000
 H      29.96000000      29.44100000      32.47300000
 H      29.08200000      30.07400000      31.48500000
 O      39.31500000      28.04000000      19.19800000
 H      40.27200000      28.22800000      19.22700000
 H      39.39700000      27.45700000      18.37500000
 O      30.90100000      38.16800000      18.15700000
 H      30.72500000      38.85900000      17.46100000
 H      31.84700000      38.05700000      18.13300000
 O      28.73400000      25.51600000      12.11900000
 H      28.49800000      26.37300000      12.53100000
 H      29.78900000      25.68300000      12.14900000
 O      27.44100000      21.49300000       0.98700000
 H      26.95600000      21.24000000       0.18200000
 H      28.15600000      20.85400000       1.00200000
 O      33.71900000      31.30200000      11.69400000
 H      34.17100000      32.14900000      11.78600000
 H      34.43400000      30.64000000      11.57100000
 O      29.89400000      21.07300000       8.15800000
 H      29.30800000      21.20200000       7.39300000
 H      29.98600000      20.07000000       8.19900000
 O      36.30600000      30.77100000      30.99600000
 H      36.61000000      30.48100000      30.13200000
 H      36.82500000      31.58900000      31.07100000
 O      32.31000000      34.44900000      23.42800000
 H      32.26800000      34.24300000      24.34800000
 H      31.36700000      34.75800000      23.26900000
 O      39.80800000      29.86800000      12.06600000
 H      39.52000000      30.31800000      12.90400000
 H      38.95400000      29.45100000      11.83500000
 O      29.86100000      28.26300000      20.56700000
 H      30.52500000      28.08000000      21.20400000
 H      30.38100000      28.75000000      19.90100000
 O      33.00600000      35.54400000      29.76200000
 H      33.79100000      35.90800000      29.39900000
 H      33.28800000      34.63300000      29.92500000
 O      34.51000000      36.94500000      23.10300000
 H      35.27400000      37.56800000      23.16300000
 H      34.95800000      36.10500000      23.42700000
 O      38.69900000      33.72900000      34.55400000
 H      39.09700000      32.91800000      34.22600000
 H      37.72400000      33.50400000      34.45300000
 O      36.31200000      27.47500000      17.06800000
 H      35.57200000      27.62800000      17.75700000
 H      36.87200000      26.87700000      17.62600000
 O      33.83200000      21.42100000      35.70800000
 H      33.47100000      21.12500000      36.61100000
 H      33.18700000      20.86500000      35.17100000
 O      34.11900000      22.43600000       4.42300000
 H      33.38000000      21.88400000       4.07100000
 H      34.10900000      22.28900000       5.35000000
 O      34.18000000      36.72900000       5.86600000
 H      34.86800000      36.27300000       5.32700000
 H      33.35500000      36.46700000       5.37600000
 O      29.57600000      27.10600000      29.72900000
 H      30.01200000      27.99300000      29.58400000
 H      30.32000000      26.67100000      30.21700000
 O      28.48900000      35.04600000      20.14700000
 H      28.56800000      36.03600000      19.96500000
 H      28.02100000      35.02200000      20.99500000
 O      30.39600000      40.06200000      20.87300000
 H      30.72800000      40.96600000      21.14000000
 H      31.24400000      39.61500000      20.62900000
 O      33.58600000      24.79500000      26.08500000
 H      32.77800000      25.29200000      26.24600000
 H      34.21100000      25.38300000      26.52700000
 O      31.22700000      37.15600000      28.52700000
 H      31.91600000      36.70100000      29.07400000
 H      31.20900000      38.05300000      28.95800000
 O      29.52000000      34.46000000      34.50100000
 H      29.51200000      35.24000000      33.86300000
 H      28.69300000      34.04500000      34.24100000
 O      27.33400000      32.68300000      19.20100000
 H      27.73800000      33.55800000      19.30500000
 H      28.03900000      32.20200000      18.79600000
 O      39.27300000      36.50400000      15.54100000
 H      38.88100000      37.39800000      15.28200000
 H      38.96700000      36.44600000      16.47900000
 O      39.07600000      32.35700000      39.93400000
 H      39.72100000      32.62100000      40.69900000
 H      38.29200000      32.80900000      40.23100000
 O      35.51800000      23.27700000      13.86000000
 H      35.40100000      24.04800000      14.47900000
 H      34.68100000      23.14800000      13.46200000
 O      35.98400000      30.37900000      18.75800000
 H      35.39400000      31.02000000      19.20900000
 H      35.28500000      29.79700000      18.33100000
 O      38.40900000      22.59900000      24.97500000
 H      37.87200000      21.92200000      24.57800000
 H      37.82900000      22.93600000      25.73700000
 O      30.73600000      32.75100000      32.76000000
 H      31.72800000      32.73700000      32.75900000
 H      30.49500000      33.41700000      33.35100000
 O      28.61700000      37.78800000      19.57700000
 H      28.74200000      38.50300000      20.24100000
 H      29.47700000      37.89200000      19.11100000
 O      36.97600000      29.39700000      37.86500000
 H      37.62300000      28.73000000      38.27400000
 H      36.11900000      28.95700000      38.12500000
 O      28.13600000      34.55400000      25.81600000
 H      27.35800000      35.14300000      25.64200000
 H      28.82100000      35.32600000      25.90300000
 O      30.66200000      30.70700000      35.94700000
 H      30.51300000      30.61700000      34.96700000
 H      30.14200000      29.91900000      36.27200000
 O      39.12600000      27.45000000       5.88000000
 H      38.76600000      26.60600000       5.53600000
 H      39.07600000      27.25800000       6.84600000
 O      38.73800000      27.82100000      34.13500000
 H      37.87100000      28.07500000      33.69100000
 H      39.20500000      27.49500000      33.35500000
 O      30.96500000      32.41800000       2.54200000
 H      31.26700000      31.79900000       3.26700000
 H      30.05200000      32.03800000       2.32400000
 O      38.77500000      38.98400000      15.11000000
 H      39.57900000      39.46200000      14.96300000
 H      38.12400000      39.63800000      14.69600000
 O      30.75700000      36.07700000      15.25700000
 H      30.79900000      35.45800000      16.01300000
 H      29.81800000      36.02000000      14.97000000
 O      40.35900000      38.46800000      17.85900000
 H      40.39300000      38.88800000      16.95800000
 H      41.12300000      38.89500000      18.26300000
 O      31.41400000      28.30700000      22.91700000
 H      31.95000000      29.08500000      23.11300000
 H      32.15200000      27.63800000      22.81900000
 O      33.68400000      30.90700000      38.89900000
 H      33.87700000      30.22400000      38.24400000
 H      33.45700000      30.35400000      39.68700000
 O      35.22800000      27.86700000      24.73000000
 H      36.05900000      27.47000000      24.33200000
 H      34.56700000      27.30800000      24.30600000
 O      27.36900000      32.85500000      15.66700000
 H      27.66300000      33.73500000      15.90900000
 H      26.46800000      33.09500000      15.29800000
 O      32.40200000      37.51900000      24.56600000
 H      32.96100000      38.01700000      25.18000000
 H      33.03300000      37.28100000      23.85500000
 O      32.92800000      25.21800000      14.93900000
 H      32.32200000      24.74900000      15.54900000
 H      33.77700000      25.16500000      15.41900000
 O      33.43100000      23.60000000      29.28000000
 H      34.03300000      24.36900000      29.12600000
 H      33.16900000      23.89100000      30.21400000
 O      37.80300000      29.58600000       5.17800000
 H      38.18900000      30.05900000       5.94700000
 H      38.16800000      28.66000000       5.33400000
 O      34.72800000      40.18900000      20.10700000
 H      34.69600000      39.80800000      19.18800000
 H      35.26200000      41.01500000      19.85000000
 O      38.72600000      39.70400000       3.91300000
 H      39.19700000      40.40100000       3.39900000
 H      37.80900000      40.01400000       3.77900000
 O      37.37100000      35.75700000      38.96400000
 H      37.31900000      35.08100000      39.66200000
 H      37.46700000      35.17400000      38.18900000
 O      35.38500000      33.99000000      17.56000000
 H      35.45000000      33.37800000      18.35400000
 H      34.79100000      34.71600000      17.99200000
 O      34.57500000      23.91900000      21.69200000
 H      35.35900000      23.37400000      21.70000000
 H      34.17300000      23.65200000      22.54300000
 O      32.07900000      21.19700000      24.87400000
 H      31.51000000      20.44200000      25.01500000
 H      32.83000000      20.97000000      25.44900000
 O      30.10300000      28.18700000       4.62100000
 H      29.84700000      28.99700000       5.16700000
 H      29.63000000      27.50800000       5.11700000
 O      29.79200000      26.71100000       7.35100000
 H      30.02600000      25.87200000       7.81400000
 H      29.18700000      26.36800000       6.67200000
 O      27.68300000      31.02100000      21.41400000
 H      26.75600000      30.83400000      21.70800000
 H      27.57000000      31.63000000      20.67100000
 O      29.95100000      36.41100000      26.16100000
 H      30.64300000      36.65900000      25.60600000
 H      30.26100000      36.73000000      26.98600000
 O      37.59600000      38.13400000      33.99600000
 H      36.70800000      37.71400000      34.10700000
 H      37.51400000      38.56500000      33.13500000
 O      30.95200000      25.26600000      25.69800000
 H      30.80000000      26.21600000      25.80700000
 H      30.16700000      24.98600000      25.19000000
 O      35.28500000      21.55200000      39.68100000
 H      35.16400000      22.32800000      39.06200000
 H      34.43100000      21.52800000      40.13900000
 O      38.90700000      27.29100000       8.58900000
 H      38.65400000      27.51300000       9.47500000
 H      39.34100000      26.40500000       8.82900000
 O      36.46000000      20.76800000      15.93400000
 H      36.01100000      21.56000000      15.66000000
 H      35.75700000      20.17000000      16.20800000
 O      36.86200000      38.98800000       9.43400000
 H      36.06600000      38.74600000       9.98600000
 H      36.50100000      38.80500000       8.54000000
 O      32.51700000      20.79100000       9.35700000
 H      32.32000000      20.13000000      10.05400000
 H      31.57100000      20.98800000       9.11100000
 O      27.34000000      23.35100000       5.64100000
 H      27.04100000      23.36500000       6.57100000
 H      27.73000000      24.25700000       5.59800000
 O      39.09100000      35.23200000      19.66400000
 H      38.63000000      34.35400000      19.48600000
 H      38.52000000      35.72100000      18.99300000
 O      33.43900000      28.44300000      30.42500000
 H      33.32400000      29.21000000      31.01500000
 H      34.07900000      28.88300000      29.77300000
 O      27.34500000      27.90100000      20.19200000
 H      28.19900000      28.41300000      20.28600000
 H      27.56000000      27.38600000      19.42100000
 O      39.80600000      35.84200000      26.73900000
 H      39.78900000      35.34700000      25.85900000
 H      39.58500000      36.70600000      26.44300000
 O      29.52900000      20.34900000      37.58400000
 H      28.91300000      20.84600000      36.98400000
 H      29.76600000      19.58000000      37.03700000
 O      32.01600000      30.31000000       3.76600000
 H      31.32100000      29.81500000       3.34200000
 H      31.71600000      30.34000000       4.65700000
 O      28.78900000      24.09100000      24.36800000
 H      28.07900000      23.96500000      25.01500000
 H      28.37700000      24.72500000      23.78600000
 O      30.27700000      27.98100000      16.62600000
 H      31.02500000      28.21300000      16.06600000
 H      30.41100000      28.46900000      17.41800000
 O      36.23800000      26.03400000       2.45500000
 H      35.70900000      25.88400000       3.24300000
 H      36.43400000      25.12100000       2.18600000
 O      37.62300000      21.72700000      11.61600000
 H      36.79400000      21.45600000      11.17900000
 H      37.21800000      22.34500000      12.23600000
 O      34.52300000      31.20900000      14.93500000
 H      34.56300000      31.59200000      14.04500000
 H      33.74300000      31.74500000      15.26100000
 O      35.74100000      37.78100000      15.81700000
 H      35.77600000      38.13900000      14.90000000
 H      36.15800000      38.51500000      16.30100000
 O      39.54300000      28.31100000       0.89500000
 H      38.73100000      28.56800000       1.41600000
 H      39.84700000      27.50800000       1.36400000
 O      32.74800000      28.36500000      15.57400000
 H      32.82600000      29.10000000      14.98700000
 H      33.61900000      28.26400000      15.95600000
 O      37.67000000      29.75400000      23.18200000
 H      37.69800000      28.76100000      23.28900000
 H      37.80400000      29.78100000      22.17900000
 O      39.40200000      34.71300000      13.25800000
 H      38.82500000      35.09600000      12.59900000
 H      39.29400000      35.28700000      14.02400000
 O      27.71500000      31.20800000       2.79700000
 H      27.86200000      32.12600000       2.81400000
 H      27.39400000      31.02400000       3.69200000
 O      39.51500000      22.71400000      21.72300000
 H      40.15400000      23.31500000      22.06400000
 H      39.99100000      22.21300000      21.04800000
 O      38.09600000      27.45200000      13.71700000
 H      38.86200000      27.94400000      14.04500000
 H      37.37300000      27.87100000      14.21600000
 O      28.77300000      39.71800000       2.97800000
 H      27.85300000      39.83800000       2.62600000
 H      28.73600000      38.84700000       3.33800000
 O      28.79100000      31.93000000      10.88700000
 H      28.67700000      31.09300000      11.40700000
 H      29.74700000      31.89200000      10.63300000
 O      27.01900000      24.87500000      38.74900000
 H      27.84900000      24.47800000      39.07200000
 H      27.34200000      25.43400000      38.02800000
 O      40.40800000      20.98100000      11.30500000
 H      39.45500000      21.23900000      11.18100000
 H      40.48300000      21.19200000      12.29400000
 O      39.80600000      32.05300000      26.93900000
 H      40.20900000      31.56100000      26.18500000
 H      39.09100000      32.52200000      26.50400000
 O      32.80700000      30.88500000      23.29800000
 H      33.50200000      31.40700000      22.82600000
 H      32.04600000      31.40400000      23.19500000
 O      34.69900000      37.09400000      28.20400000
 H      34.64600000      37.97400000      28.65200000
 H      34.62900000      37.37100000      27.29900000
 O      40.34900000      33.97400000       4.42300000
 H      39.97200000      33.45200000       5.14100000
 H      41.07200000      34.45500000       4.82000000
 O      28.56100000      36.71200000       7.64500000
 H      28.18600000      35.93800000       8.05200000
 H      28.18400000      37.46400000       8.11900000
 O      30.06700000      33.06000000      37.02200000
 H      30.16900000      32.19000000      36.66500000
 H      29.92000000      33.60600000      36.23100000
 O      36.94800000      25.87200000      36.99700000
 H      37.62200000      25.27300000      36.62800000
 H      37.47600000      26.52800000      37.39900000
 O      36.88300000      25.53200000       9.82400000
 H      36.40300000      25.27400000       8.98900000
 H      37.79100000      25.17100000       9.59900000
 O      37.31000000      29.86700000      25.81700000
 H      37.26100000      29.81600000      24.79200000
 H      36.68500000      29.15000000      26.05500000
 O      29.04200000      39.15700000      25.59700000
 H      29.82100000      39.79600000      25.75800000
 H      29.33000000      38.82300000      24.71700000
 O      36.58900000      21.05900000      28.05300000
 H      36.69600000      21.99700000      27.88100000
 H      36.50000000      20.94800000      29.00000000
 O      39.61800000      25.84800000       2.36500000
 H      39.57900000      24.85900000       2.10200000
 H      38.81700000      25.91200000       2.89500000
 O      26.95800000      35.93200000      11.23000000
 H      27.85500000      36.40600000      11.38900000
 H      27.20500000      35.08300000      11.53900000
 O      40.08700000      34.25600000      28.96500000
 H      39.91000000      34.85900000      28.17600000
 H      40.17800000      33.40300000      28.62800000
 O      35.39100000      27.65900000      40.23300000
 H      36.13900000      28.07500000      40.80000000
 H      35.30400000      26.81300000      40.60800000
 O      31.48600000      20.12300000       4.99700000
 H      30.79200000      20.84400000       4.98700000
 H      31.49100000      19.90000000       4.03600000
 O      35.82300000      38.73600000       6.93200000
 H      35.60700000      39.44700000       6.34700000
 H      35.11600000      38.08800000       6.65700000
 O      37.39900000      28.89600000       2.43600000
 H      37.66700000      29.28800000       3.28500000
 H      36.89000000      28.15500000       2.74100000
 O      37.80000000      36.10900000      22.02300000
 H      38.10400000      35.59600000      21.22200000
 H      37.18000000      35.40300000      22.38500000
 O      37.73100000      24.00300000      40.43800000
 H      38.19100000      23.62800000      41.21500000
 H      36.92300000      23.46000000      40.43400000
 O      40.46800000      24.08400000      13.26500000
 H      40.37600000      23.16900000      13.52400000
 H      39.63800000      24.34700000      12.94000000
 O      39.25600000      35.13500000      31.19600000
 H      39.63800000      34.84200000      30.34300000
 H      39.50200000      36.09500000      31.14500000
 O      34.42100000      28.40900000      37.98400000
 H      33.51400000      27.97500000      37.83200000
 H      34.56400000      28.03400000      38.90100000
 O      27.20300000      23.39200000      29.29200000
 H      28.07700000      23.20200000      28.95600000
 H      27.15600000      24.38800000      29.12900000
 O      31.52300000      31.79300000      10.44600000
 H      32.31300000      31.65100000      11.00000000
 H      31.96900000      31.80400000       9.54600000
 O      35.76000000      25.27600000      19.16900000
 H      36.62200000      25.67700000      19.56400000
 H      35.56900000      24.62100000      19.85900000
 O      36.20500000      36.44700000      31.56000000
 H      37.02000000      36.35100000      32.04000000
 H      35.55900000      36.49100000      32.37000000
 O      36.03200000      34.41200000      29.72900000
 H      36.28000000      35.24500000      30.19000000
 H      36.60600000      33.79800000      30.18000000
 O      32.74200000      31.56700000       8.15500000
 H      32.51700000      31.20900000       7.22900000
 H      33.03400000      30.64300000       8.51400000
 O      36.80700000      33.70800000      10.25800000
 H      37.49600000      34.43400000      10.35300000
 H      36.26400000      34.10800000       9.49500000
 O      34.25700000      26.43200000       7.89600000
 H      33.66500000      26.59100000       7.11800000
 H      34.86600000      27.16800000       7.72300000
 O      38.49500000      37.19300000      24.54000000
 H      37.58900000      37.22900000      24.78100000
 H      38.38000000      36.97200000      23.54600000
 O      37.52500000      36.55800000      17.77200000
 H      37.13800000      37.29000000      17.25800000
 H      36.79200000      35.88100000      17.77300000
 O      33.47200000      33.91700000       3.68400000
 H      32.63000000      33.71200000       3.25000000
 H      33.25600000      33.68700000       4.59800000
 O      26.94100000      24.19500000      10.83500000
 H      26.40900000      24.92800000      10.56300000
 H      27.67000000      24.60400000      11.32900000
 O      37.65100000      24.00900000      31.40500000
 H      37.38900000      24.23900000      32.32100000
 H      38.63400000      24.15200000      31.51700000
 O      37.38200000      31.64800000      16.48800000
 H      36.60800000      32.27600000      16.49900000
 H      37.02800000      30.95300000      17.08700000
 O      39.62400000      21.73800000      29.87600000
 H      39.50800000      21.58900000      30.81700000
 H      38.69900000      21.60800000      29.58500000
 O      29.09800000      27.02300000      23.81700000
 H      28.35600000      27.59100000      23.66400000
 H      29.82800000      27.64100000      23.55100000
 O      34.23300000      22.99900000      24.20700000
 H      34.07100000      23.42500000      25.08600000
 H      33.92000000      22.12700000      24.44000000
 O      38.69600000      22.30300000       8.00400000
 H      38.13600000      21.64900000       7.43900000
 H      39.60900000      21.89400000       7.78400000
 O      38.39800000      38.69000000      21.72900000
 H      39.39800000      38.57300000      21.79800000
 H      38.10000000      37.76700000      21.63900000
 O      36.32000000      34.48600000      23.90500000
 H      36.95300000      33.72300000      24.07500000
 H      36.27300000      34.80300000      24.82600000
 O      39.66900000      32.47300000       6.69200000
 H      39.70200000      31.55200000       6.93300000
 H      39.65300000      32.88400000       7.57600000
 O      27.97800000      38.12800000      27.89900000
 H      28.36900000      38.50400000      27.03700000
 H      27.25800000      37.60000000      27.45000000
 O      33.95500000      32.79800000      28.34900000
 H      34.63900000      33.15900000      28.94500000
 H      34.43100000      32.04300000      27.96200000
 O      36.58100000      30.93200000      11.40100000
 H      36.66600000      31.66000000      10.76400000
 H      37.01400000      31.33000000      12.18500000
 O      29.64700000      23.47800000      14.36800000
 H      29.90400000      24.14100000      15.09700000
 H      29.39900000      24.20200000      13.68700000
 O      28.50500000      30.14300000      25.17800000
 H      28.96900000      29.73000000      24.47800000
 H      29.24700000      30.54300000      25.71500000
 O      28.46900000      27.29900000      14.33000000
 H      29.07900000      27.41800000      15.06300000
 H      27.64300000      27.01700000      14.84000000
 O      31.52800000      38.02400000       9.51900000
 H      32.42000000      37.59500000       9.52400000
 H      31.83800000      38.94500000       9.78800000
 O      32.00500000      35.86400000      35.44700000
 H      32.69800000      35.33800000      34.96500000
 H      31.20500000      35.42100000      35.14300000
 O      32.90800000      23.11100000      17.63700000
 H      32.57000000      23.28500000      18.53200000
 H      32.41300000      22.41000000      17.29300000
 O      34.86100000      26.20700000      28.18000000
 H      35.80300000      26.41100000      28.08800000
 H      34.56500000      27.11900000      28.40600000
 O      31.63200000      25.57400000      40.42800000
 H      31.61600000      26.46300000      40.85400000
 H      32.61000000      25.38200000      40.38400000
 O      26.90900000      28.38300000      30.58900000
 H      27.34300000      28.96200000      29.84100000
 H      27.69800000      28.19200000      31.08200000
 O      34.97600000      34.37200000      36.25900000
 H      34.31300000      34.15100000      36.89100000
 H      35.79000000      34.14700000      36.81000000
 O      38.47900000      35.86000000      10.32100000
 H      38.92100000      36.74200000      10.12000000
 H      37.66300000      36.13200000      10.75400000
 O      29.49900000      24.18600000      39.74100000
 H      29.67400000      23.60200000      40.48000000
 H      30.20800000      24.83200000      39.89400000
 O      34.64500000      32.28200000      19.77100000
 H      33.67100000      32.13200000      19.78200000
 H      34.75000000      32.42700000      20.76100000
 O      35.89900000      40.42300000       4.19000000
 H      36.20000000      40.83800000       3.30500000
 H      35.71700000      39.53100000       3.81500000
 O      36.02500000      20.69000000      24.58500000
 H      36.06000000      19.80400000      24.20500000
 H      35.85000000      21.28200000      23.79600000
 O      29.75400000      37.11000000      33.12100000
 H      30.35500000      37.81200000      33.40900000
 H      29.70800000      37.11400000      32.12300000
 O      37.45200000      26.95100000      23.14600000
 H      37.44400000      26.46200000      22.27600000
 H      38.01000000      26.28300000      23.67500000
 O      33.14000000      33.47600000      38.46700000
 H      33.19700000      33.90400000      39.35300000
 H      33.23600000      32.52600000      38.71600000
 O      37.80400000      28.27700000      10.99000000
 H      37.14200000      28.88900000      11.31600000
 H      37.91000000      27.68500000      11.76800000
 O      39.20800000      20.61300000      39.40200000
 H      39.27400000      21.12300000      40.25100000
 H      39.36000000      19.71900000      39.75100000
 O      37.68700000      24.80000000      15.61500000
 H      37.42200000      24.42700000      14.75600000
 H      36.76200000      24.84100000      15.99500000
 O      32.52100000      36.44000000      21.16000000
 H      32.98200000      36.22400000      21.99800000
 H      32.34100000      37.39500000      21.29700000
 O      34.55100000      26.97100000      10.74200000
 H      34.90900000      26.46300000       9.96100000
 H      35.26200000      26.76100000      11.37100000
 O      36.03600000      30.86000000       1.28200000
 H      36.52700000      30.05500000       1.63500000
 H      36.01400000      30.69300000       0.37700000
 O      34.17300000      20.88600000       6.86000000
 H      33.90900000      21.47900000       7.59200000
 H      33.37400000      20.70100000       6.38500000
 O      34.54500000      30.16200000       4.68800000
 H      33.70400000      30.45000000       4.25700000
 H      35.21300000      30.34700000       4.01700000
 O      28.37200000      25.99900000       4.89600000
 H      27.54200000      26.51700000       4.87700000
 H      28.41600000      25.70500000       3.95500000
 O      37.94100000      35.38700000       6.07600000
 H      38.67300000      35.62600000       6.63700000
 H      38.14000000      35.88700000       5.22900000
 O      32.83100000      38.96800000      21.52400000
 H      33.38900000      39.60900000      20.94700000
 H      33.46600000      38.88900000      22.23900000
 O      36.32100000      28.42700000      33.25300000
 H      35.96200000      29.27400000      32.99300000
 H      35.72000000      28.10100000      33.89800000
 O      32.95100000      40.31400000      28.19500000
 H      32.16900000      39.99800000      27.74900000
 H      32.76200000      40.03300000      29.11600000
 O      33.65200000      29.63100000      26.01200000
 H      34.27600000      28.96800000      25.70000000
 H      33.43600000      30.08300000      25.16400000
 O      29.34800000      33.50200000       6.07700000
 H      28.69400000      33.69400000       6.76000000
 H      30.07000000      34.14500000       6.24600000
 O      31.82400000      31.91400000      20.20800000
 H      31.35200000      31.77700000      21.05900000
 H      31.66100000      32.83300000      20.03500000
 O      35.37700000      37.92900000       3.18500000
 H      35.30600000      37.77300000       2.24300000
 H      35.61600000      37.05800000       3.49300000
 O      38.12800000      32.64700000      23.11000000
 H      39.08000000      32.90700000      23.17900000
 H      38.18400000      31.71300000      23.07400000
 O      33.18600000      24.90800000      36.41600000
 H      32.35200000      24.40400000      36.49200000
 H      33.42400000      24.80400000      35.49500000
 O      26.86400000      29.58200000      33.68700000
 H      26.35200000      28.74400000      33.53200000
 H      27.70300000      29.36400000      33.19100000
 O      29.49700000      37.01700000      11.10100000
 H      29.75600000      36.14200000      11.48400000
 H      30.30600000      37.04400000      10.44100000
 O      30.48800000      39.90400000       0.81500000
 H      30.65000000      38.95700000       0.94100000
 H      29.84200000      40.12900000       1.47900000
 O      32.83300000      29.31800000       0.79300000
 H      33.07100000      29.24500000       1.75000000
 H      31.96000000      28.93800000       0.75600000
 O      40.23700000      24.92500000      20.11200000
 H      40.39900000      25.36000000      19.19700000
 H      40.96500000      24.22500000      20.01300000
 O      36.37900000      39.00500000      12.80000000
 H      36.80900000      39.74900000      12.40300000
 H      35.87800000      38.68600000      11.97200000
 O      30.84500000      34.80400000      38.80700000
 H      31.69000000      34.33100000      38.48400000
 H      30.24600000      34.71300000      38.06700000
 O      34.89600000      36.91600000      39.17300000
 H      35.80500000      36.53200000      39.03900000
 H      34.92600000      37.56400000      38.45300000
 O      38.83500000      39.10600000      40.62300000
 H      38.38800000      38.65600000      41.38100000
 H      39.16200000      39.94400000      41.09300000
 O      35.05200000      33.54800000      12.66900000
 H      35.72900000      33.86100000      11.99100000
 H      35.22500000      34.26000000      13.36800000
 O      39.69500000      28.92000000      15.02200000
 H      39.17200000      29.27200000      15.73900000
 H      40.59600000      28.83000000      15.41700000
 O      37.28100000      40.12100000      27.51200000
 H      36.80400000      40.93500000      27.64800000
 H      36.85400000      39.59300000      28.18800000
 O      31.38600000      39.20500000      30.16700000
 H      31.98000000      38.96400000      30.87700000
 H      30.71100000      39.75900000      30.60900000
 O      37.59200000      39.30900000      31.62100000
 H      38.20500000      38.64000000      31.26800000
 H      38.17500000      40.11300000      31.65700000
 O      29.97900000      34.63800000      12.05400000
 H      29.70000000      33.72000000      12.07800000
 H      30.98300000      34.44500000      12.16000000
 O      35.86100000      31.30900000       6.70300000
 H      36.61200000      31.60700000       6.09700000
 H      35.22500000      31.05700000       5.96600000
 O      40.06000000      24.84200000      38.99000000
 H      40.55400000      23.92600000      39.14400000
 H      39.17300000      24.49800000      39.11100000
 O      33.36100000      38.49600000       0.69100000
 H      32.66400000      37.83000000       0.86300000
 H      33.97100000      37.89700000       0.12200000
 O      30.30900000      40.32200000      16.37600000
 H      30.51300000      40.68500000      15.47300000
 H      29.95200000      41.11500000      16.74800000
 O      30.27600000      25.28100000      16.22900000
 H      30.50800000      25.15100000      17.13500000
 H      30.18300000      26.26000000      16.11400000
 O      27.57800000      25.42700000      22.14400000
 H      26.96600000      25.91000000      21.56600000
 H      28.09800000      26.17100000      22.56600000
 O      35.39700000      23.16400000       1.99900000
 H      34.92300000      22.36400000       1.68400000
 H      35.00400000      23.21500000       2.92000000
 O      27.81100000      39.91100000      10.13800000
 H      28.36000000      39.62300000       9.35600000
 H      27.24600000      39.10700000      10.23300000
 O      27.81600000      30.06000000      13.13300000
 H      26.94800000      30.42200000      13.34200000
 H      27.96900000      29.43500000      13.88400000
 O      34.06000000      28.50500000      18.23100000
 H      33.83300000      27.91900000      18.98100000
 H      33.20300000      28.90200000      17.95000000
 O      31.72900000      26.58100000      31.01200000
 H      31.97600000      25.82800000      31.55300000
 H      32.51200000      27.12200000      30.94600000
 O      30.16200000      30.76400000       5.91300000
 H      30.25000000      30.29100000       6.78700000
 H      30.10300000      31.70100000       6.17300000
 O      27.27800000      36.81500000      37.83400000
 H      27.78200000      37.16800000      37.08400000
 H      26.41500000      37.23200000      37.73300000
 O      38.55700000      27.25000000      38.66400000
 H      38.99500000      27.55400000      39.49500000
 H      39.11500000      26.43600000      38.49700000
 O      39.42500000      30.00000000       7.89000000
 H      40.00100000      29.97300000       8.77500000
 H      39.15000000      29.00800000       8.00300000
 O      32.56200000      33.34400000       6.32700000
 H      32.63700000      32.83600000       7.18000000
 H      32.17100000      34.15100000       6.60200000
 O      33.26300000      35.87500000       8.18000000
 H      33.95100000      35.12000000       8.20900000
 H      33.64500000      36.42300000       7.44800000
 O      37.59400000      33.03200000      31.56700000
 H      37.97200000      32.69700000      32.44300000
 H      38.10300000      33.88500000      31.47500000
 O      31.24400000      25.94100000      12.93700000
 H      31.55900000      26.85900000      12.92900000
 H      31.81200000      25.62900000      13.71500000
 O      29.71500000      26.44500000      33.94900000
 H      30.48400000      26.61500000      34.57600000
 H      29.99400000      26.95700000      33.16800000
 O      39.71400000      37.13400000       4.54600000
 H      40.06200000      37.27600000       5.45500000
 H      39.35600000      38.03100000       4.38500000
 O      36.79800000      22.31600000      22.04900000
 H      36.98200000      21.44500000      21.57200000
 H      37.71400000      22.69700000      22.02200000
 O      40.32300000      37.74800000      37.01600000
 H      40.80000000      38.53100000      36.63400000
 H      40.12800000      37.21400000      36.25400000
 O      38.76600000      25.20700000      24.54300000
 H      38.73100000      24.20700000      24.54300000
 H      39.17500000      25.30700000      25.44000000
 O      33.09600000      39.33900000       4.58900000
 H      33.80100000      38.84400000       4.09000000
 H      32.36000000      38.71400000       4.62300000
 O      36.55700000      33.47300000      40.56600000
 H      35.72400000      33.70600000      41.01400000
 H      36.46800000      32.44800000      40.71200000
 O      27.71300000      40.35900000      20.27000000
 H      28.68400000      40.52500000      20.50700000
 H      27.45600000      41.22900000      19.99400000
 O      33.82600000      34.45800000       1.05900000
 H      34.04600000      35.28300000       0.48700000
 H      33.49000000      34.86800000       1.87600000
 O      28.69600000      37.96800000       5.20000000
 H      28.77600000      37.58500000       6.13700000
 H      27.84000000      37.60700000       4.95500000
 O      34.41600000      32.99400000      22.41600000
 H      33.67800000      33.46600000      22.75700000
 H      35.11200000      33.52300000      22.86700000
 O      30.44400000      25.64400000      19.31500000
 H      29.75900000      25.97500000      19.85700000
 H      30.79200000      24.85600000      19.71200000
 O      32.02600000      38.35600000      14.42900000
 H      31.81600000      38.92400000      15.22900000
 H      31.77800000      37.50700000      14.73500000
 O      27.96300000      24.77600000       2.68700000
 H      27.26300000      24.08200000       2.78900000
 H      28.68300000      24.14400000       2.37000000
 O      31.16300000      29.40800000      28.82600000
 H      30.96100000      30.00600000      29.57100000
 H      31.87500000      28.86900000      29.22100000
 O      37.62200000      34.02500000      37.00000000
 H      38.49900000      33.62600000      37.31400000
 H      37.89400000      34.21200000      36.09400000
 O      35.38400000      39.28700000      29.79500000
 H      35.05500000      40.15000000      30.01400000
 H      36.14900000      39.20400000      30.44600000
 O      27.23000000      29.36000000       7.71500000
 H      26.84300000      29.62300000       8.58600000
 H      28.15700000      29.62200000       7.89800000
 O      35.30300000      36.60500000      34.27900000
 H      34.35200000      36.70400000      33.93200000
 H      35.18000000      36.09700000      35.14000000
 O      38.87000000      24.18300000      36.07500000
 H      39.86700000      24.38400000      36.06700000
 H      38.99500000      23.23000000      36.33800000
 O      39.66300000      36.24600000      34.71100000
 H      38.93500000      36.72000000      34.33000000
 H      39.42700000      35.26000000      34.61700000
 O      40.00700000      25.81300000      27.18000000
 H      40.32400000      25.03200000      27.64000000
 H      40.62100000      26.49300000      27.38400000
 O      39.79100000      20.92000000       5.76500000
 H      40.42100000      21.46300000       5.23900000
 H      40.39600000      20.16700000       6.00700000
 O      39.71500000      37.89400000      30.92000000
 H      40.09500000      38.03800000      31.80900000
 H      40.48600000      38.14000000      30.38600000
 O      31.74600000      24.47800000       5.38900000
 H      30.87900000      24.33900000       5.80300000
 H      32.34600000      24.30400000       6.13200000
 O      32.19300000      23.70400000       2.78800000
 H      32.05300000      24.35900000       2.07200000
 H      31.97200000      24.27500000       3.56000000
 O      33.69700000      33.25600000      31.51300000
 H      34.67600000      33.33500000      31.33300000
 H      33.66500000      32.26200000      31.53500000
 O      39.66300000      21.88500000      32.44100000
 H      39.72200000      21.15600000      33.16300000
 H      40.27000000      22.52700000      32.83500000
 O      32.96800000      40.42000000      10.33500000
 H      33.41000000      41.02400000       9.69400000
 H      32.10900000      40.90300000      10.42800000
 O      31.00400000      36.84100000      40.59800000
 H      30.85000000      36.19000000      41.31600000
 H      30.69000000      36.22100000      39.87800000
 O      37.56400000      38.43000000      38.27000000
 H      37.45200000      37.50700000      38.56700000
 H      38.20200000      38.77600000      38.91500000
 O      28.64500000      28.84500000      37.19600000
 H      27.61000000      28.87800000      37.23600000
 H      28.85400000      29.57500000      37.82900000
 O      37.34300000      25.03700000      33.91300000
 H      37.23400000      25.98400000      34.22100000
 H      37.91400000      24.69200000      34.68700000
 O      34.87600000      25.37400000       4.75300000
 H      34.49800000      24.47700000       4.93100000
 H      34.09000000      25.93000000       4.91800000
 O      38.93600000      21.63000000      36.86300000
 H      39.03400000      21.42000000      37.80800000
 H      37.98600000      21.39600000      36.75400000
 O      35.02900000      23.73500000      38.18800000
 H      34.31700000      24.23700000      37.65700000
 H      35.80300000      24.12300000      37.78800000
 O      35.76700000      35.16700000       3.86900000
 H      36.29600000      34.60500000       4.42200000
 H      34.99300000      34.55000000       3.66000000
 O      27.29300000      26.08200000      28.85500000
 H      26.83900000      26.82500000      28.40700000
 H      28.15500000      26.46600000      29.09900000
 O      39.85900000      28.99400000      26.13200000
 H      39.06200000      29.31800000      25.83000000
 H      40.51200000      29.65000000      25.79900000
 O      36.69700000      20.99500000      33.43900000
 H      36.27100000      20.87500000      34.33100000
 H      37.63600000      20.96100000      33.66300000
 O      32.83000000      36.05300000      32.77500000
 H      32.99200000      35.66400000      31.95100000
 H      33.06400000      37.00200000      32.56700000
 O      33.41900000      31.24600000      36.05900000
 H      32.46800000      31.03800000      35.91700000
 H      33.43500000      31.68400000      36.90800000
 O      36.32500000      39.69700000      17.43000000
 H      37.10800000      39.86500000      18.00000000
 H      36.24300000      40.58100000      16.97100000
 O      28.59300000      23.97300000      33.66100000
 H      29.05000000      24.82000000      33.82000000
 H      29.37400000      23.37200000      33.67500000
 O      38.16000000      30.37000000      20.69300000
 H      38.71600000      29.79400000      20.08900000
 H      37.36100000      30.44000000      20.10800000
 O      30.60500000      34.07900000      17.06900000
 H      30.92800000      34.51400000      17.86600000
 H      30.10800000      33.33700000      17.43700000
 O      36.32400000      39.04200000      23.52800000
 H      37.07000000      39.03300000      22.86700000
 H      35.93400000      39.86900000      23.31500000
 O      27.82200000      37.10400000      24.07800000
 H      28.63400000      37.40100000      23.71800000
 H      27.55500000      37.93800000      24.60800000
 O      37.39600000      25.18700000       5.21200000
 H      36.42200000      25.31200000       5.04200000
 H      37.45900000      24.22800000       4.91300000
 O      32.27300000      28.41900000      12.07900000
 H      32.17400000      29.40500000      12.03700000
 H      33.22400000      28.33400000      11.99200000
 O      27.89200000      35.44600000      16.29300000
 H      27.71000000      36.38100000      15.96100000
 H      28.66000000      35.66700000      16.85200000
 O      34.72000000      29.37200000      28.42000000
 H      34.37300000      29.46500000      27.46900000
 H      35.54100000      29.92700000      28.35100000
 O      30.80900000      29.10700000       7.75100000
 H      31.61800000      28.90300000       8.26500000
 H      30.43900000      28.16900000       7.68200000
 O      36.88900000      36.12600000      12.39600000
 H      36.38900000      35.74100000      13.08300000
 H      36.96100000      37.10400000      12.68600000
 O      27.96900000      26.56000000      17.93400000
 H      28.84400000      26.28100000      18.28800000
 H      27.74300000      25.73000000      17.45800000
 O      34.31800000      25.09300000      40.52900000
 H      34.62500000      24.41000000      41.13600000
 H      34.60500000      24.77400000      39.68100000
 O      35.00800000      39.25100000      37.85100000
 H      35.92900000      39.45600000      37.97500000
 H      34.60400000      39.98300000      38.38900000
 O      34.59200000      38.49800000      10.89100000
 H      33.92500000      37.91600000      11.28400000
 H      34.01000000      39.34400000      10.89400000
 O      37.80100000      24.79000000      12.33900000
 H      37.96100000      25.64700000      12.72000000
 H      37.32300000      24.95500000      11.55600000
 O      28.57200000      33.41700000      40.35900000
 H      27.93700000      34.16300000      40.29700000
 H      29.34900000      33.89600000      40.77800000
 O      30.40500000      31.57000000      30.48400000
 H      30.36500000      32.08200000      31.31500000
 H      30.36900000      32.37100000      29.88800000
 O      33.50500000      38.65000000      32.03600000
 H      33.23000000      39.48500000      32.49300000
 H      34.47600000      38.88100000      31.85500000
 O      29.32200000      20.91200000      31.56300000
 H      28.51700000      20.66500000      31.05300000
 H      30.06900000      20.69000000      31.02200000
 O      36.37600000      20.82900000      36.63600000
 H      35.58800000      21.34900000      36.28400000
 H      35.98800000      20.55800000      37.48000000
 O      36.64400000      24.04800000       7.53300000
 H      37.20300000      23.34700000       7.80200000
 H      37.16400000      24.55500000       6.88500000
 O      32.40500000      33.68100000      26.21700000
 H      31.93400000      32.87600000      25.95900000
 H      32.84200000      33.46500000      27.06700000
 O      38.32900000      27.84600000      30.92700000
 H      38.10500000      28.08300000      30.01800000
 H      37.48400000      28.12600000      31.37100000
 O      29.54700000      29.80100000       1.07600000
 H      28.96000000      30.26800000       1.69700000
 H      29.32800000      30.14200000       0.22000000
 O      33.42300000      20.69300000      28.90600000
 H      33.67500000      20.47700000      27.99300000
 H      33.41000000      21.67800000      28.83100000
 O      36.11500000      29.09100000      14.80000000
 H      35.58200000      29.84700000      14.97000000
 H      36.41800000      28.84900000      15.76300000
 O      31.31300000      29.78600000      33.40400000
 H      32.06500000      29.97000000      32.80500000
 H      31.72400000      29.05500000      33.98300000
 O      36.78400000      31.31200000      28.03800000
 H      36.85800000      32.28400000      27.80500000
 H      37.15400000      30.95200000      27.20600000
 O      31.27700000      29.83400000      18.63400000
 H      31.62900000      30.50700000      19.29400000
 H      30.61400000      30.45400000      18.14800000
 O      30.71200000      33.80100000      28.84800000
 H      30.86400000      34.32100000      28.07200000
 H      31.36600000      34.12500000      29.45000000
 O      30.92400000      22.31700000      33.54300000
 H      31.27900000      21.39300000      33.77700000
 H      30.35900000      22.02200000      32.78900000
 O      27.58900000      29.31200000      17.25800000
 H      26.60900000      29.10000000      17.23100000
 H      27.99600000      28.43700000      17.36300000
 O      40.02800000      40.43900000      27.09600000
 H      39.04400000      40.30000000      27.33300000
 H      40.06100000      40.07300000      26.17600000
 O      32.48300000      34.24400000      13.25600000
 H      33.39700000      33.98300000      13.12200000
 H      32.24000000      33.74300000      14.07300000
 O      27.38100000      34.61700000      28.78300000
 H      27.83300000      35.26100000      28.24500000
 H      27.58100000      33.78300000      28.28300000
 O      29.65600000      22.51400000      18.19300000
 H      30.03000000      22.95800000      18.93500000
 H      28.84600000      23.07800000      18.00600000
 O      31.59400000      38.67400000      35.01100000
 H      31.79100000      37.69500000      35.19400000
 H      31.68300000      38.99800000      35.91600000
 O      28.16600000      37.90300000      15.37600000
 H      28.45800000      38.52600000      16.03300000
 H      28.56300000      38.36500000      14.60900000
 O      31.50200000      22.01900000      22.35800000
 H      31.74700000      21.84900000      23.28200000
 H      31.39800000      21.06100000      22.02700000
 O      30.08600000      38.24800000      23.21700000
 H      30.97900000      37.94400000      23.39300000
 H      30.20200000      38.82500000      22.46500000
 O      39.58300000      23.20400000       2.47200000
 H      39.14300000      23.07900000       3.35800000
 H      40.54100000      23.01400000       2.69600000
 O      33.33000000      27.63000000       5.33700000
 H      33.84600000      28.41600000       5.02900000
 H      32.40800000      27.89900000       5.13600000
 O      28.38900000      21.66700000      23.14400000
 H      29.34700000      21.44700000      23.26500000
 H      28.37700000      22.54600000      23.41700000
 O      32.00600000      27.39800000      34.82500000
 H      31.99100000      27.66000000      35.79400000
 H      32.99000000      27.35300000      34.70200000
 O      34.43300000      23.65700000      34.11300000
 H      35.25900000      23.32600000      33.77300000
 H      34.07200000      22.87700000      34.54500000
 O      33.95000000      20.02400000      13.42700000
 H      33.88400000      20.94500000      13.29500000
 H      33.94800000      19.95200000      14.39000000
 O      37.06800000      23.67600000      28.76900000
 H      37.01400000      23.48700000      29.69800000
 H      36.99100000      24.64400000      28.77900000
 O      31.08600000      23.10600000      27.90700000
 H      31.98700000      23.12700000      28.32600000
 H      31.22100000      23.77800000      27.22700000
 O      35.69700000      35.12400000      26.69700000
 H      34.73400000      34.94100000      26.82800000
 H      35.77300000      35.74200000      27.47400000
 O      30.25100000      23.80900000       7.65200000
 H      30.04700000      22.89400000       7.99800000
 H      30.87200000      24.07600000       8.35500000
 O      32.96000000      26.81300000      19.84300000
 H      32.13600000      26.41600000      19.45000000
 H      33.64900000      26.10900000      19.69200000
 O      35.22800000      30.83700000      34.39000000
 H      34.51400000      31.11700000      35.06800000
 H      35.96600000      30.65500000      35.01000000
 O      35.54900000      28.84900000       7.72500000
 H      36.52700000      28.78800000       7.69100000
 H      35.43100000      29.80800000       7.50000000
 O      27.42900000      32.33800000      27.19900000
 H      26.74900000      32.17000000      26.55200000
 H      27.99100000      32.98800000      26.76900000
 O      39.51000000      31.29600000      33.43500000
 H      40.27600000      31.20400000      34.00600000
 H      38.79700000      30.71300000      33.85300000
 O      37.38400000      33.18500000      19.96100000
 H      36.86500000      32.46000000      19.61600000
 H      37.74900000      32.75100000      20.78100000
 O      33.24100000      29.02500000       8.94900000
 H      33.32900000      28.15800000       9.42000000
 H      34.20900000      29.01500000       8.66400000
 O      29.57800000      39.42900000       8.00900000
 H      30.24500000      38.88100000       8.42200000
 H      30.04300000      39.85600000       7.30300000
 O      34.78800000      38.51600000      25.78200000
 H      35.30900000      38.79300000      25.03500000
 H      34.78300000      39.34100000      26.31000000
 O      33.68600000      38.61600000      17.62500000
 H      33.52300000      39.61600000      17.78700000
 H      34.39500000      38.72800000      16.99500000
 O      37.86400000      30.98800000      35.92300000
 H      38.51600000      31.54400000      36.44600000
 H      37.51500000      30.52500000      36.74500000
 O      37.23900000      32.94100000       5.16000000
 H      37.99600000      32.54400000       4.69200000
 H      37.60700000      33.73400000       5.55600000
 O      31.83200000      27.02800000      37.54800000
 H      32.24400000      26.15700000      37.25500000
 H      31.14100000      26.68100000      38.10300000
 O      32.29700000      23.67200000      20.42500000
 H      31.93400000      23.10100000      21.14600000
 H      33.20100000      23.81300000      20.77200000
 O      32.51300000      20.79500000      37.95300000
 H      32.70100000      20.49700000      38.84000000
 H      31.72300000      21.30300000      38.16300000
