579
XYZ file of cluster: frame_4000_9bb0c.73931.73b3f - created by MolEdiTo
 O      39.71500000      37.89400000      30.92000000
 H      40.09500000      38.03800000      31.80900000
 H      40.48600000      38.14000000      30.38600000
 O      33.69700000      33.25600000      31.51300000
 H      34.67600000      33.33500000      31.33300000
 H      33.66500000      32.26200000      31.53500000
 O      31.41400000      28.30700000      22.91700000
 H      31.95000000      29.08500000      23.11300000
 H      32.15200000      27.63800000      22.81900000
 O      26.90900000      28.38300000      30.58900000
 H      27.34300000      28.96200000      29.84100000
 H      27.69800000      28.19200000      31.08200000
 O      36.89600000      21.34800000      30.77300000
 H      36.87300000      21.06100000      31.71300000
 H      37.09100000      22.28100000      30.95200000
 O      34.97600000      34.37200000      36.25900000
 H      34.31300000      34.15100000      36.89100000
 H      35.79000000      34.14700000      36.81000000
 O      39.66300000      21.88500000      32.44100000
 H      39.72200000      21.15600000      33.16300000
 H      40.27000000      22.52700000      32.83500000
 O      33.68400000      30.90700000      38.89900000
 H      33.87700000      30.22400000      38.24400000
 H      33.45700000      30.35400000      39.68700000
 O      35.22800000      27.86700000      24.73000000
 H      36.05900000      27.47000000      24.33200000
 H      34.56700000      27.30800000      24.30600000
 O      31.00400000      36.84100000      40.59800000
 H      30.85000000      36.19000000      41.31600000
 H      30.69000000      36.22100000      39.87800000
 O      32.40200000      37.51900000      24.56600000
 H      32.96100000      38.01700000      25.18000000
 H      33.03300000      37.28100000      23.85500000
 O      33.43100000      23.60000000      29.28000000
 H      34.03300000      24.36900000      29.12600000
 H      33.16900000      23.89100000      30.21400000
 O      37.56400000      38.43000000      38.27000000
 H      37.45200000      37.50700000      38.56700000
 H      38.20200000      38.77600000      38.91500000
 O      31.03700000      31.10900000      26.48900000
 H      31.76300000      30.43100000      26.45100000
 H      30.83700000      30.99400000      27.44800000
 O      28.64500000      28.84500000      37.19600000
 H      27.61000000      28.87800000      37.23600000
 H      28.85400000      29.57500000      37.82900000
 O      37.85700000      33.73800000      26.44200000
 H      38.55500000      34.37000000      26.59500000
 H      37.08100000      34.32700000      26.62400000
 O      39.93600000      32.66700000      37.59100000
 H      39.88900000      32.57900000      38.53900000
 H      40.53100000      33.51700000      37.49100000
 O      29.49900000      24.18600000      39.74100000
 H      29.67400000      23.60200000      40.48000000
 H      30.20800000      24.83200000      39.89400000
 O      37.34300000      25.03700000      33.91300000
 H      37.23400000      25.98400000      34.22100000
 H      37.91400000      24.69200000      34.68700000
 O      34.64500000      32.28200000      19.77100000
 H      33.67100000      32.13200000      19.78200000
 H      34.75000000      32.42700000      20.76100000
 O      38.93600000      21.63000000      36.86300000
 H      39.03400000      21.42000000      37.80800000
 H      37.98600000      21.39600000      36.75400000
 O      37.37100000      35.75700000      38.96400000
 H      37.31900000      35.08100000      39.66200000
 H      37.46700000      35.17400000      38.18900000
 O      36.02500000      20.69000000      24.58500000
 H      36.06000000      19.80400000      24.20500000
 H      35.85000000      21.28200000      23.79600000
 O      33.92300000      30.49400000      32.00100000
 H      34.77100000      30.55000000      31.50500000
 H      34.24300000      30.93400000      32.80800000
 O      35.02900000      23.73500000      38.18800000
 H      34.31700000      24.23700000      37.65700000
 H      35.80300000      24.12300000      37.78800000
 O      29.75400000      37.11000000      33.12100000
 H      30.35500000      37.81200000      33.40900000
 H      29.70800000      37.11400000      32.12300000
 O      27.29300000      26.08200000      28.85500000
 H      26.83900000      26.82500000      28.40700000
 H      28.15500000      26.46600000      29.09900000
 O      39.85900000      28.99400000      26.13200000
 H      39.06200000      29.31800000      25.83000000
 H      40.51200000      29.65000000      25.79900000
 O      36.69700000      20.99500000      33.43900000
 H      36.27100000      20.87500000      34.33100000
 H      37.63600000      20.96100000      33.66300000
 O      34.57500000      23.91900000      21.69200000
 H      35.35900000      23.37400000      21.70000000
 H      34.17300000      23.65200000      22.54300000
 O      32.07900000      21.19700000      24.87400000
 H      31.51000000      20.44200000      25.01500000
 H      32.83000000      20.97000000      25.44900000
 O      27.33300000      38.41000000      33.39300000
 H      26.86200000      38.14100000      32.58300000
 H      28.17800000      37.96500000      33.34100000
 O      27.68800000      38.87600000      39.97100000
 H      26.88400000      38.53100000      39.54000000
 H      28.09200000      38.07500000      40.32200000
 O      37.45200000      26.95100000      23.14600000
 H      37.44400000      26.46200000      22.27600000
 H      38.01000000      26.28300000      23.67500000
 O      33.14000000      33.47600000      38.46700000
 H      33.19700000      33.90400000      39.35300000
 H      33.23600000      32.52600000      38.71600000
 O      32.83000000      36.05300000      32.77500000
 H      32.99200000      35.66400000      31.95100000
 H      33.06400000      37.00200000      32.56700000
 O      33.41900000      31.24600000      36.05900000
 H      32.46800000      31.03800000      35.91700000
 H      33.43500000      31.68400000      36.90800000
 O      39.20800000      20.61300000      39.40200000
 H      39.27400000      21.12300000      40.25100000
 H      39.36000000      19.71900000      39.75100000
 O      27.68300000      31.02100000      21.41400000
 H      26.75600000      30.83400000      21.70800000
 H      27.57000000      31.63000000      20.67100000
 O      32.52100000      36.44000000      21.16000000
 H      32.98200000      36.22400000      21.99800000
 H      32.34100000      37.39500000      21.29700000
 O      29.95100000      36.41100000      26.16100000
 H      30.64300000      36.65900000      25.60600000
 H      30.26100000      36.73000000      26.98600000
 O      28.59300000      23.97300000      33.66100000
 H      29.05000000      24.82000000      33.82000000
 H      29.37400000      23.37200000      33.67500000
 O      37.59600000      38.13400000      33.99600000
 H      36.70800000      37.71400000      34.10700000
 H      37.51400000      38.56500000      33.13500000
 O      30.95200000      25.26600000      25.69800000
 H      30.80000000      26.21600000      25.80700000
 H      30.16700000      24.98600000      25.19000000
 O      35.28500000      21.55200000      39.68100000
 H      35.16400000      22.32800000      39.06200000
 H      34.43100000      21.52800000      40.13900000
 O      29.33300000      33.96000000      23.33800000
 H      29.16000000      34.03100000      24.32700000
 H      28.52300000      34.28400000      22.95500000
 O      36.32400000      39.04200000      23.52800000
 H      37.07000000      39.03300000      22.86700000
 H      35.93400000      39.86900000      23.31500000
 O      32.83100000      38.96800000      21.52400000
 H      33.38900000      39.60900000      20.94700000
 H      33.46600000      38.88900000      22.23900000
 O      38.20000000      39.85800000      35.98600000
 H      38.06600000      39.17300000      36.67800000
 H      38.10900000      39.27600000      35.19500000
 O      33.43900000      28.44300000      30.42500000
 H      33.32400000      29.21000000      31.01500000
 H      34.07900000      28.88300000      29.77300000
 O      36.32100000      28.42700000      33.25300000
 H      35.96200000      29.27400000      32.99300000
 H      35.72000000      28.10100000      33.89800000
 O      39.80600000      35.84200000      26.73900000
 H      39.78900000      35.34700000      25.85900000
 H      39.58500000      36.70600000      26.44300000
 O      29.52900000      20.34900000      37.58400000
 H      28.91300000      20.84600000      36.98400000
 H      29.76600000      19.58000000      37.03700000
 O      28.91300000      21.46200000      27.84400000
 H      29.35300000      20.60800000      28.01300000
 H      29.63000000      22.10700000      27.79000000
 O      32.95100000      40.31400000      28.19500000
 H      32.16900000      39.99800000      27.74900000
 H      32.76200000      40.03300000      29.11600000
 O      27.82200000      37.10400000      24.07800000
 H      28.63400000      37.40100000      23.71800000
 H      27.55500000      37.93800000      24.60800000
 O      28.78900000      24.09100000      24.36800000
 H      28.07900000      23.96500000      25.01500000
 H      28.37700000      24.72500000      23.78600000
 O      27.95300000      26.28300000      36.70800000
 H      28.57400000      25.85800000      36.05500000
 H      28.32600000      27.20600000      36.76300000
 O      33.65200000      29.63100000      26.01200000
 H      34.27600000      28.96800000      25.70000000
 H      33.43600000      30.08300000      25.16400000
 O      29.29200000      36.54300000      30.42400000
 H      30.01100000      36.68000000      29.75900000
 H      28.51400000      36.55400000      29.86100000
 O      30.63300000      23.71000000      36.08500000
 H      30.42600000      23.06200000      35.37500000
 H      29.69500000      23.88400000      36.43400000
 O      37.51100000      27.36300000      27.91800000
 H      37.90700000      28.22200000      28.11000000
 H      38.29400000      26.80500000      27.69700000
 O      38.93700000      29.59200000      28.61100000
 H      38.48600000      30.42000000      28.45600000
 H      39.47600000      29.57600000      27.78000000
 O      34.72000000      29.37200000      28.42000000
 H      34.37300000      29.46500000      27.46900000
 H      35.54100000      29.92700000      28.35100000
 O      28.87400000      31.26700000      38.92500000
 H      28.80400000      32.04700000      39.56700000
 H      29.33900000      31.78800000      38.20400000
 O      31.82400000      31.91400000      20.20800000
 H      31.35200000      31.77700000      21.05900000
 H      31.66100000      32.83300000      20.03500000
 O      28.96600000      40.43500000      31.10900000
 H      28.23200000      40.64600000      31.73400000
 H      28.43600000      40.24300000      30.37200000
 O      32.38100000      24.39500000      32.44600000
 H      31.74200000      23.75700000      32.86800000
 H      33.18300000      24.27200000      33.01400000
 O      38.12800000      32.64700000      23.11000000
 H      39.08000000      32.90700000      23.17900000
 H      38.18400000      31.71300000      23.07400000
 O      33.32600000      26.18300000      23.11900000
 H      33.20900000      25.58300000      23.89200000
 H      33.95200000      25.64100000      22.58700000
 O      33.18600000      24.90800000      36.41600000
 H      32.35200000      24.40400000      36.49200000
 H      33.42400000      24.80400000      35.49500000
 O      34.31800000      25.09300000      40.52900000
 H      34.62500000      24.41000000      41.13600000
 H      34.60500000      24.77400000      39.68100000
 O      37.67000000      29.75400000      23.18200000
 H      37.69800000      28.76100000      23.28900000
 H      37.80400000      29.78100000      22.17900000
 O      26.86400000      29.58200000      33.68700000
 H      26.35200000      28.74400000      33.53200000
 H      27.70300000      29.36400000      33.19100000
 O      35.00800000      39.25100000      37.85100000
 H      35.92900000      39.45600000      37.97500000
 H      34.60400000      39.98300000      38.38900000
 O      40.52200000      27.44800000      36.01500000
 H      39.86700000      27.60200000      35.24800000
 H      39.92700000      27.53900000      36.76700000
 O      29.24600000      23.59000000      20.83300000
 H      28.66400000      24.22400000      21.33800000
 H      29.75200000      23.20600000      21.59300000
 O      39.51500000      22.71400000      21.72300000
 H      40.15400000      23.31500000      22.06400000
 H      39.99100000      22.21300000      21.04800000
 O      28.57200000      33.41700000      40.35900000
 H      27.93700000      34.16300000      40.29700000
 H      29.34900000      33.89600000      40.77800000
 O      30.40500000      31.57000000      30.48400000
 H      30.36500000      32.08200000      31.31500000
 H      30.36900000      32.37100000      29.88800000
 O      33.50500000      38.65000000      32.03600000
 H      33.23000000      39.48500000      32.49300000
 H      34.47600000      38.88100000      31.85500000
 O      34.78500000      27.54400000      35.40800000
 H      35.01700000      26.58200000      35.65100000
 H      35.10800000      27.96800000      36.22700000
 O      30.84500000      34.80400000      38.80700000
 H      31.69000000      34.33100000      38.48400000
 H      30.24600000      34.71300000      38.06700000
 O      34.89600000      36.91600000      39.17300000
 H      35.80500000      36.53200000      39.03900000
 H      34.92600000      37.56400000      38.45300000
 O      38.83500000      39.10600000      40.62300000
 H      38.38800000      38.65600000      41.38100000
 H      39.16200000      39.94400000      41.09300000
 O      29.32200000      20.91200000      31.56300000
 H      28.51700000      20.66500000      31.05300000
 H      30.06900000      20.69000000      31.02200000
 O      36.37600000      20.82900000      36.63600000
 H      35.58800000      21.34900000      36.28400000
 H      35.98800000      20.55800000      37.48000000
 O      30.26400000      31.61500000      22.36900000
 H      29.42300000      31.35900000      21.91800000
 H      29.97500000      32.46500000      22.77000000
 O      27.01900000      24.87500000      38.74900000
 H      27.84900000      24.47800000      39.07200000
 H      27.34200000      25.43400000      38.02800000
 O      27.28400000      21.55200000      20.77500000
 H      27.83600000      22.35300000      20.73400000
 H      27.54200000      21.23800000      21.69200000
 O      31.47800000      40.49200000      25.52400000
 H      32.08000000      40.03200000      24.89200000
 H      31.40500000      41.36100000      25.03900000
 O      31.63200000      25.57400000      40.42800000
 H      31.61600000      26.46300000      40.85400000
 H      32.61000000      25.38200000      40.38400000
 O      32.40500000      33.68100000      26.21700000
 H      31.93400000      32.87600000      25.95900000
 H      32.84200000      33.46500000      27.06700000
 O      32.80700000      30.88500000      23.29800000
 H      33.50200000      31.40700000      22.82600000
 H      32.04600000      31.40400000      23.19500000
 O      39.80600000      32.05300000      26.93900000
 H      40.20900000      31.56100000      26.18500000
 H      39.09100000      32.52200000      26.50400000
 O      34.69900000      37.09400000      28.20400000
 H      34.64600000      37.97400000      28.65200000
 H      34.62900000      37.37100000      27.29900000
 O      27.62400000      21.64300000      36.32300000
 H      26.98400000      21.94600000      37.02300000
 H      27.04300000      21.84000000      35.53600000
 O      37.28100000      40.12100000      27.51200000
 H      36.80400000      40.93500000      27.64800000
 H      36.85400000      39.59300000      28.18800000
 O      38.32900000      27.84600000      30.92700000
 H      38.10500000      28.08300000      30.01800000
 H      37.48400000      28.12600000      31.37100000
 O      31.38600000      39.20500000      30.16700000
 H      31.98000000      38.96400000      30.87700000
 H      30.71100000      39.75900000      30.60900000
 O      36.15000000      33.38800000      34.04400000
 H      35.60700000      33.69900000      34.83700000
 H      35.86300000      32.43000000      34.01200000
 O      37.59200000      39.30900000      31.62100000
 H      38.20500000      38.64000000      31.26800000
 H      38.17500000      40.11300000      31.65700000
 O      30.06700000      33.06000000      37.02200000
 H      30.16900000      32.19000000      36.66500000
 H      29.92000000      33.60600000      36.23100000
 O      29.04100000      29.33000000      32.12600000
 H      29.96000000      29.44100000      32.47300000
 H      29.08200000      30.07400000      31.48500000
 O      40.06000000      24.84200000      38.99000000
 H      40.55400000      23.92600000      39.14400000
 H      39.17300000      24.49800000      39.11100000
 O      36.94800000      25.87200000      36.99700000
 H      37.62200000      25.27300000      36.62800000
 H      37.47600000      26.52800000      37.39900000
 O      33.42300000      20.69300000      28.90600000
 H      33.67500000      20.47700000      27.99300000
 H      33.41000000      21.67800000      28.83100000
 O      37.31000000      29.86700000      25.81700000
 H      37.26100000      29.81600000      24.79200000
 H      36.68500000      29.15000000      26.05500000
 O      29.04200000      39.15700000      25.59700000
 H      29.82100000      39.79600000      25.75800000
 H      29.33000000      38.82300000      24.71700000
 O      36.58900000      21.05900000      28.05300000
 H      36.69600000      21.99700000      27.88100000
 H      36.50000000      20.94800000      29.00000000
 O      31.31300000      29.78600000      33.40400000
 H      32.06500000      29.97000000      32.80500000
 H      31.72400000      29.05500000      33.98300000
 O      36.78400000      31.31200000      28.03800000
 H      36.85800000      32.28400000      27.80500000
 H      37.15400000      30.95200000      27.20600000
 O      36.30600000      30.77100000      30.99600000
 H      36.61000000      30.48100000      30.13200000
 H      36.82500000      31.58900000      31.07100000
 O      27.57800000      25.42700000      22.14400000
 H      26.96600000      25.91000000      21.56600000
 H      28.09800000      26.17100000      22.56600000
 O      32.31000000      34.44900000      23.42800000
 H      32.26800000      34.24300000      24.34800000
 H      31.36700000      34.75800000      23.26900000
 O      30.71200000      33.80100000      28.84800000
 H      30.86400000      34.32100000      28.07200000
 H      31.36600000      34.12500000      29.45000000
 O      40.08700000      34.25600000      28.96500000
 H      39.91000000      34.85900000      28.17600000
 H      40.17800000      33.40300000      28.62800000
 O      35.39100000      27.65900000      40.23300000
 H      36.13900000      28.07500000      40.80000000
 H      35.30400000      26.81300000      40.60800000
 O      30.92400000      22.31700000      33.54300000
 H      31.27900000      21.39300000      33.77700000
 H      30.35900000      22.02200000      32.78900000
 O      29.86100000      28.26300000      20.56700000
 H      30.52500000      28.08000000      21.20400000
 H      30.38100000      28.75000000      19.90100000
 O      40.02800000      40.43900000      27.09600000
 H      39.04400000      40.30000000      27.33300000
 H      40.06100000      40.07300000      26.17600000
 O      31.72900000      26.58100000      31.01200000
 H      31.97600000      25.82800000      31.55300000
 H      32.51200000      27.12200000      30.94600000
 O      27.27800000      36.81500000      37.83400000
 H      27.78200000      37.16800000      37.08400000
 H      26.41500000      37.23200000      37.73300000
 O      38.55700000      27.25000000      38.66400000
 H      38.99500000      27.55400000      39.49500000
 H      39.11500000      26.43600000      38.49700000
 O      33.00600000      35.54400000      29.76200000
 H      33.79100000      35.90800000      29.39900000
 H      33.28800000      34.63300000      29.92500000
 O      34.51000000      36.94500000      23.10300000
 H      35.27400000      37.56800000      23.16300000
 H      34.95800000      36.10500000      23.42700000
 O      27.38100000      34.61700000      28.78300000
 H      27.83300000      35.26100000      28.24500000
 H      27.58100000      33.78300000      28.28300000
 O      38.69900000      33.72900000      34.55400000
 H      39.09700000      32.91800000      34.22600000
 H      37.72400000      33.50400000      34.45300000
 O      37.80000000      36.10900000      22.02300000
 H      38.10400000      35.59600000      21.22200000
 H      37.18000000      35.40300000      22.38500000
 O      37.59400000      33.03200000      31.56700000
 H      37.97200000      32.69700000      32.44300000
 H      38.10300000      33.88500000      31.47500000
 O      33.83200000      21.42100000      35.70800000
 H      33.47100000      21.12500000      36.61100000
 H      33.18700000      20.86500000      35.17100000
 O      29.71500000      26.44500000      33.94900000
 H      30.48400000      26.61500000      34.57600000
 H      29.99400000      26.95700000      33.16800000
 O      31.59400000      38.67400000      35.01100000
 H      31.79100000      37.69500000      35.19400000
 H      31.68300000      38.99800000      35.91600000
 O      37.73100000      24.00300000      40.43800000
 H      38.19100000      23.62800000      41.21500000
 H      36.92300000      23.46000000      40.43400000
 O      39.25600000      35.13500000      31.19600000
 H      39.63800000      34.84200000      30.34300000
 H      39.50200000      36.09500000      31.14500000
 O      34.42100000      28.40900000      37.98400000
 H      33.51400000      27.97500000      37.83200000
 H      34.56400000      28.03400000      38.90100000
 O      27.20300000      23.39200000      29.29200000
 H      28.07700000      23.20200000      28.95600000
 H      27.15600000      24.38800000      29.12900000
 O      31.50200000      22.01900000      22.35800000
 H      31.74700000      21.84900000      23.28200000
 H      31.39800000      21.06100000      22.02700000
 O      30.08600000      38.24800000      23.21700000
 H      30.97900000      37.94400000      23.39300000
 H      30.20200000      38.82500000      22.46500000
 O      29.57600000      27.10600000      29.72900000
 H      30.01200000      27.99300000      29.58400000
 H      30.32000000      26.67100000      30.21700000
 O      28.48900000      35.04600000      20.14700000
 H      28.56800000      36.03600000      19.96500000
 H      28.02100000      35.02200000      20.99500000
 O      36.20500000      36.44700000      31.56000000
 H      37.02000000      36.35100000      32.04000000
 H      35.55900000      36.49100000      32.37000000
 O      28.38900000      21.66700000      23.14400000
 H      29.34700000      21.44700000      23.26500000
 H      28.37700000      22.54600000      23.41700000
 O      30.39600000      40.06200000      20.87300000
 H      30.72800000      40.96600000      21.14000000
 H      31.24400000      39.61500000      20.62900000
 O      33.58600000      24.79500000      26.08500000
 H      32.77800000      25.29200000      26.24600000
 H      34.21100000      25.38300000      26.52700000
 O      32.00600000      27.39800000      34.82500000
 H      31.99100000      27.66000000      35.79400000
 H      32.99000000      27.35300000      34.70200000
 O      36.03200000      34.41200000      29.72900000
 H      36.28000000      35.24500000      30.19000000
 H      36.60600000      33.79800000      30.18000000
 O      31.22700000      37.15600000      28.52700000
 H      31.91600000      36.70100000      29.07400000
 H      31.20900000      38.05300000      28.95800000
 O      36.79800000      22.31600000      22.04900000
 H      36.98200000      21.44500000      21.57200000
 H      37.71400000      22.69700000      22.02200000
 O      40.32300000      37.74800000      37.01600000
 H      40.80000000      38.53100000      36.63400000
 H      40.12800000      37.21400000      36.25400000
 O      38.76600000      25.20700000      24.54300000
 H      38.73100000      24.20700000      24.54300000
 H      39.17500000      25.30700000      25.44000000
 O      29.52000000      34.46000000      34.50100000
 H      29.51200000      35.24000000      33.86300000
 H      28.69300000      34.04500000      34.24100000
 O      38.49500000      37.19300000      24.54000000
 H      37.58900000      37.22900000      24.78100000
 H      38.38000000      36.97200000      23.54600000
 O      34.43300000      23.65700000      34.11300000
 H      35.25900000      23.32600000      33.77300000
 H      34.07200000      22.87700000      34.54500000
 O      36.55700000      33.47300000      40.56600000
 H      35.72400000      33.70600000      41.01400000
 H      36.46800000      32.44800000      40.71200000
 O      39.07600000      32.35700000      39.93400000
 H      39.72100000      32.62100000      40.69900000
 H      38.29200000      32.80900000      40.23100000
 O      37.06800000      23.67600000      28.76900000
 H      37.01400000      23.48700000      29.69800000
 H      36.99100000      24.64400000      28.77900000
 O      34.41600000      32.99400000      22.41600000
 H      33.67800000      33.46600000      22.75700000
 H      35.11200000      33.52300000      22.86700000
 O      31.08600000      23.10600000      27.90700000
 H      31.98700000      23.12700000      28.32600000
 H      31.22100000      23.77800000      27.22700000
 O      35.69700000      35.12400000      26.69700000
 H      34.73400000      34.94100000      26.82800000
 H      35.77300000      35.74200000      27.47400000
 O      37.65100000      24.00900000      31.40500000
 H      37.38900000      24.23900000      32.32100000
 H      38.63400000      24.15200000      31.51700000
 O      38.40900000      22.59900000      24.97500000
 H      37.87200000      21.92200000      24.57800000
 H      37.82900000      22.93600000      25.73700000
 O      35.22800000      30.83700000      34.39000000
 H      34.51400000      31.11700000      35.06800000
 H      35.96600000      30.65500000      35.01000000
 O      39.62400000      21.73800000      29.87600000
 H      39.50800000      21.58900000      30.81700000
 H      38.69900000      21.60800000      29.58500000
 O      29.09800000      27.02300000      23.81700000
 H      28.35600000      27.59100000      23.66400000
 H      29.82800000      27.64100000      23.55100000
 O      34.23300000      22.99900000      24.20700000
 H      34.07100000      23.42500000      25.08600000
 H      33.92000000      22.12700000      24.44000000
 O      27.42900000      32.33800000      27.19900000
 H      26.74900000      32.17000000      26.55200000
 H      27.99100000      32.98800000      26.76900000
 O      31.16300000      29.40800000      28.82600000
 H      30.96100000      30.00600000      29.57100000
 H      31.87500000      28.86900000      29.22100000
 O      30.73600000      32.75100000      32.76000000
 H      31.72800000      32.73700000      32.75900000
 H      30.49500000      33.41700000      33.35100000
 O      39.51000000      31.29600000      33.43500000
 H      40.27600000      31.20400000      34.00600000
 H      38.79700000      30.71300000      33.85300000
 O      38.39800000      38.69000000      21.72900000
 H      39.39800000      38.57300000      21.79800000
 H      38.10000000      37.76700000      21.63900000
 O      36.32000000      34.48600000      23.90500000
 H      36.95300000      33.72300000      24.07500000
 H      36.27300000      34.80300000      24.82600000
 O      37.62200000      34.02500000      37.00000000
 H      38.49900000      33.62600000      37.31400000
 H      37.89400000      34.21200000      36.09400000
 O      35.38400000      39.28700000      29.79500000
 H      35.05500000      40.15000000      30.01400000
 H      36.14900000      39.20400000      30.44600000
 O      27.97800000      38.12800000      27.89900000
 H      28.36900000      38.50400000      27.03700000
 H      27.25800000      37.60000000      27.45000000
 O      33.95500000      32.79800000      28.34900000
 H      34.63900000      33.15900000      28.94500000
 H      34.43100000      32.04300000      27.96200000
 O      37.38400000      33.18500000      19.96100000
 H      36.86500000      32.46000000      19.61600000
 H      37.74900000      32.75100000      20.78100000
 O      28.50500000      30.14300000      25.17800000
 H      28.96900000      29.73000000      24.47800000
 H      29.24700000      30.54300000      25.71500000
 O      34.78800000      38.51600000      25.78200000
 H      35.30900000      38.79300000      25.03500000
 H      34.78300000      39.34100000      26.31000000
 O      36.97600000      29.39700000      37.86500000
 H      37.62300000      28.73000000      38.27400000
 H      36.11900000      28.95700000      38.12500000
 O      37.86400000      30.98800000      35.92300000
 H      38.51600000      31.54400000      36.44600000
 H      37.51500000      30.52500000      36.74500000
 O      32.00500000      35.86400000      35.44700000
 H      32.69800000      35.33800000      34.96500000
 H      31.20500000      35.42100000      35.14300000
 O      35.30300000      36.60500000      34.27900000
 H      34.35200000      36.70400000      33.93200000
 H      35.18000000      36.09700000      35.14000000
 O      38.87000000      24.18300000      36.07500000
 H      39.86700000      24.38400000      36.06700000
 H      38.99500000      23.23000000      36.33800000
 O      31.83200000      27.02800000      37.54800000
 H      32.24400000      26.15700000      37.25500000
 H      31.14100000      26.68100000      38.10300000
 O      28.13600000      34.55400000      25.81600000
 H      27.35800000      35.14300000      25.64200000
 H      28.82100000      35.32600000      25.90300000
 O      30.66200000      30.70700000      35.94700000
 H      30.51300000      30.61700000      34.96700000
 H      30.14200000      29.91900000      36.27200000
 O      34.86100000      26.20700000      28.18000000
 H      35.80300000      26.41100000      28.08800000
 H      34.56500000      27.11900000      28.40600000
 O      38.73800000      27.82100000      34.13500000
 H      37.87100000      28.07500000      33.69100000
 H      39.20500000      27.49500000      33.35500000
 O      39.66300000      36.24600000      34.71100000
 H      38.93500000      36.72000000      34.33000000
 H      39.42700000      35.26000000      34.61700000
 O      32.29700000      23.67200000      20.42500000
 H      31.93400000      23.10100000      21.14600000
 H      33.20100000      23.81300000      20.77200000
 O      32.51300000      20.79500000      37.95300000
 H      32.70100000      20.49700000      38.84000000
 H      31.72300000      21.30300000      38.16300000
 O      40.00700000      25.81300000      27.18000000
 H      40.32400000      25.03200000      27.64000000
 H      40.62100000      26.49300000      27.38400000
