744
XYZ file of cluster: frame_4000_7301d.48d85.c3a36 - created by MolEdiTo
 O      23.54400000      38.30600000      35.14400000
 H      24.42100000      38.61900000      35.52200000
 H      23.76000000      38.09600000      34.26000000
 O      36.56100000      14.54000000      36.00500000
 H      35.87800000      14.29400000      35.30200000
 H      36.20000000      13.98300000      36.74200000
 O      34.97600000      34.37200000      36.25900000
 H      34.31300000      34.15100000      36.89100000
 H      35.79000000      34.14700000      36.81000000
 O      33.68400000      30.90700000      38.89900000
 H      33.87700000      30.22400000      38.24400000
 H      33.45700000      30.35400000      39.68700000
 O      33.82600000      18.36700000      39.36900000
 H      33.33400000      18.31400000      40.16500000
 H      33.97000000      17.38900000      39.14500000
 O      31.00400000      36.84100000      40.59800000
 H      30.85000000      36.19000000      41.31600000
 H      30.69000000      36.22100000      39.87800000
 O      37.56400000      38.43000000      38.27000000
 H      37.45200000      37.50700000      38.56700000
 H      38.20200000      38.77600000      38.91500000
 O      28.64500000      28.84500000      37.19600000
 H      27.61000000      28.87800000      37.23600000
 H      28.85400000      29.57500000      37.82900000
 O      26.57200000      29.11500000      40.47400000
 H      26.25200000      28.27100000      40.94000000
 H      27.46300000      29.16500000      40.84000000
 O      24.79100000      26.71600000      36.03500000
 H      24.36600000      25.84200000      36.31000000
 H      25.69000000      26.59500000      36.38400000
 O      39.93600000      32.66700000      37.59100000
 H      39.88900000      32.57900000      38.53900000
 H      40.53100000      33.51700000      37.49100000
 O      29.49900000      24.18600000      39.74100000
 H      29.67400000      23.60200000      40.48000000
 H      30.20800000      24.83200000      39.89400000
 O      37.34300000      25.03700000      33.91300000
 H      37.23400000      25.98400000      34.22100000
 H      37.91400000      24.69200000      34.68700000
 O      38.93600000      21.63000000      36.86300000
 H      39.03400000      21.42000000      37.80800000
 H      37.98600000      21.39600000      36.75400000
 O      37.37100000      35.75700000      38.96400000
 H      37.31900000      35.08100000      39.66200000
 H      37.46700000      35.17400000      38.18900000
 O      35.02900000      23.73500000      38.18800000
 H      34.31700000      24.23700000      37.65700000
 H      35.80300000      24.12300000      37.78800000
 O      33.36500000      15.66600000      38.90000000
 H      33.65100000      14.87900000      39.42700000
 H      33.15300000      15.14700000      38.05300000
 O      27.84200000      19.31000000      34.80100000
 H      28.03000000      20.19000000      35.23600000
 H      26.84000000      19.34800000      34.87900000
 O      28.83700000      14.44100000      38.45300000
 H      29.52200000      15.11900000      38.19200000
 H      29.41500000      13.73600000      38.81100000
 O      25.88200000      39.28400000      35.66700000
 H      26.00000000      40.21000000      35.28500000
 H      26.22300000      38.72600000      34.97300000
 O      27.68800000      38.87600000      39.97100000
 H      26.88400000      38.53100000      39.54000000
 H      28.09200000      38.07500000      40.32200000
 O      33.41900000      31.24600000      36.05900000
 H      32.46800000      31.03800000      35.91700000
 H      33.43500000      31.68400000      36.90800000
 O      33.14000000      33.47600000      38.46700000
 H      33.19700000      33.90400000      39.35300000
 H      33.23600000      32.52600000      38.71600000
 O      39.12700000      20.19300000      34.61500000
 H      39.25700000      19.21800000      34.72400000
 H      39.23200000      20.44400000      35.55800000
 O      39.20800000      20.61300000      39.40200000
 H      39.27400000      21.12300000      40.25100000
 H      39.36000000      19.71900000      39.75100000
 O      25.92700000      22.19300000      38.24800000
 H      26.07400000      23.13900000      38.22500000
 H      25.13000000      22.12300000      38.75700000
 O      35.28500000      21.55200000      39.68100000
 H      35.16400000      22.32800000      39.06200000
 H      34.43100000      21.52800000      40.13900000
 O      20.89600000      20.84300000      38.48000000
 H      20.74500000      20.87500000      37.51400000
 H      20.02900000      21.18200000      38.81900000
 O      23.52100000      39.85100000      39.52800000
 H      23.86900000      39.77800000      40.41900000
 H      22.52800000      39.92500000      39.66600000
 O      23.66500000      15.02500000      34.47700000
 H      22.68400000      15.07100000      34.40100000
 H      23.76600000      15.43000000      35.35200000
 O      29.34100000      19.74900000      40.30500000
 H      29.42300000      20.11300000      39.42200000
 H      28.70500000      19.01000000      40.14600000
 O      38.20000000      39.85800000      35.98600000
 H      38.06600000      39.17300000      36.67800000
 H      38.10900000      39.27600000      35.19500000
 O      29.52900000      20.34900000      37.58400000
 H      28.91300000      20.84600000      36.98400000
 H      29.76600000      19.58000000      37.03700000
 O      37.32000000      16.64200000      38.65500000
 H      37.08700000      16.11100000      39.44200000
 H      37.06300000      17.52500000      38.95600000
 O      27.95300000      26.28300000      36.70800000
 H      28.57400000      25.85800000      36.05500000
 H      28.32600000      27.20600000      36.76300000
 O      22.46100000      30.46800000      35.86600000
 H      22.84500000      29.95900000      36.68200000
 H      23.33900000      30.88000000      35.54800000
 O      30.63300000      23.71000000      36.08500000
 H      30.42600000      23.06200000      35.37500000
 H      29.69500000      23.88400000      36.43400000
 O      23.90800000      33.14300000      38.74200000
 H      24.72900000      32.60000000      38.97100000
 H      23.26500000      32.42600000      38.81200000
 O      21.03700000      15.16200000      34.74100000
 H      20.87100000      14.49700000      34.02000000
 H      20.41100000      14.75100000      35.41100000
 O      28.87400000      31.26700000      38.92500000
 H      28.80400000      32.04700000      39.56700000
 H      29.33900000      31.78800000      38.20400000
 O      24.75200000      19.94300000      36.97900000
 H      25.21100000      20.20400000      37.75100000
 H      24.05200000      19.33500000      37.39300000
 O      36.31000000      19.11900000      39.72100000
 H      35.33800000      18.88600000      39.77500000
 H      36.22500000      20.12700000      39.55600000
 O      26.97100000      35.29100000      40.18200000
 H      26.41900000      35.75900000      40.82300000
 H      26.80900000      35.78300000      39.33900000
 O      21.11800000      34.73800000      38.73900000
 H      20.33900000      34.44800000      39.27500000
 H      21.72400000      33.93300000      38.83400000
 O      33.18600000      24.90800000      36.41600000
 H      32.35200000      24.40400000      36.49200000
 H      33.42400000      24.80400000      35.49500000
 O      34.31800000      25.09300000      40.52900000
 H      34.62500000      24.41000000      41.13600000
 H      34.60500000      24.77400000      39.68100000
 O      24.00100000      22.61800000      35.73200000
 H      24.69800000      22.40100000      35.03500000
 H      23.92200000      21.75800000      36.21000000
 O      35.00800000      39.25100000      37.85100000
 H      35.92900000      39.45600000      37.97500000
 H      34.60400000      39.98300000      38.38900000
 O      40.52200000      27.44800000      36.01500000
 H      39.86700000      27.60200000      35.24800000
 H      39.92700000      27.53900000      36.76700000
 O      25.01200000      19.20600000      34.53800000
 H      24.15700000      19.55000000      34.21100000
 H      24.84500000      19.38100000      35.51100000
 O      25.86000000      31.48400000      39.43500000
 H      25.76900000      30.59500000      39.84200000
 H      26.77200000      31.45000000      39.13100000
 O      24.31200000      33.38100000      36.01700000
 H      24.09100000      33.41900000      36.97900000
 H      24.51800000      32.42000000      35.91900000
 O      35.98400000      17.07400000      36.37500000
 H      36.25500000      16.15900000      36.11000000
 H      36.34000000      17.14700000      37.24200000
 O      28.57200000      33.41700000      40.35900000
 H      27.93700000      34.16300000      40.29700000
 H      29.34900000      33.89600000      40.77800000
 O      34.78500000      27.54400000      35.40800000
 H      35.01700000      26.58200000      35.65100000
 H      35.10800000      27.96800000      36.22700000
 O      30.84500000      34.80400000      38.80700000
 H      31.69000000      34.33100000      38.48400000
 H      30.24600000      34.71300000      38.06700000
 O      34.89600000      36.91600000      39.17300000
 H      35.80500000      36.53200000      39.03900000
 H      34.92600000      37.56400000      38.45300000
 O      38.83500000      39.10600000      40.62300000
 H      38.38800000      38.65600000      41.38100000
 H      39.16200000      39.94400000      41.09300000
 O      24.16300000      15.78000000      39.26900000
 H      24.96900000      15.39200000      38.80800000
 H      24.62200000      16.20800000      40.02700000
 O      36.37600000      20.82900000      36.63600000
 H      35.58800000      21.34900000      36.28400000
 H      35.98800000      20.55800000      37.48000000
 O      26.12300000      28.69100000      37.64100000
 H      26.20100000      28.55800000      38.60900000
 H      25.14900000      28.72400000      37.55100000
 O      27.01900000      24.87500000      38.74900000
 H      27.84900000      24.47800000      39.07200000
 H      27.34200000      25.43400000      38.02800000
 O      31.58300000      15.45800000      34.77900000
 H      31.63400000      15.48400000      33.82300000
 H      30.59400000      15.55100000      34.93800000
 O      25.48200000      19.10500000      39.58600000
 H      26.04000000      18.23200000      39.56400000
 H      24.61700000      18.76000000      39.48000000
 O      23.27300000      28.18200000      37.54700000
 H      23.20000000      27.34300000      38.10800000
 H      23.78300000      27.71700000      36.76000000
 O      27.62400000      21.64300000      36.32300000
 H      26.98400000      21.94600000      37.02300000
 H      27.04300000      21.84000000      35.53600000
 O      36.15000000      33.38800000      34.04400000
 H      35.60700000      33.69900000      34.83700000
 H      35.86300000      32.43000000      34.01200000
 O      25.62200000      35.32000000      34.43000000
 H      26.40800000      34.84000000      34.71900000
 H      24.97400000      34.66700000      34.75800000
 O      25.15700000      30.76100000      35.68700000
 H      25.82100000      30.57800000      36.34100000
 H      25.61200000      30.48200000      34.84600000
 O      20.56500000      36.91200000      36.75300000
 H      20.69900000      36.26100000      35.98900000
 H      20.81700000      36.31900000      37.51200000
 O      34.57400000      18.74700000      34.77100000
 H      35.04500000      18.28600000      35.54600000
 H      33.75800000      18.99000000      35.20900000
 O      30.06700000      33.06000000      37.02200000
 H      30.16900000      32.19000000      36.66500000
 H      29.92000000      33.60600000      36.23100000
 O      40.06000000      24.84200000      38.99000000
 H      40.55400000      23.92600000      39.14400000
 H      39.17300000      24.49800000      39.11100000
 O      36.94800000      25.87200000      36.99700000
 H      37.62200000      25.27300000      36.62800000
 H      37.47600000      26.52800000      37.39900000
 O      23.69700000      16.69200000      36.54000000
 H      22.83000000      17.06800000      36.33300000
 H      23.74400000      16.82300000      37.49800000
 O      22.51700000      24.90700000      36.05500000
 H      22.08400000      24.85300000      35.17000000
 H      22.90100000      23.98000000      36.05900000
 O      22.08000000      34.90100000      34.79000000
 H      21.98900000      34.05100000      34.27700000
 H      22.81800000      34.67400000      35.37200000
 O      24.83700000      37.82900000      38.19400000
 H      24.17500000      38.48400000      38.28900000
 H      24.37300000      37.01300000      38.03500000
 O      30.75300000      16.52400000      38.48000000
 H      30.47400000      17.19300000      39.14100000
 H      31.52300000      16.09600000      38.91200000
 O      26.67200000      15.07000000      35.81200000
 H      26.49100000      14.82700000      36.71000000
 H      25.79500000      15.24100000      35.46700000
 O      32.28600000      18.16300000      36.52000000
 H      32.13500000      17.24200000      36.78700000
 H      32.63500000      18.55000000      37.37200000
 O      20.98600000      27.26600000      35.98900000
 H      21.32900000      27.98700000      36.58100000
 H      21.52000000      26.51200000      36.34300000
 O      35.39100000      27.65900000      40.23300000
 H      36.13900000      28.07500000      40.80000000
 H      35.30400000      26.81300000      40.60800000
 O      27.27800000      36.81500000      37.83400000
 H      27.78200000      37.16800000      37.08400000
 H      26.41500000      37.23200000      37.73300000
 O      38.55700000      27.25000000      38.66400000
 H      38.99500000      27.55400000      39.49500000
 H      39.11500000      26.43600000      38.49700000
 O      28.89100000      16.35400000      35.30800000
 H      28.23500000      15.69300000      35.60900000
 H      28.29600000      17.11800000      35.15200000
 O      23.13500000      35.42800000      40.54000000
 H      22.24900000      35.56200000      40.05600000
 H      23.61400000      34.81200000      39.90900000
 O      38.69900000      33.72900000      34.55400000
 H      39.09700000      32.91800000      34.22600000
 H      37.72400000      33.50400000      34.45300000
 O      33.83200000      21.42100000      35.70800000
 H      33.47100000      21.12500000      36.61100000
 H      33.18700000      20.86500000      35.17100000
 O      29.71500000      26.44500000      33.94900000
 H      30.48400000      26.61500000      34.57600000
 H      29.99400000      26.95700000      33.16800000
 O      38.62700000      15.65100000      33.78700000
 H      39.44200000      15.78900000      33.20400000
 H      39.08700000      15.67700000      34.65800000
 O      37.73100000      24.00300000      40.43800000
 H      38.19100000      23.62800000      41.21500000
 H      36.92300000      23.46000000      40.43400000
 O      31.59400000      38.67400000      35.01100000
 H      31.79100000      37.69500000      35.19400000
 H      31.68300000      38.99800000      35.91600000
 O      34.42100000      28.40900000      37.98400000
 H      33.51400000      27.97500000      37.83200000
 H      34.56400000      28.03400000      38.90100000
 O      38.46000000      13.65300000      39.19500000
 H      38.94800000      14.16400000      38.54700000
 H      38.45300000      14.30800000      39.95900000
 O      21.10800000      23.78700000      39.41800000
 H      21.16200000      22.86000000      39.25400000
 H      20.40000000      24.11800000      38.90400000
 O      32.00600000      27.39800000      34.82500000
 H      31.99100000      27.66000000      35.79400000
 H      32.99000000      27.35300000      34.70200000
 O      40.32300000      37.74800000      37.01600000
 H      40.80000000      38.53100000      36.63400000
 H      40.12800000      37.21400000      36.25400000
 O      39.13600000      13.23900000      35.83900000
 H      39.28000000      13.23600000      36.78400000
 H      38.98800000      14.18600000      35.63900000
 O      29.52000000      34.46000000      34.50100000
 H      29.51200000      35.24000000      33.86300000
 H      28.69300000      34.04500000      34.24100000
 O      34.43300000      23.65700000      34.11300000
 H      35.25900000      23.32600000      33.77300000
 H      34.07200000      22.87700000      34.54500000
 O      36.55700000      33.47300000      40.56600000
 H      35.72400000      33.70600000      41.01400000
 H      36.46800000      32.44800000      40.71200000
 O      39.07600000      32.35700000      39.93400000
 H      39.72100000      32.62100000      40.69900000
 H      38.29200000      32.80900000      40.23100000
 O      22.74100000      18.64800000      38.49800000
 H      22.12500000      17.96200000      38.88700000
 H      22.10600000      19.41500000      38.46100000
 O      35.22800000      30.83700000      34.39000000
 H      34.51400000      31.11700000      35.06800000
 H      35.96600000      30.65500000      35.01000000
 O      26.24200000      14.09500000      38.40100000
 H      27.17300000      14.21500000      38.46100000
 H      26.12200000      13.11600000      38.33000000
 O      22.06000000      39.47900000      36.96800000
 H      21.30200000      38.81200000      36.98800000
 H      22.70800000      38.91800000      36.41000000
 O      21.84000000      14.40400000      38.56700000
 H      22.72300000      14.77400000      38.79900000
 H      21.29400000      15.24100000      38.50200000
 O      31.72800000      19.91800000      34.43200000
 H      31.81400000      19.25700000      35.18200000
 H      31.68500000      19.31100000      33.69700000
 O      21.25500000      31.72300000      38.83300000
 H      21.21200000      30.99600000      39.44300000
 H      20.60400000      31.51300000      38.17200000
 O      37.62200000      34.02500000      37.00000000
 H      38.49900000      33.62600000      37.31400000
 H      37.89400000      34.21200000      36.09400000
 O      27.86200000      17.30300000      39.26200000
 H      28.11200000      16.57400000      38.63900000
 H      28.10300000      16.83200000      40.15600000
 O      39.50500000      15.92100000      36.15200000
 H      39.18700000      16.73600000      36.60100000
 H      40.03800000      15.52400000      36.89800000
 O      23.38400000      21.84000000      39.19800000
 H      22.58900000      21.56400000      38.65500000
 H      23.00900000      21.81200000      40.06300000
 O      22.84900000      26.03600000      39.06600000
 H      23.47400000      25.53300000      39.61500000
 H      22.32500000      25.27700000      38.69700000
 O      36.97600000      29.39700000      37.86500000
 H      37.62300000      28.73000000      38.27400000
 H      36.11900000      28.95700000      38.12500000
 O      37.86400000      30.98800000      35.92300000
 H      38.51600000      31.54400000      36.44600000
 H      37.51500000      30.52500000      36.74500000
 O      33.22000000      14.14500000      36.57900000
 H      32.39800000      14.38400000      36.09200000
 H      33.87400000      14.28000000      35.91300000
 O      32.00500000      35.86400000      35.44700000
 H      32.69800000      35.33800000      34.96500000
 H      31.20500000      35.42100000      35.14300000
 O      35.30300000      36.60500000      34.27900000
 H      34.35200000      36.70400000      33.93200000
 H      35.18000000      36.09700000      35.14000000
 O      38.87000000      24.18300000      36.07500000
 H      39.86700000      24.38400000      36.06700000
 H      38.99500000      23.23000000      36.33800000
 O      24.72100000      24.93900000      40.44300000
 H      25.21700000      24.43500000      41.10500000
 H      25.38000000      25.05700000      39.76500000
 O      39.66300000      36.24600000      34.71100000
 H      38.93500000      36.72000000      34.33000000
 H      39.42700000      35.26000000      34.61700000
 O      30.66200000      30.70700000      35.94700000
 H      30.51300000      30.61700000      34.96700000
 H      30.14200000      29.91900000      36.27200000
 O      31.83200000      27.02800000      37.54800000
 H      32.24400000      26.15700000      37.25500000
 H      31.14100000      26.68100000      38.10300000
 O      31.63200000      25.57400000      40.42800000
 H      31.61600000      26.46300000      40.85400000
 H      32.61000000      25.38200000      40.38400000
 O      20.77800000      40.31500000      40.22600000
 H      19.86500000      40.16400000      39.79600000
 H      20.57200000      39.76100000      41.06300000
 O      32.51300000      20.79500000      37.95300000
 H      32.70100000      20.49700000      38.84000000
 H      31.72300000      21.30300000      38.16300000
 O      30.96500000      32.41800000      43.93300000
 H      31.26700000      31.79900000      44.65800000
 H      30.05200000      32.03800000      43.71500000
 O      36.76200000      20.29800000      47.61700000
 H      36.83700000      20.25300000      46.66100000
 H      35.79800000      20.37000000      47.73400000
 O      31.00500000      14.57700000      42.50500000
 H      31.62800000      14.31500000      43.20000000
 H      30.77300000      13.77300000      42.09200000
 O      39.79100000      20.92000000      47.15600000
 H      40.42100000      21.46300000      46.63000000
 H      40.39600000      20.16700000      47.39800000
 O      31.74600000      24.47800000      46.78000000
 H      30.87900000      24.33900000      47.19400000
 H      32.34600000      24.30400000      47.52300000
 O      32.19300000      23.70400000      44.17900000
 H      32.05300000      24.35900000      43.46300000
 H      31.97200000      24.27500000      44.95100000
 O      21.44200000      31.92900000      47.73700000
 H      21.83800000      31.42600000      48.48800000
 H      20.86100000      31.23400000      47.31700000
 O      40.06500000      15.22700000      42.64300000
 H      40.25700000      15.26400000      43.58000000
 H      40.24900000      16.16300000      42.38300000
 O      20.83900000      19.23200000      43.56700000
 H      20.62400000      20.12700000      43.96700000
 H      20.00300000      19.08600000      43.08600000
 O      37.69600000      22.79000000      45.83600000
 H      37.52600000      22.08400000      45.15300000
 H      37.91900000      22.21300000      46.59100000
 O      36.23400000      15.37600000      42.44100000
 H      35.58200000      14.70400000      42.49400000
 H      36.87800000      15.05000000      43.11100000
 O      22.21900000      18.75000000      48.30800000
 H      21.99500000      18.62800000      49.27800000
 H      21.40400000      19.23900000      48.04100000
 O      23.40200000      18.53800000      44.29100000
 H      22.64900000      18.93900000      43.77300000
 H      23.47100000      19.18800000      44.98400000
 O      26.29600000      26.82700000      43.14900000
 H      25.70300000      26.21800000      42.65000000
 H      26.75500000      26.17600000      43.75300000
 O      37.80300000      29.58600000      46.56900000
 H      38.18900000      30.05900000      47.33800000
 H      38.16800000      28.66000000      46.72500000
 O      24.03500000      39.41100000      43.50000000
 H      23.58200000      40.26100000      43.79900000
 H      24.96700000      39.56000000      43.82600000
 O      34.87600000      25.37400000      46.14400000
 H      34.49800000      24.47700000      46.32200000
 H      34.09000000      25.93000000      46.30900000
 O      35.89900000      40.42300000      45.58100000
 H      36.20000000      40.83800000      44.69600000
 H      35.71700000      39.53100000      45.20600000
 O      38.72600000      39.70400000      45.30400000
 H      39.19700000      40.40100000      44.79000000
 H      37.80900000      40.01400000      45.17000000
 O      35.76700000      35.16700000      45.26000000
 H      36.29600000      34.60500000      45.81300000
 H      34.99300000      34.55000000      45.05100000
 O      25.24300000      37.05000000      42.69900000
 H      24.73300000      37.88900000      42.75100000
 H      24.57500000      36.39600000      42.49100000
 O      35.11100000      15.75500000      46.82000000
 H      34.36200000      15.07200000      46.93400000
 H      34.70700000      16.47300000      47.29100000
 O      28.04700000      34.12900000      45.28700000
 H      28.39500000      33.68900000      46.10900000
 H      27.35900000      34.68000000      45.68200000
 O      23.22000000      35.53800000      44.62100000
 H      22.84800000      34.70200000      44.97900000
 H      23.35500000      35.32100000      43.70400000
 O      22.27600000      28.77900000      44.39800000
 H      23.04100000      28.70600000      45.05100000
 H      21.87500000      27.87700000      44.56600000
 O      30.10300000      28.18700000      46.01200000
 H      29.84700000      28.99700000      46.55800000
 H      29.63000000      27.50800000      46.50800000
 O      29.79200000      26.71100000      48.74200000
 H      30.02600000      25.87200000      49.20500000
 H      29.18700000      26.36800000      48.06300000
 O      25.00600000      38.38400000      46.14500000
 H      24.95000000      38.98400000      46.91600000
 H      24.12200000      38.38600000      45.85600000
 O      36.03600000      30.86000000      42.67300000
 H      36.52700000      30.05500000      43.02600000
 H      36.01400000      30.69300000      41.76800000
 O      34.17300000      20.88600000      48.25100000
 H      33.90900000      21.47900000      48.98300000
 H      33.37400000      20.70100000      47.77600000
 O      26.51000000      30.49300000      46.43900000
 H      25.89200000      31.25600000      46.51700000
 H      26.81200000      30.38900000      47.35600000
 O      33.03900000      21.77000000      42.52400000
 H      32.60500000      22.65500000      42.75100000
 H      32.47700000      21.18200000      43.07100000
 O      34.54500000      30.16200000      46.07900000
 H      33.70400000      30.45000000      45.64800000
 H      35.21300000      30.34700000      45.40800000
 O      22.96500000      20.31300000      46.12500000
 H      22.08400000      20.83300000      46.08300000
 H      22.84800000      19.92600000      47.00500000
 O      28.37200000      25.99900000      46.28700000
 H      27.54200000      26.51700000      46.26800000
 H      28.41600000      25.70500000      45.34600000
 O      37.94100000      35.38700000      47.46700000
 H      38.67300000      35.62600000      48.02800000
 H      38.14000000      35.88700000      46.62000000
 O      27.34000000      23.35100000      47.03200000
 H      27.04100000      23.36500000      47.96200000
 H      27.73000000      24.25700000      46.98900000
 O      25.01600000      36.11900000      48.96000000
 H      24.35200000      35.44700000      48.77600000
 H      25.50400000      36.11600000      48.11500000
 O      20.54700000      26.67300000      42.20300000
 H      21.25200000      26.06500000      41.94900000
 H      20.45100000      26.58600000      43.12600000
 O      32.01600000      30.31000000      45.15700000
 H      31.32100000      29.81500000      44.73300000
 H      31.71600000      30.34000000      46.04800000
 O      37.39600000      25.18700000      46.60300000
 H      36.42200000      25.31200000      46.43300000
 H      37.45900000      24.22800000      46.30400000
 O      25.21600000      17.01500000      43.00100000
 H      24.36100000      17.31000000      43.30300000
 H      25.78400000      17.67900000      43.47900000
 O      29.34800000      33.50200000      47.46800000
 H      28.69400000      33.69400000      48.15100000
 H      30.07000000      34.14500000      47.63700000
 O      24.33200000      13.91200000      45.99800000
 H      23.51600000      13.74600000      45.40300000
 H      24.20400000      14.90100000      46.14700000
 O      28.75500000      16.09400000      42.76600000
 H      28.96000000      16.67900000      43.47800000
 H      29.56900000      15.51700000      42.79400000
 O      30.09000000      34.94500000      43.90800000
 H      30.54700000      34.09700000      44.14500000
 H      29.22300000      34.71400000      44.34100000
 O      21.19100000      26.36700000      44.80800000
 H      21.68800000      25.53400000      44.54700000
 H      20.59200000      25.93100000      45.47800000
 O      35.37700000      37.92900000      44.57600000
 H      35.30600000      37.77300000      43.63400000
 H      35.61600000      37.05800000      44.88400000
 O      25.56600000      35.85200000      46.25400000
 H      25.48600000      36.81600000      46.01700000
 H      24.85700000      35.49900000      45.66700000
 O      21.67600000      33.02000000      44.64300000
 H      21.17200000      32.21300000      44.82200000
 H      22.47200000      32.56000000      44.20200000
 O      36.23800000      26.03400000      43.84600000
 H      35.70900000      25.88400000      44.63400000
 H      36.43400000      25.12100000      43.57700000
 O      20.78300000      38.03400000      47.45400000
 H      21.30500000      38.25600000      46.64100000
 H      20.21000000      37.30600000      46.99400000
 O      39.54300000      28.31100000      42.28600000
 H      38.73100000      28.56800000      42.80700000
 H      39.84700000      27.50800000      42.75500000
 O      31.31900000      19.68800000      43.69800000
 H      30.57000000      19.66100000      43.01200000
 H      31.70300000      18.81800000      43.44800000
 O      27.71500000      31.20800000      44.18800000
 H      27.86200000      32.12600000      44.20500000
 H      27.39400000      31.02400000      45.08300000
 O      30.48800000      39.90400000      42.20600000
 H      30.65000000      38.95700000      42.33200000
 H      29.84200000      40.12900000      42.87000000
 O      31.25100000      36.79600000      45.46000000
 H      30.39200000      37.27100000      45.78200000
 H      30.76900000      35.99200000      45.02800000
 O      19.94900000      34.69100000      43.34500000
 H      19.46600000      33.82600000      43.15000000
 H      20.74500000      34.28600000      43.78600000
 O      28.77300000      39.71800000      44.36900000
 H      27.85300000      39.83800000      44.01700000
 H      28.73600000      38.84700000      44.72900000
 O      32.83300000      29.31800000      42.18400000
 H      33.07100000      29.24500000      43.14100000
 H      31.96000000      28.93800000      42.14700000
 O      37.07900000      17.60400000      48.54800000
 H      36.15800000      17.75800000      48.74300000
 H      37.32300000      18.34900000      47.97600000
 O      21.37800000      22.82700000      47.03100000
 H      22.08600000      23.41000000      46.85600000
 H      20.87100000      23.29900000      47.75400000
 O      22.39900000      38.11300000      45.22300000
 H      22.75300000      37.17600000      45.24300000
 H      22.86700000      38.42700000      44.43400000
 O      36.64400000      24.04800000      48.92400000
 H      37.20300000      23.34700000      49.19300000
 H      37.16400000      24.55500000      48.27600000
 O      22.79000000      24.28900000      43.86300000
 H      23.48300000      24.65300000      43.26800000
 H      22.28800000      23.74400000      43.25500000
 O      30.74900000      27.70800000      43.32900000
 H      30.14900000      28.37400000      42.95300000
 H      30.49800000      27.78000000      44.28100000
 O      40.34900000      33.97400000      45.81400000
 H      39.97200000      33.45200000      46.53200000
 H      41.07200000      34.45500000      46.21100000
 O      26.38500000      26.83000000      48.37600000
 H      26.17700000      27.03900000      47.44600000
 H      26.91100000      27.68700000      48.58400000
 O      28.81500000      21.71500000      45.51300000
 H      28.23500000      20.94000000      45.85100000
 H      28.40100000      22.41600000      46.04400000
 O      32.05400000      17.24200000      42.84600000
 H      31.30100000      17.10600000      43.43400000
 H      32.27400000      16.32400000      42.53700000
 O      20.50000000      15.98100000      46.41900000
 H      20.77800000      15.76700000      45.52200000
 H      21.35500000      16.35200000      46.76500000
 O      20.80500000      13.08400000      47.77500000
 H      20.10000000      12.34100000      47.88200000
 H      20.17600000      13.81100000      47.71800000
 O      29.86300000      22.57400000      43.32100000
 H      29.37400000      22.04100000      43.99400000
 H      30.62900000      22.78900000      43.86900000
 O      29.54700000      29.80100000      42.46700000
 H      28.96000000      30.26800000      43.08800000
 H      29.32800000      30.14200000      41.61100000
 O      35.86100000      31.30900000      48.09400000
 H      36.61200000      31.60700000      47.48800000
 H      35.22500000      31.05700000      47.35700000
 O      33.36100000      38.49600000      42.08200000
 H      32.66400000      37.83000000      42.25400000
 H      33.97100000      37.89700000      41.51300000
 O      27.44100000      21.49300000      42.37800000
 H      26.95600000      21.24000000      41.57300000
 H      28.15600000      20.85400000      42.39300000
 O      39.58300000      16.06600000      47.42400000
 H      38.73000000      16.45600000      47.72700000
 H      40.11000000      16.34800000      48.20800000
 O      39.61800000      25.84800000      43.75600000
 H      39.57900000      24.85900000      43.49300000
 H      38.81700000      25.91200000      44.28600000
 O      24.21700000      32.22900000      46.82000000
 H      23.27400000      31.97700000      46.79400000
 H      24.14800000      32.98600000      47.51000000
 O      35.39700000      23.16400000      43.39000000
 H      34.92300000      22.36400000      43.07500000
 H      35.00400000      23.21500000      44.31100000
 O      31.48600000      20.12300000      46.38800000
 H      30.79200000      20.84400000      46.37800000
 H      31.49100000      19.90000000      45.42700000
 O      23.82000000      31.60600000      43.52900000
 H      24.32800000      30.85600000      43.91900000
 H      24.33700000      31.75400000      42.72900000
 O      27.46200000      19.71400000      46.87900000
 H      27.64400000      18.75300000      47.01000000
 H      26.88300000      19.94600000      47.63600000
 O      29.76800000      13.22300000      47.71300000
 H      29.61100000      14.17400000      47.45800000
 H      29.12400000      12.93500000      47.03000000
 O      35.82300000      38.73600000      48.32300000
 H      35.60700000      39.44700000      47.73800000
 H      35.11600000      38.08800000      48.04800000
 O      37.39900000      28.89600000      43.82700000
 H      37.66700000      29.28800000      44.67600000
 H      36.89000000      28.15500000      44.13200000
 O      30.16200000      30.76400000      47.30400000
 H      30.25000000      30.29100000      48.17800000
 H      30.10300000      31.70100000      47.56400000
 O      32.56200000      33.34400000      47.71800000
 H      32.63700000      32.83600000      48.57100000
 H      32.17100000      34.15100000      47.99300000
 O      20.50400000      30.48000000      45.48200000
 H      20.99500000      29.95700000      44.82300000
 H      19.85800000      29.72300000      45.68700000
 O      34.11900000      22.43600000      45.81400000
 H      33.38000000      21.88400000      45.46200000
 H      34.10900000      22.28900000      46.74100000
 O      34.18000000      36.72900000      47.25700000
 H      34.86800000      36.27300000      46.71800000
 H      33.35500000      36.46700000      46.76700000
 O      39.58300000      23.20400000      43.86300000
 H      39.14300000      23.07900000      44.74900000
 H      40.54100000      23.01400000      44.08700000
 O      39.71400000      37.13400000      45.93700000
 H      40.06200000      37.27600000      46.84600000
 H      39.35600000      38.03100000      45.77600000
 O      33.33000000      27.63000000      46.72800000
 H      33.84600000      28.41600000      46.42000000
 H      32.40800000      27.89900000      46.52700000
 O      26.19800000      27.61000000      45.79600000
 H      25.96800000      27.58200000      44.85400000
 H      26.47000000      28.55000000      45.88000000
 O      25.67300000      23.15300000      43.72900000
 H      26.29600000      22.58200000      43.33700000
 H      25.30500000      22.50600000      44.43200000
 O      26.53800000      19.02300000      43.82200000
 H      26.06100000      19.66400000      43.22800000
 H      26.36100000      19.49800000      44.68800000
 O      33.09600000      39.33900000      45.98000000
 H      33.80100000      38.84400000      45.48100000
 H      32.36000000      38.71400000      46.01400000
 O      21.17800000      29.59400000      42.12700000
 H      21.55700000      29.89400000      42.98200000
 H      21.48500000      28.66000000      42.16800000
 O      30.49400000      17.27000000      44.93000000
 H      30.78500000      18.07400000      45.39100000
 H      30.22500000      16.70000000      45.69100000
 O      39.79300000      18.11900000      42.31300000
 H      38.93900000      17.94400000      42.71100000
 H      40.28300000      18.57600000      43.03300000
 O      33.47200000      33.91700000      45.07500000
 H      32.63000000      33.71200000      44.64100000
 H      33.25600000      33.68700000      45.98900000
 O      33.82600000      34.45800000      42.45000000
 H      34.04600000      35.28300000      41.87800000
 H      33.49000000      34.86800000      43.26700000
 O      37.49100000      15.17200000      45.38700000
 H      38.29900000      15.15500000      45.87400000
 H      36.78900000      15.37300000      46.03500000
 O      28.69600000      37.96800000      46.59100000
 H      28.77600000      37.58500000      47.52800000
 H      27.84000000      37.60700000      46.34600000
 O      32.69700000      14.53200000      47.12400000
 H      32.08200000      15.10600000      47.61700000
 H      32.57000000      13.71600000      47.61100000
 O      27.96300000      24.77600000      44.07800000
 H      27.26300000      24.08200000      44.18000000
 H      28.68300000      24.14400000      43.76100000
 O      23.42900000      16.35600000      46.11200000
 H      23.63000000      17.11100000      45.52200000
 H      23.62400000      16.78000000      46.97400000
 O      37.29600000      17.70100000      43.98800000
 H      37.18700000      16.88100000      44.58800000
 H      36.65400000      17.36800000      43.30000000
 O      27.06400000      14.24100000      46.34200000
 H      27.44300000      13.81200000      45.54700000
 H      26.14600000      14.04300000      46.24600000
 O      25.43000000      21.01800000      45.44000000
 H      25.75800000      21.61500000      46.18900000
 H      24.50300000      20.87800000      45.75500000
 O      29.61800000      16.27700000      47.41000000
 H      28.62200000      16.55400000      47.32300000
 H      29.83400000      17.02200000      48.01100000
 O      39.66900000      32.47300000      48.08300000
 H      39.70200000      31.55200000      48.32400000
 H      39.65300000      32.88400000      48.96700000
 O      26.96100000      16.89800000      47.27500000
 H      26.00400000      16.98200000      47.65500000
 H      26.95400000      15.90400000      47.13800000
 O      32.74900000      13.43000000      44.50600000
 H      33.54300000      12.96100000      44.85300000
 H      32.53200000      13.97800000      45.28700000
 O      37.23900000      32.94100000      46.55100000
 H      37.99600000      32.54400000      46.08300000
 H      37.60700000      33.73400000      46.94700000
 O      39.12600000      27.45000000      47.27100000
 H      38.76600000      26.60600000      46.92700000
 H      39.07600000      27.25800000      48.23700000
 O      37.08700000      20.24300000      44.76900000
 H      36.58300000      20.19500000      43.94800000
 H      37.48100000      19.38200000      44.84500000
 O      26.34400000      14.70000000      43.34100000
 H      27.18900000      15.09600000      43.08000000
 H      25.73900000      15.45700000      43.37900000
