129
XYZ file of cluster: frame_7000_4a7e9.9a83d.248b0 - created by MolEdiTo
 O      17.09600000      21.61200000      11.53600000
 H      17.75700000      20.94900000      11.30700000
 H      17.44000000      22.45500000      11.28100000
 O      12.82100000      27.49500000      12.89400000
 H      13.72600000      27.84100000      12.92800000
 H      12.72400000      26.84500000      13.65300000
 O      11.37100000      27.50700000      10.56100000
 H      12.21100000      27.33400000      11.14300000
 H      10.85700000      26.67300000      10.63500000
 O      18.16300000      28.51300000      10.24000000
 H      18.55600000      29.31400000       9.76400000
 H      17.61800000      28.96400000      10.95100000
 O      16.42200000      30.27900000      12.17300000
 H      16.36500000      31.20800000      12.42200000
 H      15.75100000      29.92700000      12.81400000
 O      12.19200000      24.19000000      11.22800000
 H      12.47700000      23.40900000      11.80800000
 H      11.95500000      23.91200000      10.29600000
 O      12.57700000      30.61800000       8.78600000
 H      12.51900000      29.65500000       9.06300000
 H      12.26700000      31.19800000       9.50900000
 O      18.05900000      23.95100000      14.43200000
 H      18.90700000      24.45000000      14.35600000
 H      17.84800000      23.61600000      13.55500000
 O      18.57800000      21.88800000       5.68400000
 H      17.94700000      21.46800000       4.99900000
 H      19.18700000      22.47300000       5.25800000
 O      12.59700000      25.71500000       6.41000000
 H      13.42200000      26.20500000       6.73600000
 H      11.82800000      25.94900000       7.00500000
 O      12.57800000      26.62000000      14.65000000
 H      13.51900000      26.90000000      14.63800000
 H      12.57100000      25.95100000      15.38600000
 O      10.34100000      22.38200000      13.15300000
 H       9.63200000      22.56400000      13.74900000
 H      11.18500000      22.90900000      13.54600000
 O      15.52700000      22.65800000      15.21700000
 H      15.49600000      22.89400000      14.22400000
 H      15.42600000      23.51800000      15.60400000
 O      13.86800000      23.73300000       8.04800000
 H      13.61600000      24.66000000       7.79900000
 H      13.99600000      23.36700000       7.14700000
 O      11.74500000      21.27900000       5.53000000
 H      12.06200000      21.74300000       4.72600000
 H      12.43300000      20.63200000       5.77200000
 O      10.78700000      29.70800000      13.06700000
 H      11.50200000      29.09800000      12.75500000
 H      11.42500000      30.17100000      13.66900000
 O      19.43200000      26.16800000       9.35600000
 H      19.55600000      26.72300000       8.50700000
 H      19.36100000      26.81200000      10.10100000
 O      10.32400000      28.00900000      14.50600000
 H      10.33700000      28.60000000      13.78600000
 H      11.14100000      27.47900000      14.56600000
 O      18.46100000      23.81400000      10.48900000
 H      18.92500000      24.46900000       9.93900000
 H      17.55200000      23.88200000      10.09200000
 O      19.31500000      30.52000000       5.87700000
 H      19.70300000      30.15000000       5.04200000
 H      18.73800000      31.19500000       5.64200000
 O      14.42100000      22.19800000      12.12600000
 H      13.75900000      21.49800000      11.85000000
 H      15.30800000      21.71100000      12.09500000
 O      15.18200000      24.77000000      13.75300000
 H      15.85700000      25.40800000      13.39800000
 H      14.41500000      24.98800000      13.19900000
 O      19.59900000      27.40600000       6.93000000
 H      20.07700000      27.34300000       6.11200000
 H      19.02100000      26.59600000       6.87400000
 O      16.89500000      26.27600000      15.77600000
 H      17.12300000      26.73300000      14.92800000
 H      17.49300000      25.49600000      15.66600000
 O      15.50900000      26.23200000       6.70000000
 H      15.71400000      27.19600000       6.63900000
 H      16.28400000      25.71900000       6.34800000
 O      16.65700000      27.21300000      13.59300000
 H      17.57400000      26.95700000      13.26800000
 H      16.31100000      27.58600000      12.75200000
 O      20.56600000      29.95400000      14.34500000
 H      19.69800000      29.51200000      14.47500000
 H      20.41900000      30.73000000      13.77700000
 O      17.43200000      29.60500000       7.65700000
 H      18.11200000      29.89900000       7.09900000
 H      17.79500000      28.94500000       8.21800000
 O      20.17400000      22.71300000      13.09800000
 H      20.03900000      22.72400000      12.10700000
 H      21.12400000      22.46900000      13.22900000
 O      14.15400000      20.96200000       8.61500000
 H      14.63100000      20.47700000       7.90500000
 H      14.37400000      21.93500000       8.45100000
 O      11.53800000      20.82300000      14.92600000
 H      11.83900000      20.84400000      15.80800000
 H      11.87200000      21.58500000      14.32200000
 O      15.38000000      29.26300000       5.78100000
 H      15.77000000      29.54500000       4.84200000
 H      16.12100000      29.41100000       6.43500000
 O      15.54700000      27.06800000      11.10100000
 H      15.93900000      27.38900000      10.24500000
 H      15.26100000      26.15600000      10.82500000
 O      14.66900000      29.74300000      13.33200000
 H      13.92500000      30.34600000      13.19900000
 H      14.60900000      29.27400000      14.21300000
 O      21.16200000      25.22600000      13.40000000
 H      21.47200000      24.89100000      14.23600000
 H      20.79900000      24.42400000      13.01500000
 O      11.28000000      21.25600000       8.59100000
 H      12.27400000      21.42800000       8.55100000
 H      11.08800000      21.44200000       7.65300000
 O      12.77200000      23.02100000      13.35600000
 H      13.36400000      23.71400000      13.75000000
 H      13.21000000      22.69000000      12.51700000
 O      19.58000000      20.79700000      10.46300000
 H      19.69300000      19.95700000      10.04800000
 H      19.97600000      21.49000000       9.84400000
 O      18.58900000      24.98300000       5.76000000
 H      18.90300000      24.22000000       6.36900000
 H      19.03600000      24.79400000       4.91200000
 O      15.17600000      24.29800000      10.47200000
 H      14.95600000      23.41900000      10.90500000
 H      14.71300000      24.24800000       9.60800000
 O      17.67300000      29.13200000      14.49900000
 H      17.18500000      28.57100000      13.74400000
 H      17.41300000      30.03600000      14.38900000
 O      19.45200000      27.00100000      12.76300000
 H      20.05500000      27.42900000      12.09200000
 H      20.11800000      26.43500000      13.40400000
 O      18.08600000      20.39000000      15.52500000
 H      18.90000000      20.30300000      14.99100000
 H      17.67900000      21.16800000      15.15200000
