147
XYZ file of cluster: frame_7000_9e68a.4b5b5.27657 - created by MolEdiTo
 O      22.21400000      15.84200000       9.39800000
 H      21.83800000      15.85700000       8.49200000
 H      23.08800000      16.24500000       9.32100000
 O      20.97200000      12.66000000       6.00700000
 H      21.26200000      12.25900000       5.23500000
 H      20.70400000      13.54200000       5.71900000
 O      22.48500000      21.80700000      13.31000000
 H      22.40100000      20.89700000      13.05400000
 H      23.28100000      21.64300000      13.79800000
 O      29.13800000      11.83300000      14.06100000
 H      29.78200000      11.70200000      13.33400000
 H      28.28800000      11.83000000      13.59100000
 O      29.22500000      14.81900000      11.19300000
 H      28.56100000      14.31600000      10.66600000
 H      28.97600000      14.77700000      12.13200000
 O      24.78000000      21.07300000      14.70800000
 H      24.83000000      20.21800000      14.12800000
 H      25.13900000      20.72500000      15.56700000
 O      25.70500000      13.15000000       7.96700000
 H      25.91100000      13.40500000       8.88900000
 H      24.78900000      12.89000000       8.02700000
 O      24.59800000      11.39300000      10.77200000
 H      24.31900000      12.30900000      11.06500000
 H      23.76600000      10.90700000      10.45100000
 O      23.45800000      10.31300000       6.55000000
 H      23.74200000       9.73300000       5.77000000
 H      22.52600000      10.60200000       6.43200000
 O      28.96600000      19.40300000      12.09100000
 H      29.80700000      19.23200000      11.64000000
 H      28.88700000      20.41800000      12.12300000
 O      22.30500000      19.19800000      12.70600000
 H      21.52600000      18.92500000      12.10100000
 H      22.61100000      18.35700000      13.04100000
 O      21.23200000      19.06800000      14.88200000
 H      20.69700000      19.07700000      14.05900000
 H      22.02300000      18.57700000      14.71900000
 O      23.52500000      19.24700000       6.65500000
 H      23.72100000      18.30200000       6.63800000
 H      23.68900000      19.55200000       5.74200000
 O      27.59600000      21.86900000      10.44800000
 H      27.44600000      20.92800000      10.68200000
 H      28.59600000      21.98700000      10.33500000
 O      21.91900000      13.93500000      14.93900000
 H      21.50600000      14.72400000      15.30400000
 H      22.59400000      13.66400000      15.58700000
 O      28.96200000      15.02200000      12.93400000
 H      29.50300000      14.23700000      13.20200000
 H      29.15400000      15.72600000      13.60500000
 O      29.73700000      15.98400000       6.92800000
 H      29.16000000      16.18100000       6.18900000
 H      29.09900000      15.37400000       7.28600000
 O      22.12500000      16.18900000      13.05100000
 H      22.05500000      15.26900000      13.43100000
 H      21.19000000      16.48700000      13.25000000
 O      24.50900000      18.79200000       9.44300000
 H      23.89200000      18.63800000       8.69000000
 H      25.31200000      19.15100000       9.08900000
 O      24.74200000      18.24500000      13.63600000
 H      25.09700000      18.07000000      12.68000000
 H      23.90900000      17.61300000      13.63700000
 O      30.51200000      15.23400000      14.92900000
 H      31.22200000      15.72400000      15.40600000
 H      31.04900000      14.49600000      14.56200000
 O      24.78800000      17.19100000      16.32600000
 H      25.70400000      16.83300000      16.47800000
 H      24.81200000      17.48400000      15.38400000
 O      24.73700000      13.88600000      12.20400000
 H      23.79700000      14.03100000      11.85000000
 H      24.94500000      14.84600000      12.39800000
 O      21.07400000      12.47200000       8.76600000
 H      20.48200000      11.81800000       9.06000000
 H      20.95900000      12.68300000       7.81500000
 O      24.40300000      16.60900000       6.80700000
 H      24.29300000      15.68500000       7.02700000
 H      25.21400000      16.93300000       7.35000000
 O      28.46000000      16.83100000      14.99000000
 H      29.20200000      16.12200000      15.14900000
 H      27.77100000      16.54300000      15.69400000
 O      25.04900000      20.64600000      11.49800000
 H      25.30000000      20.54100000      10.59200000
 H      24.17900000      20.20200000      11.55800000
 O      27.44400000      12.75500000      14.79600000
 H      28.12100000      12.24300000      15.29800000
 H      27.77900000      12.45900000      13.88700000
 O      21.46000000      15.86200000       6.43800000
 H      20.64100000      15.79900000       5.97100000
 H      22.02800000      16.15400000       5.70500000
 O      27.75600000      17.64400000       5.99900000
 H      28.20100000      17.90900000       5.09500000
 H      26.91000000      17.16200000       5.95600000
 O      27.52700000      19.22500000      15.57700000
 H      28.00400000      19.07200000      16.38800000
 H      28.01800000      18.78600000      14.83500000
 O      27.77700000      11.73700000      12.69500000
 H      28.12300000      11.11000000      11.98800000
 H      26.88500000      11.92100000      12.37000000
 O      26.82100000      13.25500000      10.55900000
 H      26.35800000      13.92400000      11.09800000
 H      26.22600000      12.49000000      10.67600000
 O      25.16700000      17.00400000      11.84700000
 H      24.81100000      17.46900000      10.98000000
 H      26.13400000      16.98900000      11.78700000
 O      28.67100000      20.84200000       8.85300000
 H      29.02600000      20.15900000       8.21000000
 H      29.50200000      21.15300000       9.32700000
 O      22.06700000      10.37500000      12.90400000
 H      22.96800000      10.69900000      12.89900000
 H      21.67500000      10.68300000      13.75900000
 O      21.62900000      11.10700000      15.45600000
 H      22.09300000      11.98800000      15.43800000
 H      22.35600000      10.42900000      15.73800000
 O      24.64600000      12.19200000      13.68800000
 H      25.50600000      12.18700000      14.14900000
 H      24.86800000      12.65600000      12.85000000
 O      27.74900000      17.38700000      12.14700000
 H      28.49100000      16.89000000      11.66200000
 H      28.12000000      18.23300000      12.22200000
 O      29.00800000      13.94900000       7.76100000
 H      28.13100000      13.52200000       7.81900000
 H      29.53500000      13.31800000       8.30700000
 O      26.58600000      16.62600000       8.40200000
 H      27.33300000      16.26900000       8.96800000
 H      26.84800000      17.49200000       8.01900000
 O      28.43700000      17.30200000       9.22700000
 H      29.19300000      17.10300000       8.63500000
 H      28.81500000      17.77400000       9.99400000
 O      27.34500000      19.33000000       8.89700000
 H      27.88800000      20.12200000       8.61800000
 H      28.14000000      18.68800000       8.88600000
 O      21.09900000      20.42500000       8.06000000
 H      21.79500000      20.52700000       7.36600000
 H      20.92700000      19.45100000       8.08800000
 O      29.55100000      19.69900000       6.48500000
 H      28.91000000      19.13900000       5.94700000
 H      30.42400000      19.22700000       6.23400000
 O      22.19500000      13.75700000      11.02900000
 H      22.07500000      14.55900000      10.39100000
 H      21.61900000      13.08100000      10.55200000
 O      29.18500000      12.39600000       5.42100000
 H      29.29000000      13.08600000       6.08800000
 H      28.40500000      11.80900000       5.69600000
 O      29.67600000      18.82600000      13.80300000
 H      29.16900000      18.01400000      14.26200000
 H      29.65500000      18.73400000      12.84500000
 O      29.70100000      10.60000000       8.04300000
 H      30.62700000      10.88600000       8.01700000
 H      29.28500000      11.08700000       8.79500000
