33
XYZ file of cluster: frame_13500_1e6a8.15c5.c2445 - created by MolEdiTo
 O       5.47600000       5.61600000      19.01500000
 H       5.19900000       6.50900000      18.52500000
 H       6.23200000       6.04000000      19.38900000
 O       3.61200000       3.69200000      19.53400000
 H       4.31900000       4.37800000      19.65600000
 H       2.75600000       4.21500000      19.55400000
 O       7.28400000       2.17700000      18.57300000
 H       6.57900000       1.99400000      17.87300000
 H       6.73100000       2.63500000      19.31200000
 O       8.26600000       6.61000000      18.11700000
 H       8.50000000       7.36500000      18.66800000
 H       8.57700000       6.82000000      17.20500000
 O       8.62200000       4.54400000      20.02900000
 H       8.47200000       4.65500000      19.09500000
 H       9.02700000       5.40500000      20.15600000
 O       7.49100000       2.42400000      23.95700000
 H       7.95300000       1.96700000      23.23200000
 H       7.85500000       3.34300000      23.72100000
 O       4.25000000       3.34400000      23.77400000
 H       3.91500000       2.96100000      22.89000000
 H       5.05700000       2.82100000      24.01200000
 O       6.52600000       7.13600000      25.16500000
 H       6.22000000       6.43000000      25.75800000
 H       6.43900000       8.00600000      25.70800000
 O      10.13000000       1.09000000      22.46500000
 H       9.92600000       0.43300000      23.14000000
 H      11.14600000       1.21700000      22.52800000
 O       5.39600000       0.87200000      25.20800000
 H       6.24500000       1.36200000      25.16100000
 H       5.63400000       0.12000000      24.58700000
 O       3.46200000       5.67800000      24.93400000
 H       2.66100000       5.27200000      24.51900000
 H       4.13200000       5.09300000      24.50800000
