36
XYZ file of cluster: frame_13500_7a0ab.26c79.c56db - created by MolEdiTo
 O      17.34500000       4.71400000      20.14500000
 H      16.85300000       4.89000000      21.02900000
 H      16.46200000       4.67500000      19.66700000
 O      18.54900000       9.22800000      19.50100000
 H      17.77500000       9.08200000      20.05400000
 H      18.87400000      10.16100000      19.51900000
 O      12.03400000       8.04800000      18.62600000
 H      12.13100000       8.81700000      18.05700000
 H      11.09000000       8.11200000      18.91800000
 O      12.71200000       5.27200000      17.48500000
 H      12.32700000       4.73500000      18.20000000
 H      12.27500000       6.18800000      17.76400000
 O      12.34800000       4.08800000      24.01000000
 H      12.05700000       4.79500000      24.63500000
 H      11.61900000       3.44400000      24.25300000
 O      13.75400000       8.46000000      24.38800000
 H      13.85500000       8.34400000      25.34400000
 H      12.83700000       8.77200000      24.31900000
 O      14.97000000       6.53200000      22.37600000
 H      14.29200000       6.91700000      22.94100000
 H      15.17900000       7.29900000      21.76900000
 O      15.14600000       3.83500000      23.20900000
 H      15.02700000       4.83900000      23.34500000
 H      14.25000000       3.42000000      23.50600000
 O      17.86900000       9.48200000      25.23900000
 H      16.99800000      10.02500000      25.08600000
 H      18.35700000      10.19100000      25.68100000
 O      15.59200000      10.19900000      22.89600000
 H      14.89800000       9.86400000      23.53400000
 H      14.98200000      10.62400000      22.23900000
 O      10.72300000       8.33100000      24.41200000
 H      10.86900000       9.21300000      24.86000000
 H      10.67700000       7.61800000      25.15500000
 O      17.40600000       5.42400000      24.85200000
 H      17.23400000       4.41900000      24.84000000
 H      18.20900000       5.34400000      24.22700000
