27
XYZ file of cluster: frame_12000_a5a4c.ada0.ccfc3 - created by MolEdiTo
 O      15.42500000       2.30200000      18.24300000
 H      15.46100000       3.27500000      17.96700000
 H      15.99900000       2.33600000      18.96300000
 O      18.01100000       4.64900000      19.03100000
 H      18.79600000       4.13400000      18.86300000
 H      17.51400000       4.46000000      18.26300000
 O      17.80700000       1.65000000      20.54400000
 H      17.35500000       1.52200000      21.39900000
 H      18.60800000       2.15400000      20.79200000
 O      18.45900000       7.34600000      19.36000000
 H      18.41800000       7.51100000      18.42400000
 H      18.32500000       6.40500000      19.44700000
 O      20.26000000       2.30700000      18.78900000
 H      20.99100000       2.40500000      18.17100000
 H      20.12700000       1.36400000      18.84900000
 O      18.37400000       5.28500000      24.23400000
 H      18.01100000       5.33200000      23.29500000
 H      18.55200000       4.29000000      24.24200000
 O      15.85600000       5.44100000      23.05400000
 H      15.86600000       4.69800000      22.45700000
 H      15.19200000       6.16500000      22.78000000
 O      15.59500000       0.96300000      23.81500000
 H      14.67000000       0.98400000      24.09400000
 H      16.03900000       1.12500000      24.64900000
 O      20.04900000       3.18800000      22.92200000
 H      20.71600000       3.51800000      23.57500000
 H      20.51900000       3.08000000      22.00800000
