36
XYZ file of cluster: frame_12000_261e9.25498.9a746 - created by MolEdiTo
 O      10.53100000       5.99400000      17.75000000
 H       9.90900000       6.09500000      17.02500000
 H      10.63800000       5.06700000      17.83700000
 O      10.87200000       6.02900000      14.37000000
 H       9.98900000       6.30700000      14.16200000
 H      11.38400000       6.23500000      13.53800000
 O       7.15000000       4.02000000      14.76100000
 H       7.40500000       4.44300000      15.58200000
 H       7.88600000       3.49700000      14.73800000
 O       3.93200000       4.70300000      18.01400000
 H       4.04800000       5.68100000      18.26900000
 H       4.65100000       4.18400000      18.55500000
 O       8.51200000       7.75700000      16.46000000
 H       8.10700000       7.60700000      15.57700000
 H       8.69100000       8.70400000      16.45100000
 O       7.94900000      10.03400000      17.95800000
 H       7.13600000      10.52900000      17.86900000
 H       8.65300000      10.73500000      18.20700000
 O      10.19400000       3.30900000      14.74400000
 H      10.35900000       3.35900000      13.81100000
 H      10.61000000       4.18200000      15.01700000
 O       6.26200000       8.77100000      19.54800000
 H       6.77200000       8.95600000      18.73500000
 H       6.03800000       9.67900000      19.95700000
 O       3.44400000       9.87100000      16.86600000
 H       3.54600000      10.83600000      16.93500000
 H       3.89900000       9.52400000      16.04100000
 O       3.65700000       7.32300000      15.66100000
 H       3.37600000       6.42000000      15.67900000
 H       4.14000000       7.33300000      14.81800000
 O       6.69300000       4.86400000      17.57700000
 H       5.87500000       5.15700000      17.29700000
 H       6.81400000       5.48100000      18.34400000
 O       5.86400000       6.13600000      19.66800000
 H       6.21400000       7.07500000      19.72600000
 H       5.29300000       6.00700000      20.46500000
