45
XYZ file of cluster: frame_12000_7e3f8.76430.94c8d - created by MolEdiTo
 O      18.17400000      16.47200000      18.77000000
 H      17.26900000      16.00700000      18.88300000
 H      18.70200000      15.88500000      19.36300000
 O      12.02300000      11.38100000      15.60300000
 H      11.73200000      10.49700000      15.94800000
 H      12.49600000      11.21600000      14.75100000
 O      13.07500000      14.31800000      15.15200000
 H      13.99400000      14.04300000      15.09200000
 H      12.61000000      13.57000000      14.79800000
 O      14.31700000      17.07500000      14.30100000
 H      13.98400000      16.44800000      14.99700000
 H      14.69900000      16.54100000      13.52500000
 O      11.89500000      11.20400000      19.21800000
 H      12.35500000      10.49500000      18.68500000
 H      12.40700000      11.08700000      19.98100000
 O      14.92300000      16.94500000      17.37000000
 H      15.28300000      17.89300000      17.14400000
 H      14.22800000      17.17700000      18.06000000
 O      17.11800000      15.65400000      13.64600000
 H      17.58800000      15.01300000      13.04100000
 H      17.71100000      15.67200000      14.44000000
 O      12.93600000      13.66600000      17.95200000
 H      13.01100000      14.13600000      17.06500000
 H      12.50700000      12.78600000      17.89800000
 O      15.90800000      14.77500000      19.00100000
 H      16.07500000      13.82400000      18.63800000
 H      15.13600000      15.17100000      18.62000000
 O      18.55800000      13.37100000      17.21700000
 H      17.89500000      13.75200000      16.67800000
 H      19.02200000      14.14400000      17.70000000
 O      15.47500000      12.11400000      15.47200000
 H      15.59900000      13.12800000      15.71000000
 H      16.22200000      11.63300000      15.86600000
 O      12.08800000      18.07100000      18.37600000
 H      11.18100000      17.99600000      18.09700000
 H      12.56300000      18.77700000      17.72600000
 O      11.77700000      15.54900000      19.62000000
 H      12.15700000      16.44000000      19.40800000
 H      12.43900000      15.00200000      19.20900000
 O      15.82100000      14.69000000      15.88800000
 H      15.62100000      15.35100000      16.65700000
 H      16.06700000      15.23500000      15.08100000
 O      16.04900000      11.34000000      19.09800000
 H      15.98800000      11.22800000      20.02600000
 H      16.98900000      11.00700000      18.97700000
