30
XYZ file of cluster: frame_12000_10427.9ff46.53f57 - created by MolEdiTo
 O       2.41800000      20.63800000      13.83800000
 H       2.21800000      21.13400000      14.67100000
 H       3.43500000      20.75100000      13.73500000
 O       1.68800000      16.93700000      10.98000000
 H       1.44000000      17.13500000      11.91100000
 H       2.01500000      17.86300000      10.75200000
 O       5.64700000      17.32200000       8.93600000
 H       5.12900000      17.03200000       8.14000000
 H       6.51800000      17.58500000       8.52200000
 O       5.65700000      16.37300000      12.47100000
 H       5.26900000      17.23000000      12.11800000
 H       5.18900000      16.05400000      13.23700000
 O       2.86000000      17.45100000      14.09800000
 H       2.70100000      18.38300000      14.31500000
 H       2.01400000      17.43200000      13.58900000
 O       3.34700000      16.36200000       7.35900000
 H       2.50700000      16.87200000       7.61200000
 H       3.34400000      15.66300000       8.07000000
 O       5.09800000      18.83200000      10.96800000
 H       5.15100000      18.30400000      10.09700000
 H       4.38900000      19.50100000      10.69600000
 O       6.36000000      14.75100000      10.10300000
 H       5.44900000      14.57900000       9.83500000
 H       6.35300000      15.55100000      10.56200000
 O       2.51900000      19.79600000      11.13800000
 H       2.50500000      20.20200000      12.06500000
 H       2.16400000      20.54000000      10.54900000
 O       3.38400000      15.03200000       9.70900000
 H       3.26000000      14.19500000      10.16800000
 H       2.83800000      15.68200000      10.19300000
