48
XYZ file of cluster: frame_12000_7767d.74af2.ce17 - created by MolEdiTo
 O      10.72800000      17.38000000       5.48300000
 H      11.66500000      17.67800000       5.28500000
 H      10.79100000      17.29600000       6.44700000
 O      18.04100000      10.82400000       5.40300000
 H      17.25600000      10.46600000       4.87800000
 H      18.05200000      11.81800000       5.42200000
 O      15.69000000      18.20000000       3.32600000
 H      15.61400000      17.52100000       2.61600000
 H      15.12500000      17.79600000       3.98300000
 O      13.90100000      18.64100000       6.15400000
 H      14.83500000      18.87900000       5.95900000
 H      13.66500000      17.76500000       5.73400000
 O      11.43800000      11.00300000       2.88500000
 H      10.57500000      10.43300000       2.90900000
 H      11.78100000      10.65300000       3.81000000
 O      11.98700000      14.87600000       2.94600000
 H      12.48500000      14.01300000       3.10500000
 H      11.60300000      14.71500000       2.02300000
 O      15.10900000      13.97500000       6.59200000
 H      15.90900000      14.51500000       6.54400000
 H      15.02300000      13.68000000       7.53200000
 O      16.17100000      12.30200000       2.02200000
 H      15.55300000      12.78200000       2.54400000
 H      16.99600000      12.77700000       2.04700000
 O      17.39700000      16.09400000       6.68200000
 H      18.32200000      15.85300000       6.82700000
 H      17.55500000      17.03000000       6.58200000
 O      14.41000000      13.11100000       3.97000000
 H      14.49000000      12.10700000       4.09500000
 H      14.58200000      13.29300000       4.90700000
 O      12.46500000      18.02700000       2.69700000
 H      11.59300000      18.00000000       2.22000000
 H      12.65100000      17.03500000       2.81100000
 O      13.79200000      10.71500000       1.12900000
 H      13.39000000      10.35500000       1.92700000
 H      14.58600000      11.21300000       1.32000000
 O      11.92700000      14.37000000       7.21000000
 H      12.51400000      14.40100000       6.44800000
 H      11.27500000      13.71600000       6.88900000
 O      15.17300000      15.72600000       2.12600000
 H      15.48700000      15.23300000       2.86000000
 H      15.60900000      15.40500000       1.32700000
 O      17.59600000      13.63700000       4.71700000
 H      18.05500000      13.98800000       3.95100000
 H      17.87400000      14.33600000       5.38900000
 O      13.58600000      16.24300000       4.90700000
 H      14.43600000      15.73300000       4.95000000
 H      13.29700000      15.96600000       3.98200000
