969
XYZ file of cluster: frame_19000_9bd6d.22b70.72e8d - created by MolEdiTo
 O      30.35000000      18.30500000      26.26300000
 H      31.38300000      18.34900000      26.49100000
 H      30.47800000      18.92300000      25.48100000
 O      36.73200000      26.16900000      35.27100000
 H      37.24800000      25.30300000      35.35400000
 H      35.87500000      25.84000000      35.72500000
 O      38.08600000      34.68900000      29.02000000
 H      38.96200000      34.97000000      29.18800000
 H      38.30500000      33.72500000      28.69700000
 O      32.04200000      14.66600000      26.88500000
 H      31.25000000      14.94600000      26.35400000
 H      31.49600000      14.16800000      27.62200000
 O      34.97000000      17.49800000      24.37200000
 H      34.53300000      17.46100000      23.50800000
 H      35.11100000      16.53000000      24.54100000
 O      30.35700000      33.98500000      39.30100000
 H      29.38500000      34.06500000      39.37800000
 H      30.63100000      34.78400000      39.75500000
 O      36.71800000       9.95100000      24.13300000
 H      37.27400000       9.17400000      23.86200000
 H      35.85900000       9.49900000      24.29000000
 O      37.21100000      34.15300000      40.52300000
 H      37.22400000      34.93900000      41.19900000
 H      37.30700000      33.39700000      41.20700000
 O      32.78200000       8.19900000      24.97700000
 H      32.97600000       9.05200000      25.43200000
 H      32.62700000       7.59300000      25.69500000
 O      37.68200000      14.08500000      40.38400000
 H      37.99300000      14.81400000      40.89600000
 H      37.75200000      14.51900000      39.44500000
 O      30.29400000      33.36700000      31.15500000
 H      29.96400000      33.13900000      30.24900000
 H      30.62900000      34.29200000      30.96500000
 O      31.76400000      38.15200000      21.00600000
 H      31.23400000      38.57600000      20.28900000
 H      31.72000000      38.89600000      21.67500000
 O      33.47500000      30.28100000      29.51000000
 H      33.56400000      30.21800000      30.53000000
 H      32.89600000      31.07100000      29.50200000
 O      36.17100000      28.06300000      39.61800000
 H      35.65500000      28.53200000      39.00800000
 H      35.88600000      28.44400000      40.48300000
 O      34.94400000      12.55700000      27.00300000
 H      35.23800000      13.03900000      27.81500000
 H      35.82200000      12.49200000      26.52100000
 O      39.29200000      33.12500000      36.23200000
 H      39.18500000      33.88300000      36.84800000
 H      38.67600000      33.42000000      35.53500000
 O      37.70000000       7.04400000      32.08600000
 H      37.78300000       7.10900000      33.03100000
 H      37.59300000       6.10800000      31.88400000
 O      35.89000000      36.00500000      35.68800000
 H      35.83700000      34.99400000      35.47600000
 H      36.78800000      36.00000000      36.09700000
 O      34.45400000      15.52800000      36.05400000
 H      33.81300000      14.82500000      35.70700000
 H      34.12400000      15.68100000      36.98600000
 O      32.77500000      26.58700000      35.42200000
 H      33.15400000      26.51300000      34.57300000
 H      33.42700000      25.96600000      35.93500000
 O      34.00900000      29.90800000      32.04600000
 H      34.29800000      29.01100000      31.75800000
 H      34.60800000      29.99500000      32.85200000
 O      34.17900000      23.81900000      24.16800000
 H      34.55200000      23.74900000      23.27400000
 H      34.95500000      23.61400000      24.70700000
 O      29.94600000      18.29600000      21.24900000
 H      29.76000000      17.55700000      20.67200000
 H      29.05300000      18.53700000      21.54500000
 O      37.21600000      20.89800000      25.49000000
 H      36.28100000      20.68800000      25.13600000
 H      36.99500000      21.56500000      26.19300000
 O      40.46800000      32.96000000      40.14100000
 H      40.54000000      33.52100000      40.94200000
 H      41.43000000      32.79600000      39.96900000
 O      27.80400000      30.96000000      27.60600000
 H      27.58600000      30.68500000      28.52700000
 H      28.71700000      30.53000000      27.57200000
 O      36.61400000      21.16900000      39.40100000
 H      36.66600000      20.22000000      39.60300000
 H      37.35700000      21.54300000      39.82900000
 O      34.17400000      18.85700000      40.60100000
 H      34.05000000      17.94100000      41.00600000
 H      33.38600000      19.29900000      41.10300000
 O      32.83300000      20.85700000      26.64100000
 H      32.75500000      19.88900000      26.47100000
 H      33.66800000      20.86500000      27.11600000
 O      37.68500000      31.68400000      31.97500000
 H      37.69700000      32.34900000      32.61800000
 H      36.83200000      31.24800000      32.20700000
 O      32.84800000      12.89400000      33.14500000
 H      32.55100000      13.21400000      34.06300000
 H      33.56200000      13.52800000      32.96200000
 O      29.14400000      38.92900000      26.86100000
 H      28.22100000      38.56200000      26.79600000
 H      29.51600000      38.42800000      26.04800000
 O      27.76200000      35.61800000      32.55000000
 H      27.55700000      34.73500000      32.87300000
 H      28.65600000      35.73100000      32.95300000
 O      37.04900000      35.62300000      25.29900000
 H      36.25800000      35.45800000      24.73200000
 H      37.24400000      34.69000000      25.56900000
 O      35.56200000      30.66100000      25.30200000
 H      35.07900000      29.95600000      25.70300000
 H      34.82700000      31.29200000      25.04600000
 O      28.55800000      33.15500000      36.37800000
 H      27.80600000      32.49800000      36.05100000
 H      27.91700000      33.79100000      36.84800000
 O      30.74300000      32.72800000      20.02100000
 H      31.58200000      32.29200000      20.14400000
 H      30.57800000      33.09900000      20.90000000
 O      36.10100000      25.02900000      29.03800000
 H      35.51600000      25.73700000      28.65600000
 H      36.92900000      25.43600000      28.81000000
 O      37.04400000      26.98400000      32.61200000
 H      37.11400000      26.00800000      32.70800000
 H      37.23000000      27.22900000      33.58100000
 O      27.98600000      15.70400000      35.16400000
 H      28.24400000      16.40300000      34.56200000
 H      28.77900000      15.10300000      35.03200000
 O      32.22500000      28.59500000      39.76200000
 H      31.95700000      27.65900000      39.72900000
 H      31.82300000      28.92000000      38.93600000
 O      33.56500000       7.43600000      32.46400000
 H      34.00900000       6.54700000      32.52200000
 H      33.78900000       7.76800000      33.40400000
 O      38.80700000      23.69400000      24.38100000
 H      39.28400000      24.42800000      24.85100000
 H      38.88100000      24.15300000      23.47900000
 O      37.91200000      13.86900000      28.05900000
 H      37.38200000      14.72200000      28.05000000
 H      38.45400000      13.96100000      27.20900000
 O      29.27900000       6.94000000      28.75100000
 H      29.86600000       6.45500000      29.39000000
 H      29.06700000       6.25300000      28.06400000
 O      37.55200000      20.26800000      31.90200000
 H      37.57400000      20.45800000      32.85300000
 H      36.65600000      20.18300000      31.62500000
 O      28.00600000      33.61300000      20.82200000
 H      28.65400000      33.50900000      20.16900000
 H      28.30700000      34.23900000      21.48100000
 O      27.31300000      21.36000000      35.23700000
 H      28.23900000      21.06000000      35.15400000
 H      27.25200000      22.06300000      34.63000000
 O      36.48000000      16.13300000      27.15100000
 H      35.52700000      16.27900000      27.41900000
 H      36.77500000      17.01700000      27.18400000
 O      40.68300000      16.20500000      35.19000000
 H      41.55600000      16.06200000      34.72100000
 H      40.22900000      16.54500000      34.43800000
 O      39.51500000      24.94000000      32.60500000
 H      39.90500000      24.11300000      32.98400000
 H      38.57600000      24.68700000      32.56200000
 O      39.44800000      29.52800000      21.36800000
 H      39.55200000      30.47600000      21.06700000
 H      38.59200000      29.58000000      21.82200000
 O      33.75000000      40.20300000      40.39700000
 H      33.74800000      40.87400000      41.10300000
 H      33.39200000      40.73200000      39.65900000
 O      30.50300000      33.91000000      22.41100000
 H      31.31000000      34.49400000      22.53400000
 H      29.91300000      34.45800000      23.03400000
 O      28.96300000      22.55000000      25.55200000
 H      28.87600000      23.42200000      25.19400000
 H      29.94900000      22.50500000      25.59600000
 O      31.59100000      14.03500000      39.88500000
 H      31.60100000      13.08000000      39.71600000
 H      32.13100000      14.15400000      40.64700000
 O      35.44100000      26.83800000      22.10300000
 H      35.37500000      25.79500000      22.11500000
 H      36.35500000      26.89000000      21.67100000
 O      27.97600000      27.23600000      30.40400000
 H      27.67100000      26.37100000      30.13700000
 H      27.09500000      27.61000000      30.68500000
 O      37.81700000      40.03800000      38.50100000
 H      37.22200000      39.48300000      39.00200000
 H      37.85900000      40.83300000      39.10500000
 O      34.31300000      19.31700000      21.70500000
 H      33.75900000      18.54500000      21.64400000
 H      33.58700000      19.98900000      21.56800000
 O      38.46100000      29.19500000      30.85900000
 H      37.77700000      28.77300000      31.50300000
 H      38.32600000      30.14900000      31.27300000
 O      28.22900000      16.72400000      31.64500000
 H      28.77900000      17.10200000      32.38200000
 H      28.93300000      16.41000000      31.04200000
 O      31.90700000      20.44900000      21.16300000
 H      31.14000000      19.91100000      20.80600000
 H      32.09600000      20.96300000      20.33000000
 O      40.67200000      26.27800000      39.87600000
 H      40.08100000      27.10300000      39.93900000
 H      40.07900000      25.65000000      40.38600000
 O      36.01300000      11.54600000      21.85900000
 H      35.28200000      10.91800000      21.69700000
 H      36.18000000      11.43400000      22.78800000
 O      34.00500000      16.09700000      27.89900000
 H      34.38000000      15.37500000      28.46900000
 H      33.35600000      15.51700000      27.43900000
 O      27.30200000      30.52500000      30.61900000
 H      26.95100000      29.94500000      31.35200000
 H      28.26200000      30.39000000      30.80900000
 O      38.54700000      12.63500000      32.64300000
 H      39.11400000      13.44800000      32.53900000
 H      38.34500000      12.49500000      31.70400000
 O      36.47200000      15.22900000      21.59100000
 H      35.53800000      15.10300000      21.87600000
 H      36.87800000      15.06900000      22.48200000
 O      35.85600000       8.78700000      27.16000000
 H      35.06600000       9.34400000      27.21700000
 H      35.44500000       7.92900000      26.92600000
 O      38.89800000       9.04000000      36.51100000
 H      38.92900000       9.56800000      35.68100000
 H      38.89200000       9.78000000      37.17000000
 O      35.84700000       8.18300000      38.49800000
 H      36.15800000       7.64000000      37.71300000
 H      36.24700000       9.05400000      38.19000000
 O      36.13500000      38.94700000      40.31500000
 H      35.87700000      38.08200000      39.93000000
 H      35.30700000      39.43100000      40.29200000
 O      39.74000000      21.26700000      25.04400000
 H      38.89400000      20.84200000      25.14900000
 H      39.50600000      22.20400000      25.04100000
 O      37.60300000      18.94800000      27.84700000
 H      38.22100000      18.87200000      27.11900000
 H      38.14900000      19.05100000      28.61300000
 O      32.08800000      17.47400000      22.95300000
 H      31.92100000      18.27200000      23.54400000
 H      31.47500000      17.80900000      22.17000000
 O      35.57500000      13.45100000      33.06000000
 H      36.36700000      13.01800000      32.68200000
 H      35.92100000      14.40900000      33.03800000
 O      33.35300000      40.38700000      32.80400000
 H      33.72200000      40.54600000      33.71900000
 H      33.99800000      40.96800000      32.31100000
 O      28.33900000      12.81100000      32.63300000
 H      27.99300000      12.15400000      33.26700000
 H      28.47700000      12.16700000      31.86600000
 O      38.94800000       8.38800000      30.02300000
 H      38.45900000       7.93800000      30.78800000
 H      39.12800000       7.58000000      29.52200000
 O      39.26700000      31.18100000      38.18100000
 H      39.63300000      31.78100000      37.51400000
 H      39.29800000      31.74800000      38.99500000
 O      29.88600000      39.79800000      35.21400000
 H      30.69700000      39.32000000      35.31800000
 H      29.15800000      39.16400000      35.46700000
 O      36.23300000      39.32800000      34.63700000
 H      37.20800000      39.16600000      34.84100000
 H      36.25600000      40.16200000      34.18800000
 O      36.45400000      23.71500000      25.73000000
 H      36.57300000      24.69900000      25.66000000
 H      37.07300000      23.45400000      25.06400000
 O      32.96200000      32.71100000      36.45800000
 H      33.00000000      32.05500000      35.73600000
 H      32.00100000      32.56900000      36.79600000
 O      34.38400000      24.11200000      39.95000000
 H      34.31300000      24.67900000      40.75700000
 H      35.32100000      23.82700000      40.02000000
 O      29.21000000      17.79500000      33.84900000
 H      29.22500000      18.77100000      34.06900000
 H      30.02300000      17.48400000      34.23400000
 O      36.55900000      20.20600000      20.69600000
 H      35.70100000      19.76100000      20.78100000
 H      36.48200000      20.57400000      19.79300000
 O      33.57900000      34.92000000      37.96700000
 H      33.07300000      35.58900000      37.51000000
 H      33.36900000      34.12600000      37.41600000
 O      30.56900000      24.53600000      22.94400000
 H      30.69300000      25.51500000      22.75700000
 H      30.03600000      24.69000000      23.81400000
 O      30.07300000       8.53300000      23.56300000
 H      30.08200000       8.10900000      24.43400000
 H      30.99100000       8.87000000      23.47600000
 O      38.35400000      36.48300000      36.81200000
 H      38.51200000      35.97400000      37.58200000
 H      38.89200000      37.28000000      36.89600000
 O      34.67000000      29.96700000      37.89700000
 H      34.76400000      30.85500000      38.31100000
 H      33.67600000      29.88100000      37.95500000
 O      28.64800000      27.68100000      39.69800000
 H      28.67000000      28.50400000      39.14100000
 H      28.77100000      28.06100000      40.59500000
 O      30.76600000      34.41000000      34.94300000
 H      31.27300000      33.75700000      34.36300000
 H      29.95300000      33.89600000      35.08500000
 O      37.70000000      10.28200000      38.74200000
 H      37.44400000      10.67400000      39.60200000
 H      37.99800000      11.09400000      38.30300000
 O      35.64500000      33.18400000      36.07900000
 H      34.67600000      33.07800000      36.28400000
 H      36.01200000      32.94500000      36.94300000
 O      28.06900000      22.77600000      30.41500000
 H      28.19000000      23.58400000      29.87000000
 H      27.29300000      22.41100000      29.96500000
 O      29.53500000      11.23300000      22.81400000
 H      29.51200000      10.31700000      22.91100000
 H      30.14000000      11.43100000      22.06900000
 O      33.39200000      34.62500000      40.77900000
 H      33.68500000      34.54500000      39.85900000
 H      33.58200000      33.70500000      41.03600000
 O      38.10200000       6.67200000      26.31400000
 H      39.03500000       6.84700000      26.06000000
 H      37.85000000       7.60800000      26.53200000
 O      32.02600000       9.15600000      37.02800000
 H      31.65400000      10.01600000      36.75800000
 H      31.79100000       8.66000000      36.18700000
 O      38.38900000      31.99700000      28.00300000
 H      39.17400000      31.40100000      28.16400000
 H      37.65900000      31.34300000      28.26300000
 O      35.91800000      37.13700000      30.88400000
 H      35.50500000      37.23900000      31.76200000
 H      35.94000000      38.09100000      30.63100000
 O      29.40200000      23.45300000      37.25500000
 H      29.50100000      23.18200000      38.22600000
 H      28.74200000      24.17600000      37.33900000
 O      28.69600000      34.69000000      24.90500000
 H      27.89900000      35.13300000      24.61400000
 H      28.64800000      34.67700000      25.87900000
 O      40.41500000      30.05100000      29.22900000
 H      41.18200000      29.59600000      29.52600000
 H      39.72200000      29.78400000      29.89800000
 O      37.10600000      33.39800000      33.95300000
 H      36.61200000      33.97600000      33.39100000
 H      36.55900000      33.21900000      34.68700000
 O      37.53600000      21.59200000      34.96300000
 H      38.37900000      21.10300000      35.13500000
 H      37.79000000      22.48300000      35.21400000
 O      30.58400000      31.93800000      37.35800000
 H      29.86300000      32.50500000      36.95400000
 H      30.61700000      32.49000000      38.23000000
 O      40.54400000      20.15800000      34.23400000
 H      41.47700000      19.80800000      34.34100000
 H      40.20000000      19.97900000      35.14200000
 O      31.53100000      17.25900000      35.23600000
 H      31.78300000      16.29400000      35.18300000
 H      32.36500000      17.71300000      35.13200000
 O      37.58100000      18.46200000      23.48100000
 H      37.71000000      19.29900000      23.98100000
 H      36.72000000      18.18500000      23.77000000
 O      34.05700000      26.60500000      28.77600000
 H      33.11000000      26.39300000      28.87200000
 H      34.25800000      26.77600000      29.75200000
 O      30.84300000      27.54500000      22.65800000
 H      30.56000000      27.92500000      23.52600000
 H      31.78900000      27.79400000      22.64800000
 O      28.39400000      19.62600000      38.37700000
 H      29.11200000      18.95000000      38.44800000
 H      28.73500000      20.23100000      37.70800000
 O      39.93400000      25.90500000      26.20000000
 H      39.97800000      26.86200000      26.35000000
 H      39.71100000      25.48600000      26.95400000
 O      33.94800000      34.58600000      32.08000000
 H      33.85600000      35.57400000      32.05800000
 H      34.87000000      34.41800000      31.96300000
 O      29.35200000      39.23200000      38.56300000
 H      29.06400000      38.41700000      38.03400000
 H      30.15600000      38.85600000      39.02600000
 O      30.33400000       9.12900000      27.53400000
 H      30.38500000       8.39600000      26.86700000
 H      30.16100000       8.51000000      28.31400000
 O      30.30600000      36.79800000      33.38600000
 H      31.05000000      37.24200000      33.06000000
 H      30.60800000      35.98300000      33.76900000
 O      33.51300000      10.20100000      26.73700000
 H      34.13800000      10.94200000      26.79200000
 H      32.67100000      10.71600000      26.85100000
 O      39.03700000      34.57500000      38.60000000
 H      38.22600000      34.47100000      39.15800000
 H      39.64400000      33.98500000      39.17500000
 O      32.28600000      24.72700000      20.65800000
 H      32.79000000      23.91700000      20.96300000
 H      31.53900000      24.68900000      21.25700000
 O      39.04500000      37.28700000      30.51100000
 H      38.99800000      38.10600000      30.03700000
 H      38.08200000      36.96300000      30.45100000
 O      30.93900000      18.09100000      37.78700000
 H      31.31900000      17.66400000      36.90900000
 H      31.15100000      18.97900000      37.68100000
 O      34.48400000      26.94600000      31.50100000
 H      34.00200000      26.28700000      32.05900000
 H      35.41500000      26.87400000      31.88100000
 O      27.29100000      19.21000000      32.13100000
 H      27.41100000      18.35500000      31.75300000
 H      28.14600000      19.62600000      31.84200000
 O      27.65300000      25.56400000      37.71000000
 H      26.95100000      25.35900000      38.40700000
 H      28.09200000      26.36100000      38.06700000
 O      36.54400000      11.70000000      40.66900000
 H      36.98000000      12.54600000      40.64600000
 H      35.67200000      11.87300000      40.30700000
 O      33.72600000       9.98300000      38.77300000
 H      34.41000000       9.28200000      38.86600000
 H      33.17700000       9.55700000      38.04500000
 O      33.54800000      31.69900000      24.00100000
 H      32.65000000      31.36500000      23.97700000
 H      33.96500000      31.17800000      23.28400000
 O      30.20800000      28.78700000      20.36600000
 H      30.32900000      28.15300000      21.17300000
 H      29.38800000      29.18800000      20.70600000
 O      31.41400000      31.82700000      27.70100000
 H      30.62100000      32.21900000      28.17800000
 H      32.11000000      32.49700000      28.00600000
 O      30.33900000      28.60600000      29.63100000
 H      29.58800000      28.02900000      29.85500000
 H      30.26700000      29.20400000      30.41800000
 O      30.87800000       7.47700000      32.21700000
 H      30.78100000       6.76100000      31.55300000
 H      31.83200000       7.46400000      32.31900000
 O      36.86000000      30.95400000      22.38100000
 H      37.37600000      31.79100000      22.35900000
 H      36.76000000      30.80300000      23.34600000
 O      30.28200000      13.24400000      24.51600000
 H      30.76900000      12.51200000      24.98300000
 H      29.80700000      12.69300000      23.86700000
 O      36.01200000      40.15000000      24.48600000
 H      36.89300000      39.72900000      24.69000000
 H      36.07100000      40.09400000      23.49200000
 O      39.62100000      20.84300000      36.81500000
 H      39.23100000      20.18900000      37.39000000
 H      40.55100000      20.93400000      37.15300000
 O      34.50800000       7.12000000      20.51400000
 H      33.66700000       6.66900000      20.31100000
 H      34.28300000       7.65200000      21.31300000
 O      33.51700000      28.95900000      27.09400000
 H      33.70300000      28.07300000      27.51400000
 H      33.28300000      29.47900000      27.90300000
 O      40.12100000      13.27100000      35.36900000
 H      41.04900000      12.95400000      35.16800000
 H      40.30600000      14.25400000      35.42600000
 O      36.50300000       6.69600000      36.48100000
 H      36.45500000       5.86100000      36.02300000
 H      35.75100000       7.18400000      35.95500000
 O      31.98100000      29.55700000      36.88700000
 H      32.02400000      29.03900000      36.08400000
 H      31.22100000      30.15500000      36.83300000
 O      35.06300000      29.68200000      20.63000000
 H      35.83900000      30.12400000      21.01600000
 H      35.22200000      28.78000000      20.98000000
 O      40.14500000      28.90600000      26.72600000
 H      39.22700000      28.88900000      26.39000000
 H      40.03000000      29.28200000      27.58400000
 O      29.29700000      18.88000000      28.61700000
 H      29.75200000      18.68300000      27.75600000
 H      29.05000000      18.03300000      28.86500000
 O      29.98000000      10.82400000      35.92000000
 H      29.15500000      10.34700000      36.03900000
 H      30.08600000      10.58400000      34.92700000
 O      31.11500000      25.63900000      39.51000000
 H      31.06400000      25.25600000      40.38300000
 H      30.21300000      25.96900000      39.41800000
 O      28.85600000      14.56700000      26.19700000
 H      29.40900000      14.01500000      25.55200000
 H      28.10200000      13.92000000      26.26000000
 O      33.12800000      33.88600000      28.67100000
 H      32.64300000      34.57400000      29.20600000
 H      34.03300000      34.25700000      28.68900000
 O      37.29200000      25.28000000      38.71000000
 H      36.69900000      25.10100000      37.98100000
 H      37.02800000      26.20300000      38.99100000
 O      33.00100000      21.88400000      38.36300000
 H      32.78500000      22.75200000      37.95000000
 H      33.41300000      22.24100000      39.18400000
 O      28.78800000      15.88600000      28.72200000
 H      28.74900000      15.40800000      27.84900000
 H      27.83100000      15.95100000      28.95600000
 O      30.75900000      27.91900000      33.89800000
 H      31.46600000      27.65400000      34.52700000
 H      31.00700000      28.84000000      33.69900000
 O      33.19900000      28.44600000      23.39600000
 H      34.11000000      28.22200000      23.11800000
 H      33.24100000      28.28100000      24.35200000
 O      39.62900000      24.22000000      29.44500000
 H      40.10300000      24.34700000      30.24700000
 H      39.10000000      23.42700000      29.53600000
 O      29.79400000       9.65300000      33.41600000
 H      30.20800000       8.90200000      32.85600000
 H      28.99800000       9.78700000      32.91500000
 O      39.22500000      15.91400000      20.86900000
 H      38.32000000      15.66200000      20.84400000
 H      39.69100000      15.05800000      20.66500000
 O      38.55900000      18.40100000      37.61600000
 H      38.16900000      18.60300000      36.70800000
 H      37.81400000      18.01700000      38.04400000
 O      36.60400000      39.75200000      30.50200000
 H      37.33300000      40.36500000      30.85300000
 H      36.10100000      40.41700000      29.96100000
 O      40.65800000      22.75000000      33.29400000
 H      40.22400000      21.89500000      33.59200000
 H      41.04900000      23.02300000      34.13100000
 O      34.61000000      34.43200000      24.13000000
 H      33.83400000      34.76200000      23.68000000
 H      34.43900000      33.44300000      24.01900000
 O      28.21600000      38.55400000      31.18300000
 H      28.10400000      37.84400000      31.78900000
 H      29.02700000      38.29900000      30.69500000
 O      36.32600000      37.06600000      21.82700000
 H      37.11100000      37.46300000      21.39700000
 H      35.63100000      37.46000000      21.29600000
 O      34.26400000       6.40200000      40.50100000
 H      35.01000000       6.88900000      40.14100000
 H      34.27600000       6.67500000      41.44300000
 O      36.75000000       9.59500000      31.65300000
 H      37.09400000       8.65600000      31.73800000
 H      37.34600000       9.93500000      30.95900000
 O      39.54400000      39.10300000      28.69100000
 H      39.52800000      38.45300000      27.93300000
 H      38.82200000      39.69300000      28.33600000
 O      38.74600000      11.35000000      21.38500000
 H      38.70800000      10.42000000      20.96300000
 H      37.80000000      11.37200000      21.63700000
 O      40.71400000       6.30700000      32.14700000
 H      40.88600000       7.26700000      32.38400000
 H      40.60600000       5.92800000      33.04900000
 O      33.84300000      24.68800000      32.89900000
 H      34.38500000      23.85900000      32.80400000
 H      33.01900000      24.33500000      32.62000000
 O      36.04100000      30.22300000      33.58600000
 H      36.95400000      30.15500000      33.88300000
 H      35.67500000      29.64400000      34.28900000
 O      40.07600000       7.73600000      24.61300000
 H      39.36600000       7.34800000      24.00700000
 H      40.05800000       8.63900000      24.25700000
 O      35.42500000      20.53100000      28.00200000
 H      36.00400000      19.76000000      27.89300000
 H      36.00100000      21.16500000      28.45200000
 O      32.96600000      22.56800000      29.88500000
 H      32.66600000      23.19900000      30.60500000
 H      32.49300000      22.91700000      29.11600000
 O      35.96400000      22.93200000      37.37000000
 H      36.06200000      22.30700000      38.10600000
 H      36.33000000      22.45900000      36.61000000
 O      29.33600000      37.92200000      24.28100000
 H      28.54200000      38.38600000      23.92700000
 H      29.59000000      37.52000000      23.41800000
 O      32.81400000      37.48200000      31.99800000
 H      33.39800000      37.68800000      32.78200000
 H      32.95000000      38.28400000      31.52500000
 O      31.09500000      36.36700000      36.84900000
 H      30.21300000      36.70400000      37.11000000
 H      30.87700000      35.60700000      36.25900000
 O      27.45400000      38.20300000      40.43000000
 H      28.07000000      38.85700000      40.06100000
 H      26.73300000      38.76400000      40.80100000
 O      29.29700000      25.67000000      32.57800000
 H      29.91900000      26.32600000      32.96400000
 H      28.60400000      26.25900000      32.23400000
 O      33.07200000      19.53300000      29.40200000
 H      33.74200000      19.92500000      28.78400000
 H      32.77300000      20.43600000      29.75000000
 O      37.28900000      15.06000000      37.85900000
 H      36.59700000      15.03000000      37.24300000
 H      37.24700000      16.03300000      38.15600000
 O      40.90400000      35.52400000      26.56900000
 H      40.99900000      34.60800000      26.27700000
 H      41.84600000      35.77000000      26.77400000
 O      35.04800000      20.44500000      24.12100000
 H      35.06900000      19.99700000      23.26800000
 H      34.11000000      20.43300000      24.33800000
 O      38.53600000      29.82700000      34.58600000
 H      38.28700000      29.49200000      35.45600000
 H      39.46600000      30.04700000      34.70500000
 O      27.69500000       9.61600000      26.87400000
 H      27.44200000       9.20100000      25.98700000
 H      28.62300000       9.28100000      26.94600000
 O      30.22100000      29.63400000      24.45100000
 H      30.28300000      29.64600000      25.44900000
 H      29.78900000      30.48200000      24.28200000
 O      39.35500000      33.87800000      31.77300000
 H      39.02300000      32.95000000      31.53900000
 H      39.76300000      34.09300000      30.90900000
 O      38.74600000      24.05700000      35.91800000
 H      39.74100000      24.17600000      35.73200000
 H      38.77700000      24.05800000      36.88500000
 O      36.44100000      34.60700000      31.38900000
 H      36.39900000      35.54200000      31.25000000
 H      37.15100000      34.27100000      30.89700000
 O      39.51800000      40.45200000      22.91500000
 H      38.69200000      40.89900000      22.67200000
 H      39.17600000      40.09900000      23.80800000
 O      32.92600000      11.88000000      30.67300000
 H      32.76300000      12.04100000      31.60700000
 H      33.11300000      10.92200000      30.65800000
 O      38.86600000      38.54600000      34.44000000
 H      39.09200000      37.61800000      34.13100000
 H      39.01900000      39.02700000      33.60000000
 O      29.04800000      25.25300000      25.03300000
 H      28.74400000      25.50900000      25.91100000
 H      28.55500000      25.90700000      24.47400000
 O      33.01100000       7.59500000      28.55400000
 H      32.49700000       8.38100000      28.33800000
 H      33.37700000       7.80000000      29.45200000
 O      29.21000000      32.06500000      23.91700000
 H      28.73000000      32.83800000      24.34500000
 H      29.90000000      32.51400000      23.44900000
 O      33.15800000      11.33600000      23.33400000
 H      33.04500000      12.19500000      23.66200000
 H      32.37500000      11.25400000      22.77700000
 O      36.83700000      34.55300000      21.09700000
 H      37.44900000      34.20000000      21.65200000
 H      36.63200000      35.41400000      21.52600000
 O      32.93500000      19.43600000      34.21400000
 H      32.36900000      19.71000000      33.48300000
 H      33.18300000      20.29500000      34.64100000
 O      39.47400000      36.15800000      23.89200000
 H      39.87400000      35.41300000      24.33600000
 H      38.56400000      36.23800000      24.18300000
 O      32.08000000      30.35700000      21.86600000
 H      32.56800000      29.65900000      22.35800000
 H      31.44100000      29.83500000      21.33800000
 O      34.67800000      12.43300000      37.92900000
 H      34.49400000      12.40600000      36.97500000
 H      34.30600000      11.56200000      38.17700000
 O      37.01200000      23.85500000      32.63500000
 H      36.69900000      23.44500000      31.77900000
 H      36.56000000      23.19700000      33.25800000
 O      34.70000000      39.17400000      26.63300000
 H      35.27600000      39.29100000      25.82800000
 H      34.48900000      38.24600000      26.50500000
 O      39.52000000      16.72400000      23.64200000
 H      38.79900000      17.35600000      23.39100000
 H      39.52900000      16.19900000      22.78700000
 O      33.45300000      16.07800000      38.34600000
 H      33.95100000      15.60100000      39.03200000
 H      32.64800000      15.57300000      38.28700000
 O      34.92300000      14.01700000      29.41300000
 H      35.28800000      14.00300000      30.30000000
 H      34.17700000      13.37000000      29.54000000
 O      39.25500000      14.52300000      25.77600000
 H      39.65100000      15.37200000      25.45000000
 H      40.10800000      13.95500000      25.80700000
 O      31.37800000      21.60100000      32.65900000
 H      31.49500000      22.52500000      32.34800000
 H      30.84000000      21.25900000      31.88600000
 O      34.06500000      36.12500000      26.40800000
 H      34.71800000      35.97800000      27.11200000
 H      34.19800000      35.31100000      25.88500000
 O      29.95000000      24.47100000      28.96800000
 H      29.69200000      25.32800000      28.63600000
 H      30.52200000      24.12300000      28.26500000
 O      27.87400000      38.22300000      34.22900000
 H      27.32900000      38.76100000      33.64800000
 H      28.32100000      37.63200000      33.63400000
 O      40.88700000      12.35000000      30.04700000
 H      41.40300000      12.26000000      30.90900000
 H      41.23600000      11.56700000      29.58300000
 O      27.24700000       7.44600000      30.17500000
 H      26.71100000       6.66200000      29.90100000
 H      28.13800000       7.25800000      29.75800000
 O      27.59700000      13.40200000      22.63700000
 H      28.14300000      12.59100000      22.61100000
 H      26.82600000      13.13800000      23.14800000
 O      36.45800000      30.08900000      28.47300000
 H      35.53200000      29.77600000      28.56700000
 H      36.88900000      29.35600000      28.04100000
 O      40.11200000      36.60400000      32.87500000
 H      40.21700000      36.98300000      31.96100000
 H      39.72900000      35.70900000      32.62100000
 O      28.71200000      36.52600000      21.77800000
 H      27.73800000      36.70200000      21.89400000
 H      28.90700000      37.03200000      21.00800000
 O      34.90600000      17.57600000      34.12000000
 H      34.22500000      18.24700000      34.32600000
 H      34.78000000      16.95800000      34.90700000
 O      29.83300000      30.48900000      31.49800000
 H      30.27500000      30.22700000      32.34500000
 H      29.88600000      31.47500000      31.62000000
 O      38.14800000      16.22100000      31.54900000
 H      37.19000000      16.11000000      31.63200000
 H      38.33300000      16.81400000      32.30900000
 O      34.12700000      21.06100000      35.97200000
 H      33.93500000      21.59300000      36.71000000
 H      34.22200000      20.14900000      36.41100000
 O      34.62400000      28.95100000      35.37800000
 H      34.20200000      28.11300000      35.69500000
 H      34.47800000      29.47600000      36.20100000
 O      40.88000000      15.06500000      28.86700000
 H      40.20900000      14.30000000      28.72700000
 H      41.08100000      15.19200000      27.93200000
 O      30.92100000      11.61900000      26.78500000
 H      30.81600000      12.03100000      27.65900000
 H      30.39800000      10.83800000      26.91100000
 O      35.12100000      37.42700000      33.51800000
 H      35.37500000      36.76100000      34.26300000
 H      35.43100000      38.21500000      33.97100000
 O      31.03200000      19.96600000      24.17900000
 H      31.31000000      20.87900000      24.35100000
 H      30.56100000      20.17300000      23.31400000
 O      37.15800000      18.96200000      35.32900000
 H      36.38600000      18.48800000      34.96600000
 H      36.79800000      19.87300000      35.47200000
 O      32.01400000      38.24200000      39.67700000
 H      32.46600000      38.08700000      38.83500000
 H      32.60500000      38.89100000      40.07000000
 O      39.68300000      18.30500000      25.89800000
 H      39.51200000      17.69700000      25.13500000
 H      40.41000000      17.69100000      26.28400000
 O      30.74600000      15.68600000      30.85400000
 H      30.72400000      15.44600000      29.87900000
 H      31.50300000      16.31500000      30.87300000
 O      34.10500000      18.91300000      37.63800000
 H      33.97400000      17.96900000      38.03100000
 H      33.93400000      19.38700000      38.45600000
 O      34.42600000       8.10500000      35.02000000
 H      34.90500000       8.87600000      34.67600000
 H      33.53500000       8.45900000      34.91900000
 O      31.42600000      11.30400000      39.88400000
 H      30.81800000      10.60500000      40.15200000
 H      32.28100000      10.85100000      39.86000000
 O      35.55600000      35.47300000      28.67200000
 H      35.50500000      36.23800000      29.37100000
 H      36.43100000      35.15000000      28.89100000
 O      30.28800000      13.48200000      36.92500000
 H      29.62000000      13.46400000      37.62500000
 H      30.45800000      12.53400000      36.78000000
 O      40.71000000      19.90100000      40.03700000
 H      41.04700000      20.36900000      39.24900000
 H      41.22300000      19.04000000      39.93100000
 O      37.90700000      11.95900000      29.92900000
 H      37.89400000      12.74100000      29.33700000
 H      38.73300000      11.51700000      29.63200000
 O      33.25100000      17.15700000      30.33000000
 H      33.63700000      16.95200000      29.45100000
 H      33.06900000      18.14200000      30.14000000
 O      28.80200000      14.49500000      39.21200000
 H      29.76100000      14.36100000      39.38600000
 H      28.51700000      14.57500000      40.17100000
 O      31.97100000      23.38500000      27.34100000
 H      31.96600000      23.81100000      26.52400000
 H      32.20400000      22.46500000      27.11400000
 O      31.58900000      35.65600000      30.51600000
 H      31.97000000      36.29500000      31.17800000
 H      30.95700000      36.30800000      30.04000000
 O      27.91100000      30.69600000      20.52400000
 H      28.14500000      30.98400000      19.60100000
 H      27.98900000      31.60600000      20.95400000
 O      39.82900000      39.06900000      37.16200000
 H      38.99600000      39.28700000      37.63400000
 H      39.56200000      39.19300000      36.21400000
 O      33.28900000      13.03800000      20.18800000
 H      33.43500000      13.70100000      20.82100000
 H      34.03000000      13.07100000      19.56100000
 O      28.40600000      37.52300000      36.75400000
 H      27.78400000      36.79500000      36.92900000
 H      28.24500000      37.65800000      35.79300000
 O      31.73800000      22.62100000      24.35100000
 H      31.15200000      23.16500000      23.83400000
 H      32.62700000      23.09000000      24.20400000
 O      31.50100000       7.08000000      35.13600000
 H      31.12800000       7.02100000      34.23700000
 H      30.74400000       6.64000000      35.65000000
 O      33.85200000      13.93800000      24.95300000
 H      33.35100000      14.27600000      25.68600000
 H      34.39700000      13.24600000      25.38900000
 O      35.26700000      32.56900000      39.08200000
 H      34.65600000      32.19500000      39.74700000
 H      35.72100000      33.23100000      39.58300000
 O      37.14000000      12.30400000      25.28100000
 H      37.03300000      11.34000000      24.97200000
 H      38.10600000      12.35500000      25.39500000
 O      34.84600000      19.68100000      31.57700000
 H      34.19300000      19.95300000      30.92000000
 H      34.59300000      18.76100000      31.74600000
 O      35.50800000      36.67600000      39.00400000
 H      36.14200000      36.12300000      39.48000000
 H      34.78600000      36.01500000      38.84900000
 O      29.82000000      20.49900000      34.56500000
 H      30.41800000      20.89900000      33.90100000
 H      30.34700000      20.56000000      35.38600000
 O      38.53100000      39.58600000      25.22200000
 H      38.74000000      38.75500000      25.63800000
 H      38.64300000      40.22800000      25.97900000
 O      30.92500000      17.21800000      40.29000000
 H      31.61300000      16.56400000      40.30400000
 H      30.96700000      17.52100000      39.35700000
 O      34.58400000      12.26200000      35.30300000
 H      34.96500000      12.72000000      34.50400000
 H      34.68200000      11.33900000      35.03400000
 O      30.25300000      14.79000000      33.30400000
 H      30.47900000      15.15200000      32.36200000
 H      29.42400000      14.31600000      33.04000000
 O      32.17400000      38.34100000      35.59600000
 H      31.78600000      37.57200000      36.11100000
 H      33.10400000      38.28600000      35.89800000
 O      38.80500000      37.33300000      26.79700000
 H      39.50000000      36.66000000      26.91500000
 H      38.03700000      36.67300000      26.74700000
 O      39.58500000      10.44600000      24.14400000
 H      38.95600000      10.77700000      23.46900000
 H      40.38000000      10.99100000      23.88600000
 O      36.54100000      15.01700000      24.70000000
 H      36.85400000      14.04300000      24.86100000
 H      36.98700000      15.37800000      25.53400000
 O      31.58500000      24.31600000      31.34800000
 H      31.09200000      24.93100000      31.91800000
 H      31.01500000      24.42900000      30.51500000
 O      29.53200000      20.53500000      30.87400000
 H      29.57900000      20.00800000      30.04700000
 H      29.12200000      21.35700000      30.51300000
 O      35.30400000      23.91000000      21.69300000
 H      35.14500000      24.06900000      20.74200000
 H      36.11500000      23.32300000      21.64300000
 O      31.68500000      30.25800000      33.42300000
 H      32.51900000      29.89900000      33.00700000
 H      31.92500000      31.24500000      33.44700000
 O      34.29600000      38.19700000      37.11300000
 H      34.82000000      37.73500000      36.44700000
 H      34.70000000      37.78900000      37.92700000
 O      33.39400000      32.04100000      20.29800000
 H      34.15200000      31.48300000      20.00500000
 H      33.02400000      31.56800000      21.06100000
 O      28.96000000      10.99900000      30.42800000
 H      29.01500000      10.12500000      30.00000000
 H      28.13800000      11.36900000      29.93700000
 O      38.36000000      26.70700000      28.90700000
 H      38.45500000      27.38500000      29.59000000
 H      38.95900000      25.97000000      29.24400000
 O      38.96100000      28.77100000      39.44900000
 H      38.95200000      29.51100000      38.84000000
 H      38.09200000      28.43700000      39.46300000
 O      38.37900000      21.96100000      29.85000000
 H      37.41400000      22.17600000      30.04200000
 H      38.46700000      21.12600000      30.35600000
 O      28.37700000      22.02700000      21.15900000
 H      27.76600000      22.65200000      20.75300000
 H      27.91300000      21.84300000      22.03700000
 O      38.87800000      12.63500000      37.63900000
 H      38.34600000      13.48300000      37.68900000
 H      39.23200000      12.71900000      36.73500000
 O      39.34800000      17.60500000      29.65000000
 H      39.10700000      17.18600000      30.54300000
 H      39.72500000      16.84800000      29.21800000
 O      29.55300000      23.19600000      39.85300000
 H      29.06600000      23.71600000      40.60800000
 H      29.26000000      22.29700000      40.25100000
 O      39.16700000       6.43100000      37.21500000
 H      38.88700000       7.37000000      36.93300000
 H      38.26200000       6.10200000      37.38500000
 O      28.35200000      28.14000000      35.54200000
 H      29.25500000      28.13800000      35.16900000
 H      27.78900000      27.86800000      34.76600000
 O      35.50500000      16.07200000      31.88500000
 H      35.21500000      16.41800000      32.77100000
 H      34.70000000      16.33600000      31.34000000
 O      36.02600000      10.18500000      34.24100000
 H      36.44700000      10.13100000      33.33900000
 H      36.71900000      10.69400000      34.72300000
 O      38.40200000      38.47300000      20.60900000
 H      38.72900000      39.29200000      21.02100000
 H      39.19000000      37.90100000      20.72200000
 O      33.00400000      18.30200000      26.37300000
 H      33.31200000      17.66900000      27.09600000
 H      33.73000000      18.16300000      25.73600000
 O      37.70500000       7.50200000      23.36300000
 H      36.92700000       6.86000000      23.53800000
 H      37.80900000       7.26900000      22.39600000
 O      27.86100000      23.16700000      33.08100000
 H      27.94800000      23.14200000      32.11000000
 H      28.52400000      23.84600000      33.28800000
 O      34.03000000       8.83500000      22.56000000
 H      33.98700000       9.81000000      22.71600000
 H      33.71900000       8.50900000      23.41800000
 O      38.74500000      11.11200000      34.62400000
 H      39.39800000      11.78400000      35.02100000
 H      38.71500000      11.54400000      33.72000000
 O      33.72100000      15.11700000      22.73000000
 H      33.00300000      15.69700000      23.07100000
 H      33.88700000      14.61500000      23.56400000
 O      28.18300000      17.03400000      25.39700000
 H      28.44500000      16.13000000      25.65400000
 H      28.95700000      17.48100000      25.71900000
 O      32.05000000      14.62100000      35.30100000
 H      31.59100000      14.27200000      36.10800000
 H      31.29400000      14.60300000      34.69600000
 O      28.74300000      26.69200000      27.38000000
 H      29.12600000      27.57100000      27.31300000
 H      27.95900000      26.87200000      27.90500000
 O      34.08500000       9.53700000      30.64200000
 H      33.83300000       8.87800000      31.36800000
 H      34.99100000       9.72300000      30.92200000
 O      38.45100000       9.61300000      27.76900000
 H      37.52100000       9.31500000      27.59300000
 H      38.51400000       9.35400000      28.74000000
 O      40.51100000      14.94800000      31.78600000
 H      39.63800000      15.46800000      31.63600000
 H      40.59000000      14.48400000      30.93300000
 O      34.73800000      14.40000000      39.94900000
 H      34.68300000      13.69200000      39.33500000
 H      35.60700000      14.46700000      40.29200000
 O      29.89500000      29.50900000      27.29900000
 H      30.15900000      29.14500000      28.17500000
 H      30.61000000      30.18100000      27.19600000
 O      39.12500000      17.72700000      33.56500000
 H      38.33900000      17.93300000      34.10700000
 H      39.49000000      18.61500000      33.44900000
 O      31.50700000      36.05300000      27.10200000
 H      32.48900000      36.06500000      26.99800000
 H      31.29300000      35.48200000      26.30900000
 O      37.20200000      22.36100000      21.81000000
 H      36.83400000      21.51700000      21.47100000
 H      37.80400000      21.89100000      22.45800000
 O      39.47400000      25.49400000      21.99600000
 H      40.25100000      26.10800000      22.03400000
 H      38.80000000      26.03000000      21.49100000
 O      32.68400000      35.69800000      22.31100000
 H      33.15900000      35.38100000      21.49300000
 H      32.52100000      36.64200000      22.05400000
 O      32.13300000      32.89400000      33.18300000
 H      32.86800000      33.44800000      32.84700000
 H      31.50400000      32.97700000      32.41600000
 O      30.64400000      20.91500000      37.34300000
 H      30.33000000      21.86600000      37.25000000
 H      31.54200000      21.09700000      37.70500000
 O      34.73800000      21.95500000      33.16100000
 H      34.89600000      21.72400000      34.09500000
 H      34.61900000      21.05200000      32.80500000
 O      30.13000000      37.53600000      29.22700000
 H      29.94900000      38.31300000      28.66000000
 H      30.57200000      36.91700000      28.60700000
 O      38.81400000       8.09600000      40.53100000
 H      39.50100000       8.75700000      40.55800000
 H      38.13600000       8.56000000      40.01700000
 O      31.85200000      39.65600000      23.42700000
 H      31.27000000      39.01600000      23.87800000
 H      31.85000000      40.40600000      24.00000000
 O      36.00500000      22.63700000      30.08800000
 H      36.15600000      23.49500000      29.61500000
 H      35.02600000      22.53500000      29.95200000
 O      38.45200000      33.03700000      22.69000000
 H      39.42100000      33.03700000      22.61100000
 H      38.20900000      33.26800000      23.59800000
 O      29.29200000      32.98800000      28.69500000
 H      28.52800000      32.45500000      28.29600000
 H      28.83000000      33.91200000      28.42300000
 O      31.54200000      11.44500000      21.06800000
 H      31.65300000      10.80100000      20.32000000
 H      32.21500000      12.13000000      20.71600000
 O      32.04800000      24.26400000      37.41700000
 H      31.16100000      24.04600000      37.01000000
 H      31.71500000      24.68800000      38.22400000
 O      38.23500000      33.10200000      25.64500000
 H      39.18500000      33.12400000      25.64500000
 H      38.07900000      32.59100000      26.52400000
 O      38.09000000      30.14300000      25.63100000
 H      37.10300000      30.35300000      25.59000000
 H      38.42900000      30.98000000      25.20200000
 O      28.93600000       6.40500000      22.24300000
 H      29.11300000       7.19700000      22.77200000
 H      29.83400000       6.18100000      21.93800000
 O      30.44100000       7.78600000      38.90600000
 H      30.83300000       8.23600000      38.15100000
 H      30.45000000       6.86600000      38.59100000
 O      31.03400000      13.14600000      29.17400000
 H      30.21200000      12.98400000      29.65400000
 H      31.71600000      12.70400000      29.70400000
 O      34.46300000      24.98800000      36.49600000
 H      35.08700000      24.31300000      36.77500000
 H      33.65800000      24.73000000      37.08200000
 O      32.34300000      10.30100000      34.32300000
 H      31.43500000      10.31800000      34.00300000
 H      32.68400000      11.16100000      34.08200000
 O      29.08500000      29.68300000      37.96300000
 H      29.40000000      30.53700000      37.73800000
 H      28.76300000      29.19100000      37.28100000
 O      40.28200000      36.72600000      21.43300000
 H      40.03800000      36.47200000      22.34600000
 H      40.56000000      35.84100000      21.06900000
 O      36.60500000      17.32900000      39.67900000
 H      37.27700000      17.83800000      40.26300000
 H      35.82500000      17.87700000      39.85100000
