%chk=cluster_420.chk
%mem=1GB
%nproc=4
#b3lyp/6-311++G** scrf=(cpcm,Solvent=Water) nosymm freq
iop(2/11=1) 
 Geom=(NoDistance,NoAngle)

cluster_420

0 1
 O      13.78600000      11.85100000       6.85200000
 H      12.89800000      11.49600000       7.06500000
 H      14.27600000      11.79700000       7.70200000
 O      16.94300000      10.86400000       1.87300000
 H      16.17100000      10.93700000       2.49000000
 H      16.49700000      10.80400000       0.97000000
 O      19.18000000      12.61300000       1.82100000
 H      18.23700000      12.25100000       1.73500000
 H      19.17100000      13.63500000       1.66300000
 O      18.37900000       7.87000000       4.84700000
 H      19.07100000       7.62900000       5.51500000
 H      18.97100000       8.18600000       4.06100000
 O      14.34700000      13.91600000       1.88400000
 H      14.85300000      13.03200000       2.07900000
 H      14.56100000      14.60100000       2.53400000
 O      19.59900000       9.43600000       2.70800000
 H      18.65300000       9.73900000       2.67200000
 H      20.19100000      10.09600000       2.29600000
 O      18.95600000      10.17800000       7.22000000
 H      18.66000000      11.08400000       6.90500000
 H      18.34500000       9.57500000       6.71500000
 O      15.30400000       8.72800000       5.30800000
 H      14.44800000       9.25600000       5.17100000
 H      15.78800000       9.29700000       5.91600000
 O      16.31200000       7.61400000       2.93400000
 H      15.41600000       7.77000000       3.22600000
 H      16.79900000       8.19800000       3.59500000
 O      18.60000000      12.64200000       6.19700000
 H      17.83900000      13.26400000       6.03100000
 H      19.25400000      12.76700000       5.50000000
 O      15.18200000      11.99400000       3.74800000
 H      14.49500000      11.28200000       3.88700000
 H      14.97500000      12.47700000       4.55000000

