123
XYZ file of cluster: frame_18500_76f85.999b4.4a60a - created by MolEdiTo
 O      22.51100000      20.91900000      15.28500000
 H      23.01800000      20.05800000      15.09000000
 H      22.99000000      21.66000000      14.89600000
 O      21.14700000      30.25800000      19.43800000
 H      21.61100000      31.06600000      19.69000000
 H      20.80000000      30.45900000      18.58300000
 O      20.65600000      20.78200000      11.48300000
 H      21.18000000      21.47300000      11.05900000
 H      19.91800000      21.19200000      12.07800000
 O      19.03800000      20.86300000      18.56100000
 H      19.11200000      21.67000000      19.05000000
 H      19.22700000      21.21500000      17.65400000
 O      25.28700000      24.36000000      18.42500000
 H      26.17400000      24.13500000      17.99000000
 H      25.04400000      23.61900000      19.05600000
 O      16.31500000      23.69000000      12.09500000
 H      15.66300000      24.39100000      12.38400000
 H      15.95100000      22.78300000      12.47700000
 O      25.67600000      21.79100000      19.82200000
 H      24.81200000      21.87000000      20.27000000
 H      26.35600000      21.94100000      20.45800000
 O      17.11100000      22.54000000      15.72800000
 H      16.72200000      21.72400000      16.19800000
 H      17.35900000      22.08900000      14.92700000
 O      23.13600000      21.72200000      18.20400000
 H      22.64700000      21.25000000      17.46900000
 H      22.82600000      22.64900000      17.95300000
 O      16.05600000      30.21500000      11.62800000
 H      16.10900000      29.89400000      10.72900000
 H      16.18500000      29.39300000      12.27500000
 O      15.36800000      24.54600000      19.06600000
 H      15.60200000      24.89500000      19.92300000
 H      16.23400000      24.17900000      18.81100000
 O      22.88800000      24.37000000      16.00100000
 H      23.03800000      25.23800000      16.46100000
 H      23.56200000      23.73900000      16.33800000
 O      23.63000000      28.36100000      11.66800000
 H      23.32800000      29.04000000      11.08100000
 H      24.50100000      28.67200000      11.98500000
 O      23.74400000      30.94200000      13.42900000
 H      23.15300000      30.23400000      13.62000000
 H      23.20100000      31.60800000      12.99700000
 O      21.03000000      22.47500000      20.14300000
 H      21.19300000      23.28500000      20.69900000
 H      21.60300000      21.83700000      20.56700000
 O      19.39400000      29.60900000      12.09200000
 H      18.83400000      28.93800000      11.60600000
 H      20.08200000      28.99200000      12.44500000
 O      19.09700000      27.41800000      10.43400000
 H      19.13700000      26.52100000      10.87000000
 H      20.02200000      27.62300000      10.16400000
 O      25.45800000      24.09200000      14.53200000
 H      26.18400000      24.57800000      14.93600000
 H      25.33300000      23.36100000      15.16000000
 O      17.30000000      29.08900000      13.83300000
 H      18.17200000      29.52800000      13.48400000
 H      17.64900000      28.28600000      14.34400000
 O      17.80000000      22.78600000      21.43600000
 H      18.24000000      23.71400000      21.43600000
 H      17.98000000      22.35800000      20.60500000
 O      25.19900000      21.21800000      14.98000000
 H      25.32600000      20.79800000      14.04900000
 H      26.04800000      21.59700000      15.40400000
 O      20.33700000      28.54700000      14.65100000
 H      21.19100000      28.06200000      14.46700000
 H      19.81600000      27.78000000      15.05700000
 O      17.95700000      23.94400000      17.89500000
 H      17.62700000      23.31800000      17.16000000
 H      18.85400000      24.25400000      17.59400000
 O      24.04200000      26.50200000      17.30300000
 H      24.16900000      27.17000000      17.99300000
 H      24.41300000      25.71500000      17.75700000
 O      23.79100000      29.05000000      19.01500000
 H      22.82900000      28.86900000      19.08700000
 H      23.81600000      30.04900000      18.92800000
 O      24.88000000      28.71800000      15.72400000
 H      24.72300000      28.09700000      16.37600000
 H      25.53300000      29.26800000      16.16200000
 O      22.49100000      23.35800000      13.33900000
 H      22.47600000      24.30500000      13.59900000
 H      23.23400000      23.26500000      12.70300000
 O      19.33700000      28.08300000      20.60200000
 H      19.97400000      28.34300000      21.36900000
 H      19.55600000      28.84500000      19.99200000
 O      18.44700000      23.15700000      10.23200000
 H      17.70600000      23.13000000      10.90300000
 H      19.26000000      23.23000000      10.80700000
 O      19.83500000      22.89500000      13.47500000
 H      19.56600000      22.66300000      14.42500000
 H      20.78700000      22.83400000      13.56600000
 O      17.65800000      26.72300000      18.43400000
 H      17.55400000      25.77400000      18.32800000
 H      18.33200000      26.81000000      19.11500000
 O      17.53500000      30.86000000      19.95500000
 H      16.66000000      30.64700000      19.87200000
 H      17.95900000      30.73400000      19.05300000
 O      19.77200000      21.29500000      16.04200000
 H      20.73300000      21.17900000      15.96600000
 H      19.37900000      20.50600000      15.60100000
 O      22.92400000      27.42200000      14.40100000
 H      23.68600000      27.80100000      14.88100000
 H      23.20600000      27.37300000      13.41100000
 O      18.33400000      27.52300000      15.96100000
 H      18.52100000      26.56800000      16.24600000
 H      18.10000000      27.97600000      16.85700000
 O      19.93700000      30.31900000      16.70800000
 H      20.28600000      31.25700000      16.63200000
 H      20.35800000      29.79800000      15.99800000
 O      21.35300000      25.49400000      18.71800000
 H      22.06600000      25.50500000      19.42800000
 H      20.65900000      26.00600000      19.06600000
 O      25.23400000      30.76200000      10.86900000
 H      25.72500000      31.27300000      11.55500000
 H      25.86900000      30.10400000      10.51400000
 O      24.62800000      23.67600000      10.29900000
 H      25.21600000      23.25500000       9.65100000
 H      25.31300000      24.19200000      10.84200000
 O      18.95500000      25.45400000      12.65000000
 H      18.44100000      25.76800000      13.44600000
 H      19.07800000      24.48600000      12.79000000
 O      20.08700000      25.07400000      16.51000000
 H      20.69500000      25.35700000      17.24900000
 H      20.69700000      24.82200000      15.80900000
