105
XYZ file of cluster: frame_18500_4b70a.c5c36.c33fd - created by MolEdiTo
 O      18.58400000      27.25400000      25.78300000
 H      19.11200000      26.58300000      25.37400000
 H      18.94000000      27.20500000      26.72800000
 O      13.63300000      27.38000000      26.41500000
 H      13.18200000      26.77400000      27.02200000
 H      14.59000000      27.06000000      26.41700000
 O      12.28900000      30.04900000      27.45600000
 H      12.36600000      29.13500000      27.04500000
 H      11.36100000      30.13900000      27.49800000
 O      19.82000000      30.75400000      27.86700000
 H      20.66900000      31.17600000      27.82600000
 H      19.86100000      30.43200000      28.78200000
 O      18.56600000      26.77400000      30.74800000
 H      17.71000000      26.58500000      30.44500000
 H      18.49000000      27.21300000      31.60400000
 O      20.41000000      30.46200000      30.62200000
 H      20.35900000      30.33300000      31.58400000
 H      20.46600000      31.44900000      30.63200000
 O      13.23800000      29.09400000      30.21200000
 H      13.44800000      28.56800000      29.37700000
 H      12.37800000      29.55200000      30.03000000
 O      16.59500000      26.96100000      28.39500000
 H      16.12800000      26.49100000      27.68100000
 H      16.21800000      27.86700000      28.66400000
 O      16.00500000      29.42900000      28.85800000
 H      15.84400000      29.97900000      28.06200000
 H      16.33100000      30.07000000      29.50200000
 O      20.11900000      27.76400000      28.34300000
 H      19.57500000      27.85300000      29.04200000
 H      20.07200000      28.64800000      28.01300000
 O      10.61700000      30.48100000      29.94500000
 H      10.36000000      31.02400000      30.75900000
 H       9.74500000      30.30400000      29.52000000
 O      12.42300000      28.84100000      34.52600000
 H      12.73500000      28.58900000      33.64800000
 H      11.64500000      28.28700000      34.68400000
 O      18.56700000      28.15600000      34.83000000
 H      18.30800000      28.21900000      35.79500000
 H      18.27500000      29.06800000      34.54600000
 O      14.16300000      30.83900000      34.01300000
 H      13.77900000      30.09200000      34.48500000
 H      13.75700000      30.80100000      33.15900000
 O      21.03200000      30.89000000      36.47400000
 H      20.21100000      30.53000000      35.98400000
 H      21.18200000      31.88000000      36.24000000
 O      15.52700000      28.35000000      33.32900000
 H      14.68800000      28.87300000      33.35100000
 H      16.18500000      28.77100000      32.68600000
 O      20.99200000      27.04800000      33.38900000
 H      20.43100000      27.72900000      33.89400000
 H      20.24600000      26.65300000      32.93500000
 O      15.81300000      25.82400000      34.94600000
 H      15.46300000      25.82500000      35.86600000
 H      15.59500000      26.72700000      34.49300000
 O      16.69000000      33.60600000      30.54600000
 H      17.56000000      33.92800000      30.95400000
 H      16.04500000      34.33400000      30.55100000
 O      16.11500000      35.19500000      27.91400000
 H      16.96900000      35.43000000      28.39400000
 H      16.27300000      34.26600000      27.60200000
 O      12.70600000      37.07300000      28.79300000
 H      12.10700000      37.13900000      28.03500000
 H      12.78900000      36.08900000      28.92000000
 O      12.76100000      34.25100000      28.92000000
 H      12.80400000      33.57400000      28.28200000
 H      11.89000000      34.03600000      29.24600000
 O      19.35200000      35.91300000      27.67300000
 H      19.50500000      36.68400000      28.25700000
 H      19.25300000      35.06000000      28.20100000
 O      11.00300000      35.65900000      26.19500000
 H      10.19600000      35.36900000      26.74400000
 H      10.60600000      35.80700000      25.33500000
 O      19.28200000      35.13400000      32.74800000
 H      19.72400000      35.75200000      32.18300000
 H      19.12100000      35.57400000      33.59800000
 O      13.27800000      33.91800000      36.30200000
 H      12.83400000      33.07100000      36.33000000
 H      13.85600000      33.79300000      35.47000000
 O      18.09900000      32.88000000      34.57600000
 H      17.36600000      32.76400000      33.91200000
 H      17.79900000      33.74600000      35.02200000
 O      11.87900000      36.45600000      35.74000000
 H      12.16000000      35.67800000      36.28900000
 H      12.74000000      36.77300000      35.35900000
 O      16.50800000      34.90500000      35.21700000
 H      15.87700000      34.57900000      34.52000000
 H      16.31100000      35.86300000      35.25600000
 O      21.41300000      35.58900000      36.37000000
 H      21.54800000      35.79300000      37.31400000
 H      20.38400000      35.70000000      36.29700000
 O      18.18900000      37.16300000      35.72600000
 H      18.62900000      37.98000000      36.12000000
 H      17.62500000      37.44500000      35.00200000
 O      18.85300000      34.98600000      37.40600000
 H      18.22800000      34.92600000      38.19300000
 H      18.35200000      35.65200000      36.85900000
 O      10.26500000      33.32600000      34.57700000
 H      10.07600000      33.75900000      35.46100000
 H      10.78100000      32.50700000      34.72300000
 O      14.63400000      35.34800000      32.54300000
 H      14.61600000      35.84300000      31.67900000
 H      13.67700000      35.04000000      32.70500000
 O      10.74800000      35.31400000      32.53200000
 H      10.61200000      35.19200000      33.44800000
 H      10.68000000      36.30500000      32.46700000
