120
XYZ file of cluster: frame_18500_219b0.5897.72055 - created by MolEdiTo
 O      10.28500000       9.12000000      23.05100000
 H      10.25400000       9.12800000      24.02300000
 H      11.09200000       9.65100000      22.89000000
 O      13.93600000       9.91900000      18.21400000
 H      13.51500000       9.03400000      18.15600000
 H      14.89100000       9.74200000      18.02900000
 O      12.73100000       9.74100000      20.81000000
 H      11.86500000      10.28800000      20.93300000
 H      12.99000000       9.83500000      19.86200000
 O       8.67000000       3.44200000      24.25500000
 H       9.08900000       2.59200000      24.50200000
 H       8.08100000       3.32000000      23.42200000
 O       8.09600000       6.06700000      24.50400000
 H       8.12800000       5.15500000      24.11400000
 H       8.51000000       6.64300000      23.81400000
 O      14.38800000       4.92400000      22.89300000
 H      14.06600000       4.01400000      22.70700000
 H      14.74200000       4.91600000      23.75300000
 O       5.96000000       5.44000000      26.12000000
 H       5.70700000       4.75900000      25.49500000
 H       6.80200000       5.76100000      25.65000000
 O      11.85300000       7.99300000      18.44600000
 H      11.49700000       7.08700000      18.06300000
 H      12.07200000       7.67000000      19.37600000
 O       7.62900000       2.63100000      19.36400000
 H       7.00500000       2.50200000      18.54200000
 H       7.99200000       1.73600000      19.44100000
 O      13.68400000       2.06800000      25.93300000
 H      12.81400000       2.43500000      26.04900000
 H      13.50800000       1.34700000      25.24600000
 O       9.31600000       8.87400000      26.29900000
 H       8.44100000       8.42500000      26.58200000
 H       9.11800000       9.81400000      26.07800000
 O      15.69100000       3.90900000      25.09600000
 H      14.96300000       3.74600000      25.74000000
 H      15.88200000       3.02200000      24.65000000
 O      10.48400000      10.50500000      18.51700000
 H       9.91300000      10.87200000      17.88100000
 H      11.07000000       9.75700000      18.15900000
 O       7.74100000       7.91300000      17.60100000
 H       7.32800000       7.14500000      18.08800000
 H       8.57800000       7.49000000      17.31400000
 O      16.37700000       2.23100000      23.08600000
 H      17.12600000       1.71200000      22.74500000
 H      15.65200000       1.77200000      22.61800000
 O       8.74000000       9.06200000      20.81200000
 H       9.31200000       9.00900000      21.59400000
 H       9.30000000       9.65500000      20.27200000
 O      11.10800000       3.26600000      17.55100000
 H      10.40400000       3.06900000      16.92700000
 H      11.60200000       2.41900000      17.69400000
 O       6.88900000       5.90000000      19.45100000
 H       6.63100000       6.07200000      20.43300000
 H       7.35300000       5.09300000      19.31500000
 O      13.03700000       2.50300000      22.32700000
 H      12.60900000       1.76100000      22.80500000
 H      12.29800000       3.00500000      22.00000000
 O       8.85100000       6.10200000      22.02400000
 H       9.12000000       5.31600000      21.53600000
 H       8.68500000       6.73400000      21.30200000
 O      13.35900000       5.84700000      20.49200000
 H      13.79800000       5.74600000      21.42400000
 H      14.20300000       5.52700000      20.01600000
 O      14.48100000       2.22600000      19.44900000
 H      14.15400000       1.37700000      18.89300000
 H      14.18800000       1.95400000      20.33600000
 O       6.75500000       9.98300000      23.83800000
 H       7.30200000       9.86300000      23.06700000
 H       7.15900000       9.52600000      24.63300000
 O      10.39200000       4.63700000      20.17100000
 H      11.16800000       5.26300000      20.27300000
 H      10.76400000       4.00000000      19.49300000
 O       5.89500000       3.19200000      15.71400000
 H       5.03500000       3.16200000      16.28100000
 H       5.58400000       2.93200000      14.79500000
 O       4.61500000       6.52500000      17.85600000
 H       5.28700000       6.03200000      17.38600000
 H       4.34100000       5.98600000      18.54600000
 O       5.15800000       8.78100000      15.92000000
 H       6.09200000       8.61200000      15.91200000
 H       4.79000000       8.39900000      15.08800000
 O      15.63700000       4.57900000      18.97600000
 H      15.37000000       3.82200000      19.50400000
 H      16.59700000       4.39200000      18.73000000
 O       5.33700000       7.07400000      22.12900000
 H       4.51300000       7.17500000      22.62900000
 H       5.95700000       7.77300000      22.49000000
 O       7.52700000      10.77300000      18.17800000
 H       6.64800000      10.50800000      18.35900000
 H       8.07200000       9.93600000      18.16700000
 O      11.35100000       5.82200000      23.83600000
 H      11.76200000       5.68200000      22.98700000
 H      11.11600000       6.74200000      23.92800000
 O      11.48000000       6.71700000      26.66700000
 H      11.45500000       6.14000000      25.86600000
 H      12.25800000       7.28800000      26.66900000
 O      13.13700000       9.56900000      24.82000000
 H      13.48400000      10.52100000      24.71000000
 H      13.11200000       9.49400000      25.83200000
 O       7.16200000       3.15000000      22.10200000
 H       7.36500000       2.91500000      21.18200000
 H       6.19100000       3.41200000      22.07700000
 O      16.30400000       0.98800000      26.22500000
 H      15.33300000       1.37200000      26.26100000
 H      16.43100000       0.72300000      25.21200000
 O      14.95900000       9.57500000      22.57800000
 H      14.81400000       9.03700000      23.42200000
 H      14.16100000       9.70700000      22.07800000
 O      12.76700000       8.85000000      15.76200000
 H      12.88100000       9.68100000      16.20300000
 H      12.19400000       8.34700000      16.40000000
 O      10.62300000       6.34100000      16.53700000
 H       9.86700000       6.20700000      15.90000000
 H      11.21200000       5.60800000      16.39500000
 O      13.09400000       4.93900000      16.68700000
 H      12.57300000       4.32400000      17.25900000
 H      13.87700000       5.13100000      17.27500000
 O      11.00300000       3.77900000      26.19500000
 H      10.19600000       3.48900000      26.74400000
 H      10.60600000       3.92700000      25.33500000
