147
XYZ file of cluster: frame_18500_20a93.6e334.c20e0 - created by MolEdiTo
 O      12.39200000      22.51900000      25.87900000
 H      12.91300000      22.48600000      26.71100000
 H      12.85400000      21.96600000      25.18000000
 O       7.10800000      24.18800000      27.97000000
 H       7.11300000      24.83800000      27.25000000
 H       8.04400000      23.96300000      28.00300000
 O      12.27500000      25.49600000      28.15100000
 H      12.63200000      24.94400000      28.88300000
 H      11.38300000      25.78800000      28.41900000
 O       9.81500000      24.06300000      27.56500000
 H       9.42100000      24.63300000      26.84800000
 H      10.82500000      24.12500000      27.51800000
 O      12.22700000      17.03800000      29.59200000
 H      11.76300000      17.91300000      29.43000000
 H      12.54200000      16.86500000      28.68600000
 O      14.48400000      15.65800000      30.65800000
 H      13.68100000      15.98100000      30.15400000
 H      15.11400000      15.38700000      29.96800000
 O       5.10200000      20.22900000      28.24800000
 H       4.52100000      19.76600000      28.82400000
 H       6.01700000      19.97300000      28.62900000
 O      10.15800000      26.88700000      29.50000000
 H       9.79100000      26.05600000      29.85400000
 H      10.43700000      27.30600000      30.35500000
 O      13.68400000      24.27500000      30.16400000
 H      14.30000000      24.26400000      30.98500000
 H      12.80700000      23.86100000      30.44600000
 O       7.96300000      19.14600000      28.25400000
 H       8.45700000      20.00300000      28.34000000
 H       8.03600000      18.74200000      29.25300000
 O       8.14200000      16.84800000      26.43000000
 H       7.31000000      16.48400000      26.68000000
 H       8.01700000      17.69300000      26.99400000
 O       5.65900000      22.71200000      26.25200000
 H       6.47600000      22.05900000      26.09700000
 H       6.12800000      23.41800000      26.75000000
 O      14.68200000      19.45800000      27.42200000
 H      14.94900000      20.39500000      27.50900000
 H      14.88000000      19.11300000      28.34000000
 O       7.94700000      21.19800000      25.99200000
 H       8.43300000      21.03700000      26.86900000
 H       8.34100000      20.71600000      25.27700000
 O      14.40000000      22.55200000      28.04300000
 H      14.89200000      22.18500000      28.85000000
 H      14.01900000      23.38900000      28.40200000
 O      10.46200000      19.17400000      26.47100000
 H       9.53700000      18.90100000      26.42300000
 H      10.78500000      19.50400000      25.64400000
 O       8.19000000      18.26900000      30.79800000
 H       8.80300000      17.52000000      30.71200000
 H       8.59300000      18.53400000      31.67900000
 O       5.48800000      23.44200000      30.44000000
 H       5.47400000      23.03500000      29.55900000
 H       6.29900000      23.90800000      30.33300000
 O       8.57100000      24.71400000      30.68500000
 H       8.42900000      25.48300000      31.34700000
 H       8.57800000      23.85300000      31.26900000
 O       9.49500000      21.37900000      28.54600000
 H       9.56900000      22.29400000      28.35200000
 H      10.39900000      20.98700000      28.30300000
 O      12.13500000      20.96000000      29.49400000
 H      12.73000000      21.50900000      29.04900000
 H      12.54800000      20.82700000      30.40900000
 O      10.63400000      15.15300000      26.71900000
 H      10.00100000      14.39000000      26.72500000
 H      10.04400000      15.94900000      26.86600000
 O      15.99200000      21.39000000      29.95700000
 H      16.45100000      22.18300000      30.26500000
 H      15.61500000      21.06500000      30.79700000
 O      12.69800000      20.82200000      34.24500000
 H      12.71300000      19.89400000      34.31900000
 H      13.54000000      21.07600000      34.71900000
 O       6.25600000      18.77700000      34.66700000
 H       6.65000000      18.41900000      33.91800000
 H       5.85200000      19.63600000      34.33200000
 O       9.14500000      21.96200000      33.12500000
 H       9.06200000      21.55900000      32.33000000
 H       8.65200000      21.36800000      33.74400000
 O       5.16700000      20.73600000      33.24000000
 H       4.21900000      20.86300000      33.45200000
 H       5.41900000      21.51400000      32.64000000
 O       5.85100000      25.82200000      36.57200000
 H       6.51600000      26.45800000      36.93500000
 H       5.43500000      25.47200000      37.33600000
 O      11.48800000      15.80800000      36.06800000
 H      11.92300000      15.01700000      35.75700000
 H      11.42200000      16.29700000      35.16200000
 O      15.81300000      25.82400000      34.94600000
 H      15.46300000      25.82500000      35.86600000
 H      15.59500000      26.72700000      34.49300000
 O       5.56600000      26.85300000      33.72400000
 H       5.49600000      26.04100000      34.33100000
 H       5.54100000      27.61900000      34.43500000
 O      15.46600000      20.66200000      34.64600000
 H      15.80700000      21.60000000      34.92000000
 H      15.55600000      20.17300000      35.56900000
 O       8.81800000      20.93200000      36.23100000
 H       8.24700000      20.22700000      36.57000000
 H       9.53300000      20.45300000      35.82400000
 O      11.30300000      23.69400000      32.60600000
 H      10.86000000      24.52400000      32.81500000
 H      10.63400000      23.01400000      32.62800000
 O      12.01900000      23.62800000      35.61400000
 H      12.88300000      23.25700000      36.04900000
 H      11.71800000      22.84500000      35.02300000
 O       8.57200000      16.10700000      36.04600000
 H       8.21800000      16.77100000      36.64700000
 H       9.37500000      15.84100000      36.54500000
 O       6.64900000      17.67700000      37.24900000
 H       6.00600000      18.15000000      37.74200000
 H       6.50200000      17.91900000      36.34000000
 O      13.05800000      26.10600000      36.41500000
 H      12.56000000      25.27600000      36.37100000
 H      12.89900000      26.27200000      35.44700000
 O      12.06900000      18.76400000      36.75700000
 H      12.80000000      18.26000000      37.13900000
 H      12.00800000      19.62200000      37.30100000
 O      10.92500000      26.08800000      34.57800000
 H      10.14900000      25.89600000      35.12100000
 H      11.31200000      25.24100000      34.80000000
 O      14.27100000      22.39900000      36.91400000
 H      14.94700000      22.83900000      37.42100000
 H      14.56500000      21.49400000      37.02600000
 O      15.92900000      17.20900000      37.46300000
 H      16.45100000      16.60400000      38.01100000
 H      15.54500000      16.52400000      36.76100000
 O       9.80200000      18.51900000      34.77900000
 H       9.45800000      17.67600000      35.16500000
 H      10.65100000      18.58200000      35.24900000
 O      16.04300000      18.57500000      32.50200000
 H      15.68200000      19.00500000      33.34700000
 H      16.36600000      17.68500000      32.77000000
 O       6.26800000      21.69300000      37.67200000
 H       7.03200000      22.28500000      37.91500000
 H       5.76900000      22.17600000      36.93300000
 O       9.28600000      25.90900000      36.77700000
 H       8.36300000      25.60600000      36.56500000
 H       9.26100000      26.89100000      36.64100000
 O      11.02500000      15.28200000      33.01000000
 H      11.48800000      15.97500000      32.40400000
 H      10.19400000      15.37600000      32.53900000
 O      13.80800000      17.92700000      34.16500000
 H      14.35500000      17.15900000      33.82000000
 H      13.08600000      17.48000000      34.60000000
 O       7.42300000      23.58500000      35.08700000
 H       7.74300000      22.71600000      35.44000000
 H       6.76900000      23.95600000      35.71100000
