138
XYZ file of cluster: frame_18500_20fa7.9b6fd.72b4e - created by MolEdiTo
 O       7.83100000      30.63900000      24.06600000
 H       7.38800000      29.74800000      24.07100000
 H       7.26600000      31.29100000      23.57200000
 O       7.59800000      23.71700000      19.97200000
 H       7.52000000      22.89000000      19.44100000
 H       7.55300000      24.43100000      19.32700000
 O      15.08200000      28.62200000      18.77600000
 H      14.99300000      28.47900000      17.75600000
 H      15.62100000      27.81700000      19.08100000
 O       7.67700000      26.70200000      23.23900000
 H       7.36200000      27.39200000      22.61400000
 H       8.67700000      26.80000000      23.15400000
 O      12.43300000      25.49600000      15.71300000
 H      13.37900000      25.48000000      16.03000000
 H      12.20300000      26.29500000      15.09600000
 O      12.39200000      22.51900000      25.87900000
 H      12.91300000      22.48600000      26.71100000
 H      12.85400000      21.96600000      25.18000000
 O       6.65100000      26.34100000      18.83200000
 H       6.48400000      26.48700000      19.78100000
 H       6.21000000      25.48100000      18.58900000
 O       5.07300000      21.55300000      18.31800000
 H       5.51400000      20.69900000      18.11500000
 H       5.05600000      21.58300000      19.31300000
 O      15.86700000      25.91600000      25.89100000
 H      15.67600000      25.38100000      25.09000000
 H      16.86800000      26.29200000      25.79600000
 O      12.50500000      24.84600000      18.97300000
 H      13.42100000      25.11300000      18.89300000
 H      12.38800000      24.22900000      18.24100000
 O       5.39900000      21.24100000      20.82400000
 H       5.84900000      21.41600000      21.65700000
 H       5.23200000      20.29700000      20.90000000
 O      11.35300000      23.18000000      16.21200000
 H      10.62500000      22.94900000      15.54700000
 H      11.52200000      24.11300000      16.03600000
 O      12.79400000      25.27400000      24.53900000
 H      12.40000000      24.56200000      25.10900000
 H      13.25000000      25.93200000      25.14200000
 O      14.34100000      22.67500000      15.20300000
 H      15.18100000      23.01500000      15.58200000
 H      13.97600000      22.12900000      15.86400000
 O      13.19400000      29.21700000      24.27600000
 H      13.21800000      28.77900000      23.38300000
 H      13.53600000      28.59700000      24.85800000
 O      15.36800000      24.54600000      19.06600000
 H      15.60200000      24.89500000      19.92300000
 H      16.23400000      24.17900000      18.81100000
 O       5.20500000      29.45300000      24.23300000
 H       5.33400000      28.53800000      24.62600000
 H       4.96100000      29.29300000      23.33300000
 O       5.57600000      21.68100000      15.33400000
 H       4.75300000      21.57100000      14.88400000
 H       5.31800000      21.34300000      16.19200000
 O       5.65900000      22.71200000      26.25200000
 H       6.47600000      22.05900000      26.09700000
 H       6.12800000      23.41800000      26.75000000
 O      14.78700000      21.73200000      19.44700000
 H      14.09100000      21.54300000      18.84700000
 H      14.78100000      22.74800000      19.43200000
 O       6.72800000      22.18100000      23.03400000
 H       6.95200000      21.88500000      23.89800000
 H       7.07500000      23.11800000      22.94600000
 O       7.73200000      22.64800000      17.46200000
 H       6.82500000      22.83400000      17.13200000
 H       8.17700000      21.91000000      16.95200000
 O       7.78900000      25.45000000      25.55900000
 H       8.28800000      24.68700000      25.22700000
 H       7.97300000      26.24600000      24.97900000
 O       9.95300000      30.93600000      16.13000000
 H      10.45000000      31.14200000      15.30700000
 H      10.72200000      30.77600000      16.63900000
 O      13.03700000      21.31800000      17.27300000
 H      12.44100000      21.15600000      18.06600000
 H      12.28600000      21.41800000      16.62000000
 O       5.98700000      28.92200000      17.57900000
 H       5.61000000      29.18800000      18.40800000
 H       6.38900000      27.99800000      17.68400000
 O       7.09900000      28.53900000      21.01500000
 H       7.66700000      28.78900000      20.23700000
 H       6.31200000      29.12500000      20.98800000
 O      14.93400000      28.32300000      16.13300000
 H      14.27800000      28.01700000      15.53300000
 H      15.50700000      28.74400000      15.50200000
 O      11.60800000      23.88400000      22.28500000
 H      11.97500000      24.40900000      23.06100000
 H      11.73900000      24.39800000      21.45500000
 O      14.94900000      30.26300000      21.75300000
 H      15.19500000      29.30400000      21.59200000
 H      14.12900000      30.27700000      22.27400000
 O      12.68300000      27.96700000      21.74900000
 H      11.90100000      27.36400000      21.79200000
 H      13.07800000      28.02100000      20.88000000
 O       9.36700000      30.40400000      26.86200000
 H       8.74700000      30.60700000      26.12400000
 H       9.28700000      31.14100000      27.50100000
 O       5.15100000      26.70600000      24.26200000
 H       4.91400000      26.19600000      25.10000000
 H       6.09000000      26.33100000      24.11500000
 O      15.18900000      25.26800000      16.44200000
 H      15.59900000      26.17800000      16.37700000
 H      15.13400000      25.02400000      17.37300000
 O      10.63000000      26.10200000      20.38300000
 H      10.95900000      25.27500000      19.91700000
 H      10.80800000      26.77800000      19.74100000
 O      15.93700000      21.74300000      25.04400000
 H      15.63800000      22.46800000      25.66300000
 H      15.91000000      22.17600000      24.16100000
 O      11.05100000      30.82700000      23.46700000
 H      11.39300000      30.14300000      23.98200000
 H      10.14300000      30.63000000      23.25000000
 O      10.08900000      27.47600000      17.71500000
 H      10.64200000      27.70200000      16.93700000
 H       9.72000000      26.57000000      17.61300000
 O      14.92200000      25.65300000      21.60900000
 H      14.94000000      25.32700000      22.51700000
 H      15.49000000      26.46200000      21.54300000
 O      10.61000000      27.11800000      23.83900000
 H      11.41100000      26.44200000      23.85700000
 H      10.66200000      27.66300000      24.60900000
 O      15.15800000      21.25300000      22.30400000
 H      14.75500000      20.73000000      21.57700000
 H      16.04600000      21.43300000      21.91000000
 O       9.05700000      29.87100000      18.80500000
 H       8.86200000      30.10500000      17.90300000
 H       9.37000000      28.91400000      18.73500000
 O       9.32800000      23.57700000      24.26500000
 H       9.78800000      24.02100000      23.54200000
 H       9.79300000      22.74300000      24.46800000
 O       4.68400000      24.26200000      21.12000000
 H       5.65700000      24.06800000      21.04200000
 H       4.26000000      23.36400000      21.37900000
 O      10.46000000      22.30700000      20.22800000
 H       9.62800000      22.79000000      20.07200000
 H      10.92500000      22.88100000      20.86000000
 O      12.34500000      30.12500000      18.41700000
 H      13.15100000      29.63900000      18.57500000
 H      11.66100000      29.70000000      18.94500000
