%chk=cluster_525.chk
%mem=6GB
%nproc=4
#b3lyp/6-31G** scrf=(cpcm,Solvent=Water) nosymm force
iop(2/11=1) 
 Geom=(NoDistance,NoAngle)

cluster_525

0 1
 O      17.59100000       7.65200000      17.90400000
 H      17.88400000       8.59600000      17.97800000
 H      16.71900000       7.53100000      18.37700000
 O      18.14800000      10.44000000      18.53900000
 H      18.24000000      11.08000000      19.29300000
 H      18.66700000      10.79100000      17.76200000
 O      17.59700000      13.31900000      19.49000000
 H      16.58000000      13.17800000      19.60800000
 H      17.99900000      13.38400000      20.34500000
 O      18.75400000       7.19200000      25.30500000
 H      19.28700000       7.94000000      25.62900000
 H      18.67100000       7.42000000      24.34300000
 O      19.53000000      12.05900000      22.64500000
 H      18.94700000      11.32200000      22.71900000
 H      20.43300000      11.66100000      22.53400000
 O      20.47100000       9.51900000      25.51200000
 H      20.85400000       9.39800000      24.56200000
 H      19.92300000      10.35300000      25.36700000
 O      18.42700000       8.63500000      22.50200000
 H      17.62800000       9.18100000      22.27200000
 H      19.10000000       8.70000000      21.81700000
 O      20.30400000      12.40200000      25.56000000
 H      20.99500000      12.40100000      26.26800000
 H      20.85900000      12.34200000      24.73500000
 O      17.57800000      13.91600000      24.87500000
 H      16.80500000      13.32500000      25.02600000
 H      18.25000000      13.40200000      24.43600000
 O      21.72100000       9.26600000      19.01800000
 H      21.80300000       8.36400000      18.71100000
 H      22.25600000       9.77500000      18.34500000
 O      22.12800000      12.40300000      18.82000000
 H      23.09900000      12.23600000      19.12400000
 H      21.98200000      11.85700000      18.09100000
 O      21.77700000      14.85500000      23.36400000
 H      22.65000000      14.63900000      23.79000000
 H      21.21300000      14.04400000      23.32500000
 O      21.67500000       6.79400000      23.37000000
 H      20.99500000       6.43500000      22.77400000
 H      22.05100000       7.62600000      22.98800000
 O      24.06900000      11.89000000      23.80000000
 H      24.60900000      12.61400000      23.33700000
 H      24.69900000      11.31200000      24.35200000
 O      24.69600000       8.42000000      22.98800000
 H      24.25700000       8.69700000      22.09700000
 H      24.81700000       7.47100000      22.91200000
 O      22.22200000       9.92000000      23.05100000
 H      22.03400000       9.65900000      22.11700000
 H      22.93800000      10.56200000      23.08100000

