120
XYZ file of cluster: frame_3500_9c9d4.5123c.70212 - created by MolEdiTo
 O      29.34900000      12.43500000      22.32200000
 H      30.03400000      11.74700000      22.42800000
 H      29.38900000      12.40300000      21.33200000
 O      25.75100000      17.32700000      15.92200000
 H      25.24600000      17.74700000      15.22900000
 H      25.04600000      17.03300000      16.40400000
 O      30.20400000      13.95200000      25.47600000
 H      30.02100000      13.43000000      24.65400000
 H      30.91700000      14.58200000      25.20300000
 O      22.54100000      16.37700000      19.68100000
 H      22.86700000      16.62500000      20.57500000
 H      21.57900000      16.62200000      19.81700000
 O      22.12100000      11.80400000      21.88000000
 H      22.24900000      10.98500000      21.28400000
 H      22.98200000      11.99400000      22.32000000
 O      24.44200000      15.61200000      24.74900000
 H      24.13700000      16.47300000      25.13100000
 H      24.94000000      15.18500000      25.42200000
 O      30.79400000      14.71700000      21.47300000
 H      29.98200000      15.22200000      21.61100000
 H      30.73100000      13.92200000      21.97600000
 O      27.43800000      15.27400000      15.80700000
 H      26.92900000      16.06500000      15.82400000
 H      28.06300000      15.36600000      16.58900000
 O      26.45800000      13.10400000      19.87700000
 H      26.94600000      13.95500000      19.56000000
 H      26.30500000      13.34300000      20.78000000
 O      23.23900000      12.39200000      26.42200000
 H      23.73600000      11.58000000      26.13300000
 H      22.99800000      12.94500000      25.64100000
 O      27.79900000      11.15600000      26.44500000
 H      28.43500000      10.96900000      25.72600000
 H      27.13800000      10.45300000      26.41200000
 O      29.20100000      20.48200000      16.69300000
 H      29.75100000      21.13500000      16.32000000
 H      29.86500000      19.94200000      17.09500000
 O      28.76000000      16.15500000      24.71500000
 H      29.44500000      16.85700000      24.69900000
 H      29.07300000      15.66600000      25.48400000
 O      22.10500000      21.10600000      15.92300000
 H      22.43900000      20.39100000      16.51100000
 H      22.00800000      20.83400000      14.98000000
 O      24.98900000      21.09700000      22.77000000
 H      24.35800000      21.81900000      22.91700000
 H      24.63300000      20.56700000      22.02100000
 O      27.50300000      14.51200000      22.50100000
 H      28.24100000      13.88000000      22.45400000
 H      27.50300000      14.66100000      23.48100000
 O      21.13900000      14.48700000      14.94400000
 H      20.33400000      14.66500000      14.42100000
 H      21.00600000      14.95600000      15.84800000
 O      26.67100000      19.45500000      19.65700000
 H      27.00300000      20.09800000      18.99500000
 H      25.72200000      19.58200000      19.64000000
 O      26.98300000      20.96700000      25.09800000
 H      27.40000000      20.83000000      24.23200000
 H      26.50800000      21.79900000      24.96300000
 O      26.65000000      11.62200000      23.67900000
 H      26.44300000      10.66000000      23.66300000
 H      27.46400000      11.66000000      23.07400000
 O      20.81700000      12.98600000      19.72800000
 H      21.83800000      12.86200000      19.73900000
 H      20.57100000      12.98100000      20.65500000
 O      21.96100000      12.14400000      16.82700000
 H      22.46700000      11.66300000      17.61300000
 H      21.34700000      12.67100000      17.30100000
 O      24.23600000      13.07100000      23.76400000
 H      24.31000000      14.04200000      24.02400000
 H      25.12300000      12.79000000      23.65800000
 O      26.83900000      17.48900000      22.62300000
 H      27.36500000      16.75800000      23.08000000
 H      27.26000000      18.42900000      22.68800000
 O      29.97200000      15.04900000      17.71300000
 H      30.17200000      15.96300000      17.63200000
 H      30.45600000      14.74200000      18.52400000
 O      21.26700000      17.30400000      24.25300000
 H      21.57400000      16.34500000      24.12000000
 H      22.04200000      17.86600000      23.93500000
 O      26.26700000      13.90900000      26.13000000
 H      25.84000000      13.08300000      26.40300000
 H      27.08900000      13.44100000      25.76900000
 O      27.85700000      10.95300000      18.82000000
 H      27.51700000      11.81900000      18.98300000
 H      28.07200000      10.94800000      17.84500000
 O      21.28700000      14.28700000      23.43600000
 H      22.18500000      13.92500000      23.55600000
 H      20.80100000      13.49500000      23.12200000
 O      28.64000000      17.78700000      17.96000000
 H      28.65800000      17.89300000      16.94900000
 H      27.72800000      18.02400000      18.17800000
 O      28.55900000      19.32800000      26.55800000
 H      28.12500000      19.95600000      25.97200000
 H      27.87400000      19.24600000      27.25700000
 O      23.57300000      16.06500000      17.30300000
 H      24.22700000      15.34100000      17.40800000
 H      23.14800000      16.16400000      18.20100000
 O      24.39200000      15.68900000      21.88900000
 H      25.11200000      15.23800000      21.46500000
 H      24.70900000      15.81700000      22.83700000
 O      28.51300000      19.85000000      22.47500000
 H      28.52100000      20.19500000      21.53600000
 H      29.31000000      20.31000000      22.86500000
 O      24.00500000      12.24500000      19.03300000
 H      24.91600000      12.47300000      19.10100000
 H      23.70100000      12.78800000      18.33300000
 O      26.78400000      16.27000000      19.94900000
 H      27.27600000      17.10000000      19.79500000
 H      26.29100000      16.51600000      20.75700000
 O      20.88100000      14.85600000      17.87800000
 H      20.43600000      14.79100000      18.74600000
 H      21.17300000      15.86100000      17.87100000
 O      23.59900000      19.04200000      17.67200000
 H      23.43000000      19.01700000      18.64600000
 H      23.17400000      18.15900000      17.30500000
 O      24.17000000      18.61600000      24.77000000
 H      25.09700000      18.61900000      25.15600000
 H      24.22300000      19.33900000      24.04700000
 O      22.76500000      20.34500000      20.89300000
 H      22.31400000      21.01200000      20.27000000
 H      22.12400000      19.47200000      20.69900000
