108
XYZ file of cluster: frame_3500_5b31.23061.3d55 - created by MolEdiTo
 O       3.02800000      13.86700000      10.08100000
 H       2.19500000      14.23600000      10.48700000
 H       3.60400000      14.63100000      10.20900000
 O      10.92500000       7.76900000       7.61300000
 H      11.36900000       8.61500000       7.52100000
 H      10.19100000       8.02100000       8.20300000
 O       4.12600000       7.74900000      11.37300000
 H       4.23100000       7.87500000      10.34400000
 H       4.67400000       8.45100000      11.74400000
 O       1.95200000      11.74100000       2.25800000
 H       2.11100000      10.75600000       2.02900000
 H       1.15800000      11.88200000       1.71100000
 O       2.54500000      11.73300000       7.81700000
 H       1.71000000      11.80900000       7.36400000
 H       2.52000000      12.39200000       8.57300000
 O       7.61800000      13.12100000       6.67800000
 H       6.88100000      12.43000000       6.71500000
 H       7.51800000      13.58900000       5.90700000
 O       8.13600000       9.77800000       2.95600000
 H       7.95700000       9.03700000       3.60900000
 H       9.14800000       9.91200000       3.05500000
 O       8.83900000      11.07800000      10.91800000
 H       8.57400000      11.83500000      11.59200000
 H       9.08800000      11.59800000      10.09500000
 O       3.64300000      13.88200000       2.27800000
 H       2.92600000      13.21700000       2.44800000
 H       3.19700000      14.64200000       2.65800000
 O       2.74600000       5.45200000       9.87300000
 H       2.36100000       5.66400000      10.73400000
 H       3.04600000       4.51200000       9.99600000
 O       6.11400000      15.60000000       0.95800000
 H       5.84000000      16.45800000       0.49300000
 H       5.55700000      14.86500000       0.57400000
 O       2.47600000      15.75900000       7.00400000
 H       1.79200000      15.03200000       7.07500000
 H       2.44200000      16.34500000       7.86100000
 O       2.19500000      15.42600000       4.35500000
 H       1.46800000      14.84200000       4.80900000
 H       2.72000000      15.47300000       5.19400000
 O       8.74300000       7.50500000       9.20900000
 H       7.92500000       8.02900000       8.84300000
 H       8.29200000       6.69600000       9.44700000
 O       5.27300000      11.35300000       7.68400000
 H       5.11800000      10.95300000       8.56800000
 H       4.41800000      11.74200000       7.52500000
 O       8.07100000       7.87600000       5.26900000
 H       7.52100000       7.04100000       5.36100000
 H       7.99400000       8.31200000       6.16900000
 O       9.74800000      12.52600000       8.59400000
 H       9.66300000      13.38300000       9.04700000
 H       9.18900000      12.72500000       7.86500000
 O       6.26900000      13.86400000       3.54800000
 H       6.66100000      14.82900000       3.68900000
 H       5.40600000      13.98700000       3.01900000
 O       4.00200000       7.76500000       8.50200000
 H       3.38400000       7.02700000       8.81900000
 H       3.42900000       8.58900000       8.61500000
 O      10.66700000       9.05500000       4.52600000
 H      10.89000000       9.27400000       5.37600000
 H       9.78500000       8.56400000       4.69500000
 O       1.97100000       8.14300000       2.43200000
 H       2.77700000       7.94300000       2.93500000
 H       1.25000000       7.78100000       2.94100000
 O       3.65400000       5.72200000       5.48100000
 H       3.76900000       6.42600000       6.14500000
 H       3.61500000       4.83100000       5.98300000
 O       7.21900000      15.65500000       8.64100000
 H       6.96400000      16.45400000       8.17500000
 H       7.84100000      15.27000000       8.02000000
 O       1.29200000       6.52500000       7.39600000
 H       1.14100000       7.48000000       7.16400000
 H       1.48200000       6.46600000       8.37100000
 O       1.20300000       9.27900000       8.81100000
 H       1.03000000       9.44500000       9.81000000
 H       0.74000000       9.94800000       8.32200000
 O       9.84600000      14.30700000       2.54300000
 H       8.91000000      14.31800000       2.99100000
 H      10.04300000      13.34700000       2.38000000
 O       9.08900000      15.85100000       6.33800000
 H       9.64400000      15.04500000       6.40000000
 H       9.70400000      16.54200000       6.69000000
 O       7.54900000      12.45700000       1.51800000
 H       8.05300000      11.67500000       1.87300000
 H       6.96000000      12.76400000       2.23800000
 O      10.16400000       6.30100000       1.58200000
 H       9.23400000       5.97200000       1.40600000
 H      10.53800000       5.97000000       0.73200000
 O      10.62100000       5.82900000       5.83000000
 H       9.72500000       5.82400000       5.35300000
 H      10.62800000       6.56600000       6.49900000
 O       3.13400000       9.72100000       6.04500000
 H       2.79600000      10.21000000       6.85800000
 H       3.75700000      10.27100000       5.54200000
 O      11.32000000      10.18700000      10.32000000
 H      10.47100000      10.56100000      10.63600000
 H      11.40900000      10.27500000       9.36900000
 O       5.57100000       8.97600000       1.48500000
 H       6.41100000       9.39400000       1.77000000
 H       4.98800000       8.87900000       2.25400000
 O       3.76600000      12.22300000       4.88000000
 H       4.20400000      13.10400000       4.95400000
 H       3.39200000      12.17900000       3.93900000
 O       6.70200000       8.86900000       8.00800000
 H       6.34400000       9.61600000       7.51800000
 H       5.89700000       8.35000000       8.06900000
 O       4.07500000       6.20000000       2.77500000
 H       4.14600000       6.26700000       3.76700000
 H       4.57500000       5.43500000       2.59500000
