135
XYZ file of cluster: frame_3500_9a2e2.76a1b.22b9a - created by MolEdiTo
 O      20.88900000      23.50000000       5.78100000
 H      21.47400000      23.42300000       4.99400000
 H      21.33100000      24.01200000       6.46600000
 O      30.19100000      21.43700000       7.66500000
 H      30.87800000      21.70500000       8.36500000
 H      29.66700000      22.27800000       7.54300000
 O      25.75100000      17.32700000      15.92200000
 H      25.24600000      17.74700000      15.22900000
 H      25.04600000      17.03300000      16.40400000
 O      28.42800000      16.07600000       4.74900000
 H      28.52100000      16.91300000       5.26900000
 H      28.31200000      15.38900000       5.37700000
 O      22.23000000      17.25100000       5.81300000
 H      22.30200000      17.76700000       5.00500000
 H      21.39500000      17.44700000       6.39000000
 O      28.10700000      23.06900000       5.16900000
 H      27.67000000      23.30200000       6.03500000
 H      27.51600000      22.45000000       4.73900000
 O      29.18600000      20.35700000      12.19700000
 H      29.54800000      21.24700000      12.10700000
 H      28.87700000      20.21700000      11.23600000
 O      29.85800000      17.66500000      15.57300000
 H      30.12400000      18.46200000      15.19400000
 H      29.71600000      17.17300000      14.76100000
 O      27.40100000      15.65200000      10.19300000
 H      27.41800000      15.28300000      11.11900000
 H      27.48300000      16.65000000      10.35000000
 O      27.08500000      18.09700000      13.50200000
 H      26.27800000      18.61600000      13.53500000
 H      27.25200000      17.78300000      14.43600000
 O      24.98400000      16.96400000       6.94100000
 H      23.99800000      17.20600000       6.81100000
 H      25.53400000      17.80200000       6.74300000
 O      30.04200000      24.23000000       8.62300000
 H      30.84400000      24.15200000       8.08000000
 H      30.18600000      25.16500000       9.08500000
 O      22.23000000      20.68000000       7.24300000
 H      21.61600000      20.88400000       6.41800000
 H      21.58700000      20.40100000       7.93400000
 O      22.10500000      21.10600000      15.92300000
 H      22.43900000      20.39100000      16.51100000
 H      22.00800000      20.83400000      14.98000000
 O      22.07500000      16.23100000       8.51900000
 H      22.33200000      16.06700000       7.57300000
 H      22.53900000      15.46700000       8.99600000
 O      25.02000000      21.75500000      15.36300000
 H      25.78000000      21.53500000      16.03300000
 H      24.58300000      22.52400000      15.83300000
 O      28.96400000      16.54500000       7.81100000
 H      28.52300000      15.95200000       8.51400000
 H      28.24600000      17.14300000       7.48700000
 O      23.50400000      21.39500000      11.75000000
 H      24.45900000      21.31400000      11.36500000
 H      23.37100000      20.79300000      12.47600000
 O      21.67700000      22.44900000       9.95300000
 H      22.18300000      23.31200000      10.11300000
 H      22.14400000      21.77000000      10.51100000
 O      27.58700000      23.40000000       8.07800000
 H      26.95600000      24.11800000       8.34900000
 H      28.52700000      23.83700000       8.00200000
 O      24.79500000      21.01400000       8.78200000
 H      23.97000000      21.10900000       8.29700000
 H      24.48600000      20.20700000       9.27700000
 O      26.37000000      21.08000000      12.99100000
 H      27.32400000      20.84200000      12.97400000
 H      26.30900000      21.33200000      13.90000000
 O      21.68800000      19.96600000      13.35600000
 H      20.95900000      19.59000000      13.95600000
 H      21.33700000      19.80700000      12.44300000
 O      27.39700000      18.28500000      10.72100000
 H      26.91300000      19.12600000      10.44500000
 H      27.67300000      18.46600000      11.60800000
 O      22.90700000      25.11800000      10.43600000
 H      22.84100000      26.11000000      10.51800000
 H      23.71000000      25.05400000       9.88600000
 O      27.60000000      21.30200000      10.05100000
 H      26.93600000      21.56000000       9.38100000
 H      28.32100000      22.01200000       9.86000000
 O      24.41900000      18.72500000      10.15100000
 H      25.10500000      18.03400000       9.88600000
 H      24.24900000      18.52200000      11.11300000
 O      26.36600000      23.44800000      11.03800000
 H      26.44600000      22.48000000      10.92100000
 H      26.41800000      23.62200000      12.05200000
 O      27.54900000      24.32000000      13.72200000
 H      26.82900000      23.79800000      14.12000000
 H      27.79500000      24.97400000      14.40400000
 O      20.66000000      18.68000000      10.20600000
 H      21.17100000      18.61700000       9.33600000
 H      20.01800000      19.44400000      10.15200000
 O      27.46700000      18.65500000       6.46100000
 H      27.55500000      18.97400000       5.58200000
 H      27.67000000      19.43700000       6.96200000
 O      20.68200000      16.75400000      12.09900000
 H      20.45300000      17.40300000      11.37800000
 H      21.50200000      16.30700000      11.80300000
 O      21.87100000      17.26900000      14.70900000
 H      22.25100000      16.39700000      14.90500000
 H      21.38200000      17.11900000      13.88700000
 O      30.15000000      22.84000000      14.34900000
 H      30.61100000      22.09900000      13.84400000
 H      29.39900000      23.10600000      13.69900000
 O      24.91200000      25.38600000      14.93200000
 H      24.59400000      26.20400000      15.35900000
 H      25.17100000      25.59600000      14.01400000
 O      26.53300000      26.01700000      10.03600000
 H      26.84300000      26.22900000       9.12800000
 H      26.66300000      25.06200000      10.13700000
 O      30.72700000      25.70200000      11.01700000
 H      31.69800000      26.03800000      10.90400000
 H      30.23400000      26.33900000      11.60000000
 O      24.35800000      20.87800000       5.47200000
 H      23.84400000      20.65200000       6.25900000
 H      24.71300000      21.82900000       5.66800000
 O      24.82100000      24.04900000       8.09600000
 H      24.96200000      24.05700000       7.09900000
 H      24.80100000      23.05400000       8.37900000
 O      24.65900000      23.58500000       5.40800000
 H      23.85300000      24.11000000       5.34400000
 H      24.92000000      23.64900000       4.46600000
 O      27.16000000      26.66800000       7.39300000
 H      27.36900000      26.09200000       6.59400000
 H      28.04700000      27.12600000       7.46800000
 O      22.47800000      23.92300000      13.65600000
 H      22.34400000      24.72500000      13.11200000
 H      22.98300000      23.36600000      13.04900000
 O      24.48200000      19.26800000      14.14500000
 H      24.68300000      19.94900000      14.75500000
 H      23.51000000      19.48600000      14.02400000
 O      29.93900000      22.91100000      11.24400000
 H      29.94500000      23.92600000      11.26800000
 H      30.71300000      22.78600000      10.70000000
 O      22.77000000      25.69700000       6.64400000
 H      23.38100000      26.45500000       6.50000000
 H      22.67600000      25.72200000       7.61700000
