36
XYZ file of cluster: frame_8000_4af96.6f4a.3368 - created by MolEdiTo
 O      14.19000000       5.85500000       2.02400000
 H      14.50400000       5.12100000       1.46800000
 H      15.12200000       6.19600000       2.21800000
 O       8.59400000       3.22200000       0.70400000
 H       9.60600000       3.48000000       0.60800000
 H       8.61300000       2.69500000       1.58300000
 O      12.44200000       1.61100000       1.02900000
 H      11.76200000       1.54700000       0.27600000
 H      12.95000000       0.75300000       1.08500000
 O       9.88400000       5.62900000       4.83800000
 H      10.54900000       6.19500000       4.33800000
 H       9.33600000       5.39600000       4.02900000
 O       7.34600000       4.87700000       2.72200000
 H       7.76100000       4.42500000       1.89900000
 H       6.55800000       5.39100000       2.41700000
 O       7.91100000       1.54900000       2.82300000
 H       8.64800000       1.08600000       3.23400000
 H       7.68400000       0.79800000       2.14300000
 O      11.99500000       2.64300000       4.73500000
 H      12.39000000       1.77500000       4.91900000
 H      11.47800000       2.86000000       5.48400000
 O      14.19200000       1.25700000       3.15300000
 H      13.75700000       0.61000000       3.75200000
 H      13.50500000       1.77400000       2.68600000
 O      11.33100000       3.85100000       1.86700000
 H      11.81100000       3.06100000       1.49400000
 H      11.61000000       3.88700000       2.80900000
 O      10.85500000       4.05400000       6.82100000
 H      10.26500000       3.99300000       7.60700000
 H      10.51700000       4.81600000       6.26600000
 O      11.15700000       7.13800000       2.66300000
 H      12.09400000       6.73800000       2.51900000
 H      10.70000000       7.07100000       1.73500000
 O       7.59900000       6.83200000       6.65300000
 H       8.42400000       6.54400000       6.17500000
 H       7.29700000       7.65500000       6.19000000
