27
XYZ file of cluster: frame_8000_211c.99c0a.a4078 - created by MolEdiTo
 O       4.82400000      16.01900000      17.81700000
 H       5.32800000      15.76200000      17.03400000
 H       4.95300000      15.14900000      18.33400000
 O       6.16200000      17.63600000      14.32800000
 H       6.69800000      18.23600000      14.85500000
 H       6.74400000      16.89000000      14.09100000
 O       3.13900000      17.03700000      15.68800000
 H       2.45700000      16.39700000      15.40100000
 H       3.86000000      16.50900000      16.00100000
 O       5.42100000      19.19100000      17.97800000
 H       4.73300000      18.69500000      18.46900000
 H       6.31700000      18.73400000      18.00000000
 O       1.07400000      15.32700000      15.75900000
 H       0.18100000      15.35800000      16.27900000
 H       0.82400000      14.86000000      14.90200000
 O       2.94200000      17.97500000      18.84600000
 H       1.96500000      17.82100000      18.69600000
 H       3.40200000      17.31100000      18.29400000
 O       2.74000000      19.93300000      15.91600000
 H       3.44900000      19.33700000      16.23800000
 H       1.99700000      19.35000000      15.82700000
 O       5.94600000      14.36000000      15.72200000
 H       6.12900000      13.48400000      16.02200000
 H       6.17000000      14.23800000      14.74900000
 O       7.04200000      20.69200000      16.01100000
 H       7.25200000      20.54100000      15.08900000
 H       7.00600000      19.83000000      16.45200000
