42
XYZ file of cluster: frame_8000_1bc7f.4a9e5.37b0 - created by MolEdiTo
 O      10.87400000       8.05000000       7.44500000
 H      10.67500000       8.83400000       6.94100000
 H      10.08200000       7.65700000       7.67200000
 O       8.71900000      14.11500000       5.79300000
 H       9.36400000      14.53900000       6.31800000
 H       7.86600000      14.45600000       6.14300000
 O       2.81400000      11.75300000       7.79600000
 H       2.43000000      11.21600000       6.97400000
 H       3.73400000      11.47800000       7.72800000
 O       5.71600000       9.45600000       6.20600000
 H       6.13200000      10.34300000       6.26600000
 H       5.93600000       9.16000000       5.33900000
 O       3.51200000      10.85600000       3.64300000
 H       4.53000000      10.95200000       3.61400000
 H       3.29300000      11.60800000       3.01000000
 O       6.27100000       9.12000000       3.62100000
 H       7.21700000       9.46400000       3.50100000
 H       5.91200000       8.99600000       2.74000000
 O       9.91700000      10.66200000       6.43600000
 H       9.17200000      11.28800000       6.22200000
 H      10.74400000      11.19100000       6.61800000
 O       3.31200000       8.04500000       6.99700000
 H       3.25700000       7.31600000       7.68300000
 H       4.24200000       8.17400000       6.88200000
 O       8.71300000       9.50700000       2.77600000
 H       8.66400000       8.86200000       1.99800000
 H       9.56200000       9.24200000       3.27100000
 O       6.91800000      11.21600000       1.17900000
 H       7.49300000      10.50000000       0.85200000
 H       7.13900000      11.19700000       2.11900000
 O       7.59900000       6.83200000       6.65300000
 H       8.42400000       6.54400000       6.17500000
 H       7.29700000       7.65500000       6.19000000
 O      10.93600000      14.14400000       3.21400000
 H      10.01300000      14.08100000       3.45000000
 H      11.22300000      13.34100000       2.64300000
 O       4.30500000      10.40100000       0.62600000
 H       4.96700000      11.18000000       0.92700000
 H       4.91500000       9.73400000       0.29900000
 O       8.23600000      12.09300000       3.83900000
 H       8.21500000      12.26600000       4.80900000
 H       9.13300000      11.61800000       3.78200000
