36
XYZ file of cluster: frame_8000_4bef4.32b8.a180d - created by MolEdiTo
 O      11.25500000       1.84300000      18.21900000
 H      12.14700000       1.77600000      17.83700000
 H      10.85400000       2.19400000      17.46500000
 O      14.28700000       1.24900000      16.74300000
 H      14.12300000       0.27800000      16.80000000
 H      15.22200000       1.50800000      16.95200000
 O      11.81600000       3.67700000      15.61400000
 H      11.11200000       3.13300000      15.24000000
 H      12.40700000       3.76800000      14.83000000
 O      13.98800000       6.12500000      14.17700000
 H      14.84800000       6.32000000      13.87400000
 H      13.43300000       6.95900000      14.07700000
 O       7.55000000       5.78300000      19.30600000
 H       6.93800000       5.33000000      18.68600000
 H       8.06000000       5.05400000      19.76800000
 O       9.11200000       2.65000000      16.61200000
 H       9.49500000       2.09400000      15.87500000
 H       8.34800000       2.09500000      16.76600000
 O      10.84900000       6.19700000      15.92800000
 H      11.21000000       5.26500000      15.91100000
 H       9.90200000       6.11600000      15.83100000
 O       7.82900000       5.67200000      15.42500000
 H       7.60800000       5.04000000      16.11500000
 H       7.84300000       5.11500000      14.67000000
 O      12.53700000       5.29200000      19.19300000
 H      12.39600000       5.37200000      20.14800000
 H      11.68100000       5.46200000      18.75800000
 O      15.16600000       4.44000000      19.54700000
 H      14.22800000       4.40900000      19.31700000
 H      15.66800000       4.15400000      18.72800000
 O       6.64200000       1.69300000      19.33400000
 H       6.91700000       0.87500000      19.77700000
 H       7.44000000       2.27900000      19.43000000
 O       9.86300000       7.40700000      19.96600000
 H       9.54900000       8.38200000      19.87300000
 H       9.23900000       6.91600000      19.38100000
