120
XYZ file of cluster: frame_6500_1676.1f22.4e372 - created by MolEdiTo
 O       8.85000000       4.36100000      19.32700000
 H       9.52700000       4.14000000      18.64000000
 H       9.26800000       4.05000000      20.16600000
 O       2.03300000       4.72300000      16.87100000
 H       2.51700000       4.52700000      17.69700000
 H       1.43800000       3.99600000      16.66500000
 O       1.13200000       8.85800000      20.28200000
 H       1.30100000       8.12600000      19.62700000
 H       0.75100000       8.22500000      20.99200000
 O       0.94700000       3.95400000      13.97600000
 H       0.48200000       3.36700000      13.39900000
 H       0.86500000       4.85700000      13.59200000
 O       2.62100000       1.59400000      11.80800000
 H       2.59200000       2.31800000      12.55500000
 H       3.64300000       1.55700000      11.68800000
 O       8.58000000       4.64000000      14.90000000
 H       9.06000000       5.36400000      14.35900000
 H       7.82900000       4.39700000      14.29600000
 O       3.45600000       7.67200000      18.82300000
 H       4.33500000       8.02800000      18.62400000
 H       3.58200000       6.72900000      18.99000000
 O       3.22000000       5.82500000      11.65400000
 H       2.33600000       5.68600000      12.05000000
 H       3.71300000       6.45900000      12.16600000
 O       5.48700000       5.32600000      16.03400000
 H       5.96600000       6.10000000      16.43200000
 H       5.88400000       5.16600000      15.12800000
 O       8.93800000      10.58200000      18.29400000
 H       9.57700000      11.18900000      17.91900000
 H       9.44700000      10.13800000      18.99400000
 O       1.78500000       1.63300000      19.41000000
 H       2.05600000       2.22300000      20.17700000
 H       0.87700000       1.50500000      19.69600000
 O       3.04100000       2.28600000      14.57000000
 H       2.36400000       3.04400000      14.77900000
 H       2.83200000       1.56300000      15.28500000
 O       9.09200000       6.37700000      12.78900000
 H       9.54400000       7.26600000      13.05100000
 H       9.85800000       5.83200000      12.66000000
 O       7.81900000       8.32100000      20.04300000
 H       8.06100000       8.27200000      20.97400000
 H       7.01900000       8.87900000      19.98700000
 O       5.69700000       9.77100000      11.20600000
 H       4.85900000       9.37800000      11.45400000
 H       5.94200000       9.17900000      10.46000000
 O       6.19300000       7.85900000      17.90300000
 H       6.16400000       8.70300000      17.47000000
 H       7.17200000       7.87000000      18.36000000
 O       1.86200000       8.54500000      16.58100000
 H       2.69200000       8.69100000      17.09300000
 H       1.14000000       8.32100000      17.22400000
 O       6.48300000       2.13000000      15.88800000
 H       6.20300000       1.48300000      16.55800000
 H       5.71400000       2.73400000      15.85600000
 O       4.47300000      11.36300000      13.58900000
 H       5.17400000      11.29700000      12.90100000
 H       4.44600000      10.48800000      14.02500000
 O       7.67200000       1.27500000      18.91200000
 H       6.98000000       0.70800000      19.31400000
 H       7.22200000       2.09900000      18.82500000
 O       1.97500000       0.88400000      16.76600000
 H       2.30300000       1.14100000      17.64500000
 H       1.25900000       1.54300000      16.64200000
 O       5.69800000       1.13900000      11.64000000
 H       6.05000000       0.25100000      11.65600000
 H       6.06600000       1.63200000      12.39500000
 O       9.17300000       6.95600000      17.46900000
 H       9.35300000       7.30700000      18.35600000
 H       9.47400000       6.01200000      17.50300000
 O       5.92100000       4.84500000      13.20600000
 H       6.43100000       5.05900000      12.34600000
 H       5.08100000       5.29200000      12.95300000
 O       1.10800000       9.05500000      13.58400000
 H       0.18000000       9.45300000      13.77100000
 H       1.52200000       9.14300000      14.46000000
 O       8.64600000       6.13600000      10.00900000
 H       8.40200000       6.42700000      10.92700000
 H       9.51200000       5.76800000      10.12500000
 O       3.57300000       6.89500000      14.31700000
 H       3.62200000       6.04200000      14.79600000
 H       4.28900000       7.39500000      14.69700000
 O       5.53200000      10.14300000      19.89500000
 H       5.90500000      10.86800000      19.31900000
 H       5.65100000      10.62400000      20.76100000
 O       2.93300000       8.90500000      11.42000000
 H       2.41100000       8.83900000      12.28100000
 H       2.28000000       8.54400000      10.76600000
 O       5.92300000       5.59600000      19.98500000
 H       6.17300000       6.53700000      19.82900000
 H       6.79100000       5.22300000      19.95700000
 O      10.69000000       4.03900000      12.45000000
 H      10.69200000       3.51400000      11.57900000
 H      10.28400000       3.46000000      13.13900000
 O       9.23800000       1.25600000      16.28600000
 H       8.30400000       1.58100000      16.03200000
 H       8.97000000       0.66000000      16.92800000
 O       8.36500000       9.11700000      15.61800000
 H       8.68100000       9.74400000      16.36700000
 H       8.74800000       8.25900000      15.94600000
 O      10.22100000      10.69900000      11.16500000
 H       9.98100000       9.74000000      11.49800000
 H       9.30100000      11.16600000      11.22600000
 O       0.78000000       4.10800000      20.64000000
 H       1.76200000       4.41400000      20.53100000
 H       0.75000000       4.19000000      21.64200000
 O       4.84700000       1.27300000      19.93200000
 H       4.94200000       1.69800000      20.83300000
 H       4.74900000       2.04500000      19.41600000
 O      10.16700000       3.91700000      17.01600000
 H       9.72300000       4.35100000      16.26900000
 H      10.03600000       2.99900000      16.80400000
 O       5.59100000      10.43400000      16.29500000
 H       5.78700000       9.76700000      15.56800000
 H       4.65700000      10.75000000      16.10000000
 O       6.26600000       8.75200000      13.88200000
 H       6.28000000       8.91200000      12.94100000
 H       7.10600000       9.05600000      14.25200000
 O       4.31500000       3.46400000      18.56900000
 H       4.41600000       3.89000000      17.67400000
 H       4.93700000       4.06900000      18.99000000
