120
XYZ file of cluster: frame_6500_1e13.c321f.268a8 - created by MolEdiTo
 O      10.09700000      26.72600000       9.07400000
 H       9.89700000      26.53100000      10.02100000
 H      10.64500000      27.50200000       9.06500000
 O      10.12100000      28.22400000       5.88400000
 H       9.94900000      28.08500000       4.93200000
 H      10.69700000      29.04300000       5.90400000
 O       9.03200000      26.61600000      11.80200000
 H       8.19200000      26.40500000      12.27900000
 H       9.19500000      27.64900000      11.83700000
 O       6.70700000      25.83100000      13.07200000
 H       6.00700000      26.43600000      13.32000000
 H       6.26900000      25.17200000      12.56000000
 O       2.91400000      28.61600000      15.80600000
 H       2.69700000      29.55300000      15.90600000
 H       2.29600000      28.25600000      15.14300000
 O       6.23500000      27.02300000       9.31200000
 H       7.04100000      27.05700000       9.82100000
 H       6.20800000      26.07700000       8.91000000
 O       2.26800000      26.56900000       8.57300000
 H       1.97400000      27.48400000       8.88500000
 H       1.91800000      26.54700000       7.66200000
 O       4.02400000      26.80800000      11.20600000
 H       3.37500000      26.97100000      10.45800000
 H       4.88400000      26.87600000      10.66700000
 O       7.72000000      29.43100000       7.12800000
 H       6.92000000      28.87500000       7.30200000
 H       8.07700000      28.86300000       6.42400000
 O       7.75800000      28.35800000      15.82900000
 H       6.85000000      28.64100000      15.76000000
 H       8.20400000      28.88300000      15.10300000
 O       5.26200000      28.38800000      13.39700000
 H       5.05200000      28.35800000      12.43900000
 H       4.51000000      28.86800000      13.78000000
 O       7.96500000      30.22400000      13.78900000
 H       8.20900000      30.90700000      14.37000000
 H       8.76600000      30.10300000      13.16900000
 O       0.78600000      29.83600000      13.24400000
 H       1.63500000      30.23100000      13.45200000
 H       0.24100000      30.61800000      12.97700000
 O       2.49100000      29.31200000      10.37100000
 H       1.60900000      28.92300000      10.62400000
 H       2.63300000      30.04600000      10.97000000
 O      10.44900000      27.95700000      14.96900000
 H      10.81800000      27.12100000      15.30400000
 H      10.15700000      27.79400000      14.05400000
 O       9.75500000      29.33900000      11.90100000
 H      10.51200000      30.03400000      12.12300000
 H       9.71600000      29.38700000      10.90900000
 O       0.83200000      26.29600000       5.81100000
 H       1.37800000      25.57300000       5.46100000
 H       0.36400000      25.85000000       6.54100000
 O       4.56100000      29.05200000       6.86900000
 H       4.05200000      29.85500000       6.50500000
 H       3.84800000      28.40600000       7.17300000
 O       9.54400000      29.87400000       9.37600000
 H      10.10800000      30.37000000       8.75200000
 H       8.97000000      29.25400000       8.83800000
 O       1.95400000      26.71800000      13.50100000
 H       2.77600000      26.24000000      13.80600000
 H       2.32500000      27.23600000      12.82000000
 O       8.16500000      25.47000000      15.61700000
 H       8.01600000      26.41600000      15.77200000
 H       7.82900000      25.27300000      14.72300000
 O       1.32900000      35.38300000      10.02800000
 H       2.23800000      35.85400000      10.14500000
 H       1.25400000      34.60900000       9.36700000
 O       0.94700000      35.44800000      13.97600000
 H       0.48200000      34.86100000      13.39900000
 H       0.86500000      36.35100000      13.59200000
 O       2.62100000      33.08800000      11.80800000
 H       2.59200000      33.81200000      12.55500000
 H       3.64300000      33.05100000      11.68800000
 O       8.58000000      36.13400000      14.90000000
 H       9.06000000      36.85800000      14.35900000
 H       7.82900000      35.89100000      14.29600000
 O       3.82900000      34.81300000       7.24000000
 H       3.92200000      35.35900000       8.04100000
 H       4.10700000      33.94400000       7.66200000
 O       5.48700000      36.82000000      16.03400000
 H       5.96600000      37.59400000      16.43200000
 H       5.88400000      36.66000000      15.12800000
 O       3.04100000      33.78000000      14.57000000
 H       2.36400000      34.53800000      14.77900000
 H       2.83200000      33.05700000      15.28500000
 O      10.60700000      35.52400000       6.34500000
 H      10.00800000      34.81900000       5.95700000
 H      10.68100000      36.07800000       5.52300000
 O       5.93500000      35.97200000       5.42100000
 H       5.74700000      35.05300000       5.04800000
 H       5.80500000      36.01000000       6.41500000
 O       4.41900000      32.79300000       9.04600000
 H       5.13500000      32.15300000       8.70900000
 H       3.71500000      32.19400000       9.41500000
 O       8.10000000      33.69400000       6.69800000
 H       8.23400000      34.39100000       7.35700000
 H       7.90100000      32.81900000       7.18800000
 O       9.63300000      34.34500000      10.04700000
 H       8.62300000      34.26200000      10.13500000
 H       9.71700000      33.59900000       9.47400000
 O       5.69800000      32.63300000      11.64000000
 H       6.05000000      31.74500000      11.65600000
 H       6.06600000      33.12600000      12.39500000
 O       4.92400000      36.33400000       9.26800000
 H       4.70900000      36.74800000      10.13600000
 H       5.35900000      37.04500000       8.75900000
 O       5.92100000      36.33900000      13.20600000
 H       6.43100000      36.55300000      12.34600000
 H       5.08100000      36.78600000      12.95300000
 O       0.89700000      33.38300000       7.79700000
 H       0.48300000      32.68600000       8.31500000
 H       1.78100000      33.18700000       7.69800000
 O      10.69000000      35.53300000      12.45000000
 H      10.69200000      35.00800000      11.57900000
 H      10.28400000      34.95400000      13.13900000
 O       6.94200000      34.28400000       9.70600000
 H       6.47600000      33.55500000      10.16900000
 H       6.16900000      34.91200000       9.38300000
 O       2.98800000      32.26700000       5.57600000
 H       2.11000000      32.51100000       5.19500000
 H       3.32900000      33.17900000       5.71300000
