123
XYZ file of cluster: frame_6500_c1b05.4bb6b.4cc30 - created by MolEdiTo
 O      25.87400000      13.41000000      19.56900000
 H      26.19900000      12.50100000      19.68300000
 H      26.53500000      13.98000000      19.16400000
 O      30.13500000      18.89500000      20.15500000
 H      30.57300000      18.53700000      20.95200000
 H      30.09200000      19.88300000      20.36800000
 O      26.53200000      11.56600000      10.79300000
 H      26.50800000      11.24500000       9.82300000
 H      27.08800000      12.39400000      10.76800000
 O      25.70700000      19.58400000      19.51300000
 H      24.83500000      19.44100000      19.86400000
 H      26.19300000      19.86600000      20.26500000
 O      29.74000000      19.46500000      13.24100000
 H      29.70700000      18.53700000      13.08900000
 H      30.61100000      19.67400000      12.78600000
 O      27.00800000      17.90700000      17.08300000
 H      27.87500000      18.33900000      16.94500000
 H      26.59100000      18.70900000      17.54900000
 O      28.76500000      10.68000000      14.14600000
 H      28.90800000      11.29900000      14.90800000
 H      28.34200000       9.92100000      14.61600000
 O      29.94600000      19.41200000      17.19000000
 H      29.54800000      20.33500000      17.24100000
 H      30.23400000      19.42100000      18.14700000
 O      30.05600000      11.17000000      16.66200000
 H      29.67500000      10.25900000      16.73100000
 H      30.81800000      11.13500000      17.25600000
 O      26.28900000      18.13600000      12.37200000
 H      26.89100000      18.85400000      12.01900000
 H      25.98200000      17.61300000      11.60500000
 O      27.48400000      15.53100000      18.53000000
 H      28.10200000      15.03200000      17.91500000
 H      26.97700000      16.30200000      18.11800000
 O      28.91500000      14.66600000      15.17900000
 H      29.63100000      14.02700000      15.16300000
 H      29.46600000      15.46000000      15.33100000
 O      27.88100000      13.61600000      12.71700000
 H      28.11000000      14.05200000      13.53500000
 H      28.74500000      13.31100000      12.27300000
 O      28.54900000      15.15800000      21.26800000
 H      28.32700000      14.22500000      21.12200000
 H      28.08700000      15.45300000      20.47100000
 O      30.37900000      17.16400000      15.38900000
 H      30.31800000      17.23900000      14.37400000
 H      30.19800000      18.15600000      15.74200000
 O      30.47300000      13.53200000      11.74400000
 H      30.92300000      13.84800000      12.61900000
 H      31.28000000      13.09700000      11.40100000
 O      27.08700000      20.30100000      10.80500000
 H      26.72500000      20.94200000      10.19500000
 H      27.97800000      20.49700000      11.04700000
 O      27.33200000      15.90600000      10.85800000
 H      26.69600000      15.34700000      11.41200000
 H      27.93700000      16.40900000      11.56100000
 O      29.97000000      16.71800000      12.50300000
 H      30.47500000      16.94500000      11.60200000
 H      30.14600000      15.75100000      12.59900000
 O      26.22000000      15.16600000      15.55900000
 H      26.15000000      16.09900000      15.82300000
 H      26.95900000      15.13400000      14.96000000
 O      29.13800000      12.52100000      19.95300000
 H      29.87700000      12.66400000      20.58500000
 H      29.17800000      11.56800000      20.05600000
 O      27.57100000      20.39800000      15.27200000
 H      28.13400000      20.18000000      14.52800000
 H      26.68600000      19.90000000      15.13600000
 O      25.88300000      12.24300000      15.31300000
 H      25.97400000      13.16900000      14.98300000
 H      26.50500000      11.81400000      14.67400000
 O      33.57100000      12.00900000      10.65500000
 H      34.48500000      12.31700000      10.55900000
 H      33.68100000      11.18000000      11.13400000
 O      35.54500000      13.84200000      19.42100000
 H      34.72400000      14.11500000      18.96800000
 H      35.62200000      12.90300000      19.17200000
 O      32.11800000      16.69900000      18.48100000
 H      32.28600000      17.34800000      19.20900000
 H      31.30400000      16.98300000      17.98700000
 O      35.77700000      11.36300000      13.58900000
 H      36.47800000      11.29700000      12.90100000
 H      35.75000000      10.48800000      14.02500000
 O      33.85100000      19.18800000      11.98700000
 H      34.56300000      18.57000000      12.15000000
 H      34.25800000      20.10200000      11.69900000
 O      36.09200000      17.46600000      19.85900000
 H      35.82100000      16.86100000      20.58200000
 H      35.36100000      18.10700000      19.77900000
 O      34.07900000      19.09000000      19.10500000
 H      34.39200000      19.60100000      18.32000000
 H      33.31000000      19.64500000      19.27200000
 O      32.97800000      14.22600000      14.02800000
 H      33.68400000      13.74900000      14.47400000
 H      33.32300000      15.17600000      13.98700000
 O      34.25500000      11.40100000      17.63800000
 H      34.00000000      12.37300000      17.60600000
 H      34.11300000      11.01800000      18.60700000
 O      34.72900000      16.84000000      13.45900000
 H      35.57800000      16.50100000      13.71600000
 H      34.51300000      17.35800000      14.28000000
 O      33.44800000      11.38900000      20.05200000
 H      33.81500000      11.97900000      20.75800000
 H      32.99400000      10.62700000      20.46100000
 O      34.33100000      16.10300000      16.05500000
 H      34.55200000      16.86800000      16.68700000
 H      33.35400000      16.11800000      16.03700000
 O      34.79200000      15.26900000      10.89900000
 H      34.14200000      15.09100000      10.16300000
 H      34.68000000      16.15600000      11.39500000
 O      32.92200000      21.31600000      15.79900000
 H      32.14500000      20.83000000      15.58900000
 H      32.52200000      22.00100000      16.26800000
 O      36.89500000      10.43400000      16.29500000
 H      37.09100000       9.76700000      15.56800000
 H      35.96100000      10.75000000      16.10000000
 O      32.76500000      13.94500000      18.36300000
 H      31.87800000      13.70000000      17.94900000
 H      32.61400000      14.92300000      18.63000000
 O      36.58600000      14.09100000      16.38000000
 H      36.82300000      13.43700000      15.72000000
 H      35.77100000      14.51500000      16.02800000
 O      35.07800000      19.21900000      16.14900000
 H      34.30800000      19.80800000      15.95600000
 H      35.78300000      19.60700000      15.59800000
