141
XYZ file of cluster: frame_6500_4a5f2.758f0.9ab02 - created by MolEdiTo
 O      15.77500000      20.77800000      26.42900000
 H      15.83600000      20.67400000      27.40200000
 H      16.41200000      21.48900000      26.05400000
 O      16.74100000      23.32500000      25.07100000
 H      17.68000000      23.20000000      25.21000000
 H      16.64800000      22.92500000      24.17900000
 O      17.11000000      17.87000000      29.64700000
 H      17.13200000      18.33400000      28.78000000
 H      17.34000000      16.99700000      29.29100000
 O      10.92500000      16.95300000      24.05500000
 H       9.97000000      17.06300000      24.36900000
 H      10.94900000      16.61300000      23.12900000
 O      20.50900000      20.66100000      25.22700000
 H      21.07900000      21.37000000      25.53700000
 H      20.41800000      20.89900000      24.31700000
 O      13.73000000      24.27900000      21.32300000
 H      14.54400000      24.71700000      21.54300000
 H      13.12500000      25.00200000      20.92200000
 O      13.65200000      25.61500000      24.57200000
 H      14.43600000      25.79900000      24.00800000
 H      13.86700000      24.84200000      25.19600000
 O      10.33500000      17.82200000      28.74300000
 H       9.84800000      18.41900000      29.25600000
 H      10.67800000      18.48800000      28.05700000
 O      15.13500000      17.74200000      24.73400000
 H      14.95400000      18.76100000      24.74700000
 H      15.64200000      17.57600000      25.59300000
 O      12.61300000      18.30500000      26.06900000
 H      12.33100000      18.34200000      25.17300000
 H      12.08100000      19.09400000      26.46900000
 O      21.13400000      24.99700000      21.67000000
 H      21.41500000      25.52100000      20.93600000
 H      20.46200000      24.42600000      21.25100000
 O      21.26200000      19.34000000      27.76700000
 H      20.62700000      19.49100000      26.92700000
 H      21.29000000      18.36500000      27.96100000
 O      13.07900000      17.81300000      22.44900000
 H      12.58300000      17.00400000      22.31300000
 H      13.23100000      17.74700000      23.39700000
 O      14.77500000      21.21600000      21.45900000
 H      14.46200000      22.15900000      21.19800000
 H      14.23300000      21.11300000      22.35300000
 O      16.10600000      23.44300000      28.69300000
 H      16.92300000      23.47500000      28.16600000
 H      16.39900000      22.99600000      29.49600000
 O      20.09000000      21.20500000      22.37500000
 H      19.41000000      21.73800000      21.85900000
 H      20.15200000      20.38700000      21.80800000
 O      17.87200000      16.35600000      25.47700000
 H      17.06900000      15.94200000      25.28500000
 H      18.42100000      16.06800000      24.68400000
 O      18.33700000      21.04900000      29.14600000
 H      18.09000000      20.58300000      28.32700000
 H      17.49800000      21.16800000      29.73700000
 O      10.44300000      25.24000000      22.56900000
 H      11.13800000      25.80100000      22.93100000
 H       9.53600000      25.14500000      23.12800000
 O      12.20500000      22.85400000      23.63600000
 H      11.70900000      22.99300000      24.52200000
 H      12.06400000      23.67200000      23.17000000
 O      19.17500000      24.27400000      23.58800000
 H      19.72700000      25.01500000      23.28800000
 H      19.68000000      23.51800000      23.13700000
 O      19.46500000      16.41100000      22.13800000
 H      20.40500000      16.08900000      21.87800000
 H      18.80600000      15.69500000      22.42700000
 O      11.48100000      23.51300000      26.27800000
 H      12.45600000      23.45900000      26.32000000
 H      11.38800000      23.85900000      27.20000000
 O      14.08600000      18.96400000      28.29200000
 H      13.76900000      18.55100000      27.37200000
 H      13.44300000      18.83100000      28.99300000
 O      21.56900000      18.58300000      23.49100000
 H      20.75200000      18.41200000      22.99100000
 H      21.32000000      19.34600000      23.99700000
 O      13.90800000      20.71900000      24.06300000
 H      13.28500000      21.49900000      24.20200000
 H      14.58500000      20.92600000      24.72700000
 O      18.41600000      26.21300000      30.33700000
 H      19.31600000      25.85000000      30.69200000
 H      17.87800000      26.02100000      31.09200000
 O      14.05000000      25.06200000      29.43600000
 H      13.63000000      24.37000000      30.02100000
 H      14.86500000      24.72200000      29.12300000
 O      10.70300000      16.28900000      21.28000000
 H       9.78300000      16.21600000      21.01500000
 H      11.21100000      16.81700000      20.57900000
 O      15.59700000      20.76300000      29.39000000
 H      15.06600000      19.90900000      29.23000000
 H      14.91800000      21.51300000      29.48800000
 O      12.65600000      15.77100000      29.73200000
 H      11.84600000      16.30400000      29.55600000
 H      12.23700000      15.16500000      30.42400000
 O      19.22400000      24.20900000      27.18600000
 H      19.80500000      24.72700000      27.72300000
 H      19.82100000      23.34300000      26.96700000
 O      14.26300000      23.64200000      26.77100000
 H      14.54900000      23.47400000      27.67000000
 H      15.06600000      23.36400000      26.34000000
 O      11.74100000      20.26800000      22.06000000
 H      11.86100000      21.07500000      22.66200000
 H      12.36600000      19.58400000      22.29300000
 O      14.78900000      15.81100000      27.56100000
 H      14.66900000      15.73800000      28.50800000
 H      13.84900000      15.91600000      27.33000000
 O      11.07300000      23.96600000      29.14900000
 H      11.85500000      23.73700000      29.62800000
 H      10.43100000      23.42800000      29.64500000
 O      18.59100000      18.95100000      21.26800000
 H      18.06600000      19.11600000      20.50900000
 H      18.97600000      18.02500000      21.25100000
 O      15.07900000      16.94600000      20.59400000
 H      14.48500000      17.38200000      21.20400000
 H      15.68700000      17.68500000      20.32600000
 O      18.39900000      22.46700000      20.79100000
 H      17.46300000      22.11300000      20.97300000
 H      18.31800000      22.76100000      19.79500000
 O      16.95700000      20.39500000      23.57900000
 H      16.10900000      19.97600000      23.33600000
 H      17.56900000      20.06100000      22.82200000
 O      17.44100000      26.79200000      27.64100000
 H      17.57600000      26.86900000      28.59900000
 H      17.99800000      26.13300000      27.20400000
 O      16.50700000      25.20100000      22.78100000
 H      17.00200000      24.70800000      23.53100000
 H      17.28200000      25.60100000      22.21500000
 O      18.09900000      19.16800000      26.76700000
 H      18.32500000      18.26400000      26.36800000
 H      17.66800000      19.68600000      26.04400000
 O      10.80200000      23.15100000      20.52400000
 H      10.23400000      23.58400000      21.21800000
 H      11.66900000      23.34000000      20.84700000
 O      11.32500000      20.59700000      27.64600000
 H      10.64300000      21.19600000      28.05300000
 H      11.79200000      21.23000000      27.02500000
 O      19.20800000      16.18300000      28.09800000
 H      18.78400000      16.42900000      27.23200000
 H      19.81200000      15.43400000      27.83800000
 O      20.81200000      22.07100000      28.93700000
 H      20.94200000      21.24000000      28.39600000
 H      19.87000000      21.98400000      29.27600000
