%chk=cluster_500.chk
%mem=6GB
%nproc=4
#b3lyp/6-31G** scrf=(cpcm,Solvent=Water) nosymm force
iop(2/11=1) 
 Geom=(NoDistance,NoAngle)

cluster_500

0 1
 O      19.10900000       1.71600000       3.76200000
 H      18.82000000       0.87900000       4.21600000
 H      19.75400000       1.34300000       3.19700000
 O      17.44200000       3.32000000       5.13800000
 H      16.61400000       2.72800000       5.34600000
 H      18.11400000       2.67200000       4.72100000
 O      20.03500000       4.46900000       4.12200000
 H      19.78800000       5.11100000       3.39800000
 H      19.43100000       3.74300000       3.90300000
 O      17.67600000       5.98400000       6.25300000
 H      17.32700000       5.14800000       6.06300000
 H      17.87300000       6.32100000       5.32000000
 O      20.21900000       5.80800000       6.99600000
 H      19.21200000       5.84700000       6.77700000
 H      20.61000000       5.65600000       6.15100000
 O      19.23300000       2.44400000       7.26400000
 H      18.85600000       2.58500000       8.18400000
 H      18.61200000       3.00100000       6.66200000
 O      21.67500000       6.79400000       2.07400000
 H      20.99500000       6.43500000       1.47800000
 H      22.05100000       7.62600000       1.69200000
 O      25.12200000       3.36500000       5.20000000
 H      24.95800000       4.24800000       5.64500000
 H      24.20200000       2.99800000       5.15400000
 O      22.34400000       2.51200000       5.73800000
 H      21.84500000       3.22900000       5.19200000
 H      21.68700000       2.12000000       6.39500000
 O      24.02100000       5.21000000       2.17000000
 H      23.11200000       5.55400000       2.17700000
 H      23.84700000       4.24800000       2.07300000
 O      24.07000000       2.45300000       1.76100000
 H      24.89400000       2.97300000       1.57200000
 H      23.75400000       2.28800000       0.80900000

