96
XYZ file of cluster: frame_11000_c6152.9a845.c9c4f - created by MolEdiTo
 O      29.08400000      27.18700000      29.35200000
 H      29.87900000      27.61200000      29.23600000
 H      28.86300000      27.33200000      30.31700000
 O      28.44000000      21.32300000      29.15500000
 H      28.38600000      22.18000000      28.71700000
 H      27.63700000      20.78000000      28.83900000
 O      30.83200000      28.22300000      25.86400000
 H      31.05000000      28.57300000      26.82200000
 H      30.96400000      27.28000000      25.92000000
 O      26.45500000      23.43800000      27.00800000
 H      26.73200000      22.49600000      27.13500000
 H      25.68200000      23.19800000      26.38000000
 O      28.72200000      24.36800000      28.27400000
 H      28.67700000      25.26700000      28.58000000
 H      27.84000000      24.16500000      27.86600000
 O      25.94700000      26.93300000      28.43200000
 H      26.54000000      27.49800000      28.91000000
 H      25.90100000      27.46000000      27.57500000
 O      27.72700000      30.17600000      28.13700000
 H      26.86500000      29.78900000      28.20500000
 H      27.98700000      30.19400000      27.14600000
 O      28.22200000      23.86800000      33.92800000
 H      27.58700000      24.58300000      33.72700000
 H      29.02600000      23.91200000      33.39300000
 O      29.79800000      21.59000000      34.55300000
 H      29.08800000      22.28900000      34.50000000
 H      30.51700000      22.01200000      33.97200000
 O      26.60400000      25.99700000      33.31300000
 H      25.65800000      25.96800000      33.55300000
 H      26.95500000      26.53500000      33.99300000
 O      28.57000000      22.37400000      37.03300000
 H      29.43700000      22.09400000      36.75000000
 H      27.90400000      22.01000000      36.41400000
 O      29.40600000      29.87200000      36.13500000
 H      29.09300000      29.40100000      36.94500000
 H      29.08600000      30.77600000      36.23900000
 O      26.67900000      30.02800000      34.81200000
 H      26.75000000      29.07400000      34.58700000
 H      27.57500000      30.24100000      35.19000000
 O      30.73700000      26.68700000      33.90400000
 H      31.62400000      26.97200000      33.90200000
 H      30.94600000      25.72100000      33.64400000
 O      28.64800000      28.36100000      33.76500000
 H      28.91900000      28.91400000      34.47100000
 H      29.39200000      27.72400000      33.68500000
 O      25.70600000      22.34500000      33.32400000
 H      26.43900000      22.98100000      33.36700000
 H      25.85600000      21.63400000      33.98100000
 O      37.31500000      20.37300000      29.75600000
 H      36.79200000      19.97500000      30.54900000
 H      36.74100000      21.09200000      29.41500000
 O      33.01400000      25.28500000      26.58700000
 H      33.03300000      24.54900000      25.96600000
 H      32.10300000      25.29100000      26.83200000
 O      33.35200000      28.54300000      29.35000000
 H      33.86000000      27.74400000      29.35100000
 H      33.68800000      29.13600000      30.02600000
 O      32.80000000      22.16800000      28.66000000
 H      32.70800000      23.02600000      28.11300000
 H      31.88600000      21.77400000      28.75600000
 O      34.54200000      25.38800000      28.84900000
 H      33.93400000      26.07000000      28.48700000
 H      35.07400000      24.87900000      28.16700000
 O      35.91800000      22.44300000      28.55300000
 H      34.99100000      22.11400000      28.41700000
 H      35.82000000      22.98200000      29.32000000
 O      35.68500000      20.91700000      26.02900000
 H      35.04100000      20.14400000      25.86200000
 H      35.89700000      21.08200000      26.98100000
 O      36.38600000      28.93300000      26.63000000
 H      36.57900000      29.85000000      26.34800000
 H      37.04200000      28.72500000      27.31200000
 O      34.37000000      22.63200000      35.42100000
 H      33.85900000      21.94800000      35.85100000
 H      33.73900000      23.30100000      35.01800000
 O      36.57100000      24.35700000      34.95100000
 H      36.57000000      25.29800000      35.28900000
 H      35.83300000      23.98400000      35.52400000
 O      32.49800000      24.49900000      36.01600000
 H      32.57000000      24.65400000      37.00600000
 H      32.52400000      25.42900000      35.71600000
 O      34.87200000      29.04200000      33.84700000
 H      34.62200000      29.91300000      34.16900000
 H      34.67400000      28.46800000      34.62600000
 O      36.56800000      30.44800000      36.27900000
 H      35.78200000      30.86400000      35.95600000
 H      37.39100000      30.73300000      35.74500000
 O      32.93300000      23.28400000      32.59000000
 H      33.89300000      23.44700000      32.53200000
 H      32.82200000      22.91000000      31.67700000
 O      35.52300000      23.96100000      32.22100000
 H      35.36200000      24.61000000      31.52500000
 H      36.37800000      24.32800000      32.63900000
 O      34.65100000      26.66100000      35.51600000
 H      34.07000000      27.07600000      36.24400000
 H      34.81700000      25.82400000      36.03300000
