90
XYZ file of cluster: frame_11000_c6152.c6f72.c5d05 - created by MolEdiTo
 O      27.72700000      30.17600000      28.13700000
 H      26.86500000      29.78900000      28.20500000
 H      27.98700000      30.19400000      27.14600000
 O      30.83200000      28.22300000      25.86400000
 H      31.05000000      28.57300000      26.82200000
 H      30.96400000      27.28000000      25.92000000
 O      29.08400000      27.18700000      29.35200000
 H      29.87900000      27.61200000      29.23600000
 H      28.86300000      27.33200000      30.31700000
 O      25.94700000      26.93300000      28.43200000
 H      26.54000000      27.49800000      28.91000000
 H      25.90100000      27.46000000      27.57500000
 O      26.60400000      25.99700000      33.31300000
 H      25.65800000      25.96800000      33.55300000
 H      26.95500000      26.53500000      33.99300000
 O      29.40600000      29.87200000      36.13500000
 H      29.09300000      29.40100000      36.94500000
 H      29.08600000      30.77600000      36.23900000
 O      26.67900000      30.02800000      34.81200000
 H      26.75000000      29.07400000      34.58700000
 H      27.57500000      30.24100000      35.19000000
 O      30.73700000      26.68700000      33.90400000
 H      31.62400000      26.97200000      33.90200000
 H      30.94600000      25.72100000      33.64400000
 O      28.64800000      28.36100000      33.76500000
 H      28.91900000      28.91400000      34.47100000
 H      29.39200000      27.72400000      33.68500000
 O      30.09600000      33.00900000      28.71200000
 H      29.31800000      32.42400000      28.77600000
 H      29.88300000      33.64600000      28.02400000
 O      29.80700000      35.22800000      26.84700000
 H      29.38000000      36.01400000      27.35100000
 H      29.73700000      35.48000000      25.89400000
 O      27.04600000      35.58100000      28.07400000
 H      27.54500000      34.84500000      28.48900000
 H      26.46400000      35.05500000      27.45200000
 O      30.35600000      35.16300000      32.37100000
 H      29.42000000      34.92400000      32.49500000
 H      30.64300000      34.84800000      31.49700000
 O      28.48400000      36.06600000      35.94000000
 H      27.64800000      36.36300000      36.38000000
 H      28.57600000      36.86500000      35.44800000
 O      28.06400000      33.51700000      36.38900000
 H      27.33300000      33.40900000      35.76600000
 H      28.10300000      34.51700000      36.27200000
 O      27.00800000      36.02300000      32.33600000
 H      27.23800000      35.05300000      32.21400000
 H      26.33500000      35.97400000      33.06900000
 O      27.37200000      33.25600000      32.39100000
 H      27.74100000      32.40000000      32.26900000
 H      26.49500000      32.98500000      32.69700000
 O      36.38600000      28.93300000      26.63000000
 H      36.57900000      29.85000000      26.34800000
 H      37.04200000      28.72500000      27.31200000
 O      33.35200000      28.54300000      29.35000000
 H      33.86000000      27.74400000      29.35100000
 H      33.68800000      29.13600000      30.02600000
 O      36.56800000      30.44800000      36.27900000
 H      35.78200000      30.86400000      35.95600000
 H      37.39100000      30.73300000      35.74500000
 O      34.87200000      29.04200000      33.84700000
 H      34.62200000      29.91300000      34.16900000
 H      34.67400000      28.46800000      34.62600000
 O      34.65100000      26.66100000      35.51600000
 H      34.07000000      27.07600000      36.24400000
 H      34.81700000      25.82400000      36.03300000
 O      37.13300000      32.69300000      29.25000000
 H      36.34100000      33.20000000      28.82600000
 H      37.26600000      31.84800000      28.67400000
 O      35.84000000      36.03300000      26.04600000
 H      35.94100000      35.67300000      26.90000000
 H      35.83100000      35.34800000      25.35500000
 O      35.21900000      36.16400000      30.22200000
 H      34.89900000      35.32500000      30.44000000
 H      34.71600000      36.55800000      29.52300000
 O      34.60100000      33.72400000      28.30800000
 H      34.41900000      33.75600000      27.38600000
 H      33.85300000      33.31900000      28.68100000
 O      35.53100000      34.63900000      35.70500000
 H      34.54800000      34.84200000      35.59300000
 H      35.88700000      34.27100000      34.85200000
 O      36.72100000      33.14700000      33.24100000
 H      36.54300000      33.18600000      32.28500000
 H      37.60100000      33.62200000      33.33700000
 O      33.12300000      35.82900000      34.62600000
 H      32.91300000      36.78400000      34.77000000
 H      32.70500000      35.83100000      33.74600000
 O      33.36300000      32.52200000      35.27800000
 H      32.57500000      31.98500000      35.38600000
 H      33.11500000      33.38000000      34.78700000
