126
XYZ file of cluster: frame_11000_0.74f01.78659 - created by MolEdiTo
 O       1.39000000      25.28500000      26.58700000
 H       1.40900000      24.54900000      25.96600000
 H       0.47900000      25.29100000      26.83200000
 O       9.96600000      24.78500000      18.64700000
 H      10.19200000      25.77100000      18.58700000
 H       9.61800000      24.79600000      19.53000000
 O       7.39000000      20.71900000      19.44000000
 H       7.14500000      21.05300000      18.50400000
 H       6.79100000      21.22400000      20.05300000
 O       7.26300000      15.75800000      25.80100000
 H       8.04100000      15.86200000      25.14600000
 H       7.37000000      16.61000000      26.27500000
 O       0.97300000      24.16900000      19.39300000
 H       0.00000000      24.23200000      19.34700000
 H       1.29100000      24.72700000      18.60200000
 O       4.05500000      24.53700000      18.03300000
 H       3.34100000      24.03500000      17.61500000
 H       4.90700000      24.29200000      17.56500000
 O       1.58500000      15.55100000      22.25800000
 H       1.06400000      15.11700000      21.52700000
 H       1.29500000      16.43600000      22.13900000
 O       1.64100000      22.58200000      22.57600000
 H       0.79600000      23.03800000      22.44200000
 H       1.89800000      22.43600000      21.66400000
 O       4.67200000      21.46900000      23.24100000
 H       4.46500000      21.07600000      24.09700000
 H       3.79200000      21.81200000      22.95600000
 O      10.42900000      16.64700000      20.47300000
 H      10.33800000      15.91900000      19.70700000
 H       9.49000000      16.89800000      20.63400000
 O       1.81200000      18.43700000      21.30000000
 H       2.68400000      18.13300000      21.17200000
 H       1.80200000      18.90100000      22.16300000
 O       4.41200000      20.19900000      18.89300000
 H       3.96200000      20.32400000      18.03300000
 H       4.02500000      20.84700000      19.48000000
 O       7.74100000      21.34900000      24.11300000
 H       6.92600000      21.37100000      23.64000000
 H       8.09400000      22.23700000      24.12300000
 O      10.12500000      20.20600000      20.57700000
 H       9.16300000      19.99700000      20.55600000
 H      10.53600000      19.94500000      19.68300000
 O       1.71300000      15.31200000      16.25700000
 H       1.27200000      16.22300000      16.04100000
 H       2.52000000      15.58600000      16.81300000
 O       5.19700000      17.06800000      23.48300000
 H       4.57900000      17.19100000      24.24000000
 H       6.05200000      16.83200000      23.96500000
 O       2.48000000      19.29800000      23.86500000
 H       1.92700000      19.89800000      24.33500000
 H       2.45700000      18.58700000      24.45400000
 O       4.57400000      15.89400000      17.60300000
 H       3.94600000      15.74800000      18.33500000
 H       4.58700000      16.84700000      17.52000000
 O       5.40400000      24.17900000      24.50400000
 H       5.58500000      23.18500000      24.39200000
 H       4.52400000      24.26800000      24.75900000
 O       1.32900000      25.71400000      16.83500000
 H       0.74100000      26.23300000      16.25200000
 H       1.37700000      24.80300000      16.29700000
 O       6.87500000      18.03500000      17.81700000
 H       6.49700000      18.84200000      18.31700000
 H       7.73900000      18.39500000      17.48200000
 O       8.28400000      20.00700000      16.18400000
 H       8.81800000      19.71000000      15.43200000
 H       8.58500000      20.94800000      16.37000000
 O       2.91100000      17.31700000      25.81200000
 H       2.75000000      17.55200000      26.75000000
 H       2.34900000      16.49100000      25.72400000
 O       4.06100000      20.91700000      26.02900000
 H       3.41700000      20.14400000      25.86200000
 H       4.27300000      21.08200000      26.98100000
 O       6.43300000      26.24600000      25.93200000
 H       6.26400000      27.07200000      25.47900000
 H       5.83200000      25.62300000      25.47800000
 O       7.29200000      25.89500000      23.03000000
 H       6.85300000      26.71700000      23.40900000
 H       6.58000000      25.24300000      23.17600000
 O       3.05000000      20.12700000      16.20800000
 H       3.37300000      19.49600000      15.46100000
 H       2.04200000      20.05600000      16.23000000
 O       2.26100000      22.99200000      25.22400000
 H       2.14000000      22.74400000      24.25100000
 H       2.90900000      22.33100000      25.59800000
 O       9.15600000      22.74900000      16.72700000
 H      10.20200000      22.67600000      16.63500000
 H       9.07600000      23.53300000      17.33100000
 O       7.80000000      17.93200000      20.59700000
 H       7.38300000      18.79300000      20.74400000
 H       7.44100000      17.62800000      19.73100000
 O       5.07200000      24.24600000      20.61200000
 H       5.07600000      24.25600000      19.63700000
 H       4.55500000      25.02800000      20.89000000
 O       9.52800000      18.80400000      23.43300000
 H       9.57300000      18.91300000      22.42500000
 H       8.89100000      19.49700000      23.66600000
 O       8.18600000      16.33300000      23.02500000
 H       7.70400000      16.62300000      22.21400000
 H       8.90700000      16.93600000      23.25200000
 O       7.44400000      26.05500000      19.96500000
 H       7.91800000      26.36400000      20.86700000
 H       6.83300000      25.36000000      20.23900000
 O      10.86200000      16.07600000      16.34700000
 H       9.95500000      16.27500000      16.14100000
 H      11.39400000      16.27800000      15.55000000
 O       6.59700000      22.16000000      21.60700000
 H       5.68400000      22.03300000      22.03700000
 H       6.46400000      23.05100000      21.29900000
 O       4.80800000      16.59200000      20.76600000
 H       4.97700000      16.99000000      21.64800000
 H       4.59600000      17.32500000      20.15800000
 O       9.77900000      23.65700000      24.13300000
 H      10.28100000      23.65100000      23.32100000
 H       9.34300000      24.48600000      24.05200000
 O       3.06700000      22.36400000      20.42600000
 H       2.49600000      23.05900000      20.03000000
 H       3.91700000      22.87400000      20.54000000
 O       6.51500000      23.86200000      17.06800000
 H       7.01900000      24.67000000      16.79800000
 H       6.99000000      23.08100000      16.85100000
 O       9.19400000      22.78500000      21.30400000
 H       9.50300000      22.02800000      20.78600000
 H       8.30400000      22.50100000      21.65700000
 O       2.32600000      17.69200000      18.05200000
 H       2.89200000      18.38700000      17.66700000
 H       1.45200000      18.07100000      17.92200000
