102
XYZ file of cluster: frame_11000_c7651.48c0a.d5b - created by MolEdiTo
 O      26.52200000      11.53400000       6.21200000
 H      26.23900000      12.45600000       5.99300000
 H      27.14100000      11.74800000       6.96900000
 O      30.11000000      19.59200000      10.46200000
 H      30.94400000      19.71700000       9.87600000
 H      29.28100000      19.51500000       9.94300000
 O      29.84500000      15.22700000       7.20800000
 H      30.63400000      15.12000000       7.84500000
 H      29.52900000      14.32200000       7.13700000
 O      30.68000000      15.58900000      10.43800000
 H      29.99400000      15.61500000       9.80100000
 H      30.48800000      16.38600000      10.96900000
 O      26.81000000      16.72100000       8.88900000
 H      27.35300000      16.81500000       9.69900000
 H      27.43700000      16.43200000       8.23600000
 O      30.13800000      11.16400000       9.44700000
 H      30.87700000      10.61500000       9.84400000
 H      30.33200000      11.93400000      10.05800000
 O      27.75700000      19.90100000       7.99800000
 H      26.80800000      19.77200000       8.21200000
 H      27.86200000      20.09400000       7.04100000
 O      29.83800000      17.96500000       6.81100000
 H      29.04100000      18.35300000       7.32000000
 H      29.79200000      16.95900000       6.80900000
 O      28.76600000      12.53300000       7.33200000
 H      28.08500000      12.81800000       8.02800000
 H      29.39500000      11.88900000       7.67600000
 O      27.97600000      19.52300000       1.26000000
 H      28.88200000      19.31200000       1.68700000
 H      27.97400000      20.54300000       1.21600000
 O      27.57000000      16.52400000       2.44800000
 H      27.65800000      17.45200000       2.29600000
 H      27.46900000      16.02300000       1.60600000
 O      27.49400000      13.05100000       9.75300000
 H      26.54200000      12.88700000      10.00400000
 H      27.89200000      12.43700000      10.36900000
 O      26.40400000      18.04700000       4.75400000
 H      26.90100000      17.22000000       4.47600000
 H      25.82800000      17.56400000       5.30900000
 O      30.54400000      18.40500000       3.98700000
 H      30.04100000      18.38700000       4.88900000
 H      30.89500000      17.46500000       3.87200000
 O      29.01600000      12.16300000       4.41200000
 H      29.24000000      11.88800000       5.32200000
 H      28.67000000      11.27700000       4.16200000
 O      27.89600000      13.04800000       1.57700000
 H      28.62300000      12.45300000       1.28000000
 H      28.16700000      13.40100000       2.44300000
 O      34.26400000      19.53000000       8.89300000
 H      34.68100000      18.70600000       9.38300000
 H      34.14300000      19.35400000       7.92200000
 O      37.40000000      11.02400000       1.74000000
 H      37.26400000      10.18900000       2.31200000
 H      36.47100000      11.45000000       1.64200000
 O      32.56900000      20.87000000       6.00500000
 H      32.52800000      20.22400000       5.24600000
 H      31.72100000      20.70200000       6.54500000
 O      34.13400000      16.57500000       1.17400000
 H      34.59200000      17.13200000       1.76700000
 H      34.83500000      15.97700000       0.73700000
 O      34.16900000      15.00200000       8.56700000
 H      35.10500000      15.24800000       8.74000000
 H      33.83100000      15.43000000       9.45300000
 O      33.78700000      13.25800000       4.00800000
 H      34.75400000      12.99200000       4.08400000
 H      33.39000000      12.61100000       3.38500000
 O      35.60200000      16.05500000       3.92600000
 H      34.66000000      15.66900000       3.83200000
 H      35.48400000      16.89300000       4.48600000
 O      34.96300000      19.15000000       3.57900000
 H      34.11300000      19.06200000       3.05400000
 H      35.06500000      20.12000000       3.56200000
 O      34.93700000       9.97900000       8.30300000
 H      34.80500000      10.91400000       8.10100000
 H      34.46200000       9.78600000       9.11800000
 O      36.23500000      20.18100000       6.48800000
 H      36.67000000      19.33700000       6.40100000
 H      35.87300000      20.44800000       5.59300000
 O      36.22400000      11.97200000       4.34600000
 H      37.01000000      11.30100000       4.38300000
 H      35.49400000      11.35300000       4.48800000
 O      34.36000000      12.02800000       1.23400000
 H      33.58300000      12.38600000       0.69700000
 H      34.37800000      11.10100000       0.88100000
 O      36.52300000      12.98300000       7.09500000
 H      36.45500000      12.88600000       6.10700000
 H      36.87500000      13.90800000       7.19900000
 O      33.62400000      12.77200000       7.08800000
 H      34.53400000      12.89900000       6.78500000
 H      33.38800000      13.54300000       7.67800000
 O      33.73000000      10.24500000       4.28900000
 H      33.75700000       9.40500000       4.86000000
 H      33.41400000      10.94400000       4.89300000
 O      33.64200000      19.91600000       0.94100000
 H      33.84600000      20.78200000       1.29500000
 H      33.23700000      20.24800000       0.10700000
 O      34.12600000      18.02500000       6.45400000
 H      34.05600000      18.23100000       5.54500000
 H      33.20300000      17.75000000       6.69200000
 O      32.91500000      15.72700000       4.86400000
 H      33.02300000      14.83500000       4.45200000
 H      32.44500000      15.52300000       5.69800000
