%chk=cluster_254.chk
%mem=6GB
%nproc=4
#b3lyp/6-31G** scrf=(cpcm,Solvent=Water) nosymm force
iop(2/11=1) 
 Geom=(NoDistance,NoAngle)

cluster_254

0 1
 O       8.45400000      19.86500000      17.23000000
 H       8.37500000      18.95400000      16.93900000
 H       8.67800000      20.18200000      16.34300000
 O      11.40500000      18.50300000      18.74800000
 H      10.59400000      18.83500000      19.28500000
 H      12.07100000      19.26500000      18.92400000
 O       7.17500000      19.71200000      14.54800000
 H       7.17400000      20.70900000      14.65000000
 H       7.49400000      19.46800000      13.64000000
 O       8.84300000      19.34500000      19.95200000
 H       8.72100000      19.39100000      18.97000000
 H       8.01900000      18.80600000      20.18000000
 O      10.80500000      20.16100000      14.26700000
 H      11.21800000      21.06200000      13.93800000
 H      11.52200000      19.59500000      13.86100000
 O      13.96300000      19.22200000      16.80200000
 H      14.50700000      18.40300000      16.59400000
 H      13.19900000      18.82200000      17.28100000
 O      14.45800000      23.12800000      18.18400000
 H      15.03800000      22.25100000      18.02800000
 H      13.60100000      23.02800000      17.83000000
 O      11.33400000      22.73900000      17.11000000
 H      11.42000000      22.34400000      16.23000000
 H      10.44600000      22.47100000      17.45300000
 O       7.29000000      23.45800000      19.56400000
 H       8.26900000      23.67200000      19.72400000
 H       7.16000000      22.94200000      18.74500000
 O      13.23500000      22.36700000      20.73900000
 H      13.63200000      21.47700000      20.85100000
 H      13.81300000      22.86700000      20.14600000
 O       6.74200000      25.59600000      17.40900000
 H       7.02400000      24.77100000      16.96800000
 H       6.07700000      26.06500000      16.77800000
 O      12.68000000      23.73200000      13.75700000
 H      13.26400000      23.39500000      14.43500000
 H      13.13100000      23.48500000      12.87200000
 O      10.07500000      23.79600000      19.85000000
 H      10.39400000      24.77400000      19.84200000
 H      10.81600000      23.16800000      19.93500000
 O       7.74100000      23.54100000      15.04000000
 H       7.00500000      24.14800000      14.79200000
 H       8.58900000      23.96100000      14.73800000

