39
XYZ file of cluster: frame_15500_9bdfa.16cc.cea98 - created by MolEdiTo
 O      17.41500000       6.62800000      18.65800000
 H      17.29200000       6.04400000      17.82400000
 H      18.07700000       7.19500000      18.19400000
 O      14.36500000       5.98100000      18.32000000
 H      14.82000000       5.49500000      17.53500000
 H      14.96400000       6.67300000      18.55300000
 O      15.87600000       1.02700000      19.76800000
 H      15.93800000       0.77500000      20.71500000
 H      16.76700000       0.93200000      19.40000000
 O      14.22600000       2.87800000      18.17500000
 H      14.88900000       2.66400000      18.90500000
 H      13.73700000       3.63600000      18.49400000
 O      18.01500000       3.12000000      18.32200000
 H      17.45200000       3.24400000      17.54800000
 H      18.80700000       3.52900000      17.91500000
 O      17.53200000       2.78700000      22.45800000
 H      17.88800000       1.86500000      22.49800000
 H      17.78000000       3.00700000      21.57200000
 O      19.46800000       6.18700000      21.61400000
 H      19.15200000       5.62000000      20.84900000
 H      19.43800000       5.60600000      22.41700000
 O      16.67600000       3.82100000      24.81800000
 H      17.02400000       3.69100000      23.85700000
 H      15.82900000       3.33000000      24.88300000
 O      14.20200000       7.29900000      22.19900000
 H      14.24100000       6.51800000      22.75300000
 H      13.33100000       7.16600000      21.68600000
 O      19.96300000       0.87100000      22.01100000
 H      20.88000000       1.05800000      22.37200000
 H      20.05900000       0.20800000      21.24800000
 O      14.50200000       2.26200000      23.44800000
 H      13.72000000       1.83000000      23.07000000
 H      14.61600000       2.95200000      22.75300000
 O      19.62300000       1.05200000      24.69400000
 H      19.62400000       1.34400000      23.75700000
 H      19.68200000       0.12200000      24.54400000
 O      15.30000000       4.05400000      21.47400000
 H      15.26700000       4.80600000      20.90300000
 H      16.24500000       3.83200000      21.31600000
