42
XYZ file of cluster: frame_15500_0.6d7e4.c4507 - created by MolEdiTo
 O       6.94100000      12.16200000      18.81500000
 H       7.79800000      11.81900000      19.19100000
 H       6.92900000      13.10900000      18.87500000
 O       1.93600000      17.51100000      17.24300000
 H       1.45400000      16.93700000      17.92600000
 H       2.37500000      16.87600000      16.65700000
 O       1.25900000      13.60500000      19.18200000
 H       1.48500000      13.62600000      18.23300000
 H       2.11600000      13.70500000      19.65400000
 O       6.66700000      15.14600000      18.70600000
 H       7.54600000      15.29000000      18.29300000
 H       6.10400000      14.94300000      17.86000000
 O       4.69600000      10.80200000      19.40400000
 H       5.59600000      11.20200000      19.45000000
 H       4.56100000      10.25100000      20.20400000
 O       3.56800000      12.78700000      17.49400000
 H       4.49800000      13.04200000      17.77700000
 H       3.26900000      12.22000000      18.24100000
 O       7.04000000      13.71500000      22.58700000
 H       6.48000000      13.86200000      23.41400000
 H       7.29800000      14.57400000      22.39000000
 O       5.69400000      10.13000000      23.05300000
 H       4.88400000      10.73400000      22.94900000
 H       5.56200000       9.83400000      23.99400000
 O       2.49200000      16.54000000      21.85200000
 H       2.91800000      15.69900000      21.89500000
 H       1.96100000      16.52500000      22.70100000
 O       0.44400000      14.21300000      23.11300000
 H       1.29800000      14.00700000      23.56100000
 H       0.00000000      14.70500000      23.84000000
 O       0.44300000      10.29500000      24.98200000
 H       0.63100000      10.54300000      24.09500000
 H       0.12900000       9.37600000      24.80600000
 O       3.74700000      13.90200000      21.14800000
 H       3.96300000      13.09200000      21.72300000
 H       4.64700000      14.08800000      20.90400000
 O       1.12700000      10.89600000      22.35600000
 H       0.37700000      10.75000000      21.78900000
 H       1.58900000      10.03800000      22.32500000
 O       3.39100000      11.67300000      23.29400000
 H       3.17300000      12.51400000      23.73400000
 H       2.60000000      11.29600000      22.86300000
