55
XYZ file of cluster: frame_15500_23e27.25ac6.4b64a - created by MolEdiTo
 O       3.06900000       5.98900000      13.22700000
 H       3.58300000       6.82700000      13.19500000
 H       3.61900000       5.29200000      12.77300000
 O       6.25400000       9.43800000      12.19900000
 H       6.49500000      10.21000000      12.76000000
 H       6.51200000       8.64800000      12.74000000
 O       6.55800000       5.32800000       7.19100000
 H       6.44900000       5.33900000       8.10800000
 H       7.15100000       6.00700000       7.00400000
 O       8.86800000       8.71300000      13.41000000
 H       8.38400000       7.89800000      13.44100000
 H       9.13000000       8.75800000      12.42500000
 O       5.48100000       5.56500000       9.95400000
 H       4.53500000       5.43500000       9.92100000
 H       5.71900000       5.38500000      10.82800000
 O       6.20300000       9.24400000       6.39700000
 H       6.82800000       9.11900000       7.12600000
 H       5.53200000       9.84200000       6.85500000
 O       9.42000000       6.43900000       8.14700000
 H       9.99800000       6.29000000       8.89500000
 H       9.34500000       5.66100000       7.47500000
 C      10.70800000      11.88600000      11.36100000
 C      11.54300000      10.97900000      10.41800000
 C       9.37500000       9.70500000       9.96100000
 H      10.35800000      11.04000000       8.51400000
 H       9.18900000      12.99200000      11.38500000
 O      11.40800000       9.29500000       8.58200000
 O      10.19800000      11.02500000      12.34700000
 O       9.67600000      12.52900000      10.70400000
 C      10.64300000      10.28600000       9.31600000
 O      12.52500000      11.65400000       9.62200000
 H      12.06800000      10.29600000      11.08900000
 O       9.80600000       8.44900000      10.61500000
 O       8.44200000       9.28400000       8.95900000
 H       8.45200000       8.30300000       9.01200000
 H      13.21500000      10.89100000       9.37900000
 H      11.14800000       8.34300000       8.70500000
 O       3.93300000       3.72600000       7.41700000
 H       4.78200000       3.71500000       7.82000000
 H       3.89000000       4.60500000       6.95700000
 O       8.19500000       5.11000000      11.54500000
 H       8.28600000       4.16700000      11.75500000
 H       9.12100000       5.52900000      11.39100000
 O       5.23300000       3.97700000      12.30600000
 H       5.14800000       3.73900000      13.23600000
 H       4.80900000       3.22600000      11.89200000
 O       3.96600000       8.33800000      11.28500000
 H       4.82300000       8.76000000      11.39700000
 H       3.52700000       8.69100000      12.05800000
 O       6.45600000       6.64700000      13.18600000
 H       5.78800000       6.38900000      12.55900000
 H       7.15600000       6.09000000      12.81000000
 O       5.60100000      10.31300000       9.22200000
 H       4.90700000       9.82200000       9.76000000
 H       6.40100000      10.12500000       9.87100000
