48
XYZ file of cluster: frame_15500_a37c4.67aa7.9c657 - created by MolEdiTo
 O      19.00500000      11.21200000      19.75600000
 H      18.11000000      11.34000000      19.42700000
 H      19.33700000      12.09900000      19.93700000
 O      19.81500000      12.39000000      13.42400000
 H      19.47300000      11.46400000      13.66200000
 H      20.49300000      12.50300000      14.13900000
 O      16.77400000      11.79700000      14.58700000
 H      16.96200000      10.87200000      14.80200000
 H      17.55400000      12.27000000      14.88400000
 O      17.04000000      15.83900000      14.24300000
 H      16.40400000      15.12100000      14.40900000
 H      17.36200000      15.84600000      13.27000000
 O      17.83800000       9.60900000      16.09900000
 H      18.33300000       8.87700000      16.57900000
 H      18.12100000      10.51900000      16.41000000
 O      19.89800000      16.37900000      18.75800000
 H      20.24900000      15.62300000      19.25100000
 H      19.80700000      17.05600000      19.47900000
 O      19.91900000      11.60700000      16.64000000
 H      19.99700000      10.96900000      17.32200000
 H      19.84600000      12.53100000      17.02100000
 O      16.95000000      17.59900000      18.40200000
 H      17.40000000      18.37400000      18.79600000
 H      17.55800000      16.95400000      18.01400000
 O      19.13600000      14.39600000      16.81100000
 H      19.13600000      14.73700000      17.75800000
 H      19.54100000      15.09200000      16.28000000
 O      17.17900000      14.90200000      19.49700000
 H      17.11800000      14.49500000      20.39000000
 H      16.95800000      15.83600000      19.70100000
 O      13.98200000      11.92300000      16.51200000
 H      14.94000000      12.02800000      16.19800000
 H      14.05200000      11.04200000      16.89600000
 O      15.07200000      12.11900000      19.84800000
 H      14.10300000      12.40900000      19.65600000
 H      15.05500000      11.22900000      20.17900000
 O      16.93400000      12.54300000      17.95000000
 H      16.15400000      12.41000000      18.56100000
 H      17.15900000      13.46800000      18.14300000
 O      14.31800000      14.69000000      17.87300000
 H      14.06500000      14.79300000      18.84700000
 H      14.87200000      13.85800000      17.79400000
 O      14.35300000      17.35100000      15.99800000
 H      14.45500000      16.56900000      16.61300000
 H      15.09400000      17.23700000      15.33800000
 O      20.18100000      16.15900000      14.42700000
 H      20.18700000      16.81500000      13.67800000
 H      19.28200000      15.72900000      14.46600000
