42
XYZ file of cluster: frame_15500_7d3d3.1f1c4.cc0eb - created by MolEdiTo
 O      10.71100000       4.12800000      17.92100000
 H      10.97500000       3.19700000      17.88100000
 H      11.58700000       4.60900000      17.95200000
 O      17.41500000       6.62800000      18.65800000
 H      17.29200000       6.04400000      17.82400000
 H      18.07700000       7.19500000      18.19400000
 O      14.36500000       5.98100000      18.32000000
 H      14.82000000       5.49500000      17.53500000
 H      14.96400000       6.67300000      18.55300000
 O      15.05200000       9.61500000      17.85400000
 H      14.91500000       8.75900000      17.31400000
 H      14.87200000       9.39500000      18.78100000
 O      14.22600000       2.87800000      18.17500000
 H      14.88900000       2.66400000      18.90500000
 H      13.73700000       3.63600000      18.49400000
 O      12.46100000       8.02900000      18.67200000
 H      11.60700000       7.81100000      18.34100000
 H      12.98400000       7.19200000      18.86700000
 O      11.56900000       5.56500000      21.45900000
 H      11.20200000       4.77300000      21.89100000
 H      10.82700000       5.91800000      20.88500000
 O      16.67600000       3.82100000      24.81800000
 H      17.02400000       3.69100000      23.85700000
 H      15.82900000       3.33000000      24.88300000
 O      14.20200000       7.29900000      22.19900000
 H      14.24100000       6.51800000      22.75300000
 H      13.33100000       7.16600000      21.68600000
 O      12.11300000      10.48100000      21.44400000
 H      11.19100000      10.10600000      21.40100000
 H      12.65000000       9.77800000      20.99400000
 O      13.59700000       5.21400000      24.13000000
 H      12.80700000       5.41500000      24.65500000
 H      13.13200000       4.42600000      23.65700000
 O      14.23300000       8.90900000      24.73200000
 H      13.95700000       8.63100000      23.79000000
 H      13.59000000       8.34900000      25.27500000
 O      16.16100000       9.40700000      21.38500000
 H      16.89000000       8.93200000      20.95400000
 H      15.64900000       8.62300000      21.66900000
 O      15.30000000       4.05400000      21.47400000
 H      15.26700000       4.80600000      20.90300000
 H      16.24500000       3.83200000      21.31600000
