48
XYZ file of cluster: frame_15500_18fcb.48378.9e9fa - created by MolEdiTo
 O       7.55200000       8.59400000      16.98400000
 H       6.90900000       8.30900000      16.28000000
 H       7.22700000       9.52900000      17.10600000
 O       6.94100000      12.16200000      18.81500000
 H       7.79800000      11.81900000      19.19100000
 H       6.92900000      13.10900000      18.87500000
 O       9.36000000       9.55900000      19.52200000
 H       9.34700000      10.34700000      18.95400000
 H       9.46600000       8.70600000      19.05900000
 O       3.08900000       9.22600000      14.02200000
 H       2.13700000       9.17300000      14.20800000
 H       3.49500000       8.78900000      14.75200000
 O       7.67200000      11.51900000      13.64700000
 H       7.85900000      12.06400000      14.47100000
 H       8.58100000      11.04200000      13.47000000
 O       5.38400000      13.00600000      14.00300000
 H       6.15400000      12.42500000      13.72100000
 H       4.64300000      12.69700000      13.45900000
 O       4.84600000       7.63900000      16.08200000
 H       4.08100000       7.55300000      16.63600000
 H       5.14900000       6.75700000      16.10900000
 O      10.87200000       9.93900000      15.00800000
 H      10.91500000      10.47200000      14.14600000
 H      10.31500000       9.21100000      14.71300000
 O       3.56800000      12.78700000      17.49400000
 H       4.49800000      13.04200000      17.77700000
 H       3.26900000      12.22000000      18.24100000
 O       4.69600000      10.80200000      19.40400000
 H       5.59600000      11.20200000      19.45000000
 H       4.56100000      10.25100000      20.20400000
 O       8.24400000      13.03900000      16.06800000
 H       8.82600000      13.77300000      16.39600000
 H       8.45800000      12.38300000      16.74400000
 O       9.62000000       7.12500000      18.38100000
 H       9.17500000       6.24700000      18.43800000
 H       9.18300000       7.51300000      17.54300000
 O       6.16200000      10.79000000      16.31800000
 H       5.41200000      10.87000000      15.77200000
 H       6.55400000      11.65900000      16.43700000
 O       6.38400000       6.92300000      19.12300000
 H       6.82200000       7.81600000      18.87200000
 H       7.01000000       6.18400000      18.98200000
 O      10.36200000      11.28700000      17.32900000
 H      10.57200000      10.77600000      16.48400000
 H      10.93700000      12.07800000      17.42500000
 O       3.87000000       8.14600000      18.94400000
 H       4.08900000       9.05300000      18.62400000
 H       4.65400000       7.60100000      18.85700000
