%chk=cluster_502.chk
%mem=1GB
%nproc=4
#b3lyp/6-311++G** scrf=(cpcm,Solvent=Water) nosymm freq
iop(2/11=1) 
 Geom=(NoDistance,NoAngle)

cluster_502

0 1
 O      19.92400000       5.70500000      12.71300000
 H      20.06200000       6.64200000      12.91600000
 H      20.76400000       5.19500000      12.83300000
 O      17.39800000       4.20900000      12.86500000
 H      18.35700000       4.18900000      12.62200000
 H      17.30600000       5.11500000      13.35300000
 O      17.45200000       3.31800000       7.96200000
 H      17.90600000       2.47100000       7.98000000
 H      16.87600000       3.29400000       7.17600000
 O      17.47200000       0.94300000      13.21700000
 H      17.34600000       0.84900000      12.25800000
 H      17.74000000       0.00000000      13.40600000
 O      19.59600000       7.10300000       9.18400000
 H      18.99100000       7.84900000       9.00600000
 H      20.46900000       7.51100000       9.51300000
 O      19.54400000       4.26800000      10.19200000
 H      19.76600000       5.02200000      10.80100000
 H      18.92500000       4.66400000       9.56500000
 O      23.93700000       1.43800000      14.07000000
 H      24.76400000       0.99700000      14.20400000
 H      23.39800000       1.01200000      14.72000000
 O      22.89200000       4.68000000       8.70400000
 H      22.81800000       4.17300000       7.91100000
 H      22.07000000       4.58400000       9.25300000
 O      24.39100000       1.32700000       7.60300000
 H      23.57300000       0.80000000       7.40300000
 H      24.33800000       1.45300000       8.61900000
 O      23.74100000       5.24800000      13.18700000
 H      24.58300000       5.63900000      12.96200000
 H      23.91400000       4.32200000      13.29400000
 O      21.90100000       1.93700000       9.46700000
 H      21.35000000       2.79400000       9.65000000
 H      22.80600000       2.28200000       9.67900000
 O      24.58600000       7.04600000       8.82100000
 H      24.39300000       7.61100000       9.53500000
 H      23.90400000       6.29200000       8.96800000

