120
XYZ file of cluster: frame_1500_c5c7f.6fe49.98be8 - created by MolEdiTo
 O      25.43100000      21.38600000      25.73100000
 H      25.80200000      20.74900000      25.10400000
 H      26.20000000      21.33000000      26.41800000
 O      26.38100000      17.44300000      24.39200000
 H      26.39900000      18.41200000      24.30200000
 H      25.62300000      17.07900000      23.90000000
 O      27.68000000      20.59600000      27.77100000
 H      28.27100000      20.10100000      27.26600000
 H      27.44500000      19.91900000      28.46900000
 O      26.92500000      15.37200000      26.27700000
 H      27.10100000      15.84700000      25.43000000
 H      27.19200000      15.99400000      26.91300000
 O      26.68400000      19.96300000      23.56400000
 H      27.64000000      19.75700000      23.54700000
 H      26.50300000      20.09000000      22.64100000
 O      26.15400000      20.94900000      20.90600000
 H      25.73400000      21.74600000      21.23700000
 H      26.22000000      21.03000000      19.91600000
 O      26.27600000      23.02800000      23.58600000
 H      26.56300000      23.79000000      24.08100000
 H      25.57600000      22.67700000      24.13200000
 O      29.54000000      18.68400000      24.50900000
 H      30.35000000      19.14900000      24.85500000
 H      29.89900000      17.97800000      23.98600000
 O      27.56300000      19.00500000      29.99800000
 H      28.22100000      18.21800000      30.07600000
 H      27.95300000      19.82600000      30.47000000
 O      28.68800000      23.06100000      28.79500000
 H      28.75900000      22.98500000      29.75800000
 H      28.20500000      22.24500000      28.45500000
 O      28.43900000      17.35000000      27.29200000
 H      28.98500000      17.97100000      27.93200000
 H      28.22700000      17.96800000      26.52200000
 O      29.16800000      25.89500000      29.71000000
 H      28.58800000      25.63200000      30.50500000
 H      30.14400000      25.90900000      30.09600000
 O      29.57300000      16.79400000      30.25000000
 H      29.72200000      16.71800000      29.24600000
 H      29.61100000      15.85300000      30.58100000
 O      29.21000000      15.85400000      21.11400000
 H      28.25700000      15.98800000      20.90800000
 H      29.18700000      15.70600000      22.07500000
 O      28.52700000      22.61200000      25.50100000
 H      28.14200000      23.47100000      25.71100000
 H      27.97500000      22.01600000      25.97800000
 O      29.08600000      22.08300000      22.25200000
 H      29.22500000      23.02600000      22.15700000
 H      28.31100000      21.94900000      22.76400000
 O      25.68200000      17.20100000      28.82400000
 H      26.47300000      17.76200000      29.14400000
 H      25.99200000      16.44900000      28.23500000
 O      30.25700000      19.34700000      28.35900000
 H      30.86200000      18.82400000      28.95200000
 H      30.66000000      20.25600000      28.55100000
 O      29.36700000      25.09000000      22.58600000
 H      30.14000000      25.04400000      23.19700000
 H      28.65400000      25.14800000      23.22400000
 O      26.88400000      17.63000000      20.64800000
 H      26.47200000      18.00200000      21.46100000
 H      27.68000000      18.19600000      20.61200000
 O      27.24000000      25.56000000      24.34500000
 H      27.27300000      25.72100000      25.36100000
 H      27.23000000      26.45700000      23.98600000
 O      27.20100000      25.45500000      27.13200000
 H      26.64000000      26.03700000      27.74200000
 H      27.81900000      25.06500000      27.74600000
 O      29.41600000      19.41600000      21.34000000
 H      29.18300000      20.19600000      21.94100000
 H      30.37700000      19.57400000      21.07900000
 O      34.12800000      18.32700000      29.82300000
 H      34.66600000      18.84400000      30.48100000
 H      33.82200000      17.57400000      30.32600000
 O      35.63000000      24.63100000      24.39900000
 H      35.27300000      24.99400000      25.22400000
 H      35.00800000      24.00200000      23.96600000
 O      34.49200000      26.05200000      26.48900000
 H      34.59500000      26.91000000      27.01200000
 H      33.66500000      25.76300000      26.96000000
 O      33.06000000      16.46100000      25.27100000
 H      33.22000000      15.86100000      26.02000000
 H      33.98100000      16.76200000      25.00100000
 O      34.40600000      25.40200000      21.57300000
 H      34.10500000      24.48700000      21.62200000
 H      34.17400000      25.87200000      22.42200000
 O      33.82300000      22.72100000      23.01200000
 H      33.70500000      21.88000000      23.37900000
 H      33.23400000      23.25600000      23.60600000
 O      32.22300000      24.97300000      27.65700000
 H      31.73400000      24.21600000      28.09300000
 H      32.02700000      25.72400000      28.17700000
 O      34.27400000      19.33400000      21.16500000
 H      34.72400000      18.46000000      21.42400000
 H      34.36800000      19.91400000      21.96100000
 O      33.93400000      21.71400000      26.05400000
 H      33.59000000      22.06600000      26.87700000
 H      34.35000000      20.81900000      26.19600000
 O      36.66000000      17.37200000      24.79500000
 H      37.50600000      17.80900000      24.95700000
 H      36.16600000      18.19600000      24.65900000
 O      35.49400000      19.26400000      26.98500000
 H      35.04700000      18.94700000      27.75500000
 H      36.39800000      19.21100000      27.18600000
 O      35.46700000      19.96400000      23.69700000
 H      35.14700000      20.32500000      24.49900000
 H      36.46900000      19.81200000      23.83900000
 O      33.56000000      22.64200000      28.94000000
 H      33.81100000      22.57300000      29.87900000
 H      33.05300000      23.43100000      29.01500000
 O      36.34200000      23.58400000      27.56600000
 H      36.13400000      24.43900000      27.91600000
 H      35.55700000      23.20500000      27.05100000
 O      36.54100000      14.95200000      29.68400000
 H      36.99500000      15.67700000      29.23900000
 H      37.04100000      14.88600000      30.52500000
 O      36.29800000      14.73400000      20.49200000
 H      36.14500000      15.68100000      20.64600000
 H      36.10400000      14.36400000      21.38300000
 O      32.18300000      23.97000000      24.90300000
 H      32.59200000      24.40800000      25.61900000
 H      31.39200000      23.50100000      25.16200000
