169
XYZ file of cluster: frame_1500_4e0f3.4c1f4.664b7 - created by MolEdiTo
 O      12.88000000      11.59500000      18.12100000
 H      12.02600000      11.59300000      17.61300000
 H      13.58800000      12.00100000      17.55400000
 O      10.93700000      15.93800000      17.28400000
 H      10.03700000      16.07400000      16.81700000
 H      11.59500000      15.96800000      16.54800000
 O      12.14000000      19.77900000      26.57200000
 H      12.75500000      20.28200000      27.18800000
 H      11.56400000      20.45900000      26.16900000
 O      13.39200000      21.17600000      22.49400000
 H      13.84100000      20.51900000      23.01700000
 H      13.03200000      20.65700000      21.75900000
 O      19.49500000      10.82800000      17.31300000
 H      20.07000000      10.88800000      18.13300000
 H      19.82800000      10.09500000      16.79500000
 O      19.22200000      13.13600000      15.28800000
 H      19.33300000      12.23000000      14.97200000
 H      18.61500000      13.03500000      15.98700000
 O      11.53600000      17.92300000      18.92000000
 H      11.78100000      18.74900000      19.32700000
 H      10.53400000      17.89600000      18.74600000
 O      20.63800000      16.03300000      17.49600000
 H      20.25700000      16.88600000      17.17200000
 H      20.05500000      15.47600000      16.97400000
 O      20.04500000      19.38300000      25.05900000
 H      20.35300000      18.60000000      24.48700000
 H      19.21100000      18.98600000      25.43300000
 O      14.39500000      13.03800000      19.12600000
 H      14.23800000      12.41600000      18.33200000
 H      13.85000000      13.80000000      18.83900000
 O      11.59500000      19.93400000      21.15200000
 H      10.96000000      20.63100000      21.35300000
 H      12.21000000      20.36100000      20.53100000
 O      14.95400000      12.24100000      21.77400000
 H      14.80700000      12.35700000      20.82300000
 H      15.93000000      12.25200000      21.89300000
 O      12.37700000      12.02900000      23.02900000
 H      13.30300000      12.26500000      23.25100000
 H      12.06400000      11.37200000      23.63400000
 O      18.67500000      13.09100000      26.74800000
 H      18.06000000      13.27400000      26.01500000
 H      19.56500000      13.16900000      26.34200000
 O      17.90700000      16.96800000      26.41200000
 H      17.31900000      16.24700000      26.46600000
 H      18.06400000      17.26600000      27.36100000
 O      15.88200000      20.14300000      24.32100000
 H      16.01400000      19.91300000      25.28000000
 H      16.17800000      21.06700000      24.33400000
 O      15.75900000      14.73000000      26.06500000
 H      15.75100000      14.26600000      27.03100000
 H      15.13500000      14.19400000      25.57700000
 O      13.52200000      12.67000000      25.47500000
 H      12.65000000      12.57900000      25.90500000
 H      14.13500000      12.03400000      25.94400000
 O      19.89700000      16.99300000      23.04300000
 H      19.11400000      16.48200000      22.79100000
 H      20.31500000      17.13800000      22.19400000
 O      17.23800000      10.50700000      18.42700000
 H      17.85600000       9.77200000      18.42400000
 H      17.33900000      10.97200000      19.29100000
 O      17.45900000      13.75100000      24.29400000
 H      17.43800000      14.21200000      23.38300000
 H      16.56100000      13.98900000      24.75000000
 O      15.60700000      12.17800000      17.71600000
 H      16.25200000      11.65700000      18.35800000
 H      15.67500000      11.82600000      16.82600000
 O      12.65400000      19.39000000      17.76200000
 H      11.97000000      20.00000000      18.07800000
 H      12.20400000      18.72600000      17.28100000
 O      12.51500000      17.94700000      22.75400000
 H      11.84600000      17.86100000      23.51100000
 H      12.24100000      18.69200000      22.16700000
 O      20.69900000      20.87000000      16.61800000
 H      20.83700000      21.19700000      15.70200000
 H      21.62800000      21.13900000      16.92700000
 O      11.45300000      13.25900000      19.60800000
 H      12.30700000      12.80200000      19.79400000
 H      11.07100000      12.50400000      18.99800000
 O      16.62900000      17.52400000      23.92600000
 H      16.46900000      18.53700000      23.80800000
 H      17.12400000      17.44800000      24.71700000
 O      21.59600000      13.37300000      17.16800000
 H      20.87000000      13.08200000      16.55600000
 H      21.35500000      14.26900000      17.43300000
 O      15.19900000      18.82600000      20.84000000
 H      15.98900000      18.22200000      20.69600000
 H      14.48500000      18.18800000      20.83500000
 O      12.81900000      20.17800000      19.93700000
 H      12.97400000      21.03600000      19.43900000
 H      13.70700000      19.70800000      19.83000000
 O      11.11000000      13.58900000      21.48400000
 H      10.54000000      14.32500000      21.78700000
 H      11.24200000      13.54500000      20.48000000
 O      19.38900000      19.78200000      18.81000000
 H      19.95300000      20.11400000      18.10200000
 H      19.86300000      20.14100000      19.58100000
 O      12.07900000      11.43700000      20.10300000
 H      12.79600000      11.96000000      19.73600000
 H      11.97400000      11.83300000      20.97100000
 O      19.41900000      10.37000000      22.02500000
 H      19.02500000      11.18800000      21.63700000
 H      18.65100000       9.83300000      22.05700000
 O      11.84800000      11.58900000      26.32300000
 H      11.17100000      10.84500000      26.27900000
 H      11.63900000      12.09000000      25.44600000
 O      16.36000000      15.39600000      22.25500000
 H      15.49300000      15.61600000      21.77400000
 H      16.37600000      16.17700000      22.90100000
 O      15.03700000      20.19900000      17.13800000
 H      15.49000000      20.76900000      17.84200000
 H      14.14100000      19.93800000      17.45700000
 O      15.66100000      20.90800000      18.75400000
 H      16.30400000      20.17200000      18.82600000
 H      15.44900000      21.22700000      19.66600000
 C      16.65800000      15.63700000      17.42200000
 C      15.22500000      15.94800000      16.97100000
 C      15.52000000      15.68300000      14.40100000
 H      15.88400000      17.40100000      15.60700000
 H      16.29000000      13.93400000      17.19500000
 O      13.85000000      17.03300000      15.45700000
 O      17.36400000      16.64900000      17.51200000
 O      17.13900000      14.42100000      17.20400000
 C      15.18200000      16.55400000      15.59100000
 O      14.48200000      14.73100000      17.18300000
 H      14.81600000      16.68800000      17.69100000
 O      15.36900000      14.44200000      14.36200000
 O      15.97500000      16.32700000      13.33800000
 H      15.87500000      17.24300000      13.63600000
 H      13.56500000      15.00100000      17.31200000
 H      13.79900000      17.92900000      15.96400000
 O      18.61400000      15.82700000      20.76600000
 H      19.26800000      15.37200000      20.23400000
 H      18.26400000      16.58200000      20.27800000
 O      17.16800000      10.85700000      23.72600000
 H      16.48200000      11.51600000      24.03300000
 H      17.91400000      11.34200000      24.13400000
 O      18.40400000      12.65900000      20.98500000
 H      17.88100000      13.45300000      21.00800000
 H      18.99700000      12.85700000      20.21600000
 O      11.68100000      12.38700000      16.73000000
 H      10.79100000      12.08300000      17.01900000
 H      11.74500000      13.32300000      16.99900000
 O      11.62900000      14.90600000      24.97100000
 H      12.34100000      14.18100000      25.17700000
 H      11.07600000      14.39300000      24.35900000
 O      12.21900000      15.37400000      18.73500000
 H      11.27200000      15.11000000      18.63000000
 H      12.09000000      16.21200000      19.33000000
 O      17.55200000      19.72200000      16.14500000
 H      18.09600000      19.52200000      16.94500000
 H      16.70400000      19.86800000      16.52200000
 O      10.67100000      12.37800000      23.95700000
 H      10.19800000      11.54000000      24.10300000
 H      10.88600000      12.46500000      22.97500000
 O      17.50000000      18.06600000      19.13300000
 H      18.22100000      18.63000000      19.55300000
 H      17.87800000      17.98000000      18.19100000
 O      13.13100000      16.50000000      21.06200000
 H      12.46000000      17.11800000      20.58900000
 H      12.82400000      16.51800000      22.03000000
 O      13.36400000      17.97900000      25.76400000
 H      12.42200000      18.12500000      25.42100000
 H      13.67600000      17.23100000      25.19800000
 O      20.66900000      20.78800000      19.91000000
 H      21.25900000      20.36200000      20.50900000
 H      20.32300000      21.56900000      20.39100000
 O      20.42800000      14.08600000      19.05600000
 H      21.31400000      14.11700000      19.47300000
 H      20.49800000      14.80500000      18.40600000
