102
XYZ file of cluster: frame_1500_2d4b.22ca1.ca306 - created by MolEdiTo
 O       2.24200000      14.98800000      27.71300000
 H       3.21700000      15.23400000      27.90200000
 H       1.76400000      14.54700000      28.47300000
 O       5.14900000      14.95200000      29.68400000
 H       5.60300000      15.67700000      29.23900000
 H       5.64900000      14.88600000      30.52500000
 O       8.08800000       4.46600000      29.26800000
 H       8.09400000       4.83400000      28.32300000
 H       8.22100000       5.26800000      29.82400000
 O       3.96800000       7.85200000      27.57000000
 H       4.21600000       7.00800000      27.26600000
 H       3.04600000       7.91400000      27.17500000
 O       6.30300000       8.62600000      29.12600000
 H       7.19800000       8.73700000      28.77500000
 H       5.71300000       8.33200000      28.31500000
 O       5.72300000      11.57400000      30.91000000
 H       5.47200000      11.63400000      31.77900000
 H       5.89000000      10.62300000      30.83600000
 O       1.08100000       8.15000000      28.02700000
 H       0.36400000       8.21200000      28.73400000
 H       1.77300000       7.65000000      28.55900000
 O       7.08900000      12.32400000      28.44800000
 H       6.51000000      12.29300000      29.27300000
 H       7.92400000      12.24500000      28.90900000
 O       6.06400000      10.14700000      26.54600000
 H       6.63900000      10.42400000      27.24500000
 H       5.50400000      10.91400000      26.41300000
 O       7.68700000      14.09000000      30.80400000
 H       7.07700000      14.04200000      31.59900000
 H       7.83500000      13.15400000      30.77100000
 O       3.88900000       8.75200000      30.67100000
 H       3.27400000       9.17100000      30.08500000
 H       4.70200000       8.77800000      30.10600000
 O      11.42600000       8.73100000      27.01100000
 H      11.79100000       8.15400000      27.81000000
 H      10.41200000       8.77600000      27.20200000
 O       1.28600000      14.11900000      30.66400000
 H       1.54000000      13.23700000      31.07800000
 H       1.83700000      14.80300000      31.00800000
 O       4.22900000      12.58900000      28.01400000
 H       3.70200000      13.15400000      27.39800000
 H       4.94100000      13.11900000      28.33900000
 O       8.70900000       7.46500000      27.19400000
 H       8.28100000       7.11500000      26.36300000
 H       8.11700000       7.04700000      27.94500000
 O       8.86600000       6.75300000      30.38600000
 H       8.35700000       7.45100000      30.73100000
 H       9.82100000       6.92200000      30.52100000
 O       7.21400000      14.40100000      26.83800000
 H       7.63900000      15.07700000      27.41400000
 H       7.31000000      13.46500000      27.17500000
 O       2.57300000      10.60400000      28.97700000
 H       2.39900000      10.14100000      28.07800000
 H       3.26600000      11.22900000      28.69100000
 O       4.74500000      15.33800000      37.45100000
 H       4.30000000      15.47500000      38.33700000
 H       4.14000000      14.66300000      36.98400000
 O       5.61000000      11.21800000      35.87100000
 H       6.33500000      10.58900000      35.96000000
 H       5.44200000      11.55200000      36.74600000
 O       8.51000000       5.25400000      34.93500000
 H       8.99000000       4.60500000      34.37000000
 H       8.17500000       4.64400000      35.66500000
 O       1.68900000       6.75700000      32.99600000
 H       0.89900000       7.23700000      33.35400000
 H       2.50100000       7.36100000      33.19900000
 O      10.92900000       5.83800000      36.96900000
 H      10.78500000       5.65200000      37.92400000
 H      10.19700000       6.46800000      36.66100000
 O      10.04000000      15.53900000      33.84500000
 H       9.10000000      15.74800000      33.56900000
 H      10.23800000      14.69300000      33.36000000
 O       3.36300000      13.32800000      35.33500000
 H       2.84200000      13.10200000      34.53200000
 H       4.22100000      12.84500000      35.01200000
 O       2.08400000      13.28200000      37.74300000
 H       2.46500000      13.35900000      36.81300000
 H       1.48300000      14.09300000      37.85600000
 O       2.61100000      11.74700000      33.26100000
 H       2.87700000      11.02100000      33.88600000
 H       2.47200000      11.25500000      32.42000000
 O       2.91000000       6.67900000      36.42300000
 H       3.57700000       7.30100000      36.79800000
 H       3.48200000       6.02200000      36.07800000
 O       7.03300000       7.36600000      36.60500000
 H       7.72000000       6.84300000      36.32700000
 H       6.62600000       6.95300000      37.47500000
 O       3.63800000       9.39700000      37.65800000
 H       3.22300000      10.15900000      38.07900000
 H       4.08900000       9.63200000      36.86100000
 O       7.98100000      10.22400000      35.39300000
 H       7.80600000       9.25100000      35.63200000
 H       8.87400000      10.43700000      35.73300000
 O       6.81500000      15.09700000      35.42600000
 H       6.33600000      14.44700000      35.90100000
 H       7.67700000      14.98200000      35.84900000
 O       8.78700000      11.57900000      33.07200000
 H       9.72400000      11.22700000      32.91100000
 H       8.56900000      11.03500000      33.89200000
 O       8.90300000      14.35600000      37.27500000
 H       9.89200000      14.19200000      37.05400000
 H       8.96900000      14.95800000      38.01400000
