129
XYZ file of cluster: frame_1500_20349.c4d94.c3b55 - created by MolEdiTo
 O      15.18300000      30.62300000      30.37300000
 H      14.58700000      29.89700000      30.16300000
 H      14.84800000      30.96200000      31.22800000
 O      14.93500000      29.61600000      26.84500000
 H      14.60300000      30.52100000      26.70300000
 H      14.13500000      28.98500000      26.88300000
 O      13.69800000      27.75700000      30.17000000
 H      14.28500000      27.28200000      29.53500000
 H      14.13200000      27.59900000      31.06400000
 O      11.32500000      28.12100000      28.32000000
 H      11.86300000      28.03200000      27.52400000
 H      11.62700000      29.04400000      28.61700000
 O       6.34100000      27.94200000      26.71800000
 H       6.71200000      27.05900000      26.39300000
 H       7.15600000      28.40800000      27.08700000
 O      11.90300000      25.46000000      28.43300000
 H      11.77600000      25.27000000      27.52100000
 H      12.10900000      26.47000000      28.38200000
 O      14.57300000      26.11800000      27.79700000
 H      14.28600000      26.07900000      26.86700000
 H      15.16000000      25.40300000      27.99500000
 O       9.47000000      28.34500000      30.24200000
 H       9.78700000      29.31100000      30.30300000
 H      10.31200000      27.93300000      30.44400000
 O       9.35700000      28.07800000      27.36500000
 H       9.50500000      28.28500000      28.33400000
 H       9.20300000      27.07800000      27.54900000
 O      11.97700000      26.74000000      30.92300000
 H      11.64000000      26.00900000      30.32900000
 H      12.62500000      27.17100000      30.35000000
 O       5.40000000      26.34900000      28.96500000
 H       5.30400000      26.88000000      28.13400000
 H       4.67600000      26.69400000      29.51700000
 O       5.64600000      29.11800000      37.20500000
 H       6.45900000      29.55000000      37.57800000
 H       5.49500000      29.65600000      36.40700000
 O      13.18700000      30.53500000      34.45000000
 H      12.92100000      29.69900000      34.02600000
 H      13.07500000      30.23900000      35.36700000
 O      13.59900000      28.78100000      36.48800000
 H      13.02900000      28.24700000      37.13200000
 H      14.36900000      28.14400000      36.46600000
 O       8.00100000      30.25800000      35.47100000
 H       7.74700000      29.39500000      35.05900000
 H       8.48200000      30.82400000      34.78400000
 O      15.52800000      26.83700000      36.88600000
 H      14.89400000      26.31000000      36.21700000
 H      16.18000000      26.09100000      37.10700000
 O       5.96400000      26.35900000      36.32600000
 H       5.54800000      27.23300000      36.41200000
 H       6.45400000      26.41500000      37.13400000
 O      11.51200000      26.69400000      35.50300000
 H      11.84600000      26.81800000      34.62200000
 H      10.54300000      26.84600000      35.35800000
 O       6.90600000      28.15100000      33.89200000
 H       7.54800000      27.86400000      33.21900000
 H       6.44700000      27.32200000      34.07200000
 O      15.54600000      27.78500000      33.96900000
 H      15.64000000      27.70600000      34.92500000
 H      16.45500000      28.11900000      33.72200000
 O       8.50700000      35.89500000      26.69300000
 H       8.54100000      36.30800000      25.72300000
 H       9.16800000      35.12300000      26.73900000
 O      15.29600000      36.29800000      29.14200000
 H      14.70100000      36.19500000      28.40600000
 H      16.05300000      36.70900000      28.65200000
 O       8.08800000      35.80700000      29.26800000
 H       8.09400000      36.17500000      28.32300000
 H       8.22100000      36.60900000      29.82400000
 O      12.97000000      36.13500000      27.27200000
 H      13.07000000      36.52100000      26.42200000
 H      12.09600000      36.47300000      27.67200000
 O      11.97500000      32.96100000      25.80300000
 H      11.98700000      32.86600000      26.81800000
 H      11.25000000      32.38900000      25.51800000
 O       5.33000000      32.56500000      29.11100000
 H       4.50200000      32.84100000      28.63200000
 H       5.50400000      33.33000000      29.70700000
 O      10.73800000      32.67600000      29.09200000
 H       9.86600000      32.78300000      29.59700000
 H      10.49100000      32.52200000      28.16500000
 O      12.12300000      32.29200000      28.67400000
 H      12.77600000      32.82600000      29.19600000
 H      11.26900000      32.54400000      29.02400000
 O      13.33400000      33.40600000      29.95800000
 H      13.59200000      33.80700000      29.08800000
 H      14.17200000      33.51400000      30.41000000
 O       8.14500000      32.55900000      29.79500000
 H       7.99300000      33.48800000      30.13400000
 H       7.18400000      32.45800000      29.43700000
 O       5.45500000      35.50300000      27.86100000
 H       6.35900000      35.23700000      28.13500000
 H       4.83400000      34.79400000      28.17300000
 O       6.64400000      33.75200000      30.84700000
 H       6.37000000      33.94800000      31.83300000
 H       7.13400000      34.63700000      30.74500000
 O      11.22500000      35.17200000      30.69000000
 H      11.61900000      35.13600000      31.55800000
 H      11.69400000      34.43300000      30.24400000
 O      14.87800000      37.07400000      37.02200000
 H      15.06800000      37.73200000      37.72500000
 H      14.99200000      36.16900000      37.39100000
 O       8.51000000      36.59500000      34.93500000
 H       8.99000000      35.94600000      34.37000000
 H       8.17500000      35.98500000      35.66500000
 O       5.14600000      34.50800000      34.94300000
 H       4.14100000      34.63300000      35.15700000
 H       5.58900000      34.85000000      35.76100000
 O       4.50200000      32.23400000      34.74100000
 H       4.76300000      33.16600000      34.88200000
 H       5.25600000      31.89200000      34.23800000
 O       8.49900000      33.28300000      37.44500000
 H       9.37500000      33.65600000      37.24100000
 H       8.14700000      32.67800000      36.72000000
 O       6.54600000      35.60600000      37.13100000
 H       6.92900000      35.02100000      37.79200000
 H       6.10900000      36.28400000      37.62100000
 O      14.11500000      34.20700000      36.06700000
 H      14.61800000      34.11900000      35.22800000
 H      13.35800000      34.82600000      35.92900000
 O      15.19400000      37.13700000      33.63900000
 H      14.94400000      36.35600000      34.05700000
 H      14.99900000      37.03200000      32.69200000
 O      11.48700000      35.66500000      35.36100000
 H      10.65600000      35.20300000      35.43100000
 H      11.35500000      36.49000000      35.88300000
 O       9.81600000      34.65900000      33.41800000
 H      10.74900000      34.61200000      33.17800000
 H       9.34600000      34.89500000      32.58700000
