%chk=cluster_300.chk
%mem=8GB
%nproc=8
#b3lyp/6-31G** scrf=(cpcm,Solvent=Water) nosymm force
iop(2/11=1)
 Geom=(NoDistance,NoAngle)
guess=checkpoint

cluster_300

0 1
 O      12.14024145     7.17688216     1.44387154
 H      11.99136525     7.00656142     2.38954906
 H      12.53162061     8.06296406     1.43172102
 O      15.68393983     6.56324669     3.86485082
 H      15.07692258     7.18461883     4.29717551
 H      16.32182485     6.35635342     4.57103796
 O      10.55073718     4.19989661     5.46377273
 H      10.83280517     3.42764811     4.95501228
 H      10.79265965     3.96520076     6.37493306
 O      12.89824661     2.02113308     4.91216536
 H      13.84287796     1.77943727     4.94327603
 H      12.84358428     2.61288363     4.14172906
 O      17.44481557     3.31127453     5.12573276
 H      16.68870717     2.87996158     5.55473416
 H      18.05316278     2.58547080     4.93700157
 O      14.63503501     4.07933944     6.13055760
 H      14.15802083     4.73786828     5.60677653
 H      13.95113399     3.68513981     6.70660334
 O      15.33221411     3.07997870     2.81391085
 H      15.33935508     3.76636482     2.12136184
 H      15.77627027     3.52193736     3.55520076
 O      14.94765318     7.51656576     6.98913960
 H      15.66381425     6.86900373     6.87119455
 H      14.15045264     7.03052957     6.72148347
 O      17.63366640     5.98038040     6.24819452
 H      17.64194901     5.04671011     5.94998842
 H      18.32506556     6.41180176     5.72676698
 O      12.42597241     6.45364686     5.27349359
 H      11.91579673     7.18565220     5.64838528
 H      11.79763222     5.70037577     5.27954363
 O      14.88267834     5.56595042     1.18285525
 H      13.99910440     5.92271017     1.38706141
 H      15.45830385     6.24896971     1.55668956
 O       9.64095188     4.60382349     2.22285057
 H       9.03030508     4.00491449     1.77353086
 H      10.49467883     4.14187594     2.16927198
 O      16.11379588     1.00721915     4.62413585
 H      15.93108388     0.07983173     4.43326803
 H      16.03021923     1.45767790     3.76659925
 O      11.92758965     3.14871967     2.14499478
 H      11.77711027     2.26751720     1.77270822
 H      12.79621027     3.41361378     1.82058222
 O      12.48472801     2.74299100     7.51860786
 H      12.73279795     2.03312612     8.12515209
 H      12.52684296     2.34475448     6.61934125

