27
XYZ file of cluster: frame_4000_7090.c72d8.d491d - created by MolEdiTo
 O       6.22800000      17.98200000      18.95100000
 H       5.32800000      18.26100000      19.20300000
 H       6.66800000      17.61300000      19.77100000
 O       3.80200000      19.46500000      19.58400000
 H       3.39300000      20.00400000      18.89600000
 H       4.21600000      20.20000000      20.21200000
 O       6.64000000      20.29600000      24.11000000
 H       6.86300000      20.03400000      25.07000000
 H       5.70100000      20.02500000      23.96800000
 O       1.42500000      19.56000000      22.81100000
 H       0.60500000      19.52900000      23.32800000
 H       1.25000000      19.86800000      21.88200000
 O       3.71200000      20.13100000      24.32900000
 H       2.94600000      19.81500000      23.80500000
 H       3.86800000      19.51000000      25.07900000
 O       1.56400000      23.50000000      19.07600000
 H       2.15600000      24.04200000      18.46200000
 H       0.66000000      24.06200000      19.06000000
 O       4.42200000      25.54100000      23.88800000
 H       4.68300000      25.03900000      24.69800000
 H       3.72600000      24.95200000      23.55300000
 O       1.94700000      24.22900000      23.14700000
 H       1.00400000      24.49800000      23.12100000
 H       1.95100000      23.24700000      22.90400000
 O       4.80300000      23.34600000      22.16800000
 H       4.73900000      23.07800000      23.05300000
 H       4.93700000      24.33400000      22.40200000
