33
XYZ file of cluster: frame_4000_9e7c3.c0afd.6b96 - created by MolEdiTo
 O      19.76500000      18.87800000       3.81300000
 H      19.79400000      17.90500000       3.90100000
 H      20.38500000      19.16700000       4.59000000
 O      15.03800000      18.13000000       3.86400000
 H      15.08700000      17.11300000       4.01100000
 H      14.13400000      18.50000000       3.89600000
 O      18.68000000      19.56200000       7.13900000
 H      18.99100000      19.00900000       6.37400000
 H      19.13800000      20.37100000       6.84700000
 O      16.94600000      20.21500000       4.60700000
 H      17.70700000      19.64700000       4.76900000
 H      16.30900000      19.48200000       4.40400000
 O      16.81600000      17.21700000       1.07000000
 H      16.31400000      18.09300000       0.97400000
 H      16.33600000      17.03900000       1.95100000
 O      16.11900000      23.60200000       2.27400000
 H      15.81800000      23.93200000       3.11100000
 H      16.98300000      23.25800000       2.54300000
 O      14.32700000      22.55500000       7.42700000
 H      14.75800000      23.15500000       6.76100000
 H      13.76000000      23.18600000       7.85300000
 O      19.16900000      23.69500000       3.36200000
 H      18.82700000      23.63500000       4.25300000
 H      19.82300000      22.97100000       3.43800000
 O      14.06100000      24.24800000       4.32800000
 H      13.62900000      24.45000000       5.18000000
 H      14.98100000      24.31700000       4.67200000
 O      16.29000000      24.09300000       5.78200000
 H      16.70500000      23.27900000       5.38400000
 H      16.87300000      24.57800000       6.38300000
 O      18.30500000      25.64600000       1.08900000
 H      17.60500000      25.64600000       1.83400000
 H      18.19500000      24.77900000       0.58400000
