36
XYZ file of cluster: frame_4000_50488.aec9.6174 - created by MolEdiTo
 O      10.33300000       6.40700000       5.10200000
 H      11.00100000       6.75800000       5.73800000
 H       9.57000000       7.03000000       5.23800000
 O       9.53500000       1.89500000       3.86900000
 H       8.71200000       2.28200000       3.61400000
 H       9.22700000       0.97700000       4.32300000
 O      11.06800000       3.66200000       5.65100000
 H      10.33300000       3.44400000       5.00000000
 H      10.92800000       4.63700000       5.87300000
 O      10.48600000       6.13700000       2.29600000
 H      10.95600000       5.67300000       3.04800000
 H       9.95100000       6.89600000       2.62600000
 O      14.32700000       0.96600000       7.42700000
 H      14.75800000       1.56600000       6.76100000
 H      13.76000000       1.59700000       7.85300000
 O       7.64200000       5.87100000       2.74800000
 H       8.35300000       5.24200000       2.61100000
 H       6.90500000       5.36700000       2.35900000
 O      10.58400000       1.79700000       1.16200000
 H      10.23500000       2.10100000       2.05400000
 H       9.81800000       1.87300000       0.52900000
 O       7.86600000       2.87000000       2.08600000
 H       8.06900000       2.92700000       1.10900000
 H       7.31400000       2.13100000       2.16500000
 O      14.06100000       2.65900000       4.32800000
 H      13.62900000       2.86100000       5.18000000
 H      14.98100000       2.72800000       4.67200000
 O      13.54900000       5.86300000       3.87500000
 H      13.32000000       5.19900000       4.58100000
 H      13.78900000       5.30200000       3.16100000
 O      12.99100000       3.57200000       1.89500000
 H      13.28700000       2.96600000       2.63600000
 H      12.27800000       3.11000000       1.39700000
 O       7.86000000       7.59000000       4.98800000
 H       6.90400000       7.42000000       5.29600000
 H       7.96900000       6.89700000       4.36100000
