36
XYZ file of cluster: frame_4000_550d1.beb53.c06b9 - created by MolEdiTo
 O       8.24300000      18.30800000      16.99400000
 H       7.63900000      18.34100000      17.73500000
 H       8.64400000      17.40600000      17.12500000
 O       7.97200000      20.31200000      20.29800000
 H       7.59700000      20.37600000      21.20400000
 H       8.31000000      19.40300000      20.34700000
 O      13.14100000      20.55300000      20.43000000
 H      12.74300000      19.71600000      19.99200000
 H      12.37900000      21.17500000      20.17900000
 O      12.87800000      20.33500000      17.46600000
 H      13.47600000      20.54200000      16.71200000
 H      13.44600000      20.40200000      18.21500000
 O      12.43100000      17.72500000      19.38000000
 H      11.88700000      18.36500000      18.80800000
 H      12.44800000      16.86400000      18.94000000
 O      10.67300000      18.92200000      23.34500000
 H      10.12000000      19.71300000      23.56100000
 H      11.60300000      19.19200000      23.32500000
 O      13.02000000      20.07700000      24.35600000
 H      13.21800000      20.46500000      23.41500000
 H      12.97000000      20.87000000      24.98900000
 O      10.53000000      26.03000000      17.14700000
 H      10.26200000      25.08100000      17.14200000
 H      10.38200000      26.24600000      18.13600000
 O       8.31600000      24.52200000      19.20300000
 H       8.09500000      23.60500000      19.13600000
 H       7.36900000      24.90000000      19.07500000
 O       7.86600000      24.45900000      23.29000000
 H       8.06900000      24.51600000      22.31300000
 H       7.31400000      23.72000000      23.36900000
 O      12.99100000      25.16100000      23.09900000
 H      13.28700000      24.55500000      23.84000000
 H      12.27800000      24.69900000      22.60100000
 O      10.58400000      23.38600000      22.36600000
 H      10.23500000      23.69000000      23.25800000
 H       9.81800000      23.46200000      21.73300000
