55
XYZ file of cluster: frame_4000_5eb0e.4a976.4a43c - created by MolEdiTo
 O      14.74600000      13.30200000       9.40400000
 H      15.31000000      13.71700000       8.69500000
 H      15.36000000      12.87300000      10.07400000
 O      17.31600000      12.91900000      12.10500000
 H      17.70200000      12.58600000      13.01400000
 H      17.95800000      13.50800000      11.75400000
 O      14.63500000      11.82400000      12.10400000
 H      14.40400000      11.34400000      12.89000000
 H      15.53600000      12.24200000      12.17200000
 O      13.84500000       6.87900000      10.41400000
 H      13.43200000       6.59600000      11.21300000
 H      14.60300000       7.41500000      10.74400000
 O      15.26600000       9.17800000       8.68800000
 H      14.81600000       8.33500000       8.94400000
 H      14.56800000       9.87600000       8.49100000
 O      17.77900000      12.35100000       7.68000000
 H      16.81900000      12.21500000       7.59900000
 H      17.82100000      13.33100000       7.63800000
 O      15.36900000       8.96300000      11.77400000
 H      15.02300000       9.29700000      12.66600000
 H      16.18500000       8.41800000      11.95400000
 C       9.77800000      12.22600000      10.35400000
 C       9.80000000      10.70200000      10.03400000
 C      11.98900000      10.57000000      11.40900000
 H       9.90700000      10.04000000      12.03400000
 H       8.14300000      13.05800000      10.76900000
 O      10.75600000       8.53900000      10.78300000
 O       9.47700000      12.95800000       9.10900000
 O       8.76100000      12.50800000      11.32000000
 C      10.61000000       9.95800000      11.17300000
 O       8.49800000      10.08700000       9.78000000
 H      10.44300000      10.57900000       9.15400000
 O      12.52700000      10.02600000      12.51500000
 O      12.85200000      10.10300000      10.36700000
 H      13.64000000       9.68600000      10.87700000
 H       8.38400000      10.06400000       8.84700000
 H       9.97500000       8.14200000      11.09300000
 O      12.62500000       7.26500000      13.04100000
 H      12.38400000       8.14400000      12.72300000
 H      12.96600000       7.42900000      13.94100000
 O      13.02900000       7.62600000       7.36900000
 H      12.19600000       7.97000000       7.73800000
 H      13.11300000       7.89000000       6.45000000
 O      12.24000000      13.61800000      11.27200000
 H      12.13900000      13.59600000      12.23600000
 H      13.22200000      13.35900000      11.00400000
 O      12.56100000      13.24300000      13.94300000
 H      12.71100000      13.61200000      14.82000000
 H      12.63800000      12.31200000      14.28000000
 O      12.48700000      12.27100000       7.59100000
 H      13.20200000      12.64100000       8.18400000
 H      11.77700000      12.98500000       7.67500000
 O      17.68300000       9.85300000      10.52800000
 H      17.63400000      10.85200000      10.61200000
 H      16.71800000       9.68400000      10.31100000
