39
XYZ file of cluster: frame_6500_9ab18.94a18.c87b8 - created by MolEdiTo
 O      18.59000000      17.12500000      18.32300000
 H      18.62600000      16.60500000      19.20700000
 H      19.09800000      16.56700000      17.68600000
 O      15.60500000      16.01300000      18.70000000
 H      16.17200000      15.65500000      19.33200000
 H      16.00300000      16.00300000      17.78500000
 O      16.42200000      13.75400000      20.37400000
 H      16.90400000      13.00800000      20.74100000
 H      16.25600000      14.28400000      21.19400000
 O      14.99600000      20.13600000      20.29500000
 H      15.58300000      19.42700000      19.83700000
 H      15.14400000      20.90600000      19.68800000
 O      17.22200000      19.33300000      18.37300000
 H      16.96400000      19.49900000      17.40400000
 H      17.89000000      18.59700000      18.33400000
 O      18.48900000      16.45500000      22.29700000
 H      18.70600000      15.62000000      22.93700000
 H      18.24400000      17.08000000      22.97800000
 O      14.25100000      16.43800000      24.36700000
 H      14.97800000      17.02600000      24.37500000
 H      13.58300000      16.98900000      23.97800000
 O      14.76600000      13.64500000      24.64100000
 H      14.01500000      14.25200000      24.46800000
 H      14.60000000      12.89300000      24.03400000
 O      17.94600000      19.81200000      22.15400000
 H      17.63200000      19.73400000      21.27700000
 H      18.95100000      19.87800000      22.30200000
 O      16.49000000      19.98800000      24.37000000
 H      16.10100000      20.89900000      24.48700000
 H      16.74600000      19.89400000      23.45700000
 O      20.32800000      13.84100000      22.45900000
 H      20.84500000      14.18500000      23.25100000
 H      19.66400000      13.22400000      22.87200000
 O      18.08100000      17.87400000      24.70900000
 H      17.56400000      18.65600000      24.50400000
 H      18.95300000      18.28700000      24.98800000
 O      17.28200000      14.98900000      24.56600000
 H      16.53200000      14.35500000      24.67500000
 H      16.85900000      15.88100000      24.79400000
