73
XYZ file of cluster: frame_6500_5e2f6.1b6fd.64cb5 - created by MolEdiTo
 O      17.65600000       7.17500000      10.35500000
 H      18.19800000       7.45900000       9.58300000
 H      17.43200000       8.07600000      10.76400000
 O      12.00400000       7.60900000      15.48100000
 H      12.55400000       6.94800000      15.03100000
 H      12.14000000       8.39400000      14.82000000
 O      15.41300000       9.75800000      14.88500000
 H      14.95200000       9.88100000      15.79600000
 H      15.13300000      10.56200000      14.48900000
 O      12.48200000       9.77600000      13.90100000
 H      12.18100000      10.42100000      14.57000000
 H      13.43900000       9.92800000      13.79800000
 O      17.11200000       4.05400000      16.93100000
 H      17.37000000       3.63100000      17.74200000
 H      16.60300000       4.87100000      17.14700000
 O      14.00600000      10.36200000      17.31200000
 H      14.22800000      11.25200000      17.70100000
 H      14.09600000       9.72800000      18.07600000
 O      14.01400000       3.67300000      16.37200000
 H      13.64000000       3.90000000      17.23800000
 H      14.51700000       4.43900000      16.11400000
 O      13.02800000       3.70600000      12.35900000
 H      13.85700000       3.23000000      11.91000000
 H      12.58100000       3.00700000      12.89800000
 O      12.73800000       7.70900000      11.71000000
 H      13.14500000       7.82500000      12.59400000
 H      13.48200000       7.17300000      11.28600000
 O      15.05800000       6.31400000      17.20400000
 H      15.18500000       6.93200000      17.94800000
 H      14.46500000       6.67000000      16.54000000
 O      11.12400000       3.08900000      17.65100000
 H      10.51300000       3.78500000      17.94900000
 H      10.77700000       2.93800000      16.73400000
 O      16.32700000       6.28100000      12.70400000
 H      16.95500000       6.57700000      11.94300000
 H      16.84600000       5.67400000      13.32000000
 O       9.75700000       5.00400000      16.24400000
 H      10.79200000       5.00000000      16.48200000
 H       9.78300000       5.65100000      15.55200000
 O      18.08600000       8.90700000      13.63400000
 H      17.21700000       8.70600000      13.94700000
 H      17.96500000       9.83100000      13.31900000
 O      14.62300000       6.00600000      10.63300000
 H      15.35200000       5.96200000      11.24500000
 H      13.96100000       5.32000000      10.99400000
 O      15.85200000       9.76500000      10.47900000
 H      15.06800000      10.03800000      10.99100000
 H      15.68100000       9.96200000       9.51300000
 O      15.64700000       3.29200000      11.82000000
 H      16.46200000       3.76900000      11.70600000
 H      16.02300000       2.38000000      11.87500000
 O      11.17600000       8.43600000      18.42100000
 H      11.50100000       8.25300000      17.53000000
 H      10.28500000       8.73300000      18.18200000
 C       9.50300000       9.90600000       9.85700000
 C      10.97600000      10.07700000       9.62300000
 C      11.00400000      12.00700000      11.57300000
 H      11.79800000      10.01500000      11.74200000
 H       8.27000000       8.51900000      10.62600000
 O      13.01200000      11.03800000      10.39500000
 O       8.72900000       9.44200000       8.76500000
 O       9.18200000       8.88400000      10.78900000
 C      11.69400000      10.76400000      10.88300000
 O      11.64900000       8.80600000       9.41400000
 H      11.10800000      10.67500000       8.75000000
 O      10.73300000      13.01800000      10.48900000
 O       9.76600000      11.64200000      12.18800000
 H       9.32900000      12.49700000      12.30000000
 H      11.87100000       8.58900000      10.39900000
 H      12.90600000      11.51500000       9.56700000
 O      13.82200000       5.71600000      14.24500000
 H      14.75900000       5.93300000      14.00100000
 H      13.59300000       5.40800000      13.30800000
