36
XYZ file of cluster: frame_6500_56480.c1cf3.99a51 - created by MolEdiTo
 O      13.91200000      18.69700000      17.25000000
 H      13.78100000      18.21800000      16.34800000
 H      14.79300000      18.44900000      17.51900000
 O       9.16000000      17.64300000      17.99600000
 H       9.99000000      17.50500000      18.52300000
 H       9.60000000      18.00300000      17.21400000
 O      11.68100000      18.16100000      13.33800000
 H      11.46700000      18.37200000      14.32400000
 H      12.63700000      17.96300000      13.36700000
 O      11.16100000      19.76600000      15.79200000
 H      11.32000000      19.81300000      16.74700000
 H      10.30800000      20.20700000      15.70400000
 O       8.40400000      17.62400000      14.12000000
 H       7.93400000      16.81200000      14.19200000
 H       7.78600000      18.04000000      13.50200000
 O       9.07700000      21.96600000      18.26100000
 H       9.72200000      22.63700000      18.66300000
 H       9.34300000      21.17800000      18.87600000
 O      11.12400000      24.26700000      17.65100000
 H      10.51300000      24.96300000      17.94900000
 H      10.77700000      24.11600000      16.73400000
 O       8.10800000      25.08000000      18.70500000
 H       7.66900000      24.79000000      17.84100000
 H       7.57600000      24.56000000      19.38700000
 O       8.76900000      22.39100000      15.27900000
 H       8.12300000      22.42400000      14.63100000
 H       8.23800000      22.57600000      16.12700000
 O      12.63900000      22.34100000      13.91700000
 H      12.47000000      21.41800000      13.94300000
 H      12.64300000      22.54800000      14.89900000
 O      11.98200000      21.87100000      19.05800000
 H      11.85800000      22.76900000      18.73500000
 H      12.88000000      21.56300000      18.71800000
 O      13.96400000      25.00300000      19.30800000
 H      13.94500000      25.64600000      20.01100000
 H      13.98200000      24.07700000      19.71300000
