42
XYZ file of cluster: frame_6500_524e7.0.966b6 - created by MolEdiTo
 O       9.50500000       7.04000000      14.02100000
 H       9.59400000       7.21200000      13.05800000
 H       9.83600000       7.82900000      14.51100000
 O       9.07700000       0.78800000      18.26100000
 H       9.72200000       1.45900000      18.66300000
 H       9.34300000       0.00000000      18.87600000
 O       7.78700000       7.87500000      18.99000000
 H       7.92500000       6.96000000      18.74500000
 H       7.34400000       8.12100000      18.17500000
 O      14.01400000       3.67300000      16.37200000
 H      13.64000000       3.90000000      17.23800000
 H      14.51700000       4.43900000      16.11400000
 O      11.12400000       3.08900000      17.65100000
 H      10.51300000       3.78500000      17.94900000
 H      10.77700000       2.93800000      16.73400000
 O      12.00400000       7.60900000      15.48100000
 H      12.55400000       6.94800000      15.03100000
 H      12.14000000       8.39400000      14.82000000
 O       7.22700000       5.52300000      15.00500000
 H       7.60700000       5.10900000      15.75300000
 H       7.90100000       6.19600000      14.86500000
 O       8.10800000       3.90200000      18.70500000
 H       7.66900000       3.61200000      17.84100000
 H       7.57600000       3.38200000      19.38700000
 O      13.82200000       5.71600000      14.24500000
 H      14.75900000       5.93300000      14.00100000
 H      13.59300000       5.40800000      13.30800000
 O       9.75700000       5.00400000      16.24400000
 H      10.79200000       5.00000000      16.48200000
 H       9.78300000       5.65100000      15.55200000
 O       8.76900000       1.21300000      15.27900000
 H       8.12300000       1.24600000      14.63100000
 H       8.23800000       1.39800000      16.12700000
 O      12.63900000       1.16300000      13.91700000
 H      12.47000000       0.24000000      13.94300000
 H      12.64300000       1.37000000      14.89900000
 O      11.98200000       0.69300000      19.05800000
 H      11.85800000       1.59100000      18.73500000
 H      12.88000000       0.38500000      18.71800000
 O      13.96400000       3.82500000      19.30800000
 H      13.94500000       4.46800000      20.01100000
 H      13.98200000       2.89900000      19.71300000
