33
XYZ file of cluster: frame_8500_c4e59.a2198.9c21c - created by MolEdiTo
 O      20.61800000      20.21100000      14.06700000
 H      21.14200000      20.47100000      14.90100000
 H      19.84700000      19.80700000      14.50700000
 O      20.61500000      16.03900000      20.22100000
 H      20.77200000      15.08300000      20.06600000
 H      21.57500000      16.20700000      20.53100000
 O      18.32400000      19.80000000      15.82700000
 H      18.46100000      19.54600000      16.79300000
 H      17.60200000      20.53800000      15.83100000
 O      17.40000000      16.83600000      15.95800000
 H      18.18600000      16.75000000      15.35300000
 H      17.49300000      17.70400000      16.43600000
 O      19.59900000      18.95100000      18.24900000
 H      20.08300000      19.68700000      17.76800000
 H      20.11600000      18.47900000      18.90100000
 O      18.30500000      14.14500000      16.25700000
 H      17.77400000      14.38100000      15.44200000
 H      17.90500000      14.70100000      16.88900000
 O      24.77200000      16.55100000      20.62400000
 H      25.31000000      15.84600000      20.15900000
 H      25.40300000      17.29000000      20.90200000
 O      22.73800000      14.96400000      14.71300000
 H      23.06000000      15.78300000      15.09000000
 H      23.67900000      14.63500000      14.43000000
 O      24.89200000      16.86000000      14.42600000
 H      25.50200000      17.29000000      13.79500000
 H      25.39100000      16.01900000      14.52700000
 O      22.96300000      19.14900000      20.40700000
 H      22.86100000      19.36300000      21.39700000
 H      23.45900000      18.32800000      20.27700000
 O      25.06700000      15.05100000      18.14600000
 H      24.21500000      14.73900000      17.82100000
 H      25.74600000      14.60400000      17.72400000
