39
XYZ file of cluster: frame_8500_70d4b.bd8bc.9a4c6 - created by MolEdiTo
 O      10.33000000      17.29500000      18.06300000
 H      10.95600000      17.95500000      18.22100000
 H      10.84100000      16.54000000      17.76700000
 O      14.43100000      18.14000000      20.64300000
 H      14.29600000      18.84700000      21.34100000
 H      14.61500000      18.73600000      19.87600000
 O      16.48500000      18.81000000      18.68800000
 H      16.12900000      17.88100000      18.94300000
 H      17.46000000      18.76600000      18.80000000
 O      15.00200000      20.64000000      16.78800000
 H      14.20500000      20.25800000      16.42500000
 H      15.21600000      20.09700000      17.50100000
 O      18.32400000      19.80000000      15.82700000
 H      18.46100000      19.54600000      16.79300000
 H      17.60200000      20.53800000      15.83100000
 O      11.91900000      20.35100000      19.99000000
 H      11.92900000      21.29800000      19.56700000
 H      12.29700000      19.84700000      19.19700000
 O      11.78800000      19.33500000      15.22600000
 H      11.93400000      19.55500000      14.35200000
 H      11.31000000      18.47500000      15.08300000
 O      12.70800000      19.14200000      17.79400000
 H      12.26300000      19.67000000      17.06300000
 H      12.73900000      18.25400000      17.36600000
 O      17.36900000      23.44600000      18.38300000
 H      17.58100000      23.42900000      19.27300000
 H      16.99200000      22.56400000      18.20400000
 O      12.01500000      24.18600000      14.52400000
 H      11.76700000      25.08500000      14.45400000
 H      11.97500000      23.77900000      13.63300000
 O      10.11500000      22.58700000      16.55000000
 H       9.97100000      23.46400000      16.88900000
 H      10.93900000      22.66600000      16.08200000
 O      12.21500000      24.67800000      18.92200000
 H      11.74100000      25.49700000      18.92300000
 H      12.54000000      24.73600000      18.02100000
 O      16.72100000      23.92500000      15.38100000
 H      16.71500000      24.94300000      15.48300000
 H      16.08300000      23.50300000      15.95700000
