136
XYZ file of cluster: frame_20000_4d6ce.46b1d.486a5 - created by MolEdiTo
 O      14.14600000      20.73500000      17.56400000
 H      13.79700000      19.82100000      17.22500000
 H      13.30700000      21.35200000      17.59900000
 O      19.18100000      14.47300000      15.68900000
 H      19.64300000      15.32300000      15.70500000
 H      19.09100000      14.27300000      16.68600000
 O      15.80400000      13.89500000      20.00100000
 H      14.92400000      14.26500000      20.40400000
 H      15.51300000      14.20900000      19.08000000
 O      16.20900000      11.54600000      12.54900000
 H      15.50200000      12.15800000      12.09400000
 H      16.96700000      11.84700000      12.07100000
 O      13.28100000      19.58300000      14.52300000
 H      13.11000000      19.09500000      15.32400000
 H      14.23700000      19.63300000      14.60000000
 O      20.28300000      13.90200000      13.26400000
 H      20.23600000      12.99700000      13.70400000
 H      19.78700000      14.37900000      14.05500000
 O      14.94000000      15.63700000      10.99400000
 H      15.57800000      15.65000000      10.28900000
 H      14.25800000      14.93400000      10.65500000
 O      13.90800000      16.13800000      19.61800000
 H      14.12900000      16.55300000      20.51200000
 H      13.73800000      16.95900000      19.14800000
 O      10.69300000      11.48300000      20.22300000
 H      10.60000000      12.40000000      19.85200000
 H      10.18000000      10.89700000      19.61200000
 O      11.09200000      16.32400000      21.11900000
 H      10.41200000      16.51100000      20.43000000
 H      11.59000000      15.56200000      20.67400000
 O      13.47700000      20.80700000      11.15600000
 H      14.23100000      20.18600000      11.06800000
 H      12.77100000      20.25000000      11.51600000
 O      20.29600000      12.77100000      18.01300000
 H      19.97700000      11.83800000      18.06400000
 H      19.72800000      13.14000000      18.70600000
 O      10.75100000      10.38800000      15.28300000
 H      11.08200000      10.53600000      14.42700000
 H      11.27600000      10.91900000      15.83900000
 O      11.01900000      19.79700000      17.14100000
 H      10.55500000      18.96600000      16.97100000
 H      10.34100000      20.31100000      17.62400000
 O      20.15000000      17.46300000      12.93900000
 H      20.96500000      17.03300000      12.99000000
 H      19.50400000      16.90300000      12.47600000
 C      15.86800000      14.18900000      16.14400000
 C      15.58900000      15.02100000      14.82400000
 C      15.31000000      17.14900000      16.17700000
 H      17.10800000      16.51000000      15.11000000
 H      17.00200000      13.45900000      15.01500000
 O      15.67100000      17.18700000      13.84400000
 O      15.36200000      14.31600000      17.19600000
 O      16.67400000      13.09500000      15.88900000
 C      16.01400000      16.48700000      15.01900000
 O      16.34400000      14.39900000      13.72800000
 H      14.52900000      15.04300000      14.58800000
 O      14.12500000      17.21700000      16.30600000
 O      16.13400000      17.85400000      17.00300000
 H      16.95400000      17.85900000      16.54600000
 H      16.31100000      15.00800000      13.00800000
 H      15.86700000      18.18500000      14.00100000
 O      13.46600000      11.98100000      19.30500000
 H      12.79400000      11.28400000      19.56400000
 H      13.90600000      11.64300000      18.53800000
 O      17.61900000      20.02500000      12.51400000
 H      17.50700000      20.88400000      12.20100000
 H      18.09700000      19.67700000      11.73000000
 O      12.48300000      16.78600000      12.30400000
 H      12.30600000      17.66800000      12.08400000
 H      13.27700000      16.89200000      12.81100000
 O      17.86500000      11.02800000      20.33100000
 H      17.49500000      10.39700000      19.66700000
 H      17.26600000      10.83500000      21.13000000
 O      19.72000000      14.66800000      10.80100000
 H      19.27000000      13.85700000      10.46200000
 H      19.79200000      14.56000000      11.80500000
 O      17.36100000       9.91700000      14.63700000
 H      16.76700000       9.14300000      14.49200000
 H      16.76700000      10.67200000      14.36600000
 O      14.95300000      19.58400000      20.04500000
 H      14.77000000      20.05400000      19.18800000
 H      14.33000000      19.90300000      20.69100000
 O      10.65100000      14.80800000      13.21700000
 H      11.43300000      15.30600000      12.91800000
 H       9.97100000      15.50500000      13.37700000
 O      11.37000000      11.60200000      12.67500000
 H      12.20300000      12.04200000      12.97000000
 H      10.78900000      12.28900000      12.49300000
 O      14.14500000      12.86900000      11.13300000
 H      14.00700000      11.96500000      10.74000000
 H      13.20400000      13.24900000      10.98600000
 O      13.62000000      11.69300000      13.94700000
 H      13.29400000      12.50900000      14.43600000
 H      14.51100000      11.84500000      13.58500000
 O      12.34600000      13.69600000      15.24600000
 H      11.53600000      14.13200000      14.77200000
 H      12.16200000      13.70000000      16.19500000
 O      18.32300000      14.67900000      18.55600000
 H      18.69100000      14.84200000      19.43100000
 H      17.44600000      14.19900000      18.71200000
 O      17.59100000      18.62400000      19.59000000
 H      16.77500000      19.12400000      19.78700000
 H      18.31600000      19.29100000      19.44200000
 O      19.67500000      20.35600000      18.62700000
 H      19.30100000      19.94700000      17.77600000
 H      19.20900000      21.17300000      18.78000000
 O      11.38000000      16.70800000      15.80000000
 H      12.40700000      16.76500000      15.68100000
 H      11.24200000      16.32600000      16.68800000
 O      10.86800000      19.54400000      12.04800000
 H      10.52800000      20.31800000      12.70500000
 H      10.02600000      19.17500000      11.70500000
 O      15.35800000      18.29800000      11.31200000
 H      15.50000000      17.33900000      11.26100000
 H      15.92900000      18.62400000      11.99200000
 O      19.72500000      11.27900000      14.14200000
 H      19.95700000      10.68300000      13.38800000
 H      18.95300000      10.83500000      14.38900000
 O      19.59200000      10.49600000       9.56200000
 H      20.22300000      11.11000000       9.29200000
 H      19.77700000      10.33600000      10.48300000
 O      17.52100000      16.48400000      21.23500000
 H      17.49000000      17.00100000      20.37200000
 H      16.71100000      16.03100000      21.21600000
 O      18.89500000      17.80300000      16.22700000
 H      19.85100000      17.67600000      16.29400000
 H      18.81000000      18.75500000      15.97400000
 O      16.30300000      19.79100000      14.86700000
 H      16.83800000      20.20700000      15.53500000
 H      16.86900000      20.08900000      13.98200000
 O      19.54400000      20.22700000      15.45000000
 H      20.38800000      20.69200000      15.27500000
 H      19.02200000      20.48900000      14.74000000
 O      19.59100000      20.13900000      21.69500000
 H      19.36800000      19.96900000      20.73000000
 H      20.44500000      19.65400000      21.75200000
