129
XYZ file of cluster: frame_20000_24dc5.2178e.5fc - created by MolEdiTo
 O       7.78000000      10.70500000      10.09800000
 H       8.22300000       9.86400000      10.13300000
 H       8.27300000      11.30200000      10.67100000
 O      10.49700000      11.34800000       7.42800000
 H      10.36300000      10.61300000       6.77100000
 H      10.16100000      12.18100000       7.07600000
 O       7.41000000       9.69300000       3.83400000
 H       8.00600000       9.00100000       4.03200000
 H       6.98300000       9.55300000       2.91900000
 O      11.94400000       7.74600000       2.34300000
 H      12.88000000       8.08600000       2.36800000
 H      11.99300000       6.80900000       2.24000000
 O      11.49300000      11.57400000       3.41500000
 H      11.24400000      12.13700000       4.13500000
 H      11.29100000      12.10800000       2.64200000
 O      10.82300000      14.15000000       4.78900000
 H      10.63900000      14.71100000       3.97100000
 H      10.53300000      14.79400000       5.45000000
 O      15.70600000       9.70300000       0.95600000
 H      16.00900000      10.47200000       1.51800000
 H      14.79900000       9.90100000       0.56900000
 O       5.17700000       9.19200000      10.09700000
 H       5.84900000       9.90500000      10.36400000
 H       5.34000000       8.34000000      10.65200000
 O       8.00100000      14.15100000       6.59400000
 H       7.58400000      13.43300000       5.92500000
 H       7.55800000      14.97900000       6.30400000
 O       5.95700000      10.94900000       7.75000000
 H       4.98000000      10.96600000       7.95200000
 H       6.33900000      10.63600000       8.62200000
 O       8.47200000      14.15900000       1.03200000
 H       9.38800000      14.00800000       1.32900000
 H       8.51900000      14.54700000       0.13800000
 O      13.67000000      13.59400000       4.79100000
 H      13.51700000      14.50100000       4.59600000
 H      12.98300000      13.29700000       5.40000000
 O      13.29600000      15.49700000       7.82800000
 H      13.47300000      16.27700000       7.27900000
 H      12.57500000      15.03500000       7.39400000
 O       7.86500000      13.46400000       9.22200000
 H       7.92000000      13.73200000       8.27800000
 H       7.75600000      12.49800000       9.07600000
 O      14.94000000      15.63700000      10.99400000
 H      15.57800000      15.65000000      10.28900000
 H      14.25800000      14.93400000      10.65500000
 O      14.16400000       4.53300000       6.86800000
 H      13.89300000       5.49300000       6.93800000
 H      14.82400000       4.32900000       7.57900000
 O       5.52900000       5.56200000       8.35100000
 H       5.79600000       4.64200000       8.45300000
 H       6.20900000       6.08100000       8.90600000
 O      14.33700000       5.96700000       3.87600000
 H      15.22000000       5.98900000       4.33300000
 H      13.79300000       6.34200000       4.64900000
 O      12.09900000      14.42000000      10.43300000
 H      11.55900000      15.24400000      10.38000000
 H      12.06700000      14.07000000       9.49100000
 O      11.83700000      10.37000000       0.69700000
 H      11.33800000      10.25100000       1.50800000
 H      11.41500000       9.78000000       0.07100000
 O       6.84800000      11.94900000       0.89700000
 H       7.32300000      12.82800000       1.08800000
 H       5.94600000      12.31100000       0.90500000
 O      10.68600000      14.17600000       7.63700000
 H      10.79400000      14.98400000       8.12800000
 H       9.71700000      14.24200000       7.39200000
 O       7.52900000       8.21500000       8.34500000
 H       7.74000000       7.57200000       7.53700000
 H       6.98900000       8.91300000       7.99500000
 O      13.05300000      11.69900000       8.60100000
 H      12.15400000      11.68500000       8.19300000
 H      12.90500000      11.11600000       9.39900000
 O       9.36700000       7.68500000       4.00000000
 H       9.90600000       8.33900000       3.40800000
 H       9.86100000       7.93500000       4.83300000
 O      13.80400000       9.59300000       3.20900000
 H      14.22600000       9.61900000       4.07800000
 H      12.87300000       9.62300000       3.47800000
 O      15.05800000      12.36700000       2.89100000
 H      14.37600000      12.91500000       3.41000000
 H      14.85300000      11.49700000       3.20000000
 O      15.27500000       6.76000000       1.43500000
 H      14.84200000       6.34400000       2.25700000
 H      15.48100000       7.68300000       1.67600000
 O       9.93900000       8.62500000       6.45700000
 H       9.08500000       8.67900000       6.91100000
 H      10.55400000       8.44200000       7.21400000
 O       7.45000000       6.42800000       6.40700000
 H       7.96500000       5.83400000       5.81900000
 H       6.54700000       6.09600000       6.19600000
 O      11.52900000       8.32300000       8.72900000
 H      10.98500000       8.66700000       9.46300000
 H      12.27200000       7.90700000       9.19700000
 O      14.42400000      10.27700000       5.69600000
 H      14.38500000      10.94600000       6.40700000
 H      14.64100000       9.41200000       6.12600000
 O      15.65800000       8.55200000       7.27500000
 H      16.60300000       8.73700000       7.33500000
 H      15.48500000       8.14200000       8.08500000
 O       9.03600000       9.75000000       0.89800000
 H       8.50900000      10.61600000       0.70100000
 H       9.48900000       9.81200000       0.04800000
 O       6.52700000      11.98700000       5.00400000
 H       6.49600000      11.91300000       5.96400000
 H       6.60000000      11.04800000       4.63500000
 O       6.33600000       8.88000000       1.19800000
 H       7.36000000       8.77300000       1.22800000
 H       6.12100000       9.21400000       0.28800000
 O      12.97500000       6.97700000       6.03700000
 H      12.64900000       7.60000000       6.70600000
 H      12.46300000       7.34400000       5.29600000
 O      15.39000000      12.91300000       8.03700000
 H      14.73100000      12.36900000       8.47100000
 H      15.11600000      13.87200000       8.18100000
 O      14.30000000       7.35500000       9.75500000
 H      14.58900000       6.41200000       9.58100000
 H      14.98700000       7.63000000      10.41100000
 O       7.17200000      14.46100000       3.33800000
 H       7.57400000      14.31800000       2.42500000
 H       7.05000000      13.56500000       3.72300000
 O      11.27200000      13.83600000       1.76000000
 H      11.94000000      13.62400000       1.13300000
 H      11.63400000      14.57100000       2.34200000
 O       4.74700000      15.22700000       4.22400000
 H       4.77100000      15.61500000       5.11900000
 H       5.76600000      15.07400000       4.15800000
 O       6.55300000       6.30000000       2.60500000
 H       7.44200000       5.89800000       2.49600000
 H       6.62300000       7.21200000       2.28900000
