129
XYZ file of cluster: frame_20000_75606.21022.99455 - created by MolEdiTo
 O      25.00400000       7.20500000      28.41500000
 H      24.09500000       7.43900000      28.71000000
 H      24.84700000       6.41500000      27.92600000
 O      24.84000000       7.12800000      22.14500000
 H      24.11400000       7.80200000      22.02700000
 H      25.07400000       7.05500000      23.15900000
 O      23.42000000       4.90500000      21.98200000
 H      22.82100000       4.98700000      21.26900000
 H      24.08700000       5.64500000      21.78500000
 O      16.07400000       5.94000000      26.53700000
 H      16.57700000       6.76800000      26.62300000
 H      15.87500000       5.52100000      27.42700000
 O      19.33700000       5.72600000      27.44800000
 H      19.41000000       6.69800000      27.39500000
 H      18.42300000       5.63100000      27.32300000
 O      18.08500000      14.06300000      26.73800000
 H      18.42000000      14.82300000      27.18600000
 H      17.29400000      14.31400000      26.22600000
 O      19.62900000       7.51200000      21.94000000
 H      19.61000000       6.55600000      22.24400000
 H      18.67400000       7.62500000      21.58700000
 O      19.14200000      13.29200000      22.23000000
 H      18.80900000      12.79700000      21.40600000
 H      19.23100000      12.54100000      22.85300000
 O      26.16600000      11.34700000      24.41400000
 H      25.60800000      10.74500000      25.04000000
 H      25.48400000      11.62900000      23.71800000
 O      24.53200000      12.23100000      22.35800000
 H      25.00800000      11.80800000      21.63000000
 H      23.64100000      12.42800000      21.98200000
 O      19.77000000      13.35900000      28.85900000
 H      20.19300000      14.13600000      28.38000000
 H      19.95800000      12.62500000      28.23800000
 O      16.32700000       8.61200000      23.90700000
 H      15.48500000       8.22000000      23.76100000
 H      16.14500000       9.20200000      24.70300000
 O      22.35500000      15.42200000      21.11600000
 H      21.54400000      15.68800000      21.59500000
 H      22.21900000      14.44300000      21.17800000
 O      25.67500000      14.26700000      26.87600000
 H      25.97100000      15.04300000      27.45300000
 H      25.06500000      14.67900000      26.25800000
 O      24.27900000       9.66800000      25.31300000
 H      24.82300000       8.82500000      25.35100000
 H      23.68600000       9.41400000      24.66600000
 O      21.94300000      14.70900000      27.46900000
 H      22.48700000      14.06200000      26.93900000
 H      21.68500000      15.39500000      26.80500000
 O      19.74800000      15.93400000      22.75600000
 H      19.61800000      15.00300000      22.59500000
 H      19.16400000      16.51500000      22.15200000
 O      21.94000000      12.68500000      21.18400000
 H      21.35100000      12.72700000      21.90700000
 H      21.73800000      11.82900000      20.74700000
 O      22.16700000      11.06000000      29.97800000
 H      21.78300000      11.96000000      30.30500000
 H      22.93600000      11.39000000      29.49500000
 O      20.47900000      11.00800000      24.28200000
 H      19.96400000      10.22100000      24.71300000
 H      20.75400000      10.70200000      23.37300000
 O      16.05700000      14.12200000      24.16000000
 H      16.28700000      14.88600000      23.56900000
 H      15.11600000      14.29300000      24.16900000
 O      17.86500000      11.02800000      20.33100000
 H      17.49500000      10.39700000      19.66700000
 H      17.26600000      10.83500000      21.13000000
 O      15.95500000      13.30700000      29.49900000
 H      16.58700000      13.20200000      28.72100000
 H      16.35300000      12.87300000      30.27500000
 O      17.04600000       7.82800000      21.27400000
 H      16.49900000       8.33200000      20.53600000
 H      16.93500000       8.25700000      22.20100000
 O      16.71100000      11.54100000      24.49900000
 H      16.48400000      11.45900000      23.56300000
 H      16.64300000      12.52600000      24.58400000
 O      20.68700000      10.37500000      27.37000000
 H      20.23900000       9.69200000      26.82000000
 H      20.60500000      10.01800000      28.26400000
 O      15.76300000       4.79600000      24.06200000
 H      15.47000000       5.67300000      24.33500000
 H      16.39800000       4.51600000      24.77100000
 O      22.43200000       7.78100000      28.71200000
 H      21.44000000       8.02800000      28.73800000
 H      22.55100000       7.23300000      27.88100000
 O      23.09400000      12.33900000      26.43800000
 H      22.25800000      11.95500000      26.73000000
 H      23.50400000      11.56700000      25.98600000
 O      23.82000000      14.82800000      24.85900000
 H      23.46400000      13.92900000      25.08300000
 H      22.98400000      15.10800000      24.45400000
 O      21.64200000       6.95500000      24.68700000
 H      22.40900000       6.77900000      24.10300000
 H      21.56800000       6.07100000      25.10000000
 O      22.95400000       8.63400000      21.12500000
 H      22.66100000       7.89700000      20.56500000
 H      22.11900000       9.11000000      21.35200000
 O      17.37500000      11.49500000      27.18800000
 H      17.19300000      11.34500000      26.25300000
 H      17.97500000      12.29800000      27.11800000
 O      20.09100000       8.66400000      29.67700000
 H      19.76700000       8.16800000      30.42300000
 H      20.67700000       9.31800000      30.29200000
 O      22.23000000      14.71600000      30.47500000
 H      22.81000000      14.02300000      30.07400000
 H      21.77700000      15.13600000      29.71700000
 O      25.15300000       6.94100000      25.04500000
 H      24.90200000       6.09800000      25.49800000
 H      26.10400000       6.96000000      25.28000000
 O      20.54100000       9.98500000      21.39000000
 H      20.31100000      10.10000000      20.44800000
 H      20.18200000       9.07300000      21.52000000
 O      17.26600000       8.59900000      27.83800000
 H      17.48100000       9.53700000      27.53900000
 H      17.75600000       8.57700000      28.63500000
 O      19.15400000       8.87300000      25.24200000
 H      19.82500000       8.21500000      24.90400000
 H      18.38300000       8.73900000      24.59800000
 O      20.81900000      13.70200000      25.05200000
 H      20.88500000      12.72700000      24.78600000
 H      19.83900000      13.77500000      25.27400000
 O      24.16800000      13.18800000      29.31800000
 H      24.75100000      13.98900000      29.39900000
 H      23.97000000      13.31600000      28.33000000
 O      15.83600000       5.02100000      29.15400000
 H      15.67100000       5.69200000      29.86000000
 H      15.27700000       4.26900000      29.43400000
 O      26.48200000      15.94800000      23.43600000
 H      25.83700000      15.45800000      23.91100000
 H      26.26100000      15.84000000      22.50200000
