102
XYZ file of cluster: frame_20000_c8a01.249c8.9b481 - created by MolEdiTo
 O      27.27500000      13.56300000      29.39400000
 H      26.95800000      12.60600000      29.16800000
 H      27.64800000      13.84700000      28.50600000
 O      27.17400000       9.54900000      28.79900000
 H      26.49800000       8.90900000      28.56700000
 H      27.01500000      10.30100000      28.13800000
 O      29.51900000       6.29800000      28.09800000
 H      28.79200000       5.62000000      27.78800000
 H      29.93500000       6.72800000      27.30900000
 O      26.96700000      11.89200000      27.17700000
 H      27.55700000      11.96600000      26.37500000
 H      26.30900000      12.55400000      27.10100000
 O      29.83400000       7.64800000      21.29300000
 H      29.76700000       6.68800000      21.36300000
 H      29.21700000       7.89700000      21.99300000
 O      27.68100000       7.96300000      26.40300000
 H      27.77700000       8.91000000      26.59800000
 H      27.44900000       7.57000000      27.28800000
 O      28.30800000       9.57100000      23.00200000
 H      28.67600000      10.06300000      23.69900000
 H      27.41100000       9.59700000      23.26900000
 O      29.62700000      10.06400000      25.35600000
 H      30.24500000      10.24100000      26.13700000
 H      29.34900000       9.08500000      25.41300000
 O      27.98800000      13.66800000      24.21500000
 H      27.09000000      13.36400000      24.46900000
 H      27.90000000      14.62400000      23.88900000
 O      29.56900000      12.39300000      22.01100000
 H      29.21900000      12.43200000      22.90000000
 H      30.12400000      13.28100000      21.98800000
 O      30.35200000      13.40300000      26.37800000
 H      30.67600000      12.59800000      25.87200000
 H      29.56100000      13.64600000      25.86500000
 O      30.03400000       4.73500000      24.53200000
 H      29.70500000       4.94800000      23.57500000
 H      30.30100000       5.52100000      24.99100000
 O      26.48200000      15.94800000      23.43600000
 H      25.83700000      15.45800000      23.91100000
 H      26.26100000      15.84000000      22.50200000
 O      26.50900000      10.26000000      20.90500000
 H      26.89300000      10.51300000      21.77000000
 H      27.35800000      10.12000000      20.43800000
 O      35.47500000      11.74900000      21.86300000
 H      36.02600000      11.94000000      22.63200000
 H      35.02500000      10.95000000      22.17500000
 O      34.73300000      14.17000000      24.14400000
 H      34.58300000      14.14900000      25.09100000
 H      35.28300000      13.39300000      23.99800000
 O      33.04800000       7.76200000      23.43500000
 H      33.28700000       8.70700000      23.34300000
 H      33.36300000       7.36600000      22.55900000
 O      32.26700000      13.43300000      30.43900000
 H      33.21200000      13.31500000      30.25000000
 H      31.77100000      12.83900000      29.85100000
 O      34.88500000       7.72300000      30.40000000
 H      34.18400000       8.15600000      30.98900000
 H      35.49800000       7.28200000      31.00700000
 O      36.68900000       8.48700000      25.39900000
 H      35.98400000       8.08400000      24.87000000
 H      36.78700000       7.77800000      26.04800000
 O      34.87000000      13.50000000      29.40200000
 H      35.36600000      14.08800000      29.96400000
 H      34.68000000      14.03300000      28.66800000
 O      33.01000000      10.78500000      27.23600000
 H      33.69000000      10.21900000      27.56100000
 H      32.79100000      11.11000000      28.14200000
 O      36.28200000      11.48100000      26.57000000
 H      37.24800000      11.25600000      26.54100000
 H      35.81500000      10.84900000      26.99200000
 O      34.69200000      10.76700000      24.46100000
 H      35.40500000      10.12000000      24.82100000
 H      34.31700000      11.25600000      25.24300000
 O      32.95100000      11.08900000      20.40100000
 H      32.41000000      11.22000000      21.23400000
 H      32.97600000      11.99600000      19.95700000
 O      35.51400000       6.07100000      26.41000000
 H      35.08700000       5.22200000      26.56700000
 H      34.70200000       6.62000000      26.65500000
 O      35.25800000      14.56600000      20.86000000
 H      35.63800000      13.88200000      21.36500000
 H      35.43100000      14.33100000      19.92500000
 O      32.22900000      10.45400000      29.93200000
 H      31.44100000       9.91300000      29.98200000
 H      32.37300000      10.62400000      30.90700000
 O      33.84800000       8.45500000      20.64300000
 H      33.57400000       9.41400000      20.84000000
 H      32.98900000       8.00800000      20.92700000
 O      35.49900000      11.04800000      29.92600000
 H      34.71700000      10.46300000      29.93400000
 H      35.21700000      12.00000000      30.17100000
 O      33.43200000      15.35100000      27.20100000
 H      32.77800000      14.61700000      27.14600000
 H      33.19400000      15.69100000      28.07200000
 O      34.75500000       8.69100000      27.85500000
 H      34.78000000       8.16800000      28.64900000
 H      35.69200000       8.94200000      27.85000000
 O      32.46500000      14.62700000      22.55000000
 H      33.12800000      14.34200000      23.24500000
 H      32.67200000      15.58900000      22.35700000
 O      33.00300000       7.45700000      26.21800000
 H      33.20300000       7.60900000      25.21700000
 H      33.35100000       8.18900000      26.79100000
