%chk=cluster_414.chk
%mem=6GB
%nproc=4
#b3lyp/6-311++G** scrf=(cpcm,Solvent=Water) nosymm freq
iop(2/11=1) 
 Geom=(NoDistance,NoAngle)

cluster_414

0 1
 O      14.95700000       4.54800000      13.75500000
 H      15.52300000       4.60700000      14.51500000
 H      14.30900000       3.86700000      14.13900000
 O      17.07800000       5.75700000      15.93300000
 H      17.19300000       6.38300000      16.66700000
 H      17.34000000       4.84600000      16.17200000
 O      18.52300000       6.94600000      13.79200000
 H      18.12400000       6.50300000      14.58800000
 H      19.52000000       7.11700000      14.02900000
 O      18.14800000      10.44000000      18.53900000
 H      18.24000000      11.08000000      19.29300000
 H      18.66700000      10.79100000      17.76200000
 O      15.18500000       8.82500000      18.33700000
 H      14.42900000       9.27400000      18.75000000
 H      15.71700000       9.62300000      18.11500000
 O      19.52400000       4.27100000      17.27200000
 H      19.45600000       3.78100000      16.44700000
 H      18.59600000       4.23400000      17.56800000
 O      16.94700000       3.99400000      18.33000000
 H      16.91700000       3.40600000      19.12100000
 H      16.13000000       3.78600000      17.79400000
 O      15.40000000       8.61500000      15.51700000
 H      15.11100000       8.78700000      16.45600000
 H      14.88900000       7.80800000      15.27600000
 O      13.47800000       6.14600000      16.89800000
 H      12.84800000       6.64600000      17.52000000
 H      14.34000000       6.54300000      17.02000000
 O      17.59100000       7.65200000      17.90400000
 H      17.88400000       8.59600000      17.97800000
 H      16.71900000       7.53100000      18.37700000
 O      19.03900000       5.21300000      20.64500000
 H      18.50200000       5.50100000      19.87600000
 H      19.49500000       4.40000000      20.32800000

