48
XYZ file of cluster: frame_13000_638d.be082.2c1d6 - created by MolEdiTo
 O       4.47000000      18.37700000       8.15900000
 H       4.63600000      17.48000000       7.80000000
 H       3.52500000      18.60200000       7.91000000
 O       3.23500000      20.49500000      11.20500000
 H       2.90900000      19.77500000      10.56800000
 H       3.59100000      19.85100000      11.88300000
 O       1.09200000      20.02900000       8.48700000
 H       0.56300000      20.14900000       9.28300000
 H       0.55600000      19.49700000       7.92800000
 O       7.51200000      17.97400000       6.98300000
 H       8.23100000      18.20300000       6.31600000
 H       6.73200000      18.43300000       6.47500000
 O       4.53000000      17.13700000       3.92800000
 H       3.81300000      16.48900000       4.20600000
 H       4.43200000      17.85200000       4.65100000
 O       6.09200000      18.47400000      11.51400000
 H       6.13300000      18.13100000      10.61400000
 H       5.87600000      17.62700000      12.00700000
 O       6.13500000      20.78800000       8.21800000
 H       6.28900000      19.83100000       8.36000000
 H       5.17500000      20.66500000       8.01000000
 O       2.00900000      18.03800000      10.60400000
 H       2.39100000      17.32500000      10.05500000
 H       2.47100000      17.85300000      11.44100000
 O       2.51200000      18.87500000       5.91400000
 H       1.75700000      19.36300000       5.45400000
 H       2.13600000      18.07500000       6.27800000
 O       5.46800000      19.96600000       5.55800000
 H       4.75400000      20.15100000       6.23400000
 H       5.97600000      20.85800000       5.48900000
 O       1.50200000      23.85100000      10.34500000
 H       2.22400000      23.37300000      10.84400000
 H       0.87700000      23.22900000       9.92100000
 O       3.52800000      22.67500000       4.22500000
 H       2.55900000      22.80600000       4.24500000
 H       3.99700000      23.53500000       3.91600000
 O       6.97700000      23.85500000      11.21300000
 H       6.72700000      23.97200000      10.23400000
 H       7.14800000      24.81300000      11.47100000
 O       6.67300000      24.73300000       7.39700000
 H       5.83600000      24.85700000       6.92600000
 H       6.52600000      23.84600000       7.76700000
 O       3.17600000      22.63100000       7.58400000
 H       2.41800000      21.99400000       7.70100000
 H       2.75400000      23.49700000       7.38600000
 O       4.34200000      24.81800000      10.57400000
 H       4.36200000      23.87800000      10.72200000
 H       3.36500000      25.02300000      10.43300000
