61
XYZ file of cluster: frame_13000_51b65.682c2.25722 - created by MolEdiTo
 O      12.47800000      17.80100000       4.11100000
 H      13.30200000      17.38000000       3.85200000
 H      12.28700000      17.39500000       4.95200000
 O      13.89300000      15.35200000       6.08100000
 H      14.25600000      15.51500000       5.23700000
 H      12.97800000      15.05600000       5.82700000
 O      10.60700000      15.36700000       4.09700000
 H      10.65100000      14.65000000       4.77400000
 H      11.04200000      14.89900000       3.32400000
 O      13.68600000      17.79600000      11.37500000
 H      14.42000000      17.49700000      12.01700000
 H      13.71000000      17.14600000      10.67600000
 O      11.32900000      14.94600000      10.72200000
 H      10.87800000      15.67300000      10.12400000
 H      11.03700000      15.12900000      11.63400000
 O      11.51300000      13.25700000       6.00300000
 H      10.93900000      12.56300000       5.58600000
 H      11.65800000      12.89200000       6.83400000
 O      10.49200000      17.21500000       9.41700000
 H       9.53100000      17.23300000       9.17100000
 H      10.67400000      18.06800000      10.00600000
 O       7.53200000      16.91700000       9.35600000
 H       7.37200000      17.28100000       8.39800000
 H       7.36500000      15.92000000       9.15300000
 O       8.85900000      12.05000000       8.09100000
 H       9.35200000      11.40200000       8.66400000
 H       8.23800000      12.40800000       8.72500000
 C      10.47600000      11.01100000      12.84200000
 C      11.06000000      11.38300000      11.49000000
 C      12.20000000      10.60300000       9.30700000
 H      11.73400000       9.34800000      10.88200000
 H       8.73800000      10.65200000      11.99500000
 O       9.93300000       9.84600000      10.03500000
 O      10.23400000      12.16000000      13.60800000
 O       9.23900000      10.28800000      12.68400000
 C      11.23800000      10.23700000      10.46900000
 O      10.25300000      12.45800000      10.97900000
 H      12.09200000      11.65000000      11.67800000
 O      11.81700000      11.69700000       8.52600000
 O      12.39400000       9.54400000       8.40400000
 H      12.59800000       9.99200000       7.54400000
 H      10.89700000      13.09300000      10.68700000
 H      10.01100000       9.03900000       9.40900000
 O       8.58000000      15.10600000       6.59700000
 H       8.17500000      15.77100000       6.01500000
 H       8.06300000      15.35100000       7.41400000
 O      11.26700000      16.43700000       6.91500000
 H      10.79600000      15.57800000       6.65500000
 H      11.21400000      16.46900000       7.90700000
 O      13.88400000      12.66300000       4.87600000
 H      13.02800000      12.80700000       5.28300000
 H      13.74500000      11.89400000       4.30100000
 O       7.30200000       9.78900000       5.81500000
 H       7.82900000      10.59500000       6.01800000
 H       7.64300000       9.12100000       6.51800000
 O      13.54900000      16.06400000       9.12100000
 H      12.63600000      15.71700000       9.41200000
 H      13.55800000      15.57900000       8.22700000
 O       8.58600000      12.52600000       5.09000000
 H       8.70100000      12.97000000       4.20100000
 H       8.59100000      13.23600000       5.74100000
