123
XYZ file of cluster: frame_9500_35ef.6082.7178b - created by MolEdiTo
 O       1.36500000       9.24600000      26.22200000
 H       0.67600000       9.25900000      26.96200000
 H       1.91000000      10.05200000      26.22400000
 O       6.05000000      10.48100000      17.26100000
 H       5.35400000       9.81000000      17.33500000
 H       6.63500000      10.29100000      16.49500000
 O      10.31100000       4.35100000      23.21100000
 H       9.48700000       3.86500000      23.23000000
 H      10.68700000       4.39800000      24.13600000
 O       4.52900000       1.51000000      23.69200000
 H       5.37900000       1.82200000      23.33200000
 H       4.73000000       1.59900000      24.60900000
 O       9.84900000       5.80100000      26.49000000
 H      10.72200000       5.30100000      26.44600000
 H       9.87300000       6.15400000      27.36900000
 O       4.08300000       8.53800000      17.59900000
 H       3.32800000       8.23200000      18.14900000
 H       4.50100000       7.64400000      17.52100000
 O       8.01000000       6.31400000      24.51700000
 H       8.67000000       6.12500000      25.20700000
 H       8.55000000       6.37500000      23.73800000
 O       1.12900000      10.34600000      22.32100000
 H       1.14100000      10.43900000      23.28500000
 H       0.43800000      11.05800000      22.10700000
 O       3.32800000       5.91300000      18.73300000
 H       4.19500000       5.69900000      19.23800000
 H       3.37700000       5.22500000      18.05600000
 O       1.65500000       2.28800000      23.40800000
 H       2.56100000       1.89800000      23.47800000
 H       1.35800000       2.08500000      24.34600000
 O       7.23300000       8.83600000      23.97800000
 H       7.72600000       8.19300000      24.44300000
 H       7.67200000       8.98000000      23.10700000
 O      10.31200000       7.01700000      22.58900000
 H      10.31200000       6.05000000      22.38400000
 H       9.91800000       7.44300000      21.75500000
 O       7.98800000       5.07600000      20.55400000
 H       8.17400000       4.11300000      20.35400000
 H       7.05200000       5.12200000      20.86200000
 O       2.49100000      10.97400000      17.27700000
 H       3.19500000      10.33000000      16.98600000
 H       1.73100000      10.30900000      17.36100000
 O       9.23900000       9.45500000      17.11100000
 H       9.01400000       8.76800000      17.78400000
 H      10.20700000       9.50700000      17.23000000
 O       1.72300000       2.01300000      15.90900000
 H       1.49000000       2.06800000      16.84500000
 H       0.82800000       2.24800000      15.52100000
 O       5.41000000       1.69200000      15.63200000
 H       5.53900000       0.83600000      16.11300000
 H       5.83300000       1.53300000      14.75300000
 O       8.89200000       1.21900000      16.36900000
 H       8.89600000       1.96000000      15.66500000
 H       8.00200000       0.77000000      16.15300000
 O       4.31000000       9.39700000      24.36800000
 H       5.06800000       8.80500000      24.54900000
 H       3.67800000       8.86000000      23.90700000
 O       9.95700000       3.85900000      18.11000000
 H      10.59700000       3.85300000      18.85200000
 H      10.49600000       4.07200000      17.33300000
 O       9.18100000       2.53900000      26.08900000
 H      10.13700000       2.68300000      26.01300000
 H       9.07500000       1.51900000      26.06600000
 O       7.29400000       6.11600000      17.51000000
 H       7.85200000       6.66000000      18.20200000
 H       7.57800000       5.15700000      17.49600000
 O       3.43000000       6.71100000      23.36800000
 H       3.98800000       6.00700000      23.86000000
 H       2.55300000       6.39800000      23.21800000
 O       4.69300000       2.17100000      20.85000000
 H       4.91900000       3.06400000      21.15800000
 H       5.58700000       1.73600000      20.68800000
 O       9.73200000       7.12500000      18.93300000
 H       9.21400000       6.58200000      19.61100000
 H      10.65700000       6.81400000      19.17400000
 O       5.40900000      10.99100000      22.35500000
 H       5.29800000      10.38500000      23.15900000
 H       4.62300000      10.69800000      21.86900000
 O       5.49900000       5.13300000      24.11400000
 H       6.47100000       5.53300000      24.34500000
 H       5.17800000       4.90200000      25.03900000
 O       1.79000000       3.49900000      20.76300000
 H       2.77900000       3.26500000      20.71500000
 H       1.55900000       3.41200000      21.68500000
 O       2.11800000       6.28000000      26.07700000
 H       1.94200000       7.00900000      26.66800000
 H       3.09300000       6.19400000      26.36800000
 O       9.88000000       6.65000000      16.00300000
 H      10.13100000       6.83800000      16.95300000
 H       9.43500000       5.86100000      16.06000000
 O       8.90800000       2.32500000      20.09300000
 H       9.35500000       1.45100000      20.22800000
 H       9.14300000       2.72000000      19.22700000
 O       9.58500000       9.36500000      26.05000000
 H      10.18400000       8.81200000      26.60300000
 H      10.13700000       9.63300000      25.32800000
 O       5.24800000       4.98500000      21.33600000
 H       5.45100000       5.92500000      21.21800000
 H       5.09000000       4.77900000      22.29000000
 O       0.93000000       8.52900000      18.05200000
 H       1.00100000       9.03600000      18.89100000
 H       0.45200000       7.71700000      18.36800000
 O       3.63800000       3.84700000      16.66100000
 H       2.84200000       3.39500000      16.24300000
 H       4.38700000       3.26600000      16.41400000
 O       3.59300000      10.10900000      20.58000000
 H       2.73600000      10.03800000      21.14200000
 H       4.10200000       9.29500000      20.68300000
 O       5.39400000       7.76500000      21.83600000
 H       6.05900000       7.78100000      22.56400000
 H       4.60500000       7.36500000      22.26800000
 O       6.96900000       9.26600000      19.86800000
 H       6.10100000       9.19500000      20.29500000
 H       6.89900000      10.00500000      19.20500000
 O       8.93400000       9.33300000      21.90700000
 H       8.30200000       9.07700000      21.15400000
 H       8.92900000      10.32800000      21.89000000
 O       7.81500000       1.34200000      23.15500000
 H       8.79100000       1.36400000      23.14900000
 H       7.63500000       1.10500000      22.25400000
 O       6.73600000       2.83200000      25.27200000
 H       7.55500000       2.67700000      25.82300000
 H       7.12000000       2.32400000      24.50800000
