120
XYZ file of cluster: frame_9500_37a8.0.4bf1f - created by MolEdiTo
 O       1.32700000       9.02200000      11.00600000
 H       1.31200000       8.46800000      10.18900000
 H       1.05800000       8.36800000      11.70700000
 O       6.05000000      10.48100000      17.26100000
 H       5.35400000       9.81000000      17.33500000
 H       6.63500000      10.29100000      16.49500000
 O       1.43600000       2.69400000      11.44100000
 H       2.19200000       2.83100000      12.10900000
 H       1.23900000       3.59700000      11.08200000
 O       6.17100000       3.51600000      11.15500000
 H       5.47500000       2.89300000      10.91000000
 H       5.82900000       3.81000000      11.97200000
 O       9.33800000       5.37000000      13.38700000
 H       9.59800000       6.14600000      13.91100000
 H       8.67700000       5.68500000      12.70000000
 O       4.21100000       8.17200000      11.58300000
 H       3.44800000       7.93500000      12.20600000
 H       3.88800000       8.79300000      10.77700000
 O       4.08300000       8.53800000      17.59900000
 H       3.32800000       8.23200000      18.14900000
 H       4.50100000       7.64400000      17.52100000
 O       8.32800000       8.87600000      11.03300000
 H       8.16100000       9.83200000      11.07800000
 H       9.09400000       8.78500000      11.62800000
 O       3.32800000       5.91300000      18.73300000
 H       4.19500000       5.69900000      19.23800000
 H       3.37700000       5.22500000      18.05600000
 O       3.47900000       9.26600000      14.42900000
 H       3.58700000       8.73600000      15.18400000
 H       2.61100000       8.91500000      14.04500000
 O       3.84500000       5.22200000      11.92600000
 H       4.30400000       5.33800000      12.77700000
 H       4.05900000       6.03500000      11.47600000
 O       7.98800000       5.07600000      20.55400000
 H       8.17400000       4.11300000      20.35400000
 H       7.05200000       5.12200000      20.86200000
 O       8.33200000       3.36800000      14.66000000
 H       7.68200000       3.97900000      14.39900000
 H       9.08400000       3.95500000      14.37300000
 O       2.49100000      10.97400000      17.27700000
 H       3.19500000      10.33000000      16.98600000
 H       1.73100000      10.30900000      17.36100000
 O       9.23900000       9.45500000      17.11100000
 H       9.01400000       8.76800000      17.78400000
 H      10.20700000       9.50700000      17.23000000
 O       7.10900000       6.12900000      11.71000000
 H       6.71600000       6.42900000      12.56200000
 H       7.40600000       6.97300000      11.19200000
 O       6.33800000       8.05000000      13.94100000
 H       7.04000000       8.58700000      13.53400000
 H       5.53400000       8.45400000      13.52300000
 O       7.79000000       1.10300000      13.09000000
 H       8.25700000       1.93500000      13.22500000
 H       7.08400000       1.33900000      12.46200000
 O       5.22300000       0.88400000      11.81300000
 H       4.87600000       0.00000000      11.97600000
 H       4.93000000       1.18000000      10.94300000
 O       1.72300000       2.01300000      15.90900000
 H       1.49000000       2.06800000      16.84500000
 H       0.82800000       2.24800000      15.52100000
 O      10.60300000       2.94500000      10.63500000
 H      10.65600000       1.99300000      10.56300000
 H      10.06300000       3.22600000       9.87400000
 O       5.41000000       1.69200000      15.63200000
 H       5.53900000       0.83600000      16.11300000
 H       5.83300000       1.53300000      14.75300000
 O       8.89200000       1.21900000      16.36900000
 H       8.89600000       1.96000000      15.66500000
 H       8.00200000       0.77000000      16.15300000
 O       9.95700000       3.85900000      18.11000000
 H      10.59700000       3.85300000      18.85200000
 H      10.49600000       4.07200000      17.33300000
 O       7.29400000       6.11600000      17.51000000
 H       7.85200000       6.66000000      18.20200000
 H       7.57800000       5.15700000      17.49600000
 O       4.69300000       2.17100000      20.85000000
 H       4.91900000       3.06400000      21.15800000
 H       5.58700000       1.73600000      20.68800000
 O       1.49400000       7.06100000      13.38600000
 H       0.55500000       7.41600000      13.57200000
 H       1.37400000       6.03700000      13.27500000
 O       9.73200000       7.12500000      18.93300000
 H       9.21400000       6.58200000      19.61100000
 H      10.65700000       6.81400000      19.17400000
 O       7.89800000      10.72100000      15.16900000
 H       8.34500000      10.15800000      15.82200000
 H       8.60000000      11.19100000      14.69000000
 O       1.79000000       3.49900000      20.76300000
 H       2.77900000       3.26500000      20.71500000
 H       1.55900000       3.41200000      21.68500000
 O       3.28800000       2.73600000      13.57900000
 H       4.24400000       2.45900000      13.39300000
 H       3.10900000       2.34600000      14.46400000
 O       9.88000000       6.65000000      16.00300000
 H      10.13100000       6.83800000      16.95300000
 H       9.43500000       5.86100000      16.06000000
 O       8.90800000       2.32500000      20.09300000
 H       9.35500000       1.45100000      20.22800000
 H       9.14300000       2.72000000      19.22700000
 O       0.93000000       8.52900000      18.05200000
 H       1.00100000       9.03600000      18.89100000
 H       0.45200000       7.71700000      18.36800000
 O       3.63800000       3.84700000      16.66100000
 H       2.84200000       3.39500000      16.24300000
 H       4.38700000       3.26600000      16.41400000
 O       5.75300000       5.23100000      14.28600000
 H       6.05300000       6.09800000      14.59500000
 H       5.39600000       4.79100000      15.11200000
 O       3.59300000      10.10900000      20.58000000
 H       2.73600000      10.03800000      21.14200000
 H       4.10200000       9.29500000      20.68300000
 O       6.96900000       9.26600000      19.86800000
 H       6.10100000       9.19500000      20.29500000
 H       6.89900000      10.00500000      19.20500000
 O       8.93400000       9.33300000      21.90700000
 H       8.30200000       9.07700000      21.15400000
 H       8.92900000      10.32800000      21.89000000
 O       9.63800000       8.51600000      14.02000000
 H      10.13700000       9.33700000      14.10900000
 H       9.63900000       8.07800000      14.93600000
