138
XYZ file of cluster: frame_9500_bfea6.20eaa.78c34 - created by MolEdiTo
 O      27.37700000      15.04800000      17.95700000
 H      27.27900000      15.84100000      17.38500000
 H      28.11700000      15.25000000      18.49400000
 O      26.76700000       8.51200000      19.39600000
 H      27.36800000       8.81200000      20.11600000
 H      26.67500000       7.54100000      19.57200000
 O      29.71100000      14.87700000      25.84500000
 H      30.19700000      14.02500000      26.01100000
 H      30.43400000      15.40100000      25.37100000
 O      29.52700000      11.13500000      19.13600000
 H      28.83600000      11.90200000      19.13800000
 H      29.73200000      11.15000000      18.18800000
 O      30.59400000       5.92200000      19.24000000
 H      30.47400000       6.36200000      20.16300000
 H      31.54200000       5.64200000      19.29400000
 O      29.52300000       5.60600000      26.06700000
 H      29.24900000       6.46400000      26.50900000
 H      30.45800000       5.84100000      25.83500000
 O      26.84600000       5.17700000      26.17900000
 H      26.66300000       4.20200000      25.98400000
 H      27.82100000       5.19800000      26.03500000
 O      26.52700000       8.88700000      16.75400000
 H      25.79200000       8.21200000      16.64400000
 H      26.64200000       8.55100000      17.69100000
 O      26.54200000       8.96200000      25.55300000
 H      27.28400000       8.36300000      25.85200000
 H      26.80100000       9.89700000      25.75400000
 O      28.95300000      12.34200000      22.32900000
 H      28.27800000      11.98100000      21.72900000
 H      28.80700000      13.33500000      22.39700000
 O      28.87500000      10.91300000      24.80300000
 H      28.85900000      11.52600000      24.04000000
 H      28.04400000      11.17600000      25.33500000
 O      30.43300000       7.45900000      21.63300000
 H      30.71400000       8.39700000      21.76200000
 H      29.96100000       7.36600000      22.51600000
 O      25.69300000      14.59800000      20.91000000
 H      26.45700000      14.01700000      20.75700000
 H      24.93700000      14.25400000      20.40300000
 O      27.92000000      15.02900000      22.79000000
 H      27.47000000      15.85700000      22.95400000
 H      28.74200000      15.12900000      23.30900000
 O      26.44300000      12.52400000      17.68400000
 H      27.08300000      11.92000000      17.24300000
 H      26.86200000      13.38800000      17.52600000
 O      27.28400000       7.38000000      22.35900000
 H      28.06400000       7.66400000      22.89600000
 H      27.34100000       6.37200000      22.46000000
 O      26.47400000      11.67300000      20.36800000
 H      25.68100000      11.23200000      20.84800000
 H      26.49500000      11.20100000      19.44000000
 O      28.64100000      11.00600000      16.54000000
 H      28.97400000      10.25900000      15.99300000
 H      28.64200000      11.85700000      16.00200000
 O      30.66200000      12.21000000      27.06700000
 H      30.15600000      12.35800000      27.91700000
 H      30.11600000      12.00900000      26.31800000
 O      26.59100000       5.79500000      19.59100000
 H      26.78800000       5.54800000      20.53000000
 H      26.10700000       4.99500000      19.28000000
 O      26.69200000      11.88500000      26.03400000
 H      26.06000000      12.35400000      25.39800000
 H      26.79100000      12.43200000      26.79600000
 O      29.35200000       8.29500000      24.22000000
 H      29.98100000       8.36600000      25.03000000
 H      28.95300000       9.25900000      24.21400000
 O      28.99600000       6.99200000      15.70100000
 H      28.20900000       7.42000000      16.10300000
 H      29.88900000       7.45600000      15.98800000
 O      33.08800000       9.24600000      26.22200000
 H      32.39900000       9.25900000      26.96200000
 H      33.63300000      10.05200000      26.22400000
 O      35.99800000      13.37000000      16.76500000
 H      35.79800000      13.26100000      17.73200000
 H      35.76300000      12.53800000      16.39100000
 O      36.80800000      15.61000000      23.32100000
 H      37.16600000      14.69700000      23.48500000
 H      35.89100000      15.46500000      23.54000000
 O      35.80600000       8.53800000      17.59900000
 H      35.05100000       8.23200000      18.14900000
 H      36.22400000       7.64400000      17.52100000
 O      34.61700000      14.62500000      24.55600000
 H      34.51100000      13.72700000      24.89000000
 H      34.74400000      15.12400000      25.39200000
 O      32.85200000      10.34600000      22.32100000
 H      32.86400000      10.43900000      23.28500000
 H      32.16100000      11.05800000      22.10700000
 O      35.05100000       5.91300000      18.73300000
 H      35.91800000       5.69900000      19.23800000
 H      35.10000000       5.22500000      18.05600000
 O      32.59600000      15.50500000      22.81700000
 H      32.55200000      16.46000000      22.79200000
 H      33.27000000      15.26500000      23.57500000
 O      34.21400000      10.97400000      17.27700000
 H      34.91800000      10.33000000      16.98600000
 H      33.45400000      10.30900000      17.36100000
 O      33.45100000      14.02700000      20.27200000
 H      32.89400000      13.38900000      20.68300000
 H      34.34800000      13.60700000      20.26200000
 O      36.03300000       9.39700000      24.36800000
 H      36.79100000       8.80500000      24.54900000
 H      35.40100000       8.86000000      23.90700000
 O      35.15300000       6.71100000      23.36800000
 H      35.71100000       6.00700000      23.86000000
 H      34.27600000       6.39800000      23.21800000
 O      37.13200000      10.99100000      22.35500000
 H      37.02100000      10.38500000      23.15900000
 H      36.34600000      10.69800000      21.86900000
 O      34.92700000      11.93300000      24.93200000
 H      35.39900000      12.04300000      25.77600000
 H      35.22500000      11.01400000      24.70700000
 O      37.22200000       5.13300000      24.11400000
 H      38.19400000       5.53300000      24.34500000
 H      36.90100000       4.90200000      25.03900000
 O      36.04700000      12.78500000      19.84400000
 H      35.82400000      11.82700000      19.79300000
 H      36.91300000      12.87300000      20.21800000
 O      35.75700000      16.20200000      16.77400000
 H      35.42300000      16.32900000      15.87100000
 H      35.94800000      15.21100000      16.94900000
 O      33.84100000       6.28000000      26.07700000
 H      33.66500000       7.00900000      26.66800000
 H      34.81600000       6.19400000      26.36800000
 O      36.97100000       4.98500000      21.33600000
 H      37.17400000       5.92500000      21.21800000
 H      36.81300000       4.77900000      22.29000000
 O      32.65300000       8.52900000      18.05200000
 H      32.72400000       9.03600000      18.89100000
 H      32.17500000       7.71700000      18.36800000
 O      36.43900000      13.42600000      26.67800000
 H      36.87700000      13.66800000      25.79700000
 H      36.80000000      14.13500000      27.28300000
 O      35.31600000      10.10900000      20.58000000
 H      34.45900000      10.03800000      21.14200000
 H      35.82500000       9.29500000      20.68300000
 O      37.11700000       7.76500000      21.83600000
 H      37.78200000       7.78100000      22.56400000
 H      36.32800000       7.36500000      22.26800000
