   -0.039670298   -0.032255846    0.011366958
    0.018516095    0.009592795    0.010897105
    0.021748329    0.023388269   -0.022942968
   -0.002885100    0.001165094   -0.008030838
    0.001263038   -0.014860457   -0.000652282
   -0.000132702    0.015043113    0.003429689
    0.078843468   -0.042243077    0.006832926
   -0.048102988    0.056172264    0.009943566
   -0.029534121   -0.013041890   -0.014994628
   -0.004898155   -0.010759656    0.027315507
   -0.000419762    0.003377773   -0.004305372
    0.006132361    0.008905102   -0.019924456
    0.049499881    0.004149534    0.021735134
    0.007420272    0.006541193   -0.011476135
   -0.057711173   -0.011175042   -0.010796898
   -0.002739694    0.033122225    0.000889966
    0.007436441   -0.015867353   -0.007207029
   -0.001831847   -0.014247202    0.007742184
   -0.003157050    0.000538687   -0.002703057
    0.004586912   -0.002001962   -0.004980649
    0.002258682   -0.001469699    0.009447818
   -0.038405531   -0.004261906    0.056106124
    0.000471812   -0.019644148   -0.023831244
    0.038405385    0.025210245   -0.030666776
   -0.023720072   -0.005133174   -0.013344117
   -0.002362329    0.000149648   -0.006413681
    0.022603063    0.003719740    0.022044586
    0.000756008   -0.010207042    0.043605296
    0.010534681    0.020529930   -0.017467332
   -0.014718011   -0.011504260   -0.030237130
   -0.035823642    0.015395505    0.023726672
    0.030567411   -0.020297094   -0.026581780
    0.005119897    0.004703506    0.002842889
   -0.003188297   -0.006661268   -0.016133487
    0.008379070   -0.005242038    0.012371451
   -0.005242033    0.009168492    0.002391988
