87
XYZ file of cluster: frame_6500_9af18.3626.2abf - created by MolEdiTo
 O      26.11600000       9.94600000       4.71000000
 H      27.12800000       9.94500000       4.73600000
 H      25.99300000      10.32000000       5.60200000
 O      28.48500000       4.21400000      10.39700000
 H      28.73800000       4.19700000      11.29900000
 H      28.60700000       5.14900000      10.08700000
 O      29.94700000       1.42900000      10.09000000
 H      29.81300000       1.95200000       9.23200000
 H      30.87000000       1.05700000       9.99900000
 O      27.41400000       9.55000000       1.02600000
 H      27.84300000      10.34100000       1.32800000
 H      28.15700000       8.92200000       0.81200000
 O      21.50000000       9.27600000       0.93900000
 H      22.35600000       9.47500000       1.38100000
 H      21.67500000       8.48100000       0.34500000
 O      30.37700000       1.36700000       5.45500000
 H      29.87400000       1.71300000       6.28300000
 H      30.01700000       0.44000000       5.57200000
 O      21.83600000      10.83600000       8.98700000
 H      20.84000000      10.83900000       8.85500000
 H      22.16400000      10.13900000       8.34300000
 O      25.88700000       7.04600000       6.78400000
 H      25.22100000       6.39100000       6.47700000
 H      25.54200000       7.93300000       6.75300000
 O      25.97700000       2.45900000       5.27300000
 H      25.48400000       3.00300000       4.61900000
 H      25.28800000       1.79200000       5.45900000
 O      20.42200000       9.68100000       3.77100000
 H      20.00600000      10.50100000       3.40400000
 H      21.10000000       9.42200000       3.16900000
 O      23.46000000       1.80000000       0.97300000
 H      24.22300000       1.89200000       0.38800000
 H      23.02600000       0.92300000       0.69000000
 O      28.07700000       2.62400000       7.29000000
 H      27.48400000       3.14100000       7.78600000
 H      27.63500000       2.53200000       6.41200000
 O      30.03900000       3.99700000       4.48600000
 H      30.48900000       4.48000000       3.70600000
 H      30.29600000       3.02900000       4.22600000
 O      28.26800000       6.89800000       9.55900000
 H      27.34300000       6.96500000       9.63800000
 H      28.42000000       7.40000000       8.73200000
 O      30.59700000       3.90300000       7.78500000
 H      30.86600000       3.94300000       6.81800000
 H      29.65600000       4.15000000       7.82700000
 O      22.66700000       6.73700000       8.26600000
 H      23.53300000       7.19800000       8.32600000
 H      22.17400000       7.21800000       7.60400000
 O      28.69300000       9.99800000       4.82800000
 H      29.53200000       9.75300000       5.29100000
 H      29.03400000      10.51300000       3.98500000
 O      26.19900000       1.49300000      10.28800000
 H      26.77800000       2.25100000      10.52900000
 H      26.67800000       0.98700000       9.57900000
 O      22.12300000       5.81500000       2.64800000
 H      21.60100000       6.57500000       2.27900000
 H      21.64300000       4.99900000       2.26300000
 O      24.21800000       3.83900000       3.76100000
 H      23.87400000       4.78900000       3.71800000
 H      23.36900000       3.35600000       3.58400000
 O      28.34300000       8.55500000       7.32600000
 H      27.50700000       8.17100000       7.11500000
 H      28.17400000       9.44200000       7.80400000
 O      21.70600000       3.04900000       4.85400000
 H      21.42300000       4.01600000       4.93800000
 H      21.03300000       2.66900000       4.24000000
 O      28.06600000       1.40900000       1.91900000
 H      28.35600000       2.15300000       2.52500000
 H      27.07000000       1.38200000       2.13100000
 O      27.07700000      10.82100000       8.97900000
 H      27.02700000      11.77900000       9.34100000
 H      26.62100000      10.27300000       9.69700000
 O      21.55500000       5.13700000      10.61700000
 H      22.10800000       5.78000000      10.09700000
 H      20.65800000       5.54600000      10.62100000
 O      21.27700000       3.52700000       1.61700000
 H      21.72600000       2.64500000       1.40300000
 H      21.42400000       4.01400000       0.73500000
 O      23.88600000       9.40400000       6.36100000
 H      23.60900000       9.09300000       5.51300000
 H      23.44100000      10.24300000       6.49800000
 O      22.56800000       2.98500000       9.25600000
 H      22.31700000       3.84800000       9.65100000
 H      23.54800000       2.85200000       9.05500000
 O      23.48900000       8.24800000       3.89300000
 H      23.36100000       7.26600000       3.71500000
 H      24.40500000       8.36600000       4.13900000
