144
XYZ file of cluster: frame_6500_211df.75513.99575 - created by MolEdiTo
 O       7.02600000      22.87100000      22.99500000
 H       7.55100000      22.12100000      22.65800000
 H       6.33200000      22.82800000      22.29700000
 O       6.50000000      17.79100000      24.05500000
 H       7.27000000      18.32100000      24.39900000
 H       5.75600000      18.40100000      23.99400000
 O       6.12200000      21.46600000      24.69000000
 H       6.91100000      21.96400000      24.37300000
 H       5.35700000      21.80700000      24.19400000
 O      13.69900000      18.15900000      22.67000000
 H      14.37500000      17.44500000      22.83200000
 H      13.40500000      18.08800000      21.72000000
 O      15.43400000      19.73700000      26.19300000
 H      15.68300000      19.95100000      25.31300000
 H      14.61400000      20.28000000      26.30900000
 O       6.54700000      20.18100000      27.03200000
 H       6.45500000      20.78000000      26.20300000
 H       6.13400000      19.34700000      26.74400000
 O       6.78900000      16.84900000      27.55100000
 H       6.20900000      16.93000000      26.80500000
 H       7.65200000      16.44500000      27.29300000
 O      13.28900000      18.12500000      28.06200000
 H      13.47400000      17.75600000      29.00800000
 H      13.46300000      17.28200000      27.61400000
 O       7.53200000      24.50000000      25.87300000
 H       7.52600000      23.57900000      25.61100000
 H       8.38300000      24.65400000      26.22500000
 O       5.95400000      25.40700000      25.85600000
 H       5.48300000      24.72800000      26.42700000
 H       6.86900000      25.20600000      25.65100000
 O      15.95500000      24.13700000      27.97000000
 H      15.60100000      23.50600000      27.27800000
 H      15.21200000      24.38400000      28.52200000
 O      13.52800000      21.80300000      26.34700000
 H      12.94100000      21.10500000      26.51400000
 H      13.30100000      22.14300000      25.42200000
 O       5.54900000      22.65500000      21.85100000
 H       5.53600000      23.38600000      22.43600000
 H       4.87500000      22.98400000      21.18400000
 O      13.26500000      20.67600000      23.54600000
 H      12.90200000      21.10400000      22.70800000
 H      13.20100000      19.76500000      23.41900000
 O      11.22200000      22.86000000      30.41900000
 H      11.94200000      23.21000000      29.88800000
 H      11.61600000      22.10900000      30.89500000
 O      11.33100000      25.38700000      25.73200000
 H      10.96500000      24.92300000      26.57200000
 H      10.59700000      25.20900000      25.11900000
 O      12.86200000      24.46000000      27.98800000
 H      13.26800000      23.53400000      27.80200000
 H      12.63300000      24.88400000      27.08900000
 O       8.12100000      19.11500000      24.67900000
 H       8.74500000      18.44700000      25.10300000
 H       8.73700000      19.43800000      24.07000000
 O       9.95000000      17.38100000      26.13500000
 H       9.62800000      17.31800000      27.05700000
 H      10.86700000      16.97700000      26.08400000
 O       6.00100000      16.12300000      21.64900000
 H       6.57300000      15.98200000      20.84100000
 H       6.51700000      15.64000000      22.31400000
 O      14.77500000      24.54800000      22.63900000
 H      15.26700000      25.12200000      21.93700000
 H      13.84600000      24.66900000      22.44400000
 O       7.70800000      20.76500000      22.28300000
 H       6.91600000      20.79000000      21.76300000
 H       7.63300000      19.90200000      22.84100000
 O       9.58700000      25.51900000      23.31500000
 H       9.50600000      26.46000000      23.08400000
 H      10.14400000      25.22300000      22.56900000
 O       8.63400000      21.56400000      27.00700000
 H       8.18300000      20.97800000      26.30900000
 H       9.62000000      21.38000000      26.83300000
 O       7.96600000      16.31800000      22.34000000
 H       7.51100000      15.64300000      21.66000000
 H       7.15500000      16.50600000      22.87500000
 O      12.74500000      25.91700000      23.35000000
 H      12.37500000      26.04400000      24.24100000
 H      13.66200000      25.57900000      23.53300000
 O       6.71900000      22.29100000      29.02400000
 H       7.28500000      22.12700000      28.21500000
 H       6.56800000      23.26500000      29.15300000
 O      16.59200000      20.40100000      23.66000000
 H      16.68100000      21.39000000      23.64200000
 H      15.67600000      20.33400000      23.34600000
 O       8.51400000      23.36800000      20.77400000
 H       8.62200000      22.49000000      21.27100000
 H       8.59300000      23.17800000      19.80100000
 O      12.36300000      22.83200000      22.69200000
 H      12.21900000      22.97100000      21.73300000
 H      11.93900000      23.58800000      23.24400000
 O      14.67400000      22.05700000      21.17600000
 H      14.73200000      22.30900000      22.14500000
 H      14.68600000      22.84300000      20.64900000
 O       7.32800000      17.13500000      30.28000000
 H       6.93100000      16.42600000      30.78200000
 H       6.95600000      16.94600000      29.33300000
 O      11.12900000      20.31000000      26.54400000
 H      11.01400000      19.68600000      25.80500000
 H      11.18300000      19.73200000      27.35800000
 O       7.50900000      25.44100000      22.46300000
 H       7.70200000      24.68700000      21.82600000
 H       8.02800000      25.13700000      23.23400000
 O       8.57300000      16.56800000      28.50600000
 H       8.99100000      16.91100000      29.33600000
 H       7.73400000      16.09400000      28.73500000
 O       6.02300000      26.36000000      21.61000000
 H       6.85100000      26.11000000      21.99600000
 H       5.89400000      27.22600000      22.00000000
 O      14.48400000      21.07500000      29.00800000
 H      15.26400000      20.54300000      29.17900000
 H      13.78200000      20.55000000      28.63200000
 O       9.73900000      17.29400000      21.29100000
 H       9.05800000      17.65700000      20.64600000
 H       9.32300000      17.17100000      22.24200000
 O       8.31000000      19.22200000      29.27900000
 H       7.45200000      18.68600000      29.50300000
 H       8.03400000      19.85400000      28.52800000
 O      10.40600000      25.23400000      21.67400000
 H       9.66700000      24.65400000      21.21000000
 H      10.52200000      25.91400000      20.90900000
 O       4.42000000      18.02600000      30.26800000
 H       5.42600000      18.08500000      30.35300000
 H       4.27600000      18.22900000      29.35000000
 O      13.69900000      26.70600000      29.16200000
 H      13.48300000      27.18000000      28.33200000
 H      13.35800000      25.77200000      28.85200000
 O       6.94700000      24.94400000      29.35500000
 H       6.58300000      25.92700000      29.33400000
 H       6.33900000      24.44200000      28.71500000
 O      15.70700000      15.81900000      22.66000000
 H      15.46100000      15.25300000      23.44200000
 H      16.40900000      16.40800000      22.95100000
 O      11.01300000      20.08700000      20.91400000
 H      10.40700000      19.35900000      21.07800000
 H      10.40900000      20.72500000      20.40200000
 O      14.19400000      16.00000000      30.31500000
 H      13.30300000      15.55700000      30.24500000
 H      14.64100000      15.92900000      29.43700000
 O      10.15600000      20.34900000      23.03900000
 H      10.94700000      20.99600000      23.17700000
 H      10.34800000      20.03400000      22.09200000
 O       9.95100000      24.52900000      27.93800000
 H       9.57200000      24.57200000      28.87500000
 H       9.82900000      23.63000000      27.66000000
