129
XYZ file of cluster: frame_6500_75b6c.13f0.71a71 - created by MolEdiTo
 O      21.71100000       7.68300000      22.61800000
 H      22.16900000       7.17100000      21.89800000
 H      21.18100000       7.11900000      23.20000000
 O      20.29700000       4.30700000      24.16300000
 H      19.26400000       4.04500000      24.26700000
 H      20.73500000       3.42300000      23.97600000
 O      25.67600000       8.10100000      20.69200000
 H      25.61100000       7.30300000      20.15600000
 H      24.85200000       8.50400000      20.53300000
 O      17.61600000       3.59500000      24.11700000
 H      17.33700000       2.78700000      23.57100000
 H      17.12000000       3.25700000      24.91200000
 O      20.63100000       2.55800000      16.94700000
 H      21.11400000       2.37900000      17.81700000
 H      20.35400000       3.48700000      17.11900000
 O      20.71000000       1.54000000      23.28400000
 H      21.31400000       1.75500000      23.95700000
 H      21.12100000       1.28800000      22.42300000
 O      20.82000000       1.93800000      19.63800000
 H      21.66000000       1.56100000      19.94500000
 H      20.20900000       1.15000000      19.71500000
 O      22.91300000       2.13200000      25.06600000
 H      23.63300000       2.18000000      24.46200000
 H      23.13500000       2.63400000      25.84400000
 O      25.69400000       1.43100000      22.34900000
 H      26.55200000       1.04400000      22.55400000
 H      25.62800000       2.32100000      22.72300000
 O      21.93000000       5.09600000      15.13400000
 H      22.17000000       4.90100000      16.11700000
 H      22.41700000       4.43200000      14.67600000
 O      22.88200000      10.23900000      25.62600000
 H      22.16100000      10.65100000      25.22900000
 H      23.38000000       9.90200000      24.83100000
 O      26.19900000       3.39600000      24.06800000
 H      27.04200000       3.12100000      24.52600000
 H      25.92100000       4.11600000      24.67500000
 O      17.61600000       3.02100000      19.98300000
 H      18.52400000       2.88100000      19.59500000
 H      17.90700000       2.94000000      20.91800000
 O      17.11700000       6.52800000      24.19700000
 H      16.64900000       5.95600000      23.56500000
 H      17.10200000       7.44100000      23.79900000
 O      16.61700000       0.86100000      23.59700000
 H      17.30200000       0.16200000      23.60400000
 H      15.96200000       0.58300000      24.24600000
 O      19.37500000       9.63100000      26.50600000
 H      18.43400000       9.85900000      26.20300000
 H      19.96400000      10.28000000      26.29500000
 O      21.01300000       5.20300000      19.11800000
 H      21.98200000       5.32900000      18.91500000
 H      21.01100000       4.32700000      19.54900000
 O      17.91300000      10.97500000      22.83900000
 H      18.11600000      10.58500000      21.91300000
 H      18.63000000      10.45200000      23.31300000
 O      25.84900000       2.97500000      16.81100000
 H      26.02300000       2.95100000      15.84100000
 H      26.68500000       2.76400000      17.18400000
 O      23.74300000       4.88000000      22.89000000
 H      24.73300000       4.78700000      22.89900000
 H      23.46100000       4.99300000      23.80900000
 O      16.63100000       3.89300000      17.30800000
 H      16.99200000       3.12500000      16.84900000
 H      17.01200000       3.81900000      18.19800000
 O      20.74400000      10.23400000      21.67100000
 H      20.32400000      10.35500000      20.77100000
 H      21.59100000      10.69900000      21.61200000
 O      26.39000000       5.82100000      18.35700000
 H      26.78300000       5.25900000      17.67700000
 H      25.70100000       6.38500000      17.86500000
 O      19.51200000       4.69100000      22.08500000
 H      20.30100000       4.32500000      21.70500000
 H      19.51500000       4.33000000      22.95300000
 O      24.09600000       1.84000000      20.59300000
 H      24.83400000       1.53400000      21.09600000
 H      24.24200000       1.39900000      19.72500000
 O      16.78900000      10.23300000      25.11400000
 H      16.47400000      10.97800000      25.65500000
 H      16.38800000       9.35400000      25.34200000
 O      19.97500000       9.64700000      23.32400000
 H      19.94000000       8.86200000      23.88800000
 H      20.38700000       9.36400000      22.48200000
 O      17.08600000       7.16700000      26.72300000
 H      17.80300000       6.60100000      26.95900000
 H      17.18300000       7.13500000      25.74700000
 O      26.72900000       9.72200000      25.44900000
 H      26.00300000      10.20800000      25.91900000
 H      26.28700000       9.21800000      24.70200000
 O      17.57600000      10.12500000      19.89300000
 H      17.67700000      10.08400000      18.90100000
 H      16.60700000       9.93600000      20.00300000
 O      23.08400000       8.86800000      20.20700000
 H      22.47600000       9.45500000      19.62400000
 H      22.60400000       8.96200000      21.07900000
 O      23.96100000       9.01200000      23.07300000
 H      24.74600000       8.40000000      22.75300000
 H      23.14400000       8.49400000      22.76600000
 O      17.64400000       9.38300000      17.22000000
 H      16.83800000       9.16400000      16.62100000
 H      18.06900000       8.53800000      17.23300000
 O      17.81600000       6.71100000      20.36700000
 H      18.50900000       7.24200000      19.94400000
 H      18.34800000       6.04600000      20.83400000
 O      23.40100000       3.87700000      18.03700000
 H      24.23600000       3.80200000      17.51000000
 H      23.51800000       3.33900000      18.86900000
 O      19.99000000       7.03300000      23.78900000
 H      19.01100000       6.78800000      23.64200000
 H      20.28100000       6.25500000      24.36800000
 O      16.49600000       8.63000000      22.49900000
 H      16.97200000       9.43600000      22.82500000
 H      15.93700000       9.01000000      21.72200000
 O      19.39900000       6.94500000      17.76500000
 H      20.04000000       6.31700000      18.23000000
 H      18.50400000       6.80100000      18.05100000
 O      20.48600000       9.84000000      18.76900000
 H      20.31900000       8.93000000      18.39200000
 H      19.78600000      10.41000000      18.48200000
 O      15.50500000       6.03200000      22.35400000
 H      15.19900000       6.90200000      22.14100000
 H      16.24700000       5.72600000      21.76800000
 O      24.29800000       7.44200000      17.14300000
 H      24.21400000       8.19500000      16.48700000
 H      23.53700000       7.61400000      17.76900000
 O      22.17700000       3.74900000      21.67800000
 H      22.61800000       4.22600000      22.45800000
 H      22.92300000       3.29500000      21.22700000
 O      22.36000000       5.27100000      25.59800000
 H      21.99300000       5.98500000      26.15700000
 H      21.56200000       5.03600000      25.03600000
