135
XYZ file of cluster: frame_6500_6107.97e5d.6efb1 - created by MolEdiTo
 O       7.02600000      22.87100000      22.99500000
 H       7.55100000      22.12100000      22.65800000
 H       6.33200000      22.82800000      22.29700000
 O       8.05500000      22.88200000      17.92700000
 H       8.24700000      23.83000000      17.71300000
 H       7.44500000      22.74400000      17.15900000
 O       6.12200000      21.46600000      24.69000000
 H       6.91100000      21.96400000      24.37300000
 H       5.35700000      21.80700000      24.19400000
 O       4.26400000      20.37000000      19.01700000
 H       4.05100000      21.17000000      18.47800000
 H       3.67100000      19.74900000      18.47500000
 O       6.07200000      30.30500000      18.15900000
 H       6.29500000      31.26600000      18.34200000
 H       5.12700000      30.45700000      18.04400000
 O       8.21100000      28.01600000      21.08100000
 H       8.25100000      27.83600000      22.02400000
 H       8.20300000      27.08500000      20.66900000
 O      10.28700000      29.31500000      17.13500000
 H      10.09500000      28.42700000      17.49500000
 H       9.59100000      29.90700000      17.55200000
 O       7.53200000      24.50000000      25.87300000
 H       7.52600000      23.57900000      25.61100000
 H       8.38300000      24.65400000      26.22500000
 O       2.13700000      23.75200000      22.74000000
 H       1.42700000      23.14500000      22.68300000
 H       1.97300000      24.57800000      22.18100000
 O       7.55200000      24.62100000      15.96700000
 H       7.98900000      25.16600000      15.27700000
 H       7.08000000      25.06900000      16.73000000
 O       5.95400000      25.40700000      25.85600000
 H       5.48300000      24.72800000      26.42700000
 H       6.86900000      25.20600000      25.65100000
 O       2.92100000      25.94600000      17.41000000
 H       3.63000000      26.16900000      18.08200000
 H       2.10200000      25.67100000      17.88300000
 O       5.54900000      22.65500000      21.85100000
 H       5.53600000      23.38600000      22.43600000
 H       4.87500000      22.98400000      21.18400000
 O       9.96200000      28.04500000      22.64700000
 H      10.40200000      28.41100000      23.38200000
 H      10.68500000      27.90700000      21.99500000
 O       6.94900000      24.50600000      19.46700000
 H       6.28300000      24.89400000      20.10400000
 H       7.39600000      23.80500000      20.03000000
 O       7.62900000      27.52900000      18.45000000
 H       6.92500000      26.86600000      18.73700000
 H       8.16100000      27.87200000      19.24100000
 O       3.14700000      21.55500000      23.51700000
 H       2.62200000      21.72700000      22.65700000
 H       3.51200000      22.44100000      23.71900000
 O       9.58700000      25.51900000      23.31500000
 H       9.50600000      26.46000000      23.08400000
 H      10.14400000      25.22300000      22.56900000
 O       6.81100000      29.27400000      16.12700000
 H       6.26900000      29.70200000      16.86400000
 H       7.59300000      28.78200000      16.56700000
 O       1.43100000      30.48300000      18.66300000
 H       0.83700000      31.13900000      18.30100000
 H       0.78300000      29.79100000      18.97000000
 O       7.38800000      30.52300000      20.64300000
 H       7.76300000      29.61100000      20.96600000
 H       7.96500000      30.60400000      19.77200000
 O       8.51400000      23.36800000      20.77400000
 H       8.62200000      22.49000000      21.27100000
 H       8.59300000      23.17800000      19.80100000
 O       2.16400000      27.23000000      14.97600000
 H       2.54000000      26.80400000      15.80800000
 H       3.05500000      27.50000000      14.59300000
 O       4.75300000      29.24700000      25.09100000
 H       4.49400000      29.85200000      25.83400000
 H       4.85800000      29.94400000      24.38400000
 O       1.08500000      23.83700000      24.77200000
 H       0.84900000      23.97500000      25.76800000
 H       2.02600000      23.50000000      24.84600000
 O      11.07500000      29.71800000      24.82500000
 H      10.10500000      29.64600000      25.01000000
 H      11.17700000      30.32900000      24.14300000
 O       8.47100000      30.05100000      26.05900000
 H       7.72300000      29.40300000      26.28900000
 H       9.01500000      30.14400000      26.87700000
 O       1.97400000      27.77800000      24.79800000
 H       2.68400000      27.14800000      24.99500000
 H       1.50000000      27.73600000      25.67200000
 O       7.50900000      25.44100000      22.46300000
 H       7.70200000      24.68700000      21.82600000
 H       8.02800000      25.13700000      23.23400000
 O       1.06500000      21.49400000      20.80000000
 H       1.16200000      21.30100000      19.89900000
 H       1.13500000      20.57700000      21.13800000
 O       3.62800000      24.34300000      14.93900000
 H       3.99100000      24.94800000      14.33100000
 H       3.52900000      24.70000000      15.87400000
 O       4.99700000      27.19900000      18.50700000
 H       5.79700000      26.61300000      18.75200000
 H       5.23600000      28.13700000      18.42900000
 O       6.02300000      26.36000000      21.61000000
 H       6.85100000      26.11000000      21.99600000
 H       5.89400000      27.22600000      22.00000000
 O       4.07600000      23.74400000      20.51900000
 H       3.29100000      23.23300000      20.58000000
 H       3.93800000      24.73500000      20.55400000
 O       4.23200000      24.20700000      24.18400000
 H       4.91500000      24.82600000      24.60300000
 H       3.46300000      24.65600000      23.85300000
 O       9.65200000      25.32800000      17.39300000
 H      10.15900000      25.96900000      17.94000000
 H       9.18900000      25.88000000      16.73300000
 O      10.40600000      25.23400000      21.67400000
 H       9.66700000      24.65400000      21.21000000
 H      10.52200000      25.91400000      20.90900000
 O       3.31000000      22.56300000      17.21000000
 H       2.35900000      22.64700000      17.20600000
 H       3.63400000      22.92700000      16.36500000
 O       2.93000000      26.37500000      20.31900000
 H       3.65700000      26.76200000      19.71900000
 H       2.90200000      26.98100000      21.07600000
 O      10.29300000      21.32200000      17.81100000
 H       9.37500000      21.63100000      17.79400000
 H      10.28900000      20.40900000      17.40800000
 O       8.35900000      27.27700000      25.39300000
 H       7.73300000      26.57500000      25.48600000
 H       8.34200000      27.39700000      24.40700000
 O       4.94800000      28.34400000      22.38200000
 H       4.67600000      28.26700000      23.31100000
 H       4.93600000      29.32700000      22.28700000
 O       3.55000000      29.54800000      20.44200000
 H       3.13500000      29.49500000      21.33100000
 H       2.79000000      29.92200000      19.90300000
 O       6.97800000      20.89700000      19.88300000
 H       7.07600000      21.35000000      19.04700000
 H       6.04200000      20.62700000      19.83800000
 O       1.77800000      28.00800000      22.50500000
 H       1.24200000      27.23600000      22.35500000
 H       2.26800000      27.81800000      23.27100000
