102
XYZ file of cluster: frame_6500_6ab1.9da89.8415 - created by MolEdiTo
 O       1.91800000      27.77000000       3.09400000
 H       2.57200000      27.51000000       2.41000000
 H       1.21200000      28.25600000       2.59200000
 O       4.48100000      30.23100000       1.27700000
 H       3.64800000      30.69800000       1.24800000
 H       4.22000000      29.26600000       1.19100000
 O       4.29900000      27.31600000       1.31000000
 H       4.31100000      26.44500000       1.76300000
 H       5.22100000      27.57900000       1.26300000
 O       9.54100000      27.03200000       6.19900000
 H       9.83500000      26.15400000       6.55300000
 H      10.15000000      27.12200000       5.45400000
 O       6.17800000      29.02500000       4.43000000
 H       6.98400000      29.15400000       4.97300000
 H       5.37200000      29.26100000       5.04600000
 O       3.11500000      27.72900000       5.49000000
 H       2.59200000      27.57900000       4.66200000
 H       2.53500000      28.30800000       6.00500000
 O       2.79900000      28.24600000       8.35700000
 H       3.66600000      27.74000000       8.29400000
 H       2.20700000      27.56800000       7.91500000
 O       4.75100000      23.54500000       7.26300000
 H       5.59000000      23.05900000       7.07800000
 H       4.38100000      23.51500000       6.37100000
 O       1.03500000      25.01000000       3.25200000
 H       1.25000000      24.73000000       4.15400000
 H       0.86100000      25.97800000       3.30000000
 O       6.93600000      21.10100000       6.60600000
 H       7.79100000      21.56000000       6.64100000
 H       6.64300000      20.77700000       5.69100000
 O       5.29500000      26.61400000      10.72200000
 H       4.93300000      27.43800000      11.13500000
 H       5.54100000      26.94200000       9.82700000
 O       2.11700000      24.14300000       5.97200000
 H       2.47400000      24.19400000       6.83300000
 H       1.16900000      24.08100000       6.21100000
 O       9.53800000      21.17700000       3.83600000
 H       8.84200000      21.84100000       3.65800000
 H       9.66100000      20.75400000       2.93100000
 O       7.44400000      27.31600000       2.68400000
 H       7.02200000      27.93600000       3.34100000
 H       7.18300000      27.58000000       1.75100000
 O       6.72000000      22.22900000       4.00000000
 H       6.78200000      23.06800000       3.55100000
 H       6.78900000      21.50700000       3.27100000
 O       4.91000000      22.45100000       4.18200000
 H       5.75800000      22.87100000       4.20500000
 H       5.08700000      21.50900000       4.01800000
 O       6.94300000      28.28000000       6.25400000
 H       7.24200000      29.17400000       6.50000000
 H       7.79000000      27.80400000       6.03600000
 O       1.20500000      26.32600000      10.48200000
 H       2.02500000      26.83800000      10.73500000
 H       1.61800000      25.53400000      10.15600000
 O      10.12500000      24.82900000       7.79600000
 H       9.79900000      23.89600000       7.89900000
 H      10.99000000      24.75600000       8.16500000
 O       9.64200000      26.29400000      10.80400000
 H       9.58800000      25.53500000      11.42200000
 H       9.42500000      25.86900000       9.94000000
 O       8.49300000      29.33400000       9.04800000
 H       8.43700000      28.41100000       8.74000000
 H       9.21400000      29.40900000       9.68000000
 O       7.47900000      25.15100000       1.78300000
 H       7.05800000      26.00800000       2.06300000
 H       6.88700000      24.70300000       1.21000000
 O       3.49800000      24.79100000       9.63200000
 H       4.27700000      25.29700000      10.01800000
 H       3.86800000      24.44800000       8.77900000
 O       6.90300000      24.59400000       6.85400000
 H       6.09200000      25.08300000       6.47500000
 H       7.52200000      25.31300000       7.18400000
 O      10.10200000      25.20400000       1.06600000
 H      10.52500000      24.27400000       1.14400000
 H       9.12500000      24.96200000       1.08600000
 O       8.86100000      24.36400000       4.48100000
 H       8.88000000      24.73200000       3.56400000
 H       7.94400000      24.48100000       4.81400000
 O      10.44300000      30.47700000       5.54100000
 H      10.89700000      30.17000000       4.70700000
 H      11.03200000      30.03800000       6.19000000
 O       8.63700000      22.40500000       6.76800000
 H       9.05900000      21.96000000       6.00300000
 H       8.44700000      23.37500000       6.42200000
 O       8.19100000      20.56200000      10.60900000
 H       7.51700000      21.19200000      10.43400000
 H       8.62600000      20.49800000       9.69100000
 O       5.69400000      27.67000000       8.01300000
 H       5.70500000      28.64700000       7.89800000
 H       6.55200000      27.41900000       7.50300000
 O       5.97700000      30.40400000       7.12000000
 H       5.02100000      30.55200000       7.33000000
 H       6.43500000      31.13400000       7.57300000
 O       4.59100000      25.19000000       2.80300000
 H       5.25900000      25.33100000       3.57500000
 H       4.11800000      24.34100000       3.16300000
 O       6.15900000      25.60700000       5.16600000
 H       6.71800000      26.14500000       4.55700000
 H       5.41600000      26.20300000       5.30100000
 O       2.41600000      22.18400000       8.80300000
 H       2.56900000      21.51100000       9.44300000
 H       2.78600000      22.85900000       9.38000000
