42
XYZ file of cluster: frame_10500_0.3e74.8354 - created by MolEdiTo
 O       0.81100000       7.42800000       6.82300000
 H       1.76500000       7.71800000       6.68300000
 H       0.78200000       6.50100000       7.22700000
 O       5.22800000       3.85100000       1.51100000
 H       4.71500000       3.47000000       0.71900000
 H       4.89600000       3.45900000       2.25700000
 O       2.46400000       4.53000000       2.71900000
 H       1.94300000       3.77800000       2.46100000
 H       2.99100000       4.09700000       3.42800000
 O       5.45700000       4.67800000       7.22400000
 H       6.18600000       4.28200000       6.66800000
 H       5.86500000       5.34300000       7.79700000
 O       4.65500000       3.31300000       4.57800000
 H       4.86300000       2.46600000       5.09800000
 H       3.84700000       3.64100000       5.13200000
 O       7.64100000       5.48000000       2.45300000
 H       7.54700000       4.86100000       3.18600000
 H       6.77500000       5.57400000       2.01000000
 O       7.49400000       3.78600000       4.46400000
 H       6.61700000       3.40100000       4.40000000
 H       8.03200000       3.01200000       4.71200000
 O       4.52500000       6.55800000       3.44900000
 H       4.89200000       7.00400000       4.30200000
 H       3.55200000       6.64300000       3.48400000
 O       2.55700000       3.73300000       6.36800000
 H       2.34700000       2.84300000       6.72500000
 H       2.59800000       4.36800000       7.11800000
 O       0.78100000       2.07000000       4.72000000
 H       1.26200000       1.24200000       4.72900000
 H       1.49900000       2.73700000       4.96600000
 O       3.59100000       1.05700000       1.50400000
 H       3.45500000       0.98800000       2.48000000
 H       3.04700000       0.33900000       1.20000000
 O       3.94900000       7.55500000       7.17600000
 H       4.08100000       6.68900000       6.65700000
 H       3.93900000       7.14000000       8.07000000
 O       0.91800000       6.59000000       3.81300000
 H       1.36300000       5.66800000       3.58500000
 H       0.00000000       6.31900000       4.17900000
 O       5.47400000       1.34800000       6.39300000
 H       5.14700000       1.97900000       7.08900000
 H       5.87700000       0.61200000       6.84500000
