58
XYZ file of cluster: frame_10500_4b51e.46d27.1b97a - created by MolEdiTo
 O       7.28200000      12.50800000       4.28800000
 H       8.15000000      12.23800000       3.96700000
 H       6.59100000      12.41500000       3.56700000
 O      12.92400000      11.74600000       6.45300000
 H      13.75700000      12.16900000       6.16000000
 H      13.18000000      10.80400000       6.49400000
 O      10.05200000      14.32600000       7.27100000
 H       9.91400000      14.70800000       8.15700000
 H      10.95200000      14.04400000       7.28000000
 O       7.81900000      10.11800000       6.49700000
 H       7.71300000      10.97300000       6.17300000
 H       8.64700000      10.26900000       7.04200000
 O      11.48000000       7.28600000       5.39100000
 H      10.63500000       7.45600000       4.86000000
 H      11.24100000       6.47100000       5.87200000
 O       9.99600000      13.06300000       4.14100000
 H      10.66400000      12.96800000       4.81300000
 H       9.92400000      12.08800000       3.81400000
 C       9.50200000       9.72500000       9.63200000
 C      10.36600000       9.76100000      10.94900000
 C      11.55800000      11.80900000      10.17000000
 H       9.95600000      11.79300000      11.48000000
 H       7.69800000       9.95500000      10.38000000
 O      11.68100000      11.19800000      12.52300000
 O       9.08000000       8.44200000       9.35600000
 O       8.37200000      10.42900000       9.80800000
 C      10.84000000      11.19400000      11.34300000
 O       9.64000000       9.12700000      11.97300000
 H      11.27000000       9.15700000      10.66300000
 O      11.85700000      13.18400000      10.28100000
 O      12.72000000      11.07000000       9.72900000
 H      13.37900000      11.09600000      10.41000000
 H       9.37900000       8.30200000      11.53200000
 H      11.56800000      12.06600000      13.04000000
 O      12.85700000      13.64500000       3.99400000
 H      12.42900000      14.28900000       3.30900000
 H      12.65500000      14.16900000       4.75400000
 O      12.23000000       9.15300000       3.31700000
 H      12.22500000       8.23800000       3.58600000
 H      12.50200000       9.02500000       2.41700000
 O      10.47800000      11.40600000       7.46700000
 H      11.45500000      11.54400000       7.18700000
 H      10.21400000      12.29700000       7.72200000
 O       8.53400000       7.70100000       5.50300000
 H       8.16500000       7.47600000       4.59700000
 H       8.11000000       8.60500000       5.62100000
 O      14.12300000       6.65200000       3.67800000
 H      14.97100000       6.15100000       3.58600000
 H      14.35300000       7.56200000       3.35700000
 O      12.36000000       7.41700000       9.81200000
 H      11.59200000       7.12400000      10.38500000
 H      13.01000000       7.75100000      10.46400000
 O      13.00500000       8.87800000       7.02900000
 H      12.59400000       8.77000000       7.89200000
 H      12.44700000       8.31900000       6.37700000
 O       7.46700000       6.61800000       8.23300000
 H       7.83200000       6.36000000       9.11000000
 H       8.10200000       7.24500000       7.82400000
