300
XYZ file of cluster: frame_20000_1836.722b1.24b64 - created by MolEdiTo
 O       3.10200000      20.81300000      17.00000000
 H       3.08200000      20.62000000      16.04800000
 H       2.18400000      20.84300000      17.27100000
 O       2.12400000      30.24100000      18.23200000
 H       2.14100000      29.29200000      17.89400000
 H       1.18700000      30.29600000      18.52100000
 O       4.75600000      21.75900000      19.05300000
 H       4.30600000      21.99300000      18.17600000
 H       3.97900000      21.16900000      19.37100000
 O      12.90600000      22.51200000       7.84300000
 H      13.07600000      22.27000000       8.80600000
 H      13.64400000      23.16300000       7.72700000
 O      11.22000000      32.78900000      19.59600000
 H      11.33600000      33.42900000      20.32900000
 H      12.13400000      32.65600000      19.34500000
 O       6.03700000      28.14100000      15.85500000
 H       5.21600000      27.65800000      15.62400000
 H       6.70300000      27.48700000      15.61000000
 O       6.29100000      31.33700000      15.62500000
 H       6.30900000      30.37900000      15.96400000
 H       5.58800000      31.72900000      16.09600000
 O      12.26400000      30.41800000      18.01900000
 H      12.38500000      30.12200000      18.90400000
 H      12.74700000      31.24400000      18.01700000
 O       4.80200000      23.85900000      20.60700000
 H       4.76100000      24.27800000      19.74700000
 H       4.90600000      22.93400000      20.50400000
 O       1.15500000      28.29100000      20.35400000
 H       0.64500000      28.77000000      21.00400000
 H       1.87600000      27.91400000      20.89900000
 O       7.66000000      24.42800000      17.23600000
 H       6.92400000      24.14200000      16.67000000
 H       7.59800000      23.73900000      17.95200000
 O       3.49500000      26.97000000      15.83300000
 H       2.69600000      27.55200000      15.93700000
 H       3.25100000      26.21900000      16.39000000
 O       4.68700000      32.24400000      17.79900000
 H       3.85400000      31.78300000      17.77500000
 H       4.49000000      33.16900000      18.15100000
 O       5.19800000      20.92200000       6.94000000
 H       4.75100000      21.53600000       6.38000000
 H       4.50800000      20.64300000       7.57300000
 O       2.09500000      20.25300000      14.48600000
 H       1.54000000      19.82900000      13.73800000
 H       2.51700000      20.92500000      13.96700000
 O       2.89300000      23.66600000       6.97200000
 H       3.27800000      23.14500000       6.26900000
 H       3.00000000      24.59700000       6.68400000
 O       8.58400000      21.02800000       9.26500000
 H       8.53700000      21.33700000      10.19700000
 H       9.46400000      20.57900000       9.28000000
 O      10.69800000      22.06200000      18.93100000
 H       9.73500000      22.01100000      18.66100000
 H      11.00000000      22.84200000      18.43400000
 O       8.58300000      31.56600000      20.67400000
 H       8.50700000      32.28700000      21.31700000
 H       9.44700000      31.75700000      20.23900000
 O       7.39000000      32.73400000      18.49500000
 H       6.43300000      32.50900000      18.32800000
 H       7.51700000      32.13100000      19.29400000
 O      12.07700000      23.49400000      11.65200000
 H      11.24400000      23.61600000      11.11800000
 H      11.74700000      23.49200000      12.54700000
 O       9.86700000      21.97100000      15.52100000
 H       8.93500000      22.20300000      15.37100000
 H       9.87700000      21.46400000      16.31300000
 O      11.66500000      26.45000000      12.34200000
 H      10.88900000      25.78200000      12.19700000
 H      12.37400000      25.76900000      12.15000000
 O       3.21800000      26.97000000      18.61300000
 H       2.29100000      27.27700000      18.74400000
 H       3.71800000      27.68600000      19.02700000
 O       7.34400000      26.25100000       6.33600000
 H       7.40900000      27.23900000       6.47200000
 H       6.65700000      26.00900000       7.00100000
 O       4.47400000      33.89500000       7.16400000
 H       5.09100000      33.58400000       7.84600000
 H       4.02900000      33.04900000       6.97500000
 O       6.37100000      25.27300000       8.54500000
 H       7.08300000      24.72900000       8.12200000
 H       5.60400000      24.77800000       8.52200000
 O      10.67600000      29.35300000       9.38600000
 H      11.31000000      29.34200000      10.11200000
 H      10.67800000      28.39600000       9.14400000
 O       1.07200000      33.83500000      20.00800000
 H       0.47800000      33.92800000      20.79200000
 H       1.52400000      34.69800000      19.95500000
 O       1.41700000      24.97000000      16.13100000
 H       0.51700000      25.24200000      15.87600000
 H       1.31200000      24.88700000      17.07200000
 O       7.85600000      23.05600000       7.21200000
 H       8.07100000      22.28900000       7.86700000
 H       8.74900000      23.47200000       7.22400000
 O      11.59300000      34.33600000      17.08500000
 H      11.05300000      33.88600000      17.84100000
 H      11.78500000      35.16000000      17.47000000
 O      11.66000000      29.97000000      14.38600000
 H      12.23500000      30.69400000      14.59500000
 H      12.16700000      29.18800000      14.60500000
 O      13.74900000      21.62700000      10.41800000
 H      13.21500000      22.15700000      11.06500000
 H      13.44700000      20.74400000      10.76300000
 O      13.98600000      25.31200000      11.51500000
 H      14.73000000      24.86000000      11.10100000
 H      13.30700000      24.57400000      11.44800000
 O       5.40700000      21.36100000      10.60700000
 H       6.21500000      20.97000000      10.27200000
 H       4.77700000      21.24300000       9.95000000
 O       1.24700000      23.49300000       9.45000000
 H       0.74200000      24.20100000       9.04300000
 H       1.84800000      23.22600000       8.70800000
 O       4.28400000      30.63800000      13.28200000
 H       5.05800000      30.47500000      13.81600000
 H       4.62900000      31.25300000      12.60000000
 O       7.97500000      31.03100000      11.22400000
 H       8.25900000      31.81500000      11.65000000
 H       7.85200000      30.41900000      11.97600000
 O       8.08600000      26.31300000      15.41900000
 H       9.08300000      26.27200000      15.47100000
 H       7.90200000      25.57800000      16.02600000
 O       4.11300000      21.18800000      12.83000000
 H       3.83100000      22.15400000      12.59800000
 H       4.37400000      20.87900000      11.95900000
 O      12.27400000      32.81200000      11.30700000
 H      12.32900000      32.75700000      10.35400000
 H      12.30800000      33.77300000      11.44900000
 O      12.94500000      28.01100000      15.91900000
 H      13.84200000      27.93000000      15.56400000
 H      13.05200000      28.69900000      16.60800000
 O       4.45900000      24.56400000      13.25800000
 H       5.34600000      25.04100000      13.15300000
 H       4.23300000      24.50800000      12.26100000
 O       1.95700000      23.57100000      13.84300000
 H       2.68900000      24.14300000      13.50200000
 H       1.77400000      23.98700000      14.70700000
 O       5.06300000      28.37700000      20.39400000
 H       5.18700000      29.15200000      21.05100000
 H       5.88400000      28.51500000      19.91300000
 O       5.43400000      24.21300000      15.69800000
 H       4.82300000      24.59900000      16.32500000
 H       4.83700000      24.05300000      14.93900000
 O       3.36600000      25.35800000      10.76400000
 H       2.83100000      25.27400000       9.96700000
 H       4.01100000      26.02600000      10.49000000
 O      13.91100000      32.61600000      18.20100000
 H      14.63000000      32.03700000      18.74700000
 H      14.27800000      33.47200000      18.49000000
 O      14.53800000      30.74100000      11.09000000
 H      13.69800000      30.27600000      10.94700000
 H      14.25100000      31.46600000      11.64700000
 O       6.58000000      26.17800000      12.94300000
 H       7.20900000      26.55700000      12.25900000
 H       7.14400000      26.36200000      13.75800000
 O       6.37700000      33.97800000      14.10700000
 H       5.49400000      33.78800000      13.78300000
 H       6.55400000      33.10400000      14.61100000
 O       9.76400000      33.46300000       8.21500000
 H      10.04500000      32.69500000       8.73300000
 H      10.60200000      33.95800000       8.28200000
 O      11.01800000      26.14800000      15.81500000
 H      11.73500000      26.75200000      15.63300000
 H      11.36500000      25.60500000      16.57200000
 O      14.15500000      29.56600000       7.13200000
 H      13.27000000      29.48300000       7.60100000
 H      14.45200000      28.58500000       7.27700000
 O       7.15400000      22.71800000      14.21400000
 H       6.34200000      22.17100000      13.92400000
 H       6.66700000      23.45700000      14.57300000
 O       0.91300000      30.14100000       7.27000000
 H       1.00400000      29.31600000       6.80200000
 H       1.83700000      30.28500000       7.51700000
 O       3.82600000      24.45800000      18.05200000
 H       3.73200000      25.37600000      18.31100000
 H       2.90800000      24.27000000      17.75600000
 O       9.20900000      29.06600000      13.67500000
 H       8.90600000      28.94300000      14.55800000
 H      10.08600000      29.42400000      13.81700000
 O       1.33900000      33.66600000      17.43400000
 H       0.59400000      34.27900000      17.18100000
 H       1.19600000      33.63400000      18.39000000
 O       6.91700000      33.32200000       8.42200000
 H       6.83100000      33.89000000       9.23200000
 H       7.90600000      33.22600000       8.44600000
 O       5.20100000      32.42100000      11.35400000
 H       5.76400000      33.22600000      11.31600000
 H       4.36900000      32.80300000      10.98300000
 O       9.09800000      32.48700000      15.71100000
 H       9.48300000      31.61400000      15.83700000
 H       8.42900000      32.41800000      16.42300000
 O       8.81200000      22.30600000      11.95600000
 H       8.24000000      22.54500000      12.68300000
 H       9.04700000      23.15100000      11.53400000
 O       0.88200000      28.13000000      16.61100000
 H       0.25900000      27.83400000      17.30200000
 H       0.53900000      27.54400000      15.86300000
 O       7.87600000      27.52200000       9.28800000
 H       7.15400000      26.89900000       9.21500000
 H       7.45300000      28.26700000       8.75900000
 O      11.80400000      24.49800000      18.19200000
 H      12.49400000      24.17100000      17.65600000
 H      12.22200000      24.77500000      19.00500000
 O       1.45100000      31.06700000      13.19900000
 H       1.11200000      31.14900000      14.13900000
 H       2.26700000      30.57000000      13.35400000
 O      10.41100000      23.90600000       7.45600000
 H      11.24000000      23.34800000       7.45700000
 H      10.76500000      24.73200000       7.13800000
 O       3.73000000      26.66000000       6.77900000
 H       3.94800000      26.73300000       7.76300000
 H       4.08400000      27.51900000       6.52100000
 O      12.37200000      20.22000000      17.81500000
 H      12.02600000      19.39600000      18.21600000
 H      11.70800000      20.86700000      18.15900000
 O       8.45600000      30.87700000       8.39000000
 H       7.96500000      30.85200000       9.24900000
 H       9.27000000      30.37900000       8.65600000
 O       9.69600000      32.82200000      12.57900000
 H       9.69500000      32.37200000      13.40900000
 H      10.58000000      32.53600000      12.20500000
 O       1.14100000      31.47100000      15.64500000
 H       1.52000000      31.96200000      16.35900000
 H       0.74800000      30.73100000      16.11300000
 O      12.94300000      32.45400000      15.54000000
 H      12.30500000      33.08400000      15.95200000
 H      13.53700000      32.27500000      16.29500000
 O       6.57900000      34.54600000      10.75900000
 H       6.08000000      35.39600000      11.05700000
 H       7.50700000      34.88900000      10.88700000
 O      10.66600000      20.93200000      13.25000000
 H      10.31400000      21.64700000      12.72800000
 H      10.40500000      21.16900000      14.16600000
 O       4.55800000      27.74700000       9.25400000
 H       4.91500000      28.64900000       9.13700000
 H       3.69900000      27.97600000       9.70800000
 O      11.31800000      23.83700000      14.21900000
 H      11.04800000      23.25200000      14.92600000
 H      11.34200000      24.71600000      14.73000000
 O       2.94200000      32.02000000      20.45600000
 H       3.00200000      31.66700000      19.54900000
 H       2.20300000      32.63200000      20.40200000
 O       5.61800000      30.98400000       9.18500000
 H       5.70000000      31.11100000      10.18200000
 H       6.34500000      31.53200000       8.87000000
 O       9.63600000      29.50400000      17.01000000
 H      10.30100000      29.87800000      17.68300000
 H      10.13600000      28.71000000      16.83300000
 O       7.72300000      29.13300000      19.01700000
 H       8.40600000      29.24800000      18.34800000
 H       7.56700000      29.96900000      19.37900000
 O       7.53300000      22.59600000      18.93400000
 H       6.64900000      22.18200000      19.01900000
 H       7.81500000      22.53800000      19.88200000
 O       2.52000000      28.36200000      10.59500000
 H       2.87600000      27.94600000      11.45900000
 H       2.02200000      29.09600000      11.00600000
 O       8.50300000      34.90800000      17.04100000
 H       8.91600000      34.25700000      16.43900000
 H       7.99000000      34.29300000      17.60400000
 O       2.94700000      27.55300000      13.03600000
 H       3.42900000      28.34900000      13.35300000
 H       3.00400000      26.97900000      13.83900000
 O       9.06000000      26.94800000      11.63500000
 H       9.41900000      27.65000000      12.21700000
 H       8.67400000      27.38200000      10.88600000
 O       1.18400000      33.96900000      12.61200000
 H       1.78700000      33.77400000      13.31300000
 H       0.40900000      33.39400000      12.76000000
 O      10.12800000      26.82700000      21.11400000
 H       9.63600000      26.65400000      20.29800000
 H       9.56000000      27.58500000      21.46500000
 O       2.80900000      33.10400000      10.45500000
 H       2.32000000      33.07000000      11.32900000
 H       2.05500000      32.91800000       9.82400000
 O      12.10900000      29.09900000      11.70900000
 H      12.03200000      28.08700000      11.89100000
 H      11.55200000      29.51100000      12.41100000
 O      13.52100000      27.65800000       9.69600000
 H      13.91300000      26.88500000      10.15600000
 H      13.06900000      28.04800000      10.51800000
 O       3.62300000      31.10000000       7.53800000
 H       3.89700000      30.59600000       6.73600000
 H       4.35500000      30.99600000       8.12300000
 O      13.65300000      25.16900000      20.56600000
 H      13.89700000      25.18700000      21.52800000
 H      14.39000000      25.69900000      20.18200000
 O       9.52100000      24.40100000      10.07500000
 H       9.80100000      24.35900000       9.11900000
 H       9.36500000      25.38300000      10.16000000
 O      12.47700000      33.18700000       8.62000000
 H      13.02100000      32.91300000       7.94200000
 H      13.08300000      33.79900000       9.17200000
 O      13.36100000      28.58100000      20.03900000
 H      13.09200000      27.80000000      19.53300000
 H      14.27200000      28.24900000      20.23600000
 O       7.65900000      26.18700000      19.63900000
 H       7.51400000      27.08000000      19.26700000
 H       7.67500000      25.66900000      18.79900000
 O      13.67400000      20.65200000      14.17400000
 H      12.83000000      21.06900000      14.09800000
 H      13.42900000      19.74500000      14.40100000
