495
XYZ file of cluster: frame_20000_4a9fe.c4e17.c5943 - created by MolEdiTo
 O      32.66800000      38.79900000      34.42000000
 H      32.56500000      39.42900000      35.11400000
 H      33.24000000      39.26400000      33.73900000
 O      17.24000000      39.98800000      34.54900000
 H      17.45700000      40.78400000      35.00400000
 H      16.28500000      39.78100000      34.78100000
 O      25.74500000      39.97400000      40.11500000
 H      25.93400000      39.12600000      40.55700000
 H      24.80900000      39.75500000      39.87100000
 O      36.36400000      38.75000000      36.23400000
 H      36.25900000      39.69300000      36.04500000
 H      36.28400000      38.72500000      37.18400000
 O      27.01000000      38.79900000      35.94000000
 H      26.30000000      39.35200000      36.31700000
 H      27.57400000      38.61700000      36.67200000
 O      23.52000000      35.07700000      35.26000000
 H      24.45800000      35.35500000      35.18700000
 H      23.18300000      35.72300000      35.91000000
 O      34.68100000      37.00100000      34.75700000
 H      35.29600000      37.59100000      35.27400000
 H      33.91300000      37.64000000      34.76700000
 O      16.70400000      38.32700000      38.63300000
 H      16.37000000      39.16200000      39.01800000
 H      16.49000000      37.72200000      39.39700000
 O      38.11600000      36.07300000      39.30200000
 H      38.34800000      35.76800000      40.18600000
 H      39.01100000      36.16900000      38.91300000
 O      24.35500000      38.15500000      34.67300000
 H      24.09100000      38.66300000      35.49300000
 H      25.28700000      37.92700000      34.88500000
 O      36.66000000      34.85100000      34.68300000
 H      37.14400000      34.83400000      35.53100000
 H      35.72800000      34.89900000      35.07200000
 O      13.30300000      35.68200000      39.43200000
 H      12.99400000      34.78100000      39.11900000
 H      13.97000000      35.37400000      40.13300000
 O      40.37200000      40.58500000      34.53400000
 H      39.85300000      39.71300000      34.69200000
 H      40.62500000      40.76200000      35.45000000
 O      37.25100000      34.38600000      37.52400000
 H      37.31800000      35.10500000      38.20400000
 H      36.27000000      34.19900000      37.58800000
 O      33.37900000      35.71200000      39.03100000
 H      33.92200000      35.17800000      39.67600000
 H      33.70500000      35.38700000      38.16900000
 O      29.18800000      40.36200000      36.69000000
 H      28.39100000      40.26800000      36.05200000
 H      29.36100000      41.32700000      36.52100000
 O      25.24600000      37.08800000      39.41400000
 H      24.80100000      36.39700000      39.94100000
 H      26.16800000      36.93300000      39.51700000
 O      23.79900000      35.36700000      40.90000000
 H      24.35800000      35.11300000      41.68200000
 H      23.16000000      35.90500000      41.30400000
 O      15.25100000      36.35400000      37.19200000
 H      14.94300000      36.42500000      38.10100000
 H      16.08400000      36.87700000      37.24700000
 O      14.23600000      40.07100000      36.97500000
 H      14.71800000      40.07500000      37.82900000
 H      13.94700000      39.19100000      36.83800000
 O      15.05200000      40.50700000      40.29800000
 H      14.55800000      41.35400000      40.30900000
 H      14.51500000      39.99500000      40.92000000
 O      20.48400000      40.20500000      34.69500000
 H      20.51400000      39.34000000      34.22200000
 H      20.03600000      39.93500000      35.50000000
 O      18.24600000      34.64500000      35.66300000
 H      17.45700000      34.03500000      35.59200000
 H      18.73500000      34.17000000      36.36000000
 O      19.05100000      39.36100000      40.78000000
 H      18.52700000      40.16200000      40.50200000
 H      18.39200000      38.71400000      40.48600000
 O      30.67700000      34.53700000      35.87800000
 H      31.05000000      35.31100000      35.39700000
 H      29.71900000      34.64500000      35.66100000
 O      22.20600000      36.62900000      37.23100000
 H      21.37900000      36.88500000      36.76000000
 H      21.81800000      35.96400000      37.88300000
 O      37.26000000      40.77900000      34.46600000
 H      36.64200000      41.34700000      34.95200000
 H      38.13200000      41.08000000      34.91000000
 O      26.16900000      36.01100000      36.72700000
 H      25.45900000      36.12400000      37.40300000
 H      26.98000000      36.27900000      37.21500000
 O      33.81600000      38.17700000      39.73400000
 H      33.59500000      37.21600000      39.35000000
 H      33.28200000      38.64700000      39.06800000
 O      27.80400000      34.24600000      35.03500000
 H      27.28100000      34.91500000      35.48500000
 H      27.12000000      33.53700000      34.75200000
 O      23.16600000      40.63800000      39.06300000
 H      22.85900000      40.15500000      39.85300000
 H      23.40500000      39.94600000      38.39800000
 O      37.32100000      38.50200000      39.04400000
 H      37.50400000      37.56000000      38.91400000
 H      37.07500000      38.47800000      39.98200000
 O      31.68600000      38.95400000      37.73700000
 H      31.70400000      39.90400000      38.02900000
 H      30.86500000      39.07500000      37.16000000
 O      30.69100000      36.67500000      39.90000000
 H      31.12800000      35.92800000      39.43900000
 H      31.30900000      37.37900000      39.61900000
 O      28.08300000      38.79100000      38.48400000
 H      27.90700000      39.36600000      39.30600000
 H      28.88100000      39.26600000      38.09500000
 O      35.94900000      34.75300000      40.87200000
 H      36.53300000      33.93500000      40.69800000
 H      36.46000000      35.18200000      41.53800000
 O      19.13200000      39.41800000      37.17400000
 H      18.17100000      39.26400000      37.34800000
 H      19.40800000      38.57300000      36.78400000
 O      24.18100000      38.51200000      37.63000000
 H      24.74400000      37.99500000      38.26900000
 H      23.48000000      37.88400000      37.36500000
 O      15.99000000      36.19700000      40.35800000
 H      16.93500000      36.12700000      40.46800000
 H      15.63900000      35.99500000      41.23800000
 O      19.84300000      36.90600000      35.70400000
 H      19.08600000      36.26100000      35.84400000
 H      20.04400000      36.76600000      34.77800000
 O      28.52900000      36.24400000      37.79300000
 H      29.12400000      35.72800000      38.32000000
 H      28.56900000      37.17800000      38.12900000
 O      40.57400000      36.62600000      38.59700000
 H      41.15500000      35.97100000      39.05900000
 H      41.35500000      37.11100000      38.19800000
 O      39.44300000      38.39200000      35.74400000
 H      38.91200000      37.75500000      35.23500000
 H      38.89500000      38.52800000      36.54300000
 O      21.82500000      39.37800000      42.86500000
 H      21.64100000      38.41800000      43.05100000
 H      20.84400000      39.58800000      42.73500000
 O      20.85800000      34.57400000      46.06100000
 H      21.18900000      33.67500000      46.34800000
 H      20.91600000      35.08600000      46.91800000
 O      21.47100000      36.53700000      43.76900000
 H      21.83400000      36.69500000      44.66100000
 H      20.78900000      35.85200000      43.92700000
 O      18.48600000      35.80500000      46.01900000
 H      19.33500000      35.31500000      45.95700000
 H      18.15800000      35.59700000      45.12000000
 O      31.39400000      37.95600000      44.25400000
 H      31.76600000      37.10300000      44.55200000
 H      30.67100000      37.68900000      43.66600000
 O      13.87800000      38.90300000      43.74100000
 H      14.35400000      38.22500000      44.20200000
 H      13.27000000      39.21300000      44.44000000
 O      27.15200000      38.20300000      43.51900000
 H      27.38100000      37.28200000      43.22400000
 H      26.31200000      38.00500000      43.98200000
 O      14.85200000      38.36400000      47.21500000
 H      14.97300000      37.53200000      47.74200000
 H      13.92000000      38.57700000      47.44200000
 O      32.57600000      35.62100000      45.12000000
 H      32.27500000      35.41600000      45.97600000
 H      33.26000000      34.94300000      44.88200000
 O      24.21700000      38.79000000      47.89700000
 H      24.81900000      39.46500000      47.42600000
 H      23.46400000      39.43500000      48.08800000
 O      17.02400000      34.66600000      48.42900000
 H      16.70900000      34.25500000      47.58500000
 H      17.71700000      35.28900000      48.00300000
 O      18.31800000      36.65600000      42.88700000
 H      18.79000000      37.39000000      43.23600000
 H      18.85700000      35.86600000      43.17600000
 O      36.03800000      38.09200000      43.18000000
 H      35.37600000      38.22700000      42.41500000
 H      35.41500000      37.61000000      43.78600000
 O      28.64800000      40.34700000      42.84600000
 H      28.11100000      39.56500000      43.04800000
 H      27.98300000      41.05600000      43.00200000
 O      34.76900000      39.05100000      47.29800000
 H      34.61800000      39.90200000      46.79200000
 H      33.86900000      38.93000000      47.66200000
 O      24.58100000      38.33000000      44.41200000
 H      24.69700000      39.16000000      44.91000000
 H      23.67700000      37.98000000      44.68700000
 O      26.92900000      34.90100000      46.82500000
 H      26.20000000      35.08300000      46.26100000
 H      27.14000000      33.97300000      46.58600000
 O      27.41400000      39.06200000      49.13500000
 H      27.81400000      39.18900000      48.29000000
 H      26.94900000      39.89400000      49.21700000
 O      37.47200000      38.58400000      47.15900000
 H      36.50600000      38.79200000      47.33600000
 H      37.84400000      38.81600000      48.06600000
 O      16.22200000      40.36800000      46.56500000
 H      15.68700000      39.57300000      46.82300000
 H      17.12700000      40.00700000      46.87200000
 O      32.09200000      38.64800000      48.10400000
 H      32.17100000      38.99600000      48.99600000
 H      31.31200000      38.97700000      47.75100000
 O      32.97900000      39.84200000      43.49900000
 H      33.46100000      39.35500000      42.75300000
 H      32.46100000      39.03800000      43.84300000
 O      18.34900000      38.53300000      47.02300000
 H      18.24600000      37.57500000      46.80400000
 H      18.24200000      38.52700000      47.94800000
 O      22.42700000      40.58500000      45.34600000
 H      21.58900000      40.43200000      45.88200000
 H      22.06200000      40.20500000      44.48100000
 O      39.14000000      35.50100000      43.65000000
 H      39.10000000      36.36400000      44.11300000
 H      39.07500000      34.92400000      44.42500000
 O      29.10800000      39.37400000      46.24900000
 H      28.70600000      38.51300000      46.51100000
 H      29.33500000      39.19700000      45.32800000
 O      31.55300000      35.96100000      47.63700000
 H      31.89600000      36.89100000      47.75000000
 H      30.59400000      36.09300000      47.72000000
 O      28.03900000      35.79000000      42.71000000
 H      28.08700000      34.83200000      42.49300000
 H      28.86400000      36.12500000      42.35600000
 O      21.32800000      36.27100000      48.14400000
 H      22.04100000      35.59100000      48.44000000
 H      21.04900000      36.64500000      48.99800000
 O      37.27000000      35.80900000      46.29500000
 H      37.51200000      36.69800000      46.72200000
 H      36.38500000      36.13100000      45.94800000
 O      14.93000000      35.69100000      44.64300000
 H      14.04700000      35.35100000      44.67800000
 H      15.38300000      34.98000000      45.14400000
 O      20.25100000      40.39500000      46.67100000
 H      19.53700000      39.75600000      46.79200000
 H      20.67300000      40.35400000      47.55500000
 O      26.17100000      40.34900000      46.61800000
 H      25.76800000      41.05700000      46.12300000
 H      27.05700000      40.33900000      46.18100000
 O      40.18600000      40.43300000      43.24800000
 H      40.67600000      39.61000000      43.20400000
 H      39.29600000      40.12800000      43.56100000
 O      37.78100000      39.66000000      44.51800000
 H      37.78700000      39.20600000      45.34800000
 H      37.26400000      39.10400000      43.91700000
 O      39.82800000      36.37100000      48.48500000
 H      40.76500000      36.19400000      48.66500000
 H      39.86200000      36.66500000      47.52500000
 O      24.74200000      35.27400000      45.16800000
 H      24.26500000      34.51400000      45.47000000
 H      24.10700000      36.00300000      45.38400000
 O      34.94400000      37.02900000      45.44000000
 H      34.71900000      37.60800000      46.27800000
 H      34.06000000      36.67000000      45.23600000
 O      28.54700000      36.89600000      47.29800000
 H      27.87000000      36.21100000      47.16400000
 H      28.34800000      37.16300000      48.18800000
 O      33.56600000      34.15300000      48.27800000
 H      33.14800000      33.44800000      48.81600000
 H      32.82900000      34.82900000      48.23600000
 O      22.84900000      37.06700000      46.01300000
 H      23.47400000      37.55200000      46.60800000
 H      22.13000000      36.85600000      46.70900000
 O      27.02100000      47.09700000      38.15100000
 H      27.79700000      47.48400000      38.72500000
 H      27.42000000      46.13400000      38.13000000
 O      38.68700000      48.99000000      40.27600000
 H      39.22600000      48.14600000      40.51400000
 H      38.79900000      48.99000000      39.30200000
 O      32.24600000      46.45100000      37.05900000
 H      31.80500000      45.92900000      37.76800000
 H      33.17200000      46.03400000      37.11000000
 O      22.30000000      45.62200000      35.35700000
 H      21.81800000      45.51200000      36.19700000
 H      21.85700000      46.33300000      34.83600000
 O      39.38900000      46.92100000      36.20900000
 H      38.90800000      47.28500000      35.37600000
 H      39.10300000      46.01400000      36.17600000
 O      17.94000000      47.24600000      40.44900000
 H      18.00100000      46.51300000      41.06600000
 H      18.30300000      46.87600000      39.63500000
 O      20.11000000      44.73000000      40.43600000
 H      20.09100000      43.95400000      39.82800000
 H      19.37300000      44.46700000      40.99200000
 O      22.73200000      48.66400000      36.34400000
 H      23.36700000      48.12800000      36.86400000
 H      23.29800000      49.28200000      35.88300000
 O      27.93700000      48.49900000      35.98400000
 H      27.76700000      48.04700000      36.87500000
 H      26.99200000      48.59300000      35.69900000
 O      21.38300000      47.07500000      40.78800000
 H      21.38400000      47.42000000      39.85700000
 H      20.92800000      46.25600000      40.63600000
 O      26.48600000      43.86600000      40.90700000
 H      26.21100000      43.05800000      40.38000000
 H      25.78600000      43.71500000      41.65100000
 O      27.77500000      44.60500000      38.37700000
 H      27.36900000      44.19100000      39.14100000
 H      27.32200000      44.17200000      37.63400000
 O      29.04100000      48.12100000      39.58500000
 H      28.85300000      48.67700000      40.33700000
 H      29.98200000      47.85600000      39.80400000
 O      17.54000000      45.36200000      38.35900000
 H      17.15800000      45.16800000      37.52000000
 H      17.00200000      46.03500000      38.74200000
 O      34.62000000      46.67600000      40.86900000
 H      35.22000000      46.13500000      40.37500000
 H      34.55800000      46.16400000      41.69000000
 O      31.74000000      48.16600000      40.76500000
 H      32.02900000      48.86300000      41.37500000
 H      32.39400000      47.55500000      40.72200000
 O      17.58300000      42.74700000      39.59800000
 H      17.57100000      43.65200000      39.25500000
 H      16.64200000      42.64300000      39.87100000
 O      32.77900000      43.25800000      34.82200000
 H      33.01300000      43.99700000      34.19800000
 H      31.82800000      43.57600000      35.01400000
 O      31.05100000      48.42900000      34.92900000
 H      31.21800000      47.66400000      35.54800000
 H      30.16200000      48.47000000      34.87600000
 O      29.77100000      44.43100000      36.13700000
 H      30.16900000      44.81400000      36.90100000
 H      29.25100000      45.20000000      35.76900000
 O      34.86900000      49.18300000      39.62600000
 H      35.10200000      48.84200000      38.72200000
 H      34.56200000      48.33300000      40.00800000
 O      38.26800000      42.39100000      38.50800000
 H      39.14900000      42.32500000      38.77200000
 H      37.82500000      41.53200000      38.75600000
 O      31.03000000      45.03400000      38.99400000
 H      30.10000000      45.03900000      39.16900000
 H      31.28400000      44.14500000      39.38200000
 O      35.37700000      43.07200000      36.19600000
 H      34.64700000      42.91800000      35.58700000
 H      35.14700000      43.96700000      36.56700000
 O      38.93700000      43.83400000      36.19600000
 H      39.81900000      43.73100000      36.54700000
 H      38.39100000      43.37200000      36.94500000
 O      13.63500000      45.27900000      37.71400000
 H      12.77300000      45.69700000      37.44100000
 H      14.23500000      46.04300000      37.64400000
 O      38.94400000      49.06900000      37.57400000
 H      38.88300000      48.09900000      37.25500000
 H      39.87500000      49.23200000      37.33500000
 O      27.82200000      46.01900000      34.83700000
 H      26.90400000      45.82800000      34.64500000
 H      27.90100000      46.98800000      34.71400000
 O      20.57500000      42.87200000      38.40300000
 H      20.04300000      42.27800000      37.81500000
 H      21.38800000      42.44500000      38.51500000
 O      14.87300000      47.64900000      36.56900000
 H      15.72400000      47.96700000      36.90000000
 H      14.99600000      47.65500000      35.60000000
 O      22.98500000      44.85800000      38.87500000
 H      22.25600000      44.91900000      39.52600000
 H      23.04900000      43.85200000      38.84000000
 O      31.29700000      42.64300000      40.22900000
 H      30.49500000      42.37300000      40.75200000
 H      31.98200000      42.29500000      40.82400000
 O      25.52600000      48.26200000      34.74300000
 H      25.07000000      49.10900000      34.51100000
 H      25.84900000      47.99400000      33.85800000
 O      15.72900000      48.85500000      40.67300000
 H      16.46700000      48.29600000      40.56500000
 H      15.89200000      49.52100000      39.99200000
 O      19.37100000      44.17500000      34.51100000
 H      19.70300000      44.58000000      35.31100000
 H      19.81400000      43.26300000      34.56500000
 O      16.56500000      44.66100000      35.81800000
 H      15.71000000      44.73000000      35.34600000
 H      17.15700000      44.45000000      35.04700000
 O      19.99100000      45.11500000      37.11900000
 H      19.02700000      45.08300000      37.40400000
 H      20.26800000      44.33400000      37.64600000
 O      17.76500000      48.67800000      35.65300000
 H      17.19900000      48.53300000      34.86800000
 H      18.56700000      48.16900000      35.28800000
 O      26.00300000      43.33400000      36.72700000
 H      25.66700000      43.96300000      36.09600000
 H      25.31900000      43.29300000      37.41100000
 O      24.22100000      47.14700000      37.83400000
 H      24.00200000      46.30000000      38.23900000
 H      25.19300000      47.11800000      37.82700000
 O      34.98000000      45.52200000      37.24700000
 H      35.16700000      46.45500000      37.09400000
 H      35.50600000      45.35300000      38.06700000
 O      35.07500000      48.33000000      37.02400000
 H      35.82600000      48.74400000      36.57200000
 H      34.35100000      48.74600000      36.46700000
 O      36.74300000      45.11400000      39.62500000
 H      36.66500000      44.20300000      39.27600000
 H      37.61800000      45.04600000      40.09900000
 O      40.22600000      46.77800000      40.78000000
 H      41.16400000      46.97500000      40.97400000
 H      40.07100000      46.01800000      41.42200000
 O      20.90300000      47.62500000      38.07800000
 H      20.58000000      46.80600000      37.64900000
 H      21.62100000      47.89000000      37.45800000
 O      24.95900000      45.38900000      35.28100000
 H      25.34300000      46.26000000      35.46500000
 H      24.02100000      45.72800000      35.19200000
 O      20.96500000      48.32300000      46.94700000
 H      21.50000000      48.34400000      46.17400000
 H      21.31800000      49.11600000      47.44800000
 O      40.19200000      44.51500000      44.22200000
 H      39.50200000      44.06700000      44.77800000
 H      40.61100000      43.71600000      43.78100000
 O      27.24500000      48.78500000      47.06600000
 H      27.23900000      49.58100000      46.52500000
 H      27.46700000      48.06900000      46.38700000
 O      35.78100000      46.91200000      48.61500000
 H      36.71900000      46.79400000      48.29200000
 H      35.42100000      46.00700000      48.40100000
 O      34.20800000      42.44900000      45.68100000
 H      34.08300000      42.06200000      44.81200000
 H      33.32400000      42.86200000      45.83700000
 O      18.95900000      44.02200000      45.93400000
 H      19.75800000      44.51300000      46.31800000
 H      19.40000000      43.11000000      45.89300000
 O      31.61700000      43.43900000      48.54600000
 H      31.94500000      42.84800000      49.27400000
 H      30.85900000      43.81500000      49.10700000
 O      15.31300000      45.88300000      44.53300000
 H      14.36500000      46.20900000      44.48200000
 H      15.14300000      44.95400000      44.77400000
 O      17.91400000      45.44400000      43.90100000
 H      16.96200000      45.61500000      44.12600000
 H      18.19900000      44.89400000      44.68000000
 O      31.33800000      43.14300000      45.95600000
 H      30.73000000      42.45400000      46.25000000
 H      31.59700000      43.52700000      46.85300000
 O      31.65900000      46.75900000      46.15300000
 H      31.80100000      47.50500000      45.52100000
 H      30.71000000      46.70000000      46.15400000
 O      34.25800000      46.38300000      45.46400000
 H      34.51500000      47.33700000      45.52500000
 H      33.32900000      46.39900000      45.71500000
 O      13.89300000      45.52800000      48.74200000
 H      14.10700000      45.83000000      49.66900000
 H      13.80700000      46.42000000      48.35000000
 O      14.49800000      43.71400000      45.77700000
 H      13.78200000      43.10600000      45.46400000
 H      15.17400000      43.04700000      46.00300000
 O      15.49400000      43.54500000      48.79300000
 H      15.54300000      43.04500000      47.95500000
 H      14.80700000      44.21900000      48.57800000
 O      34.72400000      44.59300000      48.55100000
 H      33.79900000      44.23200000      48.60900000
 H      35.24600000      43.86800000      48.80900000
 O      25.26700000      45.66200000      47.86000000
 H      24.69300000      46.32100000      48.25000000
 H      24.74100000      45.42600000      47.02100000
 O      38.23900000      43.31200000      45.77800000
 H      37.36000000      43.72500000      45.57400000
 H      38.15400000      42.51400000      45.27400000
 O      32.31400000      47.16500000      48.83900000
 H      32.38000000      47.01100000      47.83500000
 H      31.34200000      47.45000000      48.85200000
 O      39.31600000      42.73600000      48.06300000
 H      38.77400000      42.97000000      47.27200000
 H      39.74200000      43.57000000      48.23600000
 O      16.73800000      48.44000000      45.06600000
 H      16.42800000      47.71900000      44.48800000
 H      17.64000000      48.52700000      44.72400000
 O      40.24200000      45.58100000      48.89500000
 H      39.52100000      46.15300000      49.17600000
 H      40.77500000      46.19000000      48.34200000
 O      29.31400000      44.82900000      44.48000000
 H      30.09900000      44.34300000      44.78800000
 H      28.75500000      44.10800000      44.11100000
 O      19.39100000      48.71000000      44.21400000
 H      19.07000000      48.33300000      43.35200000
 H      20.38200000      48.59900000      44.05700000
 O      18.43700000      45.49100000      48.38900000
 H      18.26100000      44.83000000      47.72600000
 H      18.31900000      44.99700000      49.20900000
 O      14.01600000      47.95200000      47.63800000
 H      14.70400000      48.43500000      47.19100000
 H      13.98100000      48.50000000      48.48800000
 O      25.72700000      46.30500000      43.82700000
 H      24.97100000      46.54000000      43.38300000
 H      26.15500000      45.63500000      43.27100000
 O      22.47000000      48.28000000      44.70400000
 H      23.15000000      48.85900000      44.31600000
 H      22.18800000      47.79600000      43.83900000
 O      27.83900000      46.85700000      45.60600000
 H      27.06300000      46.44000000      45.11800000
 H      28.51900000      46.22600000      45.15300000
 O      18.77000000      48.10000000      48.34000000
 H      18.68000000      47.12600000      48.30700000
 H      19.61100000      48.18600000      47.83100000
 O      23.47800000      45.35000000      45.71800000
 H      23.31700000      46.28600000      45.69800000
 H      22.58400000      44.99000000      46.00400000
 O      35.99600000      44.40500000      45.55400000
 H      35.32600000      45.12800000      45.66600000
 H      35.38000000      43.65700000      45.82100000
 O      24.63300000      43.15700000      44.91400000
 H      24.34400000      44.07400000      45.10300000
 H      23.67500000      42.77400000      45.00000000
 O      27.78200000      45.94000000      48.23600000
 H      27.79000000      46.59700000      47.51300000
 H      26.81300000      45.63300000      48.13600000
 O      21.01500000      45.49500000      46.94700000
 H      20.80700000      46.41400000      46.76200000
 H      21.27200000      45.46000000      47.89600000
