750
XYZ file of cluster: frame_20000_4b8c3.9a6df.7367f - created by MolEdiTo
 O      34.27800000      27.19800000      27.27600000
 H      33.65800000      27.13000000      26.47300000
 H      34.52000000      28.17000000      27.21700000
 O      16.34400000      31.86100000      40.39100000
 H      17.23100000      31.50500000      40.30900000
 H      15.84300000      31.06200000      40.19900000
 O      17.96700000      27.90000000      37.52900000
 H      17.88300000      27.59200000      38.41200000
 H      17.79300000      27.19200000      36.94500000
 O      35.31500000      37.69600000      25.14500000
 H      34.75300000      37.64900000      25.93100000
 H      36.21400000      37.60200000      25.61200000
 O      25.92800000      39.88100000      23.85900000
 H      26.80700000      39.68000000      23.36200000
 H      25.61600000      40.58700000      23.23100000
 O      27.88100000      33.32300000      39.67100000
 H      27.96700000      32.34600000      39.55500000
 H      28.76400000      33.60400000      39.24500000
 O      36.72900000      35.78800000      29.47700000
 H      36.42100000      35.44200000      28.59200000
 H      36.63400000      36.73400000      29.30300000
 O      16.91000000      28.24600000      23.36100000
 H      17.82200000      27.86200000      23.22000000
 H      17.07500000      28.69800000      24.19000000
 O      27.67000000      39.34000000      28.82100000
 H      27.29200000      39.69200000      27.94700000
 H      28.11600000      38.56300000      28.44900000
 O      29.90400000      34.86100000      24.32100000
 H      29.10100000      34.51800000      23.89200000
 H      29.75800000      35.83200000      24.06800000
 O      20.49700000      31.85200000      22.60300000
 H      21.03000000      31.08500000      22.70700000
 H      20.82900000      32.21400000      21.73400000
 O      24.77000000      28.02900000      38.01600000
 H      24.76000000      28.88100000      37.56000000
 H      25.75500000      27.87900000      38.07000000
 O      34.68100000      37.00100000      34.75700000
 H      35.29600000      37.59100000      35.27400000
 H      33.91300000      37.64000000      34.76700000
 O      23.52000000      35.07700000      35.26000000
 H      24.45800000      35.35500000      35.18700000
 H      23.18300000      35.72300000      35.91000000
 O      37.66600000      27.89900000      23.83600000
 H      37.84500000      27.11600000      24.44800000
 H      37.56600000      27.36400000      23.02800000
 O      15.59900000      27.32400000      20.81700000
 H      16.05200000      27.88500000      21.49800000
 H      16.45000000      26.91200000      20.44700000
 O      31.77100000      36.54100000      22.06100000
 H      30.94100000      37.01000000      22.20900000
 H      32.28900000      36.82800000      22.82400000
 O      35.09600000      28.68400000      23.13900000
 H      35.52700000      28.54700000      22.26900000
 H      35.29900000      27.83000000      23.61400000
 O      40.07500000      37.41900000      26.03400000
 H      40.70400000      36.70300000      25.75900000
 H      40.50800000      37.64300000      26.91700000
 O      33.35900000      35.12600000      33.53100000
 H      33.95600000      35.72000000      34.02600000
 H      32.49300000      35.61800000      33.73300000
 O      24.51800000      32.35800000      21.75400000
 H      24.88400000      33.20900000      21.39100000
 H      24.23100000      31.91800000      20.95800000
 O      24.01400000      27.89700000      40.87100000
 H      24.71900000      27.68700000      41.49000000
 H      24.56400000      27.93200000      40.03400000
 O      31.15000000      30.19400000      36.08700000
 H      30.78400000      30.32100000      36.95500000
 H      31.58800000      31.04400000      35.88300000
 O      22.79400000      28.08200000      26.42000000
 H      23.50800000      27.55100000      26.02200000
 H      22.04500000      27.50000000      26.06500000
 O      23.79900000      35.36700000      40.90000000
 H      24.35800000      35.11300000      41.68200000
 H      23.16000000      35.90500000      41.30400000
 O      39.73100000      29.47400000      22.47800000
 H      39.21200000      28.87900000      22.97000000
 H      39.10500000      29.90700000      21.83300000
 O      25.24600000      37.08800000      39.41400000
 H      24.80100000      36.39700000      39.94100000
 H      26.16800000      36.93300000      39.51700000
 O      19.15100000      31.81300000      40.64000000
 H      19.18500000      30.94600000      40.96300000
 H      20.13200000      32.01500000      40.42900000
 O      22.86200000      39.16700000      23.03200000
 H      22.38200000      39.89800000      23.51900000
 H      23.43400000      38.88100000      23.78400000
 O      29.19300000      30.59600000      26.04000000
 H      28.54400000      30.00600000      25.59100000
 H      29.67800000      30.90000000      25.20500000
 O      21.28800000      27.17400000      21.03400000
 H      20.64100000      27.65900000      20.48000000
 H      21.15300000      26.23600000      20.71100000
 O      15.72200000      40.82300000      25.76600000
 H      15.48200000      40.37000000      24.94600000
 H      15.60000000      40.10000000      26.43100000
 O      31.30300000      33.40400000      26.27100000
 H      30.41100000      33.37900000      26.70400000
 H      31.02100000      33.99700000      25.51900000
 O      13.17600000      33.14900000      37.63300000
 H      12.93100000      32.68000000      38.45800000
 H      14.11700000      33.11900000      37.64500000
 O      26.58800000      40.29500000      26.59900000
 H      27.08500000      41.12400000      26.56200000
 H      26.63300000      39.97500000      25.65900000
 O      27.51700000      31.36900000      22.77300000
 H      26.66500000      31.22600000      23.28800000
 H      28.17400000      31.44500000      23.55800000
 O      39.81100000      32.54900000      24.67600000
 H      39.25900000      31.78200000      24.44600000
 H      40.70500000      32.07500000      24.52600000
 O      15.05200000      40.50700000      40.29800000
 H      14.55800000      41.35400000      40.30900000
 H      14.51500000      39.99500000      40.92000000
 O      21.07400000      29.69100000      33.80700000
 H      20.51900000      30.42600000      34.15700000
 H      21.23700000      29.22500000      34.71900000
 O      21.43800000      34.91500000      33.25400000
 H      22.17700000      34.74700000      33.85600000
 H      21.41400000      34.07300000      32.83400000
 O      34.26700000      39.74000000      32.58300000
 H      33.83600000      39.25900000      31.78600000
 H      35.20200000      39.50500000      32.34500000
 O      24.43300000      38.59000000      25.58100000
 H      25.03300000      39.18000000      25.03200000
 H      24.20000000      39.26000000      26.29400000
 O      14.06600000      29.01800000      25.42200000
 H      14.99400000      28.66100000      25.42200000
 H      14.08700000      29.48200000      24.56400000
 O      28.44600000      39.32100000      22.88400000
 H      28.29300000      38.50600000      22.38900000
 H      29.09200000      39.78400000      22.21400000
 O      22.20600000      36.62900000      37.23100000
 H      21.37900000      36.88500000      36.76000000
 H      21.81800000      35.96400000      37.88300000
 O      37.26000000      40.77900000      34.46600000
 H      36.64200000      41.34700000      34.95200000
 H      38.13200000      41.08000000      34.91000000
 O      14.57500000      39.51900000      34.06100000
 H      14.30000000      39.12000000      33.24800000
 H      14.15300000      38.88100000      34.67600000
 O      36.06700000      38.23800000      21.62600000
 H      36.75700000      38.31700000      22.28900000
 H      35.35200000      38.69400000      22.06300000
 O      23.92900000      39.64000000      32.32700000
 H      24.26300000      39.05800000      33.00400000
 H      23.65600000      40.39900000      32.89500000
 O      33.89500000      36.90400000      27.28500000
 H      33.28200000      37.15000000      27.98300000
 H      33.86700000      35.92000000      27.42200000
 O      22.13700000      34.78000000      29.77700000
 H      22.18400000      34.16400000      30.58000000
 H      22.14500000      35.63500000      30.19600000
 O      20.26800000      39.16500000      28.98600000
 H      19.53500000      38.53400000      28.98200000
 H      20.65200000      38.96200000      28.07100000
 O      35.14000000      28.37300000      32.05600000
 H      36.06000000      28.43700000      31.71200000
 H      35.05800000      29.32100000      32.39700000
 O      27.42000000      27.97300000      38.29900000
 H      27.47700000      27.08800000      38.66300000
 H      27.64800000      27.80300000      37.38200000
 O      30.03400000      29.19800000      30.58000000
 H      29.99700000      28.76100000      29.66200000
 H      30.82300000      28.76300000      30.88300000
 O      28.21800000      36.85600000      21.60400000
 H      28.21100000      35.96400000      21.96600000
 H      28.03700000      36.64400000      20.60900000
 O      20.05800000      32.20700000      35.05200000
 H      19.99600000      32.17100000      36.00600000
 H      20.72300000      32.92100000      34.92100000
 O      21.21300000      34.57100000      25.56000000
 H      21.70500000      34.02000000      24.87400000
 H      21.87500000      35.19800000      25.81500000
 O      32.84300000      29.65500000      24.25200000
 H      32.88600000      28.82100000      24.73900000
 H      33.51200000      29.45500000      23.50800000
 O      17.61700000      31.44700000      21.73200000
 H      18.47200000      31.82400000      22.18100000
 H      17.80300000      30.49000000      21.98500000
 O      40.26600000      29.16800000      28.67000000
 H      39.47100000      28.97800000      28.13500000
 H      40.33100000      28.42100000      29.30700000
 O      40.57400000      36.62600000      38.59700000
 H      41.15500000      35.97100000      39.05900000
 H      41.35500000      37.11100000      38.19800000
 O      24.27400000      34.41400000      27.77000000
 H      23.72300000      34.54600000      28.53700000
 H      24.44200000      35.32900000      27.53000000
 O      39.44300000      38.39200000      35.74400000
 H      38.91200000      37.75500000      35.23500000
 H      38.89500000      38.52800000      36.54300000
 O      22.88900000      33.16400000      23.81300000
 H      22.56200000      32.22300000      23.90700000
 H      23.61600000      32.93900000      23.11800000
 O      30.87900000      28.38300000      21.97200000
 H      31.79600000      28.75500000      21.76400000
 H      30.44100000      28.55900000      21.10100000
 O      23.87500000      40.43700000      27.24300000
 H      24.70500000      40.89600000      27.17300000
 H      23.44600000      40.83900000      27.97300000
 O      24.74000000      38.20700000      29.33900000
 H      25.14400000      37.58100000      28.65300000
 H      24.99500000      37.65300000      30.14800000
 O      22.98600000      36.56300000      26.32500000
 H      23.63600000      37.23600000      26.09900000
 H      22.32700000      37.22900000      26.71700000
 O      21.36500000      29.49000000      28.06800000
 H      21.73900000      29.12300000      27.24400000
 H      21.67200000      30.40500000      27.94500000
 O      36.42500000      34.71000000      27.02800000
 H      36.22500000      34.25000000      26.19000000
 H      36.51300000      35.66000000      26.69100000
 O      25.74500000      39.97400000      40.11500000
 H      25.93400000      39.12600000      40.55700000
 H      24.80900000      39.75500000      39.87100000
 O      38.05200000      27.04800000      34.46200000
 H      37.82700000      26.51900000      33.67200000
 H      37.59300000      27.92500000      34.28300000
 O      27.59800000      35.65200000      29.23100000
 H      28.20200000      35.26300000      28.56700000
 H      26.94300000      36.05500000      28.59200000
 O      20.10800000      27.05100000      30.16000000
 H      20.47400000      26.53200000      30.85500000
 H      19.88900000      27.90400000      30.62100000
 O      36.98600000      29.66200000      34.46000000
 H      37.87200000      30.09200000      34.68100000
 H      37.07500000      29.64500000      33.42600000
 O      38.11600000      36.07300000      39.30200000
 H      38.34800000      35.76800000      40.18600000
 H      39.01100000      36.16900000      38.91300000
 O      17.59400000      32.20700000      33.27800000
 H      16.91600000      32.25000000      33.95000000
 H      18.38800000      32.08000000      33.80900000
 O      16.54600000      32.85300000      25.07600000
 H      16.25200000      33.14400000      25.98200000
 H      17.06400000      33.69300000      24.86000000
 O      14.64800000      32.39100000      34.04600000
 H      15.39100000      32.61000000      34.62500000
 H      14.87300000      32.74300000      33.17300000
 O      16.78200000      27.14000000      33.52500000
 H      16.08500000      26.75000000      34.10900000
 H      16.37100000      27.99900000      33.34800000
 O      40.08700000      40.52600000      26.78700000
 H      39.36600000      40.12500000      26.30600000
 H      39.77200000      41.47700000      26.93900000
 O      39.51100000      32.51800000      32.47600000
 H      39.34800000      31.98700000      31.61100000
 H      38.90800000      33.27200000      32.32000000
 O      40.54100000      37.85200000      32.36300000
 H      41.05900000      37.04600000      32.23300000
 H      39.65500000      37.40100000      32.59700000
 O      32.37500000      32.56400000      35.75400000
 H      32.61100000      32.57600000      34.76000000
 H      31.69900000      33.22700000      35.78800000
 O      21.07500000      37.57900000      33.15800000
 H      21.84800000      37.94000000      32.64900000
 H      21.17100000      36.62000000      32.98300000
 O      16.20200000      36.13400000      24.93500000
 H      17.00300000      36.61200000      25.33700000
 H      15.68500000      36.18800000      25.74400000
 O      18.88400000      35.85900000      26.58600000
 H      19.68100000      36.06000000      26.01500000
 H      19.15200000      34.92900000      26.80200000
 O      26.00900000      36.78400000      27.40500000
 H      26.11900000      36.03100000      26.75500000
 H      25.47200000      37.37900000      26.78900000
 O      38.33400000      34.69100000      31.34000000
 H      37.83300000      34.97100000      30.54600000
 H      38.06000000      35.28000000      32.00800000
 O      21.37300000      35.90800000      21.70000000
 H      21.17500000      36.14700000      20.74000000
 H      21.26900000      34.95500000      21.67600000
 O      30.72500000      27.30200000      33.68100000
 H      31.39400000      27.89900000      33.28300000
 H      31.20800000      26.48700000      33.72400000
 O      14.23600000      40.07100000      36.97500000
 H      14.71800000      40.07500000      37.82900000
 H      13.94700000      39.19100000      36.83800000
 O      15.69800000      29.52500000      32.96300000
 H      16.37600000      30.20500000      32.75300000
 H      14.96600000      30.12000000      33.26800000
 O      28.65100000      37.85500000      33.81600000
 H      27.88500000      38.18400000      33.21000000
 H      28.14700000      37.96300000      34.64100000
 O      15.03800000      39.53500000      23.46000000
 H      15.46900000      38.65400000      23.35400000
 H      15.28700000      39.96400000      22.62300000
 O      36.73400000      35.80500000      20.04800000
 H      36.55000000      36.01600000      20.93500000
 H      37.08500000      36.64100000      19.70700000
 O      25.30800000      34.21000000      30.68100000
 H      25.87900000      33.96300000      29.95400000
 H      25.15300000      33.32500000      31.09300000
 O      30.26200000      28.03400000      28.01100000
 H      30.30300000      28.55100000      27.17400000
 H      30.30000000      27.14400000      27.72500000
 O      23.54200000      32.94800000      37.05500000
 H      23.47200000      33.64700000      36.42500000
 H      24.16700000      33.27200000      37.69700000
 O      35.49400000      31.72800000      36.39600000
 H      36.10200000      31.16800000      35.91500000
 H      34.63700000      31.33000000      36.21100000
 O      19.39200000      34.37000000      23.63100000
 H      19.92500000      33.69000000      23.17200000
 H      19.94700000      34.55500000      24.42200000
 O      17.56500000      34.92100000      21.52200000
 H      16.86200000      34.28500000      21.89500000
 H      18.25600000      34.67700000      22.18800000
 O      25.10600000      31.92500000      26.75200000
 H      25.20700000      31.45000000      27.61200000
 H      24.53000000      32.64300000      27.06800000
 O      18.84600000      28.91000000      32.06700000
 H      18.13900000      28.30900000      32.35600000
 H      19.45000000      28.96500000      32.87500000
 O      21.64800000      32.60800000      40.51500000
 H      22.42400000      32.99900000      41.05800000
 H      21.90900000      31.65500000      40.60800000
 O      37.32100000      38.50200000      39.04400000
 H      37.50400000      37.56000000      38.91400000
 H      37.07500000      38.47800000      39.98200000
 O      38.89900000      32.09000000      38.13700000
 H      38.15000000      32.31100000      38.72700000
 H      38.63500000      32.58400000      37.33900000
 O      38.88100000      36.49700000      22.54900000
 H      39.06700000      35.50800000      22.36700000
 H      38.02200000      36.29100000      23.01700000
 O      35.94900000      34.75300000      40.87200000
 H      36.53300000      33.93500000      40.69800000
 H      36.46000000      35.18200000      41.53800000
 O      21.55100000      28.01000000      35.87900000
 H      22.43700000      27.97700000      35.42900000
 H      21.38500000      27.05200000      35.92900000
 O      15.22700000      29.09900000      39.64800000
 H      14.60300000      28.82400000      40.35800000
 H      15.75500000      28.23600000      39.58300000
 O      33.05600000      38.29300000      30.68700000
 H      32.67600000      37.59000000      30.10300000
 H      32.23500000      38.38900000      31.23400000
 O      18.27500000      37.57300000      28.49600000
 H      18.65600000      37.04400000      27.79400000
 H      17.64700000      36.95000000      28.84500000
 O      15.33000000      31.93500000      28.75400000
 H      16.08300000      31.30200000      28.71000000
 H      15.72800000      32.72200000      28.36400000
 O      18.64000000      39.13500000      21.40100000
 H      18.01000000      38.51500000      21.87000000
 H      18.57200000      39.90400000      22.02600000
 O      24.92700000      30.51100000      35.96400000
 H      25.44900000      30.94800000      35.33000000
 H      24.30900000      31.19400000      36.28400000
 O      28.13700000      34.09500000      22.08200000
 H      27.73800000      33.23300000      22.36900000
 H      28.73500000      33.76900000      21.39600000
 O      36.21700000      27.16200000      37.40900000
 H      35.44300000      27.54000000      36.99100000
 H      36.94400000      27.72800000      36.96700000
 O      27.04700000      38.63000000      31.89400000
 H      27.19200000      38.89200000      30.97900000
 H      26.25800000      37.99400000      31.73900000
 O      30.62600000      34.25900000      38.57300000
 H      30.84000000      34.02900000      37.59000000
 H      31.36500000      33.77700000      38.94600000
 O      34.78100000      28.69000000      35.70000000
 H      34.16800000      28.63000000      34.97400000
 H      35.55200000      29.02900000      35.22300000
 O      17.24000000      39.98800000      34.54900000
 H      17.45700000      40.78400000      35.00400000
 H      16.28500000      39.78100000      34.78100000
 O      32.30100000      37.48000000      24.57700000
 H      31.83300000      38.16800000      25.05300000
 H      32.71200000      36.92600000      25.31800000
 O      29.12900000      35.86300000      31.52200000
 H      28.80100000      36.66200000      31.92800000
 H      28.62000000      35.85500000      30.67100000
 O      36.36400000      38.75000000      36.23400000
 H      36.25900000      39.69300000      36.04500000
 H      36.28400000      38.72500000      37.18400000
 O      26.69800000      27.70000000      28.82000000
 H      26.66600000      27.51800000      27.81200000
 H      27.31900000      26.92900000      28.98800000
 O      37.69800000      32.77600000      40.75200000
 H      38.52800000      32.88500000      41.25900000
 H      37.56200000      31.79800000      41.03200000
 O      39.19600000      39.85700000      31.16200000
 H      39.67100000      39.21000000      31.76700000
 H      39.64600000      40.64800000      31.31600000
 O      34.33100000      34.06700000      36.85200000
 H      34.84400000      33.23500000      36.59900000
 H      33.58200000      33.99300000      36.23400000
 O      16.70400000      38.32700000      38.63300000
 H      16.37000000      39.16200000      39.01800000
 H      16.49000000      37.72200000      39.39700000
 O      27.71900000      27.38600000      22.48300000
 H      28.38400000      28.08300000      22.15400000
 H      27.58500000      27.73300000      23.41900000
 O      24.12100000      27.62400000      34.75100000
 H      24.65900000      26.88200000      35.08900000
 H      24.62300000      28.34400000      35.21700000
 O      27.35700000      28.46100000      24.82900000
 H      26.60300000      29.07300000      24.61000000
 H      26.84400000      27.79200000      25.28700000
 O      24.35500000      38.15500000      34.67300000
 H      24.09100000      38.66300000      35.49300000
 H      25.28700000      37.92700000      34.88500000
 O      36.66000000      34.85100000      34.68300000
 H      37.14400000      34.83400000      35.53100000
 H      35.72800000      34.89900000      35.07200000
 O      30.95000000      39.32600000      31.84300000
 H      30.69700000      40.21000000      32.26800000
 H      30.43500000      38.77200000      32.45000000
 O      40.74100000      38.07500000      23.56400000
 H      40.05800000      37.35900000      23.43500000
 H      40.85200000      37.97300000      24.53100000
 O      35.39200000      32.46200000      29.35300000
 H      36.32300000      32.53900000      29.23000000
 H      35.28800000      32.77900000      30.30700000
 O      26.10300000      30.63200000      28.96600000
 H      26.90400000      31.01000000      29.38200000
 H      26.40800000      29.65200000      28.92500000
 O      25.45500000      30.61800000      24.30400000
 H      24.77300000      30.86000000      23.67100000
 H      25.08300000      31.00200000      25.14300000
 O      15.16900000      33.17600000      31.30100000
 H      15.20800000      32.66600000      30.48600000
 H      15.89700000      33.83400000      31.11800000
 O      13.68300000      39.37100000      29.18800000
 H      14.63700000      39.33800000      28.97000000
 H      13.33300000      39.89400000      28.40800000
 O      15.25100000      36.35400000      37.19200000
 H      14.94300000      36.42500000      38.10100000
 H      16.08400000      36.87700000      37.24700000
 O      32.22600000      32.67100000      32.91900000
 H      31.44400000      32.82800000      32.37100000
 H      32.61000000      33.54200000      32.96600000
 O      28.78100000      27.83100000      35.82200000
 H      28.97600000      28.78500000      35.84300000
 H      29.43800000      27.51600000      35.15200000
 O      34.93800000      30.45900000      27.54900000
 H      34.71400000      31.12500000      26.85700000
 H      34.85300000      31.14700000      28.30500000
 O      38.19600000      29.21200000      37.18900000
 H      38.99700000      28.75900000      37.01900000
 H      38.46400000      30.06300000      37.59100000
 O      35.22500000      33.67800000      31.92800000
 H      34.47400000      34.20200000      32.33500000
 H      35.89400000      34.38400000      31.81800000
 O      37.34400000      37.29100000      26.54500000
 H      37.33600000      37.68900000      27.49300000
 H      38.32700000      37.16100000      26.49600000
 O      17.26000000      34.84000000      30.72300000
 H      18.04400000      34.59800000      30.22100000
 H      17.78900000      34.97500000      31.60600000
 O      28.12100000      32.03800000      30.10400000
 H      28.57500000      31.25500000      30.52300000
 H      28.20300000      32.68300000      30.83500000
 O      36.46700000      36.01000000      23.56700000
 H      36.11300000      35.18900000      23.96200000
 H      35.99900000      36.65200000      24.14500000
 O      34.92100000      30.55700000      38.93000000
 H      35.60300000      30.67500000      38.16700000
 H      35.61200000      30.60200000      39.66300000
 O      18.24600000      34.64500000      35.66300000
 H      17.45700000      34.03500000      35.59200000
 H      18.73500000      34.17000000      36.36000000
 O      37.25300000      38.48900000      28.90300000
 H      36.91500000      39.37500000      29.09900000
 H      38.08300000      38.53200000      29.39700000
 O      19.05100000      39.36100000      40.78000000
 H      18.52700000      40.16200000      40.50200000
 H      18.39200000      38.71400000      40.48600000
 O      18.33300000      40.12800000      31.70900000
 H      18.99600000      39.42800000      31.79100000
 H      17.91600000      40.02200000      32.63000000
 O      21.52400000      32.82900000      28.01000000
 H      21.72100000      33.54700000      28.73700000
 H      21.73400000      33.40500000      27.26800000
 O      26.16900000      36.01100000      36.72700000
 H      25.45900000      36.12400000      37.40300000
 H      26.98000000      36.27900000      37.21500000
 O      31.71800000      36.23300000      29.01700000
 H      31.08900000      35.81000000      29.67000000
 H      32.24700000      35.44600000      28.76800000
 O      15.89100000      29.85300000      37.13500000
 H      15.37600000      29.81000000      37.96900000
 H      16.50900000      29.11500000      37.27800000
 O      33.81600000      38.17700000      39.73400000
 H      33.59500000      37.21600000      39.35000000
 H      33.28200000      38.64700000      39.06800000
 O      30.67700000      34.53700000      35.87800000
 H      31.05000000      35.31100000      35.39700000
 H      29.71900000      34.64500000      35.66100000
 O      16.21600000      39.81400000      28.29800000
 H      16.93400000      39.12700000      28.27000000
 H      16.64300000      40.45400000      28.85600000
 O      38.31800000      36.77800000      33.23300000
 H      37.75400000      36.17000000      33.72800000
 H      37.72500000      37.48800000      32.96300000
 O      26.33900000      36.04200000      24.14500000
 H      25.54200000      35.74900000      23.64600000
 H      26.59200000      35.27000000      24.66500000
 O      16.50300000      34.18500000      27.68300000
 H      17.32000000      34.46800000      28.18100000
 H      15.97100000      34.98700000      27.78700000
 O      14.05100000      35.19600000      21.04300000
 H      14.45000000      35.34100000      20.17300000
 H      14.69100000      34.53300000      21.40500000
 O      18.79200000      29.55500000      28.09000000
 H      18.67700000      28.55500000      28.01200000
 H      19.76000000      29.52900000      28.23700000
 O      19.84300000      36.90600000      35.70400000
 H      19.08600000      36.26100000      35.84400000
 H      20.04400000      36.76600000      34.77800000
 O      20.77100000      28.68900000      38.34400000
 H      19.99600000      29.13400000      37.99900000
 H      21.14700000      28.28300000      37.49500000
 O      26.64600000      32.01200000      33.84900000
 H      27.39200000      31.33700000      33.62500000
 H      26.12400000      31.95900000      33.06100000
 O      29.22700000      37.50300000      27.25600000
 H      30.12700000      37.17800000      27.39600000
 H      29.07300000      37.27100000      26.30400000
 O      22.46900000      30.08200000      24.48700000
 H      22.71100000      29.36300000      23.87300000
 H      22.69800000      29.66300000      25.33300000
 O      16.45400000      32.63200000      36.05500000
 H      16.20200000      33.07200000      36.92000000
 H      16.23300000      31.68900000      36.33900000
 O      23.90900000      35.47200000      22.77900000
 H      23.13200000      35.93600000      22.43600000
 H      23.41300000      34.63800000      23.05400000
 O      19.48700000      32.99400000      37.75700000
 H      19.89900000      33.62400000      38.31100000
 H      19.28200000      32.26000000      38.29400000
 O      30.60000000      31.81200000      23.92700000
 H      31.19500000      32.58800000      23.58900000
 H      31.15400000      31.07200000      23.64900000
 O      35.31100000      32.31600000      21.83200000
 H      34.85300000      32.12600000      20.95900000
 H      34.56200000      32.77600000      22.26800000
 O      20.90300000      38.45700000      26.41500000
 H      21.07800000      38.07500000      25.49800000
 H      20.10000000      39.00400000      26.24900000
 O      32.66800000      38.79900000      34.42000000
 H      32.56500000      39.42900000      35.11400000
 H      33.24000000      39.26400000      33.73900000
 O      15.89100000      33.63900000      38.39600000
 H      15.97400000      33.06500000      39.22000000
 H      16.22700000      34.46700000      38.73500000
 O      33.97600000      40.39100000      27.75000000
 H      34.76000000      40.13500000      28.25600000
 H      33.49000000      40.98800000      28.40700000
 O      27.01000000      38.79900000      35.94000000
 H      26.30000000      39.35200000      36.31700000
 H      27.57400000      38.61700000      36.67200000
 O      33.22000000      34.12100000      28.25600000
 H      32.75300000      33.73000000      27.51300000
 H      33.81700000      33.44900000      28.49900000
 O      15.89500000      37.17800000      30.20600000
 H      16.40000000      36.46700000      30.58200000
 H      15.47900000      37.58900000      31.00800000
 O      25.10700000      36.73200000      31.46400000
 H      25.43600000      35.86200000      31.26300000
 H      24.41700000      36.57000000      32.07500000
 O      21.98400000      29.44600000      40.50400000
 H      21.35400000      29.05900000      39.77500000
 H      22.69300000      28.71800000      40.37600000
 O      21.58300000      39.46300000      19.98400000
 H      21.80000000      39.45900000      20.97800000
 H      20.89700000      40.20600000      20.05500000
 O      40.37200000      40.58500000      34.53400000
 H      39.85300000      39.71300000      34.69200000
 H      40.62500000      40.76200000      35.45000000
 O      37.67800000      29.18500000      31.73100000
 H      38.11400000      29.97300000      31.29000000
 H      38.43900000      28.54000000      31.53500000
 O      38.90900000      33.85800000      22.29400000
 H      38.03400000      33.41100000      22.15400000
 H      39.16800000      33.53300000      23.15600000
 O      13.30300000      35.68200000      39.43200000
 H      12.99400000      34.78100000      39.11900000
 H      13.97000000      35.37400000      40.13300000
 O      37.95900000      31.15700000      20.80200000
 H      37.09500000      31.58400000      20.94000000
 H      37.71100000      30.30500000      20.35300000
 O      37.25100000      34.38600000      37.52400000
 H      37.31800000      35.10500000      38.20400000
 H      36.27000000      34.19900000      37.58800000
 O      38.91100000      31.49200000      30.17600000
 H      38.63900000      32.14100000      29.46700000
 H      39.39300000      30.89500000      29.54300000
 O      33.37900000      35.71200000      39.03100000
 H      33.92200000      35.17800000      39.67600000
 H      33.70500000      35.38700000      38.16900000
 O      29.12800000      33.37900000      32.68000000
 H      28.66300000      33.63000000      33.49500000
 H      29.41200000      34.23400000      32.36400000
 O      25.68600000      34.74700000      21.10600000
 H      25.16700000      34.94200000      21.92900000
 H      26.56000000      34.76700000      21.48600000
 O      23.36500000      27.97400000      22.85700000
 H      22.66400000      27.65600000      22.20900000
 H      24.11100000      27.53900000      22.44400000
 O      28.57000000      37.16100000      24.65900000
 H      28.41800000      38.12900000      24.41100000
 H      27.66900000      36.81500000      24.53000000
 O      29.18800000      40.36200000      36.69000000
 H      28.39100000      40.26800000      36.05200000
 H      29.36100000      41.32700000      36.52100000
 O      31.22400000      36.32600000      34.30200000
 H      31.71400000      37.18100000      34.18200000
 H      30.28900000      36.60200000      34.11800000
 O      37.54600000      29.39200000      27.35200000
 H      36.62000000      29.79700000      27.37400000
 H      37.78900000      29.67100000      26.42900000
 O      15.29200000      36.61600000      27.49900000
 H      15.51000000      36.97500000      28.40300000
 H      14.33200000      36.61700000      27.41500000
 O      18.78200000      31.97000000      30.86800000
 H      18.75700000      31.00100000      30.90600000
 H      18.36900000      32.24400000      31.68800000
 O      25.08000000      31.57600000      31.65600000
 H      24.20200000      31.14100000      31.78500000
 H      25.50000000      31.10300000      30.99000000
 O      28.31000000      32.84700000      27.33100000
 H      28.44500000      32.59700000      28.25700000
 H      28.46000000      32.00200000      26.85600000
 O      33.57400000      32.16200000      25.81900000
 H      33.37200000      31.40200000      25.26700000
 H      32.62100000      32.59400000      25.86300000
 O      38.37900000      33.17400000      28.21300000
 H      37.77700000      33.96100000      28.00700000
 H      39.19300000      33.60300000      27.76400000
 O      34.54200000      40.18300000      23.82100000
 H      34.23800000      39.33300000      24.17700000
 H      34.93000000      40.54100000      24.62800000
 O      31.86500000      40.72800000      26.18600000
 H      32.77600000      40.66400000      26.53500000
 H      31.44600000      40.55900000      27.05500000
 O      22.15600000      37.46600000      30.03100000
 H      21.56100000      38.27200000      29.80200000
 H      23.02300000      37.77700000      29.79600000
 O      24.25200000      28.03700000      30.14400000
 H      23.76000000      27.38500000      29.57000000
 H      25.11100000      27.99100000      29.65500000
 O      28.97700000      30.43900000      33.19800000
 H      29.90200000      30.58800000      33.49800000
 H      29.07700000      30.14100000      32.28800000
 O      20.88100000      37.61200000      23.64300000
 H      20.74900000      37.01600000      22.80400000
 H      21.67500000      38.09500000      23.24100000
 O      20.48400000      40.20500000      34.69500000
 H      20.51400000      39.34000000      34.22200000
 H      20.03600000      39.93500000      35.50000000
 O      34.66700000      31.16500000      32.98000000
 H      33.77300000      31.56200000      33.15000000
 H      35.07300000      31.94300000      32.57300000
 O      36.70300000      30.69600000      24.59500000
 H      35.84200000      30.37900000      24.14800000
 H      37.28400000      29.94000000      24.37200000
 O      31.08300000      29.84900000      38.87500000
 H      31.72000000      30.43000000      39.33500000
 H      31.76100000      29.33700000      38.36200000
 O      39.41500000      30.78300000      34.59100000
 H      39.61300000      31.52800000      33.97800000
 H      40.17700000      30.20600000      34.48100000
 O      27.80400000      34.24600000      35.03500000
 H      27.28100000      34.91500000      35.48500000
 H      27.12000000      33.53700000      34.75200000
 O      23.16600000      40.63800000      39.06300000
 H      22.85900000      40.15500000      39.85300000
 H      23.40500000      39.94600000      38.39800000
 O      13.43800000      29.49300000      29.83900000
 H      14.01000000      30.21600000      29.67500000
 H      13.29800000      29.07300000      28.97700000
 O      21.52100000      34.49400000      38.74100000
 H      22.20900000      33.88600000      38.38000000
 H      21.44600000      34.07000000      39.61200000
 O      31.68600000      38.95400000      37.73700000
 H      31.70400000      39.90400000      38.02900000
 H      30.86500000      39.07500000      37.16000000
 O      36.94800000      38.97200000      32.43400000
 H      36.94000000      39.51300000      33.26800000
 H      37.59800000      39.40000000      31.88700000
 O      35.61500000      33.55600000      24.87800000
 H      36.03900000      32.83000000      24.48200000
 H      34.75800000      33.11800000      25.23500000
 O      18.65400000      35.18600000      32.90800000
 H      18.33500000      34.86700000      33.77600000
 H      19.60700000      35.12200000      33.07200000
 O      30.69100000      36.67500000      39.90000000
 H      31.12800000      35.92800000      39.43900000
 H      31.30900000      37.37900000      39.61900000
 O      28.08300000      38.79100000      38.48400000
 H      27.90700000      39.36600000      39.30600000
 H      28.88100000      39.26600000      38.09500000
 O      17.23800000      30.14500000      25.70100000
 H      17.87200000      30.20600000      26.47700000
 H      17.00600000      31.09900000      25.57200000
 O      32.77000000      32.11100000      39.86800000
 H      33.62100000      31.71400000      39.45700000
 H      33.31300000      32.51700000      40.66600000
 O      24.18100000      38.51200000      37.63000000
 H      24.74400000      37.99500000      38.26900000
 H      23.48000000      37.88400000      37.36500000
 O      28.30900000      30.24200000      39.87100000
 H      29.26100000      29.97800000      39.64100000
 H      27.88300000      29.39500000      39.64200000
 O      21.36400000      32.84200000      31.71100000
 H      20.48500000      32.53300000      31.46900000
 H      21.95700000      32.18600000      31.30700000
 O      19.13200000      39.41800000      37.17400000
 H      18.17100000      39.26400000      37.34800000
 H      19.40800000      38.57300000      36.78400000
 O      15.99000000      36.19700000      40.35800000
 H      16.93500000      36.12700000      40.46800000
 H      15.63900000      35.99500000      41.23800000
 O      32.37500000      33.77100000      22.71500000
 H      31.79200000      34.28600000      23.26600000
 H      32.52900000      34.30400000      21.95200000
 O      15.60000000      33.27000000      22.37300000
 H      16.27400000      32.64500000      22.02100000
 H      15.73400000      33.22600000      23.29100000
 O      22.57000000      30.10000000      31.33400000
 H      22.81000000      29.38500000      30.74300000
 H      22.23600000      29.60300000      32.07300000
 O      19.00000000      33.31900000      28.57900000
 H      19.70700000      32.97100000      28.04700000
 H      19.02100000      32.80900000      29.39000000
 O      28.52900000      36.24400000      37.79300000
 H      29.12400000      35.72800000      38.32000000
 H      28.56900000      37.17800000      38.12900000
 O      32.42000000      28.24000000      31.58800000
 H      32.60600000      27.71600000      30.76900000
 H      33.36700000      28.31700000      31.88600000
 O      16.24900000      37.22000000      22.41300000
 H      16.64200000      36.41200000      21.88200000
 H      16.25500000      36.89100000      23.32500000
 O      25.12900000      33.54300000      39.13700000
 H      24.56800000      34.01000000      39.77600000
 H      25.96700000      33.61100000      39.58000000
 O      40.07300000      27.71400000      31.15900000
 H      39.71800000      26.79400000      30.97500000
 H      40.96700000      27.43300000      31.47900000
 O      33.39100000      28.41100000      37.97100000
 H      33.64000000      28.39900000      37.06600000
 H      34.05500000      29.02800000      38.38300000
 O      26.60100000      33.78700000      25.54600000
 H      27.16700000      33.36500000      26.28900000
 H      25.79000000      33.23800000      25.75700000
