123
XYZ file of cluster: frame_10500_0.9b99b.1d804 - created by MolEdiTo
 O      11.03200000      27.99600000      13.93400000
 H      10.45400000      28.81800000      13.95000000
 H      10.52700000      27.35700000      14.53800000
 O       5.50400000      25.22000000       9.43700000
 H       5.26000000      26.19800000       9.31800000
 H       6.47100000      25.21900000       9.23400000
 O       5.61600000      30.36700000       5.95100000
 H       5.44400000      30.75000000       4.99900000
 H       5.96300000      31.14500000       6.42100000
 O       8.19500000      20.67100000       8.97700000
 H       7.53000000      20.86600000       9.70100000
 H       8.13600000      21.36500000       8.29200000
 O       7.44100000      26.38700000       5.10900000
 H       7.84200000      27.07200000       5.72400000
 H       8.16100000      25.95600000       4.58100000
 O       2.32800000      22.05200000      11.49900000
 H       1.77900000      21.16000000      11.47100000
 H       2.83800000      21.84800000      12.32700000
 O      10.29100000      21.73100000       5.46400000
 H      10.58700000      21.23200000       6.27800000
 H      10.30900000      22.67500000       5.73900000
 O      10.87100000      28.13900000      11.18100000
 H      11.01100000      28.19800000      12.17700000
 H       9.85700000      27.97300000      11.23900000
 O       0.74700000      26.86500000      12.72300000
 H       0.86100000      25.99200000      13.07400000
 H       0.66200000      27.49000000      13.46700000
 O       7.33200000      26.57600000       7.78900000
 H       6.80800000      26.32000000       7.03200000
 H       6.74100000      27.16800000       8.24700000
 O       4.97300000      27.95900000       8.38800000
 H       4.21100000      27.61700000       7.89900000
 H       4.93400000      28.98200000       8.27500000
 O       2.94300000      27.81600000       6.34600000
 H       2.25600000      27.88900000       5.63100000
 H       3.52200000      28.61300000       6.28600000
 O       5.17100000      27.57400000      12.58900000
 H       4.27800000      27.73900000      12.17700000
 H       5.67800000      28.01500000      11.85500000
 O       6.48400000      29.98800000      13.98100000
 H       6.36000000      30.14000000      14.94400000
 H       5.69100000      29.40500000      13.81900000
 O       1.26300000      22.15700000      16.57300000
 H       1.29300000      21.96100000      15.60400000
 H       2.10200000      22.63500000      16.60700000
 O       0.77100000      22.35400000       4.43800000
 H       0.00000000      22.41000000       3.81200000
 H       0.39000000      22.63100000       5.34400000
 O       9.40800000      28.37300000       5.99100000
 H      10.26900000      28.88800000       5.89000000
 H       9.63100000      27.53100000       6.41300000
 O       5.52700000      25.89400000      14.63000000
 H       5.23300000      26.27800000      13.72100000
 H       6.39100000      25.46200000      14.37200000
 O       2.63600000      30.35100000       4.92500000
 H       1.79000000      30.45100000       4.41300000
 H       2.60500000      30.60800000       5.87700000
 O       8.01200000      29.76000000       8.75700000
 H       8.84200000      30.22600000       8.59000000
 H       7.92000000      29.06100000       8.08000000
 O      10.41500000      24.00100000      12.40100000
 H      11.35000000      24.33500000      12.50600000
 H      10.66500000      23.14900000      11.95100000
 O       1.62000000      25.02800000       5.62500000
 H       2.24000000      24.62900000       4.96200000
 H       1.48900000      24.34200000       6.33500000
 O       2.01300000      26.77100000       8.66900000
 H       2.01000000      25.82400000       8.50600000
 H       2.25200000      27.08900000       7.76300000
 O       9.18900000      30.06900000      13.12600000
 H       8.19500000      29.97600000      13.16800000
 H       9.35400000      30.74200000      12.43800000
 O       3.17400000      23.97300000      15.48200000
 H       3.92400000      24.40100000      15.01500000
 H       2.68200000      23.64200000      14.73500000
 O       2.80000000      23.74800000       9.21000000
 H       3.22300000      22.90500000       9.50600000
 H       3.59800000      24.35100000       9.40500000
 O       7.64700000      27.45300000      15.93300000
 H       6.90200000      27.33300000      15.31900000
 H       7.15300000      27.12300000      16.74700000
 O       2.74600000      28.10000000      11.25300000
 H       1.95200000      27.54100000      11.49500000
 H       2.74200000      27.89400000      10.33600000
 O       9.70400000      24.69300000       6.58300000
 H      10.59100000      24.53400000       7.00800000
 H       9.16700000      24.93500000       7.39000000
 O       1.91800000      28.87800000      14.45000000
 H       1.48100000      29.62700000      14.87100000
 H       2.01500000      29.11400000      13.51700000
 O       6.54500000      22.68500000      10.65600000
 H       5.89900000      21.96800000      10.88800000
 H       6.04500000      23.39200000      10.24800000
 O       6.30300000      29.46000000      10.86000000
 H       7.04900000      29.29800000      10.27000000
 H       6.08900000      30.35900000      10.87100000
 O      10.01800000      25.97700000      15.58200000
 H      10.00700000      25.16600000      16.09300000
 H       9.14400000      26.38700000      15.74800000
 O       2.70300000      30.49000000       7.78500000
 H       1.75800000      30.18100000       7.82500000
 H       2.82800000      31.07200000       8.58000000
 O       7.62700000      22.81200000       7.26000000
 H       7.02300000      23.58600000       7.25800000
 H       8.56300000      23.10400000       7.39900000
 O       8.44700000      26.99100000      11.61300000
 H       7.79200000      27.65900000      11.92300000
 H       8.23600000      26.22600000      12.24200000
 O       4.66000000      21.57000000      15.81100000
 H       4.84100000      22.28300000      16.48100000
 H       5.48700000      21.29900000      15.41200000
 O       7.38200000      20.08000000       6.13300000
 H       6.47300000      20.14000000       6.36600000
 H       7.65700000      21.02400000       6.22700000
 O       1.19400000      23.97500000      13.47200000
 H       0.98200000      24.02900000      12.56000000
 H       0.88200000      23.05500000      13.78300000
 O       8.79800000      24.52100000       9.64200000
 H       9.09200000      25.22100000      10.27300000
 H       8.76900000      23.73100000      10.23300000
 O       7.62000000      24.52700000      13.51200000
 H       7.28400000      23.81000000      12.94000000
 H       8.61900000      24.46200000      13.42000000
