142
XYZ file of cluster: frame_10500_49b75.67d24.49f02 - created by MolEdiTo
 O      18.87900000      21.90900000      19.81500000
 H      18.69900000      21.53500000      18.94100000
 H      19.89800000      21.81000000      19.95600000
 O      11.07900000      18.64300000      18.82400000
 H      10.14700000      18.75900000      19.02500000
 H      11.25700000      19.57500000      18.62600000
 O      20.50400000      18.19300000      18.89000000
 H      19.87400000      17.53000000      18.48500000
 H      20.82700000      17.58100000      19.54800000
 O      15.90400000      15.95100000      18.87000000
 H      15.26900000      15.82100000      18.14100000
 H      15.42700000      15.36800000      19.59700000
 O      18.69700000      15.90000000      19.02200000
 H      18.71400000      15.48300000      19.93800000
 H      17.71800000      15.88500000      18.83400000
 O      16.80700000      21.61500000      17.40700000
 H      16.24400000      22.26400000      16.97900000
 H      16.22800000      20.83000000      17.73600000
 O      19.96100000      21.61400000      16.50200000
 H      19.81200000      21.90800000      15.54200000
 H      20.74700000      22.18300000      16.67700000
 O      12.31100000      19.11900000      12.22100000
 H      11.51000000      19.10400000      11.69100000
 H      12.14500000      18.30000000      12.70800000
 O      17.44200000      18.53100000      11.59600000
 H      16.61900000      19.02500000      11.58600000
 H      17.51600000      18.21300000      12.50300000
 O      16.62300000      22.13900000      14.15500000
 H      16.83400000      22.36600000      13.20900000
 H      15.70800000      22.42700000      14.40800000
 O      16.99300000      24.82400000      18.68500000
 H      17.70900000      24.83200000      17.94400000
 H      17.38200000      25.34900000      19.43000000
 O      14.23500000      23.03800000      12.39700000
 H      14.04100000      22.45800000      13.20400000
 H      13.71800000      23.84500000      12.66200000
 O      12.83000000      19.51600000      20.83900000
 H      13.38900000      20.00700000      21.50800000
 H      12.41000000      18.78100000      21.33200000
 C      17.11700000      14.53300000      15.49400000
 C      16.37600000      15.79300000      15.43700000
 C      14.16100000      17.08600000      15.35600000
 H      14.44800000      15.20400000      14.74400000
 H      18.54800000      15.61600000      15.54600000
 O      14.33900000      15.06200000      16.73900000
 O      16.59800000      13.39800000      15.35600000
 O      18.43400000      14.64800000      15.36600000
 C      14.80400000      15.71700000      15.54200000
 O      17.03400000      16.77900000      16.37100000
 H      16.61200000      16.12200000      14.43300000
 O      14.78200000      18.00100000      14.82900000
 O      13.19500000      17.45200000      16.21600000
 H      13.02000000      16.64000000      16.77400000
 H      16.93100000      17.71300000      16.05700000
 H      14.94200000      14.32800000      16.87700000
 O      12.93000000      24.29000000      20.65800000
 H      13.73700000      23.68100000      20.69900000
 H      13.25500000      25.08800000      20.25700000
 O      13.25700000      20.98100000      18.51100000
 H      13.22100000      20.28800000      19.20600000
 H      13.72900000      21.76800000      18.90400000
 O      13.44400000      16.87300000      19.82500000
 H      13.55600000      17.85000000      19.81800000
 H      12.79000000      16.72600000      19.11700000
 O      10.41500000      24.00100000      12.40100000
 H      11.35000000      24.33500000      12.50600000
 H      10.66500000      23.14900000      11.95100000
 O      13.74900000      20.49400000      14.22900000
 H      13.21300000      20.10600000      13.44800000
 H      14.39900000      19.74000000      14.44800000
 O      12.17000000      16.40200000      12.93800000
 H      13.03000000      16.38100000      12.48800000
 H      11.43300000      16.29500000      12.30700000
 O      16.49300000      20.16900000      20.50500000
 H      17.30000000      20.45800000      20.05300000
 H      15.94400000      19.79900000      19.75900000
 O      20.35300000      22.71500000      10.32000000
 H      21.06900000      22.66700000      10.98600000
 H      20.79800000      23.13100000       9.55400000
 O      16.14600000      25.05500000      15.27500000
 H      16.76000000      24.57900000      15.88900000
 H      15.27700000      24.59300000      15.31900000
 O      11.06300000      20.54000000      15.11900000
 H      11.97300000      20.65800000      14.83300000
 H      10.86400000      21.50500000      15.28400000
 O      18.27900000      25.55800000      13.43800000
 H      17.65600000      25.15900000      14.08600000
 H      18.67200000      24.76500000      12.95700000
 O      11.42400000      24.78200000      17.97500000
 H      10.61700000      25.12300000      18.34800000
 H      11.99700000      24.80300000      18.78400000
 O      12.95000000      25.32500000      13.54200000
 H      12.24700000      25.92600000      13.74300000
 H      13.68700000      25.88700000      13.94500000
 O      11.18300000      15.93400000      17.50000000
 H      10.71500000      16.02000000      16.60700000
 H      10.78700000      16.61100000      18.12100000
 O      21.42600000      24.86900000      19.54600000
 H      20.72900000      24.39700000      20.03900000
 H      21.77200000      24.14800000      18.99300000
 O      14.09300000      16.90800000      10.97700000
 H      14.96800000      17.15200000      10.57800000
 H      13.47400000      16.77300000      10.20700000
 O      20.15000000      21.82800000      13.51700000
 H      20.72700000      21.17000000      13.19600000
 H      19.47000000      22.00100000      12.85900000
 O      15.44500000      20.66600000      11.51500000
 H      15.15300000      20.28500000      10.68300000
 H      14.82700000      21.40900000      11.61500000
 O      18.09400000      23.20800000      11.89200000
 H      18.88000000      22.95800000      11.40300000
 H      17.42800000      23.23300000      11.12600000
 O      18.72400000      24.27100000      16.36400000
 H      18.34700000      23.42000000      16.69400000
 H      19.67000000      24.30900000      16.34500000
 O      15.23400000      22.86800000      19.65600000
 H      15.58100000      23.82100000      19.45900000
 H      16.12400000      22.40800000      19.65300000
 O      10.10600000      22.65300000      16.66000000
 H       9.52200000      22.13300000      17.34200000
 H      10.75300000      23.19900000      17.21000000
 O      19.69500000      23.60500000      21.61100000
 H      19.13500000      23.19100000      20.88200000
 H      19.21900000      24.39800000      22.02800000
 O      17.56800000      19.49800000      15.32600000
 H      18.00400000      20.27600000      15.81500000
 H      17.02100000      19.98700000      14.60900000
 O      19.52500000      16.78300000      10.76900000
 H      20.01200000      16.95300000      11.61000000
 H      18.78200000      17.50800000      10.85700000
 O      13.97500000      22.80800000      16.06400000
 H      13.21200000      22.91700000      16.63900000
 H      13.86300000      21.99200000      15.65000000
 O      18.90600000      26.26200000      20.29700000
 H      19.02600000      27.26400000      20.13600000
 H      19.83200000      25.88500000      20.24200000
 O      15.49700000      18.57800000      18.25400000
 H      14.67700000      18.43400000      17.66400000
 H      15.98100000      17.79400000      18.18900000
 O      19.83800000      17.04900000      14.26300000
 H      19.49800000      17.89900000      14.64900000
 H      20.79900000      17.14300000      14.48900000
