117
XYZ file of cluster: frame_10500_9b958.4a02d.a0ea8 - created by MolEdiTo
 O      21.69700000      19.52800000      29.52300000
 H      20.94500000      19.19800000      29.01800000
 H      22.41000000      19.66800000      28.90500000
 O      25.58500000      14.26900000      21.00500000
 H      26.46300000      14.66000000      21.11400000
 H      25.27400000      14.39000000      21.84300000
 O      22.91800000      20.31100000      23.62100000
 H      23.10400000      19.43200000      23.10100000
 H      23.82400000      20.64100000      23.87800000
 O      25.74700000      15.31100000      26.93200000
 H      26.73800000      14.98100000      26.98700000
 H      25.23500000      14.47200000      27.28100000
 O      27.03000000      17.82100000      26.33900000
 H      26.68200000      16.89000000      26.11300000
 H      27.91100000      17.99900000      25.92300000
 O      25.09800000      21.63000000      24.97700000
 H      25.33600000      22.30300000      25.68800000
 H      25.62400000      20.84000000      25.10500000
 O      28.23800000      12.68700000      29.99200000
 H      27.52500000      12.85500000      29.31000000
 H      28.35900000      11.71400000      29.94400000
 O      22.59400000      14.05700000      22.81700000
 H      21.84800000      14.57700000      22.53800000
 H      22.40500000      13.17900000      22.53400000
 O      30.65300000      14.24700000      29.24800000
 H      31.53600000      13.97200000      29.65000000
 H      30.07700000      13.44800000      29.21400000
 O      26.18000000      12.79400000      28.35100000
 H      25.61300000      12.43800000      29.03600000
 H      26.12900000      12.13800000      27.59600000
 O      28.31900000      14.99000000      26.23700000
 H      28.92500000      15.51500000      25.57300000
 H      28.91400000      14.84100000      27.01600000
 O      27.96800000      15.50000000      29.31300000
 H      28.82300000      15.23400000      29.06200000
 H      27.92800000      15.09700000      30.20300000
 O      28.41600000      19.27500000      23.62200000
 H      27.52600000      19.51600000      23.84400000
 H      28.37200000      19.40800000      22.70300000
 O      22.46100000      10.43700000      23.93700000
 H      21.58200000      10.88700000      23.83900000
 H      22.20500000       9.55100000      24.42000000
 O      25.67300000      14.60700000      23.89000000
 H      25.71300000      14.83500000      24.82300000
 H      25.27000000      15.37800000      23.48800000
 O      23.42600000      10.25600000      26.64700000
 H      24.11000000       9.67400000      26.24500000
 H      22.69000000      10.51800000      26.05200000
 O      24.99800000      11.72600000      23.17100000
 H      24.20100000      11.12200000      23.27800000
 H      24.72700000      12.70000000      23.13100000
 O      22.54300000      14.82600000      29.22200000
 H      22.48700000      14.23300000      30.01000000
 H      21.66400000      14.61400000      28.84600000
 O      29.91400000      13.77100000      21.21200000
 H      29.08600000      13.25500000      21.40600000
 H      30.68100000      13.19200000      21.50500000
 O      21.61600000      21.00300000      26.78800000
 H      21.94200000      20.35900000      26.12500000
 H      21.17700000      21.64000000      26.16600000
 O      24.27000000      19.46900000      27.94900000
 H      24.47100000      18.74900000      28.61100000
 H      24.24400000      19.05200000      27.10300000
 O      29.99800000      17.56000000      25.69600000
 H      29.78700000      17.23800000      24.78100000
 H      30.40700000      18.38800000      25.54500000
 O      27.01700000      20.21000000      21.10000000
 H      26.11300000      20.51000000      20.84300000
 H      27.38700000      21.04300000      21.48200000
 O      23.99400000      12.22500000      30.33000000
 H      23.05300000      12.16300000      30.37200000
 H      24.20100000      12.09700000      31.32400000
 O      29.41300000      11.24100000      24.46800000
 H      30.23100000      11.41200000      23.96700000
 H      29.66600000      11.28500000      25.35700000
 O      20.93200000      12.68400000      28.18400000
 H      20.09700000      12.92500000      27.57000000
 H      21.56300000      12.90100000      27.47900000
 O      29.68200000      18.56100000      29.46500000
 H      30.55100000      18.18100000      29.11600000
 H      28.93200000      18.37200000      28.80800000
 O      25.77000000      21.13000000      29.57400000
 H      25.16600000      20.49900000      29.07800000
 H      26.36000000      20.59500000      30.22100000
 O      26.13500000      12.07000000      25.57300000
 H      26.88900000      12.63900000      25.39300000
 H      25.59700000      11.87100000      24.75800000
 O      27.22100000      20.80900000      26.92900000
 H      26.42100000      20.78900000      27.40200000
 H      27.07400000      20.02300000      26.28800000
 O      23.23600000      16.57500000      27.28400000
 H      22.99400000      16.13400000      28.15100000
 H      24.07100000      16.14400000      26.91000000
 O      29.47000000      15.98800000      23.49400000
 H      30.08900000      15.35100000      23.06400000
 H      28.66900000      15.92600000      23.02700000
 O      25.52800000      19.05700000      23.60000000
 H      25.18900000      18.61900000      22.84300000
 H      25.33400000      18.44900000      24.30500000
 O      22.62300000      13.93100000      25.85600000
 H      23.53700000      13.63400000      25.65400000
 H      22.28500000      14.25700000      24.97300000
 O      25.53300000      17.21800000      29.25300000
 H      26.05000000      16.44000000      28.88300000
 H      24.66200000      16.88000000      28.99400000
 O      24.14500000      16.88000000      24.38800000
 H      23.52200000      16.96200000      23.57400000
 H      23.41200000      16.87000000      25.13000000
 O      23.36800000      18.18200000      21.79000000
 H      23.67700000      18.07600000      20.84900000
 H      22.44000000      17.89300000      21.74300000
 O      21.29100000      17.75100000      25.51000000
 H      21.83100000      17.33800000      26.23800000
 H      20.41300000      17.58600000      25.97800000
 O      27.45000000      12.01600000      20.79300000
 H      27.19100000      11.22400000      21.32800000
 H      26.79600000      12.85900000      20.91100000
