96
XYZ file of cluster: frame_10500_c58d2.c81c5.17e6 - created by MolEdiTo
 O      28.22800000      30.25800000       2.35500000
 H      28.99000000      29.98300000       2.82600000
 H      27.78400000      30.95800000       2.91000000
 O      30.57200000      28.81100000       9.52600000
 H      30.91200000      29.32200000      10.21400000
 H      31.17700000      28.02500000       9.30100000
 O      26.69700000      27.22200000       5.34800000
 H      27.52900000      26.75200000       5.38700000
 H      26.31600000      26.89700000       4.49700000
 O      27.82200000      27.28800000       0.86800000
 H      28.23500000      28.23100000       0.93700000
 H      26.94700000      27.58700000       0.47000000
 O      28.17100000      30.14300000       8.46700000
 H      28.94600000      29.72000000       8.85200000
 H      27.57700000      29.37700000       8.28200000
 O      29.53200000      30.47400000       5.75900000
 H      28.56900000      30.38800000       5.98300000
 H      29.65500000      29.75500000       5.13100000
 O      28.61800000      27.08700000       9.16500000
 H      29.27200000      27.86300000       9.29700000
 H      27.92000000      27.37300000       9.80200000
 O      26.53100000      33.61500000       4.00300000
 H      27.07900000      34.37500000       3.73000000
 H      25.62600000      33.91300000       3.96900000
 O      29.78200000      34.56600000       9.49900000
 H      29.44200000      34.59600000       8.52800000
 H      29.57000000      35.47200000       9.81300000
 O      28.98600000      36.92600000       1.82600000
 H      28.51500000      37.75300000       2.01500000
 H      29.21700000      36.54500000       2.75100000
 O      26.06800000      33.53900000       8.85300000
 H      25.51800000      33.14000000       8.19400000
 H      26.61400000      32.72500000       9.02800000
 O      28.40100000      35.61100000       4.61300000
 H      28.02700000      36.48900000       4.60700000
 H      28.35800000      35.40900000       5.55500000
 O      27.90000000      35.76300000       7.20400000
 H      27.81300000      36.79600000       7.27200000
 H      27.34700000      35.44100000       7.89400000
 O      33.54900000      26.77100000       8.66900000
 H      33.54600000      25.82400000       8.50600000
 H      33.78800000      27.08900000       7.76300000
 O      34.17200000      30.35100000       4.92500000
 H      33.32600000      30.45100000       4.41300000
 H      34.14100000      30.60800000       5.87700000
 O      35.71100000      29.16400000       2.77500000
 H      36.39000000      28.76500000       3.30600000
 H      35.29100000      29.79300000       3.46400000
 O      36.50900000      27.95900000       8.38800000
 H      35.74700000      27.61700000       7.89900000
 H      36.47000000      28.98200000       8.27500000
 O      34.28200000      28.10000000      11.25300000
 H      33.48800000      27.54100000      11.49500000
 H      34.27800000      27.89400000      10.33600000
 O      34.47900000      27.81600000       6.34600000
 H      33.79200000      27.88900000       5.63100000
 H      35.05800000      28.61300000       6.28600000
 O      32.30500000      29.17800000       2.80500000
 H      32.52500000      28.23900000       2.58500000
 H      32.63200000      29.77100000       2.06700000
 O      34.23900000      30.49000000       7.78500000
 H      33.29400000      30.18100000       7.82500000
 H      34.36400000      31.07200000       8.58000000
 O      32.70200000      35.52500000       5.54400000
 H      33.00600000      35.03000000       4.77800000
 H      31.81400000      35.83900000       5.15800000
 O      36.95600000      33.48300000       3.69000000
 H      36.24600000      33.48800000       2.95100000
 H      37.22300000      34.43400000       3.75900000
 O      34.62900000      35.33600000       9.19400000
 H      34.38900000      36.22600000       9.58400000
 H      33.84500000      34.73400000       9.41700000
 O      33.45700000      34.46200000       3.17000000
 H      33.80700000      33.63800000       2.81300000
 H      33.39600000      35.04600000       2.39000000
 O      37.22100000      36.98900000       9.14600000
 H      36.60800000      37.26000000       9.83600000
 H      36.71300000      36.42700000       8.55600000
 O      36.16700000      36.56200000       2.66100000
 H      35.96500000      35.61800000       2.43300000
 H      36.63000000      36.92500000       1.86700000
 O      37.16100000      34.00000000       8.93700000
 H      36.28200000      34.34800000       9.28100000
 H      37.69200000      33.92400000       9.75300000
 O      35.91500000      33.57800000       1.09500000
 H      35.64600000      34.01500000       0.30000000
 H      35.47700000      32.71000000       1.03800000
 O      32.84800000      32.54200000       0.98100000
 H      32.39700000      32.04300000       0.19300000
 H      32.03700000      32.92800000       1.45200000
 O      37.58100000      36.69300000       5.46900000
 H      36.78400000      36.21800000       5.77200000
 H      37.20200000      37.29900000       4.76600000
 O      35.45600000      35.16600000       6.07000000
 H      35.06100000      34.38600000       6.57400000
 H      34.67300000      35.55000000       5.63700000
