1791
XYZ file of cluster: frame_11000_20630.6ac.c2b9a - created by MolEdiTo
 O       7.65900000      27.64500000      36.65900000
 H       7.69600000      27.38800000      37.63100000
 H       8.11800000      28.46800000      36.64300000
 O       7.18400000      18.01800000      39.59800000
 H       7.81800000      18.72400000      39.39300000
 H       6.95200000      18.15900000      40.51200000
 O      29.46000000      36.69300000      36.21200000
 H      29.37800000      36.92400000      35.27600000
 H      28.71100000      36.10600000      36.41300000
 O      27.51700000       9.64500000      36.76100000
 H      27.87000000       9.50100000      35.85100000
 H      27.44000000      10.61800000      36.70900000
 O      18.18100000      38.25500000      35.42300000
 H      17.76800000      37.50800000      35.00300000
 H      17.52000000      38.97200000      35.14900000
 O      28.02300000      34.46500000      37.18000000
 H      27.10100000      34.52200000      36.95000000
 H      28.17100000      33.53900000      36.80300000
 O      30.43200000      10.30100000      39.13400000
 H      31.34400000      10.13000000      39.56900000
 H      30.05800000       9.43100000      39.29900000
 O      21.26800000       8.17600000      38.30500000
 H      21.63400000       8.26600000      37.39700000
 H      21.70000000       8.90400000      38.78100000
 O      32.39100000      16.92100000      38.36600000
 H      32.98100000      16.15600000      38.02300000
 H      32.50000000      16.83300000      39.30200000
 O      38.78800000       5.57000000      38.59500000
 H      38.09900000       6.25900000      38.53800000
 H      39.11900000       5.87300000      39.49100000
 O      17.20300000      13.04400000      39.83100000
 H      17.10500000      14.01100000      39.81300000
 H      17.50600000      12.90600000      38.93900000
 O      28.91200000      27.56300000      35.62100000
 H      29.81200000      27.19200000      35.80900000
 H      28.71200000      28.01700000      36.43000000
 O      10.01800000      18.46000000      36.59000000
 H      10.33400000      18.29300000      37.48500000
 H       9.13300000      18.16000000      36.66600000
 O      31.53400000      31.83000000      36.76700000
 H      31.62300000      31.92600000      35.79900000
 H      30.55700000      31.96300000      36.85900000
 O      26.09300000      30.54400000      35.92100000
 H      25.98600000      30.17100000      36.76900000
 H      25.34600000      31.16000000      35.88000000
 O      16.22700000      16.92900000      37.63000000
 H      16.90000000      17.49400000      37.12600000
 H      15.41400000      17.44100000      37.39600000
 O      14.64000000      14.65400000      37.52300000
 H      15.15700000      13.90200000      37.32400000
 H      15.21000000      15.44000000      37.54800000
 O      16.57000000      31.10800000      35.46400000
 H      17.52800000      30.93800000      35.57800000
 H      16.31600000      31.25800000      36.38700000
 O      19.18000000       7.75700000      40.26600000
 H      19.68800000       8.33500000      40.88600000
 H      19.67600000       7.87600000      39.47800000
 O      19.21500000      30.58000000      35.82700000
 H      19.26700000      31.53000000      35.54100000
 H      20.14000000      30.39200000      35.92000000
 O      13.46100000       2.19600000      36.69700000
 H      13.75600000       2.62600000      35.88900000
 H      12.67700000       2.74400000      36.93700000
 O      31.68900000      39.34400000      34.16800000
 H      31.89700000      38.41100000      33.95100000
 H      31.18500000      39.22300000      35.02000000
 O      11.95200000      29.46200000      39.21500000
 H      12.70300000      28.84200000      38.88500000
 H      12.13300000      29.35000000      40.19400000
 O       8.24000000      21.12100000      40.46900000
 H       7.39100000      21.62800000      40.38200000
 H       8.13000000      20.76000000      41.39000000
 O      30.14200000      20.15000000      37.23300000
 H      29.35000000      20.21300000      37.82300000
 H      29.95400000      19.25100000      36.84300000
 O      12.37800000       7.52300000      39.69400000
 H      13.01400000       7.51900000      38.98900000
 H      12.06100000       6.60800000      39.68900000
 O       9.82700000      29.25300000      37.05500000
 H      10.56100000      28.77500000      36.53300000
 H      10.31900000      29.41200000      37.85800000
 O      13.43200000      35.38600000      36.01600000
 H      14.11000000      36.07600000      36.19000000
 H      14.00200000      34.71000000      35.51500000
 O      15.03700000       6.59800000      35.08500000
 H      15.14100000       6.37800000      34.16600000
 H      14.13800000       7.04700000      35.05500000
 O      17.81000000      18.42000000      35.81200000
 H      17.69000000      18.82700000      34.93200000
 H      18.80700000      18.37100000      35.80500000
 O      16.64100000       3.30500000      37.26100000
 H      16.59600000       2.34500000      37.57500000
 H      15.77000000       3.33600000      36.88800000
 O      19.06800000      23.37400000      37.95500000
 H      18.75400000      23.22800000      37.05100000
 H      18.27900000      23.80100000      38.33900000
 O      35.88700000      28.73100000      38.53900000
 H      35.29700000      28.64700000      37.77100000
 H      35.41200000      29.52300000      38.99800000
 O      16.00700000       8.86500000      39.14400000
 H      16.75800000       8.92800000      38.47400000
 H      16.46900000       8.24400000      39.76100000
 O      22.49900000      26.89800000      35.54600000
 H      23.09900000      26.51100000      34.85700000
 H      22.76900000      26.40900000      36.31800000
 O      37.47500000       2.80400000      38.61700000
 H      37.82600000       3.67100000      38.62900000
 H      37.05300000       2.75600000      37.72400000
 O      37.06300000      15.94200000      34.02300000
 H      36.78500000      15.00800000      33.71400000
 H      36.61900000      15.88600000      34.90100000
 O      39.43000000      30.87600000      36.36000000
 H      38.66900000      30.52700000      36.87100000
 H      39.02400000      31.35100000      35.60900000
 O      34.78900000      30.63800000      40.24100000
 H      33.92200000      30.43700000      39.80500000
 H      34.63200000      30.32000000      41.11200000
 O      28.76300000      24.19100000      38.75500000
 H      28.80400000      23.56200000      37.93800000
 H      27.84300000      24.01500000      39.02300000
 O      25.72500000      19.22000000      36.81800000
 H      25.51200000      19.81900000      36.05400000
 H      24.98500000      19.54100000      37.38500000
 O      22.98100000      27.70000000      38.98000000
 H      22.36200000      28.38200000      38.74800000
 H      23.23700000      27.91500000      39.88900000
 O      11.69600000      33.96500000      37.38100000
 H      12.19700000      34.76900000      37.14500000
 H      12.41000000      33.31000000      37.24400000
 O      25.58500000      16.94800000      39.19600000
 H      25.89300000      16.21100000      39.79600000
 H      26.10700000      16.80200000      38.42900000
 O      36.12000000      33.57100000      39.92600000
 H      36.90700000      33.41300000      39.42100000
 H      35.71100000      32.69700000      39.94700000
 O      30.46000000      39.32600000      36.82000000
 H      30.11600000      39.65500000      37.66300000
 H      29.89500000      38.54300000      36.65000000
 O      14.21900000      17.30500000      35.21300000
 H      14.46000000      18.06300000      34.68100000
 H      14.10500000      17.71600000      36.09600000
 O      18.24800000      38.15300000      39.39000000
 H      17.49000000      38.63000000      39.76100000
 H      18.99300000      38.58600000      39.94500000
 O      32.57600000      39.21400000      40.06300000
 H      32.94600000      38.42000000      40.57600000
 H      33.37100000      39.84400000      40.18900000
 O      33.95300000       1.32700000      36.26600000
 H      34.10200000       1.06600000      35.32500000
 H      33.60700000       0.47000000      36.61500000
 O      31.66100000      28.19100000      38.04100000
 H      31.86700000      29.09800000      38.44800000
 H      30.68900000      28.20500000      38.21600000
 O      17.71700000       8.27100000      37.28300000
 H      17.85300000       7.35400000      36.92100000
 H      17.57400000       8.73000000      36.39700000
 O      24.62000000      38.14900000      38.62500000
 H      24.23200000      38.90800000      38.97500000
 H      25.38000000      38.53100000      38.21500000
 O      28.98300000      28.29900000      38.39400000
 H      28.30000000      29.05500000      38.35800000
 H      28.64500000      27.87000000      39.18200000
 O       9.28800000       6.97900000      38.21100000
 H       9.02500000       7.70100000      37.65500000
 H      10.28400000       7.17300000      38.21600000
 O      32.91500000       3.56400000      37.55100000
 H      33.11100000       2.75600000      37.03300000
 H      33.84200000       3.92100000      37.69200000
 O      23.12800000      17.66500000      38.02300000
 H      24.05000000      17.40000000      38.30600000
 H      23.23400000      18.63500000      38.03300000
 O      21.21900000      24.03100000      39.39500000
 H      20.42200000      23.75700000      38.83000000
 H      20.68600000      24.63600000      39.99000000
 O      38.33400000      40.25700000      38.47800000
 H      37.87600000      39.92100000      39.26600000
 H      37.80500000      41.09400000      38.40600000
 O       8.09900000      35.64700000      37.07500000
 H       7.12400000      35.75900000      36.97100000
 H       8.43200000      36.52900000      36.76100000
 O      34.85500000      11.09100000      36.64800000
 H      35.72900000      10.59500000      36.55000000
 H      34.23600000      10.41500000      36.26000000
 O      23.56900000      22.84700000      40.00400000
 H      22.78600000      23.21700000      39.61100000
 H      23.19700000      22.49200000      40.83500000
 O      28.75300000      10.85900000      34.43400000
 H      29.33500000      10.55400000      33.74800000
 H      29.34400000      11.05300000      35.18800000
 O      11.10800000      11.60000000      38.62600000
 H      11.10000000      12.07300000      37.81900000
 H      12.06900000      11.59700000      38.76800000
 O      39.35500000      31.36500000      39.21400000
 H      39.27800000      31.57600000      40.14800000
 H      40.28100000      31.00500000      39.20700000
 O      22.86100000      10.18400000      40.11300000
 H      22.90600000      11.04000000      39.71900000
 H      23.74500000       9.93100000      40.27000000
 O      35.71900000      37.71000000      38.70300000
 H      35.19400000      38.43300000      38.40200000
 H      35.10300000      36.98000000      38.67100000
 O      14.57000000      33.27400000      38.23400000
 H      15.49700000      32.87700000      38.10000000
 H      13.99600000      32.53700000      37.95300000
 O      20.13900000      37.12100000      36.96800000
 H      20.13100000      37.98100000      37.44900000
 H      19.33600000      37.29100000      36.41800000
 O       9.78000000      25.30700000      38.98100000
 H      10.00000000      24.75500000      38.14900000
 H       9.96600000      24.61600000      39.67700000
 O      35.70600000      19.10100000      36.16500000
 H      34.89600000      19.26100000      36.71600000
 H      35.38100000      19.34200000      35.29900000
 O      27.68400000       5.21900000      38.43300000
 H      27.29500000       6.11100000      38.53400000
 H      27.55300000       4.93700000      37.52100000
 O      32.87600000      15.83000000      35.03900000
 H      32.28900000      15.71400000      35.74500000
 H      33.48400000      15.01900000      35.20300000
 O      13.25200000      14.61200000      34.19600000
 H      12.53100000      14.94700000      33.64800000
 H      13.60600000      15.33700000      34.66700000
 O      16.75900000      12.46800000      36.95100000
 H      16.34400000      11.58300000      37.01100000
 H      17.43000000      12.40600000      36.29200000
 O      40.55600000      26.72900000      34.56700000
 H      40.76000000      27.49800000      35.04500000
 H      41.02300000      26.88300000      33.72100000
 O      35.76200000       6.50800000      38.18900000
 H      35.32500000       6.36100000      37.32200000
 H      35.50500000       5.66300000      38.61800000
 O      23.59600000      20.40200000      38.25200000
 H      23.20500000      21.21700000      37.91600000
 H      23.86600000      20.68100000      39.14700000
 O      39.19800000      36.58700000      40.36800000
 H      39.58000000      37.34300000      40.88200000
 H      38.25800000      36.97800000      40.38900000
 O      40.69200000      40.26200000      35.23600000
 H      41.30200000      39.47000000      35.07600000
 H      40.01200000      40.08500000      34.54300000
 O      36.39000000      23.94700000      38.41900000
 H      36.36100000      24.89600000      38.66800000
 H      35.45700000      23.72900000      38.58200000
 O      15.18700000      29.64200000      40.04500000
 H      15.02100000      28.98200000      39.34300000
 H      16.02000000      29.27000000      40.38800000
 O      33.38100000      19.39700000      37.68300000
 H      32.75900000      19.86100000      37.19600000
 H      33.11200000      18.57900000      38.01300000
 O      40.49900000       4.70600000      36.54600000
 H      40.13000000       4.86900000      37.45100000
 H      40.57500000       3.74700000      36.58300000
 O      36.62400000      30.33700000      35.11900000
 H      36.20000000      29.48200000      35.37400000
 H      37.27200000      30.07700000      34.42700000
 O      28.91700000      32.04800000      36.07800000
 H      28.06600000      31.52400000      36.05500000
 H      29.05100000      32.04400000      35.08200000
 O      33.32200000      25.98000000      37.72700000
 H      33.67300000      26.56900000      37.02200000
 H      32.68200000      26.57500000      38.17300000
 O      13.02300000      31.30700000      37.29700000
 H      13.40100000      30.70600000      36.68400000
 H      12.50900000      30.75100000      37.88700000
 O      36.60500000       2.50200000      36.09600000
 H      37.04400000       2.03000000      35.35400000
 H      35.71800000       2.07600000      36.08700000
 O      34.98300000      40.66800000      40.23200000
 H      35.75600000      40.56500000      40.88100000
 H      35.17100000      41.53300000      39.84400000
 O      13.07900000      21.33100000      37.42200000
 H      12.18000000      21.38300000      37.91300000
 H      13.18900000      22.35500000      37.35200000
 O      22.64300000       5.37700000      35.14000000
 H      23.33500000       5.61500000      35.85800000
 H      23.02300000       5.87600000      34.40700000
 O       7.29600000       6.03700000      39.60100000
 H       7.52700000       5.13500000      39.84900000
 H       8.12000000       6.37900000      39.10200000
 O      15.35900000      33.56700000      34.72700000
 H      15.07000000      33.28900000      33.83200000
 H      15.84300000      32.71600000      34.99300000
 O      27.14500000      39.32300000      37.36700000
 H      27.53200000      39.20500000      36.46200000
 H      27.95400000      39.33100000      37.89100000
 O      30.23500000      21.98600000      40.39100000
 H      31.00300000      21.67500000      39.94200000
 H      29.87000000      22.63500000      39.77100000
 O      38.77700000      27.08000000      40.81800000
 H      38.46700000      27.93400000      41.17900000
 H      39.75700000      27.20100000      40.68700000
 O      30.79100000      10.87500000      36.40700000
 H      30.59900000      10.72000000      37.38200000
 H      31.56500000      10.30100000      36.33200000
 O      21.93100000      37.89800000      39.69500000
 H      21.59000000      38.63200000      39.13600000
 H      22.68000000      37.70300000      39.12900000
 O      12.06500000      28.00500000      36.22900000
 H      12.88700000      28.52400000      35.97500000
 H      12.51800000      27.39800000      36.86400000
 O      18.75100000      23.79400000      35.20200000
 H      18.71600000      23.54200000      34.24900000
 H      19.06700000      24.70100000      35.11400000
 O      36.11400000      16.41000000      36.48400000
 H      35.36800000      16.10200000      37.08700000
 H      35.94500000      17.33500000      36.45000000
 O      31.85000000       6.55400000      35.62100000
 H      31.93400000       6.46000000      34.63300000
 H      31.12400000       5.91900000      35.76700000
 O      29.69000000      17.89000000      35.83800000
 H      30.16600000      17.04900000      35.90300000
 H      28.99300000      17.64200000      35.19500000
 O       9.29400000      33.29200000      36.20900000
 H       8.76000000      34.04900000      36.53700000
 H      10.18000000      33.57300000      36.54400000
 O      12.24500000       4.72400000      40.00400000
 H      13.01200000       4.23900000      40.37100000
 H      11.52700000       4.10400000      40.26200000
 O      38.75400000      27.76000000      37.94200000
 H      39.03700000      27.28100000      38.76900000
 H      37.84100000      27.99900000      38.12900000
 O      30.74600000      25.72800000      39.51700000
 H      30.88800000      26.41900000      38.87700000
 H      30.08200000      25.15500000      39.04300000
 O      11.31300000      20.14500000      35.05000000
 H      10.81300000      20.95500000      35.19000000
 H      10.93500000      19.55500000      35.69400000
 O       8.11800000      37.96400000      36.00500000
 H       8.91900000      38.51100000      36.17900000
 H       7.45200000      38.67100000      35.88500000
 O      19.23300000      33.29200000      35.41600000
 H      18.73900000      33.66200000      34.59000000
 H      19.89000000      34.03300000      35.44600000
 O       8.40200000      14.13100000      39.27500000
 H       8.10200000      14.96900000      38.93400000
 H       8.89800000      13.78600000      38.46400000
 O      14.23900000      29.26300000      35.28100000
 H      14.24500000      28.85900000      34.43000000
 H      15.11100000      29.74300000      35.26900000
 O      13.93300000      35.67400000      39.04700000
 H      13.92200000      34.71600000      38.88400000
 H      14.72100000      35.91300000      38.46600000
 O      38.24500000      23.45700000      36.28900000
 H      37.53100000      23.42100000      35.65400000
 H      37.69900000      23.68000000      37.09600000
 O      15.77300000       5.05200000      39.69900000
 H      15.34500000       5.64300000      39.10400000
 H      16.29300000       4.51200000      39.11000000
 O       7.30400000       1.61500000      40.65300000
 H       7.78300000       1.51100000      41.50900000
 H       7.17300000       0.70800000      40.41100000
 O      19.13900000       3.79300000      34.53700000
 H      19.20900000       3.86300000      35.50300000
 H      18.94900000       4.69400000      34.27400000
 O      36.85500000      20.14700000      38.59600000
 H      36.52200000      19.87300000      37.69800000
 H      36.27400000      19.76900000      39.19900000
 O      22.95900000      12.79700000      38.91200000
 H      22.86100000      13.72400000      38.97800000
 H      22.21800000      12.55500000      38.38400000
 O       8.77700000       2.05300000      38.34300000
 H       7.95000000       2.34000000      37.90100000
 H       8.46300000       1.76300000      39.22200000
 O      15.44200000      37.09000000      37.25100000
 H      16.12400000      36.93900000      36.49400000
 H      15.25000000      38.03600000      37.09100000
 O      37.27500000      34.82100000      36.18700000
 H      36.54900000      34.11200000      36.03100000
 H      37.72700000      34.41600000      36.94800000
 O      33.71100000      23.68000000      39.04000000
 H      33.60900000      24.52300000      38.55000000
 H      32.87000000      23.25000000      38.68700000
 O      23.04800000       3.21700000      37.40900000
 H      22.53500000       3.98000000      37.64000000
 H      23.75900000       3.19800000      38.09500000
 O      25.33500000      12.76900000      37.43900000
 H      24.52100000      12.54900000      36.93600000
 H      24.93900000      12.69500000      38.35600000
 O      11.97100000      15.55000000      38.06800000
 H      12.06300000      16.49100000      37.96300000
 H      12.83200000      15.15700000      37.86300000
 O      27.50900000      30.11300000      39.69300000
 H      27.19000000      31.00100000      39.94000000
 H      26.65900000      29.62200000      39.63600000
 O      28.64600000      22.87500000      36.52000000
 H      29.01100000      22.16200000      35.91400000
 H      28.68900000      23.61600000      35.91800000
 O      38.10300000      36.92500000      37.52800000
 H      37.34000000      37.20900000      38.11700000
 H      37.70700000      36.20200000      36.99100000
 O      20.40400000      14.87500000      40.77500000
 H      21.11100000      15.15500000      41.31600000
 H      20.73400000      15.05500000      39.89100000
 O      11.08300000       3.64100000      36.89100000
 H      10.49900000       3.13000000      37.45600000
 H      11.12900000       3.00700000      36.13200000
 O      10.45600000      20.66300000      38.91000000
 H      10.56600000      19.65200000      38.84300000
 H       9.65600000      20.68200000      39.51000000
 O      20.65000000      18.45600000      36.08800000
 H      21.10500000      18.43200000      36.93800000
 H      20.99600000      19.34200000      35.80000000
 O      38.60700000      14.58600000      38.72900000
 H      39.60300000      14.85200000      38.76800000
 H      38.43300000      14.60200000      39.70600000
 O      16.30000000      22.23600000      36.54400000
 H      15.44200000      22.32500000      36.02500000
 H      16.85600000      22.85700000      36.05200000
 O      32.26200000      35.71300000      36.45500000
 H      31.30400000      35.89800000      36.63400000
 H      32.63000000      35.86500000      37.34000000
 O       9.75800000      39.03000000      39.70200000
 H       9.85900000      38.90800000      40.67100000
 H      10.45400000      38.45000000      39.38100000
 O      34.12300000      35.15400000      39.17300000
 H      33.80400000      35.30000000      40.06100000
 H      34.71400000      34.36900000      39.30200000
 O      21.27300000      34.84200000      35.66000000
 H      21.08300000      35.49900000      36.37300000
 H      21.53500000      35.47200000      35.01600000
 O      16.72500000      19.99600000      37.79000000
 H      16.44700000      20.85200000      37.35200000
 H      17.09000000      19.50000000      36.98000000
 O      24.67700000       6.39700000      36.53200000
 H      24.84200000       6.75400000      37.42700000
 H      25.51800000       5.88900000      36.36900000
 O      26.57900000      28.56500000      34.08000000
 H      27.32600000      28.17000000      34.58400000
 H      26.37700000      29.29100000      34.70400000
 O      40.20100000      37.37800000      33.88800000
 H      40.38000000      36.95400000      34.75900000
 H      39.19500000      37.50600000      33.96600000
 O      13.43100000      18.51000000      37.73100000
 H      13.04400000      19.34300000      37.43300000
 H      13.97100000      18.77600000      38.50300000
 O       7.91700000      16.50600000      36.42500000
 H       7.25700000      17.10700000      36.00400000
 H       8.44900000      16.20100000      35.71400000
 O      10.69000000      11.24500000      35.38300000
 H      11.54500000      11.67100000      35.53200000
 H      10.29400000      11.98000000      34.82400000
 O      23.26200000      32.90800000      35.52600000
 H      22.56900000      33.54800000      35.82100000
 H      22.69500000      32.15500000      35.30500000
 O      13.19200000      25.38500000      40.03700000
 H      12.64000000      24.60200000      40.18000000
 H      13.46200000      25.55400000      40.98100000
 O      34.36100000      14.95700000      38.03300000
 H      34.48800000      14.64100000      39.00600000
 H      34.63100000      14.05500000      37.61000000
 O      18.63000000      33.16700000      38.13000000
 H      18.94700000      33.27000000      37.20200000
 H      18.38700000      34.10000000      38.28300000
 O      30.72700000       2.35800000      39.05900000
 H      30.36700000       3.22100000      39.13600000
 H      31.60600000       2.56500000      38.57900000
 O      23.98500000      37.16600000      36.01900000
 H      24.02800000      37.55300000      36.90100000
 H      24.40400000      37.92200000      35.51000000
 O      14.94400000      38.68800000      39.92900000
 H      14.84900000      37.72000000      39.71700000
 H      14.35200000      39.05500000      39.23800000
 O      16.55700000      31.59400000      38.07300000
 H      17.32900000      32.18100000      38.35500000
 H      16.56600000      30.97600000      38.80500000
 O      10.42500000      17.96700000      39.43700000
 H      10.13000000      17.21100000      39.98800000
 H      11.04900000      18.35900000      40.13000000
 O      16.96400000      15.62900000      39.98000000
 H      17.30800000      16.31600000      40.54600000
 H      16.80500000      16.16900000      39.11100000
 O      30.91400000      25.88200000      36.12500000
 H      30.85000000      24.98600000      35.72100000
 H      31.59000000      25.74600000      36.79400000
 O      21.86000000       5.61100000      38.35500000
 H      21.66800000       6.52600000      38.15700000
 H      21.92400000       5.57000000      39.32900000
 O      40.35000000      35.85200000      36.35600000
 H      39.48900000      36.14800000      36.74100000
 H      40.61100000      35.18400000      36.92100000
 O      31.43400000       6.93500000      38.64000000
 H      31.27400000       6.93300000      37.70100000
 H      32.16700000       6.34100000      38.72400000
 O      10.83700000      32.70400000      39.72200000
 H      11.26500000      33.07600000      38.88800000
 H       9.97900000      33.19500000      39.56800000
 O      17.15500000       9.69300000      34.72800000
 H      16.32300000       9.90300000      35.16900000
 H      16.96600000      10.12500000      33.87300000
 O      40.31400000      38.62700000      38.09000000
 H      39.75800000      37.92500000      37.62600000
 H      39.65600000      39.38800000      38.05400000
 O      21.62700000      34.73700000      39.66400000
 H      21.18300000      35.58600000      39.57500000
 H      22.53600000      34.99400000      39.45300000
 O      17.68600000      28.76900000      39.62700000
 H      17.85100000      28.61800000      38.66000000
 H      18.55300000      28.48600000      39.98700000
 O       8.88000000       9.18200000      35.44200000
 H       9.59000000       9.78000000      35.12900000
 H       8.89500000       9.56600000      36.39500000
 O      20.54200000      32.25200000      39.44900000
 H      19.86400000      32.67700000      38.79400000
 H      21.17700000      33.03000000      39.47400000
 O      16.45800000      33.66600000      40.59900000
 H      16.71500000      34.20700000      41.38500000
 H      16.62200000      34.25800000      39.88300000
 O      32.43300000      30.68300000      38.95500000
 H      32.33200000      31.09200000      38.09200000
 H      31.72600000      31.12600000      39.44100000
 O      30.48500000       4.32500000      36.10600000
 H      31.00400000       3.74800000      36.73600000
 H      30.58600000       3.69600000      35.34100000
 O      28.44800000      24.99400000      34.50700000
 H      28.81600000      25.31000000      33.63700000
 H      28.55800000      25.90300000      35.02100000
 O      35.38000000      18.54500000      40.28500000
 H      34.97000000      19.08100000      41.01100000
 H      34.90000000      17.66100000      40.45600000
 O       8.69800000       5.33300000      35.65100000
 H       9.41700000       5.65700000      36.16700000
 H       9.09400000       4.89500000      34.90100000
 O      40.67100000       1.94500000      37.40100000
 H      40.00700000       1.41000000      37.89700000
 H      40.66000000       1.48500000      36.52900000
 O      17.91800000       5.56300000      36.76600000
 H      17.35900000       4.80000000      37.10200000
 H      18.73200000       5.37800000      37.24400000
 O      37.17200000       9.35100000      36.12800000
 H      37.97200000       8.88200000      35.69900000
 H      37.30500000       8.98900000      37.00100000
 O      14.74500000      10.15400000      35.72800000
 H      14.16600000       9.38400000      35.41700000
 H      14.07600000      10.87500000      35.82400000
 O      29.23400000      40.29600000      39.00100000
 H      28.58100000      40.57200000      39.70500000
 H      29.78200000      41.12900000      38.95800000
 O      38.55100000      33.74300000      38.28600000
 H      39.31300000      34.31900000      38.41700000
 H      38.94600000      32.86500000      38.57400000
 O      29.66300000      34.83500000      39.31400000
 H      29.24800000      35.69600000      39.54600000
 H      29.13300000      34.64000000      38.53500000
 O      11.47400000      37.06400000      38.62400000
 H      11.88600000      37.34000000      37.75100000
 H      12.30700000      36.59600000      38.93100000
 O      26.52000000       7.58200000      38.60800000
 H      26.65900000       8.23900000      37.89700000
 H      26.80100000       8.11900000      39.36600000
 O       8.33000000      10.38900000      37.76700000
 H       9.02100000      11.05900000      37.96300000
 H       7.84100000      10.34600000      38.63100000
 O      37.55100000      11.19800000      38.62700000
 H      38.39500000      10.98500000      38.08700000
 H      37.82300000      10.84100000      39.48500000
 O      31.33400000      22.54200000      37.85100000
 H      30.97100000      21.63600000      37.66000000
 H      31.37700000      22.90100000      36.93500000
 O      25.48600000      20.94900000      34.71100000
 H      26.25500000      20.80100000      34.12100000
 H      25.42400000      21.90600000      34.69100000
 O       9.98500000      13.96800000      36.79600000
 H      10.59900000      14.55300000      37.20200000
 H       9.73100000      14.45200000      36.00100000
 O      20.58600000      16.26800000      34.10900000
 H      20.23600000      15.84400000      34.91300000
 H      20.70400000      17.19000000      34.34300000
 O       6.86600000      36.25900000      34.04300000
 H       7.03800000      36.60300000      33.15200000
 H       7.35100000      36.79000000      34.64800000
 O      35.20100000       8.29500000      40.05700000
 H      35.49800000       7.76600000      39.26700000
 H      34.78300000       9.06200000      39.58200000
 O      18.42700000      21.01100000      39.45800000
 H      18.71700000      21.73700000      38.90600000
 H      17.75100000      20.56500000      38.94500000
 O      25.10500000       3.35000000      39.14300000
 H      24.93900000       3.95100000      39.96500000
 H      25.86700000       3.79000000      38.76400000
 O      30.99500000      32.25600000      40.70700000
 H      30.13500000      32.13300000      41.15500000
 H      30.73400000      33.10200000      40.16700000
 O      11.02800000       2.09300000      34.71700000
 H      10.48600000       1.45300000      34.20500000
 H      11.91400000       1.68500000      34.60200000
 O       6.98600000       2.95000000      36.32000000
 H       7.14900000       2.18800000      35.76200000
 H       7.63800000       3.57300000      35.95200000
 O      39.46600000      19.60100000      35.15600000
 H      38.51000000      19.76300000      34.89900000
 H      39.34700000      18.92800000      35.85200000
 O      33.00600000      38.92200000      37.16300000
 H      32.05700000      38.91700000      37.00500000
 H      32.97800000      39.02800000      38.15500000
 O      14.22200000      23.43000000      34.95200000
 H      14.62300000      24.30100000      34.77300000
 H      13.47600000      23.70800000      35.55400000
 O      20.01800000      28.00200000      40.46000000
 H      20.06200000      27.02700000      40.67400000
 H      20.22400000      28.32600000      41.36800000
 O      14.83500000      19.83300000      39.81100000
 H      15.50500000      19.72000000      39.08300000
 H      15.09800000      20.65800000      40.22300000
 O      27.20400000       4.96200000      35.56600000
 H      28.02200000       5.31500000      35.20900000
 H      27.02700000       4.22600000      34.94300000
 O      20.19300000       3.73000000      37.24700000
 H      19.94900000       3.32500000      38.09100000
 H      20.83800000       4.42100000      37.60900000
 O      12.85000000      24.07400000      37.30000000
 H      11.90900000      24.27300000      37.09600000
 H      12.98400000      24.55200000      38.11500000
 O      22.07300000       2.71700000      35.04400000
 H      22.42600000       2.57600000      35.99400000
 H      22.07700000       3.70800000      35.12900000
 O       7.66400000      26.80600000      39.27600000
 H       8.46600000      26.25400000      39.26800000
 H       7.86400000      27.56200000      39.85100000
 O       7.89900000      30.97500000      36.47900000
 H       8.46600000      31.77800000      36.34900000
 H       8.62700000      30.43000000      36.86900000
 O      39.59400000      24.09300000      33.83700000
 H      39.36200000      23.94800000      34.81500000
 H      39.93800000      25.00200000      33.89600000
 O      38.61500000      17.83400000      37.91000000
 H      38.21600000      16.97000000      37.71400000
 H      37.92800000      18.23900000      38.47700000
 O      17.61100000      35.71400000      38.70200000
 H      17.18300000      36.20400000      37.96500000
 H      17.98000000      36.52900000      39.18700000
 O      34.18900000      28.52800000      36.42700000
 H      33.30300000      28.36900000      36.80400000
 H      34.02000000      28.90000000      35.55600000
 O      28.30600000      12.77200000      36.92700000
 H      27.44100000      13.01200000      37.28300000
 H      28.27400000      13.22600000      36.01700000
 O      35.40000000       3.83200000      33.94800000
 H      36.21500000       3.95700000      33.36500000
 H      35.84400000       3.47000000      34.70800000
 O       9.25000000      22.33700000      34.96400000
 H       9.11800000      22.38000000      34.00000000
 H       8.31600000      22.20900000      35.29200000
 O      34.83100000       4.34300000      39.62900000
 H      35.37400000       4.14700000      40.40500000
 H      33.95800000       4.47600000      40.12100000
 O      20.81900000      39.89900000      38.23100000
 H      20.90900000      40.74200000      38.65100000
 H      20.79800000      40.07800000      37.28000000
 O      13.88500000      27.49500000      38.40600000
 H      13.53700000      26.82500000      39.06200000
 H      14.46500000      26.80400000      37.91800000
 O      12.21600000      38.66500000      36.49300000
 H      11.28300000      39.01800000      36.63400000
 H      12.30900000      38.88400000      35.55400000
 O       9.66300000      39.73800000      37.13800000
 H       9.11800000      40.49600000      37.13800000
 H       9.79600000      39.54100000      38.09900000
 O      31.30400000      23.39300000      35.25600000
 H      32.02000000      23.42800000      34.63400000
 H      30.62700000      22.78500000      34.81600000
 O      30.85500000       2.20600000      34.56000000
 H      30.16000000       1.70600000      34.92600000
 H      31.58100000       1.54400000      34.43000000
 O      10.18300000      23.15700000      40.67900000
 H      11.00900000      22.64800000      40.88500000
 H       9.60600000      22.37900000      40.43500000
 O      36.38200000      26.38900000      39.71300000
 H      36.11800000      27.12200000      39.15700000
 H      37.10000000      26.69500000      40.20600000
 O      25.52900000      28.64300000      37.80300000
 H      24.58400000      28.52100000      38.16200000
 H      25.81200000      27.68400000      37.80900000
 O      18.85500000       2.35300000      39.31400000
 H      18.43800000       2.19900000      40.17900000
 H      18.33700000       1.76100000      38.72600000
 O      19.69200000      26.49400000      34.79100000
 H      20.07800000      26.49800000      33.89200000
 H      20.54800000      26.38200000      35.34200000
 O      18.27400000       6.72300000      34.18900000
 H      17.94800000       6.09500000      34.88900000
 H      17.80400000       7.55500000      34.50900000
 O      31.72400000      12.28500000      34.35200000
 H      32.54200000      11.80100000      33.96900000
 H      31.60300000      11.77400000      35.18600000
 O      18.00900000      28.16600000      36.49500000
 H      18.26700000      29.07200000      36.22000000
 H      18.65000000      27.57800000      35.99700000
 O      34.90600000      13.53000000      35.29500000
 H      35.58600000      13.65500000      36.05900000
 H      34.72000000      12.58200000      35.46100000
 O      25.18200000      34.78300000      36.21900000
 H      24.80000000      35.68600000      36.11300000
 H      24.49900000      34.24700000      35.85100000
 O      26.79000000      26.13900000      38.02300000
 H      26.55800000      25.43800000      38.66400000
 H      27.68500000      25.86900000      37.89800000
 O      22.43300000       8.46900000      35.94600000
 H      23.08600000       7.77000000      35.95600000
 H      22.02800000       8.29900000      35.05300000
 O      37.82600000      26.77900000      35.54500000
 H      38.00300000      27.26600000      36.38400000
 H      38.75400000      26.56200000      35.32800000
 O      30.18700000      15.22100000      36.41300000
 H      29.47600000      14.94500000      37.02300000
 H      30.10600000      14.53000000      35.71600000
 O      10.28400000      30.47800000      34.23500000
 H      10.44800000      31.02300000      34.99000000
 H       9.34200000      30.30500000      34.12300000
 O      15.92700000      26.59400000      36.97800000
 H      16.80600000      27.05400000      36.94400000
 H      15.76700000      26.42900000      36.03700000
 O      29.40300000      12.68400000      39.52500000
 H      29.01500000      12.77400000      38.62200000
 H      29.97300000      11.90800000      39.45500000
 O      29.36000000      15.97900000      39.00500000
 H      30.21600000      16.14100000      38.59400000
 H      29.63300000      15.33200000      39.70100000
 O      22.33800000      11.49600000      36.22100000
 H      22.72400000      11.53400000      35.29700000
 H      22.19800000      10.51400000      36.27000000
 O      17.10500000      24.92600000      38.86600000
 H      16.62500000      25.34000000      38.13000000
 H      16.43200000      25.25000000      39.57900000
 O      21.97700000      29.45300000      35.86300000
 H      21.91700000      29.53300000      36.83600000
 H      22.27300000      28.51800000      35.77800000
 O      28.30100000      38.94100000      34.87200000
 H      27.42500000      38.52000000      34.68400000
 H      28.54400000      39.35700000      34.04100000
 O       6.78600000      39.00500000      39.68400000
 H       6.99100000      38.41300000      40.46700000
 H       7.62800000      38.95800000      39.21500000
 O      27.74700000      20.72900000      38.23100000
 H      27.08500000      20.28700000      37.66700000
 H      27.96500000      21.55700000      37.77000000
 O      11.77600000       6.48200000      36.82600000
 H      12.72200000       6.34600000      36.94600000
 H      11.42300000       5.58100000      37.00000000
 O      10.16800000      24.33300000      36.60300000
 H       9.73700000      25.02300000      36.05200000
 H      10.04300000      23.55200000      35.97900000
 O      28.23500000      37.04300000      40.12600000
 H      28.47100000      37.53200000      40.96100000
 H      27.63800000      37.65400000      39.69600000
 O      35.13300000      37.48000000      35.19600000
 H      34.49000000      36.93800000      34.76000000
 H      34.62000000      37.55900000      36.03700000
 O      19.62800000      14.98900000      36.57000000
 H      19.56000000      14.04400000      36.59300000
 H      18.80900000      15.38000000      36.86300000
 O      13.25700000      12.38400000      35.72700000
 H      13.81700000      12.72500000      36.45200000
 H      13.70400000      12.95200000      35.00400000
 O       6.20500000       6.50400000      36.27600000
 H       7.09400000       6.13200000      36.34200000
 H       6.08700000       6.82800000      37.18900000
 O      35.78000000      32.75300000      35.53300000
 H      36.17900000      31.88500000      35.69500000
 H      35.11300000      32.55300000      34.90300000
 O      21.59200000      15.48100000      38.45900000
 H      21.07300000      15.49300000      37.65000000
 H      22.17300000      16.27200000      38.26200000
 O      34.79800000       5.78600000      35.86300000
 H      34.54600000       5.17000000      35.16300000
 H      33.94400000       6.29600000      35.97700000
 O      22.21000000      22.77000000      37.37600000
 H      21.89300000      23.10200000      38.21400000
 H      22.70000000      23.63900000      37.11000000
 O      34.23800000      11.31600000      39.38900000
 H      34.74300000      11.29300000      38.57900000
 H      34.65000000      12.14800000      39.78500000
 O      14.72300000       6.88500000      37.80100000
 H      15.19700000       7.65100000      38.14500000
 H      15.02700000       6.90100000      36.85200000
 O      36.76100000      13.43000000      37.29100000
 H      37.07700000      12.62200000      37.76600000
 H      37.40900000      14.08400000      37.59900000
 O      25.11000000      16.83500000      35.56000000
 H      24.50500000      17.27700000      35.05400000
 H      25.46000000      17.49400000      36.17500000
 O      12.75300000       8.08100000      34.69700000
 H      12.29700000       8.51500000      33.96300000
 H      12.04500000       7.83400000      35.29700000
 O      22.07700000      20.63200000      35.35800000
 H      21.94000000      21.31100000      36.03100000
 H      21.53100000      21.02100000      34.64100000
 O      39.29800000      21.17000000      37.92500000
 H      38.45700000      20.65600000      38.13400000
 H      38.97200000      21.63200000      37.09800000
 O      16.30000000      36.11100000      34.82000000
 H      16.35000000      35.22800000      35.07400000
 H      16.19800000      36.07000000      33.84100000
 O      24.59000000       0.82300000      39.45700000
 H      24.65300000       1.77300000      39.13800000
 H      25.46800000       0.79700000      39.96400000
 O      39.80000000      10.77000000      37.31900000
 H      40.65900000      10.35500000      37.41800000
 H      39.76900000      10.83000000      36.31300000
 O      29.88900000       5.09100000      40.10400000
 H      29.01200000       5.20200000      39.60100000
 H      30.41700000       5.78300000      39.65600000
 O       8.65400000      25.92600000      34.94300000
 H       8.03400000      25.42700000      34.37300000
 H       7.96300000      26.56200000      35.30500000
 O      25.96700000      24.25100000      39.99800000
 H      25.87200000      24.35800000      40.96500000
 H      25.20100000      23.70400000      39.79900000
 O      40.16200000      23.87800000      39.45800000
 H      39.76500000      23.09100000      39.02300000
 H      39.45700000      24.15400000      40.05800000
 O      19.36400000      12.24700000      35.60100000
 H      19.96200000      11.48300000      35.68400000
 H      19.41100000      12.53700000      34.67600000
 O      23.64700000      25.25600000      37.37800000
 H      23.22100000      25.70700000      38.15900000
 H      24.56300000      25.62600000      37.40800000
 O       8.30000000      34.17500000      39.58000000
 H       7.61000000      33.47300000      39.47100000
 H       8.20900000      34.56600000      38.66100000
 O      35.07400000      13.93200000      40.47900000
 H      36.02300000      14.19900000      40.78000000
 H      34.55100000      14.24900000      41.21700000
 O      14.73200000      39.83700000      37.15100000
 H      14.56900000      40.70300000      36.72100000
 H      13.85200000      39.39900000      36.86500000
 O      32.85400000       8.92400000      35.33600000
 H      32.43600000       8.06800000      35.39800000
 H      32.88400000       9.03400000      34.36800000
 O      31.77200000      33.58700000      34.47000000
 H      32.47600000      32.94700000      34.12300000
 H      32.26100000      33.92200000      35.26800000
 O      14.02300000      10.85000000      39.32200000
 H      14.07900000      10.69400000      40.32000000
 H      14.87600000      10.30900000      39.06500000
 O      38.00200000       6.24200000      35.45700000
 H      37.24800000       5.65600000      35.47700000
 H      38.75300000       5.68600000      35.67500000
 O      11.51100000      26.49600000      34.18700000
 H      11.68200000      27.28700000      34.77600000
 H      10.75700000      26.12900000      34.69400000
 O      24.67000000      35.42400000      39.92600000
 H      25.54000000      35.07000000      40.19600000
 H      24.89000000      36.31900000      39.57500000
 O      10.72600000       9.71800000      40.37200000
 H      10.77400000      10.41000000      39.67700000
 H      11.30300000       9.10500000      39.91800000
 O      21.47400000      29.83100000      38.61200000
 H      20.80900000      29.35100000      39.15500000
 H      21.31000000      30.72600000      38.88800000
 O      19.98200000      40.59400000      35.62900000
 H      19.09400000      40.79500000      35.25500000
 H      20.26300000      41.56000000      35.80400000
 O      17.18800000      40.57400000      37.90600000
 H      16.33600000      40.19100000      37.61100000
 H      17.65700000      39.77500000      38.19600000
 O      23.67100000       3.93300000      47.19600000
 H      22.97500000       3.26200000      47.46000000
 H      23.69300000       4.34900000      48.14000000
 O      14.82300000      31.91500000      46.05300000
 H      15.15000000      32.78400000      46.23000000
 H      14.55300000      31.98500000      45.13300000
 O      19.44200000      13.66400000      45.99700000
 H      18.87500000      13.50700000      46.78000000
 H      20.27800000      13.19600000      46.37700000
 O      31.50100000      35.89600000      47.33700000
 H      31.22800000      35.43900000      46.48300000
 H      30.67700000      35.85800000      47.82500000
 O      39.14400000      11.43500000      46.89800000
 H      40.03500000      11.14900000      46.58100000
 H      39.38300000      12.04200000      47.61400000
 O      39.28600000      23.54500000      46.14300000
 H      38.49600000      23.27600000      45.65500000
 H      39.20200000      24.52100000      46.10700000
 O      12.24500000      31.28900000      46.34600000
 H      13.20400000      31.34700000      46.37700000
 H      12.03900000      31.88600000      45.56900000
 O      11.66100000      15.28800000      42.57500000
 H      11.72100000      15.31300000      41.56500000
 H      12.59300000      14.97200000      42.72800000
 O      25.97900000      24.09700000      44.35800000
 H      25.65400000      24.73500000      45.00400000
 H      26.94400000      24.15500000      44.44700000
 O      40.15000000       1.19500000      43.99700000
 H      40.48400000       0.47500000      43.41200000
 H      39.33000000       0.80300000      44.31700000
 O      33.52800000      34.18900000      45.92600000
 H      32.57200000      34.51300000      45.86100000
 H      33.58900000      33.83700000      44.97600000
 O      19.53700000       3.24900000      46.46800000
 H      19.71100000       2.95800000      45.55400000
 H      18.76300000       2.62400000      46.69100000
 O      32.28700000      38.78600000      46.69500000
 H      32.72700000      38.95700000      47.58900000
 H      31.92700000      37.87700000      46.88400000
 O      12.35000000      11.38500000      43.78100000
 H      11.48200000      11.27700000      43.41800000
 H      12.84500000      10.55500000      43.52800000
 O      15.08900000      26.01600000      47.24600000
 H      14.38100000      26.66500000      47.48500000
 H      15.62800000      26.10400000      48.07000000
 O      28.53500000      27.45700000      49.18900000
 H      28.92600000      27.36300000      48.28400000
 H      27.58700000      27.27700000      48.92100000
 O      34.35800000       8.00600000      48.21500000
 H      35.20700000       7.88700000      47.76400000
 H      34.60400000       8.68900000      48.88000000
 O      22.87900000      27.67300000      48.18200000
 H      22.68700000      26.91400000      47.51100000
 H      22.01700000      27.83900000      48.54700000
 O      19.35000000      26.59300000      47.03300000
 H      18.62700000      26.83100000      46.44400000
 H      18.99700000      25.77700000      47.44600000
 O      26.44700000       3.98700000      46.23000000
 H      26.59400000       3.44000000      47.04600000
 H      25.51600000       4.18500000      46.34200000
 O      20.21200000      34.83600000      43.50800000
 H      20.78500000      34.43300000      44.17600000
 H      20.83400000      34.77500000      42.69500000
 O      30.39800000       8.16200000      43.48200000
 H      31.23800000       8.63600000      43.22100000
 H      30.86900000       7.48000000      44.07900000
 O      10.81600000      19.79400000      48.09000000
 H      11.36000000      19.03200000      48.08800000
 H      11.10000000      20.22600000      48.92700000
 O       7.44600000      28.70200000      45.81600000
 H       7.99800000      28.05800000      46.21200000
 H       6.76700000      28.83500000      46.54400000
 O      18.02000000       7.86900000      44.80600000
 H      17.47600000       7.82800000      44.00700000
 H      18.80200000       8.42000000      44.53800000
 O       7.53000000      10.03600000      46.10800000
 H       7.64900000       9.55600000      45.22600000
 H       6.61600000      10.39100000      46.04400000
 O      17.32900000       6.78800000      47.36800000
 H      16.66900000       6.12300000      47.01000000
 H      17.60900000       7.15300000      46.49900000
 O       7.31900000      29.15200000      42.90700000
 H       7.40600000      28.61200000      43.77200000
 H       8.22300000      29.55400000      42.96800000
 O      29.93100000      40.15400000      47.59600000
 H      30.28700000      41.07500000      47.70500000
 H      30.74600000      39.75300000      47.19900000
 O      18.21000000      37.73900000      44.83700000
 H      18.47500000      38.54800000      44.35500000
 H      17.24700000      37.91100000      44.85100000
 O      28.29900000      12.62700000      45.74600000
 H      28.60900000      12.11800000      44.95600000
 H      27.33900000      12.55200000      45.59000000
 O      25.90800000      31.99000000      42.55200000
 H      25.01300000      32.10700000      42.92400000
 H      26.19900000      32.95400000      42.53800000
 O      22.83400000      27.83200000      44.96100000
 H      23.45300000      27.49300000      45.66700000
 H      22.14300000      27.14000000      44.98000000
 O      30.08600000      28.89800000      46.46300000
 H      29.85800000      29.71300000      46.87500000
 H      29.73600000      29.07700000      45.55800000
 O      10.89100000       0.99900000      46.33100000
 H      11.49700000       1.75100000      46.31800000
 H      11.38200000       0.39800000      46.90000000
 O      10.97700000      32.77000000      48.38900000
 H      11.48900000      32.27500000      47.74800000
 H      10.18200000      33.01800000      47.89200000
 O      29.56500000      12.13000000      47.99400000
 H      29.13200000      12.23800000      47.10400000
 H      29.77100000      11.19100000      47.97100000
 O      21.85000000       5.22100000      42.64500000
 H      22.39400000       5.63500000      43.33700000
 H      20.95400000       5.27000000      43.14000000
 O      18.41100000      19.61800000      45.12300000
 H      18.91600000      19.46000000      44.22900000
 H      18.99500000      20.36500000      45.36600000
 O      20.74000000      16.76800000      46.33800000
 H      20.56000000      16.00400000      46.92900000
 H      19.80200000      16.88600000      46.02700000
 O       8.36000000       3.71100000      48.58700000
 H       8.64100000       4.03100000      47.74100000
 H       9.20900000       3.93700000      49.13900000
 O      22.07100000      21.00600000      47.37200000
 H      22.50000000      20.22000000      46.91500000
 H      21.60700000      20.55000000      48.09300000
 O      33.95300000      26.55900000      48.66600000
 H      33.72500000      27.02200000      49.52000000
 H      33.53100000      27.28200000      48.07600000
 O      24.71200000      28.82000000      42.81100000
 H      24.28900000      28.55900000      43.64300000
 H      25.57800000      28.31500000      42.96900000
 O      38.21500000       6.81100000      47.44300000
 H      38.56600000       5.97200000      47.04600000
 H      38.85700000       6.99000000      48.11300000
 O      39.56800000      29.62000000      46.17400000
 H      40.30900000      29.19700000      45.66100000
 H      39.96500000      29.69500000      47.01300000
 O      23.82900000       9.82200000      44.85200000
 H      24.63600000       9.32100000      45.06100000
 H      23.13100000       9.23500000      45.10300000
 O      36.48200000      11.46300000      44.19200000
 H      37.04900000      10.94200000      43.61800000
 H      37.17900000      12.20100000      44.36500000
 O      12.26300000      13.20300000      48.37200000
 H      12.33900000      12.48800000      47.67600000
 H      11.57000000      12.81200000      48.96000000
 O      39.35600000       4.60100000      46.44200000
 H      40.32300000       4.58800000      46.60700000
 H      39.31500000       4.50400000      45.42000000
 O      12.08900000      32.67900000      44.01700000
 H      13.00600000      32.44800000      43.78600000
 H      11.71800000      32.78100000      43.09400000
 O      33.05600000      20.77600000      45.75200000
 H      33.43400000      21.30100000      45.03900000
 H      32.42800000      21.45600000      46.17300000
 O      33.84400000      11.50100000      44.64300000
 H      33.80600000      10.73900000      45.19100000
 H      34.79600000      11.56300000      44.42000000
 O      11.34000000      37.47600000      46.28300000
 H      10.51500000      37.17500000      46.65900000
 H      11.48500000      36.72000000      45.62800000
 O      33.12300000       3.62200000      45.12400000
 H      32.91500000       2.66000000      45.26800000
 H      32.97900000       3.81900000      44.19600000
 O      28.59900000       6.14500000      46.71000000
 H      28.01700000       5.46400000      46.31400000
 H      28.57400000       5.75200000      47.66100000
 O      17.79300000      17.85000000      47.49000000
 H      16.95200000      17.60400000      47.02900000
 H      18.07200000      18.58200000      46.93600000
 O      32.64100000      25.32000000      43.29800000
 H      32.49300000      24.37300000      43.44900000
 H      32.13400000      25.48900000      42.47300000
 O      13.84900000      25.84900000      44.16800000
 H      14.09200000      26.62400000      44.69700000
 H      13.76600000      25.23100000      44.87800000
 O      10.37300000      23.15500000      47.46600000
 H       9.55600000      23.16700000      46.94400000
 H      10.98200000      22.84700000      46.74800000
 O      31.01200000       6.62200000      45.65700000
 H      31.66800000       5.93300000      46.12000000
 H      30.19000000       6.30600000      46.11900000
 O      15.29100000      29.79900000      47.33800000
 H      16.26900000      29.68200000      47.33600000
 H      15.25500000      30.75600000      47.02100000
 O      33.89600000      31.46600000      48.20900000
 H      32.97000000      31.73900000      48.29200000
 H      33.92100000      30.67000000      48.81500000
 O      35.89600000       1.53500000      45.56800000
 H      36.18300000       1.14200000      44.75900000
 H      34.90200000       1.55100000      45.41900000
 O      27.61200000      20.17800000      42.44900000
 H      27.77200000      20.62900000      41.58800000
 H      28.40100000      19.52000000      42.37400000
 O      17.04400000       1.02600000      43.39200000
 H      16.39600000       0.46400000      43.82800000
 H      16.68300000       1.91300000      43.64900000
 O      15.94200000       4.84500000      46.23600000
 H      15.89600000       4.38600000      45.35800000
 H      15.53100000       4.16100000      46.83100000
 O       9.18100000      30.57600000      48.83600000
 H       9.26000000      29.91400000      48.15400000
 H      10.08500000      30.44700000      49.26800000
 O      12.11900000       6.83600000      48.00600000
 H      11.92300000       6.04900000      48.54200000
 H      11.70100000       7.56600000      48.47100000
 O      27.31400000      34.39600000      42.61300000
 H      27.93100000      34.64600000      41.88500000
 H      27.60000000      35.04300000      43.26100000
 O      17.87600000      39.11900000      47.93500000
 H      18.63600000      38.59400000      47.71600000
 H      17.23800000      38.38400000      48.12800000
 O      36.99900000       3.78400000      47.82000000
 H      37.83900000       4.28800000      47.59100000
 H      36.82600000       3.36100000      46.98500000
 O      16.55500000      22.33700000      42.74400000
 H      16.37100000      23.28300000      42.54600000
 H      17.23100000      22.12000000      42.02300000
 O      35.57900000      18.99100000      44.86900000
 H      34.67400000      19.39500000      45.12100000
 H      36.12700000      19.25200000      45.62600000
 O      21.25000000      31.36400000      46.13100000
 H      22.20900000      31.06800000      46.07600000
 H      21.32200000      32.27200000      46.49900000
 O      17.44100000      31.75900000      47.89200000
 H      17.84100000      31.68400000      46.98600000
 H      17.06100000      32.60300000      47.88000000
 O      14.52400000      31.99800000      43.00700000
 H      15.18500000      32.56100000      42.52000000
 H      14.54900000      31.21300000      42.47200000
 O       6.47700000       7.30900000      48.27700000
 H       7.03100000       6.98900000      47.54700000
 H       5.81600000       7.85600000      47.78200000
 O      21.74700000      23.80900000      48.51400000
 H      21.42400000      22.88700000      48.29400000
 H      21.35900000      23.89900000      49.44400000
 O      15.59600000       3.94300000      43.66300000
 H      15.84600000       4.39600000      42.84900000
 H      14.79400000       3.44400000      43.33100000
 O      13.90600000      38.38100000      46.85900000
 H      13.03400000      37.97900000      46.69400000
 H      13.68700000      39.03700000      47.59500000
 O      33.48100000      14.97600000      44.23300000
 H      33.75500000      15.02500000      45.15500000
 H      32.72900000      14.38000000      44.29200000
 O      32.48900000      10.20500000      42.50300000
 H      33.05100000      10.55400000      43.20600000
 H      32.91300000      10.71800000      41.74300000
 O      30.59200000      15.29900000      48.02300000
 H      30.42800000      15.24800000      47.08400000
 H      29.68100000      15.42300000      48.41900000
 O      30.49000000      14.30000000      42.71000000
 H      29.85700000      13.84600000      42.11900000
 H      30.85700000      13.52500000      43.19900000
 O      17.08100000      17.88600000      43.13500000
 H      17.78500000      18.44000000      42.74400000
 H      17.54500000      17.66800000      43.98000000
 O      32.20100000       6.54800000      48.77000000
 H      32.79700000       7.27400000      48.74100000
 H      32.71800000       5.80300000      48.39700000
 O      27.44100000      39.18400000      47.46800000
 H      27.44400000      39.48200000      48.40300000
 H      28.35300000      39.57000000      47.23200000
 O      27.11300000      27.39000000      43.86900000
 H      26.72200000      27.08500000      44.74200000
 H      27.76400000      26.67400000      43.73300000
 O      31.27600000      21.56800000      48.97000000
 H      30.57900000      20.93400000      48.62900000
 H      31.28800000      22.12700000      48.13800000
 O       7.59600000       6.58900000      45.80000000
 H       8.45800000       6.97600000      45.90200000
 H       7.78000000       5.67900000      45.54300000
 O      24.93200000      18.49600000      42.70000000
 H      25.65900000      19.13000000      42.73800000
 H      25.25800000      17.95800000      41.91900000
 O      19.74700000      19.63700000      42.92700000
 H      20.60100000      19.31100000      42.74100000
 H      19.55200000      20.34200000      42.24000000
 O      16.77700000      10.84600000      48.33600000
 H      16.66800000      11.71200000      48.69700000
 H      16.43900000      10.96300000      47.45200000
 O      30.59000000      34.14100000      45.43200000
 H      29.83300000      34.69200000      45.07300000
 H      30.33700000      33.29400000      45.08300000
 O      30.05400000       2.96500000      43.61800000
 H      30.19800000       3.66500000      43.00300000
 H      29.12900000       2.71900000      43.52900000
 O      14.52000000      17.57800000      43.77600000
 H      15.31600000      17.79200000      43.23400000
 H      14.35900000      16.68400000      43.46300000
 O      38.04900000      16.24400000      47.46700000
 H      38.19200000      17.21000000      47.71700000
 H      38.43600000      15.83700000      48.27500000
 O      37.42000000      14.77200000      43.00500000
 H      37.43400000      15.58000000      43.51000000
 H      37.70800000      14.10100000      43.69800000
 O      26.38500000      21.27900000      44.93600000
 H      25.86600000      22.03400000      44.64700000
 H      26.39300000      20.77700000      44.07500000
 O      31.41000000      18.31700000      44.23300000
 H      31.78900000      19.23800000      44.53700000
 H      30.84000000      18.11200000      45.00900000
 O       8.78500000       1.92000000      44.45500000
 H       8.06300000       1.29200000      44.77700000
 H       9.52800000       1.55300000      45.01800000
 O       8.24500000      23.14100000      45.91200000
 H       8.44200000      23.74300000      45.14000000
 H       7.39100000      23.59400000      46.14100000
 O      38.81700000      26.15600000      45.88100000
 H      39.67000000      26.55500000      46.18500000
 H      38.27000000      26.26300000      46.66700000
 O      27.09400000       3.18300000      43.73000000
 H      26.50500000       3.84000000      43.34100000
 H      27.00600000       3.49400000      44.69700000
 O      13.40500000      39.67100000      43.63800000
 H      14.12200000      39.36700000      44.21800000
 H      13.76200000      39.39600000      42.78200000
 O      35.69100000       5.82700000      45.24300000
 H      36.15700000       6.64300000      45.39500000
 H      34.79500000       6.21200000      45.01100000
 O      24.58300000      17.07300000      48.44700000
 H      24.27600000      17.20600000      49.39000000
 H      23.98100000      17.67200000      47.97300000
 O      15.65900000      15.74300000      48.77400000
 H      15.74000000      16.58100000      49.31500000
 H      15.22000000      16.16000000      47.98500000
 O      27.09800000      17.39700000      44.98200000
 H      27.52200000      17.39100000      44.07600000
 H      26.83600000      16.52300000      45.09600000
 O      21.53400000      12.71600000      47.22700000
 H      22.39500000      13.13700000      47.27700000
 H      21.65600000      11.93700000      47.83800000
 O      13.94400000       6.68600000      45.12700000
 H      13.48000000       6.22000000      45.84300000
 H      14.83200000       6.32700000      45.25800000
 O       8.55700000      31.39200000      45.47800000
 H       8.23400000      30.54200000      45.84400000
 H       9.13700000      31.12100000      44.75300000
 O      27.99000000       7.02500000      43.10800000
 H      28.01500000       6.11200000      43.42000000
 H      28.92100000       7.30600000      43.24300000
 O      32.43300000       4.85400000      42.63800000
 H      31.65300000       5.14200000      42.12100000
 H      32.69700000       5.67600000      43.11100000
 O      31.84900000      35.84100000      42.64800000
 H      31.67800000      35.70300000      41.69300000
 H      30.95800000      36.09300000      42.93700000
 O      18.55600000      15.79400000      44.39500000
 H      18.81600000      15.15800000      45.11200000
 H      19.24500000      15.46100000      43.77300000
 O      32.29300000      10.80600000      48.76500000
 H      31.65200000      10.21000000      48.27600000
 H      32.36600000      11.49300000      48.12500000
 O      36.82500000      13.47300000      47.36300000
 H      37.36000000      14.29300000      47.38800000
 H      36.91400000      13.10700000      46.48800000
 O      10.44400000      39.14400000      43.73400000
 H      10.26600000      38.47300000      44.50800000
 H      11.37500000      39.29900000      43.89800000
 O      25.94300000      26.05300000      46.24800000
 H      25.14600000      25.51900000      46.57900000
 H      26.04100000      26.63000000      47.01700000
 O      19.05000000      23.39100000      43.97800000
 H      19.45200000      22.74200000      44.58100000
 H      18.09100000      23.20700000      44.16200000
 O      24.27500000       7.70100000      48.14900000
 H      23.43000000       7.42100000      48.53000000
 H      24.04300000       7.83100000      47.22500000
 O      37.46500000       9.84500000      48.72300000
 H      36.94500000      10.50400000      49.14100000
 H      37.90000000      10.26000000      48.01900000
 O       9.05100000      36.43000000      47.61400000
 H       8.15700000      36.67300000      47.45100000
 H       9.05800000      35.51900000      47.18000000
 O      38.88200000       6.81000000      42.82500000
 H      39.57600000       7.28400000      43.37700000
 H      39.07300000       5.93900000      43.19800000
 O      11.02000000      26.58800000      44.57100000
 H      11.69300000      25.92300000      44.57200000
 H      10.54600000      26.45300000      45.42300000
 O      20.65200000      29.47300000      44.20600000
 H      21.52100000      28.98500000      44.25700000
 H      20.85700000      30.13800000      44.92100000
 O      31.52000000      22.72800000      46.49800000
 H      31.93700000      23.57200000      46.60000000
 H      30.64900000      22.90300000      46.12400000
 O      32.93500000      28.28000000      46.69800000
 H      33.36200000      27.95800000      45.89700000
 H      32.08200000      28.65300000      46.32700000
 O       8.40400000      19.62700000      47.45100000
 H       9.32400000      19.82700000      47.62600000
 H       8.38600000      19.89500000      46.50200000
 O      21.67200000      34.08600000      46.25700000
 H      21.51800000      34.94100000      46.69700000
 H      22.42900000      34.24900000      45.76400000
 O      12.25300000      21.92100000      43.00100000
 H      12.28200000      21.02900000      42.67500000
 H      12.50700000      21.74600000      43.96000000
 O      32.44400000      13.31700000      47.21500000
 H      31.84000000      13.87500000      47.71200000
 H      33.09000000      14.04000000      46.95900000
 O      33.26700000      24.93300000      46.32800000
 H      33.43000000      25.57300000      45.58900000
 H      33.52600000      25.48700000      47.09500000
 O      15.82700000      21.05100000      44.72700000
 H      16.15900000      21.61000000      43.97400000
 H      16.40400000      20.22500000      44.60800000
 O      26.24200000      39.69500000      45.04200000
 H      26.39200000      39.48800000      46.02600000
 H      25.55800000      39.02900000      44.83900000
 O       6.86700000      40.40800000      45.22600000
 H       5.87600000      40.48400000      45.02100000
 H       6.91900000      39.44800000      45.07900000
 O      38.24800000      19.81700000      42.68200000
 H      37.58700000      19.15800000      42.93700000
 H      37.95000000      20.06000000      41.79000000
 O      12.98900000       2.39300000      43.24000000
 H      13.04900000       1.47600000      43.62000000
 H      12.04700000       2.38500000      42.91800000
 O       7.25500000      37.83100000      43.70400000
 H       7.96600000      37.18100000      43.44600000
 H       6.76200000      37.30900000      44.37700000
 O      22.27800000      18.40400000      43.60100000
 H      23.17200000      18.37600000      43.25800000
 H      22.11500000      17.46400000      43.91400000
 O      33.79900000      27.54100000      44.36200000
 H      34.71000000      27.22200000      44.10600000
 H      33.31700000      26.95500000      43.72400000
 O      10.34100000      14.64500000      46.83300000
 H      10.14800000      13.73800000      46.63000000
 H      11.20200000      14.52200000      47.30100000
 O      33.87900000      37.31500000      43.16500000
 H      34.18800000      36.78000000      43.86700000
 H      33.07500000      36.79800000      42.86800000
 O       8.52700000       9.84600000      48.67300000
 H       7.62400000       9.72000000      49.09200000
 H       8.26800000       9.95800000      47.74200000
 O      11.38000000       4.90000000      44.60700000
 H      11.25600000       4.55200000      43.68200000
 H      11.05000000       5.80400000      44.47700000
 O      24.33600000      38.32600000      47.02300000
 H      25.30200000      38.23600000      47.29200000
 H      24.29200000      39.29700000      47.19200000
 O       9.16300000      12.99500000      43.25600000
 H       8.79700000      13.31800000      42.37700000
 H       9.98900000      13.45500000      43.28400000
 O      20.00600000       2.91000000      43.69100000
 H      19.40800000       3.66000000      43.76400000
 H      20.55700000       3.11900000      42.94900000
 O       9.70600000      30.51500000      42.90500000
 H       9.87400000      31.30300000      42.37200000
 H      10.59600000      30.08500000      42.85100000
 O      20.12200000       6.17300000      47.21000000
 H      19.26400000       6.42300000      47.55500000
 H      20.00800000       5.26000000      46.99100000
 O      13.36200000      28.26900000      48.13600000
 H      14.01300000      28.90800000      47.81600000
 H      13.42800000      28.46300000      49.11000000
 O       6.37000000      18.74100000      43.88100000
 H       5.49500000      19.18700000      43.98400000
 H       6.90600000      19.32200000      44.50100000
 O      27.71300000      16.03900000      48.38200000
 H      27.19000000      15.24900000      48.35700000
 H      27.01900000      16.69500000      48.18300000
 O      13.18600000      20.77800000      45.22100000
 H      14.12900000      20.99100000      45.21400000
 H      13.13900000      20.19200000      46.00400000
 O      22.18900000       0.92400000      42.44600000
 H      22.83100000       1.26800000      43.11700000
 H      22.78600000       0.83800000      41.68900000
 O      12.94900000      11.28000000      46.35500000
 H      12.63900000      11.26200000      45.46800000
 H      13.92400000      11.02000000      46.20300000
 O      36.33100000      36.71900000      48.10100000
 H      35.96500000      35.78700000      48.07700000
 H      36.18000000      36.92000000      47.15700000
 O      38.12400000      18.82100000      47.94500000
 H      39.08300000      19.02300000      47.85800000
 H      37.75300000      19.70900000      47.73800000
 O      18.19200000      34.72100000      48.14700000
 H      18.68200000      35.51500000      47.95500000
 H      17.80200000      34.85300000      49.03700000
 O      20.82500000       9.67400000      43.40300000
 H      21.74700000       9.67100000      43.08700000
 H      20.69800000      10.61500000      43.60400000
 O      23.30200000      32.38200000      43.10200000
 H      23.47300000      31.76200000      43.82000000
 H      22.71900000      31.93600000      42.46800000
 O      35.36200000      36.33600000      45.56200000
 H      34.50300000      35.96500000      45.86900000
 H      35.68300000      35.59900000      44.99400000
 O      30.83500000      40.37400000      43.58300000
 H      31.42000000      40.01100000      42.90500000
 H      30.81200000      41.33300000      43.23900000
 O      22.61100000      15.18400000      43.96300000
 H      23.54900000      15.24300000      43.65600000
 H      22.71600000      14.88100000      44.88000000
 O      18.06000000      24.65900000      48.34300000
 H      17.40900000      24.99300000      49.01000000
 H      18.28100000      23.82300000      48.72200000
 O      24.62500000      32.38500000      47.78200000
 H      25.39900000      32.02100000      48.30100000
 H      24.20200000      32.97200000      48.47000000
 O      38.26700000      13.34200000      45.04300000
 H      39.14100000      13.84500000      45.11600000
 H      38.51200000      12.53500000      45.49200000
 O      36.56500000      27.20900000      47.25000000
 H      36.73000000      27.99900000      46.74700000
 H      35.70800000      27.43000000      47.62400000
 O      33.33600000      32.73100000      43.72600000
 H      32.82700000      32.44000000      43.00700000
 H      33.77400000      31.91000000      44.02400000
 O      15.14100000      17.10600000      46.39300000
 H      14.84500000      17.49700000      45.48800000
 H      15.48300000      16.25700000      46.00500000
 O      18.54400000      31.53200000      45.31100000
 H      18.61900000      31.52000000      44.32000000
 H      19.50000000      31.61900000      45.52800000
 O      12.49100000       3.74000000      46.85900000
 H      12.24800000       3.96500000      45.89800000
 H      11.75100000       4.32400000      47.24200000
 O      15.82000000      37.27100000      48.39400000
 H      15.47300000      37.57500000      49.27700000
 H      14.94600000      37.14700000      47.91600000
 O      37.40800000       1.23400000      42.92900000
 H      37.12900000       2.05500000      43.39200000
 H      38.25300000       1.56800000      42.52900000
 O      19.83100000      12.40000000      43.64300000
 H      19.55100000      12.90400000      44.42300000
 H      20.20300000      13.11000000      43.06300000
 O       7.48000000       4.28100000      43.34700000
 H       6.61400000       4.41400000      43.70900000
 H       7.46000000       3.31100000      43.25700000
 O      34.47800000      30.36300000      44.59300000
 H      34.07700000      29.53000000      44.76900000
 H      35.02900000      30.49400000      45.42800000
 O      20.39400000      28.79000000      48.50300000
 H      20.44800000      29.35500000      47.70300000
 H      19.83400000      28.05900000      48.22400000
 O      21.84300000       7.87300000      45.75200000
 H      21.25900000       7.17500000      46.23200000
 H      21.10500000       8.43700000      45.43100000
 O      27.04100000      40.62500000      42.67900000
 H      26.92200000      40.25500000      43.58900000
 H      27.20400000      41.56500000      42.97600000
 O      19.43800000      39.53500000      42.72600000
 H      18.77600000      40.15000000      43.02900000
 H      20.26000000      40.05300000      42.87600000
 O      16.05000000       7.30000000      43.03600000
 H      15.26900000       7.87100000      43.14900000
 H      15.74800000       6.48300000      42.68600000
 O      16.14200000      14.70700000      45.22900000
 H      16.34700000      13.85600000      44.89100000
 H      16.90500000      15.23700000      44.99600000
 O      24.33100000      20.78500000      48.65200000
 H      24.71000000      20.24700000      47.92100000
 H      23.48700000      20.98500000      48.31100000
 O      10.90800000      28.68700000      47.21000000
 H      11.14300000      29.50500000      46.76200000
 H      11.80900000      28.47100000      47.60900000
 O      36.36300000      26.77600000      44.38900000
 H      37.24900000      27.03500000      44.12200000
 H      36.65300000      26.27500000      45.20500000
 O      36.41900000       8.32800000      46.01100000
 H      37.21400000       8.15700000      46.48800000
 H      36.53200000       9.23800000      45.71000000
 O      33.21900000       0.91300000      45.07500000
 H      32.39200000       0.79300000      44.66700000
 H      33.23800000       0.07100000      45.66500000
 O      33.66500000       4.82200000      47.39100000
 H      33.43100000       4.40000000      46.51700000
 H      34.57900000       5.05700000      47.27400000
 O       8.11900000      40.47200000      48.23200000
 H       7.32000000      40.16200000      47.89000000
 H       8.63900000      40.67300000      47.41300000
 O      35.70100000      33.89500000      47.59300000
 H      35.04300000      34.11500000      46.82500000
 H      35.34200000      33.07300000      47.92100000
 O      39.94000000      35.63200000      45.45300000
 H      39.26600000      34.88600000      45.61100000
 H      39.60100000      36.03500000      44.68000000
 O      19.57800000      36.99600000      47.12100000
 H      19.26000000      37.27600000      46.23900000
 H      20.58200000      37.03600000      46.94400000
 O       6.94000000      33.05900000      44.08900000
 H       7.36500000      32.29000000      44.48100000
 H       6.35500000      32.59700000      43.41400000
 O      16.55600000      29.69700000      44.46700000
 H      17.15400000      30.30300000      45.02600000
 H      16.86700000      30.02800000      43.57700000
 O      33.83700000      18.25200000      47.89300000
 H      33.79700000      18.99400000      48.51500000
 H      33.26000000      18.64000000      47.20100000
 O      13.74600000      35.10200000      46.65600000
 H      13.59100000      35.32400000      45.72400000
 H      14.67200000      34.74600000      46.58900000
 O      14.38600000      28.44300000      44.99600000
 H      14.30100000      28.86200000      45.84400000
 H      15.20100000      28.97000000      44.65700000
 O      15.67100000      10.69600000      45.76900000
 H      15.98900000      11.45000000      45.17700000
 H      15.89900000       9.90900000      45.24500000
 O      21.08500000      25.60700000      44.95100000
 H      20.40800000      26.03100000      45.48200000
 H      20.61700000      25.30200000      44.15000000
 O      19.42600000      10.45400000      47.17900000
 H      18.49700000      10.63900000      47.48900000
 H      19.53300000      11.12400000      46.50100000
 O      35.61900000      24.04300000      43.13400000
 H      35.41500000      24.07800000      42.14900000
 H      35.30100000      24.92500000      43.42300000
 O      35.90100000      34.17500000      44.14600000
 H      35.09000000      33.68400000      44.24000000
 H      36.06800000      34.18900000      43.17800000
 O      14.42900000      14.72600000      42.55200000
 H      15.36800000      14.83100000      42.37800000
 H      14.36100000      13.70500000      42.49100000
 O       9.25000000      26.52200000      47.00300000
 H       9.74100000      27.37700000      46.90200000
 H       9.23300000      26.44400000      47.99900000
 O      24.05200000      31.13200000      45.49400000
 H      24.27000000      31.63900000      46.32400000
 H      24.21100000      30.22000000      45.80300000
 O      12.86900000      17.87500000      47.89300000
 H      13.45600000      17.32000000      47.39800000
 H      12.77100000      17.56300000      48.74100000
 O      36.04200000      30.48400000      46.74000000
 H      36.63600000      30.30900000      47.56300000
 H      35.49100000      31.11900000      47.19700000
 O      17.82600000      34.98700000      44.17300000
 H      18.75600000      34.82900000      43.87500000
 H      17.91100000      35.94600000      44.43400000
 O      17.27400000       1.72000000      47.20500000
 H      17.44400000       0.78200000      47.14200000
 H      16.35800000       1.72500000      47.63000000
 O      40.37600000      17.81000000      44.66300000
 H      40.89600000      17.65100000      43.89100000
 H      39.49000000      17.59900000      44.43700000
 O      29.17300000      25.25400000      43.71600000
 H      29.82300000      25.58700000      43.06200000
 H      29.32600000      24.30000000      43.66600000
 O      32.91900000       8.72700000      45.70200000
 H      33.36000000       8.63800000      46.57800000
 H      32.12100000       8.11300000      45.78700000
 O      28.79500000      17.56700000      43.04700000
 H      29.75200000      17.45900000      43.25100000
 H      28.66300000      16.87200000      42.37700000
 O      37.52600000       9.49300000      42.72100000
 H      36.73200000       9.08000000      42.29400000
 H      38.10700000       8.71100000      42.72200000
 O       9.83800000      16.12200000      44.32900000
 H      10.65700000      15.95900000      43.85500000
 H      10.02600000      15.77300000      45.24100000
 O      39.71100000      21.15300000      47.38700000
 H      39.66500000      21.47900000      48.32000000
 H      39.74000000      22.05900000      46.92900000
 O      36.44700000      38.07400000      43.09900000
 H      35.72000000      37.55700000      43.58400000
 H      35.97000000      38.16200000      42.23800000
 O      16.96100000      12.31900000      43.95600000
 H      16.77700000      12.36700000      42.98000000
 H      17.93700000      12.27300000      43.87400000
 O      25.32700000      12.02200000      45.75500000
 H      25.05600000      11.36200000      45.04900000
 H      24.41900000      12.07400000      46.17200000
 O      13.68800000       8.74800000      43.23300000
 H      13.17000000       8.29600000      42.53500000
 H      13.79700000       7.96900000      43.81800000
 O       8.81000000      15.26900000      49.05800000
 H       9.54300000      15.36000000      48.40500000
 H       8.64700000      14.31800000      48.88200000
 O      27.71200000      22.13600000      47.19700000
 H      28.04000000      21.21600000      47.29900000
 H      27.27000000      22.08000000      46.31500000
 O       7.94600000      20.75100000      44.83100000
 H       8.00900000      21.65800000      45.24900000
 H       8.88400000      20.44200000      44.87400000
 O      26.91500000      12.90800000      42.67100000
 H      27.30200000      12.98600000      41.78200000
 H      27.49700000      12.19700000      43.03800000
 O       9.29800000      12.32500000      46.00300000
 H       8.73600000      11.53300000      46.12400000
 H       9.12400000      12.48600000      45.01900000
 O      29.40200000      17.64200000      46.13300000
 H      29.71400000      16.72100000      46.00900000
 H      28.55600000      17.50700000      45.55200000
 O      38.32300000      29.40400000      43.82600000
 H      38.45100000      29.46600000      44.78200000
 H      37.37200000      29.60100000      43.74000000
 O       8.25200000      10.35800000      43.22600000
 H       8.61800000      11.20800000      43.57400000
 H       9.02000000       9.98600000      42.77200000
 O      10.45100000      20.02700000      44.84200000
 H      11.29900000      20.15700000      45.29100000
 H      10.69200000      19.48300000      44.07800000
 O       8.40300000      33.94300000      46.67800000
 H       7.59300000      33.66700000      47.17900000
 H       8.47900000      33.18000000      46.09900000
 O      16.31600000      24.99600000      43.06300000
 H      16.76700000      24.85200000      43.92800000
 H      15.42100000      25.21000000      43.37800000
 O      19.26400000       4.16200000      49.07000000
 H      19.26000000       4.09400000      48.03200000
 H      18.77500000       3.35600000      49.26200000
 O      25.56600000      14.87700000      44.40200000
 H      25.74300000      13.99600000      44.00300000
 H      25.02900000      14.68300000      45.11200000
 O      29.82400000      26.18300000      46.46900000
 H      29.79000000      25.93500000      45.44700000
 H      30.13100000      27.10500000      46.43000000
 O      38.92200000      32.31000000      47.50600000
 H      39.78200000      32.44100000      47.88200000
 H      38.88500000      31.38100000      47.33600000
 O      10.85200000       9.51200000      46.69600000
 H      11.11700000       9.08100000      47.51200000
 H      11.51200000      10.24100000      46.54900000
 O      33.42300000       7.10700000      43.66600000
 H      33.27500000       7.83800000      44.33400000
 H      34.10800000       7.57300000      43.16700000
 O      36.69200000       0.85000000      48.23700000
 H      36.56000000       1.80300000      48.53200000
 H      36.42900000       0.87500000      47.27900000
 O      19.15500000       5.54500000      43.28900000
 H      19.08300000       6.25900000      42.66200000
 H      18.46700000       5.78900000      43.95200000
 O      17.23100000      27.31100000      45.70300000
 H      16.96100000      28.13300000      45.37100000
 H      16.48100000      27.00200000      46.22300000
 O      10.38400000       3.00500000      42.49800000
 H      10.09900000       2.66300000      41.67400000
 H       9.60100000       2.69300000      43.03800000
 O      23.61200000      34.90700000      43.88900000
 H      23.78900000      35.38000000      43.09000000
 H      23.70000000      33.98300000      43.55900000
 O      18.58800000      31.74400000      42.72200000
 H      19.26600000      31.91300000      41.98000000
 H      18.00900000      32.48600000      42.57600000
 O      12.81900000      24.33100000      46.28200000
 H      12.29500000      24.21300000      47.07400000
 H      13.75200000      24.29600000      46.63000000
 O      39.73700000      31.90800000      43.74400000
 H      39.08200000      32.33200000      44.32100000
 H      39.63100000      30.96200000      43.96500000
 O      25.05900000       5.06100000      42.73300000
 H      24.38700000       5.24300000      43.51200000
 H      25.14100000       6.02000000      42.54400000
 O      12.32300000      28.68900000      43.19900000
 H      13.23200000      28.70200000      43.62400000
 H      11.88900000      27.99400000      43.67900000
 O      25.54000000      19.49100000      46.71600000
 H      25.79700000      18.66200000      46.24500000
 H      25.72400000      20.14800000      46.07700000
 O      16.45300000      23.67600000      45.36200000
 H      15.98500000      22.78700000      45.38300000
 H      16.43100000      23.91500000      46.26000000
 O      34.17900000      15.52900000      46.95600000
 H      34.06200000      16.38700000      47.44300000
 H      35.05300000      15.31700000      47.33700000
 O      12.46900000      18.96300000      42.68300000
 H      13.14000000      18.98500000      41.95200000
 H      12.99700000      18.55100000      43.40500000
 O      15.39400000      38.08200000      44.70600000
 H      14.78100000      37.40300000      44.22800000
 H      14.84800000      38.17300000      45.56300000
 O      37.74500000      16.89100000      44.72000000
 H      37.70100000      16.37100000      45.55400000
 H      36.91400000      17.37600000      44.73100000
 O      23.98600000      14.65400000      46.99000000
 H      24.74100000      14.10500000      47.38000000
 H      24.14800000      15.50900000      47.46300000
 O       6.90200000      16.25900000      44.64900000
 H       6.73700000      17.22500000      44.56700000
 H       7.84200000      16.21500000      44.69900000
 O      24.01300000      38.42200000      43.69600000
 H      23.92000000      38.73000000      42.80700000
 H      23.15300000      37.98400000      43.80200000
 O       8.81100000      24.90200000      43.90400000
 H       9.37900000      25.64100000      43.77700000
 H       9.14400000      24.25100000      43.27500000
 O      39.00600000      38.61200000      44.37300000
 H      38.06000000      38.51700000      44.16900000
 H      38.91000000      38.72500000      45.35400000
 O      21.74100000       1.43000000      47.87900000
 H      21.41700000       1.12300000      46.97400000
 H      20.90000000       1.67600000      48.28700000
 O      10.28900000       7.45900000      44.48800000
 H      10.52500000       8.04800000      45.19400000
 H      10.80500000       7.80800000      43.75500000
 O      23.47000000       5.66900000      44.78700000
 H      23.03000000       6.37100000      45.33200000
 H      23.38500000       4.94200000      45.48500000
 O      19.83200000      21.72200000      45.95700000
 H      20.64700000      21.37000000      46.38000000
 H      19.45300000      22.22100000      46.72800000
 O      27.26100000      33.13000000      45.79600000
 H      27.02100000      34.10100000      45.70100000
 H      26.44400000      32.84200000      46.34000000
 O      29.20300000      22.53800000      44.26000000
 H      28.68000000      21.72400000      44.43800000
 H      29.56800000      22.25100000      43.40800000
 O      34.10700000      21.37100000      43.14700000
 H      34.84100000      21.97700000      43.40400000
 H      34.19200000      21.41500000      42.15100000
 O      36.44000000       4.05800000      43.46200000
 H      37.17500000       4.55300000      43.08100000
 H      36.30800000       4.51900000      44.33400000
 O      26.42200000      35.46700000      48.62100000
 H      26.05300000      35.48000000      47.71500000
 H      25.64900000      35.73000000      49.17600000
 O       8.54900000      35.44000000      43.67700000
 H       8.45600000      34.99700000      42.81300000
 H       8.13700000      34.71900000      44.24100000
 O      12.44100000      36.18700000      48.86200000
 H      12.75400000      37.13800000      48.68200000
 H      12.77900000      35.83200000      48.00000000
 O      38.81200000      39.33200000      46.94800000
 H      38.48600000      39.99600000      47.62400000
 H      38.96500000      38.57900000      47.55500000
 O      14.60400000       2.36300000      47.62900000
 H      13.87700000       2.96600000      47.33700000
 H      14.29200000       1.95300000      48.46900000
 O      38.08700000      33.68000000      45.47300000
 H      38.10300000      33.14200000      46.29200000
 H      37.10400000      33.88500000      45.38400000
 O      22.76900000      18.30200000      46.61900000
 H      22.85200000      18.74400000      45.78100000
 H      21.91700000      17.80500000      46.41500000
 O      29.39700000      19.79500000      48.11100000
 H      29.42500000      19.11700000      47.37700000
 H      28.69400000      19.42500000      48.64400000
 O      24.04500000      11.67100000      48.66100000
 H      23.51400000      11.55500000      49.45800000
 H      24.12000000      10.74800000      48.32200000
 O      24.32900000       0.84600000      47.48100000
 H      25.05100000       1.42500000      47.90300000
 H      23.55200000       1.25600000      47.95600000
 O      28.70900000      36.10800000      44.56500000
 H      28.58100000      37.07700000      44.39600000
 H      28.81400000      36.14800000      45.51000000
 O      34.92600000      23.05200000      47.29600000
 H      35.03900000      23.45800000      48.14200000
 H      34.32700000      23.61000000      46.83100000
 O      36.42900000      20.93000000      47.04800000
 H      36.91600000      21.32600000      46.26100000
 H      35.68500000      21.61500000      47.10600000
 O      23.11500000      25.27000000      46.78400000
 H      22.43400000      25.03900000      46.08100000
 H      22.80600000      24.66700000      47.49900000
 O      20.88300000      40.77100000      45.41400000
 H      21.45800000      40.26300000      44.85900000
 H      20.42700000      41.42900000      44.87000000
 O      33.29300000      17.00200000      42.74700000
 H      32.60300000      17.58100000      43.15400000
 H      33.35600000      16.31500000      43.42200000
 O      26.04500000      13.49500000      48.38500000
 H      25.26100000      12.87900000      48.53500000
 H      26.71200000      12.76900000      48.35100000
 O      23.88200000       1.53500000      44.46600000
 H      24.43400000       0.73900000      44.43300000
 H      23.80300000       1.70400000      45.37600000
 O      13.75100000      36.41500000      43.40300000
 H      13.97400000      35.88400000      42.58000000
 H      12.85000000      36.38600000      43.51000000
 O      37.63200000      21.62000000      44.75500000
 H      38.22800000      20.98800000      44.29600000
 H      37.55400000      22.30800000      44.11100000
 O      22.31100000      36.84800000      46.51800000
 H      22.38200000      37.13100000      45.58000000
 H      23.00700000      37.40300000      46.91100000
 O      30.02900000      15.18200000      45.42300000
 H      29.28000000      14.57800000      45.34100000
 H      30.44600000      15.02400000      44.50600000
 O      31.55800000      12.77400000      44.63800000
 H      32.39700000      12.25000000      44.54800000
 H      31.47600000      12.76400000      45.62400000
 O      19.34000000      25.31300000      42.41400000
 H      19.24200000      24.48100000      43.02700000
 H      18.41400000      25.31100000      42.07400000
 O      28.48300000      10.88900000      43.27300000
 H      28.91500000      10.99500000      42.40400000
 H      28.93900000      10.04400000      43.55600000
 O      28.80200000      38.70600000      44.04200000
 H      27.98300000      39.23600000      44.21900000
 H      29.42600000      39.42900000      43.98600000
 O      26.31700000       8.52000000      45.93400000
 H      26.87900000       8.62200000      46.73000000
 H      26.83000000       7.90900000      45.38600000
 O      29.25800000      24.38300000      48.47300000
 H      29.36600000      25.05100000      47.74800000
 H      28.72600000      23.69900000      47.99700000
 O      30.48700000       2.73100000      46.95400000
 H      30.58600000       2.76500000      45.94900000
 H      29.63200000       3.17100000      47.04100000
 O      25.05800000      35.44300000      46.21300000
 H      24.55600000      35.03800000      45.47700000
 H      24.41800000      36.12700000      46.47300000
 O      22.31600000      21.50700000      43.85800000
 H      21.46100000      21.70900000      44.33700000
 H      22.31900000      20.56900000      43.76600000
 O      21.43500000      37.51200000      43.85300000
 H      20.63600000      36.94200000      43.97700000
 H      21.37500000      37.59400000      42.84800000
 O      39.65800000       3.90700000      43.58500000
 H      40.09500000       3.11900000      43.95800000
 H      40.35200000       4.11000000      42.88700000
 O      29.10300000      29.12100000      44.10000000
 H      28.30200000      28.55500000      44.18300000
 H      28.82400000      29.74200000      43.44200000
 O      26.41700000       9.38700000      42.69600000
 H      26.93600000      10.10900000      43.14700000
 H      27.00400000       8.61000000      42.94100000
 O      11.35200000      35.41200000      44.63600000
 H      10.41700000      35.35400000      44.32600000
 H      11.47600000      34.40600000      44.63900000
 O      38.18700000      24.15000000      42.80300000
 H      37.21200000      24.03500000      42.92700000
 H      38.24900000      25.06200000      43.16900000
 O       9.19400000       4.27800000      45.94300000
 H       8.69700000       3.84400000      45.25600000
 H      10.03900000       4.43400000      45.45700000
 O      16.11500000      34.38500000      46.19400000
 H      16.67100000      34.48300000      45.39000000
 H      16.85000000      34.54000000      46.88400000
 O      28.92000000      31.20800000      47.37900000
 H      28.09500000      31.53500000      47.91400000
 H      28.84900000      31.85400000      46.66000000
 O      28.69200000      36.73000000      47.35900000
 H      28.35900000      37.63700000      47.48900000
 H      28.04400000      36.24500000      47.97900000
 O      28.75700000      31.86100000      43.72200000
 H      28.34400000      32.09000000      44.58400000
 H      27.91700000      31.87100000      43.18200000
 O      29.99100000       8.96500000      47.91800000
 H      30.30400000       8.21100000      47.43700000
 H      29.04800000       8.67600000      48.12300000
