633
XYZ file of cluster: frame_11000_c5884.9a808.21344 - created by MolEdiTo
 O      39.51000000      36.92800000      23.66900000
 H      40.39200000      36.73700000      23.27500000
 H      39.35700000      36.18700000      24.30200000
 O      38.82400000      36.05500000      29.75800000
 H      39.60500000      35.57600000      29.36900000
 H      38.60700000      36.62600000      28.97400000
 O      34.77500000      39.97500000      20.86400000
 H      35.69300000      40.21700000      20.88800000
 H      34.47500000      40.25300000      21.77700000
 O      35.78400000      27.27000000      15.98300000
 H      35.95600000      28.24700000      16.03100000
 H      35.41400000      27.22600000      15.02900000
 O      39.29300000      30.58500000      26.19800000
 H      39.70600000      30.40500000      27.14100000
 H      40.08800000      30.27300000      25.65400000
 O      36.67100000      34.66300000      30.95800000
 H      37.38200000      35.20800000      30.53200000
 H      37.17600000      34.17400000      31.64200000
 O      39.60200000      32.28200000      31.31500000
 H      40.17400000      31.55700000      31.12500000
 H      38.94700000      32.24000000      30.58200000
 O      34.93500000      36.29500000      20.79000000
 H      34.85700000      37.22700000      20.43600000
 H      35.84500000      36.47000000      21.27100000
 O      35.88700000      28.73100000      38.53900000
 H      35.29700000      28.64700000      37.77100000
 H      35.41200000      29.52300000      38.99800000
 O      35.19400000      37.25000000      13.23300000
 H      35.76100000      36.68600000      13.87100000
 H      34.84600000      36.52800000      12.67900000
 O      39.43000000      30.87600000      36.36000000
 H      38.66900000      30.52700000      36.87100000
 H      39.02400000      31.35100000      35.60900000
 O      39.27900000      39.29800000      29.98300000
 H      39.74000000      40.03300000      29.52600000
 H      38.47900000      39.30200000      29.39900000
 O      34.78900000      30.63800000      40.24100000
 H      33.92200000      30.43700000      39.80500000
 H      34.63200000      30.32000000      41.11200000
 O      39.32500000      39.38800000      25.35500000
 H      39.29300000      38.56200000      24.85000000
 H      40.26100000      39.65300000      25.01000000
 O      36.12000000      33.57100000      39.92600000
 H      36.90700000      33.41300000      39.42100000
 H      35.71100000      32.69700000      39.94700000
 O      38.33400000      40.25700000      38.47800000
 H      37.87600000      39.92100000      39.26600000
 H      37.80500000      41.09400000      38.40600000
 O      39.35500000      31.36500000      39.21400000
 H      39.27800000      31.57600000      40.14800000
 H      40.28100000      31.00500000      39.20700000
 O      35.71900000      37.71000000      38.70300000
 H      35.19400000      38.43300000      38.40200000
 H      35.10300000      36.98000000      38.67100000
 O      36.32800000      28.26400000      18.78000000
 H      36.07900000      27.39100000      18.52800000
 H      36.87100000      28.53900000      18.01800000
 O      40.17100000      30.42400000      16.61000000
 H      40.03200000      29.47900000      16.90100000
 H      39.58900000      30.43600000      15.80500000
 O      38.42000000      34.65500000       7.40400000
 H      37.54700000      34.61800000       7.09900000
 H      38.77100000      33.80200000       6.97400000
 O      39.19800000      36.58700000      40.36800000
 H      39.58000000      37.34300000      40.88200000
 H      38.25800000      36.97800000      40.38900000
 O      40.69200000      40.26200000      35.23600000
 H      41.30200000      39.47000000      35.07600000
 H      40.01200000      40.08500000      34.54300000
 O      37.28100000      31.79300000      17.97100000
 H      37.26800000      32.72900000      17.90400000
 H      38.12900000      31.60400000      18.38300000
 O      36.62400000      30.33700000      35.11900000
 H      36.20000000      29.48200000      35.37400000
 H      37.27200000      30.07700000      34.42700000
 O      35.96900000      34.01900000      27.39700000
 H      35.15800000      33.45600000      27.28100000
 H      36.63000000      33.56600000      26.83100000
 O      39.53900000      37.96500000      15.46200000
 H      39.14800000      37.41300000      14.77000000
 H      40.37000000      37.49800000      15.59800000
 O      34.98300000      40.66800000      40.23200000
 H      35.75600000      40.56500000      40.88100000
 H      35.17100000      41.53300000      39.84400000
 O      35.08300000      36.53500000      17.49200000
 H      35.85400000      36.72700000      16.92500000
 H      35.47200000      36.09700000      18.23400000
 O      34.65000000      27.19900000      13.58000000
 H      33.95000000      27.74600000      13.26700000
 H      34.21700000      26.30400000      13.56200000
 O      38.77700000      27.08000000      40.81800000
 H      38.46700000      27.93400000      41.17900000
 H      39.75700000      27.20100000      40.68700000
 O      37.49600000      40.40300000      21.86500000
 H      37.90700000      40.96400000      21.16600000
 H      37.66500000      40.92800000      22.69100000
 O      39.50400000      37.37600000       7.26200000
 H      38.88700000      36.59200000       7.31000000
 H      39.70700000      37.46500000       8.29700000
 O      40.09000000      33.95600000      28.26300000
 H      39.33500000      33.49800000      28.67100000
 H      40.47300000      33.19600000      27.76500000
 O      37.30600000      29.77300000       7.58600000
 H      38.20100000      29.36100000       7.43100000
 H      36.85800000      29.08200000       8.08400000
 O      38.75400000      27.76000000      37.94200000
 H      39.03700000      27.28100000      38.76900000
 H      37.84100000      27.99900000      38.12900000
 O      39.70700000      33.62400000       9.68100000
 H      39.33800000      33.74300000      10.58200000
 H      39.03000000      33.94500000       9.11300000
 O      40.25300000      27.10000000      24.82300000
 H      39.59300000      27.61800000      24.24000000
 H      40.65000000      27.86400000      25.26300000
 O      37.27500000      34.82100000      36.18700000
 H      36.54900000      34.11200000      36.03100000
 H      37.72700000      34.41600000      36.94800000
 O      36.00700000      38.64100000       8.69800000
 H      36.14600000      37.86800000       8.06600000
 H      36.22700000      39.36900000       8.06700000
 O      36.85600000      30.87300000      20.80800000
 H      36.52100000      30.73700000      19.88200000
 H      36.39100000      30.14300000      21.23800000
 O      39.54900000      35.94800000      13.23700000
 H      40.30400000      35.34300000      13.21700000
 H      38.98200000      35.58700000      12.50700000
 O      38.10300000      36.92500000      37.52800000
 H      37.34000000      37.20900000      38.11700000
 H      37.70700000      36.20200000      36.99100000
 O      37.76300000      32.84500000      25.81900000
 H      38.18200000      32.00700000      26.04200000
 H      37.36800000      32.64100000      24.95000000
 O      38.04200000      34.53300000      16.75800000
 H      38.08900000      35.41500000      17.07600000
 H      38.75500000      34.03500000      17.23000000
 O      39.14400000      30.73800000      11.92900000
 H      39.82100000      30.57200000      11.25700000
 H      38.38100000      30.88700000      11.33700000
 O      34.38300000      39.80500000      33.89800000
 H      34.93600000      39.10400000      34.22100000
 H      33.51500000      39.48800000      34.16500000
 O      39.93700000      27.89900000      17.41100000
 H      40.65700000      27.24700000      17.42100000
 H      39.20700000      27.23800000      17.22400000
 O      35.49200000      39.81400000      14.06000000
 H      35.79300000      38.99100000      13.70400000
 H      36.25900000      40.12200000      14.57300000
 O      37.41000000      37.41900000      33.49600000
 H      36.64100000      37.48100000      34.09300000
 H      37.03300000      37.56900000      32.62100000
 O      33.84600000      34.47800000      30.04700000
 H      34.16000000      35.01500000      29.25300000
 H      34.70600000      34.45200000      30.48600000
 O      40.20100000      37.37800000      33.88800000
 H      40.38000000      36.95400000      34.75900000
 H      39.19500000      37.50600000      33.96600000
 O      34.12300000      35.15400000      39.17300000
 H      33.80400000      35.30000000      40.06100000
 H      34.71400000      34.36900000      39.30200000
 O      36.34400000      35.92400000      24.82100000
 H      35.50500000      35.46200000      24.77000000
 H      36.92400000      35.20900000      25.08100000
 O      38.63300000      30.86400000      14.48900000
 H      38.12000000      31.71700000      14.38300000
 H      38.86300000      30.77500000      13.54100000
 O      38.64100000      39.25400000      12.59500000
 H      37.86600000      39.83400000      12.55200000
 H      38.35200000      38.44000000      12.18800000
 O      40.35000000      35.85200000      36.35600000
 H      39.48900000      36.14800000      36.74100000
 H      40.61100000      35.18400000      36.92100000
 O      38.23300000      33.99100000      11.75100000
 H      37.42300000      34.36700000      11.37100000
 H      37.77800000      33.47000000      12.49900000
 O      40.31400000      38.62700000      38.09000000
 H      39.75800000      37.92500000      37.62600000
 H      39.65600000      39.38800000      38.05400000
 O      35.44300000      38.78800000      24.30900000
 H      35.91100000      38.47200000      23.52400000
 H      34.90600000      38.06700000      24.59700000
 O      34.90100000      27.88200000      28.71100000
 H      35.27600000      27.07700000      29.12900000
 H      35.10500000      27.73300000      27.79700000
 O      36.31200000      39.99800000      29.68100000
 H      36.01900000      39.58400000      28.87100000
 H      36.51200000      39.21900000      30.27400000
 O      38.55100000      33.74300000      38.28600000
 H      39.31300000      34.31900000      38.41700000
 H      38.94600000      32.86500000      38.57400000
 O      35.47900000      28.64200000      21.46700000
 H      35.65200000      27.77900000      21.20300000
 H      34.75100000      28.88700000      20.87800000
 O      35.24200000      31.11700000      12.18400000
 H      34.51100000      31.69700000      12.48500000
 H      35.07100000      30.92200000      11.29100000
 O      37.85300000      29.39100000      32.59700000
 H      38.74000000      29.48700000      32.90900000
 H      37.81300000      28.42800000      32.38000000
 O      35.44900000      36.64400000      28.43200000
 H      34.72600000      36.49400000      27.78800000
 H      35.96100000      35.79800000      28.26000000
 O      36.96000000      35.70500000      14.69500000
 H      37.31900000      35.22200000      15.49400000
 H      37.76200000      35.61500000      14.10600000
 O      36.77200000      28.64900000      12.51200000
 H      36.36600000      29.55200000      12.37900000
 H      35.97500000      28.20300000      12.90900000
 O      36.90400000      32.77100000      13.62400000
 H      36.31800000      33.21300000      14.26500000
 H      36.31900000      32.12400000      13.22700000
 O      39.37800000      35.17700000      25.62600000
 H      38.90400000      34.32000000      25.81800000
 H      39.87300000      35.31800000      26.43300000
 O      36.15400000      35.36900000      10.47100000
 H      35.32900000      35.47900000      11.06100000
 H      35.68600000      35.37800000       9.59300000
 O      37.14700000      36.81300000      22.27400000
 H      36.70200000      36.52600000      23.11100000
 H      38.04400000      36.88700000      22.52300000
 O      37.96900000      32.12800000      29.15800000
 H      37.38800000      31.49200000      29.50600000
 H      37.39400000      32.87900000      28.90200000
 O      40.44900000      32.79100000      18.02400000
 H      40.45200000      31.82900000      17.74300000
 H      40.40800000      32.62500000      19.01200000
 O      36.77400000      32.06300000      23.32700000
 H      36.89200000      31.46200000      22.54500000
 H      35.84400000      32.34400000      23.15400000
 O      36.63700000      29.81600000      16.29500000
 H      37.45900000      29.91700000      15.75900000
 H      36.60200000      30.67100000      16.78500000
 O      35.73600000      29.04900000      24.17200000
 H      34.95500000      29.65700000      24.36700000
 H      35.54700000      28.89400000      23.17100000
 O      38.56200000      28.77800000      23.72500000
 H      37.56400000      28.88400000      23.77700000
 H      38.84000000      29.61200000      24.09600000
 O      35.29400000      30.43800000      26.93800000
 H      36.17900000      30.05900000      26.78600000
 H      35.03400000      29.96000000      27.72200000
 O      38.20100000      34.81700000      33.45100000
 H      37.86900000      34.58300000      34.37600000
 H      37.94600000      35.72800000      33.39600000
 O      38.82000000      31.92500000      33.92800000
 H      38.89200000      31.94100000      32.98300000
 H      38.65500000      32.87700000      34.13400000
 O      38.12300000      37.64200000      27.72600000
 H      38.44800000      38.38500000      27.25500000
 H      37.19200000      37.50700000      27.43300000
 O      37.47800000      28.80400000      27.09900000
 H      37.70600000      27.88200000      26.98600000
 H      38.14600000      29.35000000      26.73800000
 O      40.07100000      29.19800000       7.55600000
 H      39.71100000      28.31700000       7.82300000
 H      41.01900000      28.92900000       7.45800000
 O      36.29300000      37.53000000      31.05100000
 H      37.14700000      37.07000000      30.83900000
 H      35.72900000      37.09400000      30.41100000
 O      35.13300000      37.48000000      35.19600000
 H      34.49000000      36.93800000      34.76000000
 H      34.62000000      37.55900000      36.03700000
 O      36.05800000      30.62700000      30.09300000
 H      36.66400000      30.39400000      30.84400000
 H      35.78600000      29.70800000      29.85100000
 O      35.78000000      32.75300000      35.53300000
 H      36.17900000      31.88500000      35.69500000
 H      35.11300000      32.55300000      34.90300000
 O      40.20100000      37.42100000       9.80300000
 H      40.91800000      37.64300000      10.41500000
 H      39.40100000      37.78300000      10.19800000
 O      39.12800000      38.27300000      20.04100000
 H      38.33600000      38.31700000      20.63100000
 H      39.76500000      37.76600000      20.63900000
 O      39.84200000      39.88000000      32.61000000
 H      40.01300000      38.93200000      32.80100000
 H      39.57000000      39.82800000      31.67400000
 O      34.88600000      39.31700000      27.23900000
 H      34.05800000      38.80300000      27.21300000
 H      35.14400000      39.15900000      26.32900000
 O      39.91900000      31.60800000      20.66600000
 H      40.34200000      30.75800000      20.88800000
 H      39.02500000      31.46000000      21.03900000
 O      38.87400000      28.33400000      20.05200000
 H      39.25900000      28.18500000      19.14100000
 H      37.92700000      28.13700000      19.88700000
 O      37.11400000      30.96600000      10.16500000
 H      36.84400000      30.21300000       9.64100000
 H      37.21600000      31.67400000       9.50000000
 O      36.44500000      28.07400000       9.57100000
 H      36.06500000      27.15400000       9.75400000
 H      36.93400000      28.23200000      10.39900000
 O      37.46000000      37.65100000      10.89700000
 H      37.01500000      38.08200000      10.11200000
 H      37.18300000      36.71800000      10.80600000
 O      38.18400000      37.22800000      17.65700000
 H      38.58400000      37.60000000      16.83900000
 H      38.54900000      37.80200000      18.32200000
 O      39.19000000      27.27700000      12.93700000
 H      38.62400000      26.90600000      13.63900000
 H      38.52000000      27.94600000      12.53100000
 O      42.74000000      32.06400000      13.13700000
 H      41.85800000      32.05700000      12.64100000
 H      43.31300000      31.94100000      12.36500000
 O      47.75000000      31.78400000      14.88600000
 H      47.59900000      32.53100000      15.42900000
 H      46.88000000      31.62000000      14.51900000
 O      48.71200000      38.10100000      14.33700000
 H      48.60100000      38.29700000      13.40800000
 H      48.15800000      38.78900000      14.79200000
 O      45.56800000      31.66800000      22.42800000
 H      45.73600000      30.73000000      22.24300000
 H      44.94600000      31.55100000      23.21200000
 O      46.54700000      36.04600000      28.41800000
 H      45.85400000      35.55700000      28.81900000
 H      47.31400000      35.49500000      28.40500000
 O      46.95600000      39.83700000      37.35200000
 H      47.52500000      39.61000000      38.12700000
 H      46.15900000      40.22000000      37.76900000
 O      48.41200000      28.00200000      26.89300000
 H      48.86900000      28.55600000      27.52800000
 H      47.73500000      28.55700000      26.54400000
 O      44.45700000      38.25100000      10.39900000
 H      44.47900000      37.36900000      10.01100000
 H      44.48500000      38.85400000       9.60500000
 O      43.91800000      29.04700000      11.18500000
 H      43.70500000      29.28100000      12.15800000
 H      43.53000000      29.83500000      10.76400000
 O      44.55000000      40.61300000      37.94600000
 H      43.65600000      40.94600000      37.66100000
 H      44.56700000      40.94200000      38.90500000
 O      46.63400000      31.16200000      29.26700000
 H      46.06100000      30.55100000      29.80000000
 H      47.21600000      31.56000000      29.95800000
 O      46.79200000      35.68900000      36.79900000
 H      46.32600000      36.41800000      36.25900000
 H      46.91600000      35.01800000      36.11400000
 O      43.40100000      30.47600000      39.39200000
 H      44.12000000      30.81000000      38.83200000
 H      43.78000000      29.60700000      39.66100000
 O      42.34200000      29.46100000      21.69700000
 H      41.56600000      28.88100000      21.36400000
 H      43.05800000      28.89700000      21.51500000
 O      47.17700000      31.19500000      34.67200000
 H      47.07100000      32.15800000      34.82600000
 H      48.06200000      31.02900000      35.13300000
 O      43.28200000      36.37600000      27.76200000
 H      43.18200000      36.61800000      28.73700000
 H      43.25400000      35.40300000      27.88000000
 O      42.13100000      30.19100000      28.26700000
 H      41.86900000      30.27400000      29.21100000
 H      42.45000000      29.30600000      28.23700000
 O      45.78200000      29.73300000      24.33200000
 H      46.02200000      30.16600000      25.16900000
 H      46.62400000      29.55400000      23.89500000
 O      42.99300000      29.69500000      24.58200000
 H      43.95900000      29.55500000      24.64700000
 H      42.87600000      29.59000000      23.60800000
 O      48.11600000      39.02800000      11.28000000
 H      48.46200000      39.88600000      10.97000000
 H      47.18300000      39.30700000      11.47700000
 O      45.21800000      26.77300000      23.64000000
 H      45.52300000      27.71400000      23.55100000
 H      45.14700000      26.76100000      24.65300000
 O      46.93100000      30.59200000      26.66200000
 H      47.60200000      31.29300000      26.51900000
 H      46.57000000      30.86500000      27.52500000
 O      43.96800000      31.58000000      15.65300000
 H      43.71400000      31.58200000      14.69000000
 H      43.16900000      31.19900000      16.01700000
 O      47.27500000      36.28100000      17.14400000
 H      48.16400000      36.47000000      17.58000000
 H      47.33400000      37.01200000      16.44200000
 O      44.33700000      37.62800000      33.78700000
 H      43.35500000      37.60700000      33.63800000
 H      44.31600000      37.92900000      34.71200000
 O      42.23800000      28.67300000      36.54700000
 H      41.51800000      28.28000000      37.04700000
 H      41.90700000      29.61800000      36.50800000
 O      45.53300000      35.19600000       6.56300000
 H      45.16900000      35.22300000       5.65300000
 H      44.76300000      34.82800000       7.00300000
 O      45.42500000      31.00500000      37.44300000
 H      44.72100000      31.26200000      36.87600000
 H      46.05300000      30.63200000      36.77300000
 O      47.34100000      33.48800000      18.97600000
 H      46.80900000      33.26500000      18.20200000
 H      48.15500000      33.83400000      18.50200000
 O      46.73900000      27.85900000       7.20200000
 H      46.85200000      28.28000000       8.14000000
 H      46.73100000      26.89300000       7.54200000
 O      42.73300000      29.55500000      33.66700000
 H      42.59300000      29.65900000      34.62000000
 H      43.64400000      29.15300000      33.68400000
 O      47.41200000      32.46000000      39.46900000
 H      46.62000000      33.06500000      39.47000000
 H      47.23900000      31.94200000      38.70000000
 O      42.77100000      32.98700000      40.60700000
 H      43.12900000      32.19600000      40.17500000
 H      42.10300000      32.55000000      41.24200000
 O      43.34700000      39.71400000      24.78500000
 H      43.88800000      39.04500000      25.25000000
 H      43.86800000      39.78700000      23.95300000
 O      42.54200000      35.20300000      39.41100000
 H      41.90000000      35.74000000      39.92100000
 H      42.42600000      34.31900000      39.87400000
 O      43.61800000      34.36600000      16.27500000
 H      43.08000000      33.88300000      16.99700000
 H      43.38300000      33.75000000      15.51600000
 O      46.27200000      35.12400000      14.61400000
 H      45.31100000      35.08500000      14.62500000
 H      46.49600000      35.34900000      15.51300000
 O      48.57900000      38.90700000      20.94100000
 H      49.17700000      39.66100000      20.74500000
 H      47.87000000      38.99000000      20.26300000
 O      47.86400000      29.54200000      22.84100000
 H      47.68300000      29.87600000      21.95300000
 H      48.76100000      29.86300000      22.96200000
 O      45.70500000      34.60200000      25.17200000
 H      44.82800000      34.13700000      25.24100000
 H      45.77200000      34.62300000      24.17300000
 O      44.80500000      32.20200000      11.20500000
 H      45.01700000      33.19200000      11.26500000
 H      45.64800000      31.80900000      10.95700000
 O      48.11400000      34.48900000      26.38200000
 H      47.23600000      34.29300000      25.99500000
 H      48.19000000      35.46300000      26.01900000
 O      45.51800000      29.46000000      33.61800000
 H      45.89300000      28.84400000      34.30900000
 H      46.06200000      30.25900000      33.84100000
 O      45.71600000      28.40300000      13.70400000
 H      45.79900000      29.09400000      13.04500000
 H      44.76400000      28.25500000      13.76000000
 O      46.33700000      38.81600000      15.65200000
 H      45.58700000      38.40000000      15.16500000
 H      46.03100000      39.73900000      15.79600000
 O      45.39100000      38.68900000      40.29100000
 H      46.28200000      38.82700000      40.07700000
 H      45.15700000      37.88100000      39.83200000
 O      48.83900000      38.44600000      32.13300000
 H      47.87100000      38.61500000      32.04300000
 H      48.97700000      37.98900000      31.26600000
 O      45.12300000      36.36500000      39.05100000
 H      45.52700000      36.42500000      38.21600000
 H      44.32300000      35.82800000      38.91600000
 O      47.78800000      29.06200000      19.58900000
 H      48.68300000      28.97800000      19.97900000
 H      47.80600000      28.51800000      18.86400000
 O      46.04200000      32.37100000      16.95800000
 H      46.15300000      31.56900000      17.43700000
 H      45.29900000      32.08900000      16.37700000
 O      46.57100000      39.30600000      26.26400000
 H      45.98800000      38.63400000      25.85800000
 H      46.75200000      39.85200000      25.46700000
 O      43.57000000      37.14000000      15.00100000
 H      44.09700000      37.37600000      14.18900000
 H      43.31100000      36.21800000      14.91900000
 O      42.94200000      36.96300000      30.49900000
 H      42.90500000      36.30700000      31.19700000
 H      42.16100000      37.52900000      30.69100000
 O      43.39600000      26.85000000       9.57000000
 H      43.47700000      27.73100000      10.11500000
 H      42.86700000      26.36200000      10.16800000
 O      47.79300000      31.29300000       8.64200000
 H      47.75100000      32.04600000       8.07300000
 H      48.46400000      30.77700000       8.10100000
 O      43.02100000      32.65800000       6.69500000
 H      43.52500000      32.77100000       5.87000000
 H      43.75000000      32.22600000       7.23000000
 O      44.73100000      37.54900000      25.75100000
 H      44.03300000      37.19600000      26.39400000
 H      45.15900000      36.68500000      25.62500000
 O      45.31900000      29.32200000      30.87100000
 H      45.45400000      29.30600000      31.87800000
 H      45.44500000      28.38000000      30.69400000
 O      42.19500000      34.80100000      32.15700000
 H      41.42300000      35.13900000      32.61000000
 H      41.83700000      33.87800000      31.94000000
 O      44.80300000      28.24500000      20.83600000
 H      44.49600000      28.05500000      19.99700000
 H      45.75300000      28.45300000      20.65200000
 O      44.80900000      35.92300000      18.07400000
 H      45.72100000      36.01900000      17.67300000
 H      44.30600000      35.67900000      17.25000000
 O      42.81100000      39.30500000      40.39100000
 H      43.64800000      39.04300000      40.02500000
 H      42.19300000      39.02700000      39.69100000
 O      46.23100000      38.66900000      31.67500000
 H      45.54100000      38.06600000      32.10900000
 H      45.99600000      38.48400000      30.70000000
 O      44.39700000      39.32600000      22.29000000
 H      44.62900000      38.52500000      22.75300000
 H      43.99600000      38.90200000      21.49800000
 O      45.89500000      38.75200000      28.85100000
 H      45.90900000      37.77200000      28.58900000
 H      46.01000000      39.12700000      27.97100000
 O      45.93900000      29.48900000      16.92400000
 H      45.34200000      29.60600000      16.15200000
 H      45.60600000      28.71500000      17.41600000
 O      43.01700000      33.49900000      21.99400000
 H      43.83200000      33.68300000      21.41800000
 H      42.70600000      32.68000000      21.60100000
 O      42.73300000      27.20900000      40.75100000
 H      43.25300000      26.37400000      40.94400000
 H      43.48300000      27.88500000      40.77400000
 O      48.62700000      36.50900000      22.08000000
 H      48.47500000      37.40000000      21.72500000
 H      47.69000000      36.19800000      22.25800000
 O      42.84600000      36.39200000      21.54800000
 H      43.22600000      36.91000000      20.77800000
 H      43.21600000      35.50100000      21.39000000
 O      48.36400000      34.78200000      12.93400000
 H      48.20000000      35.34200000      12.19300000
 H      47.55200000      34.85800000      13.47500000
 O      43.42400000      32.15000000      27.27300000
 H      43.30800000      31.29700000      27.68700000
 H      43.37800000      31.94900000      26.34600000
 O      44.08400000      38.31900000      36.32500000
 H      44.51300000      39.06800000      36.86400000
 H      43.29900000      38.17700000      36.82500000
 O      48.28900000      36.25900000      34.04300000
 H      48.46100000      36.60300000      33.15200000
 H      48.77400000      36.79000000      34.64800000
 O      46.49200000      28.19800000      35.69700000
 H      45.92000000      27.63000000      36.29900000
 H      47.34500000      28.11700000      36.21300000
 O      46.74900000      39.16500000      19.02800000
 H      46.26800000      38.41400000      18.50200000
 H      45.92200000      39.40800000      19.54900000
 O      46.37400000      34.30900000      22.60100000
 H      45.88600000      34.47600000      21.82300000
 H      46.23400000      33.38400000      22.71000000
 O      42.82100000      40.33400000      13.46300000
 H      42.83800000      40.66900000      12.55400000
 H      42.22500000      39.62800000      13.40900000
 O      48.78600000      35.62700000      31.11000000
 H      48.15200000      34.91300000      31.34100000
 H      49.31700000      35.18600000      30.39900000
 O      42.61300000      31.13000000      10.00900000
 H      43.56200000      31.33200000       9.81400000
 H      42.18300000      31.65400000       9.23600000
 O      44.50800000      39.80500000       8.36100000
 H      44.10600000      39.18900000       7.69000000
 H      44.03000000      40.63800000       8.15700000
 O      42.76500000      30.26200000      31.19600000
 H      43.65900000      29.98800000      30.97000000
 H      42.69100000      30.03900000      32.19300000
 O      43.41500000      33.27100000      24.66900000
 H      43.22400000      33.17600000      23.68900000
 H      42.76200000      34.02700000      24.77800000
 O      47.83900000      31.82100000      31.79100000
 H      47.60800000      31.63700000      32.73000000
 H      47.40700000      32.70300000      31.68100000
 O      44.92800000      34.30700000      20.17100000
 H      44.74400000      34.71700000      19.30500000
 H      45.69800000      33.75100000      19.86200000
 O      43.77000000      28.01900000      28.14300000
 H      44.44600000      28.22600000      28.78800000
 H      44.22600000      27.52700000      27.44900000
 O      45.38100000      38.12800000      13.16300000
 H      45.30000000      37.82500000      12.19100000
 H      45.53900000      39.08000000      13.02800000
 O      48.18300000      40.25500000      34.89200000
 H      47.41100000      40.85300000      34.45100000
 H      47.66500000      40.10700000      35.72000000
 O      43.33800000      39.09900000      17.51000000
 H      43.47700000      38.60900000      16.68400000
 H      42.81300000      39.86800000      17.17200000
 O      46.35400000      28.48300000       9.63000000
 H      45.44600000      28.30300000       9.92900000
 H      46.67000000      28.98100000      10.43800000
 O      44.59900000      33.81300000      29.01700000
 H      43.72000000      33.54500000      29.43000000
 H      44.55000000      33.15000000      28.26000000
 O      44.90500000      30.93600000       8.10900000
 H      44.81900000      30.00100000       7.80400000
 H      45.85300000      30.91900000       8.35300000
 O      47.34000000      30.39700000      11.12400000
 H      48.04900000      30.90300000      11.53300000
 H      47.36300000      30.74000000      10.18400000
 O      46.14000000      40.59000000      12.53900000
 H      46.05000000      41.47200000      12.09600000
 H      45.89000000      40.84100000      13.42100000
 O      43.37400000      35.11100000       9.37300000
 H      42.56200000      34.53900000       9.40000000
 H      43.09100000      35.91000000       9.02600000
 O      43.46600000      34.70600000      13.33800000
 H      43.25600000      33.74200000      13.22400000
 H      44.22100000      34.78000000      12.69600000
 O      45.26500000      34.75000000      11.38700000
 H      46.06600000      35.38900000      11.25100000
 H      44.68100000      35.09300000      10.66900000
 O      48.20900000      39.00500000      39.68400000
 H      48.41400000      38.41300000      40.46700000
 H      49.05100000      38.95800000      39.21500000
 O      42.91600000      28.65100000      13.60900000
 H      42.45200000      27.82900000      13.26500000
 H      42.18400000      29.07700000      14.04600000
 O      45.00300000      28.50100000      40.16900000
 H      45.70600000      29.14100000      40.44200000
 H      45.61400000      27.70300000      40.12700000
 O      49.15000000      26.90000000      17.31400000
 H      48.28100000      26.52600000      17.32600000
 H      48.95200000      27.81100000      16.90800000
 O      46.53100000      34.21900000      31.05600000
 H      46.09400000      34.12100000      30.23300000
 H      45.84200000      34.62300000      31.61700000
 O      44.71100000      34.98800000      33.01000000
 H      43.76900000      34.80000000      32.76300000
 H      44.66500000      35.95100000      33.14800000
 O      47.44900000      36.22900000      10.74700000
 H      47.92400000      35.72900000      10.01000000
 H      47.72600000      37.12300000      10.56000000
 O      48.35500000      27.85500000      13.46600000
 H      48.65600000      28.21700000      14.28400000
 H      47.37600000      27.90800000      13.58900000
 O      44.11300000      37.88000000      19.69900000
 H      44.29800000      37.01700000      19.20800000
 H      43.78100000      38.37000000      18.95800000
 O      48.42000000      31.70100000      20.79500000
 H      48.10800000      30.99300000      20.20800000
 H      48.02000000      32.49200000      20.36000000
 O      46.83000000      33.92600000      34.47700000
 H      47.36800000      34.75800000      34.33700000
 H      46.02400000      34.13500000      33.97700000
 O      48.53200000      29.39800000      16.51200000
 H      47.55000000      29.38400000      16.59500000
 H      48.67700000      30.22300000      16.07100000
 O      48.70300000      38.79300000      28.89600000
 H      48.36500000      39.71900000      29.05100000
 H      47.88200000      38.26400000      29.05800000
 O      43.37600000      32.46500000      36.26800000
 H      42.52400000      32.10800000      36.26600000
 H      43.50000000      32.92800000      35.41600000
