633
XYZ file of cluster: frame_11000_2600e.9ebfb.9be1e - created by MolEdiTo
 O       7.65900000      27.64500000      36.65900000
 H       7.69600000      27.38800000      37.63100000
 H       8.11800000      28.46800000      36.64300000
 O      21.11300000      39.26200000      33.51400000
 H      20.22900000      39.11900000      33.01600000
 H      20.76200000      39.68700000      34.32800000
 O      29.46000000      36.69300000      36.21200000
 H      29.37800000      36.92400000      35.27600000
 H      28.71100000      36.10600000      36.41300000
 O      18.18100000      38.25500000      35.42300000
 H      17.76800000      37.50800000      35.00300000
 H      17.52000000      38.97200000      35.14900000
 O      28.02300000      34.46500000      37.18000000
 H      27.10100000      34.52200000      36.95000000
 H      28.17100000      33.53900000      36.80300000
 O      38.82400000      36.05500000      29.75800000
 H      39.60500000      35.57600000      29.36900000
 H      38.60700000      36.62600000      28.97400000
 O       8.15600000      32.08600000      29.31600000
 H       8.24100000      33.03600000      29.34500000
 H       7.85600000      31.81000000      30.20900000
 O      28.91200000      27.56300000      35.62100000
 H      29.81200000      27.19200000      35.80900000
 H      28.71200000      28.01700000      36.43000000
 O      26.09300000      30.54400000      35.92100000
 H      25.98600000      30.17100000      36.76900000
 H      25.34600000      31.16000000      35.88000000
 O      31.53400000      31.83000000      36.76700000
 H      31.62300000      31.92600000      35.79900000
 H      30.55700000      31.96300000      36.85900000
 O      12.08100000      39.83300000      30.58100000
 H      11.30800000      40.49400000      30.63500000
 H      12.29400000      40.02200000      29.62900000
 O      15.14800000      36.04900000      32.06600000
 H      14.81800000      35.11600000      32.00800000
 H      16.10300000      35.82500000      31.86900000
 O      36.67100000      34.66300000      30.95800000
 H      37.38200000      35.20800000      30.53200000
 H      37.17600000      34.17400000      31.64200000
 O      16.57000000      31.10800000      35.46400000
 H      17.52800000      30.93800000      35.57800000
 H      16.31600000      31.25800000      36.38700000
 O      14.33100000      28.28600000      32.91500000
 H      13.82200000      28.93500000      32.29900000
 H      13.96000000      27.46200000      32.57900000
 O      19.21500000      30.58000000      35.82700000
 H      19.26700000      31.53000000      35.54100000
 H      20.14000000      30.39200000      35.92000000
 O      39.60200000      32.28200000      31.31500000
 H      40.17400000      31.55700000      31.12500000
 H      38.94700000      32.24000000      30.58200000
 O      31.68900000      39.34400000      34.16800000
 H      31.89700000      38.41100000      33.95100000
 H      31.18500000      39.22300000      35.02000000
 O      11.95200000      29.46200000      39.21500000
 H      12.70300000      28.84200000      38.88500000
 H      12.13300000      29.35000000      40.19400000
 O      15.39100000      30.13500000      27.82600000
 H      14.76700000      30.41300000      27.11400000
 H      16.13900000      30.73100000      27.52400000
 O       9.82700000      29.25300000      37.05500000
 H      10.56100000      28.77500000      36.53300000
 H      10.31900000      29.41200000      37.85800000
 O      13.43200000      35.38600000      36.01600000
 H      14.11000000      36.07600000      36.19000000
 H      14.00200000      34.71000000      35.51500000
 O      35.88700000      28.73100000      38.53900000
 H      35.29700000      28.64700000      37.77100000
 H      35.41200000      29.52300000      38.99800000
 O      13.82100000      33.23700000      28.26300000
 H      14.23600000      32.49800000      28.77200000
 H      12.92500000      33.26500000      28.66300000
 O      26.47100000      30.06700000      31.54000000
 H      25.50900000      30.18900000      31.31600000
 H      26.41400000      29.53900000      32.34700000
 O      19.80200000      40.04400000      29.33200000
 H      20.50300000      39.86800000      30.02300000
 H      19.66200000      41.02300000      29.52000000
 O      39.43000000      30.87600000      36.36000000
 H      38.66900000      30.52700000      36.87100000
 H      39.02400000      31.35100000      35.60900000
 O      39.27900000      39.29800000      29.98300000
 H      39.74000000      40.03300000      29.52600000
 H      38.47900000      39.30200000      29.39900000
 O      34.78900000      30.63800000      40.24100000
 H      33.92200000      30.43700000      39.80500000
 H      34.63200000      30.32000000      41.11200000
 O      10.11700000      28.56200000      30.90700000
 H      10.17800000      27.64900000      31.35900000
 H      11.01400000      28.93900000      31.33700000
 O      22.98100000      27.70000000      38.98000000
 H      22.36200000      28.38200000      38.74800000
 H      23.23700000      27.91500000      39.88900000
 O      11.69600000      33.96500000      37.38100000
 H      12.19700000      34.76900000      37.14500000
 H      12.41000000      33.31000000      37.24400000
 O      36.12000000      33.57100000      39.92600000
 H      36.90700000      33.41300000      39.42100000
 H      35.71100000      32.69700000      39.94700000
 O      30.46000000      39.32600000      36.82000000
 H      30.11600000      39.65500000      37.66300000
 H      29.89500000      38.54300000      36.65000000
 O      18.24800000      38.15300000      39.39000000
 H      17.49000000      38.63000000      39.76100000
 H      18.99300000      38.58600000      39.94500000
 O      32.57600000      39.21400000      40.06300000
 H      32.94600000      38.42000000      40.57600000
 H      33.37100000      39.84400000      40.18900000
 O      18.62400000      38.80600000      32.11500000
 H      18.36000000      39.66400000      31.83500000
 H      17.94500000      38.25200000      31.71700000
 O      31.66100000      28.19100000      38.04100000
 H      31.86700000      29.09800000      38.44800000
 H      30.68900000      28.20500000      38.21600000
 O      24.62000000      38.14900000      38.62500000
 H      24.23200000      38.90800000      38.97500000
 H      25.38000000      38.53100000      38.21500000
 O      28.98300000      28.29900000      38.39400000
 H      28.30000000      29.05500000      38.35800000
 H      28.64500000      27.87000000      39.18200000
 O      18.21100000      32.00100000      31.09600000
 H      19.18100000      32.16100000      31.18100000
 H      17.92600000      32.79400000      30.63700000
 O       8.09900000      35.64700000      37.07500000
 H       7.12400000      35.75900000      36.97100000
 H       8.43200000      36.52900000      36.76100000
 O      38.33400000      40.25700000      38.47800000
 H      37.87600000      39.92100000      39.26600000
 H      37.80500000      41.09400000      38.40600000
 O      27.14500000      39.32300000      37.36700000
 H      27.53200000      39.20500000      36.46200000
 H      27.95400000      39.33100000      37.89100000
 O      39.35500000      31.36500000      39.21400000
 H      39.27800000      31.57600000      40.14800000
 H      40.28100000      31.00500000      39.20700000
 O      35.71900000      37.71000000      38.70300000
 H      35.19400000      38.43300000      38.40200000
 H      35.10300000      36.98000000      38.67100000
 O      14.57000000      33.27400000      38.23400000
 H      15.49700000      32.87700000      38.10000000
 H      13.99600000      32.53700000      37.95300000
 O      20.13900000      37.12100000      36.96800000
 H      20.13100000      37.98100000      37.44900000
 H      19.33600000      37.29100000      36.41800000
 O      30.97200000      38.46400000      30.05300000
 H      31.93600000      38.43100000      29.93800000
 H      30.72600000      37.54400000      30.15000000
 O      20.17100000      30.83300000      28.86500000
 H      20.52700000      30.73500000      29.74100000
 H      20.58200000      31.67200000      28.52700000
 O      19.88000000      28.50600000      31.52100000
 H      20.51100000      29.19600000      31.29200000
 H      19.10300000      28.62600000      30.96100000
 O      10.37900000      33.90200000      33.47700000
 H      10.23800000      34.84100000      33.33600000
 H       9.67000000      33.68200000      34.16100000
 O      23.28400000      32.32800000      30.31000000
 H      23.77300000      33.09400000      30.70100000
 H      23.85000000      32.14700000      29.51400000
 O      22.60000000      36.15700000      33.62900000
 H      23.49400000      35.77600000      33.44200000
 H      22.87900000      36.91800000      34.18600000
 O      39.19800000      36.58700000      40.36800000
 H      39.58000000      37.34300000      40.88200000
 H      38.25800000      36.97800000      40.38900000
 O      40.69200000      40.26200000      35.23600000
 H      41.30200000      39.47000000      35.07600000
 H      40.01200000      40.08500000      34.54300000
 O      15.18700000      29.64200000      40.04500000
 H      15.02100000      28.98200000      39.34300000
 H      16.02000000      29.27000000      40.38800000
 O      36.62400000      30.33700000      35.11900000
 H      36.20000000      29.48200000      35.37400000
 H      37.27200000      30.07700000      34.42700000
 O      28.91700000      32.04800000      36.07800000
 H      28.06600000      31.52400000      36.05500000
 H      29.05100000      32.04400000      35.08200000
 O      13.02300000      31.30700000      37.29700000
 H      13.40100000      30.70600000      36.68400000
 H      12.50900000      30.75100000      37.88700000
 O      34.98300000      40.66800000      40.23200000
 H      35.75600000      40.56500000      40.88100000
 H      35.17100000      41.53300000      39.84400000
 O      29.36900000      28.15000000      28.49500000
 H      30.13300000      27.60100000      28.34400000
 H      28.71600000      27.41100000      28.55100000
 O      15.18600000      30.60000000      30.73800000
 H      16.16400000      30.58500000      30.68700000
 H      14.95000000      30.08500000      29.95400000
 O      15.35900000      33.56700000      34.72700000
 H      15.07000000      33.28900000      33.83200000
 H      15.84300000      32.71600000      34.99300000
 O      20.15900000      28.46900000      27.29600000
 H      20.04400000      29.29800000      27.76100000
 H      21.11800000      28.34500000      27.35800000
 O      31.54700000      35.20500000      31.74000000
 H      31.07900000      35.31600000      30.89900000
 H      32.41300000      34.82900000      31.47500000
 O      21.94300000      37.86100000      28.48500000
 H      21.57300000      37.77400000      27.58700000
 H      21.51600000      38.70700000      28.72400000
 O      38.77700000      27.08000000      40.81800000
 H      38.46700000      27.93400000      41.17900000
 H      39.75700000      27.20100000      40.68700000
 O      21.93100000      37.89800000      39.69500000
 H      21.59000000      38.63200000      39.13600000
 H      22.68000000      37.70300000      39.12900000
 O      12.06500000      28.00500000      36.22900000
 H      12.88700000      28.52400000      35.97500000
 H      12.51800000      27.39800000      36.86400000
 O      18.11900000      38.52900000      28.07500000
 H      18.71500000      39.01400000      28.75300000
 H      18.82500000      38.24100000      27.41600000
 O      40.09000000      33.95600000      28.26300000
 H      39.33500000      33.49800000      28.67100000
 H      40.47300000      33.19600000      27.76500000
 O       9.29400000      33.29200000      36.20900000
 H       8.76000000      34.04900000      36.53700000
 H      10.18000000      33.57300000      36.54400000
 O      38.75400000      27.76000000      37.94200000
 H      39.03700000      27.28100000      38.76900000
 H      37.84100000      27.99900000      38.12900000
 O      29.46700000      35.40400000      29.91400000
 H      29.89200000      34.48600000      29.82300000
 H      28.81700000      35.23100000      29.18100000
 O      28.04500000      37.66700000      30.43700000
 H      28.40500000      36.88000000      30.07400000
 H      27.31200000      37.28200000      30.94200000
 O      12.79000000      36.96400000      30.72200000
 H      12.89500000      37.85000000      31.10800000
 H      13.52900000      36.53900000      31.18800000
 O       8.11800000      37.96400000      36.00500000
 H       8.91900000      38.51100000      36.17900000
 H       7.45200000      38.67100000      35.88500000
 O      19.23300000      33.29200000      35.41600000
 H      18.73900000      33.66200000      34.59000000
 H      19.89000000      34.03300000      35.44600000
 O      14.23900000      29.26300000      35.28100000
 H      14.24500000      28.85900000      34.43000000
 H      15.11100000      29.74300000      35.26900000
 O      13.93300000      35.67400000      39.04700000
 H      13.92200000      34.71600000      38.88400000
 H      14.72100000      35.91300000      38.46600000
 O      28.52300000      30.75700000      29.62600000
 H      27.90400000      30.45500000      30.31900000
 H      28.68700000      29.98800000      29.09000000
 O      21.14500000      33.06900000      27.91500000
 H      20.90800000      33.88800000      28.41800000
 H      21.78800000      33.43300000      27.31300000
 O      11.57000000      27.42800000      28.16700000
 H      11.48500000      27.91200000      27.34800000
 H      10.96900000      27.88200000      28.72300000
 O      11.66900000      38.49900000      33.73400000
 H      11.24600000      37.65900000      33.46400000
 H      11.17600000      39.13900000      33.19100000
 O      15.44200000      37.09000000      37.25100000
 H      16.12400000      36.93900000      36.49400000
 H      15.25000000      38.03600000      37.09100000
 O      37.27500000      34.82100000      36.18700000
 H      36.54900000      34.11200000      36.03100000
 H      37.72700000      34.41600000      36.94800000
 O      32.87700000      29.26100000      34.15400000
 H      33.18200000      28.34700000      34.10000000
 H      32.20400000      29.31600000      33.41100000
 O      10.63500000      31.24300000      27.77300000
 H       9.82900000      30.80300000      28.10800000
 H      11.32100000      30.64500000      27.74700000
 O      27.50900000      30.11300000      39.69300000
 H      27.19000000      31.00100000      39.94000000
 H      26.65900000      29.62200000      39.63600000
 O      25.07500000      39.19300000      34.50700000
 H      24.38900000      39.16700000      33.78300000
 H      25.15600000      40.16900000      34.58200000
 O      38.10300000      36.92500000      37.52800000
 H      37.34000000      37.20900000      38.11700000
 H      37.70700000      36.20200000      36.99100000
 O      22.34500000      40.75200000      30.70800000
 H      22.31100000      41.43000000      29.98100000
 H      21.77000000      41.23600000      31.34900000
 O      34.38300000      39.80500000      33.89800000
 H      34.93600000      39.10400000      34.22100000
 H      33.51500000      39.48800000      34.16500000
 O       7.41600000      38.44600000      32.13300000
 H       6.44800000      38.61500000      32.04300000
 H       7.55400000      37.98900000      31.26600000
 O      32.26200000      35.71300000      36.45500000
 H      31.30400000      35.89800000      36.63400000
 H      32.63000000      35.86500000      37.34000000
 O       9.75800000      39.03000000      39.70200000
 H       9.85900000      38.90800000      40.67100000
 H      10.45400000      38.45000000      39.38100000
 O      33.84600000      34.47800000      30.04700000
 H      34.16000000      35.01500000      29.25300000
 H      34.70600000      34.45200000      30.48600000
 O      21.27300000      34.84200000      35.66000000
 H      21.08300000      35.49900000      36.37300000
 H      21.53500000      35.47200000      35.01600000
 O      40.20100000      37.37800000      33.88800000
 H      40.38000000      36.95400000      34.75900000
 H      39.19500000      37.50600000      33.96600000
 O      26.57900000      28.56500000      34.08000000
 H      27.32600000      28.17000000      34.58400000
 H      26.37700000      29.29100000      34.70400000
 O      37.41000000      37.41900000      33.49600000
 H      36.64100000      37.48100000      34.09300000
 H      37.03300000      37.56900000      32.62100000
 O       8.58100000      34.73800000      28.90600000
 H       8.07900000      34.95600000      28.08400000
 H       9.39800000      35.36400000      28.74200000
 O      34.12300000      35.15400000      39.17300000
 H      33.80400000      35.30000000      40.06100000
 H      34.71400000      34.36900000      39.30200000
 O      33.78400000      38.34600000      30.12100000
 H      34.37700000      38.41700000      30.85700000
 H      34.35200000      37.86200000      29.49900000
 O      23.26200000      32.90800000      35.52600000
 H      22.56900000      33.54800000      35.82100000
 H      22.69500000      32.15500000      35.30500000
 O      18.63000000      33.16700000      38.13000000
 H      18.94700000      33.27000000      37.20200000
 H      18.38700000      34.10000000      38.28300000
 O      15.88000000      39.39000000      30.97800000
 H      15.31000000      40.13500000      30.61400000
 H      15.26700000      39.04700000      31.69100000
 O      24.80500000      32.04100000      27.97600000
 H      24.51900000      32.99200000      27.87500000
 H      25.59000000      32.11000000      27.36200000
 O      23.98500000      37.16600000      36.01900000
 H      24.02800000      37.55300000      36.90100000
 H      24.40400000      37.92200000      35.51000000
 O      14.94400000      38.68800000      39.92900000
 H      14.84900000      37.72000000      39.71700000
 H      14.35200000      39.05500000      39.23800000
 O      16.55700000      31.59400000      38.07300000
 H      17.32900000      32.18100000      38.35500000
 H      16.56600000      30.97600000      38.80500000
 O      29.54200000      33.25700000      33.02500000
 H      30.36700000      33.55100000      33.47200000
 H      29.94300000      32.92800000      32.21700000
 O      40.35000000      35.85200000      36.35600000
 H      39.48900000      36.14800000      36.74100000
 H      40.61100000      35.18400000      36.92100000
 O      10.83700000      32.70400000      39.72200000
 H      11.26500000      33.07600000      38.88800000
 H       9.97900000      33.19500000      39.56800000
 O      21.62700000      34.73700000      39.66400000
 H      21.18300000      35.58600000      39.57500000
 H      22.53600000      34.99400000      39.45300000
 O      40.31400000      38.62700000      38.09000000
 H      39.75800000      37.92500000      37.62600000
 H      39.65600000      39.38800000      38.05400000
 O      14.94800000      32.94800000      31.98300000
 H      13.97100000      33.11900000      31.99800000
 H      14.86100000      31.98700000      31.71600000
 O      17.68600000      28.76900000      39.62700000
 H      17.85100000      28.61800000      38.66000000
 H      18.55300000      28.48600000      39.98700000
 O      16.45800000      33.66600000      40.59900000
 H      16.71500000      34.20700000      41.38500000
 H      16.62200000      34.25800000      39.88300000
 O      20.54200000      32.25200000      39.44900000
 H      19.86400000      32.67700000      38.79400000
 H      21.17700000      33.03000000      39.47400000
 O      34.90100000      27.88200000      28.71100000
 H      35.27600000      27.07700000      29.12900000
 H      35.10500000      27.73300000      27.79700000
 O      32.43300000      30.68300000      38.95500000
 H      32.33200000      31.09200000      38.09200000
 H      31.72600000      31.12600000      39.44100000
 O      36.31200000      39.99800000      29.68100000
 H      36.01900000      39.58400000      28.87100000
 H      36.51200000      39.21900000      30.27400000
 O      25.64800000      36.68400000      31.77600000
 H      25.30400000      37.07300000      32.55200000
 H      25.59900000      35.75600000      31.84400000
 O      32.57300000      31.92500000      30.64200000
 H      33.10000000      32.73700000      30.40700000
 H      31.69700000      32.20300000      30.22400000
 O      31.42000000      29.69800000      31.97200000
 H      31.55300000      30.59800000      31.79600000
 H      31.95500000      29.26900000      31.26000000
 O      24.68600000      34.37100000      32.85700000
 H      24.42900000      33.77100000      33.50400000
 H      25.34600000      33.84900000      32.29600000
 O      17.34200000      27.29300000      33.52100000
 H      17.53200000      28.25700000      33.38300000
 H      18.17800000      27.05400000      33.94700000
 O       9.06000000      39.96300000      33.80700000
 H       8.25800000      39.93900000      34.33100000
 H       8.73300000      39.51400000      32.99400000
 O      29.23400000      40.29600000      39.00100000
 H      28.58100000      40.57200000      39.70500000
 H      29.78200000      41.12900000      38.95800000
 O      38.55100000      33.74300000      38.28600000
 H      39.31300000      34.31900000      38.41700000
 H      38.94600000      32.86500000      38.57400000
 O      20.70300000      35.53000000      29.31600000
 H      21.29500000      36.26000000      29.06400000
 H      20.73600000      35.65800000      30.30400000
 O      29.66300000      34.83500000      39.31400000
 H      29.24800000      35.69600000      39.54600000
 H      29.13300000      34.64000000      38.53500000
 O      11.47400000      37.06400000      38.62400000
 H      11.88600000      37.34000000      37.75100000
 H      12.30700000      36.59600000      38.93100000
 O      37.85300000      29.39100000      32.59700000
 H      38.74000000      29.48700000      32.90900000
 H      37.81300000      28.42800000      32.38000000
 O       6.86600000      36.25900000      34.04300000
 H       7.03800000      36.60300000      33.15200000
 H       7.35100000      36.79000000      34.64800000
 O      30.99500000      32.25600000      40.70700000
 H      30.13500000      32.13300000      41.15500000
 H      30.73400000      33.10200000      40.16700000
 O      32.30900000      36.80300000      33.76600000
 H      31.90800000      36.15900000      33.10300000
 H      32.17400000      36.35300000      34.59600000
 O      35.44900000      36.64400000      28.43200000
 H      34.72600000      36.49400000      27.78800000
 H      35.96100000      35.79800000      28.26000000
 O       7.36300000      35.62700000      31.11000000
 H       6.72900000      34.91300000      31.34100000
 H       7.89400000      35.18600000      30.39900000
 O      33.00600000      38.92200000      37.16300000
 H      32.05700000      38.91700000      37.00500000
 H      32.97800000      39.02800000      38.15500000
 O      20.01800000      28.00200000      40.46000000
 H      20.06200000      27.02700000      40.67400000
 H      20.22400000      28.32600000      41.36800000
 O      28.16600000      34.28900000      27.74400000
 H      27.61400000      35.04200000      27.43000000
 H      27.79500000      33.53900000      27.20800000
 O      24.22300000      34.63500000      27.67400000
 H      24.35500000      35.36300000      28.36100000
 H      23.79800000      35.06900000      26.96100000
 O      26.93100000      33.34200000      31.29100000
 H      27.58800000      33.52400000      31.95700000
 H      27.40900000      32.66900000      30.76300000
 O      28.89600000      36.20200000      33.25500000
 H      28.47900000      36.57500000      32.40400000
 H      29.02900000      35.27600000      33.02700000
 O       7.89900000      30.97500000      36.47900000
 H       8.46600000      31.77800000      36.34900000
 H       8.62700000      30.43000000      36.86900000
 O      17.84600000      30.12900000      32.81400000
 H      18.07800000      30.90400000      32.35700000
 H      17.17600000      30.40900000      33.45600000
 O      17.61100000      35.71400000      38.70200000
 H      17.18300000      36.20400000      37.96500000
 H      17.98000000      36.52900000      39.18700000
 O      37.96900000      32.12800000      29.15800000
 H      37.38800000      31.49200000      29.50600000
 H      37.39400000      32.87900000      28.90200000
 O      30.22700000      32.65100000      29.12900000
 H      29.73300000      33.07900000      28.43700000
 H      29.68400000      31.80300000      29.31000000
 O      34.18900000      28.52800000      36.42700000
 H      33.30300000      28.36900000      36.80400000
 H      34.02000000      28.90000000      35.55600000
 O      24.10000000      28.48400000      30.26400000
 H      24.68000000      27.71100000      30.69400000
 H      23.85500000      27.99800000      29.47600000
 O      20.81900000      39.89900000      38.23100000
 H      20.90900000      40.74200000      38.65100000
 H      20.79800000      40.07800000      37.28000000
 O      24.55400000      36.85900000      29.26100000
 H      23.85500000      37.56300000      29.05900000
 H      24.53600000      36.83800000      30.22000000
 O      12.21600000      38.66500000      36.49300000
 H      11.28300000      39.01800000      36.63400000
 H      12.30900000      38.88400000      35.55400000
 O       9.66300000      39.73800000      37.13800000
 H       9.11800000      40.49600000      37.13800000
 H       9.79600000      39.54100000      38.09900000
 O      12.17300000      35.59800000      26.88400000
 H      12.08000000      35.40100000      27.85600000
 H      11.23000000      35.51500000      26.62300000
 O      33.73100000      31.93500000      33.27000000
 H      33.86400000      30.97700000      33.40800000
 H      33.45700000      31.91500000      32.29700000
 O      29.01300000      27.68300000      31.83500000
 H      29.50600000      28.14800000      32.57600000
 H      28.97800000      28.45800000      31.22700000
 O      17.29200000      37.08800000      30.23100000
 H      17.44000000      37.32100000      29.30000000
 H      16.74200000      37.89600000      30.52500000
 O      17.54000000      31.76900000      27.41900000
 H      18.18400000      31.37800000      27.99800000
 H      18.05100000      32.41000000      26.88500000
 O      25.52900000      28.64300000      37.80300000
 H      24.58400000      28.52100000      38.16200000
 H      25.81200000      27.68400000      37.80900000
 O      32.35900000      28.65900000      29.53200000
 H      33.19800000      28.58900000      29.04500000
 H      31.86000000      29.22700000      28.92500000
 O       9.81700000      36.57500000      32.86100000
 H       9.90300000      36.25000000      31.93600000
 H       9.02100000      37.14300000      32.77300000
 O      18.00900000      28.16600000      36.49500000
 H      18.26700000      29.07200000      36.22000000
 H      18.65000000      27.57800000      35.99700000
 O      25.18200000      34.78300000      36.21900000
 H      24.80000000      35.68600000      36.11300000
 H      24.49900000      34.24700000      35.85100000
 O      12.05000000      30.04700000      32.32700000
 H      12.28800000      30.97700000      32.31900000
 H      11.26900000      30.12500000      33.03800000
 O      35.29400000      30.43800000      26.93800000
 H      36.17900000      30.05900000      26.78600000
 H      35.03400000      29.96000000      27.72200000
 O      38.20100000      34.81700000      33.45100000
 H      37.86900000      34.58300000      34.37600000
 H      37.94600000      35.72800000      33.39600000
 O      10.54600000      36.54700000      29.20700000
 H      11.41400000      36.67900000      29.62100000
 H      10.31900000      37.42300000      28.93000000
 O      38.12300000      37.64200000      27.72600000
 H      38.44800000      38.38500000      27.25500000
 H      37.19200000      37.50700000      27.43300000
 O      38.82000000      31.92500000      33.92800000
 H      38.89200000      31.94100000      32.98300000
 H      38.65500000      32.87700000      34.13400000
 O      10.28400000      30.47800000      34.23500000
 H      10.44800000      31.02300000      34.99000000
 H       9.34200000      30.30500000      34.12300000
 O      26.37500000      36.72600000      27.06500000
 H      25.96000000      36.96600000      27.92200000
 H      25.64400000      36.35500000      26.53900000
 O      21.97700000      29.45300000      35.86300000
 H      21.91700000      29.53300000      36.83600000
 H      22.27300000      28.51800000      35.77800000
 O       6.78600000      39.00500000      39.68400000
 H       6.99100000      38.41300000      40.46700000
 H       7.62800000      38.95800000      39.21500000
 O      28.30100000      38.94100000      34.87200000
 H      27.42500000      38.52000000      34.68400000
 H      28.54400000      39.35700000      34.04100000
 O      28.23500000      37.04300000      40.12600000
 H      28.47100000      37.53200000      40.96100000
 H      27.63800000      37.65400000      39.69600000
 O      36.29300000      37.53000000      31.05100000
 H      37.14700000      37.07000000      30.83900000
 H      35.72900000      37.09400000      30.41100000
 O      35.13300000      37.48000000      35.19600000
 H      34.49000000      36.93800000      34.76000000
 H      34.62000000      37.55900000      36.03700000
 O      18.11600000      34.38800000      32.98500000
 H      17.99400000      33.49200000      32.61800000
 H      18.89000000      34.70300000      32.46500000
 O      36.05800000      30.62700000      30.09300000
 H      36.66400000      30.39400000      30.84400000
 H      35.78600000      29.70800000      29.85100000
 O      16.49600000      39.85500000      34.15100000
 H      16.91900000      40.45300000      33.49600000
 H      15.62100000      39.65900000      33.72600000
 O      18.25800000      34.54000000      29.74300000
 H      19.16800000      34.88000000      29.67000000
 H      17.78500000      35.33200000      30.01400000
 O      35.78000000      32.75300000      35.53300000
 H      36.17900000      31.88500000      35.69500000
 H      35.11300000      32.55300000      34.90300000
 O      29.93400000      39.97000000      27.47500000
 H      29.09500000      39.45400000      27.55000000
 H      30.39500000      39.73900000      28.29100000
 O      23.46800000      39.17000000      32.38600000
 H      22.59000000      39.10500000      32.82200000
 H      23.15400000      39.49500000      31.46200000
 O      22.28100000      30.02600000      31.40200000
 H      22.64400000      30.86900000      31.04800000
 H      22.88400000      29.37100000      30.95700000
 O       8.41300000      29.25200000      29.05000000
 H       8.03700000      30.07900000      29.40500000
 H       8.89200000      28.88400000      29.80600000
 O      39.84200000      39.88000000      32.61000000
 H      40.01300000      38.93200000      32.80100000
 H      39.57000000      39.82800000      31.67400000
 O      16.30000000      36.11100000      34.82000000
 H      16.35000000      35.22800000      35.07400000
 H      16.19800000      36.07000000      33.84100000
 O      11.22300000      33.35200000      29.36800000
 H      10.49900000      33.86900000      29.03400000
 H      11.07900000      32.48500000      28.91300000
 O      16.49100000      35.13900000      27.91500000
 H      15.81500000      34.48700000      27.86100000
 H      17.18100000      34.71600000      28.52600000
 O       8.30000000      34.17500000      39.58000000
 H       7.61000000      33.47300000      39.47100000
 H       8.20900000      34.56600000      38.66100000
 O      21.53200000      31.06900000      33.71000000
 H      21.85100000      30.38200000      34.35700000
 H      21.58000000      30.52600000      32.91100000
 O      20.80000000      32.77400000      31.71200000
 H      21.69600000      32.81000000      31.32100000
 H      21.01300000      32.22800000      32.52800000
 O      14.19600000      38.50300000      32.77200000
 H      14.49100000      37.59100000      32.60400000
 H      13.27100000      38.36900000      33.13500000
 O       7.28000000      38.79300000      28.89600000
 H       6.94200000      39.71900000      29.05100000
 H       6.45900000      38.26400000      29.05800000
 O      14.73200000      39.83700000      37.15100000
 H      14.56900000      40.70300000      36.72100000
 H      13.85200000      39.39900000      36.86500000
 O      31.77200000      33.58700000      34.47000000
 H      32.47600000      32.94700000      34.12300000
 H      32.26100000      33.92200000      35.26800000
 O      29.57300000      39.65200000      32.46400000
 H      30.47600000      39.52500000      32.98500000
 H      29.87500000      39.40800000      31.56900000
 O      20.26700000      36.14900000      31.90400000
 H      20.95500000      36.36800000      32.58700000
 H      19.60200000      36.85300000      32.18600000
 O      12.26600000      33.12000000      31.82600000
 H      11.69800000      33.11600000      31.02700000
 H      11.64000000      33.56900000      32.45800000
 O       9.81500000      39.08600000      28.24500000
 H       8.88400000      38.82500000      28.36500000
 H       9.80600000      39.82400000      28.90300000
 O      24.67000000      35.42400000      39.92600000
 H      25.54000000      35.07000000      40.19600000
 H      24.89000000      36.31900000      39.57500000
 O      27.23900000      40.44500000      29.03200000
 H      26.41300000      40.71400000      28.60000000
 H      27.12200000      39.56000000      29.30400000
 O      21.47400000      29.83100000      38.61200000
 H      20.80900000      29.35100000      39.15500000
 H      21.31000000      30.72600000      38.88800000
 O      19.98200000      40.59400000      35.62900000
 H      19.09400000      40.79500000      35.25500000
 H      20.26300000      41.56000000      35.80400000
 O      17.18800000      40.57400000      37.90600000
 H      16.33600000      40.19100000      37.61100000
 H      17.65700000      39.77500000      38.19600000
