45
XYZ file of cluster: frame_7500_50756.6e40d.cd2e3 - created by MolEdiTo
 O       7.09900000      14.81900000      18.92700000
 H       7.51400000      14.60400000      19.77300000
 H       7.64600000      15.37700000      18.40300000
 O      13.96800000      17.07400000      18.82000000
 H      13.57300000      17.45500000      17.94600000
 H      14.61600000      16.29700000      18.56200000
 O       8.07300000       9.92100000      18.25300000
 H       8.50100000       9.31600000      17.65300000
 H       7.84700000      10.74600000      17.72700000
 O       9.26200000      17.11600000      18.89700000
 H       9.54200000      17.61600000      18.10400000
 H      10.05300000      16.63500000      19.26900000
 O      11.60900000      12.97100000      18.37300000
 H      12.08900000      13.79300000      18.17800000
 H      10.73900000      13.09700000      17.89700000
 O      11.53900000      15.96200000      19.87800000
 H      11.46900000      15.09100000      20.25600000
 H      12.42800000      15.97500000      19.53600000
 O      12.32300000      10.32900000      18.28600000
 H      13.00000000      10.64100000      18.90700000
 H      11.93900000      11.21200000      18.02100000
 O      13.43400000      17.67700000      22.45700000
 H      13.53100000      17.52000000      21.43500000
 H      13.52000000      16.78800000      22.86500000
 O      14.38600000      11.58500000      22.00300000
 H      13.83300000      10.81900000      22.27600000
 H      15.21600000      11.20100000      21.64200000
 O       8.31400000      14.66900000      24.89700000
 H       8.48900000      14.90900000      23.96200000
 H       8.56400000      15.51300000      25.27900000
 O      14.42800000      14.86200000      23.12200000
 H      15.21400000      14.33900000      23.52000000
 H      14.12100000      14.27100000      22.46200000
 O      11.24400000      12.08500000      25.14500000
 H      10.66700000      11.23800000      25.11600000
 H      10.93700000      12.46200000      24.28400000
 O       8.82400000      14.36400000      22.20400000
 H       9.71100000      14.13400000      22.55200000
 H       8.19400000      13.57300000      22.31300000
 O      11.42400000      12.70600000      22.33400000
 H      12.20200000      12.09800000      22.58200000
 H      11.26000000      12.41500000      21.36200000
 O      11.67800000      16.86700000      24.38500000
 H      12.20100000      16.94200000      23.57900000
 H      11.99600000      17.69500000      24.87100000
