42
XYZ file of cluster: frame_7500_208fe.97e97.7141 - created by MolEdiTo
 O       4.70400000      15.79200000       1.29800000
 H       5.16900000      16.15500000       2.04100000
 H       4.31300000      16.58800000       0.88700000
 O       8.31400000      14.66900000       3.89200000
 H       8.48900000      14.90900000       2.95700000
 H       8.56400000      15.51300000       4.27400000
 O       6.33300000      20.03400000       1.25300000
 H       6.14900000      19.28300000       0.65000000
 H       6.79900000      20.58800000       0.60900000
 O       7.49000000      17.36200000       5.18100000
 H       8.04200000      18.08000000       5.51300000
 H       6.78800000      17.39400000       5.79800000
 O      10.26800000      16.34200000       5.80800000
 H      10.57700000      15.44000000       6.05200000
 H      10.76400000      16.63700000       4.98000000
 O       5.52700000      17.68400000       3.34600000
 H       6.27300000      17.46300000       3.83100000
 H       5.73200000      18.48100000       2.76800000
 O       8.82400000      14.36400000       1.19900000
 H       9.71100000      14.13400000       1.54700000
 H       8.19400000      13.57300000       1.30800000
 O       7.13800000      15.30400000       7.28400000
 H       7.44100000      15.49900000       8.22900000
 H       7.84300000      15.44500000       6.71000000
 O       9.46200000      19.01000000       3.67300000
 H       9.42100000      18.31300000       4.34800000
 H      10.05300000      18.67400000       2.97300000
 O       3.86600000      14.80400000       4.04700000
 H       3.06000000      15.39500000       4.14800000
 H       4.35100000      15.02400000       3.23300000
 O       3.90500000      20.04900000       6.90500000
 H       3.79000000      19.26400000       6.27500000
 H       4.69100000      20.47100000       6.46600000
 O       3.73300000      17.66100000       5.50300000
 H       2.87300000      17.31500000       5.19600000
 H       4.19200000      17.72400000       4.61700000
 O       8.71000000      19.40200000       6.88300000
 H       9.38200000      20.04700000       7.02500000
 H       9.06600000      18.70900000       7.54700000
 O       5.68100000      13.16500000       6.51600000
 H       6.10900000      14.06500000       6.67200000
 H       5.74200000      12.83600000       5.59400000
