39
XYZ file of cluster: frame_7500_48aef.3443.2a340 - created by MolEdiTo
 O       9.88900000       3.84600000       5.31200000
 H      10.67400000       3.61900000       4.82800000
 H       9.23500000       3.23100000       4.90200000
 O       9.53600000       0.58400000       9.98100000
 H      10.00400000       1.14200000       9.30400000
 H       8.85700000       1.13500000      10.40500000
 O       7.21500000       4.67600000       7.11200000
 H       6.92600000       5.47800000       7.58000000
 H       6.41300000       4.47600000       6.59800000
 O      12.64500000       4.25600000       7.96900000
 H      13.51100000       3.87400000       8.37700000
 H      12.64300000       4.03700000       6.99900000
 O      10.77200000       5.67800000       9.54200000
 H      10.01800000       5.77000000       8.90000000
 H      11.40100000       4.99100000       9.05900000
 O      13.17600000       7.15700000       8.17800000
 H      13.18700000       6.37000000       8.71600000
 H      12.25500000       7.46800000       8.17600000
 O       8.45000000       1.39000000       3.63100000
 H       8.88900000       0.53000000       3.91100000
 H       7.58100000       1.33500000       4.09100000
 O       9.45300000       6.64700000       5.25900000
 H       9.52300000       5.66200000       5.39700000
 H      10.02200000       7.05100000       5.99700000
 O      13.76300000       0.74000000       9.89700000
 H      13.59200000       1.57200000      10.42100000
 H      14.28900000       0.27600000      10.54100000
 O       7.34700000       2.04200000       7.99600000
 H       7.52300000       1.60200000       7.18000000
 H       7.29200000       2.98600000       7.75800000
 O      12.80800000       2.97900000       5.12400000
 H      12.51600000       2.87000000       4.24300000
 H      13.49400000       3.57200000       4.86600000
 O      14.44700000       1.76900000       7.10700000
 H      14.07700000       1.48900000       7.96800000
 H      13.70100000       1.98700000       6.53700000
 O      10.75700000       2.15600000       7.64200000
 H      11.04900000       2.80600000       8.32900000
 H      10.78200000       2.68500000       6.82600000
