39
XYZ file of cluster: frame_7500_c8fb5.1b964.becd8 - created by MolEdiTo
 O      19.21300000      10.98800000      20.32700000
 H      19.79500000      10.54900000      21.00500000
 H      19.02600000      10.27800000      19.64500000
 O      18.27900000       8.58600000      20.25500000
 H      17.80100000       9.42000000      20.68100000
 H      18.21500000       7.79100000      20.86500000
 O      20.66800000       6.16200000      18.94200000
 H      21.54100000       5.95600000      18.55200000
 H      20.07900000       6.32900000      18.13200000
 O      18.64800000       7.49000000      17.91600000
 H      17.73300000       7.12500000      17.84700000
 H      18.52200000       7.98200000      18.81600000
 O      20.03800000       4.41800000      24.72200000
 H      19.57600000       3.76700000      25.26300000
 H      19.64700000       4.21100000      23.83700000
 O      18.94900000       3.20700000      22.68500000
 H      18.39800000       3.76800000      22.12700000
 H      18.84900000       2.33100000      22.18900000
 O      20.13100000       9.89500000      23.67900000
 H      19.70900000       9.04300000      23.97500000
 H      21.12500000       9.69800000      23.88700000
 O      19.70500000       6.31500000      22.50700000
 H      20.55900000       6.65100000      22.85600000
 H      20.06900000       6.33400000      21.59700000
 O      24.71100000       6.62200000      16.95100000
 H      25.37800000       6.33500000      17.60700000
 H      24.68200000       5.76700000      16.41600000
 O      23.15300000       8.96100000      18.65100000
 H      24.13900000       8.78800000      18.47400000
 H      23.02900000       8.26100000      19.34900000
 O      24.60400000      10.10900000      23.86000000
 H      25.42900000       9.71100000      23.53000000
 H      24.57500000      10.96900000      23.30700000
 O      24.25900000       4.12600000      23.70900000
 H      23.51000000       4.64400000      23.72400000
 H      24.02200000       3.51200000      24.41200000
 O      23.43800000       7.31900000      23.68500000
 H      24.39600000       7.15400000      23.81800000
 H      23.02300000       7.03600000      24.47400000
