%chk=cluster_425.chk
%mem=1GB
%nproc=4
#b3lyp/6-311++G** scrf=(cpcm,Solvent=Water) nosymm freq
iop(2/11=1) 
 Geom=(NoDistance,NoAngle)

cluster_425

0 1
 O      18.14800000      10.44000000      18.53900000
 H      18.24000000      11.08000000      19.29300000
 H      18.66700000      10.79100000      17.76200000
 O      15.18500000       8.82500000      18.33700000
 H      14.42900000       9.27400000      18.75000000
 H      15.71700000       9.62300000      18.11500000
 O      17.59700000      13.31900000      19.49000000
 H      16.58000000      13.17800000      19.60800000
 H      17.99900000      13.38400000      20.34500000
 O      14.88000000      12.28400000      18.79200000
 H      14.00100000      11.87200000      18.55600000
 H      15.15700000      12.70800000      18.00100000
 O      17.59100000       7.65200000      17.90400000
 H      17.88400000       8.59600000      17.97800000
 H      16.71900000       7.53100000      18.37700000
 O      18.75400000       7.19200000      25.30500000
 H      19.28700000       7.94000000      25.62900000
 H      18.67100000       7.42000000      24.34300000
 O      19.53000000      12.05900000      22.64500000
 H      18.94700000      11.32200000      22.71900000
 H      20.43300000      11.66100000      22.53400000
 O      13.76300000      10.12700000      23.13700000
 H      13.63600000       9.76100000      24.07100000
 H      14.70100000      10.25200000      23.03400000
 O      20.47100000       9.51900000      25.51200000
 H      20.85400000       9.39800000      24.56200000
 H      19.92300000      10.35300000      25.36700000
 O      18.42700000       8.63500000      22.50200000
 H      17.62800000       9.18100000      22.27200000
 H      19.10000000       8.70000000      21.81700000
 O      20.30400000      12.40200000      25.56000000
 H      20.99500000      12.40100000      26.26800000
 H      20.85900000      12.34200000      24.73500000
 O      16.57600000      10.99100000      22.95300000
 H      15.96000000      11.78600000      23.01700000
 H      17.01100000      10.92400000      23.82100000
 O      17.57800000      13.91600000      24.87500000
 H      16.80500000      13.32500000      25.02600000
 H      18.25000000      13.40200000      24.43600000
 O      14.54500000      13.22900000      22.90900000
 H      14.99400000      14.08500000      22.84900000
 H      14.69100000      12.81000000      22.07300000

