 Entering Gaussian System, Link 0=g16
 Input=G98.INP
 Output=G98.OUT
 Initial command:
 /usr/local/g16-A.03/sse4/g16/l1.exe "/scratch/zronyj/scripted/p2/cluster_513/Gau-6625.inp" -scrdir="/scratch/zronyj/scripted/p2/cluster_513/"
 Entering Link 1 = /usr/local/g16-A.03/sse4/g16/l1.exe PID=      6626.
  
 Copyright (c) 1988,1990,1992,1993,1995,1998,2003,2009,2016,
            Gaussian, Inc.  All Rights Reserved.
  
 This is part of the Gaussian(R) 16 program.  It is based on
 the Gaussian(R) 09 system (copyright 2009, Gaussian, Inc.),
 the Gaussian(R) 03 system (copyright 2003, Gaussian, Inc.),
 the Gaussian(R) 98 system (copyright 1998, Gaussian, Inc.),
 the Gaussian(R) 94 system (copyright 1995, Gaussian, Inc.),
 the Gaussian 92(TM) system (copyright 1992, Gaussian, Inc.),
 the Gaussian 90(TM) system (copyright 1990, Gaussian, Inc.),
 the Gaussian 88(TM) system (copyright 1988, Gaussian, Inc.),
 the Gaussian 86(TM) system (copyright 1986, Carnegie Mellon
 University), and the Gaussian 82(TM) system (copyright 1983,
 Carnegie Mellon University). Gaussian is a federally registered
 trademark of Gaussian, Inc.
  
 This software contains proprietary and confidential information,
 including trade secrets, belonging to Gaussian, Inc.
  
 This software is provided under written license and may be
 used, copied, transmitted, or stored only in accord with that
 written license.
  
 The following legend is applicable only to US Government
 contracts under FAR:
  
                    RESTRICTED RIGHTS LEGEND
  
 Use, reproduction and disclosure by the US Government is
 subject to restrictions as set forth in subparagraphs (a)
 and (c) of the Commercial Computer Software - Restricted
 Rights clause in FAR 52.227-19.
  
 Gaussian, Inc.
 340 Quinnipiac St., Bldg. 40, Wallingford CT 06492
  
  
 ---------------------------------------------------------------
 Warning -- This program may not be used in any manner that
 competes with the business of Gaussian, Inc. or will provide
 assistance to any competitor of Gaussian, Inc.  The licensee
 of this program is prohibited from giving any competitor of
 Gaussian, Inc. access to this program.  By using this program,
 the user acknowledges that Gaussian, Inc. is engaged in the
 business of creating and licensing software in the field of
 computational chemistry and represents and warrants to the
 licensee that it is not a competitor of Gaussian, Inc. and that
 it will not use this program in any manner prohibited above.
 ---------------------------------------------------------------
  

 Cite this work as:
 Gaussian 16, Revision A.03,
 M. J. Frisch, G. W. Trucks, H. B. Schlegel, G. E. Scuseria, 
 M. A. Robb, J. R. Cheeseman, G. Scalmani, V. Barone, 
 G. A. Petersson, H. Nakatsuji, X. Li, M. Caricato, A. V. Marenich, 
 J. Bloino, B. G. Janesko, R. Gomperts, B. Mennucci, H. P. Hratchian, 
 J. V. Ortiz, A. F. Izmaylov, J. L. Sonnenberg, D. Williams-Young, 
 F. Ding, F. Lipparini, F. Egidi, J. Goings, B. Peng, A. Petrone, 
 T. Henderson, D. Ranasinghe, V. G. Zakrzewski, J. Gao, N. Rega, 
 G. Zheng, W. Liang, M. Hada, M. Ehara, K. Toyota, R. Fukuda, 
 J. Hasegawa, M. Ishida, T. Nakajima, Y. Honda, O. Kitao, H. Nakai, 
 T. Vreven, K. Throssell, J. A. Montgomery, Jr., J. E. Peralta, 
 F. Ogliaro, M. J. Bearpark, J. J. Heyd, E. N. Brothers, K. N. Kudin, 
 V. N. Staroverov, T. A. Keith, R. Kobayashi, J. Normand, 
 K. Raghavachari, A. P. Rendell, J. C. Burant, S. S. Iyengar, 
 J. Tomasi, M. Cossi, J. M. Millam, M. Klene, C. Adamo, R. Cammi, 
 J. W. Ochterski, R. L. Martin, K. Morokuma, O. Farkas, 
 J. B. Foresman, and D. J. Fox, Gaussian, Inc., Wallingford CT, 2016.
 
 ******************************************
 Gaussian 16:  ES64L-G16RevA.03 25-Dec-2016
                15-Aug-2023 
 ******************************************
 %chk=cluster_513.chk
 %mem=1GB
 %nproc=4
 Will use up to    4 processors via shared memory.
 ----------------------------------------------------------------------
 #b3lyp/6-311++G** scrf=(cpcm,Solvent=Water) nosymm force iop(2/11=1) G
 eom=(NoDistance,NoAngle)
 ----------------------------------------------------------------------
 1/10=7,30=1,38=1/1,3;
 2/9=11,11=1,12=2,15=1,17=6,18=5,40=1/2;
 3/5=4,6=6,7=1111,11=2,25=1,30=1,70=2101,71=1,72=1,74=-5/1,2,3;
 4//1;
 5/5=2,38=5,53=1/2;
 6/7=2,8=2,9=2,10=2,28=1/1;
 7/29=1,30=1/1,2,3,16;
 1/10=7,30=1/3;
 99//99;
 -----------
 cluster_513
 -----------
 Symbolic Z-matrix:
 Charge =  0 Multiplicity = 1
 O                     18.523    6.946     13.792 
 H                     18.124    6.503     14.588 
 H                     19.52     7.117     14.029 
 O                     18.463    4.358     12.313 
 H                     18.418    5.376     12.517 
 H                     19.403    4.165     12.147 
 O                     19.524    4.271     17.272 
 H                     19.456    3.781     16.447 
 H                     18.596    4.234     17.568 
 O                     17.711    7.822     11.167 
 H                     16.801    8.004     11.64 
 H                     18.226    7.354     11.847 
 O                     20.31     10.098    12.307 
 H                     20.399    10.699    13.084 
 H                     19.396    9.854     12.304 
 O                     22.089    7.365     14.274 
 H                     22.788    6.702     14.408 
 H                     22.519    7.888     13.557 
 O                     22.097    3.038     10.879 
 H                     22.21     2.621     9.965 
 H                     21.697    3.942     10.579 
 O                     23.71     4.973     13.983 
 H                     23.314    4.106     14.248 
 H                     24.483    5.209     14.612 
 O                     23.454    7.792     11.207 
 H                     22.598    7.938     11.004 
 H                     23.523    6.829     11.351 
 O                     22.047    6.834     17.498 
 H                     21.068    6.437     17.451 
 H                     22.402    6.91      16.583 
 O                     23.175    3.148     17.33 
 H                     22.528    3.754     16.992 
 H                     22.753    2.432     17.841 
 O                     24.232    5.09      10.791 
 H                     24.398    4.882     11.73 
 H                     23.651    4.389     10.443 
 O                     23.313    10.492    16.711 
 H                     23.914    10.554    17.482 
 H                     23.903    10.846    16.008 
 

 GradGradGradGradGradGradGradGradGradGradGradGradGradGradGradGradGradGrad
 Berny optimization.
 Initialization pass.
 Trust Radius=3.00D-01 FncErr=1.00D-07 GrdErr=1.00D-07 EigMax=2.50D+02 EigMin=1.00D-04
 Number of steps in this run=      2 maximum allowed number of steps=      2.
 GradGradGradGradGradGradGradGradGradGradGradGradGradGradGradGradGradGrad

                          Input orientation:                          
 ---------------------------------------------------------------------
 Center     Atomic      Atomic             Coordinates (Angstroms)
 Number     Number       Type             X           Y           Z
 ---------------------------------------------------------------------
      1          8           0       18.523000    6.946000   13.792000
      2          1           0       18.124000    6.503000   14.588000
      3          1           0       19.520000    7.117000   14.029000
      4          8           0       18.463000    4.358000   12.313000
      5          1           0       18.418000    5.376000   12.517000
      6          1           0       19.403000    4.165000   12.147000
      7          8           0       19.524000    4.271000   17.272000
      8          1           0       19.456000    3.781000   16.447000
      9          1           0       18.596000    4.234000   17.568000
     10          8           0       17.711000    7.822000   11.167000
     11          1           0       16.801000    8.004000   11.640000
     12          1           0       18.226000    7.354000   11.847000
     13          8           0       20.310000   10.098000   12.307000
     14          1           0       20.399000   10.699000   13.084000
     15          1           0       19.396000    9.854000   12.304000
     16          8           0       22.089000    7.365000   14.274000
     17          1           0       22.788000    6.702000   14.408000
     18          1           0       22.519000    7.888000   13.557000
     19          8           0       22.097000    3.038000   10.879000
     20          1           0       22.210000    2.621000    9.965000
     21          1           0       21.697000    3.942000   10.579000
     22          8           0       23.710000    4.973000   13.983000
     23          1           0       23.314000    4.106000   14.248000
     24          1           0       24.483000    5.209000   14.612000
     25          8           0       23.454000    7.792000   11.207000
     26          1           0       22.598000    7.938000   11.004000
     27          1           0       23.523000    6.829000   11.351000
     28          8           0       22.047000    6.834000   17.498000
     29          1           0       21.068000    6.437000   17.451000
     30          1           0       22.402000    6.910000   16.583000
     31          8           0       23.175000    3.148000   17.330000
     32          1           0       22.528000    3.754000   16.992000
     33          1           0       22.753000    2.432000   17.841000
     34          8           0       24.232000    5.090000   10.791000
     35          1           0       24.398000    4.882000   11.730000
     36          1           0       23.651000    4.389000   10.443000
     37          8           0       23.313000   10.492000   16.711000
     38          1           0       23.914000   10.554000   17.482000
     39          1           0       23.903000   10.846000   16.008000
 ---------------------------------------------------------------------
 Symmetry turned off by external request.
 Stoichiometry    H26O13
 Framework group  C1[X(H26O13)]
 Deg. of freedom   111
 Full point group                 C1      NOp   1
 Rotational constants (GHZ):           0.2176700           0.1963664           0.1791222
 Standard basis: 6-311++G(d,p) (5D, 7F)
   468 basis functions,   702 primitive gaussians,   481 cartesian basis functions
    65 alpha electrons       65 beta electrons
       nuclear repulsion energy       921.1350894874 Hartrees.
 NAtoms=   39 NActive=   39 NUniq=   39 SFac= 1.00D+00 NAtFMM=   60 NAOKFM=F Big=F
 Integral buffers will be    131072 words long.
 Raffenetti 2 integral format.
 Two-electron integral symmetry is turned off.
 ------------------------------------------------------------------------------
 Polarizable Continuum Model (PCM)
 =================================
 Model                : C-PCM.
 Atomic radii         : UFF (Universal Force Field).
 Polarization charges : Total charges.
 Charge compensation  : None.
 Solution method      : On-the-fly selection.
 Cavity type          : Scaled VdW (van der Waals Surface) (Alpha=1.100).
 Cavity algorithm     : GePol (No added spheres)
                        Default sphere list used, NSphG=   39.
                        Lebedev-Laikov grids with approx.  5.0 points / Ang**2.
                        Smoothing algorithm: York/Karplus (Gamma=1.0000).
                        Polarization charges: spherical gaussians, with
                                              point-specific exponents (IZeta= 3).
                        Self-potential: point-specific (ISelfS= 7).
                        Self-field    : sphere-specific E.n sum rule (ISelfD= 2).
 1st derivatives      : Analytical E(r).r(x)/FMM algorithm (CHGder, D1EAlg=3).
                        Cavity 1st derivative terms included.
 Solvent              : Water, Eps=  78.355300 Eps(inf)=   1.777849
 ------------------------------------------------------------------------------
 Separa: There are  2 disjoint cavities,
 One-electron integrals computed using PRISM.
 NBasis=   468 RedAO= T EigKep=  4.93D-04  NBF=   468
 NBsUse=   468 1.00D-06 EigRej= -1.00D+00 NBFU=   468
 ExpMin= 3.60D-02 ExpMax= 8.59D+03 ExpMxC= 1.30D+03 IAcc=3 IRadAn=         5 AccDes= 0.00D+00
 Harris functional with IExCor=  402 and IRadAn=       5 diagonalized for initial guess.
 HarFok:  IExCor=  402 AccDes= 0.00D+00 IRadAn=         5 IDoV= 1 UseB2=F ITyADJ=14
 ICtDFT=  3500011 ScaDFX=  1.000000  1.000000  1.000000  1.000000
 FoFCou: FMM=F IPFlag=           0 FMFlag=      100000 FMFlg1=           0
         NFxFlg=           0 DoJE=T BraDBF=F KetDBF=T FulRan=T
         wScrn=  0.000000 ICntrl=       500 IOpCl=  0 I1Cent=   200000004 NGrid=           0
         NMat0=    1 NMatS0=      1 NMatT0=    0 NMatD0=    1 NMtDS0=    0 NMtDT0=    0
 Symmetry not used in FoFCou.
 Requested convergence on RMS density matrix=1.00D-08 within 128 cycles.
 Requested convergence on MAX density matrix=1.00D-06.
 Requested convergence on             energy=1.00D-06.
 No special actions if energy rises.
 Inv3:  Mode=1 IEnd=    51966732.
 Iteration    1 A*A^-1 deviation from unit magnitude is 9.10D-15 for   2070.
 Iteration    1 A*A^-1 deviation from orthogonality  is 2.27D-15 for   1988     11.
 Iteration    1 A^-1*A deviation from unit magnitude is 9.10D-15 for   2070.
 Iteration    1 A^-1*A deviation from orthogonality  is 1.53D-15 for   3509   2171.
 Error on total polarization charges =  0.01905
 SCF Done:  E(RB3LYP) =  -994.044681196     A.U. after   10 cycles
            NFock= 10  Conv=0.61D-08     -V/T= 2.0043

 **********************************************************************

            Population analysis using the SCF density.

 **********************************************************************

 Alpha  occ. eigenvalues --  -19.15966 -19.15846 -19.15711 -19.14081 -19.13855
 Alpha  occ. eigenvalues --  -19.13447 -19.13378 -19.13331 -19.13306 -19.13250
 Alpha  occ. eigenvalues --  -19.13197 -19.12909 -19.11802  -1.03003  -1.02726
 Alpha  occ. eigenvalues --   -1.02356  -1.02225  -1.02149  -1.02065  -1.01939
 Alpha  occ. eigenvalues --   -1.01800  -1.01353  -1.01167  -0.99959  -0.99618
 Alpha  occ. eigenvalues --   -0.99268  -0.55327  -0.55207  -0.55038  -0.54239
 Alpha  occ. eigenvalues --   -0.53743  -0.53722  -0.53340  -0.52743  -0.52646
 Alpha  occ. eigenvalues --   -0.52495  -0.52047  -0.51521  -0.51283  -0.43266
 Alpha  occ. eigenvalues --   -0.42275  -0.42198  -0.41656  -0.40998  -0.40895
 Alpha  occ. eigenvalues --   -0.40257  -0.40217  -0.39354  -0.39308  -0.39125
 Alpha  occ. eigenvalues --   -0.38457  -0.38404  -0.34376  -0.34278  -0.33752
 Alpha  occ. eigenvalues --   -0.33143  -0.32880  -0.32799  -0.32709  -0.32617
 Alpha  occ. eigenvalues --   -0.32360  -0.32139  -0.31847  -0.31577  -0.31308
 Alpha virt. eigenvalues --   -0.04999  -0.02757  -0.02626  -0.02062  -0.00714
 Alpha virt. eigenvalues --    0.00427   0.00502   0.01516   0.01752   0.01875
 Alpha virt. eigenvalues --    0.02826   0.03787   0.04018   0.04527   0.04942
 Alpha virt. eigenvalues --    0.05452   0.05679   0.06269   0.06465   0.07186
 Alpha virt. eigenvalues --    0.07637   0.08141   0.08618   0.08922   0.09108
 Alpha virt. eigenvalues --    0.09594   0.10233   0.10878   0.11913   0.11980
 Alpha virt. eigenvalues --    0.12300   0.12717   0.13031   0.13331   0.13680
 Alpha virt. eigenvalues --    0.13943   0.14214   0.14347   0.14654   0.14852
 Alpha virt. eigenvalues --    0.15317   0.15846   0.15907   0.16338   0.16568
 Alpha virt. eigenvalues --    0.16655   0.17101   0.17370   0.17777   0.17961
 Alpha virt. eigenvalues --    0.18243   0.18356   0.18611   0.19134   0.19621
 Alpha virt. eigenvalues --    0.19679   0.20027   0.20118   0.20492   0.20693
 Alpha virt. eigenvalues --    0.21296   0.21814   0.21924   0.22423   0.22515
 Alpha virt. eigenvalues --    0.22943   0.23145   0.23487   0.24092   0.24713
 Alpha virt. eigenvalues --    0.25147   0.25398   0.25960   0.26206   0.26796
 Alpha virt. eigenvalues --    0.26967   0.27723   0.28115   0.28407   0.28892
 Alpha virt. eigenvalues --    0.28971   0.29376   0.29692   0.30112   0.30296
 Alpha virt. eigenvalues --    0.30636   0.31628   0.32028   0.32279   0.32575
 Alpha virt. eigenvalues --    0.33608   0.34061   0.34952   0.35144   0.35929
 Alpha virt. eigenvalues --    0.36798   0.36951   0.37459   0.39185   0.40194
 Alpha virt. eigenvalues --    0.41501   0.41957   0.44066   0.44415   0.49375
 Alpha virt. eigenvalues --    0.50049   0.50801   0.51969   0.53074   0.53495
 Alpha virt. eigenvalues --    0.53912   0.54566   0.54841   0.55788   0.56237
 Alpha virt. eigenvalues --    0.56280   0.57359   0.57652   0.58454   0.59560
 Alpha virt. eigenvalues --    0.59968   0.60552   0.61658   0.62015   0.62553
 Alpha virt. eigenvalues --    0.63044   0.63847   0.66826   0.68140   0.70116
 Alpha virt. eigenvalues --    0.95051   0.96484   0.97362   0.97728   0.98134
 Alpha virt. eigenvalues --    0.98737   0.99398   1.00021   1.00074   1.00753
 Alpha virt. eigenvalues --    1.01108   1.01486   1.01696   1.02045   1.02223
 Alpha virt. eigenvalues --    1.02588   1.03040   1.03385   1.04014   1.04291
 Alpha virt. eigenvalues --    1.04899   1.05223   1.05958   1.06268   1.06816
 Alpha virt. eigenvalues --    1.07002   1.07606   1.08373   1.08594   1.09082
 Alpha virt. eigenvalues --    1.09318   1.10291   1.10416   1.11032   1.12602
 Alpha virt. eigenvalues --    1.13332   1.14075   1.14424   1.15547   1.18848
 Alpha virt. eigenvalues --    1.21557   1.21738   1.23437   1.24693   1.25360
 Alpha virt. eigenvalues --    1.26252   1.26556   1.27176   1.27890   1.28131
 Alpha virt. eigenvalues --    1.28256   1.28680   1.29642   1.29849   1.30928
 Alpha virt. eigenvalues --    1.31662   1.31836   1.33277   1.33669   1.34537
 Alpha virt. eigenvalues --    1.35894   1.36805   1.37111   1.38313   1.38832
 Alpha virt. eigenvalues --    1.40893   1.42145   1.42276   1.43043   1.43983
 Alpha virt. eigenvalues --    1.44161   1.45034   1.46097   1.46258   1.47587
 Alpha virt. eigenvalues --    1.47626   1.48545   1.49609   1.50275   1.50940
 Alpha virt. eigenvalues --    1.51710   1.51889   1.53846   1.55148   1.55836
 Alpha virt. eigenvalues --    1.56729   1.57983   1.58590   1.60714   1.62329
 Alpha virt. eigenvalues --    1.63124   1.63873   1.65074   1.65530   1.67242
 Alpha virt. eigenvalues --    1.67476   1.68772   1.68980   1.69096   1.69757
 Alpha virt. eigenvalues --    1.70376   1.73750   1.76747   1.77496   1.90211
 Alpha virt. eigenvalues --    1.94824   1.94902   1.95383   1.95731   1.96088
 Alpha virt. eigenvalues --    1.98713   2.00082   2.00603   2.02214   2.03197
 Alpha virt. eigenvalues --    2.03778   2.06883   2.07609   2.08740   2.10688
 Alpha virt. eigenvalues --    2.10997   2.12942   2.13563   2.14528   2.15591
 Alpha virt. eigenvalues --    2.17681   2.18213   2.21735   2.24265   2.29074
 Alpha virt. eigenvalues --    2.41315   2.42401   2.44439   2.45262   2.47710
 Alpha virt. eigenvalues --    2.47874   2.49374   2.51038   2.52886   2.53548
 Alpha virt. eigenvalues --    2.55525   2.56201   2.58828   2.59594   2.61268
 Alpha virt. eigenvalues --    2.61421   2.62189   2.62698   2.63879   2.66799
 Alpha virt. eigenvalues --    2.67310   2.71010   2.71453   2.73206   2.75136
 Alpha virt. eigenvalues --    2.78038   3.00975   3.01306   3.02122   3.03876
 Alpha virt. eigenvalues --    3.04197   3.05361   3.06060   3.07152   3.08007
 Alpha virt. eigenvalues --    3.08106   3.08385   3.09074   3.09625   3.09932
 Alpha virt. eigenvalues --    3.10175   3.10713   3.11314   3.12278   3.12806
 Alpha virt. eigenvalues --    3.13018   3.13419   3.14183   3.14546   3.15741
 Alpha virt. eigenvalues --    3.16261   3.20918   3.21792   3.22377   3.22812
 Alpha virt. eigenvalues --    3.23449   3.26246   3.27414   3.28406   3.29113
 Alpha virt. eigenvalues --    3.29734   3.29907   3.31148   3.31288   3.37792
 Alpha virt. eigenvalues --    3.63535   3.64298   3.64590   3.66471   3.67544
 Alpha virt. eigenvalues --    3.68362   3.69294   3.69356   3.70341   3.70756
 Alpha virt. eigenvalues --    3.71620   3.74029   3.77625   3.83730   3.84288
 Alpha virt. eigenvalues --    3.84676   3.86189   3.87782   3.88456   3.89449
 Alpha virt. eigenvalues --    3.90304   3.90633   3.91250   3.92028   3.98513
 Alpha virt. eigenvalues --    3.99111   4.94609   4.95539   4.96194   4.98265
 Alpha virt. eigenvalues --    4.99323   4.99785   5.00124   5.01114   5.03160
 Alpha virt. eigenvalues --    5.03359   5.04709   5.05601   5.07302   5.25486
 Alpha virt. eigenvalues --    5.27105   5.27916   5.29097   5.29709   5.30923
 Alpha virt. eigenvalues --    5.33221   5.33895   5.35443   5.36025   5.37936
 Alpha virt. eigenvalues --    5.40917   5.41905   5.43140   5.48744   5.50941
 Alpha virt. eigenvalues --    5.52479   5.52822   5.53308   5.56650   5.58088
 Alpha virt. eigenvalues --    5.59917   5.61788   5.63810   5.66437   5.77337
 Alpha virt. eigenvalues --   49.81887  49.82634  49.83827  49.84385  49.84629
 Alpha virt. eigenvalues --   49.85770  49.86007  49.86793  49.87703  49.87837
 Alpha virt. eigenvalues --   49.88173  49.89056  49.93581
          Condensed to atoms (all electrons):
               1          2          3          4          5          6
     1  O    8.054465   0.311285   0.291212  -0.003387   0.003126   0.002962
     2  H    0.311285   0.380907  -0.017369   0.001899  -0.012330   0.001548
     3  H    0.291212  -0.017369   0.416575  -0.000616   0.005563  -0.001451
     4  O   -0.003387   0.001899  -0.000616   8.017810   0.267598   0.307633
     5  H    0.003126  -0.012330   0.005563   0.267598   0.489718  -0.035569
     6  H    0.002962   0.001548  -0.001451   0.307633  -0.035569   0.447955
     7  O    0.001398   0.002497   0.000287  -0.000521   0.000142  -0.000254
     8  H    0.000151  -0.000180  -0.000432   0.001595  -0.000070  -0.000646
     9  H   -0.000425   0.000058  -0.000125  -0.000272   0.000140   0.000057
    10  O   -0.010701   0.001633  -0.002747  -0.011849   0.004507  -0.000911
    11  H    0.008285  -0.000946   0.001345  -0.000398  -0.000724   0.000120
    12  H   -0.035137   0.001061   0.007692   0.001810   0.010979  -0.000986
    13  O    0.001284  -0.000384   0.007946  -0.000106   0.000569  -0.000175
    14  H    0.000257  -0.000115   0.000035  -0.000057   0.000004  -0.000003
    15  H    0.001629   0.000205  -0.000899   0.000415  -0.000173   0.000054
    16  O    0.016557  -0.000449  -0.021027  -0.000838   0.000621  -0.000517
    17  H    0.000387   0.000092   0.003000   0.000947  -0.000283   0.000441
    18  H   -0.002033   0.000019   0.000606  -0.000259   0.000020  -0.000210
    19  O    0.000044   0.000053  -0.000195  -0.004892  -0.001635   0.014984
    20  H   -0.000000  -0.000005  -0.000000   0.000456   0.000396  -0.002495
    21  H   -0.000281  -0.000034   0.000277   0.001057   0.002326  -0.007639
    22  O    0.000063   0.000137  -0.000940  -0.000061   0.000164  -0.000548
    23  H    0.000038  -0.000073  -0.000097   0.000055   0.000181  -0.000385
    24  H   -0.000042  -0.000001   0.000128  -0.000035  -0.000045   0.000127
    25  O    0.000170  -0.000041   0.000095  -0.000122  -0.000294   0.000381
    26  H    0.000127   0.000014   0.000323  -0.000057  -0.000013   0.000042
    27  H    0.000062  -0.000017  -0.000403   0.000059   0.000041  -0.000505
    28  O    0.000169   0.000080  -0.000697  -0.000015   0.000033  -0.000019
    29  H   -0.000473  -0.000488   0.000267  -0.000082   0.000020  -0.000057
    30  H   -0.000097   0.000025  -0.000367  -0.000140  -0.000086  -0.000021
    31  O   -0.000007   0.000007   0.000064  -0.000008  -0.000011  -0.000036
    32  H   -0.000049   0.000003   0.000044  -0.000060   0.000078  -0.000090
    33  H    0.000001   0.000008  -0.000005   0.000003  -0.000011   0.000019
    34  O    0.000001   0.000019  -0.000036  -0.000178  -0.000291   0.000968
    35  H   -0.000038  -0.000000  -0.000025  -0.000036   0.000151  -0.000390
    36  H    0.000037  -0.000007   0.000082   0.000262  -0.000067  -0.000023
    37  O    0.000006   0.000047  -0.000440   0.000000  -0.000008   0.000002
    38  H   -0.000003  -0.000003   0.000025   0.000000   0.000001  -0.000000
    39  H    0.000007  -0.000005   0.000105   0.000000  -0.000000  -0.000000
               7          8          9         10         11         12
     1  O    0.001398   0.000151  -0.000425  -0.010701   0.008285  -0.035137
     2  H    0.002497  -0.000180   0.000058   0.001633  -0.000946   0.001061
     3  H    0.000287  -0.000432  -0.000125  -0.002747   0.001345   0.007692
     4  O   -0.000521   0.001595  -0.000272  -0.011849  -0.000398   0.001810
     5  H    0.000142  -0.000070   0.000140   0.004507  -0.000724   0.010979
     6  H   -0.000254  -0.000646   0.000057  -0.000911   0.000120  -0.000986
     7  O    7.943668   0.314983   0.306135   0.000007  -0.000006  -0.000075
     8  H    0.314983   0.425458  -0.017970   0.000063   0.000010  -0.000043
     9  H    0.306135  -0.017970   0.420532  -0.000009  -0.000002   0.000013
    10  O    0.000007   0.000063  -0.000009   7.919609   0.300226   0.351904
    11  H   -0.000006   0.000010  -0.000002   0.300226   0.432793  -0.037909
    12  H   -0.000075  -0.000043   0.000013   0.351904  -0.037909   0.424761
    13  O    0.000000   0.000007   0.000002  -0.005825   0.000237  -0.004902
    14  H   -0.000004   0.000002  -0.000000  -0.000342  -0.000258   0.000595
    15  H    0.000008  -0.000014   0.000004   0.012260  -0.000270  -0.003214
    16  O   -0.000156   0.000339  -0.000048  -0.000046  -0.000107   0.001026
    17  H    0.001872  -0.000444  -0.000242   0.000041   0.000029  -0.000120
    18  H   -0.000211   0.000029   0.000055  -0.000004  -0.000053   0.000006
    19  O    0.000000  -0.000068   0.000005   0.000007   0.000003  -0.000023
    20  H    0.000000   0.000005  -0.000001   0.000016  -0.000005   0.000019
    21  H    0.000005   0.000053  -0.000003  -0.000279   0.000074  -0.000847
    22  O   -0.000248  -0.000309   0.000022   0.000000  -0.000004   0.000074
    23  H   -0.000629  -0.000033   0.000034   0.000006  -0.000001  -0.000004
    24  H   -0.000031   0.000064   0.000019   0.000001   0.000001  -0.000011
    25  O   -0.000001   0.000012  -0.000001  -0.000007  -0.000036   0.000551
    26  H    0.000006  -0.000001  -0.000002  -0.000595   0.000131  -0.001078
    27  H   -0.000014   0.000011   0.000000   0.000115  -0.000053   0.000660
    28  O    0.002898  -0.000286  -0.000063  -0.000000   0.000001  -0.000010
    29  H   -0.006747   0.000552  -0.000455   0.000000   0.000002   0.000026
    30  H   -0.002677   0.000179   0.000350  -0.000000  -0.000012   0.000101
    31  O   -0.000049  -0.000843   0.000496   0.000000   0.000000   0.000000
    32  H    0.010297   0.000090  -0.000797  -0.000004  -0.000002   0.000015
    33  H    0.000188  -0.000003   0.000199   0.000000   0.000000  -0.000001
    34  O    0.000000  -0.000004   0.000000   0.000004   0.000001   0.000037
    35  H    0.000001  -0.000003  -0.000002  -0.000008   0.000002  -0.000054
    36  H    0.000001  -0.000015   0.000001   0.000026  -0.000001   0.000005
    37  O   -0.000001   0.000002   0.000002   0.000000  -0.000001   0.000018
    38  H    0.000002  -0.000000   0.000001  -0.000000  -0.000000  -0.000000
    39  H    0.000000  -0.000000  -0.000000   0.000002   0.000001  -0.000009
              13         14         15         16         17         18
     1  O    0.001284   0.000257   0.001629   0.016557   0.000387  -0.002033
     2  H   -0.000384  -0.000115   0.000205  -0.000449   0.000092   0.000019
     3  H    0.007946   0.000035  -0.000899  -0.021027   0.003000   0.000606
     4  O   -0.000106  -0.000057   0.000415  -0.000838   0.000947  -0.000259
     5  H    0.000569   0.000004  -0.000173   0.000621  -0.000283   0.000020
     6  H   -0.000175  -0.000003   0.000054  -0.000517   0.000441  -0.000210
     7  O    0.000000  -0.000004   0.000008  -0.000156   0.001872  -0.000211
     8  H    0.000007   0.000002  -0.000014   0.000339  -0.000444   0.000029
     9  H    0.000002  -0.000000   0.000004  -0.000048  -0.000242   0.000055
    10  O   -0.005825  -0.000342   0.012260  -0.000046   0.000041  -0.000004
    11  H    0.000237  -0.000258  -0.000270  -0.000107   0.000029  -0.000053
    12  H   -0.004902   0.000595  -0.003214   0.001026  -0.000120   0.000006
    13  O    7.911691   0.314188   0.319961   0.001702  -0.001443   0.005333
    14  H    0.314188   0.420553  -0.014144  -0.001117   0.000355  -0.000778
    15  H    0.319961  -0.014144   0.415371  -0.001289  -0.000217   0.000051
    16  O    0.001702  -0.001117  -0.001289   8.087957   0.209398   0.284152
    17  H   -0.001443   0.000355  -0.000217   0.209398   0.558707  -0.022659
    18  H    0.005333  -0.000778   0.000051   0.284152  -0.022659   0.437875
    19  O   -0.000001   0.000001   0.000002  -0.000122   0.000569  -0.000147
    20  H   -0.000002   0.000001  -0.000001   0.000098   0.000012  -0.000029
    21  H    0.000063  -0.000016   0.000040  -0.000516  -0.000087   0.000332
    22  O    0.000013   0.000030  -0.000025  -0.049792   0.076467  -0.005317
    23  H   -0.000016   0.000001  -0.000001   0.006983  -0.013576   0.000506
    24  H    0.000047  -0.000006   0.000001   0.001291  -0.008662   0.000534
    25  O   -0.000260   0.000021  -0.000020   0.018658  -0.012752   0.019710
    26  H    0.000056   0.000031   0.000098  -0.006622   0.003729  -0.001652
    27  H   -0.001107   0.000051   0.000192   0.003424  -0.006599  -0.002805
    28  O   -0.000021  -0.000062   0.000010  -0.007135  -0.004871   0.000155
    29  H   -0.000138  -0.000013  -0.000018   0.001817   0.001769   0.000586
    30  H    0.000170  -0.000038   0.000066   0.017580  -0.005023  -0.001002
    31  O   -0.000000  -0.000000   0.000000   0.000455  -0.002917   0.000081
    32  H   -0.000000   0.000003  -0.000002  -0.002070   0.005150  -0.000207
    33  H    0.000000  -0.000000   0.000000   0.000049  -0.000112   0.000030
    34  O   -0.000002   0.000011  -0.000012   0.001565  -0.003158  -0.004078
    35  H    0.000028  -0.000004   0.000007  -0.003938   0.005873   0.000470
    36  H    0.000009  -0.000000  -0.000013  -0.000328   0.000363   0.000724
    37  O    0.000042   0.000270  -0.000104   0.000029  -0.002209   0.004003
    38  H   -0.000004  -0.000012   0.000003   0.000101   0.000601  -0.000261
    39  H   -0.000030  -0.000200   0.000044  -0.000472  -0.000120  -0.001190
              19         20         21         22         23         24
     1  O    0.000044  -0.000000  -0.000281   0.000063   0.000038  -0.000042
     2  H    0.000053  -0.000005  -0.000034   0.000137  -0.000073  -0.000001
     3  H   -0.000195  -0.000000   0.000277  -0.000940  -0.000097   0.000128
     4  O   -0.004892   0.000456   0.001057  -0.000061   0.000055  -0.000035
     5  H   -0.001635   0.000396   0.002326   0.000164   0.000181  -0.000045
     6  H    0.014984  -0.002495  -0.007639  -0.000548  -0.000385   0.000127
     7  O    0.000000   0.000000   0.000005  -0.000248  -0.000629  -0.000031
     8  H   -0.000068   0.000005   0.000053  -0.000309  -0.000033   0.000064
     9  H    0.000005  -0.000001  -0.000003   0.000022   0.000034   0.000019
    10  O    0.000007   0.000016  -0.000279   0.000000   0.000006   0.000001
    11  H    0.000003  -0.000005   0.000074  -0.000004  -0.000001   0.000001
    12  H   -0.000023   0.000019  -0.000847   0.000074  -0.000004  -0.000011
    13  O   -0.000001  -0.000002   0.000063   0.000013  -0.000016   0.000047
    14  H    0.000001   0.000001  -0.000016   0.000030   0.000001  -0.000006
    15  H    0.000002  -0.000001   0.000040  -0.000025  -0.000001   0.000001
    16  O   -0.000122   0.000098  -0.000516  -0.049792   0.006983   0.001291
    17  H    0.000569   0.000012  -0.000087   0.076467  -0.013576  -0.008662
    18  H   -0.000147  -0.000029   0.000332  -0.005317   0.000506   0.000534
    19  O    7.870476   0.291244   0.292614   0.002455  -0.001569   0.000053
    20  H    0.291244   0.433527  -0.009230   0.000272   0.000180  -0.000055
    21  H    0.292614  -0.009230   0.459007   0.000570   0.000183  -0.000172
    22  O    0.002455   0.000272   0.000570   7.925894   0.320189   0.311537
    23  H   -0.001569   0.000180   0.000183   0.320189   0.390476  -0.017440
    24  H    0.000053  -0.000055  -0.000172   0.311537  -0.017440   0.404400
    25  O    0.000733  -0.000141  -0.001962   0.001631   0.000478   0.000540
    26  H    0.000257  -0.000054   0.000209   0.000476  -0.000385  -0.000304
    27  H   -0.003281   0.000365   0.001341   0.001523   0.001965   0.000132
    28  O    0.000002   0.000001  -0.000006  -0.003631   0.000072  -0.001046
    29  H   -0.000004   0.000001  -0.000003  -0.000731  -0.000017   0.000200
    30  H   -0.000006   0.000002   0.000015   0.002856   0.001105  -0.000235
    31  O   -0.000001   0.000002   0.000011   0.002069   0.001288  -0.000412
    32  H    0.000093  -0.000006   0.000006   0.003871  -0.002914  -0.002855
    33  H   -0.000000  -0.000001  -0.000001  -0.000133  -0.000053   0.000484
    34  O   -0.020501  -0.011329  -0.012482  -0.010105   0.002370   0.000700
    35  H   -0.002319   0.000857   0.002173   0.009001  -0.004548  -0.004240
    36  H    0.064999   0.009455   0.005077  -0.000442  -0.001474   0.000789
    37  O   -0.000000  -0.000000   0.000000  -0.000051  -0.000007   0.000088
    38  H    0.000000  -0.000000   0.000000  -0.000017  -0.000011  -0.000010
    39  H   -0.000000   0.000000  -0.000000   0.000027   0.000012  -0.000008
              25         26         27         28         29         30
     1  O    0.000170   0.000127   0.000062   0.000169  -0.000473  -0.000097
     2  H   -0.000041   0.000014  -0.000017   0.000080  -0.000488   0.000025
     3  H    0.000095   0.000323  -0.000403  -0.000697   0.000267  -0.000367
     4  O   -0.000122  -0.000057   0.000059  -0.000015  -0.000082  -0.000140
     5  H   -0.000294  -0.000013   0.000041   0.000033   0.000020  -0.000086
     6  H    0.000381   0.000042  -0.000505  -0.000019  -0.000057  -0.000021
     7  O   -0.000001   0.000006  -0.000014   0.002898  -0.006747  -0.002677
     8  H    0.000012  -0.000001   0.000011  -0.000286   0.000552   0.000179
     9  H   -0.000001  -0.000002   0.000000  -0.000063  -0.000455   0.000350
    10  O   -0.000007  -0.000595   0.000115  -0.000000   0.000000  -0.000000
    11  H   -0.000036   0.000131  -0.000053   0.000001   0.000002  -0.000012
    12  H    0.000551  -0.001078   0.000660  -0.000010   0.000026   0.000101
    13  O   -0.000260   0.000056  -0.001107  -0.000021  -0.000138   0.000170
    14  H    0.000021   0.000031   0.000051  -0.000062  -0.000013  -0.000038
    15  H   -0.000020   0.000098   0.000192   0.000010  -0.000018   0.000066
    16  O    0.018658  -0.006622   0.003424  -0.007135   0.001817   0.017580
    17  H   -0.012752   0.003729  -0.006599  -0.004871   0.001769  -0.005023
    18  H    0.019710  -0.001652  -0.002805   0.000155   0.000586  -0.001002
    19  O    0.000733   0.000257  -0.003281   0.000002  -0.000004  -0.000006
    20  H   -0.000141  -0.000054   0.000365   0.000001   0.000001   0.000002
    21  H   -0.001962   0.000209   0.001341  -0.000006  -0.000003   0.000015
    22  O    0.001631   0.000476   0.001523  -0.003631  -0.000731   0.002856
    23  H    0.000478  -0.000385   0.001965   0.000072  -0.000017   0.001105
    24  H    0.000540  -0.000304   0.000132  -0.001046   0.000200  -0.000235
    25  O    7.935471   0.338941   0.307943   0.000038  -0.000040   0.000996
    26  H    0.338941   0.414890  -0.025253   0.000001   0.000006  -0.000282
    27  H    0.307943  -0.025253   0.411305   0.000095  -0.000039   0.000791
    28  O    0.000038   0.000001   0.000095   7.962860   0.294981   0.329898
    29  H   -0.000040   0.000006  -0.000039   0.294981   0.421830  -0.029149
    30  H    0.000996  -0.000282   0.000791   0.329898  -0.029149   0.413836
    31  O    0.000001  -0.000005   0.000036  -0.000722  -0.000379  -0.000263
    32  H   -0.000060   0.000036  -0.000142   0.008539  -0.001183  -0.001115
    33  H    0.000001  -0.000002   0.000006  -0.000512   0.000352  -0.000253
    34  O   -0.034068  -0.002460   0.041831  -0.000003  -0.000006   0.000193
    35  H   -0.002727   0.002542  -0.006354  -0.000006  -0.000023  -0.000166
    36  H    0.001688  -0.001624  -0.006356  -0.000003   0.000006  -0.000093
    37  O   -0.000050  -0.000021  -0.000064  -0.001935  -0.000686   0.004688
    38  H   -0.000019   0.000009  -0.000009  -0.001085   0.000077  -0.000760
    39  H    0.000051  -0.000024   0.000060   0.000583  -0.000042   0.000224
              31         32         33         34         35         36
     1  O   -0.000007  -0.000049   0.000001   0.000001  -0.000038   0.000037
     2  H    0.000007   0.000003   0.000008   0.000019  -0.000000  -0.000007
     3  H    0.000064   0.000044  -0.000005  -0.000036  -0.000025   0.000082
     4  O   -0.000008  -0.000060   0.000003  -0.000178  -0.000036   0.000262
     5  H   -0.000011   0.000078  -0.000011  -0.000291   0.000151  -0.000067
     6  H   -0.000036  -0.000090   0.000019   0.000968  -0.000390  -0.000023
     7  O   -0.000049   0.010297   0.000188   0.000000   0.000001   0.000001
     8  H   -0.000843   0.000090  -0.000003  -0.000004  -0.000003  -0.000015
     9  H    0.000496  -0.000797   0.000199   0.000000  -0.000002   0.000001
    10  O    0.000000  -0.000004   0.000000   0.000004  -0.000008   0.000026
    11  H    0.000000  -0.000002   0.000000   0.000001   0.000002  -0.000001
    12  H    0.000000   0.000015  -0.000001   0.000037  -0.000054   0.000005
    13  O   -0.000000  -0.000000   0.000000  -0.000002   0.000028   0.000009
    14  H   -0.000000   0.000003  -0.000000   0.000011  -0.000004  -0.000000
    15  H    0.000000  -0.000002   0.000000  -0.000012   0.000007  -0.000013
    16  O    0.000455  -0.002070   0.000049   0.001565  -0.003938  -0.000328
    17  H   -0.002917   0.005150  -0.000112  -0.003158   0.005873   0.000363
    18  H    0.000081  -0.000207   0.000030  -0.004078   0.000470   0.000724
    19  O   -0.000001   0.000093  -0.000000  -0.020501  -0.002319   0.064999
    20  H    0.000002  -0.000006  -0.000001  -0.011329   0.000857   0.009455
    21  H    0.000011   0.000006  -0.000001  -0.012482   0.002173   0.005077
    22  O    0.002069   0.003871  -0.000133  -0.010105   0.009001  -0.000442
    23  H    0.001288  -0.002914  -0.000053   0.002370  -0.004548  -0.001474
    24  H   -0.000412  -0.002855   0.000484   0.000700  -0.004240   0.000789
    25  O    0.000001  -0.000060   0.000001  -0.034068  -0.002727   0.001688
    26  H   -0.000005   0.000036  -0.000002  -0.002460   0.002542  -0.001624
    27  H    0.000036  -0.000142   0.000006   0.041831  -0.006354  -0.006356
    28  O   -0.000722   0.008539  -0.000512  -0.000003  -0.000006  -0.000003
    29  H   -0.000379  -0.001183   0.000352  -0.000006  -0.000023   0.000006
    30  H   -0.000263  -0.001115  -0.000253   0.000193  -0.000166  -0.000093
    31  O    7.922168   0.350157   0.300864   0.000010   0.000055  -0.000018
    32  H    0.350157   0.390745  -0.019339  -0.000079   0.000521   0.000010
    33  H    0.300864  -0.019339   0.414846   0.000005  -0.000050   0.000004
    34  O    0.000010  -0.000079   0.000005   8.016666   0.310544   0.266409
    35  H    0.000055   0.000521  -0.000050   0.310544   0.429816  -0.036234
    36  H   -0.000018   0.000010   0.000004   0.266409  -0.036234   0.469640
    37  O    0.000001  -0.000041   0.000003  -0.000000  -0.000003   0.000001
    38  H   -0.000003   0.000021  -0.000001  -0.000001   0.000003   0.000001
    39  H    0.000002  -0.000009   0.000000   0.000008  -0.000010  -0.000003
              37         38         39
     1  O    0.000006  -0.000003   0.000007
     2  H    0.000047  -0.000003  -0.000005
     3  H   -0.000440   0.000025   0.000105
     4  O    0.000000   0.000000   0.000000
     5  H   -0.000008   0.000001  -0.000000
     6  H    0.000002  -0.000000  -0.000000
     7  O   -0.000001   0.000002   0.000000
     8  H    0.000002  -0.000000  -0.000000
     9  H    0.000002   0.000001  -0.000000
    10  O    0.000000  -0.000000   0.000002
    11  H   -0.000001  -0.000000   0.000001
    12  H    0.000018  -0.000000  -0.000009
    13  O    0.000042  -0.000004  -0.000030
    14  H    0.000270  -0.000012  -0.000200
    15  H   -0.000104   0.000003   0.000044
    16  O    0.000029   0.000101  -0.000472
    17  H   -0.002209   0.000601  -0.000120
    18  H    0.004003  -0.000261  -0.001190
    19  O   -0.000000   0.000000  -0.000000
    20  H   -0.000000  -0.000000   0.000000
    21  H    0.000000   0.000000  -0.000000
    22  O   -0.000051  -0.000017   0.000027
    23  H   -0.000007  -0.000011   0.000012
    24  H    0.000088  -0.000010  -0.000008
    25  O   -0.000050  -0.000019   0.000051
    26  H   -0.000021   0.000009  -0.000024
    27  H   -0.000064  -0.000009   0.000060
    28  O   -0.001935  -0.001085   0.000583
    29  H   -0.000686   0.000077  -0.000042
    30  H    0.004688  -0.000760   0.000224
    31  O    0.000001  -0.000003   0.000002
    32  H   -0.000041   0.000021  -0.000009
    33  H    0.000003  -0.000001   0.000000
    34  O   -0.000000  -0.000001   0.000008
    35  H   -0.000003   0.000003  -0.000010
    36  H    0.000001   0.000001  -0.000003
    37  O    7.938128   0.309016   0.308772
    38  H    0.309016   0.428785  -0.017464
    39  H    0.308772  -0.017464   0.429545
 Mulliken charges:
               1
     1  O   -0.641053
     2  H    0.330851
     3  H    0.312199
     4  O   -0.577612
     5  H    0.265232
     6  H    0.275638
     7  O   -0.572774
     8  H    0.277759
     9  H    0.292290
    10  O   -0.557101
    11  H    0.297525
    12  H    0.283071
    13  O   -0.548932
    14  H    0.280759
    15  H    0.269995
    16  O   -0.557213
    17  H    0.215692
    18  H    0.287619
    19  O   -0.503827
    20  H    0.286445
    21  H    0.268123
    22  O   -0.586987
    23  H    0.317111
    24  H    0.314473
    25  O   -0.575509
    26  H    0.278508
    27  H    0.280993
    28  O   -0.578288
    29  H    0.318278
    30  H    0.268712
    31  O   -0.572096
    32  H    0.261342
    33  H    0.303415
    34  O   -0.542549
    35  H    0.299134
    36  H    0.227111
    37  O   -0.559495
    38  H    0.281017
    39  H    0.280145
 Sum of Mulliken charges =  -0.00000
 Mulliken charges with hydrogens summed into heavy atoms:
               1
     1  O    0.001997
     4  O   -0.036742
     7  O   -0.002724
    10  O    0.023496
    13  O    0.001821
    16  O   -0.053902
    19  O    0.050740
    22  O    0.044596
    25  O   -0.016009
    28  O    0.008703
    31  O   -0.007339
    34  O   -0.016304
    37  O    0.001668
 Electronic spatial extent (au):  <R**2>=         328178.0781
 Charge=             -0.0000 electrons
 Dipole moment (field-independent basis, Debye):
    X=             -2.4015    Y=             -4.8102    Z=              3.2193  Tot=              6.2665
 Quadrupole moment (field-independent basis, Debye-Ang):
   XX=           -184.3683   YY=           -136.7205   ZZ=            -20.8250
   XY=           -116.5564   XZ=             23.2540   YZ=            -33.3553
 Traceless Quadrupole moment (field-independent basis, Debye-Ang):
   XX=            -70.3970   YY=            -22.7493   ZZ=             93.1463
   XY=           -116.5564   XZ=             23.2540   YZ=            -33.3553
 Octapole moment (field-independent basis, Debye-Ang**2):
  XXX=          -8587.3938  YYY=          -2002.0457  ZZZ=          -2757.3603  XYY=          -2963.2451
  XXY=          -3223.1264  XXZ=          -1456.2185  XZZ=          -1285.1131  YZZ=           -818.1400
  YYZ=          -1544.9759  XYZ=           -892.6345
 Hexadecapole moment (field-independent basis, Debye-Ang**3):
 XXXX=        -324908.4701 YYYY=         -25183.7307 ZZZZ=         -98183.6302 XXXY=         -94171.3761
 XXXZ=         -94738.3016 YYYX=         -42290.3818 YYYZ=         -24147.4682 ZZZX=         -74397.4009
 ZZZY=         -27446.1041 XXYY=         -67250.0131 XXZZ=         -58102.9896 YYZZ=         -23319.1820
 XXYZ=         -27932.3079 YYXZ=         -32990.6638 ZZXY=         -19887.6258
 N-N= 9.211350894874D+02 E-N=-4.192477909496D+03  KE= 9.898137264631D+02
 D1PCM: C-PCM CHGder 1st derivatives, ID1Alg=3 FixD1E=F DoIter=F DoCFld=F I1PDM=0.
 Calling FoFJK, ICntrl=      2127 FMM=F ISym2X=0 I1Cent= 0 IOpClX= 0 NMat=1 NMatS=1 NMatT=0.
 -------------------------------------------------------------------
 Center     Atomic                   Forces (Hartrees/Bohr)
 Number     Number              X              Y              Z
 -------------------------------------------------------------------
      1        8           0.042324763   -0.002767063    0.027936153
      2        1           0.013131519    0.012291559   -0.019963379
      3        1          -0.050559221   -0.010547519   -0.009125211
      4        8           0.002867614    0.045482447    0.005476944
      5        1           0.007205122   -0.053597528   -0.005029779
      6        1          -0.009441344    0.005155960    0.002427733
      7        8          -0.014145332   -0.000847663    0.001980379
      8        1           0.006289779   -0.001187621   -0.005045943
      9        1           0.009420896    0.004074658    0.003138516
     10        8          -0.047992322    0.009254780    0.025520803
     11        1           0.053258989   -0.011084895   -0.026041455
     12        1          -0.006851407    0.006377054   -0.000108046
     13        8           0.020736165    0.018461879    0.016909434
     14        1          -0.001582547   -0.012823154   -0.016554879
     15        1          -0.019627095   -0.006337315   -0.001092072
     16        8           0.015804086    0.010636716   -0.012453107
     17        1          -0.007703501   -0.008851695   -0.001611190
     18        1          -0.012815263   -0.003741839    0.010274214
     19        8          -0.015113916    0.035448438   -0.058557974
     20        1          -0.004032652    0.007879951    0.035139736
     21        1           0.015284085   -0.044412925    0.020856303
     22        8           0.026800667    0.001110659    0.025978364
     23        1           0.014907048    0.020484018    0.000060755
     24        1          -0.036894862   -0.021632480   -0.026891756
     25        8           0.084343726   -0.018162466    0.028673033
     26        1          -0.088809091    0.016941390   -0.022277624
     27        1           0.003179776    0.003996148   -0.008621769
     28        8          -0.050056489   -0.022004800   -0.009010824
     29        1           0.063846126    0.023187254   -0.005262375
     30        1          -0.016516489   -0.002247655    0.014423898
     31        8           0.017774946   -0.018007447    0.009529677
     32        1          -0.016417342    0.004165691    0.000319807
     33        1          -0.001830027    0.014301325   -0.009350664
     34        8           0.001256093    0.000078678    0.004443943
     35        1          -0.004896080   -0.004337244   -0.007123569
     36        1           0.006754467    0.003042474    0.011048060
     37        8           0.026086750    0.009874434   -0.001253629
     38        1          -0.011917912   -0.003050727   -0.006396141
     39        1          -0.014069722   -0.006603475    0.007633634
 -------------------------------------------------------------------
 Cartesian Forces:  Max     0.088809091 RMS     0.023171199

 GradGradGradGradGradGradGradGradGradGradGradGradGradGradGradGradGradGrad
 Berny optimization.
 Search for a local minimum.
 Step number   1 out of a maximum of    2
 All quantities printed in internal units (Hartrees-Bohrs-Radians)
 Second derivative matrix not updated -- first step.
 ITU=  0
     Eigenvalues ---   -0.00000  -0.00000  -0.00000  -0.00000  -0.00000
     Eigenvalues ---   -0.00000  -0.00000  -0.00000  -0.00000  -0.00000
     Eigenvalues ---   -0.00000  -0.00000  -0.00000  -0.00000  -0.00000
     Eigenvalues ---   -0.00000  -0.00000  -0.00000  -0.00000  -0.00000
     Eigenvalues ---   -0.00000  -0.00000  -0.00000  -0.00000  -0.00000
     Eigenvalues ---   -0.00000  -0.00000  -0.00000  -0.00000  -0.00000
     Eigenvalues ---   -0.00000  -0.00000  -0.00000  -0.00000  -0.00000
     Eigenvalues ---   -0.00000  -0.00000   0.00000   0.00000   0.00000
     Eigenvalues ---    0.00000   0.00000   0.00000   0.00000   0.00000
     Eigenvalues ---    0.00000   0.00000   0.00000   0.00000   0.00000
     Eigenvalues ---    0.00000   0.00000   0.00000   0.00000   0.00000
     Eigenvalues ---    0.00000   0.00000   0.00000   0.00000   0.00000
     Eigenvalues ---    0.00000   0.00000   0.00000   0.00000   0.00000
     Eigenvalues ---    0.00000   0.00000   0.00000   0.00000   0.00000
     Eigenvalues ---    0.00000   0.00000   0.12842   0.13664   0.13938
     Eigenvalues ---    0.14085   0.14227   0.14271   0.14294   0.14640
     Eigenvalues ---    0.14728   0.15191   0.15355   0.16282   0.16644
     Eigenvalues ---    0.72652   0.76986   0.78463   0.79484   0.81272
     Eigenvalues ---    0.83460   0.87889   0.90333   0.93874   0.95023
     Eigenvalues ---    0.96798   0.99833   1.01142   1.01642   1.03482
     Eigenvalues ---    1.04061   1.07032   1.07809   1.09411   1.10275
     Eigenvalues ---    1.11022   1.14751   1.17261   1.21491   1.29319
     Eigenvalues ---    1.49492
 Eigenvalue     1 is  -2.55D-15 should be greater than     0.000000 Eigenvector:
                          Y29       X29       Y35       X34       Y22
   1                    0.63504  -0.25756   0.21718   0.17826   0.17733
                          Z3        Z23       Y28       X3        X1
   1                   -0.14528  -0.14295  -0.14204  -0.14168  -0.14109
 Eigenvalue     2 is  -2.44D-15 should be greater than     0.000000 Eigenvector:
                          Z23       X30       Z30       X29       Z21
   1                    0.36782  -0.32803  -0.23740  -0.19908  -0.18277
                          X8        Z25       X34       Z33       Z22
   1                    0.17556   0.16940  -0.16228  -0.16192   0.15930
 Eigenvalue     3 is  -2.33D-15 should be greater than     0.000000 Eigenvector:
                          Z17       Y30       Z11       Y38       Y8
   1                    0.27355   0.27091  -0.24868  -0.21895   0.21024
                          Z36       Y39       X32       Y28       Y9
   1                   -0.20575  -0.19424   0.18668  -0.18250   0.16619
 Eigenvalue     4 is  -2.33D-15 should be greater than     0.000000 Eigenvector:
                          X30       Z23       Y32       X28       Y29
   1                    0.34603   0.33307  -0.26212   0.25808   0.22692
                          X29       X38       X32       X23       X35
   1                    0.22290  -0.21786  -0.20743  -0.16653  -0.16389
 Eigenvalue     5 is  -2.22D-15 should be greater than     0.000000 Eigenvector:
                          Y39       X20       X18       Y38       Z16
   1                    0.30147   0.24622  -0.21910   0.19733   0.19135
                          Y12       X35       Z36       Z30       Y16
   1                    0.17579  -0.17540  -0.17078  -0.16609  -0.16245
 Eigenvalue     6 is  -1.89D-15 should be greater than     0.000000 Eigenvector:
                          Z26       Y36       X27       Z32       Z30
   1                    0.38583  -0.28464   0.23809  -0.23282  -0.22534
                          Z31       Y35       Z28       Y28       Y32
   1                    0.20059   0.19705  -0.19149   0.18716  -0.18009
 Eigenvalue     7 is  -1.55D-15 should be greater than     0.000000 Eigenvector:
                          X33       Z31       Y38       Y36       Y27
   1                    0.31990  -0.26318   0.21342  -0.18723  -0.17095
                          X5        X8        X26       Y28       X6
   1                   -0.16683  -0.16649   0.15530   0.15504   0.15374
 Eigenvalue     8 is  -1.22D-15 should be greater than     0.000000 Eigenvector:
                          Z6        Y7        Y11       X8        Y14
   1                    0.51858   0.24242   0.22021   0.20204   0.18285
                          Y28       X16       Y4        Y27       Z16
   1                   -0.17160  -0.16391  -0.14190   0.14054  -0.13664
 Eigenvalue     9 is  -1.22D-15 should be greater than     0.000000 Eigenvector:
                          Z25       X9        Y35       X7        Z32
   1                    0.30486   0.28542  -0.24365   0.20114   0.19898
                          Y38       Z7        Y34       Z24       Z8
   1                    0.19859  -0.19663  -0.18309  -0.17802  -0.16712
 Eigenvalue    10 is  -1.22D-15 should be greater than     0.000000 Eigenvector:
                          X20       Y24       Z22       X6        Z35
   1                    0.34410   0.23996  -0.21205  -0.18721  -0.18360
                          Y39       X24       Y4        X4        X29
   1                    0.18164  -0.17319   0.17270  -0.16914  -0.16852
 Eigenvalue    11 is  -1.11D-15 should be greater than     0.000000 Eigenvector:
                          Z16       Y17       Y13       Z18       X20
   1                    0.30016  -0.26934  -0.24171   0.21182  -0.19185
                          Y30       X17       Y14       X22       Z9
   1                   -0.18790  -0.17718  -0.17615   0.17448  -0.16740
 Eigenvalue    12 is  -1.11D-15 should be greater than     0.000000 Eigenvector:
                          Y19       X19       Y21       Y36       Z24
   1                    0.31464   0.26673   0.20244   0.19357   0.19202
                          X6        X23       Z36       Y26       X4
   1                   -0.18770   0.18741  -0.18561  -0.16673  -0.15604
 Eigenvalue    13 is  -1.11D-15 should be greater than     0.000000 Eigenvector:
                          Z34       Y35       X20       Z35       Y30
   1                    0.34822  -0.31253   0.29098   0.24272  -0.18268
                          Z23       X21       X34       Z25       Y4
   1                   -0.16581  -0.16113  -0.16012  -0.16007  -0.15918
 Eigenvalue    14 is  -9.99D-16 should be greater than     0.000000 Eigenvector:
                          Y9        Z17       Z8        Y30       Y1
   1                    0.38447   0.30787   0.22652  -0.22131  -0.18926
                          Y7        Z12       Y39       Y17       Y12
   1                    0.18226  -0.18132  -0.17792   0.16703   0.14715
 Eigenvalue    15 is  -9.99D-16 should be greater than     0.000000 Eigenvector:
                          Y12       Z13       Z14       X20       Z31
   1                    0.26017  -0.25539  -0.24063  -0.22725   0.19834
                          Z27       Z5        Z25       X35       Z26
   1                   -0.17686   0.17254   0.17199   0.17125  -0.16790
 Eigenvalue    16 is  -9.99D-16 should be greater than     0.000000 Eigenvector:
                          Z38       Z39       X30       Y25       Y27
   1                    0.24976   0.24393  -0.24300  -0.23154  -0.20866
                          Z30       Z25       Z37       Y10       Z24
   1                   -0.20498  -0.19839   0.19546  -0.17093  -0.17070
 Eigenvalue    17 is  -8.88D-16 should be greater than     0.000000 Eigenvector:
                          Y3        Z5        X5        Z6        Z16
   1                    0.32568   0.29971  -0.19842  -0.18568   0.17334
                          Z31       Y9        Y24       Z17       Z10
   1                   -0.15916  -0.15865   0.15862   0.15772  -0.15769
 Eigenvalue    18 is  -8.88D-16 should be greater than     0.000000 Eigenvector:
                          Z6        Z9        Z32       Y2        Y28
   1                    0.30967  -0.26348   0.26002  -0.23005   0.21289
                          X17       Y3        Z26       Z8        Y39
   1                    0.20528   0.20051  -0.19747  -0.18786  -0.16957
 Eigenvalue    19 is  -7.77D-16 should be greater than     0.000000 Eigenvector:
                          Y3        Y12       Z11       X17       Z31
   1                    0.51509  -0.25452   0.22158  -0.19600   0.18445
                          Y14       X5        Y10       Z12       X2
   1                    0.17049   0.16152   0.16058  -0.16043   0.15533
 Eigenvalue    20 is  -7.77D-16 should be greater than     0.000000 Eigenvector:
                          Y9        Y24       X9        Y6        Z9
   1                    0.40884   0.21299  -0.19289  -0.19095  -0.18831
                          X39       Y38       Y7        X8        Y37
   1                   -0.17319   0.17237  -0.16254  -0.16058  -0.15443
 Eigenvalue    21 is  -7.77D-16 should be greater than     0.000000 Eigenvector:
                          X13       Z13       Y28       X15       Y12
   1                    0.26940   0.21911   0.21258   0.21252  -0.20572
                          X38       X22       X37       X18       Z12
   1                   -0.20088   0.18540  -0.18044   0.17857  -0.17358
 Eigenvalue    22 is  -7.77D-16 should be greater than     0.000000 Eigenvector:
                          Y38       X39       X38       Y39       X34
   1                    0.51416   0.45388  -0.33006  -0.22158  -0.18396
                          Z37       X19       Y7        Y28       X13
   1                   -0.18126   0.16014  -0.15661  -0.13537   0.12674
 Eigenvalue    23 is  -7.77D-16 should be greater than     0.000000 Eigenvector:
                          Z23       Z24       X24       Z31       Z27
   1                    0.33320  -0.22871   0.20696  -0.19638  -0.19470
                          Z29       X26       X12       Y33       X9
   1                   -0.17629   0.17305  -0.17165   0.17088   0.16493
 Eigenvalue    24 is  -6.66D-16 should be greater than     0.000000 Eigenvector:
                          X18       Z33       X16       Y28       Y10
   1                    0.42608   0.22473   0.22396  -0.21941  -0.20703
                          Y39       Z9        X23       Z20       Z27
   1                    0.18710   0.18088  -0.16951  -0.16428   0.15596
 Eigenvalue    25 is  -6.66D-16 should be greater than     0.000000 Eigenvector:
                          Z24       Y16       Y26       Z32       X18
   1                    0.25535   0.24255   0.22213   0.20158   0.19777
                          Z27       Z25       Y14       Z20       Z33
   1                   -0.19446  -0.17534  -0.16801   0.16572  -0.16171
 Eigenvalue    26 is  -5.55D-16 should be greater than     0.000000 Eigenvector:
                          Y3        X2        Z15       Y14       Y13
   1                    0.30967   0.25769  -0.25253  -0.24684  -0.20551
                          X36       Z17       Z2        Z4        Y18
   1                   -0.20286  -0.20030   0.16851   0.16085   0.15927
 Eigenvalue    27 is  -4.44D-16 should be greater than     0.000000 Eigenvector:
                          Y37       X5        Y2        Y11       X1
   1                    0.31321  -0.30334   0.21467  -0.20919   0.20186
                          X11       X38       Z37       Y3        Z16
   1                   -0.17981   0.17940   0.17405   0.16625  -0.16529
 Eigenvalue    28 is  -4.44D-16 should be greater than     0.000000 Eigenvector:
                          Y19       Z21       Y8        X22       X23
   1                    0.28246  -0.27923  -0.26373  -0.24151  -0.23233
                          Z2        Z25       Y29       X1        Z9
   1                    0.22140  -0.18426  -0.18305  -0.15538  -0.13923
 Eigenvalue    29 is  -3.33D-16 should be greater than     0.000000 Eigenvector:
                          Z17       Y8        Y11       Y35       Y18
   1                    0.26360  -0.22500   0.20417  -0.19942  -0.19550
                          Y14       Y9        Z12       X36       X7
   1                   -0.19234  -0.17905  -0.16330  -0.16298  -0.15979
 Eigenvalue    30 is  -3.33D-16 should be greater than     0.000000 Eigenvector:
                          Z6        Z5        Z25       Z12       Y16
   1                    0.34002  -0.30388   0.23023  -0.20916   0.19806
                          Z16       Y26       Z32       Z21       Z7
   1                    0.18299  -0.18244  -0.17563   0.16623   0.16267
 Eigenvalue    31 is  -3.33D-16 should be greater than     0.000000 Eigenvector:
                          X17       X35       X14       Y30       X24
   1                    0.28206  -0.25421  -0.22139   0.20813   0.19765
                          X22       X34       Z26       Z30       Y26
   1                    0.19377  -0.18697   0.18609   0.16491   0.16310
 Eigenvalue    32 is  -2.22D-16 should be greater than     0.000000 Eigenvector:
                          Y2        X2        Z27       Y37       X8
   1                    0.26786  -0.24282   0.20906  -0.20287   0.18376
                          Y6        Y3        Z11       Y1        X10
   1                    0.18186   0.18061  -0.17681   0.16925   0.16598
 Eigenvalue    33 is  -2.22D-16 should be greater than     0.000000 Eigenvector:
                          Z24       Y15       X14       Z26       Z21
   1                    0.30270   0.28324   0.24614  -0.18948   0.18474
                          X23       Y13       Z14       X24       X20
   1                   -0.18217  -0.17539  -0.17303  -0.16184  -0.15458
 Eigenvalue    34 is  -1.11D-16 should be greater than     0.000000 Eigenvector:
                          Y2        X36       Y24       Y3        X8
   1                    0.28948  -0.26232   0.22578  -0.22362   0.20460
                          Y33       Z9        Y26       Z2        Z36
   1                   -0.18858  -0.17128  -0.16032   0.15890   0.15739
 Eigenvalue    35 is  -1.11D-16 should be greater than     0.000000 Eigenvector:
                          Z21       X19       X18       X34       Y11
   1                    0.26563   0.23311   0.21108  -0.20083  -0.19620
                          X8        Z4        X36       Y16       X14
   1                   -0.19095   0.17657  -0.17511  -0.16721  -0.16694
 Eigenvalue    36 is  -1.11D-16 should be greater than     0.000000 Eigenvector:
                          Z3        Y8        Y6        Z4        Z11
   1                    0.39811   0.30284  -0.24250  -0.21773   0.21483
                          Y9        X5        Y3        X8        X2
   1                    0.20689   0.16978   0.16840  -0.16754  -0.16356
 Eigenvalue    37 is  -1.11D-16 should be greater than     0.000000 Eigenvector:
                          Z29       X21       Z6        Y15       Y7
   1                    0.23541  -0.23010   0.21134   0.21093  -0.20644
                          X17       Z4        Z16       X18       Z14
   1                   -0.19141  -0.18670  -0.18071   0.17190  -0.16909
 Eigenvalue    38 is   0.00D+00 Eigenvector:
                          Y1        X5        Z4        Z11       Z15
   1                    0.36958  -0.35001  -0.28025   0.18015  -0.17282
                          X23       X17       Y5        Y11       X8
   1                   -0.16192   0.14237  -0.14000  -0.13844   0.13828
 Eigenvalue    39 is   0.00D+00 Eigenvector:
                          Z11       X12       Y2        Z2        Z5
   1                    0.34438   0.28641   0.27844   0.23600   0.20947
                          X33       Y11       Z3        Y29       X27
   1                   -0.19703  -0.19060  -0.18675   0.18334  -0.16967
 Eigenvalue    40 is   2.22D-16 Eigenvector:
                          Z4        Y9        Y10       Z5        Z3
   1                    0.34974   0.22260   0.21652   0.21040   0.20847
                          Y6        Y39       Z15       Z22       Y3
   1                    0.19638   0.17799  -0.17140  -0.15711  -0.15071
 Eigenvalue    41 is   2.22D-16 Eigenvector:
                          Z12       Z14       Y24       Y20       Y14
   1                    0.30045  -0.28956  -0.24569   0.22912   0.21422
                          X18       Z10       Y9        Z9        X20
   1                    0.19244   0.16231   0.15607  -0.14778   0.14379
 Eigenvalue    42 is   2.22D-16 Eigenvector:
                          Y22       Z27       X1        X38       Z2
   1                    0.28714   0.23708   0.19736  -0.17958  -0.17607
                          X32       Y31       Z1        Y29       Y23
   1                    0.17472  -0.17159  -0.16579  -0.16578   0.16387
 Eigenvalue    43 is   2.22D-16 Eigenvector:
                          Z15       X8        Z7        X36       Z5
   1                    0.30411  -0.26259  -0.24172  -0.20902  -0.19372
                          X9        Y36       Y39       Z13       Y14
   1                    0.19000   0.18866   0.18373   0.17989   0.17259
 Eigenvalue    44 is   2.22D-16 Eigenvector:
                          Z27       X35       Y35       X34       Y12
   1                    0.27849  -0.27186   0.24190  -0.22441   0.19569
                          X19       Z23       Y18       Y23       X14
   1                    0.16628  -0.16433  -0.16426  -0.16155   0.15818
 Eigenvalue    45 is   2.22D-16 Eigenvector:
                          Y37       Z3        X33       Y7        Y11
   1                    0.24883  -0.21439   0.19138  -0.18895   0.17637
                          Y26       X2        Y10       Y35       Z16
   1                   -0.17452  -0.16283   0.16161  -0.16037  -0.15690
 Eigenvalue    46 is   2.22D-16 Eigenvector:
                          Y7        Y15       Y17       Z33       Y26
   1                    0.31956   0.25511  -0.24187  -0.19073  -0.17709
                          Z17       X15       X17       X8        Y1
   1                   -0.17543  -0.17211  -0.16451   0.16220  -0.15777
 Eigenvalue    47 is   4.44D-16 Eigenvector:
                          Y11       X5        Z5        Y14       X21
   1                    0.34313  -0.29884  -0.22682   0.20393   0.19530
                          X18       Y2        X23       Z31       X20
   1                   -0.19089   0.18258  -0.17200   0.16646   0.15221
 Eigenvalue    48 is   4.44D-16 Eigenvector:
                          Z5        Z33       X21       Y10       Z3
   1                    0.27537  -0.25733  -0.24348  -0.24263  -0.23101
                          Y8        Y1        Z36       Y18       X6
   1                    0.18665   0.17611   0.17170  -0.15566   0.15207
 Eigenvalue    49 is   6.66D-16 Eigenvector:
                          Z5        X6        Z15       Y30       Z17
   1                    0.30968   0.21590  -0.21027  -0.20742   0.19545
                          X19       X4        Y39       Y7        X26
   1                   -0.18935   0.18643   0.17707  -0.17120  -0.16762
 Eigenvalue    50 is   6.66D-16 Eigenvector:
                          X17       Z6        Y11       X12       X16
   1                    0.26805   0.23791   0.20715  -0.20317   0.19731
                          Z29       X39       Y37       Y1        X8
   1                   -0.19655  -0.18184   0.17568  -0.15812  -0.15071
 Eigenvalue    51 is   6.66D-16 Eigenvector:
                          Z4        Z21       Y9        Y35       X14
   1                    0.42193  -0.25588  -0.22427   0.17813   0.17178
                          Y6        Y24       Z11       Z27       Y37
   1                   -0.16687  -0.16672   0.16414  -0.15742   0.15293
 Eigenvalue    52 is   6.66D-16 Eigenvector:
                          Y3        Z25       Z6        Z33       Y6
   1                    0.25393  -0.23863   0.23222  -0.23142  -0.22815
                          Y2        Z20       Z14       Y8        X20
   1                    0.20847  -0.19936   0.19846  -0.18047  -0.17219
 Eigenvalue    53 is   6.66D-16 Eigenvector:
                          Y1        Z10       Z3        Z23       Y12
   1                    0.25327  -0.24026   0.23716   0.22758   0.22257
                          Z4        Z12       X10       Z6        Y11
   1                    0.21503  -0.21430  -0.19631  -0.17621   0.16996
 Eigenvalue    54 is   6.66D-16 Eigenvector:
                          Y33       Y34       Z29       Z31       X35
   1                    0.23886  -0.22956  -0.22597  -0.20724  -0.20642
                          X24       Y30       Z26       Y32       Z37
   1                    0.20537   0.18878  -0.18662   0.17544   0.16664
 Eigenvalue    55 is   8.88D-16 Eigenvector:
                          Y31       Y37       X14       Y38       Z29
   1                    0.27372  -0.21509   0.21058  -0.20858  -0.20246
                          Y28       X21       Z34       Z26       X39
   1                   -0.19483   0.17716   0.17197   0.17165   0.16539
 Eigenvalue    56 is   8.88D-16 Eigenvector:
                          Y28       X27       X32       X28       X35
   1                    0.28606   0.27964   0.26980  -0.26526  -0.23067
                          X31       X29       Y35       Y36       Z30
   1                    0.19997  -0.18558  -0.18463   0.18305   0.18207
 Eigenvalue    57 is   8.88D-16 Eigenvector:
                          Z8        X21       X24       Z15       Z33
   1                    0.24114   0.22089   0.19870   0.18231   0.17556
                          Y9        Y31       Z5        Z18       Y11
   1                    0.16596  -0.16595   0.15537  -0.15536  -0.15393
 Eigenvalue    58 is   8.88D-16 Eigenvector:
                          Y9        Z17       Z7        X14       X18
   1                    0.26135  -0.20826  -0.19788   0.18690  -0.17339
                          X33       Y12       Z29       Z13       X10
   1                    0.16762  -0.16575   0.16207  -0.15725  -0.15502
 Eigenvalue    59 is   8.88D-16 Eigenvector:
                          Z26       Y14       Z13       Y15       Y13
   1                    0.27768  -0.21293  -0.20935   0.19726   0.19472
                          Y2        Z20       Z29       X14       Y10
   1                   -0.18948  -0.18756  -0.18586   0.17562   0.16926
 Eigenvalue    60 is   8.88D-16 Eigenvector:
                          Z17       Y15       X21       Y2        Y34
   1                    0.25658   0.24662  -0.21435  -0.19844  -0.19805
                          Z5        X34       Y14       Z23       Y8
   1                   -0.19300   0.19199   0.18680   0.17791  -0.16553
 Eigenvalue    61 is   1.11D-15 Eigenvector:
                          Y30       Y35       Y34       Y20       X11
   1                    0.30597  -0.23020  -0.21509  -0.20996  -0.20813
                          Y7        X19       X35       Z15       X10
   1                   -0.20661   0.20482   0.19630   0.17101  -0.15676
 Eigenvalue    62 is   1.11D-15 Eigenvector:
                          Z25       Z29       Z21       Y10       Y20
   1                    0.26068  -0.21286  -0.20062  -0.20058  -0.19919
                          X34       X24       Y22       Y17       Y8
   1                   -0.18628   0.18474   0.18043  -0.17852  -0.17584
 Eigenvalue    63 is   1.11D-15 Eigenvector:
                          Z27       X21       X38       Y20       Z20
   1                    0.30236   0.24178   0.20583  -0.20161   0.19834
                          X35       Z32       Y30       Z21       X20
   1                   -0.19636  -0.19458  -0.19313  -0.18713   0.18402
 Eigenvalue    64 is   1.33D-15 Eigenvector:
                          Y15       X36       Y14       Z15       Z17
   1                    0.26122  -0.19318  -0.18909  -0.18689  -0.18513
                          Z24       X15       X19       Y33       Y11
   1                   -0.17758  -0.17678   0.16596   0.16316   0.16145
 Eigenvalue    65 is   1.33D-15 Eigenvector:
                          Y13       Z27       Y39       Z13       Y12
   1                    0.30503   0.28883  -0.24018  -0.23835  -0.23319
                          X21       X35       Z32       X14       X36
   1                   -0.20974   0.20144   0.17081  -0.16178   0.15959
 Eigenvalue    66 is   1.55D-15 Eigenvector:
                          X19       Z29       Y21       X26       Z31
   1                    0.40250   0.19265  -0.19200  -0.18621  -0.17704
                          X25       Y15       Y13       Y20       Z12
   1                   -0.17180  -0.16924  -0.16584  -0.15483   0.15131
 Eigenvalue    67 is   1.55D-15 Eigenvector:
                          X27       X22       Y28       Y39       Y23
   1                    0.30319   0.24860  -0.24049  -0.22451   0.19797
                          Y26       Y33       Y20       Z24       Z29
   1                   -0.19306   0.19153   0.18088   0.16477   0.16426
 Eigenvalue    68 is   1.78D-15 Eigenvector:
                          X32       X21       X33       Z26       Z29
   1                    0.35247   0.28844  -0.26225   0.23402   0.21849
                          Y30       X28       Z36       Z35       Z34
   1                   -0.20982   0.18562   0.17920   0.17382   0.16556
 Eigenvalue    69 is   2.00D-15 Eigenvector:
                          Y15       Z15       Y18       X35       Z34
   1                    0.34294  -0.28092  -0.23429   0.18970   0.18493
                          Z25       Y30       Y17       Z24       Z33
   1                   -0.18473   0.18219  -0.17546   0.16509   0.16471
 Eigenvalue    70 is   2.00D-15 Eigenvector:
                          Y18       Y38       X34       Y17       X39
   1                    0.29826   0.27708  -0.24431   0.21207  -0.20662
                          Y12       X38       Y1        Z24       Z9
   1                    0.20215   0.18294  -0.18210  -0.15625  -0.15181
 Eigenvalue    71 is   2.66D-15 Eigenvector:
                          Z18       Y18       X27       Z22       Y30
   1                    0.38443   0.26521  -0.24110  -0.23203   0.23040
                          Z2        Z29       X36       Y39       Y8
   1                   -0.20557  -0.17252   0.16735  -0.16707  -0.16115
 Eigenvalue    72 is   2.66D-15 Eigenvector:
                          Y23       Z26       X23       X36       X33
   1                    0.33572   0.32860  -0.29534  -0.23284   0.23142
                          X27       X38       Y34       Y37       X30
   1                   -0.19413   0.16528  -0.15725   0.15396  -0.15320
 Quadratic step=2.103D+02 exceeds max=3.000D-01 adjusted using Lamda=-1.708D-01.
 Angle between NR and scaled steps=  65.70 degrees.
 Angle between quadratic step and forces=  33.70 degrees.
 Linear search not attempted -- first point.
 B after Tr=     0.004532    0.029389   -0.013572
         Rot=    1.000000   -0.000396    0.000066    0.000068 Ang=  -0.05 deg.
 Variable       Old X    -DE/DX   Delta X   Delta X   Delta X     New X
                                 (Linear)    (Quad)   (Total)
    X1       35.00340   0.04232   0.00000   0.04556   0.04844  35.05184
    Y1       13.12604  -0.00277   0.00000  -0.01321  -0.00926  13.11677
    Z1       26.06310   0.02794   0.00000   0.01024   0.01167  26.07478
    X2       34.24940   0.01313   0.00000   0.03328   0.03585  34.28525
    Y2       12.28889   0.01229   0.00000   0.02050   0.02339  12.31228
    Z2       27.56732  -0.01996   0.00000  -0.02621  -0.02552  27.54181
    X3       36.88745  -0.05056   0.00000  -0.05860  -0.05574  36.83171
    Y3       13.44918  -0.01055   0.00000  -0.02401  -0.02066  13.42852
    Z3       26.51097  -0.00913   0.00000   0.00515   0.00706  26.51803
    X4       34.89001   0.00287   0.00000  -0.00924  -0.00666  34.88336
    Y4        8.23543   0.04548   0.00000   0.02731   0.03351   8.26893
    Z4       23.26820   0.00548   0.00000  -0.00496  -0.00740  23.26080
    X5       34.80498   0.00721   0.00000   0.02677   0.02956  34.83453
    Y5       10.15917  -0.05360   0.00000  -0.07869  -0.07281  10.08636
    Z5       23.65370  -0.00503   0.00000   0.01939   0.01839  23.67209
    X6       36.66636  -0.00944   0.00000  -0.02169  -0.01911  36.64724
    Y6        7.87071   0.00516   0.00000   0.01575   0.02194   7.89265
    Z6       22.95450   0.00243   0.00000   0.00892   0.00642  22.96093
    X7       36.89501  -0.01415   0.00000  -0.01828  -0.01696  36.87805
    Y7        8.07102  -0.00085   0.00000   0.00259   0.00108   8.07210
    Z7       32.63935   0.00198   0.00000  -0.00181  -0.00414  32.63521
    X8       36.76651   0.00629   0.00000   0.01898   0.02038  36.78689
    Y8        7.14505  -0.00119   0.00000  -0.00020  -0.00045   7.14460
    Z8       31.08033  -0.00505   0.00000  -0.00960  -0.01267  31.06766
    X9       35.14135   0.00942   0.00000   0.00445   0.00569  35.14704
    Y9        8.00110   0.00407   0.00000   0.01351   0.01178   8.01288
    Z9       33.19871   0.00314   0.00000   0.01953   0.01693  33.21564
   X10       33.46894  -0.04799   0.00000  -0.04979  -0.04602  33.42291
   Y10       14.78144   0.00925   0.00000  -0.00245   0.00565  14.78709
   Z10       21.10257   0.02552   0.00000   0.00815   0.01069  21.11326
   X11       31.74929   0.05326   0.00000   0.06274   0.06644  31.81572
   Y11       15.12537  -0.01108   0.00000  -0.01979  -0.01215  15.11321
   Z11       21.99641  -0.02604   0.00000  -0.02700  -0.02442  21.97200
   X12       34.44215  -0.00685   0.00000  -0.03322  -0.02974  34.41241
   Y12       13.89705   0.00638   0.00000   0.02564   0.03258  13.92963
   Z12       22.38759  -0.00011   0.00000   0.00792   0.00991  22.39749
   X13       38.38034   0.02074   0.00000   0.00775   0.01181  38.39215
   Y13       19.08245   0.01846   0.00000   0.00793   0.01364  19.09609
   Z13       23.25686   0.01691   0.00000   0.00409   0.01070  23.26756
   X14       38.54852  -0.00158   0.00000  -0.00469  -0.00067  38.54786
   Y14       20.21818  -0.01282   0.00000  -0.01572  -0.01117  20.20701
   Z14       24.72518  -0.01655   0.00000  -0.02045  -0.01294  24.71223
   X15       36.65313  -0.01963   0.00000  -0.01787  -0.01386  36.63926
   Y15       18.62136  -0.00634   0.00000  -0.01281  -0.00684  18.61452
   Z15       23.25119  -0.00109   0.00000  -0.00788  -0.00189  23.24930
   X16       41.74216   0.01580   0.00000   0.02286   0.02573  41.76789
   Y16       13.91783   0.01064   0.00000   0.01876   0.02108  13.93891
   Z16       26.97395  -0.01245   0.00000  -0.00391  -0.00094  26.97301
   X17       43.06308  -0.00770   0.00000  -0.03432  -0.03166  43.03142
   Y17       12.66494  -0.00885   0.00000  -0.04510  -0.04314  12.62181
   Z17       27.22717  -0.00161   0.00000  -0.02521  -0.02312  27.20405
   X18       42.55474  -0.01282   0.00000  -0.02476  -0.02158  42.53316
   Y18       14.90616  -0.00374   0.00000   0.00761   0.01089  14.91705
   Z18       25.61902   0.01027   0.00000  -0.00184   0.00201  25.62102
   X19       41.75728  -0.01511   0.00000  -0.00658  -0.00396  41.75331
   Y19        5.74099   0.03545   0.00000   0.03346   0.04090   5.78189
   Z19       20.55833  -0.05856   0.00000  -0.05937  -0.06287  20.49546
   X20       41.97082  -0.00403   0.00000  -0.01674  -0.01403  41.95679
   Y20        4.95297   0.00788   0.00000  -0.00807   0.00065   4.95362
   Z20       18.83112   0.03514   0.00000   0.03254   0.02841  18.85953
   X21       41.00139   0.01528   0.00000  -0.00732  -0.00442  40.99697
   Y21        7.44930  -0.04441   0.00000  -0.05508  -0.04714   7.40216
   Z21       19.99141   0.02086   0.00000   0.02213   0.01982  20.01123
   X22       44.80541   0.02680   0.00000   0.02469   0.02702  44.83243
   Y22        9.39761   0.00111   0.00000   0.01269   0.01502   9.41262
   Z22       26.42404   0.02598   0.00000   0.00944   0.00922  26.43326
   X23       44.05707   0.01491   0.00000   0.03929   0.04133  44.09841
   Y23        7.75922   0.02048   0.00000   0.04191   0.04394   7.80315
   Z23       26.92482   0.00006   0.00000   0.01256   0.01097  26.93579
   X24       46.26616  -0.03689   0.00000  -0.04257  -0.04034  46.22582
   Y24        9.84358  -0.02163   0.00000  -0.06092  -0.05970   9.78389
   Z24       27.61268  -0.02689   0.00000  -0.02564  -0.02537  27.58730
   X25       44.32164   0.08434   0.00000   0.02708   0.03081  44.35245
   Y25       14.72475  -0.01816   0.00000  -0.00952  -0.00301  14.72174
   Z25       21.17816   0.02867   0.00000   0.04786   0.05178  21.22994
   X26       42.70403  -0.08881   0.00000  -0.06623  -0.06239  42.64164
   Y26       15.00065   0.01694   0.00000   0.01902   0.02613  15.02677
   Z26       20.79455  -0.02228   0.00000  -0.02496  -0.02101  20.77353
   X27       44.45203   0.00318   0.00000   0.02060   0.02406  44.47609
   Y27       12.90494   0.00400   0.00000  -0.01310  -0.00674  12.89820
   Z27       21.45028  -0.00862   0.00000  -0.04671  -0.04421  21.40607
   X28       41.66279  -0.05006   0.00000  -0.04522  -0.04330  41.61949
   Y28       12.91439  -0.02200   0.00000  -0.01893  -0.02142  12.89296
   Z28       33.06643  -0.00901   0.00000   0.00490   0.00702  33.07345
   X29       39.81275   0.06385   0.00000   0.08646   0.08831  39.90106
   Y29       12.16417   0.02319   0.00000   0.02190   0.01974  12.18391
   Z29       32.97761  -0.00526   0.00000  -0.03404  -0.03270  32.94491
   X30       42.33364  -0.01652   0.00000  -0.06309  -0.06091  42.27273
   Y30       13.05801  -0.00225   0.00000  -0.00265  -0.00388  13.05413
   Z30       31.33733   0.01442   0.00000   0.02409   0.02642  31.36375
   X31       43.79440   0.01777   0.00000   0.02753   0.02855  43.82295
   Y31        5.94886  -0.01801   0.00000  -0.00707  -0.00962   5.93924
   Z31       32.74895   0.00953   0.00000   0.00655   0.00345  32.75241
   X32       42.57175  -0.01642   0.00000  -0.02010  -0.01885  42.55290
   Y32        7.09403   0.00417   0.00000  -0.01192  -0.01379   7.08024
   Z32       32.11023   0.00032   0.00000   0.02079   0.01843  32.12865
   X33       42.99694  -0.00183   0.00000  -0.01326  -0.01255  42.98439
   Y33        4.59581   0.01430   0.00000   0.02932   0.02614   4.62196
   Z33       33.71460  -0.00935   0.00000  -0.01474  -0.01899  33.69561
   X34       45.79184   0.00126   0.00000   0.00637   0.00952  45.80136
   Y34        9.61871   0.00008   0.00000   0.00112   0.00808   9.62679
   Z34       20.39203   0.00444   0.00000   0.01333   0.01342  20.40545
   X35       46.10554  -0.00490   0.00000  -0.01443  -0.01157  46.09397
   Y35        9.22564  -0.00434   0.00000  -0.02406  -0.01852   9.20712
   Z35       22.16649  -0.00712   0.00000  -0.00207  -0.00229  22.16420
   X36       44.69391   0.00675   0.00000   0.01711   0.02016  44.71407
   Y36        8.29401   0.00304   0.00000  -0.00463   0.00299   8.29700
   Z36       19.73441   0.01105   0.00000   0.03851   0.03739  19.77180
   X37       44.05519   0.02609   0.00000   0.02477   0.02784  44.08303
   Y37       19.82701   0.00987   0.00000   0.01426   0.01262  19.83962
   Z37       31.57921  -0.00125   0.00000  -0.01007  -0.00212  31.57709
   X38       45.19091  -0.01192   0.00000  -0.01727  -0.01438  45.17653
   Y38       19.94417  -0.00305   0.00000  -0.00432  -0.00728  19.93689
   Z38       33.03619  -0.00640   0.00000  -0.00320   0.00497  33.04116
   X39       45.17012  -0.01407   0.00000  -0.01614  -0.01281  45.15732
   Y39       20.49597  -0.00660   0.00000  -0.00342  -0.00416  20.49181
   Z39       30.25074   0.00763   0.00000  -0.01109  -0.00248  30.24825
         Item               Value     Threshold  Converged?
 Maximum Force            0.088809     0.000450     NO 
 RMS     Force            0.023171     0.000300     NO 
 Maximum Displacement     0.088309     0.001800     NO 
 RMS     Displacement     0.027487     0.001200     NO 
 Predicted change in Energy=-3.902079D-02
 GradGradGradGradGradGradGradGradGradGradGradGradGradGradGradGradGradGrad


 Test job not archived.
 1\1\GINC-ELECTRA14\Force\RB3LYP\6-311++G(d,p)\H26O13\ZRONYJ\15-Aug-202
 3\0\\#b3lyp/6-311++G** scrf=(cpcm,Solvent=Water) nosymm force iop(2/11
 =1) Geom=(NoDistance,NoAngle)\\cluster_513\\0,1\O,18.523,6.946,13.792\
 H,18.124,6.503,14.588\H,19.52,7.117,14.029\O,18.463,4.358,12.313\H,18.
 418,5.376,12.517\H,19.403,4.165,12.147\O,19.524,4.271,17.272\H,19.456,
 3.781,16.447\H,18.596,4.234,17.568\O,17.711,7.822,11.167\H,16.801,8.00
 4,11.64\H,18.226,7.354,11.847\O,20.31,10.098,12.307\H,20.399,10.699,13
 .084\H,19.396,9.854,12.304\O,22.089,7.365,14.274\H,22.788,6.702,14.408
 \H,22.519,7.888,13.557\O,22.097,3.038,10.879\H,22.21,2.621,9.965\H,21.
 697,3.942,10.579\O,23.71,4.973,13.983\H,23.314,4.106,14.248\H,24.483,5
 .209,14.612\O,23.454,7.792,11.207\H,22.598,7.938,11.004\H,23.523,6.829
 ,11.351\O,22.047,6.834,17.498\H,21.068,6.437,17.451\H,22.402,6.91,16.5
 83\O,23.175,3.148,17.33\H,22.528,3.754,16.992\H,22.753,2.432,17.841\O,
 24.232,5.09,10.791\H,24.398,4.882,11.73\H,23.651,4.389,10.443\O,23.313
 ,10.492,16.711\H,23.914,10.554,17.482\H,23.903,10.846,16.008\\Version=
 ES64L-G16RevA.03\HF=-994.0446812\RMSD=6.092e-09\RMSF=2.317e-02\Dipole=
 -0.9448405,-1.8924788,1.2665584\Quadrupole=-52.3384464,-16.9135145,69.
 2519609,-86.65682,17.2887915,-24.7988617\PG=C01 [X(H26O13)]\\@


 EXPERIENCE IS THE FRUIT OF THE TREE OF ERRORS.
 Job cpu time:       0 days  0 hours 25 minutes 50.7 seconds.
 Elapsed time:       0 days  0 hours  6 minutes 27.8 seconds.
 File lengths (MBytes):  RWF=    262 Int=      0 D2E=      0 Chk=     27 Scr=      1
 Normal termination of Gaussian 16 at Tue Aug 15 22:15:12 2023.
