45
XYZ file of cluster: frame_2000_7beda.1d54d.8419 - created by MolEdiTo
 O      14.56200000      10.22200000       6.43800000
 H      14.80100000       9.77200000       5.66100000
 H      13.56900000      10.37300000       6.33100000
 O      13.32800000       9.94600000       2.43200000
 H      13.24400000       9.78600000       1.45500000
 H      13.96300000       9.26100000       2.65600000
 O      17.18800000       5.20300000       6.41200000
 H      17.01900000       6.11100000       6.76200000
 H      17.14000000       5.38500000       5.40100000
 O      16.12000000       5.91900000       3.99300000
 H      16.39900000       5.08200000       3.52900000
 H      16.59900000       6.67400000       3.56100000
 O      10.74900000       5.03900000       2.14600000
 H      10.93400000       4.04000000       1.92200000
 H      11.00600000       5.43400000       1.32400000
 O      14.57400000       8.41500000       4.21800000
 H      13.79700000       8.03800000       3.86200000
 H      14.97900000       7.70600000       4.77400000
 O      14.26500000       3.85500000       1.06800000
 H      14.18700000       2.98500000       0.71300000
 H      15.21600000       3.74900000       1.36800000
 O      17.13100000       3.50800000       2.74300000
 H      17.08100000       2.58700000       2.28900000
 H      18.07900000       3.64300000       2.82400000
 O      16.83600000       7.96200000       7.38600000
 H      16.37100000       8.65600000       7.89300000
 H      17.43300000       8.39500000       6.74600000
 O      14.33100000       4.75800000       5.63300000
 H      14.82100000       4.80400000       6.48900000
 H      14.85200000       5.07700000       4.87200000
 O      13.40300000       6.93000000       1.73600000
 H      12.96700000       7.04400000       0.90200000
 H      13.17200000       6.04600000       2.13900000
 O      11.83200000      10.50800000       6.11100000
 H      11.07500000      10.53200000       6.66000000
 H      11.57400000      11.10400000       5.35200000
 O      11.01200000      10.94900000       3.32200000
 H      11.85500000      10.65500000       2.85300000
 H      10.57200000      10.08500000       3.43000000
 O      15.92700000       7.87300000       1.32900000
 H      16.52600000       7.93700000       2.06500000
 H      15.16500000       7.34800000       1.71200000
 O      10.70200000       7.75900000       5.71100000
 H      10.78200000       7.04400000       6.40300000
 H      11.25800000       8.53300000       6.04200000
