36
XYZ file of cluster: frame_2000_4fd43.9b0c0.6791 - created by MolEdiTo
 O      12.05700000      20.25900000       4.96000000
 H      11.16400000      19.96300000       5.05300000
 H      12.02500000      21.18000000       5.30400000
 O       9.99100000      14.60400000       2.74500000
 H      10.06900000      14.57300000       1.76100000
 H       9.95800000      13.67500000       2.97100000
 O      12.75000000      15.64900000       7.82600000
 H      13.20300000      16.51500000       7.87900000
 H      12.40600000      15.71200000       6.87100000
 O      13.59300000      18.20200000       7.05800000
 H      13.15100000      19.07300000       7.24200000
 H      14.46400000      18.45400000       6.74900000
 O       6.84800000      15.65200000       7.24300000
 H       7.51600000      15.87300000       7.98200000
 H       6.81000000      16.42700000       6.74900000
 O       9.77200000      18.81300000       5.57700000
 H      10.33900000      18.07600000       5.28800000
 H       9.11400000      18.91200000       4.89200000
 O       7.49100000      18.32000000       7.46000000
 H       8.39300000      18.30700000       6.99200000
 H       7.65500000      19.17300000       7.84700000
 O      11.29800000      18.81200000       1.18600000
 H      10.37000000      19.15000000       0.99800000
 H      11.46100000      18.03800000       0.55900000
 O      13.26300000      15.87300000       1.28200000
 H      13.33500000      14.93000000       0.95500000
 H      12.96800000      15.80800000       2.23800000
 O      11.03100000      17.36700000       3.54100000
 H      11.48300000      18.04500000       2.90500000
 H      10.54800000      16.86300000       2.96000000
 O      14.16200000      17.19900000       4.31300000
 H      14.54300000      17.79300000       3.60900000
 H      13.56900000      17.77300000       4.86700000
 O       8.17900000      16.25800000       4.50200000
 H       8.85700000      15.99300000       3.83500000
 H       8.53000000      15.73100000       5.25400000
