36
XYZ file of cluster: frame_2000_9a290.98366.6d20 - created by MolEdiTo
 O      17.66200000      17.94600000       3.06300000
 H      18.43200000      17.46700000       2.66200000
 H      17.17200000      18.41600000       2.35400000
 O      20.25100000      18.73100000       5.24100000
 H      19.82300000      18.52800000       4.37500000
 H      20.52100000      17.80400000       5.42400000
 O      18.03300000      16.72300000       6.49300000
 H      17.86300000      17.66100000       6.31900000
 H      18.94100000      16.86800000       6.96300000
 O      15.91600000      14.87900000       4.31500000
 H      15.33000000      14.17400000       3.98900000
 H      15.29200000      15.70900000       4.24100000
 O      13.59300000      18.20200000       7.05800000
 H      13.15100000      19.07300000       7.24200000
 H      14.46400000      18.45400000       6.74900000
 O      18.57000000      14.88200000       4.40700000
 H      18.33300000      14.02200000       4.09400000
 H      17.64900000      15.18600000       4.54800000
 O      15.71100000      14.14700000       7.08700000
 H      15.86300000      14.62000000       6.24500000
 H      16.34500000      13.42500000       7.21000000
 O      17.93400000      20.78100000       3.47100000
 H      18.45100000      20.76800000       2.64300000
 H      17.58200000      19.88600000       3.51000000
 O      16.12900000      19.53800000       1.18800000
 H      15.95200000      20.27600000       0.60000000
 H      15.73600000      18.84900000       0.58900000
 O      17.47900000      19.49800000       6.15700000
 H      16.74000000      20.16600000       5.87300000
 H      18.26200000      20.05500000       5.85700000
 O      14.16200000      17.19900000       4.31300000
 H      14.54300000      17.79300000       3.60900000
 H      13.56900000      17.77300000       4.86700000
 O      19.11200000      15.67500000       1.52700000
 H      18.67500000      14.98800000       2.14300000
 H      18.87200000      15.47600000       0.62100000
