42
XYZ file of cluster: frame_2000_4b02d.2dce3.a71d - created by MolEdiTo
 O       7.39900000       6.13500000       6.22600000
 H       7.75100000       5.51100000       5.57000000
 H       7.53900000       6.96900000       5.79700000
 O      14.56200000      10.22200000       6.43800000
 H      14.80100000       9.77200000       5.66100000
 H      13.56900000      10.37300000       6.33100000
 O       8.88800000       4.41700000       4.51800000
 H       9.70300000       4.81400000       4.24500000
 H       8.40600000       4.22100000       3.66600000
 O      13.32800000       9.94600000       2.43200000
 H      13.24400000       9.78600000       1.45500000
 H      13.96300000       9.26100000       2.65600000
 O       9.10400000       7.57000000       2.92200000
 H       9.97800000       7.11900000       2.95900000
 H       8.41300000       6.93000000       2.60100000
 O      10.74900000       5.03900000       2.14600000
 H      10.93400000       4.04000000       1.92200000
 H      11.00600000       5.43400000       1.32400000
 O       9.40200000       9.38600000       0.99700000
 H       9.24100000       8.66400000       1.59900000
 H       8.58400000       9.84500000       1.20500000
 O      14.57400000       8.41500000       4.21800000
 H      13.79700000       8.03800000       3.86200000
 H      14.97900000       7.70600000       4.77400000
 O       7.32500000       6.04000000       1.83100000
 H       6.39900000       5.67100000       1.78700000
 H       7.72800000       5.82800000       0.96500000
 O      13.40300000       6.93000000       1.73600000
 H      12.96700000       7.04400000       0.90200000
 H      13.17200000       6.04600000       2.13900000
 O      11.83200000      10.50800000       6.11100000
 H      11.07500000      10.53200000       6.66000000
 H      11.57400000      11.10400000       5.35200000
 O      11.01200000      10.94900000       3.32200000
 H      11.85500000      10.65500000       2.85300000
 H      10.57200000      10.08500000       3.43000000
 O       8.27900000       9.60900000       4.43800000
 H       8.47600000       8.74400000       3.92700000
 H       7.96900000       9.21100000       5.34000000
 O      10.70200000       7.75900000       5.71100000
 H      10.78200000       7.04400000       6.40300000
 H      11.25800000       8.53300000       6.04200000
