42
XYZ file of cluster: frame_18500_1bee0.c001b.990b7 - created by MolEdiTo
 O      10.33900000      20.51500000      16.84100000
 H      10.95800000      20.26100000      17.51100000
 H       9.56700000      20.16800000      17.26900000
 O       7.37900000      19.52300000      16.49000000
 H       7.05800000      18.79900000      17.04200000
 H       6.50300000      20.00700000      16.17100000
 O       4.60500000      19.78500000      16.79100000
 H       4.66000000      19.89300000      17.76900000
 H       3.67200000      20.15800000      16.62900000
 O       3.89200000      18.99300000      19.34000000
 H       4.65800000      18.73300000      19.82300000
 H       3.33500000      18.21300000      19.36800000
 O       7.87300000      18.43300000      13.75000000
 H       7.57100000      19.03200000      14.51300000
 H       8.65000000      18.90700000      13.44200000
 O       6.64800000      18.85600000      20.18000000
 H       7.61500000      18.89600000      20.52800000
 H       6.61500000      19.68700000      19.58900000
 O      10.63800000      19.49600000      13.67200000
 H      11.01400000      20.32100000      13.97000000
 H      10.40400000      19.00700000      14.53400000
 O      11.20700000      17.54400000      18.89600000
 H      10.81000000      16.66900000      18.67900000
 H      10.55300000      17.87300000      19.51300000
 O       9.87200000      24.26800000      16.64300000
 H      10.07600000      23.35200000      16.46000000
 H      10.73500000      24.63200000      16.38400000
 O      10.08900000      22.07700000      20.17700000
 H      10.81600000      22.70000000      19.82000000
 H       9.83100000      22.51100000      20.99900000
 O       6.70700000      22.37800000      18.96900000
 H       7.38600000      22.89900000      19.52900000
 H       6.74400000      22.78600000      18.09500000
 O       5.60900000      22.86700000      14.29100000
 H       5.54900000      23.33300000      15.11100000
 H       6.62100000      22.79600000      14.07400000
 O       4.89000000      24.29000000      20.65800000
 H       4.82800000      24.90100000      21.44300000
 H       5.38300000      23.47300000      20.96500000
 O       2.65900000      24.97700000      18.77500000
 H       2.42700000      24.22300000      18.24800000
 H       3.59200000      24.94500000      18.93900000
