39
XYZ file of cluster: frame_18500_a7505.77dd5.4e66a - created by MolEdiTo
 O      18.74200000      12.33400000      12.61600000
 H      18.26200000      11.68200000      11.98500000
 H      18.20100000      13.13300000      12.57900000
 O      16.34100000      14.48100000       9.86300000
 H      16.36900000      13.49900000       9.69500000
 H      15.36600000      14.74100000       9.65500000
 O      16.79700000      14.36700000      12.62900000
 H      16.75100000      14.50600000      11.64900000
 H      16.03200000      13.77900000      12.77600000
 O      16.68200000      14.44300000       6.88600000
 H      17.07700000      15.19000000       7.17500000
 H      17.26900000      13.78800000       7.30600000
 O      16.05200000      10.89100000       9.31500000
 H      15.43800000      11.10100000       8.64700000
 H      16.96600000      10.79900000       8.92100000
 O      18.89100000      14.59600000      14.44700000
 H      18.07400000      14.55500000      13.91900000
 H      19.55600000      14.14600000      13.84300000
 O      18.02500000      16.67700000       7.64700000
 H      18.35500000      16.46400000       8.51500000
 H      17.96100000      17.62100000       7.68100000
 O      15.20200000      12.21700000      11.78700000
 H      15.43100000      11.52900000      12.48000000
 H      15.12600000      11.62400000      10.99200000
 O      18.98300000      10.81900000       9.70600000
 H      19.53300000      10.48300000       8.98400000
 H      19.31900000      10.40600000      10.51100000
 O      20.48300000      14.02400000      11.26800000
 H      20.68200000      13.97100000      10.28700000
 H      19.79500000      13.43900000      11.55400000
 O      16.84300000      17.26400000      10.80500000
 H      15.91100000      17.65000000      11.03300000
 H      16.64900000      16.29400000      10.79100000
 O      18.72200000      11.40100000      15.10900000
 H      19.46900000      11.88900000      15.50400000
 H      18.95300000      11.55300000      14.10200000
 O      14.89100000      16.90700000       7.79200000
 H      14.53900000      17.79400000       8.07200000
 H      15.87000000      17.06600000       7.70200000
