42
XYZ file of cluster: frame_18500_99e54.214d0.0 - created by MolEdiTo
 O      18.86200000       7.61700000       7.03700000
 H      19.72000000       8.15900000       7.02200000
 H      19.24900000       6.71900000       7.12400000
 O      19.79000000       6.26500000       3.61200000
 H      18.99700000       6.70800000       3.11200000
 H      19.74100000       5.41900000       3.18600000
 O      14.73500000       8.96400000       3.22000000
 H      15.66300000       9.12800000       3.00000000
 H      14.88800000       8.64000000       4.14000000
 O      15.77400000       5.63700000       5.58000000
 H      15.38000000       4.89500000       5.09500000
 H      15.04600000       5.95100000       6.17700000
 O      19.57600000       7.92200000       0.97700000
 H      20.47900000       7.53400000       0.91000000
 H      19.13600000       7.82100000       0.06900000
 O      17.16800000      11.32700000       6.57800000
 H      17.29000000      10.46800000       6.04400000
 H      17.03700000      11.99600000       5.84500000
 O      19.95000000       8.94500000       4.42800000
 H      19.97400000       7.98300000       4.42700000
 H      19.00800000       9.14600000       4.61500000
 O      17.17200000       9.06600000       4.99900000
 H      17.65400000       8.59800000       5.74700000
 H      17.23100000       8.45100000       4.23500000
 O      19.98900000      10.72900000       2.29400000
 H      20.51200000      10.49200000       1.46900000
 H      20.03700000       9.95600000       2.89000000
 O      17.25800000       7.65900000       2.57600000
 H      16.44100000       7.50500000       2.00600000
 H      17.83500000       8.14800000       1.91400000
 O      13.75000000       9.32700000       7.57600000
 H      13.37300000       8.76600000       6.87900000
 H      14.29500000       8.66000000       8.14800000
 O      14.98400000       3.66500000       2.26900000
 H      14.06000000       3.96800000       2.55100000
 H      15.14400000       2.89100000       2.88500000
 O      14.94700000       6.89100000       0.97700000
 H      14.65300000       5.98400000       0.95900000
 H      15.14300000       6.95800000       0.00000000
 O      18.46700000       4.70400000       6.21800000
 H      18.76100000       3.91500000       5.77600000
 H      17.70400000       4.99300000       5.62000000
