30
XYZ file of cluster: frame_18500_c6830.0.cfc38 - created by MolEdiTo
 O      18.01700000       5.84600000      19.51900000
 H      17.25000000       5.74400000      20.09900000
 H      17.69800000       6.46900000      18.86400000
 O      18.39000000       3.03100000      18.96100000
 H      18.76100000       2.57300000      19.82100000
 H      18.62000000       4.00700000      19.17900000
 O      19.43200000       2.48100000      22.96800000
 H      18.89400000       1.80700000      23.43500000
 H      19.80300000       3.05700000      23.66500000
 O      19.79000000       6.26500000      25.05500000
 H      18.99700000       6.70800000      24.55500000
 H      19.74100000       5.41900000      24.62900000
 O      22.33700000       1.02800000      19.78000000
 H      22.39900000       1.77600000      20.38500000
 H      23.14400000       0.91500000      19.37100000
 O      23.37700000       7.38500000      19.16500000
 H      23.55100000       7.80100000      18.29300000
 H      23.91900000       6.51800000      19.25600000
 O      23.87400000       3.78200000      18.77500000
 H      23.64200000       3.02800000      18.24800000
 H      24.80700000       3.75000000      18.93900000
 O      23.51100000       3.56800000      24.73500000
 H      24.27900000       4.08000000      25.11400000
 H      23.96300000       2.85100000      24.27000000
 O      22.58300000       5.16900000      22.61800000
 H      22.94600000       4.64900000      23.40300000
 H      22.82900000       4.57100000      21.73900000
 O      24.11800000       0.91000000      23.78500000
 H      23.98500000       0.00000000      23.38300000
 H      23.48200000       0.77200000      24.58700000
