57
XYZ file of cluster: frame_18500_238c5.9e680.1d372 - created by MolEdiTo
 O       6.05000000      14.60800000       8.76600000
 H       5.35600000      14.91700000       9.37300000
 H       5.72800000      13.75200000       8.47100000
 O      10.75600000      14.64200000       5.22400000
 H      10.24400000      14.67900000       6.11500000
 H      11.73000000      14.76800000       5.47800000
 O       6.58100000      16.01800000       4.04000000
 H       7.52100000      16.18800000       3.89400000
 H       6.38600000      15.46200000       3.27500000
 O       7.85800000      19.23200000       7.93900000
 H       7.28400000      18.40900000       8.03200000
 H       8.77900000      18.90300000       8.18600000
 O       6.43200000      19.81300000      11.21900000
 H       7.19300000      19.30800000      11.54100000
 H       6.50200000      19.86800000      10.19400000
 O      10.47200000      14.72400000       9.53700000
 H      10.41300000      13.88200000       8.97600000
 H      10.38500000      14.54800000      10.50600000
 O       3.65600000      15.43100000      10.21300000
 H       3.08900000      15.65600000       9.48700000
 H       3.71400000      16.24700000      10.81000000
 O       3.32100000      18.06900000       5.80300000
 H       3.73200000      17.27500000       6.13400000
 H       4.12800000      18.62100000       5.69800000
 O       5.35400000      16.34000000       6.52900000
 H       5.43100000      15.52600000       7.02200000
 H       5.85500000      16.22100000       5.72400000
 O       8.95200000      19.85200000       5.12700000
 H       8.62900000      18.98200000       5.40800000
 H       8.76000000      20.30700000       5.97400000
 O       5.68800000      19.63000000       5.81700000
 H       5.92300000      19.27600000       4.90600000
 H       6.53200000      19.80000000       6.38900000
 O       4.91300000      18.12600000       8.39000000
 H       4.66500000      18.77700000       7.69000000
 H       5.22100000      17.31900000       8.01700000
 O       8.81600000      13.88900000       7.49800000
 H       8.01000000      13.97400000       6.96800000
 H       8.63300000      14.39300000       8.31300000
 O       5.46900000      18.37700000       3.44600000
 H       5.97300000      17.61700000       3.77800000
 H       5.28600000      18.09300000       2.56600000
 O       3.72000000      18.42700000      11.28200000
 H       3.17700000      18.54700000      10.46600000
 H       4.43800000      19.08000000      11.16200000
 O       8.93600000      17.17100000       6.00000000
 H       9.90500000      17.23700000       6.03300000
 H       8.64600000      16.83200000       6.92600000
 O       9.31100000      16.09700000       3.45800000
 H       9.90200000      15.37700000       3.70300000
 H       9.52200000      16.70500000       4.28200000
 O       9.50300000      19.12700000      10.81100000
 H      10.03700000      19.42400000      11.57300000
 H      10.01100000      18.28400000      10.48800000
 O       8.07900000      16.76500000       8.73900000
 H       7.48900000      15.99500000       8.77400000
 H       8.59500000      16.69500000       9.60400000
