42
XYZ file of cluster: frame_18500_6138.4b145.9f1d0 - created by MolEdiTo
 O       5.03100000       8.15600000      19.45600000
 H       5.96700000       7.90400000      19.63500000
 H       4.56400000       7.90200000      20.26600000
 O       2.16200000       7.38500000      19.16500000
 H       2.33600000       7.80100000      18.29300000
 H       2.70400000       6.51800000      19.25600000
 O       1.53500000       8.88300000      14.52100000
 H       0.52800000       8.92600000      14.41700000
 H       1.64900000       7.86600000      14.52100000
 O       1.18800000      12.26400000      15.93900000
 H       2.18300000      12.35300000      16.24600000
 H       1.27300000      12.56700000      15.03300000
 O       3.70200000       7.77500000      16.81200000
 H       4.20000000       7.97300000      17.64300000
 H       3.16800000       8.59600000      16.71500000
 O       1.87900000      10.06700000      17.33800000
 H       1.33400000      10.66900000      16.85800000
 H       2.70000000      10.56400000      17.33800000
 O       5.86500000      10.53600000      13.97500000
 H       6.47600000      10.60000000      14.77200000
 H       5.15100000      11.14200000      14.21200000
 O       1.55600000      10.05100000      20.07700000
 H       1.63900000      10.33300000      19.13000000
 H       1.80700000       9.09300000      20.06900000
 O       6.47300000      10.52100000      16.76800000
 H       6.43600000       9.65900000      17.33400000
 H       7.36100000      10.82200000      17.01900000
 O       7.80800000      13.33800000      14.55500000
 H       7.72200000      14.21200000      14.88500000
 H       6.87900000      13.13600000      14.26600000
 O       5.19400000      10.80100000      19.89000000
 H       4.86400000       9.93100000      19.49900000
 H       6.07300000      10.83700000      19.40700000
 O       3.93400000      11.95500000      16.95400000
 H       4.68600000      11.42700000      16.79600000
 H       4.28300000      12.85600000      16.77100000
 O       7.00800000       7.71900000      17.13300000
 H       7.76100000       7.12200000      17.23700000
 H       6.29300000       7.05300000      16.78300000
 O       2.33900000      13.90000000      19.72600000
 H       3.27400000      13.63800000      19.78100000
 H       1.96000000      13.22800000      20.36600000
