36
XYZ file of cluster: frame_15000_2c98d.c623e.d918 - created by MolEdiTo
 O       7.52200000      18.98400000       1.82300000
 H       6.71300000      18.40900000       1.68000000
 H       8.13800000      18.56000000       1.19500000
 O       6.88200000      19.98800000       7.06100000
 H       7.21400000      19.64300000       6.23600000
 H       5.89200000      19.83400000       6.90100000
 O       9.79700000      20.54400000       3.92200000
 H       9.67900000      19.70500000       3.38500000
 H       9.51900000      21.37800000       3.33000000
 O       7.53700000      18.28800000       5.28300000
 H       7.27000000      17.35000000       5.46000000
 H       7.46000000      18.13500000       4.36200000
 O       9.75900000      19.92900000       7.01100000
 H       8.82500000      19.60200000       7.12400000
 H       9.73500000      20.65600000       6.37700000
 O       4.07400000      19.91200000       3.17300000
 H       3.96600000      19.25400000       2.47100000
 H       4.31300000      19.46400000       4.07100000
 O       4.71700000      18.88300000       5.78800000
 H       5.42900000      18.23000000       5.73400000
 H       3.86400000      18.32900000       5.72100000
 O       5.22400000      23.24700000       4.93700000
 H       6.10300000      23.29700000       4.49000000
 H       4.80800000      22.48600000       4.47000000
 O      10.22000000      24.24300000       2.06600000
 H      10.14200000      25.20400000       2.12600000
 H      10.90600000      24.02800000       1.36100000
 O       9.07600000      24.81400000       5.86800000
 H       8.59200000      25.37300000       5.16800000
 H       8.61700000      25.14500000       6.67600000
 O       4.91300000      23.74800000       1.44100000
 H       5.83600000      23.44900000       1.57200000
 H       4.36700000      23.23800000       2.07300000
 O       7.40400000      23.14900000       2.27000000
 H       7.43000000      22.21200000       2.47900000
 H       8.02000000      23.19900000       1.53900000
