36
XYZ file of cluster: frame_15000_8bcb.d030a.1c0e8 - created by MolEdiTo
 O       6.88200000      19.98800000       7.06100000
 H       7.21400000      19.64300000       6.23600000
 H       5.89200000      19.83400000       6.90100000
 O       4.07400000      19.91200000       3.17300000
 H       3.96600000      19.25400000       2.47100000
 H       4.31300000      19.46400000       4.07100000
 O       3.28600000      19.44100000       8.42200000
 H       3.39800000      18.47200000       8.04200000
 H       4.19300000      19.84500000       8.46500000
 O       1.57100000      18.53700000      10.21500000
 H       2.23700000      19.16000000       9.70100000
 H       0.85800000      18.30400000       9.55700000
 O       4.71700000      18.88300000       5.78800000
 H       5.42900000      18.23000000       5.73400000
 H       3.86400000      18.32900000       5.72100000
 O       1.29700000      22.39100000       3.62800000
 H       2.12800000      21.92000000       3.60400000
 H       0.82900000      22.22000000       4.45100000
 O       1.42300000      25.09400000       6.22500000
 H       1.05700000      24.23700000       6.15000000
 H       2.41700000      24.88800000       6.39400000
 O       5.22400000      23.24700000       4.93700000
 H       6.10300000      23.29700000       4.49000000
 H       4.80800000      22.48600000       4.47000000
 O       3.68000000      22.91200000      11.23300000
 H       2.90300000      23.42400000      11.02700000
 H       4.17100000      22.87400000      10.37800000
 O       1.36600000      24.45300000      10.41900000
 H       0.80200000      25.11900000      10.84600000
 H       0.94600000      24.27800000       9.54200000
 O       5.43100000      23.17300000       8.87000000
 H       6.07200000      22.48100000       8.74400000
 H       5.47600000      23.84800000       8.14100000
 O       1.48700000      22.44900000       6.91500000
 H       0.75700000      22.24700000       7.52300000
 H       2.25800000      21.97700000       7.25600000
