36
XYZ file of cluster: frame_15000_c4384.9dcaf.7a71f - created by MolEdiTo
 O      20.59400000      15.41600000      16.10900000
 H      19.79500000      15.19500000      15.53600000
 H      21.03000000      16.12300000      15.68300000
 O      19.22500000      18.66200000      16.58400000
 H      18.52500000      19.19400000      16.94100000
 H      19.86500000      19.38700000      16.31600000
 O      18.35700000      18.24600000      13.60700000
 H      17.43000000      18.43800000      13.47200000
 H      18.52500000      19.02300000      14.17100000
 O      20.32300000      13.81700000      13.74600000
 H      21.15300000      14.25900000      13.88500000
 H      20.31600000      14.01100000      12.72200000
 O      18.30000000      18.47100000      10.78400000
 H      18.59000000      18.71100000      11.67600000
 H      18.14800000      17.43100000      10.93900000
 O      17.74300000      15.89800000      15.25900000
 H      17.00100000      16.54800000      15.67400000
 H      18.43800000      16.60400000      15.02600000
 O      17.78200000      15.53600000      11.40900000
 H      17.86400000      14.70500000      10.86100000
 H      18.32400000      15.34700000      12.16400000
 O      21.87600000      16.62700000      12.95800000
 H      21.60000000      17.47300000      13.42500000
 H      21.95100000      16.92400000      12.04000000
 O      23.00500000      19.57000000      14.03800000
 H      23.19200000      18.84400000      14.70600000
 H      23.70600000      19.43500000      13.37600000
 O      24.07300000      17.45200000      15.49600000
 H      24.51300000      18.28200000      15.82700000
 H      24.73500000      16.85100000      15.10400000
 O      23.06900000      19.52300000      18.26600000
 H      22.35700000      20.00200000      17.96800000
 H      23.70300000      19.70600000      17.60800000
 O      24.35500000      14.79700000      13.37700000
 H      23.78000000      15.49800000      13.07600000
 H      24.75000000      14.44300000      12.53200000
