24
XYZ file of cluster: frame_15000_c5395.947f2.1c85a - created by MolEdiTo
 O      19.82500000      17.84000000       5.24900000
 H      20.57100000      17.17100000       5.65600000
 H      19.59600000      18.37900000       6.05000000
 O      18.04000000      14.57100000       6.09000000
 H      17.08800000      14.83200000       6.37200000
 H      17.92300000      14.63700000       5.09400000
 O      18.63500000      18.73500000       2.60000000
 H      19.02900000      18.56900000       3.48100000
 H      18.65700000      19.67900000       2.51200000
 O      17.99000000      14.70900000       3.35600000
 H      17.52700000      13.81000000       3.47000000
 H      17.48100000      15.17200000       2.58400000
 O      20.52800000      15.33400000       6.96900000
 H      19.80100000      15.92500000       7.39800000
 H      19.90000000      14.68800000       6.60300000
 O      24.10900000      13.86500000       4.72900000
 H      23.80500000      13.00300000       5.01400000
 H      23.36600000      14.30200000       4.17900000
 O      22.16500000      14.85300000       3.34300000
 H      21.36500000      15.39800000       3.50600000
 H      21.78400000      14.11000000       2.77200000
 O      24.32800000      16.93000000       4.74800000
 H      24.05000000      16.57400000       3.88000000
 H      24.30200000      16.17200000       5.37300000
