 Entering Gaussian System, Link 0=g16
 Input=G98.INP
 Output=G98.OUT
 Initial command:
 /usr/local/g16-A.03/sse4/g16/l1.exe "/scratch/zronyj/p1/cluster_452/Gau-27343.inp" -scrdir="/scratch/zronyj/p1/cluster_452/"
 Entering Link 1 = /usr/local/g16-A.03/sse4/g16/l1.exe PID=     27344.
  
 Copyright (c) 1988,1990,1992,1993,1995,1998,2003,2009,2016,
            Gaussian, Inc.  All Rights Reserved.
  
 This is part of the Gaussian(R) 16 program.  It is based on
 the Gaussian(R) 09 system (copyright 2009, Gaussian, Inc.),
 the Gaussian(R) 03 system (copyright 2003, Gaussian, Inc.),
 the Gaussian(R) 98 system (copyright 1998, Gaussian, Inc.),
 the Gaussian(R) 94 system (copyright 1995, Gaussian, Inc.),
 the Gaussian 92(TM) system (copyright 1992, Gaussian, Inc.),
 the Gaussian 90(TM) system (copyright 1990, Gaussian, Inc.),
 the Gaussian 88(TM) system (copyright 1988, Gaussian, Inc.),
 the Gaussian 86(TM) system (copyright 1986, Carnegie Mellon
 University), and the Gaussian 82(TM) system (copyright 1983,
 Carnegie Mellon University). Gaussian is a federally registered
 trademark of Gaussian, Inc.
  
 This software contains proprietary and confidential information,
 including trade secrets, belonging to Gaussian, Inc.
  
 This software is provided under written license and may be
 used, copied, transmitted, or stored only in accord with that
 written license.
  
 The following legend is applicable only to US Government
 contracts under FAR:
  
                    RESTRICTED RIGHTS LEGEND
  
 Use, reproduction and disclosure by the US Government is
 subject to restrictions as set forth in subparagraphs (a)
 and (c) of the Commercial Computer Software - Restricted
 Rights clause in FAR 52.227-19.
  
 Gaussian, Inc.
 340 Quinnipiac St., Bldg. 40, Wallingford CT 06492
  
  
 ---------------------------------------------------------------
 Warning -- This program may not be used in any manner that
 competes with the business of Gaussian, Inc. or will provide
 assistance to any competitor of Gaussian, Inc.  The licensee
 of this program is prohibited from giving any competitor of
 Gaussian, Inc. access to this program.  By using this program,
 the user acknowledges that Gaussian, Inc. is engaged in the
 business of creating and licensing software in the field of
 computational chemistry and represents and warrants to the
 licensee that it is not a competitor of Gaussian, Inc. and that
 it will not use this program in any manner prohibited above.
 ---------------------------------------------------------------
  

 Cite this work as:
 Gaussian 16, Revision A.03,
 M. J. Frisch, G. W. Trucks, H. B. Schlegel, G. E. Scuseria, 
 M. A. Robb, J. R. Cheeseman, G. Scalmani, V. Barone, 
 G. A. Petersson, H. Nakatsuji, X. Li, M. Caricato, A. V. Marenich, 
 J. Bloino, B. G. Janesko, R. Gomperts, B. Mennucci, H. P. Hratchian, 
 J. V. Ortiz, A. F. Izmaylov, J. L. Sonnenberg, D. Williams-Young, 
 F. Ding, F. Lipparini, F. Egidi, J. Goings, B. Peng, A. Petrone, 
 T. Henderson, D. Ranasinghe, V. G. Zakrzewski, J. Gao, N. Rega, 
 G. Zheng, W. Liang, M. Hada, M. Ehara, K. Toyota, R. Fukuda, 
 J. Hasegawa, M. Ishida, T. Nakajima, Y. Honda, O. Kitao, H. Nakai, 
 T. Vreven, K. Throssell, J. A. Montgomery, Jr., J. E. Peralta, 
 F. Ogliaro, M. J. Bearpark, J. J. Heyd, E. N. Brothers, K. N. Kudin, 
 V. N. Staroverov, T. A. Keith, R. Kobayashi, J. Normand, 
 K. Raghavachari, A. P. Rendell, J. C. Burant, S. S. Iyengar, 
 J. Tomasi, M. Cossi, J. M. Millam, M. Klene, C. Adamo, R. Cammi, 
 J. W. Ochterski, R. L. Martin, K. Morokuma, O. Farkas, 
 J. B. Foresman, and D. J. Fox, Gaussian, Inc., Wallingford CT, 2016.
 
 ******************************************
 Gaussian 16:  ES64L-G16RevA.03 25-Dec-2016
                24-Aug-2023 
 ******************************************
 %chk=cluster_452.chk
 %mem=6GB
 %nproc=8
 Will use up to    8 processors via shared memory.
 ----------------------------------------------------------------------
 #b3lyp/6-31G** scrf=(cpcm,Solvent=Water) nosymm force iop(2/11=1) Geom
 =(NoDistance,NoAngle) guess=checkpoint
 ----------------------------------------------------------------------
 1/10=7,30=1,38=1/1,3;
 2/9=11,11=1,12=2,15=1,17=6,18=5,40=1/2;
 3/5=1,6=6,7=101,11=2,25=1,30=1,70=2101,71=1,72=1,74=-5,116=-2/1,2,3;
 4/5=1/1;
 5/5=2,38=6,53=1/2;
 6/7=2,8=2,9=2,10=2,28=1/1;
 7/29=1,30=1/1,2,3,16;
 1/10=7,30=1/3;
 99//99;
 -----------
 cluster_452
 -----------
 Symbolic Z-matrix:
 Charge =  0 Multiplicity = 1
 O                     19.88475   19.90007   8.46719 
 H                     19.25114   19.26205   8.08312 
 H                     19.61925   20.74398   8.07828 
 O                     14.0774   20.34615   9.56005 
 H                     14.05019   19.90853   8.69882 
 H                     14.92366   20.06054   9.93204 
 O                     18.00648   17.90653   7.28216 
 H                     18.38393   17.0502   7.52516 
 H                     17.18345   17.94699   7.7904 
 O                     19.1772   18.25231   12.41178 
 H                     19.53951   17.9844   13.26532 
 H                     18.27739   18.55327   12.63554 
 O                     16.45553   19.43591   13.05459 
 H                     16.43491   20.39132   12.90908 
 H                     15.56437   19.21451   13.35155 
 O                     18.92501   22.6196   12.17863 
 H                     18.81578   22.99474   11.27791 
 H                     19.16273   21.68711   12.04459 
 O                     15.94598   23.71505   11.95214 
 H                     15.95909   24.45789   12.57248 
 H                     16.82549   23.31392   12.06188 
 O                     18.36167   24.08577   10.04534 
 H                     18.65358   24.94304   10.38951 
 H                     17.40056   24.21328   9.85935 
 O                     15.85098   24.74107   8.94423 
 H                     15.78267   24.29121   8.08833 
 H                     16.03261   25.66484   8.70965 
 O                     19.24212   23.70106   7.25868 
 H                     18.97337   23.86406   8.18414 
 H                     18.50592   24.05421   6.73943 
 O                     13.25968   23.85654   10.81101 
 H                     13.60822   22.97082   10.63036 
 H                     14.07723   24.3735   10.78513 
 

 GradGradGradGradGradGradGradGradGradGradGradGradGradGradGradGradGradGrad
 Berny optimization.
 Initialization pass.
 Trust Radius=3.00D-01 FncErr=1.00D-07 GrdErr=1.00D-07 EigMax=2.50D+02 EigMin=1.00D-04
 Number of steps in this run=      2 maximum allowed number of steps=      2.
 GradGradGradGradGradGradGradGradGradGradGradGradGradGradGradGradGradGrad

                          Input orientation:                          
 ---------------------------------------------------------------------
 Center     Atomic      Atomic             Coordinates (Angstroms)
 Number     Number       Type             X           Y           Z
 ---------------------------------------------------------------------
      1          8           0       19.884748   19.900073    8.467192
      2          1           0       19.251140   19.262054    8.083118
      3          1           0       19.619252   20.743978    8.078281
      4          8           0       14.077402   20.346146    9.560049
      5          1           0       14.050188   19.908533    8.698825
      6          1           0       14.923660   20.060536    9.932045
      7          8           0       18.006482   17.906527    7.282158
      8          1           0       18.383934   17.050197    7.525163
      9          1           0       17.183449   17.946992    7.790404
     10          8           0       19.177199   18.252313   12.411782
     11          1           0       19.539509   17.984398   13.265315
     12          1           0       18.277390   18.553274   12.635543
     13          8           0       16.455527   19.435909   13.054592
     14          1           0       16.434911   20.391316   12.909077
     15          1           0       15.564366   19.214509   13.351553
     16          8           0       18.925007   22.619604   12.178632
     17          1           0       18.815784   22.994736   11.277913
     18          1           0       19.162725   21.687105   12.044590
     19          8           0       15.945980   23.715046   11.952138
     20          1           0       15.959095   24.457888   12.572484
     21          1           0       16.825490   23.313922   12.061877
     22          8           0       18.361668   24.085774   10.045336
     23          1           0       18.653576   24.943043   10.389510
     24          1           0       17.400563   24.213277    9.859354
     25          8           0       15.850984   24.741073    8.944234
     26          1           0       15.782666   24.291211    8.088334
     27          1           0       16.032611   25.664835    8.709646
     28          8           0       19.242115   23.701056    7.258682
     29          1           0       18.973366   23.864058    8.184139
     30          1           0       18.505918   24.054206    6.739434
     31          8           0       13.259684   23.856542   10.811007
     32          1           0       13.608219   22.970824   10.630360
     33          1           0       14.077235   24.373497   10.785131
 ---------------------------------------------------------------------
 Symmetry turned off by external request.
 Stoichiometry    H22O11
 Framework group  C1[X(H22O11)]
 Deg. of freedom    93
 Full point group                 C1      NOp   1
 Rotational constants (GHZ):           0.3389921           0.2607548           0.2253123
 Standard basis: 6-31G(d,p) (6D, 7F)
   275 basis functions,   462 primitive gaussians,   275 cartesian basis functions
    55 alpha electrons       55 beta electrons
       nuclear repulsion energy       701.3843537683 Hartrees.
 NAtoms=   33 NActive=   33 NUniq=   33 SFac= 1.00D+00 NAtFMM=   60 NAOKFM=F Big=F
 Integral buffers will be    131072 words long.
 Raffenetti 2 integral format.
 Two-electron integral symmetry is turned off.
 ------------------------------------------------------------------------------
 Polarizable Continuum Model (PCM)
 =================================
 Model                : C-PCM.
 Atomic radii         : UFF (Universal Force Field).
 Polarization charges : Total charges.
 Charge compensation  : None.
 Solution method      : On-the-fly selection.
 Cavity type          : Scaled VdW (van der Waals Surface) (Alpha=1.100).
 Cavity algorithm     : GePol (No added spheres)
                        Default sphere list used, NSphG=   33.
                        Lebedev-Laikov grids with approx.  5.0 points / Ang**2.
                        Smoothing algorithm: York/Karplus (Gamma=1.0000).
                        Polarization charges: spherical gaussians, with
                                              point-specific exponents (IZeta= 3).
                        Self-potential: point-specific (ISelfS= 7).
                        Self-field    : sphere-specific E.n sum rule (ISelfD= 2).
 1st derivatives      : Analytical E(r).r(x)/FMM algorithm (CHGder, D1EAlg=3).
                        Cavity 1st derivative terms included.
 Solvent              : Water, Eps=  78.355300 Eps(inf)=   1.777849
 ------------------------------------------------------------------------------
 One-electron integrals computed using PRISM.
 NBasis=   275 RedAO= T EigKep=  1.07D-02  NBF=   275
 NBsUse=   275 1.00D-06 EigRej= -1.00D+00 NBFU=   275
 Initial guess from the checkpoint file:  "cluster_452.chk"
 B after Tr=    -0.002232    0.002361   -0.002978
         Rot=    1.000000   -0.000035    0.000004    0.000031 Ang=  -0.01 deg.
 Requested convergence on RMS density matrix=1.00D-08 within 128 cycles.
 Requested convergence on MAX density matrix=1.00D-06.
 Requested convergence on             energy=1.00D-06.
 No special actions if energy rises.
 Inv3:  Mode=1 IEnd=    36876108.
 Iteration    1 A*A^-1 deviation from unit magnitude is 8.99D-15 for    425.
 Iteration    1 A*A^-1 deviation from orthogonality  is 3.89D-15 for   3506    431.
 Iteration    1 A^-1*A deviation from unit magnitude is 9.33D-15 for    421.
 Iteration    1 A^-1*A deviation from orthogonality  is 2.33D-15 for   3506    431.
 Error on total polarization charges =  0.00410
 SCF Done:  E(RB3LYP) =  -840.761759247     A.U. after    9 cycles
            NFock=  9  Conv=0.22D-08     -V/T= 2.0084

 **********************************************************************

            Population analysis using the SCF density.

 **********************************************************************

 Alpha  occ. eigenvalues --  -19.16917 -19.16748 -19.16049 -19.15464 -19.14334
 Alpha  occ. eigenvalues --  -19.13679 -19.12702 -19.12633 -19.12524 -19.12201
 Alpha  occ. eigenvalues --  -19.11973  -1.02806  -1.01749  -1.01579  -1.01029
 Alpha  occ. eigenvalues --   -0.99969  -0.99343  -0.98329  -0.98148  -0.98001
 Alpha  occ. eigenvalues --   -0.97927  -0.97672  -0.53760  -0.53641  -0.52983
 Alpha  occ. eigenvalues --   -0.52851  -0.51796  -0.51577  -0.50379  -0.50149
 Alpha  occ. eigenvalues --   -0.50135  -0.49634  -0.48947  -0.42033  -0.40117
 Alpha  occ. eigenvalues --   -0.39823  -0.39741  -0.38305  -0.37950  -0.37298
 Alpha  occ. eigenvalues --   -0.36145  -0.36037  -0.36015  -0.35507  -0.32772
 Alpha  occ. eigenvalues --   -0.31667  -0.31417  -0.31012  -0.29937  -0.29340
 Alpha  occ. eigenvalues --   -0.28922  -0.28581  -0.28505  -0.28043  -0.27960
 Alpha virt. eigenvalues --    0.02550   0.04387   0.05624   0.07169   0.08253
 Alpha virt. eigenvalues --    0.09516   0.10608   0.10801   0.12098   0.12791
 Alpha virt. eigenvalues --    0.13942   0.15780   0.16082   0.16182   0.17165
 Alpha virt. eigenvalues --    0.19923   0.20527   0.21873   0.22980   0.23667
 Alpha virt. eigenvalues --    0.25126   0.27863   0.69259   0.72103   0.72743
 Alpha virt. eigenvalues --    0.73363   0.74088   0.74744   0.75467   0.77012
 Alpha virt. eigenvalues --    0.77209   0.77665   0.77681   0.78259   0.79030
 Alpha virt. eigenvalues --    0.79430   0.79995   0.80378   0.81225   0.82015
 Alpha virt. eigenvalues --    0.82524   0.82797   0.83594   0.84186   0.85480
 Alpha virt. eigenvalues --    0.86376   0.86794   0.87788   0.88282   0.88493
 Alpha virt. eigenvalues --    0.89159   0.89484   0.90198   0.90562   0.90933
 Alpha virt. eigenvalues --    0.92331   0.93471   0.94219   0.95314   0.96567
 Alpha virt. eigenvalues --    0.97147   0.98300   0.98722   0.99800   1.00298
 Alpha virt. eigenvalues --    1.00622   1.01396   1.02824   1.03693   1.05457
 Alpha virt. eigenvalues --    1.06950   1.08400   1.10250   1.10842   1.11360
 Alpha virt. eigenvalues --    1.12925   1.15814   1.17199   1.17866   1.19305
 Alpha virt. eigenvalues --    1.20549   1.26653   1.28280   1.34825   1.39133
 Alpha virt. eigenvalues --    1.40468   1.41177   1.48641   1.50338   1.51124
 Alpha virt. eigenvalues --    1.51578   1.51632   1.52078   1.52249   1.52745
 Alpha virt. eigenvalues --    1.53348   1.53578   1.53753   1.54108   1.54361
 Alpha virt. eigenvalues --    1.54628   1.54958   1.55201   1.55406   1.55677
 Alpha virt. eigenvalues --    1.56641   1.56937   1.60372   1.62362   1.62804
 Alpha virt. eigenvalues --    1.64657   1.64891   1.65315   1.65516   1.65684
 Alpha virt. eigenvalues --    1.67607   1.68695   1.71191   1.71941   1.72630
 Alpha virt. eigenvalues --    1.78949   2.17502   2.20835   2.21678   2.22581
 Alpha virt. eigenvalues --    2.23417   2.23949   2.25060   2.25119   2.25468
 Alpha virt. eigenvalues --    2.25686   2.26706   2.27311   2.27869   2.28323
 Alpha virt. eigenvalues --    2.28428   2.28855   2.29256   2.31153   2.31591
 Alpha virt. eigenvalues --    2.31913   2.32250   2.38695   2.42607   2.43320
 Alpha virt. eigenvalues --    2.43943   2.44843   2.44917   2.46855   2.46923
 Alpha virt. eigenvalues --    2.47342   2.47722   2.47748   2.56099   2.60516
 Alpha virt. eigenvalues --    2.61742   2.61905   2.63646   2.63662   2.63750
 Alpha virt. eigenvalues --    2.65006   2.65012   2.65227   2.65401   2.65533
 Alpha virt. eigenvalues --    2.65567   2.66498   2.66808   2.67406   2.68177
 Alpha virt. eigenvalues --    2.68474   2.69100   2.69234   2.70738   2.70921
 Alpha virt. eigenvalues --    2.75912   3.00588   3.01861   3.01884   3.02547
 Alpha virt. eigenvalues --    3.02939   3.03210   3.03795   3.03803   3.03918
 Alpha virt. eigenvalues --    3.04571   3.08906   3.28154   3.28741   3.30471
 Alpha virt. eigenvalues --    3.31008   3.32794   3.34485   3.35594   3.36519
 Alpha virt. eigenvalues --    3.37596   3.38010   3.38972   3.51591   3.52286
 Alpha virt. eigenvalues --    3.52659   3.53211   3.55861   3.57163   3.57813
 Alpha virt. eigenvalues --    3.58359   3.58676   3.60551   3.63783   3.68711
 Alpha virt. eigenvalues --    3.69511   3.70065   3.75984   3.78161   3.80962
 Alpha virt. eigenvalues --    3.93773   3.95043   3.95821   3.97980   4.26789
          Condensed to atoms (all electrons):
               1          2          3          4          5          6
     1  O    8.156438   0.271543   0.281492  -0.000000   0.000000   0.000000
     2  H    0.271543   0.390579  -0.028860  -0.000000  -0.000000   0.000001
     3  H    0.281492  -0.028860   0.432206   0.000000   0.000000   0.000000
     4  O   -0.000000  -0.000000   0.000000   8.061565   0.291826   0.288487
     5  H    0.000000  -0.000000   0.000000   0.291826   0.403771  -0.026980
     6  H    0.000000   0.000001   0.000000   0.288487  -0.026980   0.407780
     7  O   -0.012612   0.053415   0.000482  -0.000000  -0.000001   0.000000
     8  H    0.000722  -0.002952  -0.000021  -0.000000  -0.000000  -0.000000
     9  H    0.000737  -0.002676   0.000008   0.000020   0.000050   0.000059
    10  O    0.000005   0.000014   0.000000  -0.000000   0.000000   0.000000
    11  H    0.000000  -0.000000  -0.000000   0.000000   0.000000  -0.000000
    12  H    0.000004  -0.000001  -0.000000  -0.000000  -0.000000   0.000001
    13  O   -0.000000   0.000000   0.000000  -0.000054  -0.000002   0.001334
    14  H   -0.000000  -0.000000  -0.000000   0.000015  -0.000001   0.000094
    15  H    0.000000  -0.000000   0.000000   0.000020  -0.000001   0.000014
    16  O   -0.000006   0.000000   0.000003  -0.000000   0.000000   0.000000
    17  H    0.000037  -0.000001   0.000032  -0.000000  -0.000000   0.000000
    18  H    0.000139  -0.000002   0.000002  -0.000000   0.000000   0.000000
    19  O    0.000000  -0.000000   0.000000  -0.000005   0.000000   0.000021
    20  H    0.000000  -0.000000  -0.000000   0.000000  -0.000000  -0.000001
    21  H   -0.000000   0.000000  -0.000000   0.000001  -0.000000   0.000002
    22  O   -0.000003  -0.000000   0.000059  -0.000000   0.000000   0.000000
    23  H    0.000000   0.000000  -0.000003   0.000000   0.000000  -0.000000
    24  H   -0.000000   0.000000   0.000000   0.000000  -0.000000   0.000001
    25  O   -0.000000   0.000000   0.000000  -0.000001   0.000000   0.000001
    26  H   -0.000000   0.000000   0.000000   0.000012   0.000000  -0.000000
    27  H    0.000000   0.000000  -0.000000  -0.000000  -0.000000  -0.000000
    28  O   -0.000310  -0.000027   0.006808   0.000000   0.000000   0.000000
    29  H    0.000050   0.000001  -0.000155  -0.000000   0.000000  -0.000000
    30  H    0.000010   0.000001  -0.000193  -0.000000   0.000000  -0.000000
    31  O   -0.000000   0.000000   0.000000  -0.000614   0.000022   0.000045
    32  H    0.000000  -0.000000  -0.000000   0.010009  -0.000318  -0.000513
    33  H    0.000000  -0.000000   0.000000  -0.000033   0.000001   0.000005
               7          8          9         10         11         12
     1  O   -0.012612   0.000722   0.000737   0.000005   0.000000   0.000004
     2  H    0.053415  -0.002952  -0.002676   0.000014  -0.000000  -0.000001
     3  H    0.000482  -0.000021   0.000008   0.000000  -0.000000  -0.000000
     4  O   -0.000000  -0.000000   0.000020  -0.000000   0.000000  -0.000000
     5  H   -0.000001  -0.000000   0.000050   0.000000   0.000000  -0.000000
     6  H    0.000000  -0.000000   0.000059   0.000000  -0.000000   0.000001
     7  O    7.998560   0.291849   0.291389  -0.000000   0.000000   0.000000
     8  H    0.291849   0.391773  -0.023739   0.000000  -0.000000  -0.000000
     9  H    0.291389  -0.023739   0.392080   0.000000  -0.000000   0.000000
    10  O   -0.000000   0.000000   0.000000   8.121977   0.291138   0.280754
    11  H    0.000000  -0.000000  -0.000000   0.291138   0.417518  -0.027829
    12  H    0.000000  -0.000000   0.000000   0.280754  -0.027829   0.381362
    13  O   -0.000000  -0.000000   0.000000  -0.007868   0.000360   0.038088
    14  H   -0.000000   0.000000  -0.000000   0.000550  -0.000005  -0.002659
    15  H    0.000000  -0.000000  -0.000000   0.000293  -0.000011  -0.001594
    16  O   -0.000000   0.000000   0.000000  -0.000060   0.000003   0.000022
    17  H    0.000000  -0.000000  -0.000000  -0.000008   0.000000   0.000000
    18  H    0.000000  -0.000000  -0.000000   0.002079  -0.000049   0.000071
    19  O    0.000000  -0.000000   0.000000   0.000000   0.000000  -0.000000
    20  H    0.000000  -0.000000  -0.000000   0.000000  -0.000000   0.000000
    21  H   -0.000000   0.000000   0.000000  -0.000000  -0.000000   0.000000
    22  O   -0.000000   0.000000   0.000000   0.000000   0.000000   0.000000
    23  H   -0.000000  -0.000000  -0.000000   0.000000  -0.000000  -0.000000
    24  H   -0.000000   0.000000   0.000000   0.000000  -0.000000   0.000000
    25  O   -0.000000  -0.000000  -0.000000  -0.000000   0.000000  -0.000000
    26  H   -0.000000   0.000000   0.000000  -0.000000  -0.000000   0.000000
    27  H   -0.000000  -0.000000  -0.000000   0.000000  -0.000000  -0.000000
    28  O    0.000000   0.000000   0.000000  -0.000000   0.000000   0.000000
    29  H    0.000000  -0.000000  -0.000000   0.000000  -0.000000  -0.000000
    30  H   -0.000000  -0.000000  -0.000000   0.000000  -0.000000  -0.000000
    31  O   -0.000000  -0.000000   0.000000  -0.000000   0.000000   0.000000
    32  H    0.000000   0.000000  -0.000000   0.000000   0.000000  -0.000000
    33  H   -0.000000  -0.000000   0.000000   0.000000  -0.000000   0.000000
              13         14         15         16         17         18
     1  O   -0.000000  -0.000000   0.000000  -0.000006   0.000037   0.000139
     2  H    0.000000  -0.000000  -0.000000   0.000000  -0.000001  -0.000002
     3  H    0.000000  -0.000000   0.000000   0.000003   0.000032   0.000002
     4  O   -0.000054   0.000015   0.000020  -0.000000  -0.000000  -0.000000
     5  H   -0.000002  -0.000001  -0.000001   0.000000  -0.000000   0.000000
     6  H    0.001334   0.000094   0.000014   0.000000   0.000000   0.000000
     7  O   -0.000000  -0.000000   0.000000  -0.000000   0.000000   0.000000
     8  H   -0.000000   0.000000  -0.000000   0.000000  -0.000000  -0.000000
     9  H    0.000000  -0.000000  -0.000000   0.000000  -0.000000  -0.000000
    10  O   -0.007868   0.000550   0.000293  -0.000060  -0.000008   0.002079
    11  H    0.000360  -0.000005  -0.000011   0.000003   0.000000  -0.000049
    12  H    0.038088  -0.002659  -0.001594   0.000022   0.000000   0.000071
    13  O    8.023599   0.287045   0.293530  -0.000104   0.000004   0.000178
    14  H    0.287045   0.399647  -0.024224   0.001664  -0.000094   0.000154
    15  H    0.293530  -0.024224   0.392835  -0.000001   0.000000  -0.000007
    16  O   -0.000104   0.001664  -0.000001   8.141668   0.256354   0.279036
    17  H    0.000004  -0.000094   0.000000   0.256354   0.373751  -0.018888
    18  H    0.000178   0.000154  -0.000007   0.279036  -0.018888   0.419694
    19  O   -0.000027   0.000987  -0.000004  -0.006717   0.001431   0.000216
    20  H    0.000001  -0.000038   0.000000   0.000089  -0.000009   0.000004
    21  H   -0.000057   0.001093  -0.000003   0.043781  -0.005722  -0.001342
    22  O   -0.000000   0.000001   0.000000  -0.029812   0.051736   0.001450
    23  H    0.000000  -0.000000   0.000000   0.002406  -0.006301  -0.000081
    24  H    0.000000  -0.000004   0.000000   0.000560  -0.001631   0.000022
    25  O   -0.000000   0.000000  -0.000000  -0.000001   0.000054   0.000000
    26  H    0.000000  -0.000000   0.000000   0.000000  -0.000002  -0.000000
    27  H    0.000000  -0.000000   0.000000   0.000000  -0.000003  -0.000000
    28  O   -0.000000   0.000000   0.000000  -0.000000  -0.000012   0.000001
    29  H   -0.000000   0.000000  -0.000000   0.000014   0.000329  -0.000015
    30  H   -0.000000   0.000000  -0.000000   0.000000   0.000001  -0.000000
    31  O   -0.000000  -0.000000   0.000000  -0.000000   0.000000   0.000000
    32  H   -0.000000   0.000010  -0.000000   0.000000  -0.000000  -0.000000
    33  H    0.000000  -0.000001   0.000000   0.000000  -0.000000  -0.000000
              19         20         21         22         23         24
     1  O    0.000000   0.000000  -0.000000  -0.000003   0.000000  -0.000000
     2  H   -0.000000  -0.000000   0.000000  -0.000000   0.000000   0.000000
     3  H    0.000000  -0.000000  -0.000000   0.000059  -0.000003   0.000000
     4  O   -0.000005   0.000000   0.000001  -0.000000   0.000000   0.000000
     5  H    0.000000  -0.000000  -0.000000   0.000000   0.000000  -0.000000
     6  H    0.000021  -0.000001   0.000002   0.000000  -0.000000   0.000001
     7  O    0.000000   0.000000  -0.000000  -0.000000  -0.000000  -0.000000
     8  H   -0.000000  -0.000000   0.000000   0.000000  -0.000000   0.000000
     9  H    0.000000  -0.000000   0.000000   0.000000  -0.000000   0.000000
    10  O    0.000000   0.000000  -0.000000   0.000000   0.000000   0.000000
    11  H    0.000000  -0.000000  -0.000000   0.000000  -0.000000  -0.000000
    12  H   -0.000000   0.000000   0.000000   0.000000  -0.000000   0.000000
    13  O   -0.000027   0.000001  -0.000057  -0.000000   0.000000   0.000000
    14  H    0.000987  -0.000038   0.001093   0.000001  -0.000000  -0.000004
    15  H   -0.000004   0.000000  -0.000003   0.000000   0.000000   0.000000
    16  O   -0.006717   0.000089   0.043781  -0.029812   0.002406   0.000560
    17  H    0.001431  -0.000009  -0.005722   0.051736  -0.006301  -0.001631
    18  H    0.000216   0.000004  -0.001342   0.001450  -0.000081   0.000022
    19  O    8.093404   0.286572   0.257265  -0.003397   0.000560   0.012639
    20  H    0.286572   0.413529  -0.023715   0.000355   0.000085  -0.000479
    21  H    0.257265  -0.023715   0.415618   0.006567   0.000058  -0.002008
    22  O   -0.003397   0.000355   0.006567   8.048400   0.289622   0.254101
    23  H    0.000560   0.000085   0.000058   0.289622   0.387317  -0.017831
    24  H    0.012639  -0.000479  -0.002008   0.254101  -0.017831   0.347126
    25  O   -0.001042   0.000168  -0.000084  -0.018060   0.001055   0.055240
    26  H    0.000135  -0.000008  -0.000004   0.000975  -0.000019  -0.003002
    27  H    0.000162  -0.000021  -0.000008   0.001677   0.000144  -0.003888
    28  O   -0.000000   0.000000   0.000001  -0.013458   0.000575   0.000844
    29  H    0.000003  -0.000000  -0.000012   0.051254  -0.002037  -0.001912
    30  H    0.000000  -0.000000  -0.000000   0.000592   0.000007   0.000185
    31  O   -0.004320   0.000999   0.000346   0.000000   0.000000  -0.000034
    32  H    0.004705  -0.000248  -0.000058   0.000000  -0.000000   0.000004
    33  H    0.014743  -0.000938  -0.000472  -0.000018  -0.000002   0.000196
              25         26         27         28         29         30
     1  O   -0.000000  -0.000000   0.000000  -0.000310   0.000050   0.000010
     2  H    0.000000   0.000000   0.000000  -0.000027   0.000001   0.000001
     3  H    0.000000   0.000000  -0.000000   0.006808  -0.000155  -0.000193
     4  O   -0.000001   0.000012  -0.000000   0.000000  -0.000000  -0.000000
     5  H    0.000000   0.000000  -0.000000   0.000000   0.000000   0.000000
     6  H    0.000001  -0.000000  -0.000000   0.000000  -0.000000  -0.000000
     7  O   -0.000000  -0.000000  -0.000000   0.000000   0.000000  -0.000000
     8  H   -0.000000   0.000000  -0.000000   0.000000  -0.000000  -0.000000
     9  H   -0.000000   0.000000  -0.000000   0.000000  -0.000000  -0.000000
    10  O   -0.000000  -0.000000   0.000000  -0.000000   0.000000   0.000000
    11  H    0.000000  -0.000000  -0.000000   0.000000  -0.000000  -0.000000
    12  H   -0.000000   0.000000  -0.000000   0.000000  -0.000000  -0.000000
    13  O   -0.000000   0.000000   0.000000  -0.000000  -0.000000  -0.000000
    14  H    0.000000  -0.000000  -0.000000   0.000000   0.000000   0.000000
    15  H   -0.000000   0.000000   0.000000   0.000000  -0.000000  -0.000000
    16  O   -0.000001   0.000000   0.000000  -0.000000   0.000014   0.000000
    17  H    0.000054  -0.000002  -0.000003  -0.000012   0.000329   0.000001
    18  H    0.000000  -0.000000  -0.000000   0.000001  -0.000015  -0.000000
    19  O   -0.001042   0.000135   0.000162  -0.000000   0.000003   0.000000
    20  H    0.000168  -0.000008  -0.000021   0.000000  -0.000000  -0.000000
    21  H   -0.000084  -0.000004  -0.000008   0.000001  -0.000012  -0.000000
    22  O   -0.018060   0.000975   0.001677  -0.013458   0.051254   0.000592
    23  H    0.001055  -0.000019   0.000144   0.000575  -0.002037   0.000007
    24  H    0.055240  -0.003002  -0.003888   0.000844  -0.001912   0.000185
    25  O    7.986218   0.288614   0.288128  -0.000237   0.001101   0.000557
    26  H    0.288614   0.388089  -0.021451   0.000322   0.000229   0.000576
    27  H    0.288128  -0.021451   0.389688   0.000012   0.000063   0.000084
    28  O   -0.000237   0.000322   0.000012   8.138222   0.270726   0.289309
    29  H    0.001101   0.000229   0.000063   0.270726   0.384592  -0.027462
    30  H    0.000557   0.000576   0.000084   0.289309  -0.027462   0.419492
    31  O   -0.001579   0.000255   0.000113  -0.000000   0.000000   0.000000
    32  H    0.000605   0.000027  -0.000016   0.000000  -0.000000  -0.000000
    33  H    0.011863  -0.000397  -0.000315   0.000000  -0.000000  -0.000000
              31         32         33
     1  O   -0.000000   0.000000   0.000000
     2  H    0.000000  -0.000000  -0.000000
     3  H    0.000000  -0.000000   0.000000
     4  O   -0.000614   0.010009  -0.000033
     5  H    0.000022  -0.000318   0.000001
     6  H    0.000045  -0.000513   0.000005
     7  O   -0.000000   0.000000  -0.000000
     8  H   -0.000000   0.000000  -0.000000
     9  H    0.000000  -0.000000   0.000000
    10  O   -0.000000   0.000000   0.000000
    11  H    0.000000   0.000000  -0.000000
    12  H    0.000000  -0.000000   0.000000
    13  O   -0.000000  -0.000000   0.000000
    14  H   -0.000000   0.000010  -0.000001
    15  H    0.000000  -0.000000   0.000000
    16  O   -0.000000   0.000000   0.000000
    17  H    0.000000  -0.000000  -0.000000
    18  H    0.000000  -0.000000  -0.000000
    19  O   -0.004320   0.004705   0.014743
    20  H    0.000999  -0.000248  -0.000938
    21  H    0.000346  -0.000058  -0.000472
    22  O    0.000000   0.000000  -0.000018
    23  H    0.000000  -0.000000  -0.000002
    24  H   -0.000034   0.000004   0.000196
    25  O   -0.001579   0.000605   0.011863
    26  H    0.000255   0.000027  -0.000397
    27  H    0.000113  -0.000016  -0.000315
    28  O   -0.000000   0.000000   0.000000
    29  H    0.000000  -0.000000  -0.000000
    30  H    0.000000  -0.000000  -0.000000
    31  O    8.109292   0.285520   0.291296
    32  H    0.285520   0.423386  -0.033183
    33  H    0.291296  -0.033183   0.387615
 Mulliken charges:
               1
     1  O   -0.698245
     2  H    0.318966
     3  H    0.308140
     4  O   -0.651250
     5  H    0.331632
     6  H    0.329647
     7  O   -0.623083
     8  H    0.342369
     9  H    0.342072
    10  O   -0.688873
    11  H    0.318876
    12  H    0.331779
    13  O   -0.636026
    14  H    0.335769
    15  H    0.339152
    16  O   -0.688898
    17  H    0.348941
    18  H    0.317339
    19  O   -0.657332
    20  H    0.323653
    21  H    0.308753
    22  O   -0.642042
    23  H    0.344446
    24  H    0.359868
    25  O   -0.612598
    26  H    0.345649
    27  H    0.345631
    28  O   -0.692776
    29  H    0.323232
    30  H    0.316842
    31  O   -0.681342
    32  H    0.310069
    33  H    0.329638
 Sum of Mulliken charges =  -0.00000
 Mulliken charges with hydrogens summed into heavy atoms:
               1
     1  O   -0.071139
     4  O    0.010030
     7  O    0.061359
    10  O   -0.038218
    13  O    0.038894
    16  O   -0.022618
    19  O   -0.024926
    22  O    0.062272
    25  O    0.078682
    28  O   -0.052701
    31  O   -0.041634
 Electronic spatial extent (au):  <R**2>=         347429.3007
 Charge=             -0.0000 electrons
 Dipole moment (field-independent basis, Debye):
    X=             -3.8054    Y=              1.9653    Z=             -1.1243  Tot=              4.4281
 Quadrupole moment (field-independent basis, Debye-Ang):
   XX=           -249.4225   YY=             55.3631   ZZ=            -82.2118
   XY=            -29.8767   XZ=            -42.4926   YZ=            -12.0757
 Traceless Quadrupole moment (field-independent basis, Debye-Ang):
   XX=           -157.3321   YY=            147.4535   ZZ=              9.8786
   XY=            -29.8767   XZ=            -42.4926   YZ=            -12.0757
 Octapole moment (field-independent basis, Debye-Ang**2):
  XXX=          -9423.7139  YYY=            866.0630  ZZZ=          -2117.1498  XYY=            -34.5013
  XXY=          -4236.1707  XXZ=          -2316.3555  XZZ=          -1553.3808  YZZ=          -1742.7671
  YYZ=           -340.0726  XYZ=           -504.7952
 Hexadecapole moment (field-independent basis, Debye-Ang**3):
 XXXX=        -285794.1644 YYYY=          -2508.3503 ZZZZ=         -41463.3520 XXXY=        -179972.8384
 XXXZ=         -86459.7038 YYYX=           2021.7699 YYYZ=         -16045.5244 ZZZX=         -37223.1148
 ZZZY=         -46630.1419 XXYY=         -76644.7353 XXZZ=         -41632.7949 YYZZ=         -41312.8418
 XXYZ=         -40156.4033 YYXZ=          -7869.2601 ZZXY=         -30755.9985
 N-N= 7.013843537683D+02 E-N=-3.389003637929D+03  KE= 8.337191298154D+02
 D1PCM: C-PCM CHGder 1st derivatives, ID1Alg=3 FixD1E=F DoIter=F DoCFld=F I1PDM=0.
 Calling FoFJK, ICntrl=      2127 FMM=F ISym2X=0 I1Cent= 0 IOpClX= 0 NMat=1 NMatS=1 NMatT=0.
 -------------------------------------------------------------------
 Center     Atomic                   Forces (Hartrees/Bohr)
 Number     Number              X              Y              Z
 -------------------------------------------------------------------
      1        8          -0.002642048   -0.001253799   -0.001361315
      2        1           0.000652514    0.000598114    0.000228989
      3        1          -0.000299798    0.000800292   -0.000415428
      4        8           0.000869922    0.000887264    0.002003510
      5        1           0.000230513    0.000625718    0.000014064
      6        1          -0.001064398    0.000294426   -0.000194895
      7        8           0.000460635    0.002172886    0.001041908
      8        1           0.000245078   -0.000263441    0.000304848
      9        1           0.001108161    0.000255943   -0.000296157
     10        8          -0.003892104    0.002229093    0.000267328
     11        1           0.000244498    0.000077833    0.000635331
     12        1           0.000254001    0.000007484   -0.000363802
     13        8           0.003517364    0.000848049   -0.001992218
     14        1          -0.000018501   -0.000606986    0.000271224
     15        1          -0.000125081   -0.000382395    0.000076689
     16        8          -0.000855635   -0.007435284    0.002785719
     17        1           0.000305584   -0.000283730    0.001715971
     18        1          -0.003012166    0.004660616    0.000186851
     19        8           0.002695129   -0.000759752    0.003950935
     20        1          -0.000097758   -0.001426697   -0.000905679
     21        1           0.001303211   -0.000684846    0.000196156
     22        8          -0.002656359    0.004852645   -0.007430124
     23        1           0.000312715   -0.000702700   -0.001085013
     24        1           0.000435201   -0.000300254   -0.000761818
     25        8           0.001833316    0.001979500   -0.001225042
     26        1          -0.000030459    0.000638305    0.001896139
     27        1          -0.001061425   -0.002342065    0.000225313
     28        8          -0.001362688   -0.000633982    0.002103750
     29        1           0.000434694   -0.000110943   -0.000945411
     30        1           0.001319990   -0.001085871    0.001473255
     31        8           0.000465462   -0.001944514   -0.002148278
     32        1          -0.001937667   -0.000134476    0.000217655
     33        1           0.002368097   -0.000576432   -0.000470458
 -------------------------------------------------------------------
 Cartesian Forces:  Max     0.007435284 RMS     0.001828924

 GradGradGradGradGradGradGradGradGradGradGradGradGradGradGradGradGradGrad
 Berny optimization.
 Search for a local minimum.
 Step number   1 out of a maximum of    2
 All quantities printed in internal units (Hartrees-Bohrs-Radians)
 Second derivative matrix not updated -- first step.
 ITU=  0
     Eigenvalues ---   -0.00000  -0.00000  -0.00000  -0.00000  -0.00000
     Eigenvalues ---   -0.00000  -0.00000  -0.00000  -0.00000  -0.00000
     Eigenvalues ---   -0.00000  -0.00000  -0.00000  -0.00000  -0.00000
     Eigenvalues ---   -0.00000  -0.00000  -0.00000  -0.00000  -0.00000
     Eigenvalues ---   -0.00000  -0.00000  -0.00000  -0.00000  -0.00000
     Eigenvalues ---   -0.00000  -0.00000  -0.00000  -0.00000  -0.00000
     Eigenvalues ---   -0.00000  -0.00000   0.00000   0.00000   0.00000
     Eigenvalues ---    0.00000   0.00000   0.00000   0.00000   0.00000
     Eigenvalues ---    0.00000   0.00000   0.00000   0.00000   0.00000
     Eigenvalues ---    0.00000   0.00000   0.00000   0.00000   0.00000
     Eigenvalues ---    0.00000   0.00000   0.00000   0.00000   0.00000
     Eigenvalues ---    0.00000   0.00000   0.00000   0.00000   0.00000
     Eigenvalues ---    0.14540   0.14579   0.14819   0.14902   0.14959
     Eigenvalues ---    0.15056   0.15141   0.15176   0.15208   0.15232
     Eigenvalues ---    0.15405   0.88211   0.88502   0.90355   0.92776
     Eigenvalues ---    0.95744   0.96881   0.97954   0.99140   1.00369
     Eigenvalues ---    1.00936   1.03100   1.09152   1.10194   1.13473
     Eigenvalues ---    1.14950   1.17284   1.17300   1.17785   1.18819
     Eigenvalues ---    1.19628   1.19866   1.21197
 Eigenvalue     1 is  -2.89D-15 should be greater than     0.000000 Eigenvector:
                          Y17       Z18       X27       X32       Z2
   1                    0.41228  -0.37957  -0.27095   0.22022  -0.21810
                          X26       Z24       X18       Y29       Y24
   1                    0.17482  -0.16414   0.16391  -0.16388  -0.16109
 Eigenvalue     2 is  -2.66D-15 should be greater than     0.000000 Eigenvector:
                          Z21       Y15       X11       Z11       Z27
   1                    0.29036  -0.28411  -0.26985   0.25999  -0.25312
                          X27       Y21       Z31       Z19       X18
   1                    0.19589  -0.18920  -0.18221   0.18125   0.16543
 Eigenvalue     3 is  -2.66D-15 should be greater than     0.000000 Eigenvector:
                          X27       Z17       X20       Y30       X19
   1                    0.28514   0.22978   0.22926   0.18746   0.18360
                          Z22       Y8        X24       Z30       Z16
   1                   -0.18330   0.17954  -0.17778  -0.17543   0.16799
 Eigenvalue     4 is  -2.00D-15 should be greater than     0.000000 Eigenvector:
                          Z20       Z15       X26       Z19       Y10
   1                    0.39309   0.25544  -0.25136   0.21418  -0.18217
                          Y12       X1        Y23       X20       Z31
   1                   -0.17445   0.15788   0.15745   0.15665  -0.15577
 Eigenvalue     5 is  -2.00D-15 should be greater than     0.000000 Eigenvector:
                          Z21       Z23       Z27       Y28       Y29
   1                    0.38596   0.30398   0.27157  -0.26644  -0.24297
                          Y23       Y20       Z22       X27       Z24
   1                   -0.18607   0.18136  -0.16847  -0.16347   0.15579
 Eigenvalue     6 is  -1.89D-15 should be greater than     0.000000 Eigenvector:
                          Z13       Y12       Y30       Y10       Z15
   1                    0.39293  -0.32597   0.25077  -0.23062  -0.21005
                          X33       Y31       Y24       Y21       Y11
   1                    0.20960   0.20050   0.18793  -0.17980  -0.16218
 Eigenvalue     7 is  -1.89D-15 should be greater than     0.000000 Eigenvector:
                          X17       Y11       X27       Z13       Z20
   1                    0.35831   0.35524  -0.28245   0.22957   0.19952
                          Z14       Y12       Y14       Z31       Y10
   1                   -0.19417   0.18029  -0.17833  -0.17549   0.16984
 Eigenvalue     8 is  -1.55D-15 should be greater than     0.000000 Eigenvector:
                          Y12       Z21       Y11       X18       Z31
   1                    0.28765  -0.22414  -0.21249  -0.19466  -0.19240
                          X25       X33       Y8        Y9        Z13
   1                    0.18504  -0.17906   0.17827   0.17644   0.16441
 Eigenvalue     9 is  -1.33D-15 should be greater than     0.000000 Eigenvector:
                          Z24       Z23       X20       Y2        Z15
   1                    0.30892  -0.23782  -0.21471  -0.20829  -0.20253
                          Y26       Y3        Y1        Y17       X5
   1                   -0.19626  -0.18452  -0.17621   0.17362   0.16348
 Eigenvalue    10 is  -1.33D-15 should be greater than     0.000000 Eigenvector:
                          X16       Z14       Z24       X2        Z31
   1                    0.46838   0.38416  -0.22680  -0.22553  -0.17506
                          X29       Z27       X14       X17       Z21
   1                   -0.17235   0.16764   0.16753  -0.16291  -0.15759
 Eigenvalue    11 is  -1.33D-15 should be greater than     0.000000 Eigenvector:
                          X22       Z26       X24       Y28       Z21
   1                    0.29538   0.26274   0.24834  -0.23562  -0.21954
                          X27       Z25       Y24       Y25       Z20
   1                    0.21832   0.20759  -0.19015   0.18683  -0.17185
 Eigenvalue    12 is  -1.33D-15 should be greater than     0.000000 Eigenvector:
                          X18       Y21       Z32       X27       X25
   1                    0.32844   0.31946  -0.19876   0.19611   0.18827
                          Y23       Z20       Y19       X23       X9
   1                   -0.18229   0.18168   0.17669  -0.16678  -0.16477
 Eigenvalue    13 is  -1.22D-15 should be greater than     0.000000 Eigenvector:
                          Z20       X17       Y12       Y21       Y20
   1                    0.33941  -0.31310   0.30847  -0.28920  -0.25994
                          Y28       Z13       X29       Z14       X21
   1                   -0.24132  -0.23512   0.16886  -0.15374  -0.15318
 Eigenvalue    14 is  -1.22D-15 should be greater than     0.000000 Eigenvector:
                          Y24       Z21       Z26       X29       Z32
   1                    0.30046  -0.25054  -0.24740   0.22605  -0.20091
                          Z8        Z14       X25       Y28       Z25
   1                   -0.19832   0.19591   0.19477  -0.17503  -0.16439
 Eigenvalue    15 is  -1.22D-15 should be greater than     0.000000 Eigenvector:
                          Z14       X1        Z18       Z2        Z21
   1                    0.34225   0.25129  -0.24692   0.23473   0.22875
                          Y24       X18       X33       Z7        Y10
   1                    0.21967   0.18165  -0.16891  -0.16717   0.16252
 Eigenvalue    16 is  -8.88D-16 should be greater than     0.000000 Eigenvector:
                          Y10       Z11       Y28       Y22       X12
   1                    0.28008  -0.25317  -0.22584  -0.19191  -0.19013
                          X30       Y23       X33       Z22       X7
   1                    0.17734  -0.17228  -0.17034   0.16880   0.16456
 Eigenvalue    17 is  -8.88D-16 should be greater than     0.000000 Eigenvector:
                          Y19       Y23       X32       Z19       Z4
   1                    0.25113   0.25110  -0.22698  -0.21709   0.21189
                          Z22       Z18       Z16       Z17       Z13
   1                    0.21034  -0.19026  -0.18637  -0.18514  -0.18028
 Eigenvalue    18 is  -7.77D-16 should be greater than     0.000000 Eigenvector:
                          Y6        X5        Y4        Y15       X3
   1                    0.29284  -0.24787   0.22978  -0.21331  -0.20075
                          Y12       X7        Y19       Z6        Z12
   1                    0.17906   0.17867   0.17538  -0.17116   0.16465
 Eigenvalue    19 is  -7.77D-16 should be greater than     0.000000 Eigenvector:
                          Y11       Z11       Y10       X27       X17
   1                    0.28212   0.25186  -0.25180  -0.24544  -0.21504
                          Y12       Z13       Z14       Y26       Z15
   1                   -0.21216  -0.19835  -0.18284  -0.17872   0.16918
 Eigenvalue    20 is  -7.77D-16 should be greater than     0.000000 Eigenvector:
                          Y32       Z32       Y33       Y31       X32
   1                    0.38653  -0.38517   0.33747   0.31083  -0.30309
                          Z33       Z31       X33       X31       Y25
   1                   -0.25224   0.24749  -0.20021  -0.16755  -0.14238
 Eigenvalue    21 is  -4.44D-16 should be greater than     0.000000 Eigenvector:
                          Y9        Y5        X18       Y2        X5
   1                    0.32863  -0.29614   0.21708  -0.21129  -0.20818
                          Z14       X14       X4        Z3        X2
   1                   -0.20627   0.17460  -0.16646  -0.16543   0.16377
 Eigenvalue    22 is  -4.44D-16 should be greater than     0.000000 Eigenvector:
                          Z24       Z12       Y15       Y10       Y14
   1                    0.42381  -0.26134   0.17627   0.17365   0.16971
                          Z21       X10       Z3        Z33       Y24
   1                   -0.16922   0.16450  -0.16372   0.16211  -0.16145
 Eigenvalue    23 is  -4.44D-16 should be greater than     0.000000 Eigenvector:
                          X17       Z21       Z15       X26       Z18
   1                    0.25107   0.23460  -0.22026   0.20518   0.20306
                          Z3        X27       Y15       X15       Y16
   1                    0.19185   0.18722   0.18622  -0.17519   0.16901
 Eigenvalue    24 is  -4.44D-16 should be greater than     0.000000 Eigenvector:
                          X18       X23       X19       Y21       Z30
   1                    0.33490   0.24624  -0.21697   0.21660  -0.21252
                          Z24       Y6        Y20       Y19       Z33
   1                    0.20679  -0.19634   0.19235   0.18750  -0.17992
 Eigenvalue    25 is  -3.33D-16 should be greater than     0.000000 Eigenvector:
                          X6        X2        X17       Z27       Y6
   1                    0.26210   0.26029  -0.22454  -0.21435   0.21301
                          Z32       Z3        Y29       Z1        X3
   1                    0.20543   0.20297  -0.19248   0.18993  -0.17896
 Eigenvalue    26 is  -3.33D-16 should be greater than     0.000000 Eigenvector:
                          Y5        Z33       X3        X6        Y28
   1                    0.28068  -0.23738  -0.22929  -0.22023   0.21734
                          X16       X2        X25       X17       X28
   1                   -0.19926   0.18751   0.18164  -0.17885   0.17850
 Eigenvalue    27 is  -2.22D-16 should be greater than     0.000000 Eigenvector:
                          Y5        Z9        Z5        Y8        X7
   1                    0.45667  -0.25202  -0.23206  -0.22671   0.21104
                          X30       X26       Y30       Z30       Y23
   1                   -0.18624  -0.17812  -0.17374   0.16766  -0.16246
 Eigenvalue    28 is  -2.22D-16 should be greater than     0.000000 Eigenvector:
                          X2        Y29       Z8        Y9        Z3
   1                    0.23321   0.22999  -0.22409  -0.22049  -0.21410
                          X18       Y1        Z2        X12       Z24
   1                   -0.21060   0.19025  -0.18123  -0.16234  -0.16122
 Eigenvalue    29 is  -2.22D-16 should be greater than     0.000000 Eigenvector:
                          X20       Y6        X11       Z9        Z31
   1                    0.29294  -0.23013  -0.21468  -0.21417   0.20041
                          X30       Z8        Z1        X6        X1
   1                    0.19977  -0.19628  -0.17248   0.16804   0.16364
 Eigenvalue    30 is  -2.22D-16 should be greater than     0.000000 Eigenvector:
                          Y11       Z27       Y4        X17       Z33
   1                    0.32881   0.26705  -0.25420  -0.24036   0.23103
                          Z14       Y30       X32       Y29       Y28
   1                   -0.21033   0.20008   0.19163  -0.18717   0.18171
 Eigenvalue    31 is  -2.22D-16 should be greater than     0.000000 Eigenvector:
                          Z18       Y23       X18       Z32       Y19
   1                    0.25517   0.23292   0.22322  -0.20734  -0.19733
                          Y29       Y1        X21       X32       Z21
   1                   -0.19492   0.18187   0.18037   0.17596  -0.17507
 Eigenvalue    32 is  -1.11D-16 should be greater than     0.000000 Eigenvector:
                          Z14       Z2        Z33       X9        X8
   1                    0.28464  -0.24489   0.21780   0.21329   0.20387
                          Z18       Y14       X18       Y13       Y4
   1                    0.20369   0.19245   0.19114   0.17510  -0.16006
 Eigenvalue    33 is   0.00D+00 Eigenvector:
                          Z24       Y5        Z2        Z9        Z3
   1                    0.33911  -0.32655  -0.25354  -0.22527   0.19839
                          X17       Z8        Z31       X27       Y8
   1                   -0.18852  -0.18450  -0.17430   0.17329  -0.17286
 Eigenvalue    34 is   0.00D+00 Eigenvector:
                          Z9        Z8        X25       X11       Z2
   1                    0.31178  -0.29492  -0.25824   0.22436  -0.22369
                          Y29       X12       Y6        Y23       X2
   1                   -0.21610   0.19850   0.17514  -0.17353   0.17110
 Eigenvalue    35 is   0.00D+00 Eigenvector:
                          Z2        Z1        Y29       Y3        Y11
   1                    0.36135   0.25628   0.23740  -0.21032   0.20854
                          Y24       Y2        Z8        Z17       Y8
   1                   -0.19076  -0.18891  -0.16917  -0.16545   0.15579
 Eigenvalue    36 is   0.00D+00 Eigenvector:
                          Y6        X3        X2        Z8        Z7
   1                    0.33880   0.28825  -0.25396  -0.23024  -0.22804
                          X20       Z30       X9        Y1        Y5
   1                   -0.19100  -0.16847   0.16059  -0.15269   0.14456
 Eigenvalue    37 is   2.22D-16 Eigenvector:
                          Y9        Z6        X30       X28       Z12
   1                    0.28960  -0.23349  -0.22448  -0.22080   0.20203
                          Z22       X17       Y30       Z28       Z33
   1                    0.20158   0.17814   0.17449  -0.17352  -0.16679
 Eigenvalue    38 is   2.22D-16 Eigenvector:
                          X5        Z6        Y4        X20       Z26
   1                    0.37721   0.37302   0.22134   0.21492  -0.20200
                          Y8        Y14       X4        X16       X26
   1                   -0.17896  -0.14467   0.14373  -0.14334  -0.13812
 Eigenvalue    39 is   2.22D-16 Eigenvector:
                          Z15       X26       X14       Z9        Z13
   1                    0.40293   0.25330  -0.24497  -0.23913   0.22641
                          Z22       Z1        X7        X25       Z19
   1                   -0.22425  -0.17652   0.16652   0.16252   0.16154
 Eigenvalue    40 is   2.22D-16 Eigenvector:
                          Z3        Z27       X33       X16       Z15
   1                    0.24404   0.23762  -0.22482   0.21842  -0.20556
                          X9        Y17       Z9        Y31       Y10
   1                   -0.20400  -0.18527  -0.18240  -0.16746   0.16469
 Eigenvalue    41 is   2.22D-16 Eigenvector:
                          X23       Z32       Y23       X16       Y15
   1                    0.38619  -0.30169  -0.21230  -0.20622   0.19490
                          Y28       Y22       X24       X10       Y11
   1                    0.19279  -0.19153   0.18138   0.15536  -0.15303
 Eigenvalue    42 is   4.44D-16 Eigenvector:
                          Z8        Z9        X14       Z12       X17
   1                    0.37781  -0.32675  -0.22614   0.21054   0.19794
                          Y29       X8        X9        Y8        Z2
   1                   -0.19196   0.17578  -0.17214   0.16540  -0.15855
 Eigenvalue    43 is   4.44D-16 Eigenvector:
                          Y4        X4        X5        Y9        Y15
   1                    0.30966   0.25184  -0.22515  -0.22030   0.18018
                          Z14       Y6        X1        Z6        X14
   1                   -0.18015  -0.17004  -0.16682  -0.16398   0.15545
 Eigenvalue    44 is   4.44D-16 Eigenvector:
                          Y10       X27       X25       Z12       Y9
   1                    0.29253   0.26827  -0.22758  -0.22410   0.20042
                          Z3        Y15       Z33       X2        Y27
   1                    0.18907  -0.17968  -0.16083  -0.15969  -0.15578
 Eigenvalue    45 is   4.44D-16 Eigenvector:
                          Z33       Z23       X3        Z15       Y12
   1                    0.32205  -0.24844   0.24009  -0.19646  -0.19523
                          X15       Z22       X2        X32       X17
   1                   -0.19449  -0.18772   0.17500  -0.16876  -0.16823
 Eigenvalue    46 is   6.66D-16 Eigenvector:
                          X26       Z33       Z1        Y7        Y15
   1                    0.37518  -0.29140   0.23088  -0.19341  -0.19085
                          Y8        X29       Y29       Z15       X18
   1                   -0.18701  -0.17206  -0.16349  -0.15974  -0.15377
 Eigenvalue    47 is   6.66D-16 Eigenvector:
                          X3        Z7        Z22       X5        Y30
   1                    0.40491   0.32172  -0.23702  -0.20092   0.19513
                          Z2        X9        Y20       Z5        Y5
   1                   -0.19288  -0.17882  -0.17681   0.16015  -0.15901
 Eigenvalue    48 is   6.66D-16 Eigenvector:
                          Y6        X5        Z8        X21       X19
   1                    0.36016   0.27018   0.25510  -0.25320  -0.21740
                          Y21       Y30       X29       Y11       X16
   1                   -0.18917  -0.18474  -0.18201   0.17779   0.16513
 Eigenvalue    49 is   8.88D-16 Eigenvector:
                          Z7        Z32       Y6        Z6        Y24
   1                    0.32329   0.31038   0.27476  -0.25034   0.20927
                          Z12       X9        X6        Y12       X10
   1                   -0.19495  -0.18814   0.16886  -0.16551   0.15973
 Eigenvalue    50 is   8.88D-16 Eigenvector:
                          X30       Z8        Y29       X18       X3
   1                    0.30144   0.27539   0.23059  -0.21867  -0.20525
                          X20       Z17       X25       Z16       Y30
   1                   -0.20099  -0.20009  -0.17056  -0.16114   0.15359
 Eigenvalue    51 is   8.88D-16 Eigenvector:
                          Z4        X33       Z31       Z5        Z18
   1                    0.30438  -0.29435  -0.24767   0.21548   0.20240
                          X31       Z16       Z17       X26       Y5
   1                   -0.19090   0.18978   0.18534   0.18402   0.17243
 Eigenvalue    52 is   1.11D-15 Eigenvector:
                          X25       X29       X8        Y10       Y8
   1                    0.39006  -0.30537  -0.23744   0.22659  -0.20738
                          X26       Z18       Z22       X1        Z20
   1                   -0.18702   0.15671   0.15318   0.14602  -0.14391
 Eigenvalue    53 is   1.33D-15 Eigenvector:
                          Y11       Z22       Y9        Y30       Z14
   1                    0.35609   0.26505   0.26005  -0.25045   0.24503
                          Z13       X8        X11       Y10       X33
   1                    0.22925  -0.20840   0.20570  -0.19849  -0.15591
 Eigenvalue    54 is   1.33D-15 Eigenvector:
                          Z3        X16       Z32       Z26       X32
   1                    0.38629   0.24144   0.20342  -0.19687  -0.19307
                          X26       Y12       X3        Z15       X30
   1                    0.18394   0.17913  -0.16794   0.16680   0.16633
 Eigenvalue    55 is   1.33D-15 Eigenvector:
                          Z23       X26       X30       Y30       Z19
   1                    0.42848   0.30504  -0.28178  -0.22205  -0.17048
                          Z32       X4        X28       X6        X8
   1                    0.16666   0.16333  -0.16008   0.15632   0.14997
 Eigenvalue    56 is   1.55D-15 Eigenvector:
                          Z15       X29       Z28       X22       Y28
   1                    0.31118   0.29252  -0.26433  -0.19482   0.18451
                          X21       Y29       X24       X26       X2
   1                   -0.18088  -0.17967  -0.17694   0.16462   0.15737
 Eigenvalue    57 is   1.78D-15 Eigenvector:
                          Z3        X15       Z33       X13       Z14
   1                    0.32531   0.26453   0.25306   0.20107   0.19569
                          X32       Y14       Y30       X16       Y29
   1                   -0.18521   0.17841  -0.16653  -0.16501  -0.15797
 Eigenvalue    58 is   1.78D-15 Eigenvector:
                          Y12       X2        Y9        X25       X8
   1                    0.32801   0.31532  -0.23458  -0.22807   0.19965
                          Z12       Z22       Y21       Z24       X11
   1                   -0.19151   0.18745   0.18669  -0.18060  -0.17535
 Eigenvalue    59 is   1.78D-15 Eigenvector:
                          Z23       Y26       X6        Z33       Z27
   1                    0.35110  -0.31439  -0.23348   0.21420  -0.21025
                          X29       X32       Y33       Y27       X26
   1                    0.20945  -0.20076  -0.19194  -0.17997   0.17424
 Eigenvalue    60 is   2.44D-15 Eigenvector:
                          X14       Y30       Z5        X13       X15
   1                    0.31013   0.29914  -0.25744   0.23168   0.20819
                          Y5        Z24       Z30       X4        X6
   1                    0.19569   0.19013   0.16255  -0.16088  -0.15404
 Quadratic step=1.220D+02 exceeds max=3.000D-01 adjusted using Lamda=-4.071D-02.
 Angle between NR and scaled steps=   4.68 degrees.
 Angle between quadratic step and forces=  44.65 degrees.
 Linear search not attempted -- first point.
 B after Tr=    -0.000448   -0.002874    0.006731
         Rot=    1.000000    0.000168    0.000075    0.000047 Ang=   0.02 deg.
 Variable       Old X    -DE/DX   Delta X   Delta X   Delta X     New X
                                 (Linear)    (Quad)   (Total)
    X1       37.57673  -0.00264   0.00000  -0.02769  -0.02701  37.54972
    Y1       37.60569  -0.00125   0.00000   0.00208   0.00108  37.60676
    Z1       16.00067  -0.00136   0.00000  -0.00808  -0.00842  15.99226
    X2       36.37938   0.00065   0.00000  -0.01555  -0.01487  36.36451
    Y2       36.40001   0.00060   0.00000  -0.00023  -0.00137  36.39864
    Z2       15.27488   0.00023   0.00000  -0.01644  -0.01655  15.25833
    X3       37.07501  -0.00030   0.00000  -0.01493  -0.01398  37.06103
    Y3       39.20044   0.00080   0.00000   0.00512   0.00391  39.20435
    Z3       15.26574  -0.00042   0.00000  -0.01215  -0.01309  15.25264
    X4       26.60243   0.00087   0.00000   0.00167   0.00212  26.60455
    Y4       38.44864   0.00089   0.00000   0.01488   0.01560  38.46425
    Z4       18.06588   0.00200   0.00000   0.02213   0.01987  18.08575
    X5       26.55101   0.00023   0.00000  -0.00048   0.00014  26.55115
    Y5       37.62167   0.00063   0.00000   0.02569   0.02588  37.64755
    Z5       16.43840   0.00001   0.00000   0.01528   0.01329  16.45168
    X6       28.20163  -0.00106   0.00000  -0.00157  -0.00127  28.20036
    Y6       37.90892   0.00029   0.00000   0.00168   0.00249  37.91141
    Z6       18.76884  -0.00019   0.00000   0.01351   0.01168  18.78053
    X7       34.02732   0.00046   0.00000   0.02776   0.02842  34.05574
    Y7       33.83843   0.00217   0.00000   0.03167   0.03025  33.86869
    Z7       13.76128   0.00104   0.00000   0.02723   0.02763  13.78892
    X8       34.74060   0.00025   0.00000   0.00429   0.00473  34.74533
    Y8       32.22020  -0.00026   0.00000   0.01151   0.01018  32.23038
    Z8       14.22050   0.00030   0.00000  -0.00195  -0.00089  14.21960
    X9       32.47201   0.00111   0.00000   0.01093   0.01146  32.48348
    Y9       33.91490   0.00026   0.00000   0.01393   0.01298  33.92788
    Z9       14.72173  -0.00030   0.00000  -0.00108  -0.00093  14.72079
   X10       36.23965  -0.00389   0.00000  -0.03250  -0.03322  36.20643
   Y10       34.49187   0.00223   0.00000   0.02905   0.03069  34.52256
   Z10       23.45487   0.00027   0.00000   0.00418   0.00469  23.45955
   X11       36.92432   0.00024   0.00000  -0.01544  -0.01645  36.90787
   Y11       33.98559   0.00008   0.00000   0.01210   0.01421  33.99980
   Z11       25.06781   0.00064   0.00000  -0.00584  -0.00505  25.06276
   X12       34.53926   0.00025   0.00000  -0.03272  -0.03345  34.50581
   Y12       35.06061   0.00001   0.00000   0.01021   0.01216  35.07277
   Z12       23.87772  -0.00036   0.00000   0.01337   0.01344  23.89115
   X13       31.09644   0.00352   0.00000   0.03303   0.03235  31.12879
   Y13       36.72854   0.00085   0.00000   0.00020   0.00271  36.73126
   Z13       24.66960  -0.00199   0.00000  -0.02855  -0.02955  24.64005
   X14       31.05748  -0.00002   0.00000   0.01210   0.01162  31.06910
   Y14       38.53400  -0.00061   0.00000   0.00275   0.00518  38.53918
   Z14       24.39462   0.00027   0.00000   0.00101  -0.00061  24.39401
   X15       29.41239  -0.00013   0.00000   0.03963   0.03882  29.45121
   Y15       36.31016  -0.00038   0.00000  -0.01430  -0.01143  36.29873
   Z15       25.23078   0.00008   0.00000  -0.00935  -0.01045  25.22033
   X16       35.76308  -0.00086   0.00000  -0.05572  -0.05562  35.70746
   Y16       42.74486  -0.00744   0.00000  -0.05173  -0.05018  42.69468
   Z16       23.01428   0.00279   0.00000   0.05318   0.05086  23.06514
   X17       35.55668   0.00031   0.00000   0.00537   0.00579  35.56247
   Y17       43.45375  -0.00028   0.00000   0.00081   0.00181  43.45556
   Z17       21.31217   0.00172   0.00000   0.06616   0.06356  21.37572
   X18       36.21230  -0.00301   0.00000  -0.03750  -0.03752  36.17479
   Y18       40.98269   0.00466   0.00000  -0.02815  -0.02674  40.95595
   Z18       22.76098   0.00019   0.00000   0.00240   0.00074  22.76171
   X19       30.13353   0.00270   0.00000   0.02644   0.02680  30.16034
   Y19       44.81494  -0.00076   0.00000  -0.05291  -0.05097  44.76397
   Z19       22.58627   0.00395   0.00000   0.05869   0.05484  22.64111
   X20       30.15832  -0.00010   0.00000   0.01823   0.01856  30.17687
   Y20       46.21871  -0.00143   0.00000  -0.01470  -0.01239  46.20632
   Z20       23.75855  -0.00091   0.00000   0.00895   0.00462  23.76317
   X21       31.79557   0.00130   0.00000   0.04971   0.04998  31.84555
   Y21       44.05693  -0.00068   0.00000  -0.00883  -0.00700  44.04993
   Z21       22.79364   0.00020   0.00000   0.02346   0.02010  22.81375
   X22       34.69852  -0.00266   0.00000  -0.00257  -0.00156  34.69696
   Y22       45.51552   0.00485   0.00000   0.06600   0.06621  45.58173
   Z22       18.98293  -0.00743   0.00000  -0.17765  -0.18110  18.80183
   X23       35.25015   0.00031   0.00000  -0.01204  -0.01100  35.23915
   Y23       47.13552  -0.00070   0.00000   0.00516   0.00559  47.14111
   Z23       19.63333  -0.00109   0.00000  -0.02136  -0.02525  19.60808
   X24       32.88230   0.00044   0.00000  -0.03534  -0.03428  32.84802
   Y24       45.75646  -0.00030   0.00000   0.02229   0.02261  45.77908
   Z24       18.63148  -0.00076   0.00000  -0.01741  -0.02120  18.61027
   X25       29.95402   0.00183   0.00000   0.03316   0.03456  29.98858
   Y25       46.75385   0.00198   0.00000   0.00441   0.00443  46.75828
   Z25       16.90215  -0.00123   0.00000   0.01512   0.01057  16.91272
   X26       29.82492  -0.00003   0.00000  -0.00455  -0.00299  29.82193
   Y26       45.90374   0.00064   0.00000  -0.00145  -0.00196  45.90178
   Z26       15.28474   0.00190   0.00000   0.02385   0.01957  15.30431
   X27       30.29724  -0.00106   0.00000  -0.01507  -0.01343  30.28381
   Y27       48.49951  -0.00234   0.00000   0.00416   0.00399  48.50350
   Z27       16.45885   0.00023   0.00000  -0.00308  -0.00817  16.45067
   X28       36.36233  -0.00136   0.00000  -0.00509  -0.00340  36.35893
   Y28       44.78850  -0.00063   0.00000  -0.02901  -0.03065  44.75785
   Z28       13.71692   0.00210   0.00000   0.03044   0.02751  13.74444
   X29       35.85447   0.00043   0.00000  -0.00100   0.00046  35.85493
   Y29       45.09653  -0.00011   0.00000   0.00464   0.00363  45.10017
   Z29       15.46578  -0.00095   0.00000   0.02197   0.01885  15.48463
   X30       34.97112   0.00132   0.00000   0.01054   0.01244  34.98355
   Y30       45.45586  -0.00109   0.00000  -0.01560  -0.01745  45.43841
   Z30       12.73569   0.00147   0.00000   0.02140   0.01804  12.75373
   X31       25.05717   0.00047   0.00000   0.01094   0.01167  25.06884
   Y31       45.08233  -0.00194   0.00000  -0.00443  -0.00278  45.07955
   Z31       20.42984  -0.00215   0.00000  -0.03736  -0.04207  20.38777
   X32       25.71581  -0.00194   0.00000  -0.02837  -0.02776  25.68805
   Y32       43.40857  -0.00013   0.00000  -0.02564  -0.02415  43.38442
   Z32       20.08847   0.00022   0.00000   0.00207  -0.00198  20.08648
   X33       26.60212   0.00237   0.00000   0.03708   0.03789  26.64001
   Y33       46.05923  -0.00058   0.00000  -0.04004  -0.03855  46.02069
   Z33       20.38094  -0.00047   0.00000  -0.00972  -0.01452  20.36642
         Item               Value     Threshold  Converged?
 Maximum Force            0.007435     0.000450     NO 
 RMS     Force            0.001829     0.000300     NO 
 Maximum Displacement     0.181098     0.001800     NO 
 RMS     Displacement     0.030089     0.001200     NO 
 Predicted change in Energy=-3.778514D-03
 GradGradGradGradGradGradGradGradGradGradGradGradGradGradGradGradGradGrad


 Test job not archived.
 1\1\GINC-LENKA15\Force\RB3LYP\6-31G(d,p)\H22O11\ZRONYJ\24-Aug-2023\0\\
 #b3lyp/6-31G** scrf=(cpcm,Solvent=Water) nosymm force iop(2/11=1) Geom
 =(NoDistance,NoAngle) guess=checkpoint\\cluster_452\\0,1\O,19.88474848
 ,19.90007277,8.46719178\H,19.25114005,19.26205364,8.08311837\H,19.6192
 5239,20.74397755,8.07828075\O,14.07740218,20.34614613,9.56004942\H,14.
 05018821,19.90853296,8.69882455\H,14.92366003,20.06053578,9.93204491\O
 ,18.00648169,17.90652714,7.2821579\H,18.38393432,17.05019666,7.5251630
 9\H,17.18344879,17.94699191,7.7904035\O,19.1771987,18.25231342,12.4117
 8152\H,19.53950949,17.98439811,13.26531539\H,18.27738998,18.55327358,1
 2.63554343\O,16.45552743,19.43590868,13.05459167\H,16.43491085,20.3913
 1585,12.90907676\H,15.56436579,19.21450857,13.35155321\O,18.92500707,2
 2.61960403,12.1786319\H,18.8157837,22.99473589,11.27791269\H,19.162725
 09,21.68710545,12.04459035\O,15.94597978,23.71504593,11.95213829\H,15.
 95909486,24.45788847,12.57248399\H,16.82548969,23.31392166,12.06187728
 \O,18.36166813,24.08577437,10.04533561\H,18.65357565,24.94304283,10.38
 950974\H,17.40056291,24.21327692,9.85935427\O,15.85098415,24.74107283,
 8.94423376\H,15.78266601,24.2912113,8.08833413\H,16.0326105,25.6648352
 9,8.70964591\O,19.242115,23.70105552,7.25868166\H,18.9733661,23.864058
 49,8.1841389\H,18.50591774,24.05420583,6.73943449\O,13.25968448,23.856
 5417,10.81100657\H,13.60821922,22.97082354,10.63036023\H,14.07723485,2
 4.37349735,10.78513089\\Version=ES64L-G16RevA.03\HF=-840.7617592\RMSD=
 2.233e-09\RMSF=1.829e-03\Dipole=-1.4971706,0.7732262,-0.4423404\Quadru
 pole=-116.9725646,109.628036,7.3445285,-22.2125955,-31.5921791,-8.9780
 2\PG=C01 [X(H22O11)]\\@


 A MUSTACHE HAIR ACROSS A CHIP IS LIKE A REDWOOD
 TREE FALLING THROUGH A HOUSING PROJECT.
 - AN IBM MANAGER IN EAST FISHKILL, NEW YORK
   AS QUOTED IN "FROM SANDS TO CIRCUITS", IBM INNOVATION JANUARY 1985.
 Job cpu time:       0 days  0 hours  6 minutes  3.1 seconds.
 Elapsed time:       0 days  0 hours  0 minutes 47.2 seconds.
 File lengths (MBytes):  RWF=    149 Int=      0 D2E=      0 Chk=     20 Scr=      1
 Normal termination of Gaussian 16 at Thu Aug 24 00:56:10 2023.
