159
XYZ file of cluster: frame_8500_74961.21da7.5e2d - created by MolEdiTo
 O      21.24500000      13.80100000       3.62100000
 H      21.13500000      14.25700000       2.70700000
 H      21.08100000      14.54100000       4.24200000
 O      26.66400000      13.30100000       8.34000000
 H      26.67100000      13.50400000       9.25100000
 H      26.13300000      12.52600000       8.30200000
 O      24.91800000      15.87100000       3.49000000
 H      24.92300000      15.05900000       2.99400000
 H      25.32200000      15.57100000       4.32700000
 O      25.15700000       9.64900000       2.50600000
 H      25.82600000       8.96700000       2.81700000
 H      24.88500000      10.14500000       3.29200000
 O      23.05700000       6.88900000       2.99100000
 H      22.17200000       6.90900000       3.35400000
 H      23.64000000       7.36600000       3.61800000
 O      18.06600000       7.38500000       5.91700000
 H      18.41900000       8.09400000       5.34600000
 H      18.46800000       7.53400000       6.78200000
 O      20.75400000       7.24500000       5.29200000
 H      20.77300000       7.05100000       4.29200000
 H      19.86000000       6.93600000       5.61700000
 O      18.53200000      12.03300000       8.69500000
 H      18.24100000      11.04400000       8.73600000
 H      19.26500000      12.08200000       9.27400000
 O      19.09800000      10.20900000       5.79100000
 H      18.31600000      10.52100000       5.33400000
 H      19.72800000      10.95900000       5.71600000
 O      24.66200000      12.42500000       1.11300000
 H      24.47800000      13.30700000       0.76200000
 H      23.71900000      12.11300000       1.15900000
 O      21.08800000       6.34800000       3.60400000
 H      21.50500000       7.19200000       3.29200000
 H      21.12100000       5.68700000       2.84400000
 O      22.79800000      11.45000000       7.94900000
 H      22.00900000      11.75900000       7.35100000
 H      23.40600000      12.17600000       7.78700000
 O      15.83900000      15.60800000       6.08700000
 H      15.06200000      15.16200000       6.35800000
 H      15.63700000      16.49100000       6.21700000
 O      20.92900000      12.40600000      10.01400000
 H      21.13500000      13.33000000      10.16300000
 H      21.72500000      12.10600000       9.44900000
 O      19.69000000      11.72000000       1.98700000
 H      20.38900000      11.50400000       1.31900000
 H      20.18300000      12.48900000       2.41000000
 O      18.98600000       8.79600000       2.38400000
 H      18.94100000       9.51600000       1.64700000
 H      19.94300000       8.70300000       2.58900000
 O      26.50900000      13.35100000       3.06700000
 H      25.87300000      12.94600000       2.41700000
 H      27.31000000      12.89200000       2.77700000
 O      23.49100000      10.04600000       5.00800000
 H      23.46400000       9.34400000       5.65500000
 H      22.60300000      10.10700000       4.60300000
 O      17.01000000      11.11200000       1.07700000
 H      17.79300000      11.78200000       1.01400000
 H      16.83200000      11.03100000       1.97300000
 O      17.69200000       6.46000000       1.62700000
 H      18.17500000       6.70600000       0.77900000
 H      18.07000000       7.02300000       2.31600000
 O      15.72000000       6.52600000       3.80300000
 H      15.13100000       7.24800000       3.53000000
 H      16.38600000       6.58200000       3.05000000
 O      23.50900000       8.67100000       1.70000000
 H      23.50900000       7.79100000       2.18400000
 H      24.34100000       9.17900000       1.89600000
 O      26.81100000       7.69800000       4.92700000
 H      27.06600000       6.96000000       4.26900000
 H      25.90000000       7.39400000       5.29600000
 O      16.31700000       9.38100000       8.65200000
 H      15.93800000       9.84000000       9.39300000
 H      15.51800000       8.97600000       8.24100000
 O      20.64400000       6.25100000      10.42900000
 H      21.45900000       5.95600000       9.89400000
 H      19.84500000       5.87100000       9.97400000
 O      20.24200000      15.30700000      10.16900000
 H      19.41000000      15.25800000       9.59500000
 H      20.84200000      15.98800000       9.72900000
 O      22.41600000       8.83400000       7.02800000
 H      22.20800000       9.66000000       7.42800000
 H      21.51400000       8.51300000       6.85900000
 O      23.23500000      13.66100000       9.40700000
 H      23.88200000      13.04600000       9.02200000
 H      23.54600000      14.58700000       9.24100000
 O      19.65400000       8.21600000       8.05500000
 H      19.37200000       9.09200000       7.75500000
 H      19.87600000       8.33700000       9.06000000
 O      17.91300000      12.98900000       4.63800000
 H      16.94700000      12.91400000       4.65300000
 H      17.96000000      13.88800000       4.23800000
 O      22.68800000      12.64400000       1.50800000
 H      22.98800000      13.47800000       1.03000000
 H      22.70400000      12.94000000       2.46100000
 O      20.11600000       9.67800000      10.32400000
 H      20.70200000       9.01700000      10.77500000
 H      20.48900000      10.53700000      10.44100000
 O      24.22600000       7.00200000       5.59000000
 H      23.60900000       7.32000000       6.31800000
 H      24.61500000       6.07400000       5.84200000
 O      24.55900000      11.62200000       7.34000000
 H      24.92300000      12.04600000       6.55600000
 H      23.88000000      10.95100000       6.94600000
 O      25.47400000      12.78500000       4.60600000
 H      26.08300000      12.98400000       3.83500000
 H      24.59400000      12.88800000       4.19300000
 O      22.82500000      12.79000000       3.35200000
 H      22.28200000      13.39800000       3.94100000
 H      22.17000000      12.06400000       3.10600000
 O      17.50600000       6.17900000       9.71000000
 H      17.23200000       7.14000000       9.56100000
 H      17.09100000       5.80600000      10.49000000
 O      23.43800000      10.37300000      10.29900000
 H      23.19700000      11.26200000       9.87100000
 H      22.61500000      10.15800000      10.88500000
 O      21.54900000      11.19300000       4.03500000
 H      20.63000000      10.85500000       3.96000000
 H      21.45300000      12.18900000       3.87700000
 O      18.71600000      14.78900000       6.97200000
 H      18.50100000      15.02300000       6.03100000
 H      17.87700000      14.73500000       7.48300000
 O      26.88600000       9.99000000       6.56200000
 H      25.95000000      10.04200000       6.79500000
 H      26.97100000       9.48400000       5.73800000
 O      15.98100000      16.10900000      11.25700000
 H      16.50300000      15.33900000      11.23900000
 H      15.37500000      16.02200000      10.44200000
 O      17.50400000      15.14400000       1.69000000
 H      17.48400000      16.08700000       1.93000000
 H      16.61700000      14.86300000       1.91800000
 O      23.62000000       6.59600000       7.87900000
 H      22.89700000       7.27300000       7.55400000
 H      23.06200000       5.91600000       8.22900000
 O      24.48400000       8.58500000       8.50700000
 H      24.09700000       9.19700000       9.24500000
 H      23.74000000       7.96400000       8.35400000
 O      16.72000000      13.52700000       9.81000000
 H      17.35400000      12.89400000       9.32500000
 H      15.91600000      12.98000000       9.92300000
 O      21.89600000       8.96300000       2.67000000
 H      22.49000000       9.08200000       1.85400000
 H      22.17200000       9.61900000       3.36800000
 O      20.38300000      14.45700000       1.85100000
 H      20.44700000      14.05200000       1.00700000
 H      19.42600000      14.57700000       1.96100000
 O      17.91100000      15.68700000       4.03400000
 H      17.31300000      15.73100000       4.85100000
 H      17.56700000      16.45700000       3.51100000
 O      20.56000000      12.61900000       6.45100000
 H      20.98500000      13.49500000       6.59700000
 H      19.65100000      12.74700000       6.75100000
 O      22.13700000       5.10600000      10.25700000
 H      22.74400000       4.38300000      10.33900000
 H      22.61400000       5.91100000      10.14700000
 O      26.04800000      14.82800000       6.26900000
 H      26.20700000      14.02400000       5.71700000
 H      26.31400000      14.51500000       7.17000000
 O      26.39100000      10.97900000      10.71200000
 H      25.46600000      10.73300000      10.40500000
 H      26.19200000      11.44600000      11.56800000
