114
XYZ file of cluster: frame_8500_1bfd.6517.9c6dd - created by MolEdiTo
 O       4.04400000       5.82300000      30.29500000
 H       3.41900000       5.37400000      31.02300000
 H       4.89900000       5.92200000      30.83100000
 O       3.76400000       4.77800000      27.33900000
 H       4.60600000       4.66800000      26.92200000
 H       3.83900000       4.09500000      28.06100000
 O       3.64900000       7.59200000      25.99200000
 H       4.30000000       8.16600000      26.48900000
 H       3.79100000       6.65100000      26.35500000
 O       8.20100000       7.07700000      22.01500000
 H       7.72500000       6.51200000      22.70000000
 H       8.08000000       7.94900000      22.35500000
 O      10.99700000       5.34100000      21.26400000
 H      10.36300000       5.74900000      20.59600000
 H      11.85100000       5.86600000      21.28900000
 O       2.39700000      10.15200000      21.19000000
 H       1.89800000      10.07600000      20.25100000
 H       1.92600000       9.54200000      21.76700000
 O       5.66700000       3.42500000      29.12200000
 H       6.00400000       3.19400000      30.00700000
 H       6.02100000       4.30100000      28.95200000
 O       7.35000000       6.38700000      27.45300000
 H       7.83600000       5.72000000      26.84800000
 H       7.82400000       6.34200000      28.30100000
 O       1.89300000       2.78400000      26.47600000
 H       2.35200000       3.64900000      26.55100000
 H       2.43300000       2.24400000      27.13200000
 O       2.81300000       6.84600000      22.36700000
 H       2.00700000       6.27800000      22.40700000
 H       3.59400000       6.26000000      22.26400000
 O      10.57100000      11.22700000      24.40200000
 H       9.60500000      11.06500000      24.20900000
 H      11.02200000      10.49300000      23.92700000
 O      11.36000000       9.53400000      29.92500000
 H      10.42200000       9.60300000      30.17700000
 H      11.38400000       9.29000000      29.00200000
 O      10.60600000       6.41400000      24.13800000
 H      10.02300000       6.44400000      23.34600000
 H      10.23100000       5.78100000      24.82600000
 O       0.96800000       7.15700000      26.39600000
 H       1.86700000       7.45200000      25.95700000
 H       1.26800000       6.50000000      27.11900000
 O       4.14900000       1.47500000      27.65900000
 H       3.77100000       0.82700000      28.32400000
 H       4.67200000       2.10600000      28.19300000
 O       4.28300000       3.97600000      23.69900000
 H       4.76100000       3.47000000      23.01600000
 H       4.65700000       3.70900000      24.57900000
 O       4.99700000       8.36300000      28.38800000
 H       5.49200000       7.69800000      28.93000000
 H       5.57800000       9.15100000      28.44100000
 O      10.41200000       3.49100000      29.68300000
 H       9.89800000       3.23000000      30.48300000
 H       9.80500000       3.05700000      29.05000000
 O       8.69800000      10.08600000      30.46800000
 H       8.38600000       9.20100000      30.61000000
 H       8.35700000      10.71700000      31.10700000
 O       1.20100000      10.15900000      27.91700000
 H       0.22600000      10.11300000      27.70500000
 H       1.40300000       9.41300000      28.44400000
 O       6.24100000       3.36500000      21.80500000
 H       7.10500000       3.16400000      21.32000000
 H       5.54000000       3.42900000      21.09100000
 O       7.14700000       5.85400000      24.52700000
 H       7.32200000       6.55600000      25.11900000
 H       6.17200000       5.63900000      24.49300000
 O       2.60600000       0.93200000      24.28900000
 H       2.52300000       1.50200000      25.11700000
 H       1.64900000       0.81800000      23.99000000
 O       8.88000000       1.56300000      28.03500000
 H       8.15700000       0.92900000      27.95200000
 H       9.65000000       1.01700000      28.30400000
 O       6.82600000       1.55200000      23.80400000
 H       6.40700000       2.12800000      23.13100000
 H       7.74500000       1.45500000      23.41100000
 O       7.82400000       9.79000000      27.20000000
 H       8.51100000      10.19200000      27.83600000
 H       7.39400000      10.59500000      26.76400000
 O       7.82200000       5.35300000      30.23800000
 H       8.67800000       5.52200000      29.84200000
 H       7.79200000       4.35300000      30.47500000
 O       6.42300000      10.25600000      21.67700000
 H       5.58700000      10.66100000      22.13300000
 H       6.32800000      10.32100000      20.67700000
 O       2.51100000       9.15500000      24.10200000
 H       3.17500000       8.74800000      24.75900000
 H       2.51800000       8.57300000      23.31200000
 O       8.79600000       3.97900000      26.31900000
 H       9.63100000       4.39300000      26.69900000
 H       9.17800000       3.17200000      26.03000000
 O       1.31000000       4.06800000      23.09400000
 H       0.87900000       4.30000000      23.91500000
 H       2.24300000       3.67800000      23.31100000
 O      10.00600000       8.09600000      27.03400000
 H      10.26400000       8.57500000      26.25700000
 H       9.06500000       8.30500000      27.16700000
 O       5.91400000       3.49700000      26.10300000
 H       6.95000000       3.43900000      26.26000000
 H       5.84200000       2.56100000      26.05100000
 O       9.05400000       3.54000000      21.08800000
 H       9.86400000       4.12900000      21.26900000
 H       9.33200000       2.69100000      21.46900000
 O       2.93500000       2.80000000      20.49500000
 H       3.12700000       2.03800000      21.14400000
 H       1.95000000       2.99600000      20.64600000
 O       2.49100000       8.16100000      29.45700000
 H       3.34700000       8.23400000      28.97000000
 H       2.68400000       7.83500000      30.33900000
 O       1.19000000       5.45800000      28.69000000
 H       2.12900000       5.74400000      28.68900000
 H       1.03500000       5.00000000      29.53400000
 O       1.07600000       1.72500000      30.21300000
 H       1.60800000       0.90700000      30.52200000
 H       0.79300000       1.52200000      29.28200000
