90
XYZ file of cluster: frame_8500_c4ec9.7dce.7d92 - created by MolEdiTo
 O      26.89700000       3.26900000       2.76000000
 H      26.14400000       2.64500000       2.82600000
 H      27.18700000       3.22000000       1.83200000
 O      29.53200000       8.75500000       4.48100000
 H      28.76300000       8.13900000       4.67700000
 H      29.27100000       9.56700000       4.97600000
 O      29.08300000       8.46900000       7.78100000
 H      29.33000000       9.19100000       8.37200000
 H      28.29600000       8.78300000       7.36300000
 O      26.88600000       9.99000000       6.56200000
 H      25.95000000      10.04200000       6.79500000
 H      26.97100000       9.48400000       5.73800000
 O      29.05000000       6.02900000       1.41900000
 H      28.88500000       7.01000000       1.23900000
 H      28.28400000       5.62300000       1.01600000
 O      27.16600000       7.37000000       9.46100000
 H      26.45800000       7.93200000       9.04200000
 H      27.96400000       7.48000000       8.87600000
 O      29.83300000       2.70600000       2.58300000
 H      29.65500000       3.43800000       1.99800000
 H      30.32900000       2.14800000       1.99600000
 O      29.70600000       5.79300000       6.34200000
 H      29.31300000       5.98100000       7.18200000
 H      30.37500000       6.47800000       6.16800000
 O      25.64300000       4.36300000       5.75100000
 H      25.44100000       3.42600000       5.54800000
 H      26.50900000       4.46600000       5.35200000
 O      27.77400000       2.49600000       5.30400000
 H      28.27600000       2.59400000       4.43400000
 H      26.92000000       2.06300000       5.22500000
 O      30.69000000       9.80400000       3.14700000
 H      31.45800000       9.17800000       3.19900000
 H      30.16500000       9.39000000       3.90800000
 O      27.70700000       5.51100000       3.38500000
 H      28.64000000       5.46400000       3.10900000
 H      27.29000000       4.91400000       2.72900000
 O      28.10100000       2.22200000       9.35300000
 H      27.98700000       1.63100000       8.54600000
 H      27.91900000       3.13000000       9.01200000
 O      30.36000000       5.23500000       3.47000000
 H      31.14500000       5.62400000       3.91000000
 H      29.87800000       5.15100000       4.36300000
 O      27.12800000       4.62300000       8.06300000
 H      26.55200000       4.74700000       7.24000000
 H      27.05900000       5.38500000       8.65200000
 O      26.81100000       7.69800000       4.92700000
 H      27.06600000       6.96000000       4.26900000
 H      25.90000000       7.39400000       5.29600000
 O      36.54900000      10.33100000      10.08300000
 H      35.92300000       9.67900000      10.54200000
 H      36.47800000      10.07200000       9.17000000
 O      36.91200000       1.38200000       8.39400000
 H      36.26100000       1.60000000       9.13700000
 H      36.33100000       1.26800000       7.60000000
 O      33.24100000      10.27800000       9.11300000
 H      32.53900000      10.59000000       9.65500000
 H      33.64700000       9.56800000       9.65700000
 O      34.03600000       7.85100000       2.61600000
 H      34.21100000       6.86500000       2.66200000
 H      34.61200000       8.20700000       3.24300000
 O      33.90600000       6.35500000       4.96100000
 H      33.68000000       7.29900000       5.18000000
 H      34.84200000       6.48300000       4.57400000
 O      34.27600000       1.38900000      10.01200000
 H      33.29400000       1.31300000      10.22800000
 H      34.62200000       1.01800000      10.79900000
 O      34.76100000       3.67200000       3.69300000
 H      35.27200000       4.15300000       4.29900000
 H      34.06400000       3.29100000       4.29500000
 O      36.90900000       2.33900000       2.85400000
 H      36.25500000       3.00400000       3.20800000
 H      36.49000000       1.42700000       3.17600000
 O      36.60000000       4.68900000      10.08400000
 H      37.09400000       4.84000000      10.89200000
 H      35.67200000       4.96100000      10.17600000
 O      35.91900000       3.77000000       6.22400000
 H      35.05400000       3.68400000       6.63800000
 H      36.37100000       4.43800000       6.74300000
 O      36.48600000       7.91200000       4.27500000
 H      36.97500000       7.95900000       3.44500000
 H      36.09200000       8.76000000       4.47000000
 O      33.09800000       2.67600000       5.92200000
 H      32.16200000       2.97200000       5.99400000
 H      33.41800000       2.45900000       6.83500000
 O      33.73300000       9.13300000       6.29200000
 H      33.52700000       8.92400000       7.24400000
 H      32.94700000       9.62700000       6.01700000
 O      34.17800000       4.98200000       2.29400000
 H      34.34500000       4.35600000       3.10900000
 H      33.12700000       4.94900000       2.24600000
