114
XYZ file of cluster: frame_8500_33c5.c6b99.9d4b4 - created by MolEdiTo
 O       1.74900000      27.41400000      29.64600000
 H       1.69800000      26.51400000      29.28800000
 H       0.94500000      27.97800000      29.36400000
 O       7.81100000      28.20100000      29.82000000
 H       8.41000000      28.33300000      29.03500000
 H       7.78000000      27.21600000      29.79300000
 O       0.93500000      27.16100000      20.36300000
 H       0.73100000      26.68200000      21.18500000
 H       1.39300000      27.97800000      20.59600000
 O       5.83200000      27.16500000      27.47100000
 H       5.01200000      27.63000000      27.47800000
 H       5.78300000      26.21900000      27.13800000
 O       4.43200000      29.88200000      22.02900000
 H       5.30300000      29.90100000      22.49900000
 H       3.83100000      30.11700000      22.76900000
 O      10.42900000      29.74500000      25.36900000
 H      11.11600000      30.42400000      25.15100000
 H      10.77300000      29.10600000      24.71200000
 O       5.53000000      28.97300000      29.59100000
 H       6.32300000      28.43900000      29.56600000
 H       5.23200000      28.88800000      28.69800000
 O       2.18900000      27.32800000      24.97200000
 H       1.77400000      28.00000000      25.59800000
 H       2.53700000      26.63300000      25.55600000
 O       2.67100000      25.72900000      22.69700000
 H       2.85100000      26.40300000      22.03900000
 H       2.43100000      26.25700000      23.52200000
 O       9.37100000      28.02300000      27.44400000
 H      10.06200000      27.43600000      26.97200000
 H       9.63700000      28.90400000      27.11200000
 O       1.32600000      29.38700000      23.15100000
 H       1.89800000      29.03600000      23.82500000
 H       0.43400000      29.05500000      23.41600000
 O       1.07700000      28.68800000      26.92600000
 H       0.42900000      29.21900000      26.48400000
 H       0.41800000      28.27700000      27.49600000
 O       8.35100000      27.46200000      22.44300000
 H       7.75900000      27.45300000      21.61300000
 H       7.71200000      27.68000000      23.09700000
 O       7.45600000      27.53700000      25.04000000
 H       8.03700000      28.33200000      25.12800000
 H       7.05900000      27.60100000      25.93800000
 O       3.55900000      27.88800000      21.36100000
 H       3.19800000      28.80500000      21.51200000
 H       4.50900000      27.93800000      21.14800000
 O       9.03700000      30.71800000      21.64600000
 H       8.64300000      29.87200000      21.16900000
 H       9.94000000      30.49300000      21.67000000
 O       3.18300000      30.05600000      30.72800000
 H       3.47300000      30.02600000      31.60600000
 H       3.95900000      29.73800000      30.16700000
 O      10.81300000      28.55900000      23.40000000
 H       9.97500000      28.08800000      23.27300000
 H      11.08900000      28.52100000      22.48200000
 O       7.39100000      29.81500000      25.83900000
 H       8.38500000      30.06800000      25.59000000
 H       6.90600000      30.12900000      25.02800000
 O       3.84200000      29.37000000      27.55500000
 H       4.06500000      29.71900000      26.71100000
 H       2.82400000      29.22600000      27.50900000
 O       3.76400000      36.38700000      27.33900000
 H       4.60600000      36.27700000      26.92200000
 H       3.83900000      35.70400000      28.06100000
 O       9.05400000      35.14900000      21.08800000
 H       9.86400000      35.73800000      21.26900000
 H       9.33200000      34.30000000      21.46900000
 O       8.88000000      33.17200000      28.03500000
 H       8.15700000      32.53800000      27.95200000
 H       9.65000000      32.62600000      28.30400000
 O       4.14900000      33.08400000      27.65900000
 H       3.77100000      32.43600000      28.32400000
 H       4.67200000      33.71500000      28.19300000
 O       2.93500000      34.40900000      20.49500000
 H       3.12700000      33.64700000      21.14400000
 H       1.95000000      34.60500000      20.64600000
 O       4.28300000      35.58500000      23.69900000
 H       4.76100000      35.07900000      23.01600000
 H       4.65700000      35.31800000      24.57900000
 O       6.82600000      33.16100000      23.80400000
 H       6.40700000      33.73700000      23.13100000
 H       7.74500000      33.06400000      23.41100000
 O       1.31000000      35.67700000      23.09400000
 H       0.87900000      35.90900000      23.91500000
 H       2.24300000      35.28700000      23.31100000
 O       7.82200000      36.96200000      30.23800000
 H       8.67800000      37.13100000      29.84200000
 H       7.79200000      35.96200000      30.47500000
 O      10.41200000      35.10000000      29.68300000
 H       9.89800000      34.83900000      30.48300000
 H       9.80500000      34.66600000      29.05000000
 O       1.19000000      37.06700000      28.69000000
 H       2.12900000      37.35300000      28.68900000
 H       1.03500000      36.60900000      29.53400000
 O       1.89300000      34.39300000      26.47600000
 H       2.35200000      35.25800000      26.55100000
 H       2.43300000      33.85300000      27.13200000
 O       5.66700000      35.03400000      29.12200000
 H       6.00400000      34.80300000      30.00700000
 H       6.02100000      35.91000000      28.95200000
 O       1.07600000      33.33400000      30.21300000
 H       1.60800000      32.51600000      30.52200000
 H       0.79300000      33.13100000      29.28200000
 O       8.79600000      35.58800000      26.31900000
 H       9.63100000      36.00200000      26.69900000
 H       9.17800000      34.78100000      26.03000000
 O       6.24100000      34.97400000      21.80500000
 H       7.10500000      34.77300000      21.32000000
 H       5.54000000      35.03800000      21.09100000
 O       2.60600000      32.54100000      24.28900000
 H       2.52300000      33.11100000      25.11700000
 H       1.64900000      32.42700000      23.99000000
 O       5.91400000      35.10600000      26.10300000
 H       6.95000000      35.04800000      26.26000000
 H       5.84200000      34.17000000      26.05100000
