114
XYZ file of cluster: frame_8500_c6397.9d0e2.9d4b4 - created by MolEdiTo
 O      29.30600000      23.84000000      24.90600000
 H      29.78600000      23.30900000      24.23600000
 H      29.36200000      24.77300000      24.61400000
 O      26.78500000      30.08900000      27.49000000
 H      26.61000000      30.81100000      28.13100000
 H      26.92600000      30.47100000      26.63900000
 O      26.51800000      30.53300000      24.65400000
 H      26.98100000      31.37800000      24.95700000
 H      26.10700000      30.70800000      23.75000000
 O      29.38100000      28.89700000      28.76200000
 H      28.92900000      29.63000000      29.23600000
 H      28.65100000      28.13200000      28.66600000
 O      26.41000000      25.98400000      23.55000000
 H      25.60900000      26.33400000      23.06800000
 H      26.67900000      26.77500000      24.14500000
 O      27.05300000      28.36100000      25.06100000
 H      26.45300000      28.74800000      25.68800000
 H      27.34200000      29.22500000      24.63500000
 O      29.51300000      26.66700000      23.89100000
 H      29.63500000      26.64000000      24.87500000
 H      28.59400000      26.76500000      23.63400000
 O      28.72200000      22.10900000      27.19200000
 H      28.91400000      22.37100000      26.29000000
 H      28.56100000      21.18800000      27.17300000
 O      26.81300000      29.16600000      30.60200000
 H      26.32000000      28.86400000      29.79500000
 H      26.42700000      28.79900000      31.45000000
 O      26.58600000      21.32400000      23.92000000
 H      25.72200000      21.30200000      24.30700000
 H      27.02200000      22.16900000      24.23000000
 O      29.92200000      20.60200000      22.26300000
 H      30.42100000      21.45700000      22.38800000
 H      29.41900000      20.71700000      21.36900000
 O      29.97900000      26.28100000      26.78900000
 H      30.76700000      25.65800000      26.83100000
 H      29.50000000      26.00500000      27.56700000
 O      29.77800000      24.79400000      29.23500000
 H      28.85800000      25.04900000      29.06600000
 H      29.92400000      23.91800000      28.77500000
 O      29.50800000      30.73500000      25.70300000
 H      28.64900000      30.90000000      25.25200000
 H      30.03700000      31.57600000      25.60400000
 O      27.46000000      26.76200000      28.32600000
 H      27.22700000      25.98300000      27.71300000
 H      26.60700000      27.18700000      28.48900000
 O      25.81900000      21.81700000      26.74500000
 H      26.14600000      22.67700000      26.95500000
 H      26.60900000      21.18500000      26.67800000
 O      28.46200000      29.11900000      20.65300000
 H      29.02900000      29.65600000      21.25900000
 H      29.00200000      28.23700000      20.56800000
 O      26.34700000      24.80900000      26.35200000
 H      27.01300000      24.90400000      25.64100000
 H      25.76600000      24.15300000      25.92900000
 O      33.29000000      27.41400000      29.64600000
 H      33.23900000      26.51400000      29.28800000
 H      32.48600000      27.97800000      29.36400000
 O      34.79200000      21.21500000      30.39900000
 H      34.59100000      20.36800000      30.97500000
 H      35.25000000      21.97700000      30.78800000
 O      35.85700000      23.24200000      21.84700000
 H      36.70400000      23.52600000      21.43100000
 H      35.44300000      23.95000000      22.36700000
 O      32.47600000      27.16100000      20.36300000
 H      32.27200000      26.68200000      21.18500000
 H      32.93400000      27.97800000      20.59600000
 O      37.07300000      20.73000000      23.36100000
 H      36.66500000      21.22500000      24.10300000
 H      36.69100000      21.32800000      22.66400000
 O      37.37300000      27.16500000      27.47100000
 H      36.55300000      27.63000000      27.47800000
 H      37.32400000      26.21900000      27.13800000
 O      35.97300000      29.88200000      22.02900000
 H      36.84400000      29.90100000      22.49900000
 H      35.37200000      30.11700000      22.76900000
 O      33.84300000      22.69900000      28.24500000
 H      34.29000000      22.25600000      29.01200000
 H      33.31500000      21.89700000      27.93500000
 O      37.07100000      28.97300000      29.59100000
 H      37.86400000      28.43900000      29.56600000
 H      36.77300000      28.88800000      28.69800000
 O      33.73000000      27.32800000      24.97200000
 H      33.31500000      28.00000000      25.59800000
 H      34.07800000      26.63300000      25.55600000
 O      34.21200000      25.72900000      22.69700000
 H      34.39200000      26.40300000      22.03900000
 H      33.97200000      26.25700000      23.52200000
 O      32.86700000      29.38700000      23.15100000
 H      33.43900000      29.03600000      23.82500000
 H      31.97500000      29.05500000      23.41600000
 O      34.14800000      24.99400000      26.85900000
 H      33.62700000      24.22200000      27.28600000
 H      35.11900000      24.63800000      26.82000000
 O      37.41800000      25.72100000      23.04300000
 H      38.08600000      25.45000000      23.66000000
 H      36.62300000      26.05000000      23.63300000
 O      32.61800000      28.68800000      26.92600000
 H      31.97000000      29.21900000      26.48400000
 H      31.95900000      28.27700000      27.49600000
 O      35.10000000      27.88800000      21.36100000
 H      34.73900000      28.80500000      21.51200000
 H      36.05000000      27.93800000      21.14800000
 O      34.72400000      30.05600000      30.72800000
 H      35.01400000      30.02600000      31.60600000
 H      35.50000000      29.73800000      30.16700000
 O      32.68400000      23.12700000      22.57200000
 H      33.02800000      24.07800000      22.66800000
 H      33.39800000      22.56300000      22.12400000
 O      35.32500000      21.30900000      25.59400000
 H      34.56500000      21.46800000      25.04200000
 H      35.16500000      20.33400000      25.77900000
 O      35.38300000      29.37000000      27.55500000
 H      35.60600000      29.71900000      26.71100000
 H      34.36500000      29.22600000      27.50900000
