144
XYZ file of cluster: frame_8500_99b99.7552f.20302 - created by MolEdiTo
 O      24.05100000      18.95200000      10.20700000
 H      23.92400000      19.75800000       9.67200000
 H      24.45700000      19.31100000      11.01700000
 O      22.94500000      16.00000000      12.85200000
 H      23.55600000      15.19000000      12.72800000
 H      22.08300000      15.56600000      12.82400000
 O      25.34500000      22.95600000      16.12800000
 H      25.22400000      23.41200000      15.31900000
 H      25.42500000      21.96500000      16.01400000
 O      29.65600000      24.07600000      13.07900000
 H      29.18800000      23.95700000      13.89900000
 H      30.36600000      23.38900000      13.10300000
 O      30.54200000      24.62700000       8.73500000
 H      29.92400000      25.16600000       8.20800000
 H      30.08100000      23.71500000       8.74600000
 O      29.34900000      17.65100000      11.27400000
 H      30.17300000      17.55900000      10.78700000
 H      29.42600000      16.94800000      11.95400000
 O      20.75100000      22.35800000      13.12700000
 H      21.13900000      23.27500000      13.08200000
 H      19.86000000      22.57400000      12.83600000
 O      23.17700000      26.16300000      14.57700000
 H      24.10500000      25.94300000      14.90600000
 H      22.95400000      25.56800000      13.84400000
 O      21.67500000      20.28000000      11.23200000
 H      21.51900000      20.98800000      11.85100000
 H      20.80200000      20.33700000      10.78200000
 O      28.52600000      26.74600000      10.89700000
 H      29.41400000      26.24600000      10.77600000
 H      28.26900000      26.57700000      11.87300000
 O      25.93000000      21.87400000       8.73300000
 H      26.63100000      22.43300000       9.01600000
 H      25.37300000      21.77400000       9.54300000
 O      23.20000000      22.07300000      13.13500000
 H      22.40700000      22.52800000      12.92600000
 H      22.90400000      21.14700000      13.36100000
 O      22.76100000      23.30800000       7.49100000
 H      22.93800000      22.82600000       8.34600000
 H      22.60600000      22.49800000       6.91900000
 O      23.97400000      22.34200000       5.70400000
 H      24.27300000      21.97700000       4.86600000
 H      23.92900000      21.60200000       6.37200000
 O      27.75100000      20.15200000       6.59600000
 H      27.75200000      19.49800000       7.32700000
 H      28.25800000      19.74100000       5.82700000
 O      20.51100000      18.63100000       8.67700000
 H      21.06800000      18.95600000       7.89700000
 H      21.16000000      18.22300000       9.29200000
 O      28.47400000      20.67500000      12.22600000
 H      29.40100000      20.90000000      12.43000000
 H      28.58200000      19.73000000      12.02700000
 O      24.39200000      20.06100000       7.11600000
 H      25.12200000      20.37800000       7.66400000
 H      24.78200000      19.27600000       6.70400000
 O      22.95400000      19.38100000      13.17700000
 H      22.37900000      19.46900000      12.35700000
 H      23.12700000      18.41700000      13.44000000
 O      25.34900000      23.99600000      13.76700000
 H      25.82600000      24.05200000      12.89600000
 H      24.53100000      23.38700000      13.60100000
 O      25.92200000      24.12800000       5.37000000
 H      26.71700000      23.58500000       5.72000000
 H      25.05600000      23.68300000       5.81900000
 O      24.90500000      25.30400000      10.69400000
 H      24.06200000      24.81100000      10.48400000
 H      25.36700000      25.53500000       9.81500000
 O      28.19300000      16.86500000       6.10900000
 H      28.14600000      16.78300000       7.08300000
 H      27.28000000      17.15200000       5.90800000
 O      24.77200000      20.09500000      15.71800000
 H      24.23800000      19.91700000      16.55400000
 H      24.27000000      19.83300000      14.97800000
 O      28.21600000      22.56300000       5.85400000
 H      27.90800000      21.65200000       6.24400000
 H      29.11200000      22.41500000       5.52500000
 O      22.45300000      17.15400000      10.17700000
 H      23.31600000      17.52800000      10.25000000
 H      22.49800000      16.39500000      10.82200000
 O      22.66500000      18.32400000       6.79300000
 H      23.61000000      18.23600000       7.13500000
 H      22.90800000      18.38800000       5.89800000
 O      23.70100000      24.98100000       7.03500000
 H      22.77700000      24.73100000       7.26000000
 H      24.21500000      24.49600000       7.61400000
 O      23.17700000      20.93100000       8.92100000
 H      22.69700000      20.65600000       9.75200000
 H      23.21900000      20.11400000       8.45000000
 O      29.03300000      20.95900000      15.59200000
 H      28.55400000      20.09500000      15.31900000
 H      29.64300000      20.66400000      16.32500000
 O      21.71500000      25.07700000      13.04100000
 H      21.19900000      25.77700000      13.40400000
 H      21.78300000      25.39100000      12.08200000
 O      25.51800000      18.01500000       5.56200000
 H      25.46800000      18.65300000       4.78100000
 H      25.14600000      17.15600000       5.23900000
 O      21.55900000      25.97300000      10.24800000
 H      20.79300000      25.96000000       9.60100000
 H      22.29800000      26.50200000       9.75900000
 O      28.11600000      26.70200000      14.14400000
 H      29.00700000      26.41000000      14.55500000
 H      27.55200000      25.86200000      14.27200000
 O      26.03300000      16.53000000      10.41400000
 H      26.20100000      16.76400000      11.35700000
 H      25.43700000      17.31300000      10.27000000
 O      29.98800000      26.13600000       5.98800000
 H      29.82700000      25.46100000       5.34300000
 H      30.19500000      26.86700000       5.41300000
 O      27.31500000      23.51600000      11.17700000
 H      27.70000000      23.16900000      12.02200000
 H      27.68200000      24.44100000      11.11800000
 O      24.28400000      16.06000000       8.18200000
 H      25.12200000      16.17700000       7.65200000
 H      24.67000000      16.25800000       9.11100000
 O      23.48500000      17.07900000      15.51000000
 H      22.66400000      16.72000000      15.08000000
 H      23.22100000      17.27400000      16.41800000
 O      25.43200000      21.23900000      11.50700000
 H      24.75000000      21.37000000      12.20400000
 H      26.18800000      21.53200000      12.04600000
 O      26.57100000      26.76300000       5.98200000
 H      26.63800000      27.53000000       5.39600000
 H      26.22000000      26.00600000       5.42700000
 O      29.37100000      21.79400000       9.58700000
 H      28.99700000      20.92000000       9.51500000
 H      28.69100000      22.22500000      10.19900000
 O      30.73500000      18.56000000       7.92800000
 H      31.15500000      19.12100000       7.22000000
 H      30.76700000      19.16000000       8.66600000
 O      21.35800000      15.91000000       5.50100000
 H      20.45500000      16.33600000       5.57800000
 H      21.76500000      16.53300000       6.08500000
 O      21.32400000      22.39700000       4.55500000
 H      21.53600000      21.52700000       4.16700000
 H      20.98500000      22.26300000       5.46200000
 O      28.04600000      23.75700000      15.60500000
 H      28.21800000      22.84500000      15.85000000
 H      27.09500000      23.88900000      15.35800000
 O      25.07100000      16.56300000      13.23600000
 H      24.89300000      15.68500000      12.91600000
 H      24.69300000      16.57800000      14.17100000
 O      22.20500000      25.16400000      16.28300000
 H      22.84600000      25.60600000      15.69600000
 H      21.62600000      25.86600000      16.54500000
