120
XYZ file of cluster: frame_8500_26765.50be9.0 - created by MolEdiTo
 O      13.04600000      11.45800000       0.81500000
 H      13.44500000      11.92000000       0.00000000
 H      12.65800000      10.62800000       0.38600000
 O      14.57100000      15.63300000       3.19900000
 H      15.46900000      15.88800000       3.71200000
 H      14.75700000      14.79600000       2.79100000
 O      12.37000000      13.03900000       9.76100000
 H      12.23600000      13.46000000      10.66100000
 H      11.53800000      12.67700000       9.45200000
 O      10.40100000      14.21000000       3.73200000
 H       9.63800000      14.82500000       3.88000000
 H      10.37100000      13.98100000       2.76500000
 O       8.61600000      11.46900000       8.92600000
 H       9.45700000      10.96000000       8.59100000
 H       8.02800000      11.46600000       8.10100000
 O      11.55400000      20.17800000       8.53900000
 H      11.46400000      19.21200000       8.57600000
 H      12.34200000      20.31100000       9.02400000
 O       7.06700000      16.22400000       1.65800000
 H       7.13200000      15.22100000       1.54400000
 H       6.99900000      16.33200000       2.58900000
 O      15.83900000      15.60800000       6.08700000
 H      15.06200000      15.16200000       6.35800000
 H      15.63700000      16.49100000       6.21700000
 O       7.48500000      12.74400000       6.51700000
 H       7.07000000      12.15900000       5.80000000
 H       6.72500000      13.36500000       6.74400000
 O      13.06300000      18.12000000       6.52900000
 H      12.52500000      17.31300000       6.56100000
 H      12.82100000      18.54800000       5.70100000
 O      10.53200000      11.31100000       3.89700000
 H       9.64000000      11.16400000       3.47900000
 H      11.02800000      11.91000000       3.29700000
 O      13.69500000      13.90400000       7.47800000
 H      12.87800000      13.64700000       7.06200000
 H      13.61900000      13.81400000       8.45700000
 O       7.75700000      17.33800000       9.77200000
 H       7.40900000      16.75700000      10.45200000
 H       8.57300000      17.68100000      10.26200000
 O      12.67900000      21.03800000       1.39100000
 H      11.90900000      20.84000000       0.82300000
 H      13.08500000      20.15900000       1.62600000
 O       7.03500000      17.00000000       7.21600000
 H       6.12500000      17.01200000       7.69000000
 H       7.60300000      16.97400000       8.07200000
 O      13.52200000      18.90200000       2.18000000
 H      13.43700000      19.42100000       3.01200000
 H      14.10900000      18.20400000       2.47500000
 O      10.80500000      12.67600000       6.50300000
 H      11.22700000      12.65100000       5.60800000
 H       9.90100000      12.42300000       6.21100000
 O       7.07700000      21.25000000       7.94400000
 H       6.26800000      20.66900000       7.72700000
 H       6.81900000      21.80100000       8.71700000
 O       6.33400000      13.66500000       9.56300000
 H       5.71700000      12.94800000       9.83600000
 H       7.22700000      13.32600000       9.61000000
 O      11.15300000      13.06700000       2.15300000
 H      11.58000000      13.84200000       1.66500000
 H      11.84000000      12.41300000       1.94200000
 O      14.49300000      11.06900000      10.80800000
 H      14.29400000      10.77200000      11.71400000
 H      13.66600000      11.44300000      10.41700000
 O       8.13400000      15.78300000       4.70000000
 H       8.50300000      16.72200000       4.68300000
 H       8.23200000      15.48900000       5.62700000
 O      16.17100000      19.48400000       7.10000000
 H      16.30300000      19.95700000       6.22500000
 H      15.20400000      19.30000000       7.05000000
 O       9.40300000      12.74500000      11.39300000
 H       9.86600000      13.58000000      11.12900000
 H       9.12800000      12.28500000      10.52800000
 O       9.44900000      18.36700000       4.00200000
 H      10.10800000      17.92200000       3.42300000
 H       9.96900000      19.10500000       4.48800000
 O      11.91200000      20.11500000       4.90200000
 H      11.83800000      20.63900000       5.72800000
 H      12.80700000      20.40600000       4.49400000
 O      14.25200000      16.27600000       8.78100000
 H      13.82700000      17.15800000       8.63600000
 H      14.01400000      15.69900000       8.02400000
 O      13.15900000      10.45400000       4.90500000
 H      13.36900000      10.59500000       5.84100000
 H      12.21400000      10.72900000       4.91600000
 O       6.26800000      12.88600000       1.08100000
 H       5.57600000      13.16700000       1.72900000
 H       5.81900000      12.29800000       0.46000000
 O      15.92800000      20.57400000       2.45300000
 H      14.92500000      20.38800000       2.59200000
 H      15.98600000      21.10700000       1.68800000
 O       4.96900000      15.77600000       4.90100000
 H       5.50400000      16.42500000       4.40600000
 H       5.24400000      15.84400000       5.87700000
 O      14.31300000      20.92400000       4.06200000
 H      15.20000000      20.64900000       3.76300000
 H      14.33100000      21.84500000       3.60000000
 O      15.26600000      12.49100000       3.68500000
 H      15.68500000      12.72800000       2.84600000
 H      15.06700000      11.61100000       3.48100000
 O      15.21300000      13.63700000       1.81900000
 H      15.44300000      12.99700000       1.11700000
 H      14.26800000      13.37400000       2.11800000
 O      15.98100000      16.10900000      11.25700000
 H      16.50300000      15.33900000      11.23900000
 H      15.37500000      16.02200000      10.44200000
 O       5.91500000      20.23000000       1.01200000
 H       5.03200000      20.52700000       0.61100000
 H       6.42100000      19.72900000       0.32400000
 O       8.09200000      11.83500000       3.10300000
 H       7.23200000      12.06300000       2.61400000
 H       8.78700000      12.49500000       2.89300000
 O      12.43300000      15.69300000       5.20200000
 H      11.58500000      15.44200000       4.89100000
 H      12.93900000      15.69400000       4.37900000
 O       6.05200000      20.86500000       2.80800000
 H       6.17300000      20.51700000       1.89500000
 H       5.75900000      20.11200000       3.39000000
 O       6.60500000      18.76800000       5.21700000
 H       7.33700000      18.83200000       4.61300000
 H       6.77900000      18.03500000       5.89400000
