99
XYZ file of cluster: frame_12500_9a511.9da0f.9bf34 - created by MolEdiTo
 O      23.95200000      23.19300000      25.16600000
 H      23.92100000      23.29200000      26.19700000
 H      24.89800000      23.45600000      24.91500000
 O      28.98500000      30.24000000      22.60400000
 H      28.52800000      30.75900000      23.35800000
 H      28.88800000      30.92500000      21.82300000
 O      27.14300000      20.92000000      30.93200000
 H      27.22500000      20.15000000      31.45200000
 H      27.84800000      21.49700000      31.27300000
 O      28.76300000      22.22800000      25.74100000
 H      29.68400000      22.46100000      26.16500000
 H      28.11600000      22.92200000      26.12500000
 O      26.73700000      26.35200000      27.37700000
 H      27.08800000      27.27900000      27.66800000
 H      27.56900000      25.97300000      27.05800000
 O      20.57600000      23.01900000      23.63500000
 H      19.76200000      23.38300000      24.10000000
 H      21.20600000      23.72900000      23.70200000
 O      22.37200000      29.51300000      26.65700000
 H      21.63800000      28.85600000      26.53800000
 H      23.05400000      29.08500000      26.05200000
 O      25.61100000      22.33900000      29.09500000
 H      24.86300000      21.81400000      28.65200000
 H      25.96900000      21.70800000      29.79800000
 O      25.50800000      20.90800000      23.59200000
 H      24.81900000      21.47400000      23.16300000
 H      25.99000000      21.63600000      24.14000000
 O      23.20300000      22.20100000      27.85300000
 H      22.31600000      22.63400000      28.05700000
 H      22.98800000      21.34300000      28.25000000
 O      27.06500000      28.02000000      23.47900000
 H      27.61900000      27.55500000      24.08300000
 H      27.37900000      28.92000000      23.42000000
 O      21.79900000      27.32300000      21.71100000
 H      20.85600000      27.42900000      22.10000000
 H      22.01300000      26.40100000      21.50700000
 O      24.37900000      25.14600000      22.46500000
 H      25.00200000      24.92200000      23.18800000
 H      24.79400000      25.90900000      21.88500000
 O      20.75600000      27.34300000      27.00300000
 H      21.25000000      26.71800000      26.43200000
 H      20.18100000      26.76900000      27.52300000
 O      25.31900000      27.49700000      21.12600000
 H      25.74200000      27.98900000      20.32700000
 H      25.79100000      27.95700000      21.88400000
 O      22.24700000      25.39400000      24.93000000
 H      22.84900000      24.62500000      25.33500000
 H      22.74600000      25.86100000      24.18000000
 O      29.93300000      21.21300000      23.62300000
 H      29.40900000      21.55100000      24.41800000
 H      30.62500000      21.85900000      23.59400000
 O      25.32400000      28.09800000      29.07400000
 H      25.37100000      29.03200000      29.27200000
 H      24.45700000      27.76000000      29.45400000
 O      22.31800000      28.23500000      30.01300000
 H      22.07500000      28.34500000      29.04000000
 H      21.31700000      28.18000000      30.29300000
 O      26.83300000      25.79800000      30.13500000
 H      26.42800000      26.26700000      29.37300000
 H      26.92400000      26.54400000      30.81900000
 O      28.29500000      23.60700000      21.65600000
 H      27.85200000      24.37200000      21.19800000
 H      29.12800000      23.60600000      21.19700000
 O      21.26400000      20.99900000      25.60100000
 H      21.07500000      21.89000000      25.32500000
 H      22.01000000      21.19100000      26.23300000
 O      21.97000000      22.81200000      30.29000000
 H      22.59300000      22.26700000      30.76600000
 H      22.30700000      23.71400000      30.28600000
 O      23.35000000      22.20000000      22.57300000
 H      23.41600000      22.61700000      23.45400000
 H      22.37300000      21.91800000      22.51800000
 O      29.86500000      29.89100000      28.49100000
 H      30.41000000      29.18900000      28.09800000
 H      30.18500000      29.90800000      29.41000000
 O      29.31200000      25.73200000      25.95700000
 H      29.78800000      25.60100000      26.74100000
 H      29.96200000      25.76400000      25.26100000
 O      28.26700000      28.99700000      26.18100000
 H      28.46100000      29.66200000      25.53000000
 H      28.97400000      29.18500000      26.86200000
 O      26.55400000      23.47900000      24.05600000
 H      27.28000000      23.35000000      23.35800000
 H      26.94100000      24.22400000      24.57100000
 O      30.03900000      22.15300000      30.05800000
 H      29.36300000      21.57200000      29.58100000
 H      30.20900000      22.89600000      29.43800000
 O      24.18200000      28.05200000      24.98700000
 H      25.15300000      27.92300000      25.13200000
 H      24.02900000      28.47000000      24.12700000
 O      23.89200000      26.24100000      27.32100000
 H      24.86400000      26.30600000      27.32200000
 H      23.86300000      26.78400000      26.46500000
 O      23.68600000      24.93400000      30.12700000
 H      23.41500000      25.30900000      29.34800000
 H      24.33400000      24.27400000      29.74300000
 O      27.26200000      23.70200000      27.43700000
 H      26.95700000      24.59300000      27.81700000
 H      26.61000000      23.04200000      27.81900000
