136
XYZ file of cluster: frame_12500_4baeb.265ee.221c3 - created by MolEdiTo
 O      13.91900000      12.08000000       7.08900000
 H      14.32900000      12.89900000       7.54200000
 H      14.12500000      11.44200000       7.75900000
 O      16.89700000      13.22700000       5.93000000
 H      16.79900000      13.11300000       6.81800000
 H      15.96100000      13.45000000       5.59200000
 O      15.79400000      14.81300000      11.27300000
 H      16.67300000      15.10100000      11.12800000
 H      15.36200000      15.61600000      11.80900000
 O      11.01800000       6.54300000      15.70900000
 H      10.01400000       6.60900000      15.77100000
 H      11.15900000       6.63800000      14.74600000
 O      12.65600000      10.17700000      12.62900000
 H      12.91400000      10.50400000      13.53000000
 H      12.48800000       9.23600000      12.80500000
 O      19.97700000       6.33200000      11.02900000
 H      19.88100000       5.50500000      10.51800000
 H      19.07000000       6.34000000      11.53000000
 O      10.17900000      11.18200000      11.82200000
 H      10.06400000      10.69900000      10.95300000
 H      11.05900000      10.88200000      12.23400000
 O      17.84200000      11.25000000      13.66400000
 H      18.26900000      11.97800000      14.18300000
 H      16.91600000      11.22000000      13.94700000
 O      13.70100000       7.73600000      14.55200000
 H      13.57900000       6.78700000      14.69100000
 H      14.56300000       8.02100000      14.87100000
 O      20.05900000      13.61600000      14.39500000
 H      19.68200000      13.47500000      13.49600000
 H      20.27900000      14.58400000      14.35900000
 O      16.30000000       8.50000000      15.36800000
 H      17.17000000       8.61000000      15.73100000
 H      15.93300000       8.15300000      16.21200000
 C      16.95500000      15.81100000      15.28200000
 C      16.00900000      14.69400000      15.55800000
 C      14.63700000      16.16000000      17.13400000
 H      14.19900000      15.74500000      15.02500000
 H      16.54400000      15.45000000      13.56200000
 O      13.79100000      14.06600000      16.20100000
 O      17.73900000      16.20000000      16.12400000
 O      17.11600000      16.07800000      13.96100000
 C      14.59000000      15.20900000      15.91300000
 O      15.83700000      13.86900000      14.37400000
 H      16.44900000      14.09200000      16.34200000
 O      15.22600000      15.89600000      18.16500000
 O      13.87100000      17.21200000      17.01000000
 H      13.29100000      16.98100000      16.23600000
 H      15.03900000      13.26400000      14.54800000
 H      13.37000000      14.14700000      17.14500000
 O      15.50100000       8.83700000       8.42700000
 H      14.85500000       8.32000000       8.95200000
 H      15.81000000       9.57300000       8.99900000
 O      20.34300000      13.17400000       7.71200000
 H      19.73100000      13.98800000       7.81500000
 H      20.73800000      13.05300000       8.57800000
 O      17.29300000       5.81900000      10.14200000
 H      17.65800000       6.19500000       9.29300000
 H      16.39100000       6.27000000      10.19500000
 O      10.96700000      13.02000000       7.43200000
 H      10.42800000      13.27300000       6.61600000
 H      11.90800000      12.99100000       7.26500000
 O      18.69300000       6.44500000      13.97900000
 H      19.32200000       6.63900000      14.71800000
 H      18.63300000       7.28800000      13.48700000
 O      15.55700000       8.95800000      12.02400000
 H      16.44500000       9.25400000      12.32300000
 H      15.06300000       9.12000000      12.75900000
 O      17.32000000       5.75800000       6.84600000
 H      17.82300000       6.56300000       7.05500000
 H      16.67900000       6.04300000       6.17900000
 O      20.56400000      15.32700000       5.46700000
 H      21.45500000      14.97600000       5.44600000
 H      20.55300000      16.25300000       5.82600000
 O      14.63600000       7.03600000      10.46300000
 H      13.78500000       6.98800000      10.88400000
 H      15.14300000       7.67900000      11.09000000
 O      20.47700000      11.36100000      11.68700000
 H      21.27400000      11.97800000      11.62600000
 H      19.73100000      11.85400000      11.33100000
 O      17.74000000      16.21000000       5.70000000
 H      17.69400000      15.45300000       6.35200000
 H      18.38500000      15.81200000       5.11100000
 O      18.47000000      13.41500000      10.82300000
 H      17.87700000      12.81100000      10.32200000
 H      18.56600000      14.23100000      10.34600000
 O      18.61500000       9.03900000      12.17300000
 H      18.47500000       9.96700000      12.50400000
 H      19.19300000       9.22300000      11.44000000
 O      13.84900000      10.92400000      10.03300000
 H      13.77300000      10.57100000      10.95000000
 H      13.20300000      11.72100000       9.98200000
 O      11.32100000      10.14700000       7.16700000
 H      11.59800000      11.06800000       7.35000000
 H      11.59300000       9.85000000       6.24200000
 O      13.85800000       6.23500000       7.69500000
 H      14.37400000       6.78500000       7.06100000
 H      14.12600000       6.39600000       8.60100000
 O      10.66400000       7.89800000      12.98600000
 H      10.94400000       8.01400000      12.05800000
 H       9.69200000       8.32000000      12.81600000
 O      11.73400000       9.57900000      15.30100000
 H      12.57100000       9.04400000      15.00700000
 H      11.09400000       8.84500000      15.15200000
 O      16.72300000      11.85900000       9.29000000
 H      16.37500000      11.37400000      10.02900000
 H      16.90100000      11.20600000       8.56700000
 O      17.50800000       4.90500000      15.66500000
 H      17.16800000       5.56200000      16.33400000
 H      17.93900000       5.59600000      15.03200000
 O      15.80800000       7.44500000       5.31400000
 H      15.94900000       7.75900000       4.44600000
 H      15.98600000       8.26200000       5.92300000
 O      15.35800000      14.05700000       8.21600000
 H      15.37400000      14.86700000       8.69400000
 H      15.90200000      13.37800000       8.68300000
 O      17.24000000      10.00800000       6.10500000
 H      16.53800000      10.41800000       5.50100000
 H      17.96800000       9.85300000       5.39400000
 O      13.08000000      13.70700000      10.46300000
 H      12.68800000      13.91400000      11.35300000
 H      14.09900000      13.92300000      10.55900000
 O      20.64000000       8.62200000       9.32300000
 H      21.59200000       8.49200000       9.61300000
 H      20.22800000       7.96300000       9.93000000
 O      13.82100000      11.63700000      14.69500000
 H      13.49000000      12.51400000      14.91500000
 H      14.02500000      11.17100000      15.52400000
 O      11.16400000       6.36000000       9.45600000
 H      11.04100000       6.26800000       8.51400000
 H      12.03400000       5.89400000       9.67200000
 O      10.85900000      15.45800000      11.06300000
 H      10.50800000      14.64500000      10.51900000
 H      10.64400000      15.31300000      12.01100000
 O      18.63300000       8.19000000       7.55500000
 H      18.22800000       8.87000000       7.05100000
 H      19.45400000       8.54600000       7.96900000
