126
XYZ file of cluster: frame_12500_4af0d.c7af1.23f58 - created by MolEdiTo
 O      19.81500000      25.77700000       9.42700000
 H      20.55200000      25.52600000       8.90300000
 H      20.09600000      26.73800000       9.68500000
 O      19.19600000      29.95500000       8.75600000
 H      19.13900000      30.49500000       7.93800000
 H      19.98700000      30.23700000       9.19400000
 O      17.36200000      27.96400000       9.27400000
 H      18.04900000      27.29600000       9.20800000
 H      17.87800000      28.80000000       9.12600000
 O      16.63700000      30.19300000      12.38800000
 H      15.98500000      30.06700000      13.08700000
 H      16.60700000      31.20600000      12.22900000
 O      11.83300000      26.83400000      11.97000000
 H      11.97200000      27.71900000      11.71200000
 H      12.65800000      26.49900000      12.41700000
 O      13.44400000      30.28500000       9.54100000
 H      12.82100000      30.88800000      10.04300000
 H      13.46100000      29.50400000      10.17100000
 O      10.49100000      27.42800000      15.51300000
 H      10.94200000      27.57500000      14.70200000
 H       9.59700000      27.11700000      15.28100000
 O      17.00500000      29.58200000       5.32800000
 H      16.39100000      29.99400000       4.68700000
 H      16.41700000      29.15700000       5.99200000
 O      18.66300000      28.93500000      15.59200000
 H      18.40800000      28.36900000      14.86400000
 H      17.97300000      29.63200000      15.72000000
 O      15.26200000      29.37100000      14.82700000
 H      15.65500000      28.51100000      14.87900000
 H      15.47800000      29.79000000      15.68300000
 O      13.92200000      26.90800000      13.90700000
 H      14.54900000      26.13600000      14.03700000
 H      14.44800000      27.68200000      13.64200000
 O      17.16800000      26.91600000      14.29900000
 H      17.59500000      26.41300000      13.56000000
 H      17.58700000      26.61000000      15.07500000
 O      15.49900000      25.82000000      11.51400000
 H      16.37400000      25.67900000      11.92000000
 H      15.42400000      26.77200000      11.21100000
 O      11.63500000      29.81300000      11.87200000
 H      11.91300000      30.42300000      12.60800000
 H      11.32700000      30.41400000      11.12600000
 O      18.47800000      26.50200000      12.00300000
 H      19.11500000      25.89700000      11.46500000
 H      18.80600000      27.41000000      11.96000000
 O      15.39300000      28.90400000       7.44000000
 H      16.21700000      28.82800000       8.01500000
 H      14.72900000      29.11700000       8.11800000
 O      12.14900000      27.62400000       6.83200000
 H      12.50800000      26.80000000       6.43300000
 H      12.56500000      27.51800000       7.67600000
 O      21.36600000      26.95200000      13.40100000
 H      20.57200000      27.57400000      13.31200000
 H      21.24500000      25.98500000      13.16400000
 O      15.21700000      28.29900000      10.85900000
 H      15.72500000      28.79500000      11.54100000
 H      15.81200000      28.29600000      10.05500000
 O      19.29300000      29.08700000      12.87100000
 H      18.42600000      29.49100000      12.66300000
 H      19.86600000      29.89000000      13.07500000
 O      11.35000000      30.13100000       5.95300000
 H      12.24000000      30.33500000       6.31400000
 H      11.20500000      29.19400000       6.24600000
 O       9.94100000      26.71700000       9.75200000
 H      10.33400000      25.88600000       9.60800000
 H      10.48500000      27.21300000      10.41100000
 O      19.98600000      27.34300000       5.25100000
 H      19.68400000      26.38400000       5.44700000
 H      19.35100000      27.99800000       5.65100000
 O      17.19000000      34.26600000       6.24700000
 H      17.36300000      34.35500000       5.33400000
 H      17.28000000      35.17100000       6.58700000
 O      12.99900000      36.32500000      11.50500000
 H      13.82800000      35.78900000      11.78200000
 H      12.50000000      36.14300000      12.30100000
 O      14.62300000      36.21600000      15.57500000
 H      15.57900000      36.27200000      15.66800000
 H      14.40100000      35.90700000      16.45000000
 O      11.74200000      35.26500000       7.25700000
 H      12.35000000      36.09200000       7.15400000
 H      12.38100000      34.50300000       7.32400000
 O      20.33400000      35.26700000       5.76600000
 H      20.64600000      36.17600000       5.39400000
 H      20.44800000      34.77600000       4.94400000
 O      17.41200000      34.49100000      12.78900000
 H      17.12900000      34.97100000      11.90800000
 H      18.29100000      34.83900000      12.91900000
 O      11.32700000      33.53900000      10.72200000
 H      11.01700000      34.35200000      11.26300000
 H      11.01000000      33.77400000       9.85600000
 O      19.35300000      32.16400000       6.29400000
 H      18.51400000      31.85200000       5.92400000
 H      19.25400000      33.09800000       6.44500000
 O      16.72200000      34.29500000       9.75400000
 H      17.10200000      35.25300000       9.68700000
 H      15.78100000      34.40100000       9.70800000
 O       9.87600000      33.18100000      13.61100000
 H      10.79900000      33.53400000      13.56600000
 H      10.00000000      32.19700000      13.60300000
 O      11.73000000      35.15700000      15.75100000
 H      12.66100000      35.48300000      15.67600000
 H      11.17700000      35.95000000      15.52000000
 O      17.50800000      33.35500000      15.35500000
 H      17.40400000      33.59100000      14.39200000
 H      17.64900000      34.30700000      15.64100000
 O      14.36200000      33.57700000       7.40500000
 H      14.57900000      32.74900000       7.89000000
 H      15.29400000      33.81600000       7.13300000
 O      20.24100000      32.86000000      13.94400000
 H      19.26600000      32.98600000      13.88300000
 H      20.55200000      33.76300000      14.23200000
 O      19.68200000      34.92200000      10.22600000
 H      18.86300000      34.38500000      10.28700000
 H      20.25900000      34.46000000       9.61500000
 O      17.50800000      36.11400000      15.66500000
 H      17.16800000      36.77100000      16.33400000
 H      17.93900000      36.80500000      15.03200000
 O      12.58900000      32.38400000      14.01600000
 H      13.32000000      31.76800000      14.07700000
 H      12.36000000      32.53400000      14.98000000
 O      21.03600000      33.96900000       8.06500000
 H      21.94400000      34.35500000       8.08900000
 H      20.66000000      34.44800000       7.29800000
 O      21.12700000      31.81700000      10.95700000
 H      20.61300000      32.63700000      10.98500000
 H      22.06300000      32.15000000      10.70100000
