132
XYZ file of cluster: frame_12500_9a131.22e7c.23a30 - created by MolEdiTo
 O      22.33600000      13.98400000      16.30500000
 H      23.19100000      14.26100000      15.82600000
 H      21.78900000      13.67800000      15.63800000
 O      27.25800000       5.80500000       9.47000000
 H      28.16900000       5.74300000       9.17600000
 H      27.11000000       5.07800000      10.08000000
 O      27.26200000       9.64100000      12.70300000
 H      26.52000000       9.38500000      13.28800000
 H      27.72900000      10.23300000      13.34500000
 O      24.74200000       6.14000000       8.17400000
 H      25.42200000       6.07300000       8.83800000
 H      23.95900000       5.99600000       8.80300000
 O      29.38600000       8.19100000      15.51600000
 H      29.36300000       9.08200000      15.94700000
 H      28.53000000       7.75500000      15.66100000
 O      27.85300000      13.50200000       8.61800000
 H      28.23000000      12.59000000       8.70300000
 H      26.88600000      13.34700000       8.56100000
 O      30.15100000      13.46200000      10.25300000
 H      29.71200000      13.37300000       9.35500000
 H      29.50100000      14.12000000      10.78700000
 O      28.97900000      15.43000000      14.05500000
 H      29.79200000      14.99200000      14.16200000
 H      29.21500000      16.37900000      14.07400000
 O      22.50900000      13.09400000      12.33500000
 H      23.21100000      13.73300000      11.95500000
 H      23.08300000      12.36800000      12.68300000
 O      22.99500000      11.15200000       9.95700000
 H      21.99100000      10.87900000      10.09500000
 H      23.36500000      10.84300000      10.77200000
 O      28.52700000      16.46600000       8.34200000
 H      28.08700000      16.48600000       7.46000000
 H      28.50700000      15.47000000       8.52500000
 O      25.42400000      14.42900000      13.68000000
 H      24.48000000      14.68100000      13.61200000
 H      25.86400000      15.32400000      13.93100000
 O      23.21200000      10.47700000       7.03300000
 H      22.73200000      10.95700000       7.72600000
 H      23.80700000       9.85700000       7.57700000
 O      23.61100000      15.52400000      11.95100000
 H      23.08100000      16.28800000      11.78100000
 H      24.43700000      15.81800000      11.57200000
 O      26.79500000       6.59500000      12.53500000
 H      25.85600000       6.76700000      12.64800000
 H      27.16200000       7.25500000      11.90700000
 O      21.60700000      14.40300000       9.79200000
 H      22.52000000      14.60000000       9.74700000
 H      21.57900000      14.08600000      10.67500000
 O      25.82000000      12.24300000       7.25100000
 H      25.03300000      12.79500000       7.38300000
 H      25.58200000      11.75900000       6.40900000
 O      26.81400000      12.40600000      11.49100000
 H      26.51400000      11.64500000      11.97000000
 H      27.52600000      12.85800000      11.92900000
 O      23.83700000      14.34100000       6.54900000
 H      24.03300000      15.16300000       5.99500000
 H      23.28900000      14.55800000       7.35600000
 O      28.10500000      15.30700000      11.33500000
 H      27.29200000      15.66500000      10.98200000
 H      28.14000000      15.25200000      12.34900000
 O      25.79100000       9.23100000       7.76900000
 H      25.89600000       9.65700000       8.62500000
 H      26.45800000       8.48600000       7.89300000
 O      29.08000000       5.23600000      11.69200000
 H      29.50600000       5.79300000      10.99000000
 H      28.44400000       5.78800000      12.14300000
 O      20.56400000      15.32700000       5.46700000
 H      21.45500000      14.97600000       5.44600000
 H      20.55300000      16.25300000       5.82600000
 O      21.46100000       8.17700000      12.51700000
 H      20.87900000       7.45600000      12.18900000
 H      20.91900000       8.94700000      12.72400000
 O      20.47700000      11.36100000      11.68700000
 H      21.27400000      11.97800000      11.62600000
 H      19.73100000      11.85400000      11.33100000
 O      28.19800000       7.70300000       7.29600000
 H      28.74700000       8.44500000       6.80900000
 H      27.56300000       7.48600000       6.60900000
 O      22.85100000      11.04800000      15.24400000
 H      21.83300000      11.03400000      15.32000000
 H      23.18700000      11.75300000      15.69200000
 O      29.64400000       5.34300000       7.47900000
 H      28.95700000       6.10200000       7.32700000
 H      29.22400000       4.46200000       7.35100000
 O      21.25200000      11.76600000       5.00500000
 H      21.59200000      11.66000000       5.97300000
 H      20.87300000      10.90200000       4.92100000
 O      24.38800000      11.12100000      12.95000000
 H      23.55600000      10.88500000      13.46500000
 H      24.77100000      11.80600000      13.53000000
 O      29.01900000      14.31200000       5.55100000
 H      29.10600000      13.96100000       4.68300000
 H      28.15500000      14.30800000       5.98000000
 O      28.93500000      10.83600000       9.13000000
 H      29.06000000      11.15800000       9.99700000
 H      29.38300000      10.01100000       9.08400000
 O      28.48000000      10.21500000       6.26700000
 H      28.90400000      10.85100000       6.96900000
 H      27.64400000      10.69100000       6.03700000
 O      25.58000000       9.45600000       4.95600000
 H      24.89300000      10.07100000       4.64500000
 H      25.42500000       9.28200000       5.92600000
 O      29.46800000       8.39100000      11.21500000
 H      28.75200000       8.98800000      11.52600000
 H      30.03100000       8.21900000      12.02200000
 O      23.48500000       7.83000000      10.30600000
 H      23.48500000       7.86400000      11.30200000
 H      24.25600000       8.46200000      10.18200000
 O      23.95400000       6.95000000      12.98100000
 H      24.37900000       6.83100000      13.84900000
 H      22.96500000       7.01000000      13.10300000
 O      27.83600000      11.91100000      14.38600000
 H      28.33800000      12.46800000      14.99100000
 H      26.95200000      11.84300000      14.88700000
 O      26.38600000       8.66700000      15.29600000
 H      26.28600000       7.68100000      15.12300000
 H      26.03900000       9.00200000      16.21300000
 O      25.68900000      10.12900000      10.22500000
 H      25.81200000      11.08200000       9.95300000
 H      26.14200000      10.15700000      11.08900000
 O      22.66400000       7.40700000       6.54500000
 H      22.39000000       7.73800000       7.35700000
 H      23.18800000       6.69700000       6.82500000
 O      20.64000000       8.62200000       9.32300000
 H      21.59200000       8.49200000       9.61300000
 H      20.22800000       7.96300000       9.93000000
 O      24.49800000      13.37800000       9.52800000
 H      25.24900000      13.34800000      10.24500000
 H      24.10300000      12.51500000       9.57200000
 O      25.64900000       5.77800000      15.15700000
 H      25.17000000       5.90700000      15.99900000
 H      25.06000000       5.17400000      14.61800000
