135
XYZ file of cluster: frame_12500_4f7a4.6f095.9cdef - created by MolEdiTo
 O      15.67100000      20.27500000      24.42900000
 H      16.26600000      19.65300000      24.84500000
 H      15.37500000      19.71200000      23.66400000
 O      17.10000000      24.63900000      23.42100000
 H      16.58300000      23.95200000      22.90500000
 H      16.82000000      24.36100000      24.38700000
 O      14.97200000      23.07100000      28.24400000
 H      15.46800000      22.24400000      28.49200000
 H      15.00000000      23.72900000      28.99200000
 O      17.03900000      21.66900000      29.56100000
 H      18.01600000      21.52300000      29.79900000
 H      16.47300000      21.79400000      30.39300000
 O      14.68700000      16.80000000      27.40700000
 H      14.04500000      17.38600000      26.88400000
 H      15.34200000      16.77400000      26.67400000
 O      19.47900000      25.98200000      29.14300000
 H      18.58300000      25.75800000      29.48400000
 H      19.85600000      26.68900000      29.64400000
 O      19.66300000      20.94900000      29.74500000
 H      20.17500000      20.24100000      30.20400000
 H      20.39700000      21.60600000      29.48800000
 O      20.57600000      23.01900000      23.63500000
 H      19.76200000      23.38300000      24.10000000
 H      21.20600000      23.72900000      23.70200000
 O      13.86600000      22.90600000      21.41500000
 H      13.49600000      23.04900000      20.50800000
 H      13.29600000      22.21900000      21.84900000
 O      16.89300000      25.86600000      27.29300000
 H      16.20600000      25.33400000      26.85600000
 H      16.25300000      26.17700000      27.99500000
 O      18.14000000      18.65500000      24.95300000
 H      18.47800000      17.91100000      25.48500000
 H      18.79400000      18.89500000      24.30300000
 O      10.78400000      22.66700000      27.10000000
 H      10.22000000      22.44100000      26.36200000
 H      11.31200000      21.85500000      27.34900000
 O      18.94000000      24.29900000      25.78200000
 H      18.32000000      23.65200000      26.22200000
 H      18.41800000      25.06600000      25.99500000
 O      13.21500000      24.99000000      27.09500000
 H      12.41500000      24.37300000      26.92800000
 H      13.82600000      24.48800000      27.62900000
 O      16.14600000      16.26700000      25.22000000
 H      15.98800000      16.19700000      24.21200000
 H      17.05800000      15.88400000      25.40100000
 O      11.43100000      17.27000000      22.54500000
 H      11.26500000      16.38700000      22.17000000
 H      12.37700000      17.32400000      22.48800000
 O      20.73900000      23.33300000      27.80200000
 H      20.73200000      23.95500000      28.52400000
 H      20.04300000      23.77300000      27.23800000
 O      18.63200000      22.73100000      20.92500000
 H      19.58400000      22.55700000      21.05100000
 H      18.27200000      22.83500000      21.86800000
 O      18.57900000      15.38700000      25.27800000
 H      18.65000000      14.64300000      25.95900000
 H      19.41800000      15.76900000      25.06800000
 O      17.64100000      19.63800000      21.81700000
 H      18.14400000      19.83000000      22.68800000
 H      17.50600000      20.41500000      21.23200000
 O      13.33900000      17.43900000      24.81300000
 H      12.36600000      17.69300000      24.50200000
 H      13.88300000      17.11800000      24.09700000
 O      14.97000000      18.08800000      29.94000000
 H      14.33400000      18.81300000      29.86500000
 H      14.86000000      17.75900000      29.01900000
 O      16.79200000      14.84700000      28.82300000
 H      17.30600000      15.71800000      28.73300000
 H      15.87900000      15.15300000      28.75800000
 O      18.22000000      21.21900000      26.72600000
 H      18.76000000      21.51300000      27.50500000
 H      18.52200000      20.31200000      26.39700000
 O      13.45400000      24.60800000      23.51900000
 H      13.66200000      24.16100000      22.63600000
 H      13.96200000      24.03700000      24.18500000
 O      16.29600000      22.19800000      22.23500000
 H      15.49000000      22.50600000      21.80600000
 H      15.92900000      21.54800000      22.83100000
 O      11.15800000      18.90200000      27.16300000
 H      10.68800000      18.09400000      27.49000000
 H      10.47300000      19.53500000      26.95100000
 O      13.83100000      15.04800000      29.55900000
 H      13.63200000      15.71400000      28.95700000
 H      13.64400000      14.19400000      29.00000000
 O      15.62300000      16.68500000      22.27500000
 H      15.47900000      15.89800000      21.72600000
 H      16.52400000      16.89600000      21.99000000
 O      13.88600000      18.57800000      21.93400000
 H      14.07200000      18.68000000      20.96300000
 H      14.57800000      17.97000000      22.14000000
 O      18.24000000      18.20100000      29.61400000
 H      17.40100000      18.65100000      29.51900000
 H      17.98200000      17.73400000      30.41400000
 O      15.25200000      24.95100000      29.95200000
 H      16.19100000      25.05000000      30.20800000
 H      14.80200000      25.65600000      30.51200000
 O      10.17800000      19.66600000      22.28100000
 H      10.85600000      18.90400000      22.51900000
 H      10.66700000      20.29200000      21.67100000
 O      17.28600000      25.56600000      20.67600000
 H      17.80900000      24.76300000      20.44700000
 H      17.83800000      26.13600000      21.25500000
 O      15.64000000      23.04100000      25.36000000
 H      15.19700000      23.22200000      26.23800000
 H      15.49000000      22.05100000      25.32500000
 O      20.27900000      17.05000000      23.67600000
 H      20.37400000      17.96800000      23.51300000
 H      20.81400000      16.84100000      24.44500000
 O      11.51900000      26.27100000      29.85300000
 H      10.83700000      25.94400000      29.28500000
 H      11.77500000      27.07500000      29.34400000
 O      15.28800000      20.18600000      27.69400000
 H      16.12800000      20.37300000      28.19500000
 H      15.46800000      20.09100000      26.73800000
 O      11.49500000      23.37000000      30.34400000
 H      10.81800000      23.31400000      29.63600000
 H      11.39900000      24.31500000      30.56300000
 O      20.29500000      19.84300000      23.01000000
 H      20.21300000      20.49400000      22.24800000
 H      20.61400000      20.49200000      23.67600000
 O      19.58000000      17.21200000      27.39900000
 H      19.31700000      17.70600000      28.19300000
 H      19.66300000      16.30200000      27.75700000
 O      18.35900000      17.01900000      21.68200000
 H      17.96900000      17.95000000      21.61100000
 H      19.10100000      17.11000000      22.31000000
 O      10.30400000      23.60600000      23.94000000
 H      11.22400000      23.32400000      23.72400000
 H      10.19400000      24.45000000      23.35500000
 O      12.73200000      20.92800000      28.13900000
 H      13.72700000      20.92300000      27.92600000
 H      12.45600000      19.93500000      28.06700000
 O      12.69000000      20.90900000      22.69500000
 H      12.92200000      20.02900000      22.50800000
 H      11.96900000      20.83200000      23.37000000
