729
XYZ file of cluster: frame_9000_9cba9.9b374.20b7 - created by MolEdiTo
 O      31.30300000      33.96700000      23.50200000
 H      30.67000000      34.61200000      23.16300000
 H      32.03400000      34.54200000      23.82400000
 O      32.66300000      39.11900000      16.65100000
 H      31.94800000      39.58500000      16.16000000
 H      32.74300000      39.60800000      17.44900000
 O      27.81100000      33.30700000      33.89900000
 H      27.90100000      33.02400000      34.83700000
 H      27.06100000      33.90200000      33.90000000
 O      36.69400000      34.06300000      38.70800000
 H      36.40700000      34.91800000      38.34400000
 H      35.91800000      33.58700000      38.69600000
 O      38.74600000      37.07300000      37.24200000
 H      38.35500000      37.37700000      36.36300000
 H      37.85900000      36.88800000      37.72000000
 O      31.86600000      37.97100000      19.95900000
 H      31.28400000      37.91400000      20.76200000
 H      31.19000000      37.95600000      19.27000000
 O      28.29500000      29.10500000      14.30800000
 H      28.78700000      28.27400000      14.32100000
 H      28.33600000      29.35100000      13.34300000
 O      29.58400000      29.30000000      28.87500000
 H      30.51700000      29.04100000      28.96900000
 H      29.38600000      28.97600000      28.00900000
 O      34.76500000      30.75800000      33.67800000
 H      34.23200000      30.08200000      34.21300000
 H      35.48900000      30.90600000      34.29100000
 O      35.01300000      28.99200000      20.58800000
 H      35.12500000      29.58300000      21.34000000
 H      34.31700000      29.42100000      20.14200000
 O      40.34300000      39.17100000       9.72300000
 H      39.43000000      39.63000000       9.80600000
 H      40.48000000      39.24000000       8.75800000
 O      36.10100000      36.69100000      38.21000000
 H      35.74000000      37.19200000      38.93100000
 H      35.39100000      36.63400000      37.55500000
 O      31.04100000      38.38500000       9.65700000
 H      31.14700000      37.45000000       9.84400000
 H      31.89400000      38.75200000       9.81900000
 O      38.85000000      32.05600000      26.96700000
 H      39.06300000      32.18900000      26.04300000
 H      37.87700000      32.03100000      26.96500000
 O      34.08300000      31.05100000      39.97800000
 H      33.75200000      30.14800000      39.73800000
 H      33.36500000      31.50600000      40.33600000
 O      28.19600000      35.63600000       7.72300000
 H      28.85600000      35.03800000       7.33100000
 H      27.62500000      35.85500000       6.93600000
 O      28.69500000      39.99300000      23.15400000
 H      28.66500000      40.61400000      22.39800000
 H      27.81600000      39.53600000      23.07300000
 O      30.70400000      28.65300000       8.35500000
 H      30.22100000      27.81100000       8.41300000
 H      31.57100000      28.37600000       8.78800000
 O      38.87900000      27.45300000      26.77400000
 H      39.62400000      27.50500000      26.14200000
 H      38.75500000      28.38700000      26.98000000
 O      40.15400000      38.19500000      19.96800000
 H      39.79500000      39.11000000      19.86100000
 H      39.70300000      37.79100000      19.15400000
 O      39.19900000      34.04900000      28.84600000
 H      39.10600000      33.22600000      28.31900000
 H      40.10100000      33.92600000      29.24800000
 O      31.10200000      36.92600000      25.07100000
 H      31.96300000      36.55600000      24.79600000
 H      30.92500000      36.42500000      25.88300000
 O      37.77400000      35.04500000      20.96600000
 H      37.33200000      35.79500000      20.65400000
 H      37.49900000      34.97500000      21.88900000
 O      39.18700000      29.97800000      10.02700000
 H      39.30900000      29.22800000      10.62800000
 H      38.31600000      29.74700000       9.69400000
 O      27.05100000      27.95400000      36.97300000
 H      27.87400000      28.50100000      36.95700000
 H      26.66900000      28.38200000      36.13500000
 O      33.79200000      32.86800000       7.09700000
 H      33.15300000      33.67100000       6.78700000
 H      33.85200000      33.12200000       8.03200000
 O      39.54500000      30.60200000      17.12000000
 H      40.40100000      30.31700000      16.84500000
 H      39.54600000      31.58300000      16.89100000
 O      33.22700000      39.29800000      25.73700000
 H      33.59400000      39.81300000      26.51200000
 H      32.25000000      39.19500000      26.01800000
 O      38.33100000      34.22700000      13.42600000
 H      38.86000000      34.42500000      12.66100000
 H      37.56300000      34.83500000      13.26800000
 O      30.57900000      28.55900000      23.05800000
 H      30.48100000      28.40100000      22.08000000
 H      30.23300000      29.46300000      23.14900000
 O      35.06600000      38.99300000      28.61900000
 H      34.53400000      39.78100000      28.38000000
 H      35.96300000      39.41200000      28.47600000
 O      39.19100000      31.80000000      32.89100000
 H      40.18000000      31.98100000      32.78100000
 H      39.02100000      32.41800000      33.65100000
 O      31.01900000      39.19800000      27.76800000
 H      31.19600000      39.62900000      28.60700000
 H      30.52200000      38.38300000      27.98300000
 O      40.57500000      40.40500000      31.21100000
 H      40.58600000      41.41000000      31.19700000
 H      41.12600000      40.27500000      30.42700000
 O      31.90900000      39.31700000      37.36700000
 H      31.56800000      39.76400000      38.13300000
 H      31.85400000      40.07000000      36.73300000
 O      34.43100000      34.04200000      12.74500000
 H      34.74800000      33.16900000      13.19000000
 H      33.70000000      34.23600000      13.38400000
 O      39.27100000      31.77300000       8.08600000
 H      38.82500000      32.48900000       8.49700000
 H      39.48600000      31.22700000       8.90000000
 O      27.32200000      37.06700000      26.39800000
 H      27.95000000      37.04500000      27.21500000
 H      27.45200000      36.19100000      26.09400000
 O      27.57600000      38.68000000       2.89200000
 H      27.53400000      38.62600000       3.88500000
 H      27.79900000      39.62200000       2.78300000
 O      32.70400000      35.37200000      31.52000000
 H      32.01500000      34.95300000      32.06800000
 H      33.47400000      34.84400000      31.85100000
 O      32.86600000      31.80600000      28.69700000
 H      33.68300000      32.31600000      28.78900000
 H      32.88600000      31.25200000      29.45700000
 O      33.12100000      29.48800000       4.32700000
 H      33.32000000      28.81800000       3.67100000
 H      32.90200000      28.92300000       5.11900000
 O      34.88900000      30.24800000      23.00700000
 H      34.65400000      30.76700000      23.88600000
 H      35.73900000      29.79200000      23.37800000
 O      28.14900000      28.71900000      18.84800000
 H      27.22100000      28.82900000      18.62700000
 H      28.22500000      27.75400000      18.77500000
 O      33.04900000      29.22800000      18.30900000
 H      32.90300000      28.33500000      18.02500000
 H      32.38700000      29.71800000      17.83700000
 O      28.32600000      35.42300000       3.59800000
 H      29.06100000      36.08400000       3.55800000
 H      28.81300000      34.60800000       3.63400000
 O      29.10300000      31.50500000      15.48800000
 H      28.88500000      32.02000000      14.64700000
 H      28.84900000      30.60500000      15.13200000
 O      39.37000000      30.02300000       5.93400000
 H      39.44000000      30.79800000       6.57200000
 H      38.55100000      29.66700000       6.21200000
 O      38.83900000      37.80600000      11.99000000
 H      39.28800000      37.74100000      11.09000000
 H      39.21000000      37.12600000      12.49000000
 O      36.76900000      28.55400000       6.02200000
 H      36.24400000      27.99900000       6.63000000
 H      36.31800000      29.37700000       5.95100000
 O      29.87700000      39.64000000       5.51300000
 H      29.71400000      40.21900000       6.28100000
 H      30.74300000      40.04800000       5.24400000
 O      28.23900000      38.56800000       8.62200000
 H      28.67300000      37.74200000       8.39700000
 H      28.97000000      39.00600000       9.11600000
 O      39.12300000      38.89700000      39.35800000
 H      38.52600000      38.31200000      39.91900000
 H      39.17800000      38.44200000      38.53300000
 O      38.22000000      28.53100000       2.06700000
 H      38.64100000      27.80300000       1.62600000
 H      37.51200000      28.80800000       1.46600000
 O      31.34500000      37.76400000      33.68700000
 H      31.14700000      37.99600000      32.76900000
 H      32.11500000      37.17600000      33.56200000
 O      40.68100000      32.08800000      22.01800000
 H      40.90900000      33.05200000      22.01300000
 H      40.27200000      32.03000000      21.11000000
 O      36.66500000      31.18500000      40.50800000
 H      37.19700000      30.95600000      39.75800000
 H      35.77400000      30.97900000      40.21600000
 O      40.61500000      29.60400000      25.35800000
 H      41.11500000      29.51900000      24.51300000
 H      39.84100000      30.17900000      24.99200000
 O      39.24400000      30.06100000      29.02400000
 H      40.04000000      29.59500000      28.90400000
 H      39.30100000      30.81400000      28.43800000
 O      33.56600000      39.87400000      18.98300000
 H      32.83400000      39.36000000      19.33300000
 H      33.84100000      40.37500000      19.76000000
 O      37.26700000      35.51200000       2.26000000
 H      37.03500000      34.58700000       2.45600000
 H      37.71400000      35.40800000       1.39000000
 O      38.77500000      39.11400000       6.63600000
 H      38.61700000      38.19200000       6.70700000
 H      38.38600000      39.40700000       5.81300000
 O      34.83400000      27.27500000      12.28600000
 H      35.52200000      27.88200000      12.62100000
 H      34.41700000      27.17400000      13.17300000
 O      30.13700000      34.11300000      32.73400000
 H      29.26200000      33.89100000      33.16700000
 H      30.69500000      33.49900000      33.16700000
 O      29.14200000      29.68300000      36.33400000
 H      29.60900000      30.00600000      37.12300000
 H      29.19300000      30.47800000      35.71700000
 O      31.66000000      38.86700000       0.77500000
 H      31.34600000      39.76800000       0.42600000
 H      30.79600000      38.41900000       0.86500000
 O      40.60600000      27.96200000      13.57100000
 H      40.50800000      28.24200000      14.50100000
 H      41.45500000      27.48800000      13.61600000
 O      29.22300000      35.16600000      14.06800000
 H      28.49300000      35.13600000      13.43900000
 H      29.68700000      34.32200000      13.87400000
 O      38.77500000      37.12900000      17.72700000
 H      37.78700000      37.15600000      17.55000000
 H      38.84500000      36.19200000      18.01200000
 O      37.40700000      39.29800000      25.67400000
 H      37.95400000      39.77200000      25.05700000
 H      37.69700000      39.61600000      26.50900000
 O      39.67900000      35.51400000      34.62700000
 H      38.99300000      36.21200000      34.75900000
 H      39.13900000      34.75700000      35.01300000
 O      30.77100000      30.63600000       4.51300000
 H      30.83800000      30.66700000       5.54700000
 H      31.75600000      30.50500000       4.40600000
 O      36.30100000      30.25500000      16.37900000
 H      36.85200000      31.05500000      16.44900000
 H      36.42900000      29.84300000      17.20000000
 O      30.99700000      31.47200000      23.32100000
 H      30.47600000      31.51500000      24.16900000
 H      31.19200000      32.51400000      23.32400000
 O      29.39700000      37.74200000      18.54000000
 H      28.97900000      37.22700000      17.76200000
 H      29.03500000      37.18400000      19.26400000
 O      37.80000000      27.66700000       8.83900000
 H      38.31000000      27.57900000       9.64000000
 H      38.51600000      27.91100000       8.19300000
 O      36.01500000      28.83000000      37.40900000
 H      36.67900000      29.31400000      37.89500000
 H      35.80900000      28.11800000      38.05100000
 O      40.31200000      32.37500000       1.73200000
 H      39.81600000      31.95800000       2.42600000
 H      39.64900000      33.02100000       1.36800000
 O      33.55300000      31.86900000      18.92400000
 H      33.34500000      31.58200000      19.85200000
 H      33.04300000      31.15200000      18.42800000
 O      34.57100000      33.49200000      32.18600000
 H      34.93400000      32.67300000      32.59500000
 H      34.40800000      33.25200000      31.30700000
 O      38.16200000      28.37000000      16.04000000
 H      38.71900000      28.77200000      16.76700000
 H      37.57000000      29.13600000      15.87600000
 O      31.99000000      33.48500000      39.50400000
 H      32.04100000      33.00700000      40.32500000
 H      31.60800000      34.33500000      39.81900000
 O      29.69100000      33.47100000       6.60100000
 H      30.09300000      32.63100000       6.80400000
 H      30.45400000      34.03500000       6.36300000
 O      31.80800000      35.91900000      29.14000000
 H      32.78600000      35.84600000      28.85400000
 H      31.94800000      35.74000000      30.13900000
 O      27.93600000      32.52600000      36.48600000
 H      28.27200000      33.34400000      36.90200000
 H      27.36000000      32.14600000      37.13300000
 O      33.25500000      34.77700000      15.16600000
 H      32.90000000      33.90900000      15.25700000
 H      33.05600000      35.16200000      16.06300000
 O      34.79600000      27.46100000      27.70900000
 H      35.44100000      28.16400000      27.40800000
 H      34.61600000      27.08100000      26.85200000
 O      33.27800000      33.89600000       3.53700000
 H      34.16500000      33.91400000       3.97900000
 H      33.44900000      34.55400000       2.84200000
 O      40.89200000      34.44700000      39.16300000
 H      41.06300000      34.68200000      38.21500000
 H      41.38000000      33.58700000      39.22000000
 O      34.03200000      30.07100000      30.43500000
 H      34.96700000      30.00900000      30.24200000
 H      34.01800000      29.96300000      31.41000000
 O      33.45700000      37.26300000      39.49000000
 H      32.77400000      37.89200000      39.90300000
 H      33.34900000      37.51900000      38.54900000
 O      38.39800000      33.81600000       6.18300000
 H      38.58000000      33.01300000       6.65500000
 H      37.45100000      33.69500000       5.99000000
 O      36.41700000      35.78900000       9.15000000
 H      36.72500000      36.72400000       9.29600000
 H      35.91400000      35.95100000       8.32000000
 O      40.31900000      36.69600000       0.90000000
 H      39.34700000      36.76500000       1.07800000
 H      40.35600000      35.88200000       0.34900000
 O      36.76600000      38.27900000      10.28800000
 H      37.48700000      38.01100000      11.01600000
 H      37.15700000      39.11500000       9.99400000
 O      27.47100000      38.65100000      30.96400000
 H      27.72900000      39.35200000      30.29400000
 H      28.18500000      38.84000000      31.63100000
 O      32.42400000      32.08700000      15.58900000
 H      31.58300000      31.74100000      15.29000000
 H      33.03000000      31.34400000      15.35300000
 O      31.67200000      40.13900000      30.17500000
 H      32.26700000      40.92600000      30.24900000
 H      31.18300000      40.17000000      30.99000000
 O      38.54400000      30.78500000       3.39300000
 H      38.33400000      29.94000000       3.01100000
 H      39.01300000      30.58000000       4.20600000
 O      39.87700000      35.32800000      10.73000000
 H      40.65900000      35.26700000      10.11600000
 H      40.27600000      35.78100000      11.47600000
 O      34.10000000      34.32600000      25.89200000
 H      34.01100000      35.02700000      25.27400000
 H      34.23400000      34.78800000      26.74400000
 O      28.81200000      35.87900000      23.05800000
 H      29.25000000      36.74200000      23.38800000
 H      28.55700000      36.21800000      22.20700000
 O      30.11800000      40.45600000      25.27000000
 H      29.70300000      39.87900000      25.89000000
 H      29.38600000      40.45900000      24.56800000
 O      36.17700000      36.72400000      17.27400000
 H      36.15500000      36.61300000      16.30200000
 H      35.61400000      36.01200000      17.60800000
 O      36.27700000      31.99600000      26.51500000
 H      35.73400000      32.02100000      25.68600000
 H      35.74300000      32.49200000      27.15600000
 O      39.46900000      36.81400000       3.83900000
 H      39.92900000      36.23200000       4.40000000
 H      38.53600000      36.53400000       3.92600000
 O      38.37600000      30.83200000      13.54800000
 H      38.65200000      31.40500000      12.76800000
 H      38.94100000      31.18300000      14.23600000
 O      38.52900000      36.38400000       7.11600000
 H      37.55100000      36.43100000       7.11000000
 H      38.67100000      35.45200000       6.91700000
 O      34.57300000      28.15700000      35.09200000
 H      35.11900000      28.21100000      35.89700000
 H      33.78700000      27.73800000      35.57100000
 O      34.45400000      40.60900000      33.02200000
 H      33.67600000      40.55500000      33.52100000
 H      34.34400000      39.91800000      32.31800000
 O      31.69200000      34.14400000      35.47700000
 H      31.76200000      35.10000000      35.28500000
 H      31.30200000      34.17900000      36.34500000
 O      38.78700000      29.31900000      22.03600000
 H      39.65400000      29.57700000      21.75300000
 H      38.29300000      29.21700000      21.22700000
 O      34.96700000      38.14700000      24.11500000
 H      35.67900000      38.35300000      24.73700000
 H      34.24800000      38.53000000      24.72500000
 O      40.79000000      37.23300000      15.67400000
 H      41.05900000      38.09100000      15.29800000
 H      40.06000000      37.48500000      16.32000000
 O      33.94100000      36.72800000      33.57500000
 H      34.93100000      36.68800000      33.68600000
 H      33.96100000      36.99100000      32.63900000
 O      27.42100000      31.35900000       1.69800000
 H      28.05800000      31.73300000       2.34200000
 H      27.92900000      30.85200000       1.04500000
 O      33.69400000      36.38400000      21.10300000
 H      33.17000000      35.64000000      20.64800000
 H      33.20200000      37.15000000      20.80700000
 O      39.48600000      31.09200000      36.75100000
 H      40.14100000      30.36800000      36.75500000
 H      39.72500000      31.57100000      37.60800000
 O      27.57300000      29.55200000       8.40200000
 H      27.65800000      29.35600000       7.45400000
 H      28.55600000      29.42000000       8.58900000
 O      35.62000000      36.97400000      14.62100000
 H      36.01200000      36.80500000      13.71900000
 H      34.87400000      36.30500000      14.57900000
 O      33.43000000      35.93900000      23.71500000
 H      33.94700000      36.82100000      23.82200000
 H      33.54800000      35.88600000      22.71900000
 O      34.05000000      37.20400000      36.44600000
 H      33.45300000      36.58900000      36.00900000
 H      34.21700000      37.88700000      35.73600000
 O      34.33700000      40.47700000      21.51600000
 H      34.57400000      39.75500000      22.20500000
 H      33.66300000      40.93000000      21.98300000
 O      28.07400000      35.38600000      30.59100000
 H      28.12500000      36.01200000      31.34200000
 H      28.65300000      34.66300000      30.94000000
 O      40.32300000      40.44000000      25.86300000
 H      40.73900000      39.60900000      25.46400000
 H      40.00600000      40.82500000      25.01800000
 O      38.06000000      36.57400000      26.08300000
 H      37.78900000      37.50800000      25.87800000
 H      39.00400000      36.63200000      26.23900000
 O      30.72900000      37.39000000       3.75500000
 H      30.63300000      38.13600000       4.42500000
 H      31.63300000      37.59700000       3.41700000
 O      29.11800000      31.64700000      30.25100000
 H      29.35900000      32.31300000      29.61100000
 H      29.17700000      30.81300000      29.69400000
 O      36.09500000      31.51100000       9.79600000
 H      36.99800000      31.81600000       9.96700000
 H      35.56100000      32.22800000      10.08900000
 O      28.83700000      37.85200000      40.67000000
 H      28.45300000      38.22500000      41.53800000
 H      27.97000000      37.74900000      40.17200000
 O      27.93600000      36.09500000      10.30900000
 H      27.98500000      36.02700000       9.31600000
 H      28.87700000      36.12200000      10.53800000
 O      32.32700000      30.10200000      26.59200000
 H      32.71400000      30.60200000      27.36300000
 H      31.59700000      30.71400000      26.38000000
 O      39.81700000      37.82300000      28.67000000
 H      40.33700000      38.67200000      28.55900000
 H      40.49900000      37.20200000      28.88600000
 O      30.52100000      28.88000000      20.44700000
 H      29.74700000      28.61800000      19.92100000
 H      31.05600000      29.38400000      19.80400000
 O      38.17400000      29.62900000      38.72200000
 H      38.41300000      28.65800000      38.69800000
 H      38.75300000      30.06000000      38.09000000
 O      36.05500000      38.69600000      18.99800000
 H      36.02300000      38.06000000      18.22800000
 H      35.13600000      39.04500000      18.92100000
 O      29.79800000      39.93100000      32.33600000
 H      30.33100000      40.25600000      33.09900000
 H      28.96200000      40.43200000      32.43900000
 O      34.64500000      34.13600000      17.92400000
 H      33.84600000      34.65300000      18.20300000
 H      34.32300000      33.23300000      18.10900000
 O      32.48900000      28.41900000      29.09700000
 H      33.09100000      27.91600000      28.55300000
 H      33.12700000      29.13000000      29.43000000
 O      39.01600000      34.63300000      18.46300000
 H      39.86500000      34.11900000      18.65700000
 H      38.74400000      34.68700000      19.44000000
 O      34.28400000      32.85100000      37.87200000
 H      33.61700000      33.39700000      38.34500000
 H      34.34200000      32.11300000      38.56000000
 O      35.06600000      39.32300000      15.48300000
 H      35.04900000      38.45800000      15.01000000
 H      34.25600000      39.16700000      16.00100000
 O      38.50300000      38.42500000      22.61700000
 H      38.97500000      38.20000000      21.79700000
 H      37.61700000      38.04200000      22.40100000
 O      34.05400000      38.54900000       9.51000000
 H      34.44500000      39.19500000       8.87200000
 H      34.79400000      38.49700000      10.15600000
 O      31.54200000      31.60200000      11.18900000
 H      32.40400000      31.12700000      11.38900000
 H      31.72300000      31.73700000      10.24600000
 O      37.34200000      32.19900000      30.79000000
 H      37.95000000      32.00200000      31.52000000
 H      37.05100000      31.28000000      30.52100000
 O      31.01500000      35.68300000      40.64900000
 H      30.33200000      36.39900000      40.58200000
 H      31.54200000      35.96900000      41.40900000
 O      38.91500000      31.27000000      19.79800000
 H      39.14000000      30.94900000      18.89500000
 H      37.97200000      31.41200000      19.74300000
 O      28.19100000      33.36400000      17.28300000
 H      28.50300000      32.81000000      16.50700000
 H      27.37200000      33.67700000      16.87800000
 O      29.51000000      33.86100000      28.48200000
 H      30.30300000      34.40800000      28.27100000
 H      28.92900000      34.56200000      28.87000000
 O      30.82300000      30.94900000      38.52400000
 H      31.68500000      30.86000000      38.03200000
 H      30.89600000      31.86400000      38.91500000
 O      33.09400000      29.74800000      37.39400000
 H      32.77100000      28.82300000      37.39000000
 H      33.00100000      29.95400000      36.43000000
 O      38.14700000      33.57100000       9.57900000
 H      37.71100000      34.43000000       9.29100000
 H      38.84300000      33.89700000      10.22200000
 O      30.11800000      40.22600000      15.27100000
 H      29.32300000      39.71500000      15.02900000
 H      29.70800000      40.80900000      15.94400000
 O      36.35700000      32.08700000      19.71700000
 H      36.59300000      32.69100000      20.42700000
 H      35.75500000      32.51200000      19.16700000
 O      35.21000000      33.25100000      29.00500000
 H      35.92900000      32.82900000      29.51400000
 H      35.51700000      34.09900000      28.71000000
 O      33.65700000      30.35900000       9.98700000
 H      34.55100000      30.83000000       9.72300000
 H      34.01900000      29.47300000       9.99800000
 O      31.86300000      31.11000000      35.07500000
 H      32.03800000      32.03700000      35.30300000
 H      31.56300000      31.20500000      34.13300000
 O      32.23800000      34.93300000       6.25600000
 H      32.26400000      35.94200000       6.27500000
 H      32.65800000      34.80700000       5.34300000
 O      37.87100000      37.84600000      30.68000000
 H      37.68800000      36.92500000      30.40400000
 H      38.75300000      37.98200000      30.28800000
 O      37.18800000      28.89200000      18.66300000
 H      36.49900000      28.70400000      19.33800000
 H      37.13200000      28.13700000      18.10000000
 O      29.31400000      32.67300000      13.05700000
 H      29.99000000      32.12200000      12.63300000
 H      28.63600000      32.73300000      12.36900000
 O      36.78800000      28.43300000      13.61300000
 H      37.34400000      29.24900000      13.59700000
 H      37.28200000      27.92400000      14.28200000
 O      34.07400000      29.85000000      15.15700000
 H      34.13600000      28.85400000      15.09700000
 H      34.84700000      30.02300000      15.74900000
 O      37.59600000      34.66200000      23.57900000
 H      37.27200000      33.82300000      23.99300000
 H      37.55800000      35.28200000      24.26500000
 O      29.17000000      29.76300000      40.51000000
 H      29.73900000      30.16400000      39.86300000
 H      28.83200000      28.96300000      40.09600000
 O      36.18600000      35.60200000      33.18500000
 H      35.56800000      34.91000000      32.96300000
 H      36.84200000      35.48800000      32.42800000
 O      29.22800000      31.35400000      20.94600000
 H      29.60700000      31.55500000      21.84900000
 H      30.00700000      30.81400000      20.60400000
 O      27.37000000      28.21600000      30.56900000
 H      27.60900000      27.68600000      29.75400000
 H      28.23300000      28.72800000      30.61700000
 O      31.19900000      35.71800000      10.46000000
 H      31.77800000      35.42000000       9.83000000
 H      31.72300000      36.00400000      11.20900000
 O      36.55100000      32.71800000       2.78600000
 H      37.41900000      32.40400000       2.96700000
 H      36.29300000      32.02200000       2.11100000
 O      33.22300000      38.37100000       2.97900000
 H      32.88600000      38.38700000       2.09700000
 H      34.12700000      38.77300000       2.85700000
 O      28.96400000      36.99200000      28.60500000
 H      29.83100000      36.53800000      28.78100000
 H      28.53300000      36.84100000      29.49300000
 O      37.64900000      37.16500000      34.81100000
 H      36.94900000      37.83800000      34.90600000
 H      37.15300000      36.48300000      34.28000000
 O      30.53900000      38.13800000      22.46900000
 H      30.67100000      38.03500000      23.45000000
 H      29.85300000      38.89000000      22.57100000
 O      38.91900000      31.64500000      24.14600000
 H      38.53900000      31.08100000      23.43100000
 H      39.60900000      32.12100000      23.67400000
 O      35.03100000      30.51800000       6.23900000
 H      34.66600000      31.41000000       6.56100000
 H      34.45700000      30.35800000       5.47900000
 O      30.07300000      28.03900000      34.02800000
 H      30.02300000      28.26500000      34.94900000
 H      29.12200000      28.25800000      33.78600000
 O      32.22700000      34.42800000      19.96200000
 H      31.27700000      34.24800000      19.84400000
 H      32.62800000      33.56500000      19.99300000
 O      37.78600000      39.98300000      15.74500000
 H      37.80200000      40.44500000      16.57900000
 H      37.03400000      39.35800000      15.82300000
 O      27.38400000      27.34100000      10.92400000
 H      28.17600000      26.80400000      10.93900000
 H      27.67700000      28.25900000      10.89000000
 O      38.33200000      40.29300000      18.75500000
 H      37.62300000      39.59100000      18.93100000
 H      37.96700000      40.96900000      19.36300000
 O      31.38100000      30.86100000       7.02000000
 H      31.15300000      30.19100000       7.64500000
 H      32.14800000      31.32600000       7.42100000
 O      28.44800000      36.62000000      16.28100000
 H      27.52000000      36.23400000      16.30700000
 H      28.87900000      35.82300000      15.85100000
 O      39.23200000      32.86700000      15.35600000
 H      38.38300000      32.73800000      15.86500000
 H      38.84400000      33.31100000      14.56200000
 O      29.24000000      32.81900000       3.07100000
 H      29.52800000      32.23500000       3.77300000
 H      30.14300000      32.93700000       2.58800000
 O      36.39800000      35.54000000      11.87700000
 H      36.07200000      35.53500000      10.96000000
 H      35.71900000      34.88100000      12.24900000
 O      38.29300000      39.71900000      32.31000000
 H      39.17400000      39.88400000      31.89600000
 H      37.98400000      38.96800000      31.75100000
 O      36.00900000      33.88700000       5.21100000
 H      36.36400000      33.39300000       4.43900000
 H      35.30600000      33.24400000       5.49000000
 O      33.65100000      33.81500000       9.53100000
 H      33.58800000      34.71200000       9.20500000
 H      34.12400000      33.89800000      10.37300000
 O      38.10600000      34.77900000      31.29600000
 H      37.57800000      33.98600000      31.01000000
 H      38.69500000      34.84900000      30.58000000
 O      32.88300000      28.57400000      32.66100000
 H      32.06000000      28.48900000      33.16300000
 H      33.55500000      28.47800000      33.41200000
 O      35.58800000      39.43600000       2.81500000
 H      35.36000000      40.33600000       3.15300000
 H      36.35500000      39.24600000       3.35900000
 O      35.78900000      36.38700000       6.33700000
 H      35.74400000      35.58500000       5.85100000
 H      35.16300000      36.93500000       5.84100000
 O      40.28600000      39.56100000      34.18500000
 H      39.42700000      39.39500000      33.70900000
 H      40.09000000      40.39000000      34.66500000
 O      37.08900000      28.87500000      24.16900000
 H      37.23800000      27.88400000      24.15100000
 H      37.76500000      29.12900000      23.46200000
 O      36.76500000      29.80400000      29.80100000
 H      37.70900000      29.80600000      29.58200000
 H      36.48700000      28.96200000      29.45700000
 O      38.61000000      33.11900000      35.47400000
 H      37.70000000      32.73900000      35.55300000
 H      39.14400000      32.44100000      35.90800000
 O      35.74100000      39.08200000      35.13600000
 H      36.22600000      39.85500000      35.56300000
 H      35.37900000      39.53900000      34.35500000
 O      30.29400000      30.68000000      18.11000000
 H      29.56400000      30.06100000      18.26500000
 H      29.93900000      31.24000000      17.35200000
 O      28.70600000      29.88700000      11.45500000
 H      28.51100000      30.86400000      11.55000000
 H      29.64000000      29.94400000      11.13600000
 O      35.36300000      31.68600000      13.38700000
 H      36.05900000      31.15900000      12.97200000
 H      34.96000000      30.95800000      13.95300000
 O      27.43800000      30.89900000      32.45400000
 H      27.53900000      31.68700000      33.04300000
 H      28.05400000      31.14800000      31.72900000
 O      27.58900000      39.76100000      18.12400000
 H      28.32000000      39.12000000      18.33100000
 H      26.79800000      39.17600000      18.35500000
 O      31.27200000      30.93500000      32.42200000
 H      30.62100000      31.14300000      31.72900000
 H      31.72600000      30.20100000      31.98000000
 O      34.98500000      40.70600000      38.13000000
 H      34.16500000      40.20000000      38.04900000
 H      34.91400000      41.26900000      37.31000000
 O      36.30300000      37.52600000      21.37400000
 H      35.34800000      37.21500000      21.48200000
 H      36.19600000      38.08300000      20.50100000
 O      36.88500000      37.95000000      40.75100000
 H      36.29800000      38.73200000      40.65500000
 H      36.72400000      37.71600000      41.67000000
 O      36.10700000      31.12200000      36.05000000
 H      35.31700000      31.52000000      36.47100000
 H      36.07800000      30.23700000      36.40800000
 O      38.66000000      33.72500000      40.30200000
 H      37.82500000      33.90600000      39.82900000
 H      39.30100000      34.09100000      39.68400000
 O      36.76200000      27.72800000      33.10100000
 H      36.05800000      27.56000000      33.77200000
 H      37.14500000      28.54000000      33.45900000
 O      38.26800000      29.52100000      34.44200000
 H      38.89100000      30.18200000      34.07200000
 H      37.84100000      30.13700000      35.06100000
 O      37.82300000      40.48100000      13.17800000
 H      37.54800000      40.25700000      14.12300000
 H      38.11200000      39.58900000      12.89900000
 O      32.21000000      32.12600000       1.87200000
 H      32.42900000      31.28100000       2.32900000
 H      32.56200000      32.77500000       2.53300000
 O      37.36900000      39.85400000      28.55300000
 H      37.67900000      39.59000000      29.43400000
 H      37.74200000      40.74400000      28.40600000
 O      28.91700000      28.78300000       3.02300000
 H      28.90500000      29.19200000       2.12000000
 H      29.60000000      29.33400000       3.43500000
 O      32.09700000      36.69900000      13.23300000
 H      31.25900000      36.48900000      13.69500000
 H      32.70100000      36.17200000      13.82500000
 O      33.24400000      36.31400000       8.56000000
 H      33.11500000      36.75800000       7.66000000
 H      33.61700000      37.07500000       9.07200000
 O      36.85500000      35.13000000      27.99000000
 H      37.70400000      34.66900000      28.29300000
 H      37.21900000      35.74200000      27.37200000
 O      29.37000000      33.83600000      19.80700000
 H      29.08200000      33.66700000      18.90900000
 H      29.26000000      32.96900000      20.25800000
 O      28.35100000      36.75400000      33.36100000
 H      29.31500000      36.93600000      33.32600000
 H      28.11000000      37.46000000      33.98000000
 O      30.37000000      36.95500000      36.15300000
 H      30.54100000      37.66200000      36.80700000
 H      30.36100000      37.54200000      35.37400000
 O      34.35500000      39.53500000       6.09000000
 H      33.87100000      40.24900000       6.54000000
 H      35.21700000      39.81400000       6.14500000
 O      29.06000000      34.96600000      37.62400000
 H      29.27800000      35.62700000      36.92900000
 H      29.72100000      35.18900000      38.29800000
 O      34.00000000      35.52400000       1.55700000
 H      34.98700000      35.81400000       1.61900000
 H      33.80400000      36.02400000       0.68700000
 O      32.51100000      35.90800000      17.58500000
 H      32.21400000      35.64400000      18.49100000
 H      32.14000000      36.82400000      17.58700000
 O      39.47900000      26.97300000      34.86700000
 H      38.70100000      26.40200000      35.01700000
 H      39.02100000      27.79200000      34.66500000
 O      40.31400000      28.81400000      32.13500000
 H      40.77200000      29.37400000      32.78900000
 H      39.44100000      29.28800000      32.12000000
 O      34.30500000      36.30100000      28.16600000
 H      35.26000000      35.97500000      28.15100000
 H      34.53900000      37.21700000      28.32500000
 O      33.29400000      37.29000000       5.55100000
 H      33.20700000      37.53800000       4.60300000
 H      33.51700000      38.16800000       5.88500000
 O      29.61600000      31.79700000      25.88100000
 H      29.60300000      32.66200000      26.42000000
 H      28.69500000      31.49700000      26.12500000
 O      38.02900000      39.21600000       3.68800000
 H      38.42600000      40.04700000       3.35200000
 H      38.86900000      38.68300000       3.82800000
 O      28.31200000      36.37700000      20.42300000
 H      27.29400000      36.31100000      20.34900000
 H      28.49800000      35.47800000      20.05100000
 O      38.17500000      40.61900000       9.87400000
 H      38.66600000      41.36800000       9.48100000
 H      37.24200000      40.82400000       9.68700000
 O      36.46800000      29.25100000      26.91700000
 H      36.71900000      29.23600000      26.00400000
 H      36.27700000      30.22800000      27.06500000
 O      30.62600000      28.12100000      26.37400000
 H      31.30800000      28.77200000      26.46500000
 H      30.55700000      27.94400000      25.44300000
 O      32.85900000      30.66900000      21.32900000
 H      32.27500000      31.10000000      21.95800000
 H      33.60500000      30.42500000      21.97800000
 O      36.99000000      32.90300000      16.88400000
 H      36.08400000      33.27200000      17.06900000
 H      37.44900000      33.13100000      17.72700000
 O      32.52700000      39.47200000      12.70400000
 H      31.63200000      39.73300000      12.91500000
 H      32.41400000      38.50700000      12.64400000
 O      27.85300000      34.47400000      25.72000000
 H      27.20400000      33.76200000      25.45500000
 H      28.31700000      34.51800000      24.87000000
 O      27.45500000      38.53700000       6.08900000
 H      28.24300000      39.03100000       5.82100000
 H      27.45200000      38.83400000       7.06100000
 O      33.85500000      31.68000000      24.95300000
 H      33.43500000      32.50100000      25.28500000
 H      33.21400000      31.06600000      25.29700000
 O      34.10800000      38.90800000      31.10900000
 H      34.71100000      38.94700000      30.36800000
 H      33.24700000      38.96200000      30.64500000
