741
XYZ file of cluster: frame_9000_74627.4e836.c5f2f - created by MolEdiTo
 O      37.73300000      14.87900000      38.69800000
 H      37.05600000      15.41900000      38.12700000
 H      37.05800000      14.47000000      39.25300000
 O      20.96400000      13.80400000      38.31300000
 H      20.92700000      14.73400000      38.06300000
 H      20.53400000      13.35500000      37.55500000
 O      29.24000000      22.97800000      39.57200000
 H      28.83500000      23.87300000      39.64100000
 H      30.14000000      23.17500000      39.31500000
 O      27.81100000      33.30700000      33.89900000
 H      27.90100000      33.02400000      34.83700000
 H      27.06100000      33.90200000      33.90000000
 O      23.53900000      38.41800000      39.30600000
 H      22.58500000      38.31500000      39.30000000
 H      23.81100000      37.50500000      39.46600000
 O      28.93600000      20.37400000      34.74000000
 H      28.56300000      20.80300000      33.99600000
 H      28.54300000      20.88800000      35.48500000
 O      38.74600000      37.07300000      37.24200000
 H      38.35500000      37.37700000      36.36300000
 H      37.85900000      36.88800000      37.72000000
 O      36.69400000      34.06300000      38.70800000
 H      36.40700000      34.91800000      38.34400000
 H      35.91800000      33.58700000      38.69600000
 O      34.28800000      20.71600000      37.91800000
 H      33.73500000      20.18800000      38.48700000
 H      34.68100000      20.01000000      37.38400000
 O      25.18800000      16.63400000      39.59800000
 H      25.53700000      16.31700000      40.45100000
 H      25.16800000      15.81600000      39.04600000
 O      36.10100000      36.69100000      38.21000000
 H      35.74000000      37.19200000      38.93100000
 H      35.39100000      36.63400000      37.55500000
 O      34.08300000      31.05100000      39.97800000
 H      33.75200000      30.14800000      39.73800000
 H      33.36500000      31.50600000      40.33600000
 O      27.05100000      27.95400000      36.97300000
 H      27.87400000      28.50100000      36.95700000
 H      26.66900000      28.38200000      36.13500000
 O      25.41600000      21.76500000      38.57000000
 H      24.53100000      21.84300000      39.02200000
 H      25.13200000      21.64300000      37.65200000
 O      22.92300000      35.70000000      36.54800000
 H      22.00400000      35.84800000      36.28500000
 H      23.37300000      36.54200000      36.23900000
 O      31.90900000      39.31700000      37.36700000
 H      31.56800000      39.76400000      38.13300000
 H      31.85400000      40.07000000      36.73300000
 O      21.63800000      24.79900000      35.03400000
 H      21.13300000      24.41800000      34.27300000
 H      21.37400000      24.23000000      35.73700000
 O      32.21600000      21.53900000      36.45100000
 H      32.88600000      21.30400000      37.13100000
 H      31.65700000      20.79300000      36.45100000
 O      21.74400000      40.53000000      34.77700000
 H      20.83700000      40.11700000      34.65100000
 H      22.25700000      40.03100000      34.16300000
 O      39.12300000      38.89700000      39.35800000
 H      38.52600000      38.31200000      39.91900000
 H      39.17800000      38.44200000      38.53300000
 O      36.66500000      31.18500000      40.50800000
 H      37.19700000      30.95600000      39.75800000
 H      35.77400000      30.97900000      40.21600000
 O      26.99600000      18.36200000      38.44700000
 H      26.41500000      19.10500000      38.16300000
 H      26.28500000      17.76800000      38.84100000
 O      25.44200000      14.07700000      38.94400000
 H      25.42900000      13.65900000      38.02400000
 H      24.89900000      13.43200000      39.50700000
 O      29.14200000      29.68300000      36.33400000
 H      29.60900000      30.00600000      37.12300000
 H      29.19300000      30.47800000      35.71700000
 O      28.23700000      25.53500000      36.08700000
 H      27.45900000      25.52700000      35.51100000
 H      28.02200000      26.35900000      36.57400000
 O      32.55300000      15.35600000      39.49100000
 H      33.31600000      14.93700000      39.85800000
 H      32.35000000      14.81000000      38.74300000
 O      39.67900000      35.51400000      34.62700000
 H      38.99300000      36.21200000      34.75900000
 H      39.13900000      34.75700000      35.01300000
 O      23.53600000      31.66900000      34.93600000
 H      23.00700000      32.01800000      35.68800000
 H      23.58900000      32.50100000      34.41900000
 O      20.75800000      30.48900000      37.78900000
 H      19.80400000      30.37100000      37.72700000
 H      20.89400000      31.24200000      37.18500000
 O      29.91600000      15.10300000      35.65200000
 H      29.45400000      15.73900000      36.26000000
 H      30.82900000      15.22300000      35.87400000
 O      22.70000000      25.71900000      40.55100000
 H      22.76800000      25.13900000      41.37600000
 H      22.13200000      26.41800000      40.95100000
 O      40.10800000      21.98000000      36.29900000
 H      40.89800000      22.52500000      36.43200000
 H      40.27900000      21.58000000      35.42000000
 O      36.01500000      28.83000000      37.40900000
 H      36.67900000      29.31400000      37.89500000
 H      35.80900000      28.11800000      38.05100000
 O      33.19200000      26.93700000      37.24400000
 H      32.70500000      26.12200000      37.29000000
 H      33.74400000      26.85700000      38.06700000
 O      26.25000000      31.14700000      37.87500000
 H      25.71100000      31.51500000      38.52300000
 H      25.97200000      30.17900000      37.87000000
 O      31.99000000      33.48500000      39.50400000
 H      32.04100000      33.00700000      40.32500000
 H      31.60800000      34.33500000      39.81900000
 O      30.69700000      18.55200000      36.12200000
 H      30.24800000      17.86100000      36.66500000
 H      29.96800000      19.07100000      35.81400000
 O      27.93600000      32.52600000      36.48600000
 H      28.27200000      33.34400000      36.90200000
 H      27.36000000      32.14600000      37.13300000
 O      37.68100000      22.98400000      40.59100000
 H      36.85400000      22.44900000      40.74600000
 H      37.55100000      23.23200000      39.66000000
 O      37.81500000      19.22800000      38.78100000
 H      37.24800000      19.18200000      38.03700000
 H      38.48100000      18.57600000      38.54400000
 O      40.89200000      34.44700000      39.16300000
 H      41.06300000      34.68200000      38.21500000
 H      41.38000000      33.58700000      39.22000000
 O      33.45700000      37.26300000      39.49000000
 H      32.77400000      37.89200000      39.90300000
 H      33.34900000      37.51900000      38.54900000
 O      26.36000000      37.71500000      39.19800000
 H      25.82700000      37.60200000      40.00800000
 H      26.27300000      36.86800000      38.78200000
 O      37.16600000      24.94400000      35.05800000
 H      36.26700000      25.11800000      34.64300000
 H      37.20800000      23.98400000      34.95500000
 O      35.61000000      14.64100000      40.49700000
 H      35.72100000      15.02700000      41.40900000
 H      35.02400000      13.86000000      40.74200000
 O      28.33900000      17.67300000      40.73400000
 H      29.31400000      17.57100000      40.65400000
 H      28.06400000      17.73600000      39.81500000
 O      20.89200000      17.01000000      38.30600000
 H      20.28200000      17.66100000      38.64600000
 H      21.67300000      17.06200000      38.89700000
 O      25.78000000      25.76500000      38.23500000
 H      26.20400000      26.37400000      37.61500000
 H      24.82600000      25.96900000      38.10700000
 O      25.58500000      39.21100000      37.03400000
 H      25.70900000      38.62100000      37.85600000
 H      25.06400000      39.94100000      37.44000000
 O      21.63900000      34.69300000      40.33300000
 H      21.97400000      33.83500000      40.71000000
 H      22.54100000      35.01500000      40.07600000
 O      29.10600000      16.81400000      37.49000000
 H      28.39900000      17.40400000      37.80900000
 H      28.94900000      16.01000000      38.02900000
 O      37.87600000      24.87000000      37.90300000
 H      38.11000000      25.22600000      36.97100000
 H      37.58400000      23.99300000      37.58100000
 O      34.57300000      28.15700000      35.09200000
 H      35.11900000      28.21100000      35.89700000
 H      33.78700000      27.73800000      35.57100000
 O      26.69800000      23.37700000      34.41800000
 H      26.07400000      23.26200000      35.13100000
 H      26.59000000      24.30300000      34.12600000
 O      31.69200000      34.14400000      35.47700000
 H      31.76200000      35.10000000      35.28500000
 H      31.30200000      34.17900000      36.34500000
 O      24.30400000      37.77400000      35.31400000
 H      23.96500000      38.47800000      34.69100000
 H      24.79100000      38.36800000      35.91800000
 O      39.48600000      31.09200000      36.75100000
 H      40.14100000      30.36800000      36.75500000
 H      39.72500000      31.57100000      37.60800000
 O      34.05000000      37.20400000      36.44600000
 H      33.45300000      36.58900000      36.00900000
 H      34.21700000      37.88700000      35.73600000
 O      35.56100000      26.64500000      38.91100000
 H      35.72900000      26.53300000      39.89100000
 H      36.00300000      25.77800000      38.63100000
 O      22.04900000      20.42000000      36.13100000
 H      22.08600000      21.15400000      36.80300000
 H      22.30600000      19.69100000      36.69400000
 O      36.17000000      19.58600000      35.98500000
 H      35.83900000      20.07600000      35.25400000
 H      36.35600000      18.70800000      35.70600000
 O      28.83700000      37.85200000      40.67000000
 H      28.45300000      38.22500000      41.53800000
 H      27.97000000      37.74900000      40.17200000
 O      31.29200000      17.32900000      40.63700000
 H      32.07900000      17.74800000      41.03900000
 H      31.72100000      16.49000000      40.25200000
 O      38.69800000      13.41200000      36.72800000
 H      38.64500000      13.97800000      35.96600000
 H      38.36900000      13.94300000      37.48600000
 O      24.46000000      16.60900000      36.90400000
 H      23.84400000      15.82600000      36.99700000
 H      25.31500000      16.16300000      36.70700000
 O      34.54100000      18.12900000      39.20400000
 H      33.93500000      17.33600000      39.21900000
 H      33.92400000      18.82300000      39.56700000
 O      31.94100000      23.56400000      38.68100000
 H      32.73900000      23.17100000      38.35400000
 H      31.65600000      24.12200000      37.93500000
 O      20.81100000      37.40800000      39.53900000
 H      21.01900000      36.47000000      39.64600000
 H      20.00800000      37.47600000      40.13500000
 O      35.09700000      13.90300000      35.78900000
 H      35.31000000      14.31600000      36.64200000
 H      35.74000000      14.37800000      35.19700000
 O      22.61500000      28.67600000      34.27400000
 H      22.08000000      28.64200000      35.07200000
 H      23.05200000      29.55000000      34.28300000
 O      38.17400000      29.62900000      38.72200000
 H      38.41300000      28.65800000      38.69800000
 H      38.75300000      30.06000000      38.09000000
 O      31.34700000      24.93600000      36.58200000
 H      31.67800000      25.28500000      35.71400000
 H      30.36900000      24.99700000      36.47000000
 O      37.02800000      17.02000000      34.82900000
 H      37.27200000      16.09500000      34.75600000
 H      36.83400000      17.24000000      33.94000000
 O      27.30800000      28.03700000      39.77000000
 H      26.53600000      27.80800000      40.36000000
 H      26.93600000      28.03200000      38.94800000
 O      26.48000000      34.99800000      38.72800000
 H      26.63600000      34.18800000      39.20600000
 H      27.36600000      35.07900000      38.23900000
 O      27.61500000      39.08000000      34.93700000
 H      26.91800000      38.79000000      35.59500000
 H      27.42300000      40.05000000      35.05300000
 O      34.28400000      32.85100000      37.87200000
 H      33.61700000      33.39700000      38.34500000
 H      34.34200000      32.11300000      38.56000000
 O      22.67400000      29.61400000      39.80900000
 H      22.02500000      29.95100000      39.11900000
 H      22.50100000      30.22300000      40.53700000
 O      23.03400000      25.66500000      37.94200000
 H      22.77800000      25.76400000      38.90400000
 H      22.42500000      26.31000000      37.58000000
 O      32.61600000      19.96800000      40.18600000
 H      32.69000000      20.59100000      40.97200000
 H      31.67400000      19.83200000      40.17600000
 O      31.01500000      35.68300000      40.64900000
 H      30.33200000      36.39900000      40.58200000
 H      31.54200000      35.96900000      41.40900000
 O      30.82300000      30.94900000      38.52400000
 H      31.68500000      30.86000000      38.03200000
 H      30.89600000      31.86400000      38.91500000
 O      33.09400000      29.74800000      37.39400000
 H      32.77100000      28.82300000      37.39000000
 H      33.00100000      29.95400000      36.43000000
 O      31.86300000      31.11000000      35.07500000
 H      32.03800000      32.03700000      35.30300000
 H      31.56300000      31.20500000      34.13300000
 O      31.76900000      22.82600000      33.97700000
 H      31.92700000      22.72600000      34.95600000
 H      31.27800000      23.70900000      33.96500000
 O      38.87100000      27.31000000      39.07200000
 H      38.26600000      26.59600000      38.78400000
 H      39.47100000      26.77900000      39.67700000
 O      29.17000000      29.76300000      40.51000000
 H      29.73900000      30.16400000      39.86300000
 H      28.83200000      28.96300000      40.09600000
 O      35.88500000      16.51800000      37.32800000
 H      35.82800000      16.72800000      36.38900000
 H      35.58200000      17.33600000      37.77200000
 O      37.64900000      37.16500000      34.81100000
 H      36.94900000      37.83800000      34.90600000
 H      37.15300000      36.48300000      34.28000000
 O      23.15500000      18.91500000      38.04400000
 H      23.25700000      18.70900000      39.03700000
 H      23.59000000      18.14000000      37.62100000
 O      30.07300000      28.03900000      34.02800000
 H      30.02300000      28.26500000      34.94900000
 H      29.12200000      28.25800000      33.78600000
 O      25.80500000      32.77500000      40.32500000
 H      26.37500000      32.08700000      40.78900000
 H      25.80100000      33.48200000      41.03600000
 O      23.77000000      35.44900000      39.36400000
 H      23.69500000      35.66000000      38.41400000
 H      24.70700000      35.19300000      39.34200000
 O      39.91000000      20.91900000      38.94400000
 H      39.72200000      21.31700000      38.05000000
 H      39.01700000      20.68000000      39.14600000
 O      24.54700000      17.93300000      34.52200000
 H      24.35100000      17.16200000      33.94700000
 H      24.25800000      17.63900000      35.41900000
 O      24.57500000      27.73600000      40.58400000
 H      23.96200000      28.30400000      40.04600000
 H      24.05200000      26.87300000      40.59000000
 O      28.06100000      14.64200000      38.68800000
 H      28.43200000      14.89800000      39.57300000
 H      27.09500000      14.75700000      38.87100000
 O      40.30600000      16.10300000      39.09600000
 H      39.46200000      15.56400000      38.87100000
 H      40.23500000      16.77500000      38.46000000
 O      21.45200000      23.71700000      38.09400000
 H      21.92300000      22.95500000      38.47900000
 H      22.23500000      24.27900000      37.86100000
 O      38.61000000      33.11900000      35.47400000
 H      37.70000000      32.73900000      35.55300000
 H      39.14400000      32.44100000      35.90800000
 O      35.74100000      39.08200000      35.13600000
 H      36.22600000      39.85500000      35.56300000
 H      35.37900000      39.53900000      34.35500000
 O      34.98500000      40.70600000      38.13000000
 H      34.16500000      40.20000000      38.04900000
 H      34.91400000      41.26900000      37.31000000
 O      36.88500000      37.95000000      40.75100000
 H      36.29800000      38.73200000      40.65500000
 H      36.72400000      37.71600000      41.67000000
 O      36.10700000      31.12200000      36.05000000
 H      35.31700000      31.52000000      36.47100000
 H      36.07800000      30.23700000      36.40800000
 O      38.66000000      33.72500000      40.30200000
 H      37.82500000      33.90600000      39.82900000
 H      39.30100000      34.09100000      39.68400000
 O      38.26800000      29.52100000      34.44200000
 H      38.89100000      30.18200000      34.07200000
 H      37.84100000      30.13700000      35.06100000
 O      28.61500000      22.37200000      36.41900000
 H      29.33000000      22.71400000      36.89800000
 H      28.27300000      23.11200000      35.88500000
 O      24.48900000      23.78500000      36.60700000
 H      24.97400000      24.06800000      37.40700000
 H      23.73800000      24.43500000      36.68200000
 O      21.00600000      27.81900000      36.49100000
 H      20.43700000      27.25700000      37.04400000
 H      20.70000000      28.66700000      36.67800000
 O      27.82500000      25.18400000      40.15900000
 H      26.97200000      25.11000000      39.62400000
 H      28.00100000      26.14800000      40.02400000
 O      30.37000000      36.95500000      36.15300000
 H      30.54100000      37.66200000      36.80700000
 H      30.36100000      37.54200000      35.37400000
 O      22.50000000      21.52300000      38.96300000
 H      22.08400000      21.63600000      39.82700000
 H      22.37700000      20.55300000      38.77500000
 O      37.20200000      22.29000000      36.91700000
 H      38.06700000      22.11300000      36.55200000
 H      36.68700000      21.44400000      36.88800000
 O      29.06000000      34.96600000      37.62400000
 H      29.27800000      35.62700000      36.92900000
 H      29.72100000      35.18900000      38.29800000
 O      22.03900000      33.05800000      36.72800000
 H      21.23500000      33.44700000      36.46200000
 H      22.62700000      33.85800000      36.88300000
 O      39.49000000      17.75300000      37.13900000
 H      40.39000000      18.10600000      36.96600000
 H      39.09400000      17.86100000      36.27400000
 O      35.17600000      23.83000000      37.82000000
 H      35.83100000      23.10600000      37.52500000
 H      35.02500000      24.31000000      37.01900000
 O      34.94200000      22.01700000      40.38000000
 H      34.17600000      21.94700000      40.92500000
 H      34.64700000      21.74500000      39.48700000
 O      39.47900000      26.97300000      34.86700000
 H      38.70100000      26.40200000      35.01700000
 H      39.02100000      27.79200000      34.66500000
 O      22.52500000      14.26500000      35.54900000
 H      23.46000000      14.05900000      35.38500000
 H      22.18000000      13.43800000      35.07800000
 O      20.55000000      16.26600000      35.86500000
 H      21.35800000      15.66500000      35.73900000
 H      20.81700000      16.67100000      36.69400000
 O      25.96100000      30.13600000      35.20600000
 H      26.21200000      30.93500000      35.67600000
 H      25.07800000      30.38000000      34.87700000
 O      26.46800000      15.18600000      36.15900000
 H      26.39600000      14.25000000      36.34700000
 H      26.68500000      15.15000000      35.18000000
 O      22.75100000      25.16700000      46.72900000
 H      22.22600000      24.69300000      47.41100000
 H      22.19400000      25.93700000      46.54800000
 O      35.18100000      25.55900000      44.99400000
 H      34.64200000      24.75000000      44.82600000
 H      34.97600000      25.74100000      45.89000000
 O      28.27400000      14.95600000      42.98700000
 H      29.15400000      15.12900000      43.33700000
 H      27.78900000      15.77800000      43.25900000
 O      29.58400000      21.57900000      48.90300000
 H      30.47100000      21.22300000      48.78200000
 H      29.10800000      21.12700000      48.28200000
 O      23.70400000      38.47500000      44.92800000
 H      22.86100000      38.19500000      44.45300000
 H      23.45100000      38.37400000      45.84200000
 O      26.40900000      25.75500000      45.18700000
 H      26.35600000      25.63000000      44.25600000
 H      27.27600000      26.05700000      45.39100000
 O      27.62900000      20.50800000      47.04900000
 H      27.60700000      21.53200000      46.98200000
 H      27.36600000      20.30800000      46.13700000
 O      28.19600000      35.63600000      49.39300000
 H      28.85600000      35.03800000      49.00100000
 H      27.62500000      35.85500000      48.60600000
 O      33.76700000      22.47100000      48.31500000
 H      33.74600000      21.53800000      48.50300000
 H      34.00400000      22.81600000      49.18600000
 O      29.85800000      24.72400000      45.47500000
 H      30.49500000      24.63200000      46.22200000
 H      29.37600000      25.53500000      45.82300000
 O      23.49400000      17.18600000      45.10700000
 H      23.51000000      16.51000000      45.82600000
 H      23.27500000      18.00600000      45.61400000
 O      33.79200000      32.86800000      48.76700000
 H      33.15300000      33.67100000      48.45700000
 H      33.85200000      33.12200000      49.70200000
 O      24.61300000      34.00500000      47.61700000
 H      24.95400000      33.15700000      47.96000000
 H      25.43000000      34.54700000      47.62800000
 O      27.29300000      23.03300000      46.87900000
 H      26.80300000      23.43700000      47.60700000
 H      27.73200000      23.68600000      46.40000000
 O      23.59200000      32.01700000      45.80400000
 H      24.22800000      31.48400000      45.31800000
 H      24.08000000      32.78500000      46.12100000
 O      23.07600000      35.63100000      45.80600000
 H      23.81400000      35.23800000      46.34800000
 H      22.41800000      35.83500000      46.49600000
 O      26.49000000      31.94700000      46.48000000
 H      27.06000000      31.20600000      46.33100000
 H      26.47500000      32.44700000      45.65800000
 O      20.82400000      19.30500000      48.18500000
 H      20.37700000      18.74300000      47.52900000
 H      21.65600000      19.50500000      47.64400000
 O      35.89700000      15.32100000      45.30300000
 H      36.70600000      15.32900000      44.79100000
 H      35.97400000      14.45600000      45.83900000
 O      27.57600000      38.68000000      44.56200000
 H      27.53400000      38.62600000      45.55500000
 H      27.79900000      39.62200000      44.45300000
 O      38.61300000      14.77000000      44.14200000
 H      39.00600000      15.46400000      43.62200000
 H      39.28400000      14.05300000      43.93700000
 O      20.92600000      27.39800000      46.21700000
 H      21.27400000      27.63600000      47.05800000
 H      21.26400000      28.11600000      45.63200000
 O      33.12100000      29.48800000      45.99700000
 H      33.32000000      28.81800000      45.34100000
 H      32.90200000      28.92300000      46.78900000
 O      28.32600000      35.42300000      45.26800000
 H      29.06100000      36.08400000      45.22800000
 H      28.81300000      34.60800000      45.30400000
 O      39.37000000      30.02300000      47.60400000
 H      39.44000000      30.79800000      48.24200000
 H      38.55100000      29.66700000      47.88200000
 O      23.21200000      15.33300000      46.76600000
 H      22.79700000      14.74100000      47.38100000
 H      23.62700000      14.59900000      46.18200000
 O      36.76900000      28.55400000      47.69200000
 H      36.24400000      27.99900000      48.30000000
 H      36.31800000      29.37700000      47.62100000
 O      29.87700000      39.64000000      47.18300000
 H      29.71400000      40.21900000      47.95100000
 H      30.74300000      40.04800000      46.91400000
 O      38.22000000      28.53100000      43.73700000
 H      38.64100000      27.80300000      43.29600000
 H      37.51200000      28.80800000      43.13600000
 O      38.56200000      17.87800000      48.56600000
 H      37.72200000      18.05200000      48.23800000
 H      39.01700000      18.77700000      48.58000000
 O      26.68800000      14.89200000      46.12500000
 H      26.20900000      15.01800000      47.01000000
 H      27.53600000      14.72600000      46.47700000
 O      37.26700000      35.51200000      43.93000000
 H      37.03500000      34.58700000      44.12600000
 H      37.71400000      35.40800000      43.06000000
 O      20.88500000      32.31400000      47.18600000
 H      21.07800000      32.78500000      48.01800000
 H      21.82300000      32.31600000      46.78400000
 O      38.77500000      39.11400000      48.30600000
 H      38.61700000      38.19200000      48.37700000
 H      38.38600000      39.40700000      47.48300000
 O      29.51200000      22.12800000      44.79200000
 H      28.66800000      22.04900000      44.24200000
 H      29.56400000      23.05900000      44.94000000
 O      31.66000000      38.86700000      42.44500000
 H      31.34600000      39.76800000      42.09600000
 H      30.79600000      38.41900000      42.53500000
 O      25.66800000      19.23200000      48.33400000
 H      25.75600000      19.31200000      49.29900000
 H      26.55000000      19.55300000      48.11200000
 O      30.77100000      30.63600000      46.18300000
 H      30.83800000      30.66700000      47.21700000
 H      31.75600000      30.50500000      46.07600000
 O      29.49400000      16.98200000      47.57300000
 H      28.84500000      17.41900000      48.12200000
 H      29.31300000      17.24000000      46.65700000
 O      21.85000000      29.35000000      44.74300000
 H      22.77500000      29.51500000      44.83000000
 H      21.47500000      30.21900000      44.54600000
 O      20.63900000      27.83300000      42.55500000
 H      20.34500000      27.58000000      41.67000000
 H      21.05500000      28.69900000      42.45300000
 O      38.18900000      24.19200000      45.74400000
 H      38.94000000      24.22500000      45.06800000
 H      38.02000000      25.13000000      45.90700000
 O      40.31200000      32.37500000      43.40200000
 H      39.81600000      31.95800000      44.09600000
 H      39.64900000      33.02100000      43.03800000
 O      23.35700000      22.05200000      48.40800000
 H      23.63000000      21.66100000      49.30300000
 H      23.35900000      21.22400000      47.90600000
 O      29.69100000      33.47100000      48.27100000
 H      30.09300000      32.63100000      48.47400000
 H      30.45400000      34.03500000      48.03300000
 O      23.07900000      32.63800000      42.89400000
 H      23.54100000      32.48400000      43.71000000
 H      23.75900000      32.73900000      42.24900000
 O      35.59300000      18.42200000      43.34700000
 H      35.48500000      18.47300000      42.41800000
 H      34.70700000      18.08700000      43.64500000
 O      20.90700000      15.51300000      43.93100000
 H      21.39700000      15.97100000      44.57900000
 H      20.19500000      16.17400000      43.61700000
 O      32.63700000      24.98800000      42.86500000
 H      31.89100000      24.69900000      43.47300000
 H      32.42400000      24.47200000      42.09600000
 O      33.27800000      33.89600000      45.20700000
 H      34.16500000      33.91400000      45.64900000
 H      33.44900000      34.55400000      44.51200000
 O      24.67000000      30.01000000      43.85400000
 H      25.49400000      30.38800000      43.47400000
 H      24.66000000      29.08000000      43.41900000
 O      21.70200000      21.75000000      43.06700000
 H      21.88100000      22.64100000      43.42800000
 H      20.85000000      21.50700000      43.45600000
 O      38.39800000      33.81600000      47.85300000
 H      38.58000000      33.01300000      48.32500000
 H      37.45100000      33.69500000      47.66000000
 O      40.31900000      36.69600000      42.57000000
 H      39.34700000      36.76500000      42.74800000
 H      40.35600000      35.88200000      42.01900000
 O      20.57400000      31.39800000      43.09800000
 H      19.94400000      31.73700000      42.41000000
 H      21.33400000      31.99600000      42.94600000
 O      38.54400000      30.78500000      45.06300000
 H      38.33400000      29.94000000      44.68100000
 H      39.01300000      30.58000000      45.87600000
 O      38.29300000      19.00600000      43.01400000
 H      38.05000000      19.04800000      42.01100000
 H      37.36900000      18.82000000      43.35300000
 O      35.82500000      18.42200000      46.26100000
 H      35.71500000      17.44300000      46.17300000
 H      35.74400000      18.73600000      45.36900000
 O      39.46900000      36.81400000      45.50900000
 H      39.92900000      36.23200000      46.07000000
 H      38.53600000      36.53400000      45.59600000
 O      23.90900000      20.28700000      44.19300000
 H      23.20600000      20.64800000      43.66700000
 H      24.47400000      21.02500000      44.42800000
 O      20.77300000      18.72100000      43.49700000
 H      20.34600000      18.59700000      42.60800000
 H      21.60300000      18.27500000      43.31300000
 O      38.52900000      36.38400000      48.78600000
 H      37.55100000      36.43100000      48.78000000
 H      38.67100000      35.45200000      48.58700000
 O      32.34800000      17.95200000      47.92600000
 H      32.21000000      18.43400000      47.09700000
 H      31.60700000      17.29400000      47.85100000
 O      22.86900000      17.47900000      42.44200000
 H      23.11100000      17.26600000      43.38500000
 H      23.60200000      17.02900000      41.98200000
 O      27.42100000      31.35900000      43.36800000
 H      28.05800000      31.73300000      44.01200000
 H      27.92900000      30.85200000      42.71500000
 O      24.71700000      27.77600000      46.70400000
 H      24.75700000      26.97600000      46.19200000
 H      24.21200000      27.40500000      47.49700000
 O      22.78300000      38.44600000      47.69200000
 H      23.23100000      37.96200000      48.39500000
 H      22.05600000      37.83200000      47.44000000
 O      30.91000000      15.34300000      44.88700000
 H      30.55000000      14.89100000      45.68200000
 H      31.75400000      15.62100000      45.22000000
 O      33.20800000      17.96500000      44.54000000
 H      32.49200000      18.44600000      44.86900000
 H      33.12200000      17.11700000      45.04100000
 O      32.11600000      24.06400000      47.14800000
 H      31.73700000      24.26400000      48.03000000
 H      32.58700000      23.20300000      47.37800000
 O      39.83600000      23.59400000      43.61400000
 H      39.02000000      23.43300000      43.09500000
 H      40.06700000      22.74900000      43.90600000
 O      36.98800000      25.67400000      42.79300000
 H      37.25700000      24.71400000      42.77800000
 H      36.47800000      25.62600000      43.68700000
 O      30.72900000      37.39000000      45.42500000
 H      30.63300000      38.13600000      46.09500000
 H      31.63300000      37.59700000      45.08700000
 O      34.39800000      22.64500000      45.32200000
 H      35.25600000      22.15500000      45.35700000
 H      34.37900000      23.01300000      46.20100000
 O      21.12700000      23.70600000      48.59600000
 H      21.32600000      23.73000000      49.56400000
 H      21.82400000      23.01000000      48.35000000
 O      27.05700000      22.35000000      42.58000000
 H      26.42100000      22.17400000      41.87300000
 H      27.91200000      22.47100000      42.05100000
 O      40.45400000      25.99100000      42.52900000
 H      41.23700000      26.26100000      43.07000000
 H      40.13200000      25.26800000      43.12400000
 O      23.26200000      19.48600000      46.59900000
 H      24.26400000      19.48900000      46.64000000
 H      23.10300000      19.74100000      45.64700000
 O      31.30100000      19.44900000      45.82700000
 H      30.51400000      18.93100000      45.53000000
 H      30.91500000      20.35900000      45.79300000
 O      26.59800000      36.11200000      47.30000000
 H      27.00700000      35.85900000      46.48200000
 H      26.72800000      37.09700000      47.37500000
 O      33.73700000      26.54300000      47.20900000
 H      34.08900000      26.36600000      48.12700000
 H      33.07900000      25.79200000      47.17700000
 O      40.01700000      16.88600000      43.40900000
 H      40.13900000      16.48800000      42.48500000
 H      39.47200000      17.67700000      43.08200000
 O      20.97000000      36.31700000      47.38700000
 H      20.68400000      35.96300000      48.24000000
 H      20.20400000      36.54100000      46.87500000
 O      39.94700000      20.89300000      43.99800000
 H      39.48200000      20.14600000      43.68900000
 H      40.26800000      20.55800000      44.86700000
 O      32.23800000      34.93300000      47.92600000
 H      32.26400000      35.94200000      47.94500000
 H      32.65800000      34.80700000      47.01300000
 O      25.87600000      34.53500000      44.11100000
 H      26.66900000      34.87200000      44.47200000
 H      25.53100000      35.28300000      43.59400000
 O      28.68700000      26.62500000      46.83300000
 H      28.55500000      26.65300000      47.81800000
 H      29.09100000      27.46700000      46.59600000
 O      25.48800000      40.52600000      45.00400000
 H      24.95700000      39.69600000      45.17900000
 H      25.13500000      40.75700000      44.14500000
 O      26.64200000      19.82700000      44.36400000
 H      25.75600000      19.58000000      44.07900000
 H      27.18700000      19.55700000      43.60300000
 O      36.55100000      32.71800000      44.45600000
 H      37.41900000      32.40400000      44.63700000
 H      36.29300000      32.02200000      43.78100000
 O      25.35100000      22.58000000      44.65400000
 H      25.86800000      22.44400000      43.84000000
 H      26.00900000      22.85600000      45.34900000
 O      33.22300000      38.37100000      44.64900000
 H      32.88600000      38.38700000      43.76700000
 H      34.12700000      38.77300000      44.52700000
 O      21.44400000      14.92900000      48.98300000
 H      20.90700000      15.23200000      49.73100000
 H      20.84800000      15.14100000      48.23300000
 O      33.41300000      27.53200000      44.16400000
 H      33.06700000      26.73800000      43.65100000
 H      33.99900000      27.10700000      44.81900000
 O      38.45100000      26.99600000      46.27100000
 H      38.45900000      27.51000000      45.42800000
 H      37.84100000      27.57200000      46.82500000
 O      35.03100000      30.51800000      47.90900000
 H      34.66600000      31.41000000      48.23100000
 H      34.45700000      30.35800000      47.14900000
 O      36.58100000      24.88600000      48.08500000
 H      36.95700000      24.55700000      47.24100000
 H      37.20900000      24.46400000      48.72500000
 O      40.64700000      19.95200000      46.59100000
 H      40.91800000      19.06900000      46.16900000
 H      40.97900000      19.71500000      47.52000000
 O      25.73800000      16.29600000      44.00600000
 H      24.86400000      16.66100000      44.36500000
 H      26.14700000      15.94800000      44.79200000
 O      23.01100000      23.74200000      44.31900000
 H      23.90700000      23.33800000      44.52400000
 H      22.77500000      24.08000000      45.18400000
 O      29.24000000      32.81900000      44.74100000
 H      29.52800000      32.23500000      45.44300000
 H      30.14300000      32.93700000      44.25800000
 O      36.00900000      33.88700000      46.88100000
 H      36.36400000      33.39300000      46.10900000
 H      35.30600000      33.24400000      47.16000000
 O      25.60900000      37.11800000      43.36200000
 H      26.20600000      37.73800000      43.90600000
 H      24.75400000      37.41100000      43.67500000
 O      33.39900000      15.76700000      46.27000000
 H      34.30200000      15.60500000      45.87800000
 H      33.68300000      16.04700000      47.20600000
 O      39.75700000      14.38300000      46.76400000
 H      39.13200000      14.68300000      46.08600000
 H      40.57100000      14.68400000      46.31500000
 O      35.58800000      39.43600000      44.48500000
 H      35.36000000      40.33600000      44.82300000
 H      36.35500000      39.24600000      45.02900000
 O      35.78900000      36.38700000      48.00700000
 H      35.74400000      35.58500000      47.52100000
 H      35.16300000      36.93500000      47.51100000
 O      32.37100000      21.87500000      43.67800000
 H      31.63600000      21.99100000      44.30800000
 H      33.14600000      22.29800000      44.14600000
 O      24.93300000      24.49500000      48.70400000
 H      24.46100000      25.29900000      48.45900000
 H      24.31100000      23.85100000      48.21400000
 O      38.43900000      20.90700000      47.69200000
 H      37.78000000      21.04900000      46.97200000
 H      39.27300000      20.85700000      47.17000000
 O      35.90400000      19.95100000      48.50500000
 H      35.64300000      19.55000000      47.65200000
 H      36.86000000      20.14100000      48.36500000
 O      36.96800000      21.70100000      45.47600000
 H      37.31200000      21.31800000      44.63500000
 H      37.36900000      22.58300000      45.47500000
 O      32.21000000      32.12600000      43.54200000
 H      32.42900000      31.28100000      43.99900000
 H      32.56200000      32.77500000      44.20300000
 O      28.91700000      28.78300000      44.69300000
 H      28.90500000      29.19200000      43.79000000
 H      29.60000000      29.33400000      45.10500000
 O      34.35500000      39.53500000      47.76000000
 H      33.87100000      40.24900000      48.21000000
 H      35.21700000      39.81400000      47.81500000
 O      23.18100000      30.26300000      47.87000000
 H      23.67300000      29.48800000      47.61500000
 H      23.19000000      30.88500000      47.14600000
 O      34.00000000      35.52400000      43.22700000
 H      34.98700000      35.81400000      43.28900000
 H      33.80400000      36.02400000      42.35700000
 O      26.88900000      29.19500000      46.79700000
 H      27.37200000      28.65700000      46.17300000
 H      26.01200000      28.74700000      46.79700000
 O      33.29400000      37.29000000      47.22100000
 H      33.20700000      37.53800000      46.27300000
 H      33.51700000      38.16800000      47.55500000
 O      40.46800000      26.07800000      47.78400000
 H      39.84900000      26.50000000      47.18100000
 H      39.85900000      25.39400000      48.19500000
 O      38.02900000      39.21600000      45.35800000
 H      38.42600000      40.04700000      45.02200000
 H      38.86900000      38.68300000      45.49800000
 O      21.23100000      36.77200000      44.23300000
 H      21.26100000      36.07400000      43.52900000
 H      21.82100000      36.29600000      44.83100000
 O      29.08900000      17.73300000      44.92600000
 H      29.44200000      16.98200000      44.42900000
 H      28.50900000      18.06300000      44.21600000
 O      27.45500000      38.53700000      47.75900000
 H      28.24300000      39.03100000      47.49100000
 H      27.45200000      38.83400000      48.73100000
