322
XYZ file of cluster: frame_9000_23d1b.21871.702cb - created by MolEdiTo
 O      19.19300000      18.06200000      26.41600000
 H      19.07400000      18.29300000      27.39000000
 H      19.98600000      18.56200000      26.21500000
 O      18.96300000      14.90000000      29.89400000
 H      19.78500000      15.21800000      30.40900000
 H      19.16900000      15.36600000      29.07300000
 O      13.68500000      14.45700000      25.28900000
 H      13.04900000      13.72300000      25.12700000
 H      13.06900000      15.18300000      25.14200000
 O      16.75300000      18.71200000      25.60400000
 H      17.55500000      18.23300000      25.97800000
 H      16.94700000      19.61000000      25.93500000
 O       8.15900000      11.95300000      29.73500000
 H       8.62000000      11.63700000      30.57100000
 H       8.80600000      11.64700000      29.05800000
 O      19.09100000      10.59100000      27.11000000
 H      19.57100000      10.19500000      27.85600000
 H      19.32100000      11.54200000      27.28400000
 O      17.88800000       8.92300000      30.55300000
 H      17.44000000       8.63300000      29.81600000
 H      17.52700000       8.55700000      31.31600000
 O      16.37200000      14.05400000      26.53900000
 H      15.43000000      14.22300000      26.26500000
 H      16.26200000      13.20700000      27.00300000
 O      14.09100000      19.45700000      31.39400000
 H      14.46100000      20.35500000      31.40800000
 H      13.13000000      19.58900000      31.30300000
 O      10.09800000      18.45200000      21.16400000
 H      11.00200000      18.76700000      20.90500000
 H      10.37300000      17.54300000      21.40100000
 O      17.62300000      17.42500000      22.86900000
 H      16.92000000      17.65200000      22.12400000
 H      17.40500000      18.16800000      23.49800000
 O      16.49500000       9.83700000      27.01400000
 H      17.38300000      10.22000000      26.69700000
 H      16.17500000      10.65300000      27.48700000
 O       7.78400000      19.44600000      21.56300000
 H       8.65500000      19.01300000      21.29100000
 H       7.63900000      18.85200000      22.38800000
 O       9.42800000      14.35700000      31.84100000
 H       9.99300000      15.06200000      31.47800000
 H       9.63600000      13.61700000      31.21900000
 O      20.18000000      15.73200000      27.76600000
 H      21.02700000      15.57900000      27.19300000
 H      19.78100000      16.43500000      27.26700000
 O      19.18700000       7.27000000      26.42400000
 H      19.59600000       6.88100000      25.66400000
 H      18.97600000       8.15700000      26.09600000
 O      12.58900000      13.85900000      22.37400000
 H      12.35900000      13.33600000      23.21300000
 H      13.09000000      13.19300000      21.91700000
 O      12.04800000       9.89000000      34.02300000
 H      12.91600000       9.68600000      34.43000000
 H      11.59800000       9.01400000      34.13900000
 O      20.32900000      11.17200000      31.97800000
 H      20.46000000      10.22800000      31.69100000
 H      20.98500000      11.59200000      31.42900000
 O      15.73200000      18.81600000      35.44600000
 H      15.84500000      19.77900000      35.19700000
 H      15.96000000      18.44900000      34.56900000
 O      15.69700000      12.07200000      28.44700000
 H      16.16400000      11.99800000      29.27000000
 H      15.24600000      12.92700000      28.57400000
 O      14.71000000      16.19500000      21.81900000
 H      13.85400000      15.64700000      21.86400000
 H      14.72100000      16.55000000      22.72500000
 O       9.28500000       7.64700000      22.32800000
 H       9.99800000       8.29300000      22.54400000
 H       8.55200000       8.25600000      22.08100000
 O      14.72400000      18.13000000      23.93500000
 H      14.21300000      18.63200000      24.61600000
 H      15.61000000      18.16600000      24.38000000
 O      11.22700000       9.24400000      23.04200000
 H      12.23700000       9.26900000      23.14500000
 H      11.30100000       9.90700000      22.24200000
 O      19.39500000      13.08000000      27.87200000
 H      19.61100000      13.90700000      27.38300000
 H      19.28700000      13.38400000      28.73200000
 O      15.91500000      18.15600000      32.84800000
 H      16.51800000      17.79600000      32.12400000
 H      15.35800000      18.71900000      32.25600000
 O      18.90400000       9.21200000      20.96400000
 H      19.40400000       9.21800000      20.11500000
 H      18.82100000      10.22700000      21.07800000
 O      11.36900000      19.81700000      31.38800000
 H      10.71600000      20.28900000      31.90200000
 H      10.91400000      19.95500000      30.49100000
 O      18.77200000      11.07700000      23.78900000
 H      18.85100000      11.51700000      22.93300000
 H      19.70200000      11.08500000      24.05800000
 O       8.12000000      10.17300000      21.20900000
 H       8.61000000      11.03000000      21.27600000
 H       7.22300000      10.50100000      21.44300000
 O      13.84300000      19.37900000      26.67300000
 H      14.79900000      19.11000000      26.37700000
 H      13.69600000      18.66800000      27.31500000
 O      12.31200000      11.58800000      31.96500000
 H      13.13800000      12.06600000      32.14100000
 H      12.39600000      10.88000000      32.61700000
 O      16.73200000      14.46000000      23.13800000
 H      16.90600000      15.34000000      22.74600000
 H      17.32600000      14.54600000      23.90900000
 O       7.67800000      16.59100000      26.15800000
 H       8.41300000      15.95700000      26.30900000
 H       7.58700000      16.96000000      27.05600000
 O      14.96500000      15.48000000      33.58000000
 H      15.22800000      16.45300000      33.34000000
 H      15.05500000      15.58200000      34.53700000
 O      11.45100000       8.43700000      30.37400000
 H      12.20100000       7.83800000      30.36100000
 H      11.83800000       9.30900000      30.10300000
 O      20.74800000      14.33400000      24.80400000
 H      20.93100000      14.42900000      23.83700000
 H      19.90000000      14.83200000      24.92100000
 C      20.74400000      22.14700000      21.28000000
 C      21.75100000      20.98600000      21.17200000
 C      19.60300000      19.73800000      20.35900000
 H      21.38800000      20.22000000      19.14600000
 H      20.61900000      23.94200000      21.73000000
 O      21.89100000      18.62200000      20.43300000
 O      20.72800000      22.75500000      20.00600000
 O      21.23700000      23.21400000      21.96900000
 C      21.21600000      19.88200000      20.20600000
 O      23.08700000      21.51300000      20.80600000
 H      21.88500000      20.45800000      22.11500000
 O      19.18500000      18.57900000      19.59600000
 O      19.28500000      19.62800000      21.75600000
 H      18.31900000      19.33200000      21.68600000
 H      23.10300000      22.33400000      20.19500000
 H      22.67600000      18.58300000      19.84400000
 O      19.86000000      18.60800000      29.12300000
 H      20.81300000      18.54100000      29.03700000
 H      19.73300000      19.50900000      29.39900000
 O      11.87800000      12.06400000      24.60600000
 H      11.41800000      11.83700000      25.44100000
 H      12.78300000      11.64000000      24.81400000
 O       9.95200000      14.68400000      34.31600000
 H       9.74900000      14.51300000      33.34500000
 H       9.95200000      15.61000000      34.32000000
 O      16.45300000      12.95200000      21.04000000
 H      15.60000000      12.48800000      21.09500000
 H      16.38400000      13.59400000      21.82900000
 O      14.37800000       8.89000000      34.87800000
 H      15.11600000       9.16700000      34.27200000
 H      14.61700000       7.96600000      34.99700000
 O      18.22000000      15.43300000      25.07300000
 H      17.43000000      15.29900000      25.65900000
 H      18.38400000      16.36500000      25.16400000
 O       6.51000000      15.12400000      32.75800000
 H       6.17600000      14.80000000      33.58500000
 H       7.46600000      14.86200000      32.81400000
 O      16.29400000      18.88700000      21.09200000
 H      16.37000000      18.93400000      20.14500000
 H      15.60400000      19.53600000      21.26500000
 O      10.19800000      10.50100000      28.33100000
 H       9.67700000       9.70700000      28.00200000
 H      11.07400000      10.10700000      28.53600000
 O      11.72400000      13.28700000      29.95300000
 H      12.46700000      13.88800000      30.18500000
 H      11.91000000      12.63700000      30.63000000
 O      11.39700000      10.94500000      20.83000000
 H      11.10800000      10.62400000      19.92700000
 H      10.86000000      11.72600000      20.86000000
 O      16.85400000       9.10100000      22.67800000
 H      17.15300000       9.14700000      23.64400000
 H      17.70700000       8.93600000      22.26600000
 O      15.34400000       7.73700000      25.82800000
 H      15.19700000       7.15000000      26.60200000
 H      15.80600000       8.47300000      26.27000000
 O       8.88100000       8.60700000      26.97300000
 H       7.94800000       8.32100000      27.04500000
 H       9.30200000       7.70600000      26.79300000
 O       8.25200000      17.40800000      32.35500000
 H       7.69900000      18.18600000      32.08900000
 H       7.74800000      16.63400000      32.10900000
 O      16.23400000      11.03800000      33.02000000
 H      16.90800000      11.59900000      32.65500000
 H      15.52600000      11.68500000      33.13800000
 O       9.49100000      11.12900000      31.82800000
 H      10.44900000      11.42400000      31.86100000
 H       9.37500000      10.85800000      32.77100000
 O      18.07500000      20.74200000      27.51300000
 H      17.37800000      20.67000000      28.16100000
 H      18.57000000      21.51600000      27.68500000
 O      11.40800000      12.82900000      27.42600000
 H      11.70500000      13.12900000      28.27100000
 H      10.90700000      12.00600000      27.66100000
 O      14.10000000      12.92600000      33.49900000
 H      14.01100000      12.77900000      34.43500000
 H      14.35700000      13.88900000      33.49100000
 O      14.01200000      11.64400000      21.41500000
 H      13.21600000      11.22100000      21.03600000
 H      14.53200000      10.83100000      21.70400000
 O       9.42600000      12.78400000      21.06200000
 H       9.37900000      13.40700000      20.30100000
 H       8.74400000      13.17100000      21.65400000
 O      10.00700000      19.24900000      25.18700000
 H       9.41200000      19.69500000      25.84400000
 H       9.26400000      18.81600000      24.68800000
 O       9.73600000      11.09100000      34.60100000
 H       9.99100000      12.05700000      34.66900000
 H      10.60600000      10.64700000      34.58100000
 O       7.31400000      13.05800000      22.83200000
 H       6.94700000      13.70900000      23.47700000
 H       7.90800000      12.55500000      23.49200000
 O      16.55500000      16.16200000      28.61300000
 H      15.87100000      16.84300000      28.52500000
 H      16.17900000      15.37200000      28.24700000
 O      19.85900000      17.39600000      33.45100000
 H      19.05100000      16.83900000      33.30500000
 H      20.17800000      17.02900000      34.27900000
 O      11.30400000      16.67700000      24.77200000
 H      11.26000000      17.56200000      25.16700000
 H      10.90400000      16.15300000      25.46700000
 O       7.38100000       7.86800000      30.80000000
 H       8.02900000       7.85500000      31.54500000
 H       7.96200000       8.29300000      30.12800000
 O      20.34900000       9.32200000      29.13300000
 H      19.64500000       9.22000000      29.72300000
 H      20.58500000       8.35700000      28.99600000
 O      12.70100000      16.53800000      28.02900000
 H      13.47800000      16.90400000      28.54900000
 H      11.94500000      16.88800000      28.57200000
 O      13.91500000       8.57200000      22.36400000
 H      13.83200000       7.97800000      23.12100000
 H      14.95600000       8.51600000      22.26100000
 O      13.17100000      15.40600000      31.24600000
 H      12.40400000      16.06500000      31.39900000
 H      13.35200000      15.27700000      32.20800000
 O      14.83300000      18.20000000      29.04200000
 H      15.34300000      18.94000000      28.72600000
 H      14.43300000      18.47800000      29.85500000
 O       9.20600000      11.25100000      24.04200000
 H      10.00600000      11.83600000      24.06700000
 H       9.62800000      10.41700000      23.76200000
 O      12.08100000      20.83000000      25.27700000
 H      12.62200000      20.20000000      25.75800000
 H      11.20600000      20.39200000      25.15500000
 O      12.97600000      18.75400000      21.26400000
 H      13.45800000      19.62600000      21.06100000
 H      13.73400000      18.34300000      21.82900000
 O      10.11500000      20.50200000      28.82800000
 H      11.02500000      20.86000000      28.80300000
 H       9.58800000      21.35700000      28.77700000
 O      16.43600000       6.68300000      32.37800000
 H      16.96200000       7.03300000      33.12800000
 H      16.47100000       5.70300000      32.54100000
 O      17.36000000      17.27200000      30.93900000
 H      18.26700000      17.59500000      30.64900000
 H      17.22300000      16.67800000      30.14400000
 O      17.18200000       8.64500000      34.17700000
 H      17.13200000       9.13000000      35.04100000
 H      17.23500000       9.44500000      33.60700000
 O      18.02100000      15.57300000      33.09900000
 H      17.61900000      14.67400000      33.00100000
 H      17.83700000      15.88100000      32.16800000
 O       7.45000000      19.65800000      30.95300000
 H       7.06900000      20.54900000      30.98100000
 H       7.88700000      19.61400000      30.09300000
 O      19.72200000       7.38700000      34.35200000
 H      20.28300000       7.64200000      33.54400000
 H      18.85400000       7.69600000      34.03900000
 O       7.83000000      17.83100000      23.67900000
 H       6.98800000      17.69900000      23.19400000
 H       7.64200000      17.36800000      24.51400000
 O      13.21600000      17.98100000      34.24800000
 H      12.23400000      17.85700000      34.13900000
 H      13.43900000      18.25700000      33.36200000
 O      18.30800000      12.66100000      32.79400000
 H      19.12300000      12.13300000      32.47800000
 H      17.88800000      12.91000000      31.96700000
 O      16.34000000      11.91500000      24.40200000
 H      17.31500000      11.67300000      24.29300000
 H      16.43100000      12.88200000      24.36200000
 O      17.39800000       7.60800000      28.28000000
 H      18.20700000       7.33700000      27.78900000
 H      17.09600000       8.41600000      27.81100000
 O      18.74400000      11.93600000      21.20200000
 H      18.97900000      12.38500000      20.37300000
 H      17.84300000      12.37200000      21.31700000
 O      10.39600000      15.89800000      22.11800000
 H      11.26800000      15.44500000      22.02800000
 H      10.66800000      16.41000000      22.98000000
 O      13.13000000      10.23000000      28.59800000
 H      14.05400000       9.91100000      28.69300000
 H      13.23400000      10.90200000      27.89700000
 O       9.92300000      17.90600000      28.99700000
 H       8.96800000      17.96600000      29.07300000
 H      10.14700000      18.84200000      28.78600000
 O      16.72400000      13.63700000      30.56400000
 H      16.00700000      14.18100000      30.16700000
 H      17.53000000      14.05100000      30.23600000
 O      20.31600000      16.71900000      22.38900000
 H      20.40400000      17.58100000      21.94700000
 H      19.35200000      16.63800000      22.47800000
 O       6.77600000      10.74400000      26.42000000
 H       7.69200000      10.65200000      26.17500000
 H       6.59900000       9.79900000      26.65500000
 O       6.74700000      20.33400000      26.96900000
 H       6.09500000      20.37000000      26.31300000
 H       7.46700000      20.88600000      26.58100000
 O      19.00000000      20.06100000      33.02500000
 H      19.19100000      19.08000000      32.96000000
 H      19.14200000      20.36900000      32.07200000
 O      10.17000000      17.81600000      34.17200000
 H       9.45600000      17.76300000      33.59300000
 H       9.71400000      18.09800000      35.05700000
 O      10.97400000      16.74800000      31.49900000
 H      10.93300000      17.18700000      32.36700000
 H      10.17500000      17.15300000      31.06800000
 O      14.27900000      14.21800000      29.02400000
 H      13.61000000      14.51300000      28.36800000
 H      13.98500000      14.65300000      29.84200000
 O       9.76500000       7.41200000      31.95300000
 H      10.31300000       8.12300000      31.51300000
 H      10.29000000       7.16900000      32.72600000
 O      14.04000000      10.69900000      25.46800000
 H      14.89100000      11.09200000      25.10500000
 H      14.40600000       9.85000000      25.72400000
 O      10.27400000      15.19800000      26.75900000
 H      10.34800000      14.24300000      26.78000000
 H      11.03700000      15.49800000      27.24500000
