358
XYZ file of cluster: frame_9000_23d1b.6d399.4b557 - created by MolEdiTo
 O      14.14100000      29.32000000      18.74900000
 H      13.18900000      29.53200000      18.99200000
 H      14.56700000      29.96000000      19.39100000
 O      19.25100000      34.79700000      27.22800000
 H      19.65700000      34.18100000      27.86800000
 H      19.87100000      34.67000000      26.47500000
 O       9.29700000      30.61100000      23.26100000
 H       8.78400000      29.72300000      23.15400000
 H       9.17800000      30.70900000      24.24100000
 O      14.63800000      33.06400000      19.30400000
 H      15.26800000      32.45500000      19.70200000
 H      14.84600000      33.05300000      18.38400000
 O      14.46000000      21.11200000      21.25100000
 H      15.30500000      21.57900000      21.13000000
 H      13.80800000      21.67200000      20.77300000
 O       8.45100000      23.64500000      15.26600000
 H       8.45800000      23.00600000      16.03000000
 H       8.11600000      24.45400000      15.78700000
 O      12.75100000      22.58900000      19.93600000
 H      11.86800000      22.31400000      19.60600000
 H      12.58000000      23.53100000      20.08700000
 O      13.15900000      31.12500000      23.60200000
 H      12.25800000      31.13600000      23.81700000
 H      13.19300000      30.34100000      22.99400000
 O      19.25700000      30.30600000      15.58300000
 H      19.60400000      30.09300000      16.48400000
 H      18.51300000      30.88900000      15.83300000
 O      10.19000000      21.18900000      18.91900000
 H       9.39800000      21.44300000      18.32400000
 H      10.37500000      20.28500000      18.63100000
 O       9.61500000      29.79000000      20.58700000
 H       9.87300000      30.12700000      21.49100000
 H       8.66300000      29.98000000      20.60600000
 O      12.72500000      25.71100000      16.84700000
 H      11.85700000      25.87500000      17.23500000
 H      12.92000000      24.79200000      17.07900000
 O      20.47700000      22.46800000      26.70400000
 H      20.22100000      23.37100000      26.41500000
 H      21.36500000      22.40600000      26.21400000
 O      12.32800000      25.30700000      20.21400000
 H      11.71100000      26.04200000      20.08600000
 H      12.62300000      25.48200000      21.12400000
 O       7.20300000      25.29400000      26.11300000
 H       6.50100000      25.98500000      25.96200000
 H       6.73500000      24.47500000      25.93500000
 O       7.19400000      30.84400000      26.94900000
 H       7.04000000      31.10400000      27.90000000
 H       6.39600000      30.31400000      26.82200000
 O      13.28100000      25.71800000      22.74100000
 H      13.64500000      26.27200000      23.48900000
 H      12.68300000      25.10700000      23.24000000
 O      20.58300000      25.83000000      16.25000000
 H      20.32100000      26.02700000      15.30500000
 H      19.72400000      25.94400000      16.66200000
 O       6.98100000      25.11000000      13.57900000
 H       7.72300000      25.69600000      13.49900000
 H       7.41800000      24.33200000      13.98000000
 O       8.40200000      34.08100000      24.34400000
 H       9.29700000      33.56000000      24.32700000
 H       8.46500000      34.50400000      23.47600000
 O      17.08700000      32.36900000      26.70900000
 H      16.83100000      33.22300000      26.47600000
 H      17.19900000      31.90300000      25.89800000
 O      20.24600000      25.69200000      20.97300000
 H      20.73300000      26.46700000      20.71400000
 H      19.36700000      25.83300000      20.63500000
 O      16.85600000      22.50000000      20.39900000
 H      17.47200000      22.46100000      19.55900000
 H      16.51100000      23.39300000      20.35700000
 O       9.74000000      24.41700000      26.14500000
 H       9.97300000      24.56600000      27.08200000
 H       8.80100000      24.81800000      26.15600000
 O      17.95500000      29.01100000      13.58000000
 H      18.29000000      29.62300000      14.33300000
 H      18.44300000      29.43800000      12.85800000
 O      12.63600000      21.30300000      28.48000000
 H      13.25800000      22.08500000      28.55800000
 H      12.99100000      20.81000000      27.75500000
 O      16.05700000      26.87100000      23.75000000
 H      17.06900000      26.71400000      23.82100000
 H      15.87900000      26.47500000      24.68700000
 O      15.10400000      28.49600000      13.18000000
 H      16.06000000      28.70100000      13.32400000
 H      14.87600000      28.43000000      14.17700000
 O      20.51400000      33.71600000      20.38800000
 H      20.70500000      34.48900000      19.79100000
 H      21.41200000      33.69700000      20.93600000
 O      11.74800000      28.29100000      24.76500000
 H      11.68600000      28.38900000      25.75600000
 H      10.88300000      27.97800000      24.57800000
 O      17.61600000      26.89100000      20.55200000
 H      16.98500000      27.65400000      20.88100000
 H      17.02800000      26.13200000      20.83500000
 O      19.17300000      26.68000000      13.95400000
 H      18.70400000      25.84100000      13.78300000
 H      18.50500000      27.32700000      13.95700000
 O       9.80200000      24.49000000      18.14500000
 H       9.50500000      23.58400000      17.80700000
 H       9.18400000      25.05700000      17.67100000
 O      12.89800000      25.03400000      26.79900000
 H      12.39400000      24.76300000      25.99600000
 H      12.15300000      25.04600000      27.43400000
 O      15.84400000      34.14500000      14.23700000
 H      15.11500000      34.33800000      13.55200000
 H      16.65100000      33.98400000      13.64700000
 O      14.53000000      34.42600000      24.89900000
 H      14.11400000      35.22000000      24.61600000
 H      15.29100000      34.79200000      25.35200000
 O      20.53200000      30.37700000      22.08500000
 H      19.67700000      30.79800000      22.17700000
 H      20.84100000      30.30800000      23.02600000
 O      17.11500000      24.74400000      14.37000000
 H      16.26600000      24.37300000      14.16100000
 H      16.98200000      25.01700000      15.32300000
 O      20.39700000      22.98700000      16.99800000
 H      20.69800000      23.91000000      16.66200000
 H      20.57100000      23.09200000      17.94200000
 O      16.00400000      29.09800000      25.45500000
 H      16.53300000      29.78600000      24.90100000
 H      15.83700000      28.44900000      24.71400000
 O      14.55300000      27.19000000      15.61300000
 H      13.93800000      26.53200000      16.01400000
 H      15.32400000      27.09000000      16.14700000
 O      11.89300000      30.58800000      19.18200000
 H      11.00600000      30.46200000      19.65100000
 H      11.58000000      30.96300000      18.30800000
 O       8.59900000      28.23700000      16.60800000
 H       8.56300000      28.11700000      15.65800000
 H       9.57100000      28.43200000      16.68100000
 C      20.74400000      22.14700000      21.28000000
 C      21.75100000      20.98600000      21.17200000
 C      19.60300000      19.73800000      20.35900000
 H      21.38800000      20.22000000      19.14600000
 H      20.61900000      23.94200000      21.73000000
 O      21.89100000      18.62200000      20.43300000
 O      20.72800000      22.75500000      20.00600000
 O      21.23700000      23.21400000      21.96900000
 C      21.21600000      19.88200000      20.20600000
 O      23.08700000      21.51300000      20.80600000
 H      21.88500000      20.45800000      22.11500000
 O      19.18500000      18.57900000      19.59600000
 O      19.28500000      19.62800000      21.75600000
 H      18.31900000      19.33200000      21.68600000
 H      23.10300000      22.33400000      20.19500000
 H      22.67600000      18.58300000      19.84400000
 O      21.10400000      27.58200000      26.27600000
 H      21.59300000      28.38100000      26.47400000
 H      20.22400000      27.81600000      26.56400000
 O      15.45000000      25.39300000      26.01300000
 H      15.70200000      24.49600000      25.65700000
 H      14.52900000      25.20300000      26.34600000
 O       6.65600000      29.67200000      19.95600000
 H       7.11600000      30.09000000      19.19700000
 H       6.14400000      30.46300000      20.28700000
 O      12.74600000      33.35700000      26.81100000
 H      13.46700000      33.81000000      26.24900000
 H      13.04700000      32.40700000      26.66900000
 O      10.23500000      29.35600000      27.46000000
 H      10.15900000      28.47300000      27.87500000
 H       9.88400000      29.95600000      28.12000000
 O       7.65200000      25.74800000      16.95100000
 H       6.70100000      25.68300000      17.13600000
 H       7.81900000      26.67900000      17.14100000
 O      14.66000000      21.44000000      24.05300000
 H      13.83900000      21.37300000      24.61000000
 H      14.30600000      21.18500000      23.22100000
 O      12.29300000      32.81300000      20.81800000
 H      12.08500000      31.86000000      20.83400000
 H      13.19000000      32.79800000      20.44100000
 O       6.59100000      23.37300000      20.30400000
 H       7.04900000      22.68800000      20.79300000
 H       6.19700000      22.84900000      19.55300000
 O      14.93300000      22.86100000      28.29200000
 H      15.21600000      22.98900000      27.35400000
 H      14.95700000      23.80800000      28.59000000
 O      14.56900000      23.60200000      13.90700000
 H      13.73700000      23.84100000      14.42000000
 H      14.38100000      22.62100000      13.86100000
 O      17.94900000      23.74700000      22.60500000
 H      17.31500000      23.35700000      21.97000000
 H      18.18000000      22.95000000      23.16500000
 O      20.66700000      30.77400000      13.39500000
 H      21.60200000      30.92200000      13.66500000
 H      20.31300000      30.48900000      14.27900000
 O      16.14600000      22.69600000      25.86900000
 H      15.76800000      22.20500000      25.10900000
 H      17.09700000      22.46600000      25.77200000
 O      15.49700000      28.23300000      28.13400000
 H      15.70100000      28.53100000      27.22100000
 H      16.26700000      28.67900000      28.59700000
 O      12.83900000      30.60000000      15.13200000
 H      13.79700000      30.38800000      15.20800000
 H      12.87100000      31.44700000      14.66200000
 O      18.03700000      32.38400000      16.83900000
 H      18.30200000      32.80200000      17.72200000
 H      17.11400000      32.39500000      16.87400000
 O      10.97900000      31.77600000      16.68500000
 H      11.56500000      31.23800000      16.12700000
 H      10.16300000      31.71400000      16.20500000
 O      11.27700000      34.64200000      22.50700000
 H      11.80900000      34.09900000      21.87700000
 H      11.27800000      34.02100000      23.27500000
 O      16.09300000      31.11200000      20.76800000
 H      15.73200000      31.66700000      21.43300000
 H      16.01500000      30.20500000      21.14100000
 O       7.58600000      32.04900000      21.79800000
 H       7.97500000      32.97600000      21.68600000
 H       8.19500000      31.69500000      22.44700000
 O      20.77400000      31.05800000      19.40500000
 H      20.77200000      30.81400000      20.40700000
 H      20.76800000      32.02100000      19.51200000
 O      12.53800000      21.71400000      16.13500000
 H      11.64300000      21.38300000      15.82700000
 H      12.98000000      21.63900000      15.24500000
 O      18.07500000      20.74200000      27.51300000
 H      17.37800000      20.67000000      28.16100000
 H      18.57000000      21.51600000      27.68500000
 O      15.24800000      32.59900000      23.04000000
 H      14.35600000      32.17100000      23.14300000
 H      15.16600000      33.23300000      23.83300000
 O      15.30300000      32.73600000      16.70200000
 H      15.62900000      32.97500000      15.77800000
 H      15.05800000      31.79600000      16.50600000
 O      20.66200000      20.37300000      16.46200000
 H      20.48500000      21.33800000      16.44000000
 H      19.90300000      20.01700000      16.93800000
 O      12.82100000      32.99700000      13.86400000
 H      11.93400000      33.25100000      13.52400000
 H      13.00100000      33.85600000      14.30300000
 O      15.74300000      24.97000000      20.77100000
 H      15.14500000      25.44700000      20.19200000
 H      15.22500000      24.98700000      21.58200000
 O      14.56200000      26.68000000      19.24800000
 H      14.33900000      27.68400000      19.17300000
 H      13.63400000      26.35400000      19.29900000
 O      18.81300000      27.98000000      27.63500000
 H      18.35400000      27.36300000      28.21300000
 H      18.28500000      28.76400000      27.74100000
 O      17.27200000      31.23900000      24.00900000
 H      18.03400000      31.78400000      23.68100000
 H      16.54300000      31.85700000      23.67000000
 O       8.24000000      25.38900000      20.67300000
 H       8.93000000      24.94500000      20.17400000
 H       7.50400000      24.79700000      20.62100000
 O      13.93200000      23.41500000      17.59100000
 H      13.49100000      22.76000000      16.98800000
 H      13.71700000      23.04600000      18.47100000
 O      19.32800000      29.08600000      18.02800000
 H      19.74800000      29.91900000      18.39000000
 H      19.52200000      28.43600000      18.70200000
 O      18.50200000      25.95100000      18.00500000
 H      17.69200000      25.46900000      17.77500000
 H      18.25500000      26.29200000      18.92400000
 O      11.15400000      28.65300000      16.27500000
 H      11.78800000      29.30500000      15.87000000
 H      11.50700000      27.86100000      15.84400000
 O       6.94300000      33.79500000      15.32500000
 H       7.75900000      34.37600000      15.27900000
 H       7.17400000      33.17100000      14.63300000
 O       7.82300000      28.55300000      22.43400000
 H       8.08600000      27.67700000      22.12500000
 H       6.90100000      28.56900000      22.07400000
 O       8.22600000      22.95600000      23.40700000
 H       8.30500000      22.23100000      22.68400000
 H       8.81700000      23.60000000      22.94300000
 O      18.12700000      21.83400000      17.77100000
 H      18.90300000      22.37800000      17.44900000
 H      17.38800000      22.16700000      17.23100000
 O      12.08100000      20.83000000      25.27700000
 H      12.62200000      20.20000000      25.75800000
 H      11.20600000      20.39200000      25.15500000
 O      18.59700000      26.11200000      23.78900000
 H      19.41000000      26.20400000      23.26500000
 H      18.18700000      25.33500000      23.36600000
 O      10.45800000      27.32200000      20.61000000
 H       9.64900000      26.89000000      20.48800000
 H      10.10000000      28.27100000      20.65500000
 O      18.99700000      32.77900000      22.54000000
 H      19.55700000      33.13700000      21.80200000
 H      18.33200000      33.42300000      22.60500000
 O      10.99500000      33.13900000      24.69200000
 H      10.50300000      32.34800000      25.03100000
 H      11.62800000      33.32800000      25.39900000
 O      15.27000000      28.70200000      21.78700000
 H      14.32100000      28.81400000      22.08200000
 H      15.50300000      27.84300000      22.18500000
 O       8.67100000      31.20200000      15.23000000
 H       8.20500000      30.36400000      15.02300000
 H       8.36900000      31.81400000      14.54700000
 O      12.62100000      28.84300000      22.28600000
 H      12.42300000      28.34800000      23.15500000
 H      12.06300000      28.34000000      21.68000000
 O      13.66100000      30.89900000      26.23300000
 H      13.39500000      31.07700000      25.27600000
 H      14.27100000      30.14300000      26.13100000
 O      11.86600000      23.80000000      24.45500000
 H      11.01000000      23.94800000      24.83500000
 H      11.97600000      22.81500000      24.69700000
 O      10.13500000      20.82800000      15.14100000
 H       9.93600000      19.93400000      14.93200000
 H       9.35300000      21.32600000      14.78600000
 O      17.97800000      33.28100000      19.51000000
 H      18.48600000      33.68000000      20.27000000
 H      17.68300000      32.48300000      19.90700000
 O       9.44200000      27.08200000      24.95200000
 H       8.50000000      27.23800000      24.83200000
 H       9.48200000      26.12700000      25.16300000
 O      10.67500000      34.37300000      17.73900000
 H      10.73800000      33.37500000      17.59400000
 H      11.61700000      34.59200000      17.64200000
 O      12.17900000      27.00900000      14.11400000
 H      13.17500000      27.04600000      13.91500000
 H      12.19900000      26.20500000      14.56500000
 O      18.57900000      21.86300000      24.54800000
 H      19.46500000      22.18700000      24.92600000
 H      18.60400000      20.98000000      24.94500000
 O       9.12700000      34.53800000      27.79900000
 H       8.94800000      34.57100000      26.82900000
 H       8.20400000      34.47300000      28.15500000
 O       6.74700000      20.33400000      26.96900000
 H       6.09500000      20.37000000      26.31300000
 H       7.46700000      20.88600000      26.58100000
 O      19.94400000      33.74700000      15.26000000
 H      19.21600000      33.86100000      14.60000000
 H      19.62500000      32.83200000      15.57900000
 O      17.22600000      28.17300000      16.51000000
 H      17.76700000      27.38900000      16.64000000
 H      17.84800000      28.80200000      16.98900000
 O      15.33300000      30.00000000      16.20100000
 H      16.03100000      29.34000000      16.19500000
 H      14.93500000      29.82700000      17.08300000
 O      16.28100000      24.57100000      17.20400000
 H      15.75200000      25.26300000      17.64900000
 H      15.62600000      23.84600000      17.07700000
 O       7.92000000      21.84700000      17.29800000
 H       7.66400000      20.89900000      16.95000000
 H       7.12200000      22.02100000      17.81900000
 O      13.29600000      34.73900000      17.87900000
 H      13.90600000      34.06000000      17.50300000
 H      13.17200000      34.36600000      18.82400000
 O       8.08600000      30.64600000      17.95400000
 H       8.43900000      31.13600000      17.19300000
 H       8.21000000      29.72700000      17.61200000
 O       8.42300000      21.92100000      25.90100000
 H       8.88700000      22.75700000      26.14400000
 H       8.13900000      22.19300000      24.96200000
 O       8.65300000      21.90200000      21.16700000
 H       8.23700000      20.97600000      21.30700000
 H       9.32800000      21.56200000      20.44900000
 O      11.62100000      24.24000000      14.44700000
 H      11.29000000      24.45000000      13.53600000
 H      10.79900000      23.90300000      14.86600000
 O      20.38100000      24.70800000      25.08900000
 H      20.95100000      25.31600000      24.56100000
 H      19.52800000      25.18900000      24.95400000
 O       9.57300000      31.37600000      25.83200000
 H       9.92300000      30.59400000      26.32700000
 H       8.60600000      31.29800000      26.06400000
