45
XYZ file of cluster: frame_20000_40495.c0969.73811 - created by MolEdiTo
 O       7.30400000      17.75100000      18.04500000
 H       6.34900000      17.87300000      17.88000000
 H       7.76900000      18.18300000      17.29700000
 O       8.96700000      19.48800000      16.43900000
 H       8.93500000      20.43200000      16.13900000
 H       9.93200000      19.35800000      16.29600000
 O      10.62700000      17.74900000      13.60200000
 H      11.23400000      18.08500000      12.90700000
 H      10.88100000      18.24800000      14.40000000
 O       9.47800000      18.77700000      10.38900000
 H       9.77700000      19.56800000      10.01800000
 H       9.23300000      19.13100000      11.22200000
 O      11.52900000      19.86000000      15.71900000
 H      11.50200000      20.68200000      15.29700000
 H      11.29800000      19.96700000      16.69500000
 O       6.48300000      19.26200000      15.21000000
 H       5.58100000      19.55400000      15.72400000
 H       7.12300000      19.95800000      15.58000000
 O      14.54400000      19.72000000      17.40300000
 H      13.72100000      19.18500000      17.58100000
 H      14.25200000      20.67400000      17.47700000
 O      12.28100000      18.87200000      10.13400000
 H      12.45800000      18.06200000      10.81500000
 H      11.29200000      18.82500000      10.07200000
 O      13.60500000      17.70700000      14.51200000
 H      13.04300000      16.92300000      14.70800000
 H      13.03300000      18.38600000      14.97600000
 O       9.73700000      23.43700000      15.66600000
 H      10.08600000      23.74800000      16.55100000
 H       8.90100000      23.91700000      15.44500000
 O      13.19000000      23.21000000      14.15600000
 H      12.76400000      23.96200000      14.64500000
 H      13.38900000      23.54200000      13.26500000
 O      13.17200000      24.41000000      11.68200000
 H      13.83900000      25.02900000      11.44300000
 H      12.76200000      24.10000000      10.86500000
 O      10.08500000      23.03500000      11.85700000
 H      10.79800000      22.99400000      12.53100000
 H       9.26100000      22.85000000      12.33600000
 O       7.28200000      22.84800000      11.05200000
 H       6.69600000      23.55700000      10.85400000
 H       7.82900000      22.96100000      10.24100000
 O       9.85400000      25.62200000      10.82200000
 H       8.98200000      25.78900000      11.28700000
 H       9.84300000      24.62200000      10.96200000
