45
XYZ file of cluster: frame_20000_67c3.45e5c.51284 - created by MolEdiTo
 O       0.97900000      13.13800000      12.93400000
 H       0.56300000      12.38000000      13.34900000
 H       1.73000000      13.17300000      13.51200000
 O       1.00600000       9.83900000      13.76500000
 H       1.13400000       8.86700000      13.68500000
 H       1.97200000      10.02700000      13.86700000
 O       3.21800000      10.14100000       9.94900000
 H       3.16100000       9.22100000      10.30100000
 H       3.89000000      10.58100000      10.49400000
 O       1.73100000      11.25100000       7.89600000
 H       2.19200000      10.99500000       8.76300000
 H       1.35100000      12.13800000       8.07600000
 O       7.27100000       6.64400000      10.31300000
 H       8.06900000       6.14200000      10.69400000
 H       6.87800000       7.30400000      11.02700000
 O       6.34900000      13.28600000      13.52300000
 H       7.26800000      13.37700000      13.21000000
 H       6.35200000      14.00800000      14.16300000
 O       6.51000000      12.34700000       9.76000000
 H       6.14800000      12.96800000      10.40600000
 H       7.13900000      12.98600000       9.33200000
 O       2.97700000       7.70300000      13.36300000
 H       3.16700000       6.72100000      13.38300000
 H       3.35400000       8.03800000      14.24500000
 O       3.49600000      12.47400000      14.35200000
 H       4.40300000      12.64300000      13.99300000
 H       3.81500000      11.90800000      15.11700000
 O       5.38900000      10.86000000      11.99300000
 H       5.77000000      11.16500000      12.80700000
 H       5.81900000      11.33800000      11.22600000
 O       2.47500000       7.43900000      10.42800000
 H       1.55800000       7.27200000      10.41400000
 H       2.62400000       7.35200000      11.40000000
 O       5.45100000      11.37900000       7.03900000
 H       5.32400000      10.39900000       7.13800000
 H       6.10000000      11.66400000       7.70700000
 O       4.42500000       9.01200000       7.58300000
 H       3.80000000       8.31900000       7.36200000
 H       3.95200000       9.50700000       8.23900000
 O       5.67400000       8.22700000      12.23200000
 H       5.67500000       9.20900000      12.07100000
 H       4.84800000       8.25900000      12.67300000
 O       3.85100000      13.73400000       7.64200000
 H       4.53800000      14.27000000       8.13600000
 H       4.28700000      12.79700000       7.47800000
