45
XYZ file of cluster: frame_20000_9cc84.74088.4ab65 - created by MolEdiTo
 O      20.23900000      13.86600000       7.36100000
 H      19.77600000      14.01900000       6.48000000
 H      20.87300000      14.68500000       7.49400000
 O      16.73700000      10.49600000      10.50100000
 H      17.50500000      10.46500000      11.14400000
 H      17.23600000      10.90300000       9.73600000
 O      14.92100000      10.82500000      14.76400000
 H      15.88500000      11.15600000      14.87000000
 H      14.68000000      11.17900000      13.86400000
 O      16.36300000      13.96900000       8.02400000
 H      16.51300000      14.90200000       7.64100000
 H      15.41500000      13.83800000       7.84300000
 O      13.86800000      13.76200000      12.82700000
 H      14.28200000      14.61000000      13.00700000
 H      13.61100000      13.46000000      13.72800000
 O      15.62500000      17.68600000      12.49800000
 H      15.53500000      18.63600000      12.36000000
 H      15.10400000      17.49200000      13.28200000
 O      16.81400000      16.96500000       8.14200000
 H      16.08100000      17.65000000       8.31200000
 H      17.52700000      17.36500000       8.74500000
 O      18.06900000      11.74400000       8.38600000
 H      17.61700000      12.60500000       8.25200000
 H      19.02700000      12.00800000       8.37400000
 O      15.13800000      15.53700000      10.47700000
 H      15.37600000      16.35100000      10.98500000
 H      15.75400000      15.55700000       9.75200000
 O      18.07700000      15.17800000      13.31000000
 H      18.06300000      15.85400000      14.04100000
 H      18.44400000      15.79500000      12.56200000
 O      19.33500000      16.96200000      11.78500000
 H      19.34400000      17.80700000      11.23100000
 H      20.06100000      16.44700000      11.47300000
 O      14.81300000      11.58800000       7.82000000
 H      14.24400000      11.21400000       8.60000000
 H      15.72300000      11.23200000       7.81800000
 O      14.39700000      11.10000000      12.04700000
 H      15.24400000      11.14300000      11.50200000
 H      13.99800000      12.02100000      12.22900000
 O      18.76200000      10.94900000      12.56800000
 H      19.13100000      10.19600000      13.15200000
 H      19.61200000      11.42200000      12.31500000
 O      20.32900000      12.72000000       9.72500000
 H      20.20500000      13.20000000       8.87700000
 H      20.92300000      13.29200000      10.23600000
