45
XYZ file of cluster: frame_20000_9867b.19c9a.9de90 - created by MolEdiTo
 O      13.97300000       8.82300000      16.96000000
 H      14.42700000       9.66900000      16.51100000
 H      14.15300000       8.03400000      16.36300000
 O      15.95800000       9.32400000      19.63800000
 H      16.38500000      10.02900000      20.16000000
 H      16.43300000       8.60000000      19.98000000
 O      14.19700000       2.86800000      16.92500000
 H      14.71500000       2.26600000      16.33000000
 H      14.25100000       3.78100000      16.60500000
 O      13.85800000       5.55700000      16.12900000
 H      13.23100000       4.97100000      15.61500000
 H      14.47200000       5.69300000      15.37300000
 O      17.22600000       4.79500000      16.09600000
 H      16.55100000       4.78000000      15.34700000
 H      17.22400000       5.76200000      16.43900000
 O      18.49400000       8.01600000      14.43900000
 H      18.91500000       7.17400000      14.11800000
 H      17.67800000       8.13600000      13.83700000
 O      15.95600000       5.52400000      19.20800000
 H      16.88000000       5.23000000      18.93600000
 H      15.37400000       5.38100000      18.40500000
 O      17.04000000       7.36900000      16.78000000
 H      17.56300000       7.76500000      16.05400000
 H      16.80900000       8.07900000      17.35000000
 O      14.15000000      11.45900000      18.67900000
 H      14.53000000      10.57900000      18.71400000
 H      14.85500000      11.92000000      18.11900000
 O      19.98500000       7.23400000      18.00400000
 H      20.32400000       7.08300000      17.04700000
 H      19.45100000       8.03600000      17.87100000
 O      20.26900000       5.78000000      15.30800000
 H      20.14700000       5.19700000      16.06900000
 H      20.29800000       5.11100000      14.55900000
 O      19.26800000       9.84100000      16.73500000
 H      19.34000000       9.49500000      15.81400000
 H      19.88500000      10.52100000      16.88800000
 O      17.69800000       3.40700000      18.89600000
 H      17.79700000       3.21900000      17.94300000
 H      18.45100000       4.04500000      19.05800000
 O      15.72300000       8.27800000      13.97400000
 H      15.38000000       9.14100000      14.33500000
 H      14.84300000       7.89400000      13.69600000
 O      20.02700000       4.70400000      18.86300000
 H      20.13400000       5.63500000      18.61500000
 H      20.83900000       4.28300000      19.21800000
