39
XYZ file of cluster: frame_20000_5264d.47493.0 - created by MolEdiTo
 O      10.60700000       8.61200000       6.37600000
 H      10.74600000       7.94600000       5.75900000
 H       9.89000000       9.10700000       5.86300000
 O       7.55900000      11.23600000       1.56500000
 H       8.01700000      12.01600000       1.07500000
 H       8.26700000      10.72300000       2.09500000
 O      11.80000000      12.14000000       6.51300000
 H      11.85200000      11.66900000       5.63300000
 H      12.33800000      12.96500000       6.34700000
 O       9.73700000      10.50100000       2.97800000
 H      10.33300000      11.25500000       2.85200000
 H       9.27000000      10.77800000       3.76800000
 O      10.61400000       8.31800000       1.57400000
 H      10.35000000       9.22700000       1.92200000
 H      11.47300000       8.55800000       1.13500000
 O       8.12700000       7.26700000       1.84000000
 H       8.76000000       8.03300000       1.98500000
 H       8.73300000       6.54200000       2.19000000
 O       8.44200000      10.16200000       5.81800000
 H       8.57500000      10.70300000       6.63600000
 H       7.77200000       9.51200000       6.05200000
 O      13.43400000       6.31900000       7.23900000
 H      13.45700000       7.29600000       7.49500000
 H      13.58800000       6.26400000       6.25400000
 O       7.98900000      14.31900000       3.64600000
 H       7.15300000      13.78000000       3.63100000
 H       8.58500000      13.73100000       4.16100000
 O      13.81600000      14.28300000       6.24300000
 H      14.37800000      13.52600000       5.88900000
 H      14.27200000      15.08000000       5.84100000
 O      11.17000000      12.68800000       2.44300000
 H      12.00900000      12.69400000       1.84400000
 H      10.52100000      13.34500000       2.05100000
 O      13.48900000      13.18600000       0.86000000
 H      14.14100000      12.64000000       1.32900000
 H      13.56900000      12.79400000       0.00000000
 O      13.00600000       9.14300000       7.50100000
 H      12.79700000       9.82000000       8.16600000
 H      12.24900000       9.07300000       6.87300000
