39
XYZ file of cluster: frame_20000_c3180.24a21.c4686 - created by MolEdiTo
 O      17.69800000       3.40700000      18.89600000
 H      17.79700000       3.21900000      17.94300000
 H      18.45100000       4.04500000      19.05800000
 O      19.98500000       7.23400000      18.00400000
 H      20.32400000       7.08300000      17.04700000
 H      19.45100000       8.03600000      17.87100000
 O      20.02700000       4.70400000      18.86300000
 H      20.13400000       5.63500000      18.61500000
 H      20.83900000       4.28300000      19.21800000
 O      19.74300000       4.72100000      23.05900000
 H      19.46400000       5.54400000      23.50600000
 H      20.01600000       4.89500000      22.09300000
 O      18.68700000       7.91700000      22.07500000
 H      19.09800000       7.79100000      21.19900000
 H      19.44800000       7.61200000      22.73700000
 O      17.46000000       9.82500000      24.13400000
 H      17.81300000       8.99600000      23.79800000
 H      16.93700000       9.46600000      24.95500000
 O      24.29300000       6.65200000      17.46000000
 H      24.70900000       6.51900000      18.37800000
 H      24.38600000       7.61900000      17.26700000
 O      23.38600000       4.29600000      20.51700000
 H      22.75600000       4.51600000      21.17500000
 H      24.13500000       4.75600000      20.82500000
 O      23.59400000       9.16300000      18.81800000
 H      22.77900000       8.71200000      19.06000000
 H      23.79800000       9.64900000      19.66200000
 O      23.68200000       3.89700000      17.03500000
 H      24.30700000       3.70500000      17.75600000
 H      23.22100000       4.70500000      17.40800000
 O      22.65500000       7.20600000      22.36100000
 H      23.27700000       7.25000000      23.12800000
 H      22.44100000       8.10100000      22.21900000
 O      24.44400000       8.23700000      24.87000000
 H      24.73300000       9.00800000      25.37200000
 H      23.48500000       8.45600000      24.70100000
 O      23.08700000       9.89600000      22.54700000
 H      23.69600000      10.67000000      22.56900000
 H      22.45200000      10.02000000      23.27900000
