27
XYZ file of cluster: frame_20000_9e0ca.c7104.742f3 - created by MolEdiTo
 O      20.06900000      20.27100000      10.73100000
 H      20.36900000      21.02100000      11.32100000
 H      20.73200000      20.14400000      10.07700000
 O      15.62500000      17.68600000      12.49800000
 H      15.53500000      18.63600000      12.36000000
 H      15.10400000      17.49200000      13.28200000
 O      19.05600000      19.24600000      17.23200000
 H      19.84500000      19.81900000      17.48900000
 H      19.06100000      18.83900000      18.15400000
 O      14.54400000      19.72000000      17.40300000
 H      13.72100000      19.18500000      17.58100000
 H      14.25200000      20.67400000      17.47700000
 O      16.17900000      20.66500000      11.27600000
 H      16.41600000      20.93500000      10.30500000
 H      15.72000000      21.45300000      11.54200000
 O      14.19700000      24.32100000      16.92500000
 H      14.71500000      23.71900000      16.33000000
 H      14.25100000      25.23400000      16.60500000
 O      15.98600000      22.61800000      15.32500000
 H      15.10000000      22.39200000      15.03600000
 H      16.38700000      21.67500000      15.52700000
 O      18.93300000      23.37000000      15.38600000
 H      18.09100000      23.66000000      15.03300000
 H      18.61800000      22.71300000      16.03500000
 O      20.34100000      25.34500000      13.00000000
 H      20.81800000      24.46800000      12.97600000
 H      21.14200000      25.92700000      13.18200000
