67
XYZ file of cluster: frame_20000_65959.47493.1e3e0 - created by MolEdiTo
 O      16.35400000      13.67100000       2.81400000
 H      15.91400000      14.46400000       2.76100000
 H      16.11700000      13.43000000       3.73100000
 O      16.33900000      12.44600000       5.43500000
 H      16.67400000      13.07700000       6.09200000
 H      17.18100000      12.24400000       4.98200000
 O      13.00600000       9.14300000       7.50100000
 H      12.79700000       9.82000000       8.16600000
 H      12.24900000       9.07300000       6.87300000
 O      16.73700000      10.49600000      10.50100000
 H      17.50500000      10.46500000      11.14400000
 H      17.23600000      10.90300000       9.73600000
 O      10.60700000       8.61200000       6.37600000
 H      10.74600000       7.94600000       5.75900000
 H       9.89000000       9.10700000       5.86300000
 O      16.36300000      13.96900000       8.02400000
 H      16.51300000      14.90200000       7.64100000
 H      15.41500000      13.83800000       7.84300000
 O      17.61000000       9.23700000       6.41500000
 H      18.21600000       8.97100000       7.12600000
 H      16.73300000       9.10900000       6.67500000
 O      16.13700000       7.99500000       9.41900000
 H      16.34600000       8.83100000       9.85400000
 H      15.32700000       7.78400000       9.85600000
 O      11.80000000      12.14000000       6.51300000
 H      11.85200000      11.66900000       5.63300000
 H      12.33800000      12.96500000       6.34700000
 O      18.06900000      11.74400000       8.38600000
 H      17.61700000      12.60500000       8.25200000
 H      19.02700000      12.00800000       8.37400000
 C       9.92100000      11.73900000       9.34000000
 C      11.12200000      11.43400000      10.33400000
 C       9.38100000       9.75900000      11.55900000
 H      10.96900000       9.32300000      10.36100000
 H      10.74800000      12.52000000       7.79700000
 O      11.78800000       9.94500000      12.21700000
 O       9.36400000      10.61600000       8.60300000
 O      10.14100000      12.82100000       8.47800000
 C      10.82100000      10.08800000      11.09100000
 O      12.32200000      11.36400000       9.56000000
 H      11.10100000      12.27200000      11.03600000
 O       8.81900000      10.76200000      12.44500000
 O       9.41200000       8.56800000      12.35000000
 H       9.34100000       8.87100000      13.29700000
 H      12.49300000      12.32900000       9.28800000
 H      12.64900000       9.92000000      11.89600000
 O      12.94200000      14.17900000       9.23800000
 H      13.25100000      14.30900000       8.29600000
 H      13.77700000      14.23800000       9.66700000
 O      14.81300000      11.58800000       7.82000000
 H      14.24400000      11.21400000       8.60000000
 H      15.72300000      11.23200000       7.81800000
 O      13.43400000       6.31900000       7.23900000
 H      13.45700000       7.29600000       7.49500000
 H      13.58800000       6.26400000       6.25400000
 O      15.41800000       7.63100000       4.59600000
 H      15.83100000       7.52900000       5.46500000
 H      14.94800000       8.49900000       4.65200000
 O      14.72500000      10.22900000       5.25800000
 H      15.02400000      11.09100000       5.19300000
 H      14.58200000      10.00000000       6.19700000
 O      13.81600000      14.28300000       6.24300000
 H      14.37800000      13.52600000       5.88900000
 H      14.27200000      15.08000000       5.84100000
 O      17.46000000       9.82500000       2.95900000
 H      17.81300000       8.99600000       2.62300000
 H      16.93700000       9.46600000       3.78000000
