33
XYZ file of cluster: frame_20000_d0105.9cf4e.742f3 - created by MolEdiTo
 O      20.06900000      20.27100000      10.73100000
 H      20.36900000      21.02100000      11.32100000
 H      20.73200000      20.14400000      10.07700000
 O      19.05600000      19.24600000      17.23200000
 H      19.84500000      19.81900000      17.48900000
 H      19.06100000      18.83900000      18.15400000
 O      18.07700000      15.17800000      13.31000000
 H      18.06300000      15.85400000      14.04100000
 H      18.44400000      15.79500000      12.56200000
 O      19.33500000      16.96200000      11.78500000
 H      19.34400000      17.80700000      11.23100000
 H      20.06100000      16.44700000      11.47300000
 O      18.37600000      16.81500000      16.24800000
 H      18.67100000      17.65800000      16.64200000
 H      19.11900000      16.20600000      16.33500000
 O      23.32500000      18.45900000      16.62600000
 H      23.83600000      18.47100000      15.68500000
 H      22.35600000      18.43100000      16.39100000
 O      22.75400000      16.46600000      14.23100000
 H      23.32000000      15.92700000      14.83800000
 H      22.58100000      15.77400000      13.53100000
 O      24.86200000      18.24500000      10.96500000
 H      24.67300000      17.33700000      10.66900000
 H      25.82000000      18.32500000      11.14300000
 O      24.47500000      18.56000000      13.67100000
 H      23.73400000      17.92800000      13.86100000
 H      24.57400000      18.51000000      12.67600000
 O      22.78000000      15.14300000      11.01200000
 H      23.65900000      15.18400000      11.38300000
 H      22.21000000      14.68300000      11.70600000
 O      23.85200000      14.63800000      16.18700000
 H      23.30100000      14.66400000      17.00200000
 H      23.51700000      13.79200000      15.78300000
