45
XYZ file of cluster: frame_20000_28451.46860.984e9 - created by MolEdiTo
 O       7.66000000      12.11800000      17.38800000
 H       7.54300000      11.62500000      16.54600000
 H       7.03200000      12.83400000      17.19900000
 O       7.42100000      10.54800000      14.95200000
 H       8.03300000       9.79300000      15.24300000
 H       7.97300000      10.86800000      14.16800000
 O       5.76000000      13.66000000      16.33500000
 H       5.20800000      12.87400000      16.44800000
 H       5.16300000      14.39800000      16.18900000
 O       6.34900000      13.28600000      13.52300000
 H       7.26800000      13.37700000      13.21000000
 H       6.35200000      14.00800000      14.16300000
 O       5.82200000       8.98500000      18.07500000
 H       5.80300000       8.07100000      18.53200000
 H       5.58900000       9.66100000      18.75900000
 O       4.80300000       8.41300000      15.39300000
 H       5.12000000       8.71100000      16.26900000
 H       5.66200000       8.26200000      14.94300000
 O       8.81400000       9.54100000      18.25600000
 H       9.59000000       9.85400000      18.68200000
 H       8.38200000      10.32000000      17.90800000
 O       3.49600000      12.47400000      14.35200000
 H       4.40300000      12.64300000      13.99300000
 H       3.81500000      11.90800000      15.11700000
 O       9.07400000      12.58900000      19.77100000
 H       9.66800000      11.84600000      19.47500000
 H       8.53000000      12.73300000      18.95600000
 O       4.73300000      11.59000000      19.56700000
 H       3.85000000      11.84700000      19.87200000
 H       5.31900000      12.39500000      19.65000000
 O       8.67000000      14.30900000      15.06600000
 H       9.29500000      14.14400000      15.82600000
 H       7.88900000      14.68100000      15.37900000
 O       9.23500000       8.45800000      15.43800000
 H       9.96000000       9.00300000      15.10800000
 H       9.31300000       8.68900000      16.41800000
 O       4.49900000       6.43300000      19.81200000
 H       5.41400000       6.19700000      19.60600000
 H       4.68800000       7.16200000      20.46800000
 O       4.49500000      11.26100000      16.76100000
 H       4.93600000      10.38000000      16.54300000
 H       4.84000000      11.38700000      17.66700000
 O      10.46200000      13.78400000      17.25600000
 H      10.61300000      14.45900000      17.97300000
 H      10.49300000      12.96200000      17.71600000
