30
XYZ file of cluster: frame_20000_2037d.151f3.c5f1 - created by MolEdiTo
 O       4.89800000       2.96800000       6.17000000
 H       4.60700000       3.11800000       7.10300000
 H       5.73300000       3.47300000       6.13900000
 O       9.15700000       6.67400000       5.19000000
 H       8.32100000       6.95300000       5.61300000
 H       9.46600000       6.10000000       5.91600000
 O       7.68900000       4.24100000       1.63400000
 H       8.31900000       4.82600000       1.07300000
 H       7.64800000       3.38500000       1.18100000
 O       3.23000000       6.54400000       6.78900000
 H       2.79700000       5.81900000       6.31900000
 H       3.85000000       6.19200000       7.44500000
 O       9.30200000       2.76900000       4.06500000
 H       8.43500000       2.95600000       4.45600000
 H       9.40500000       3.46700000       3.39300000
 O       5.24000000       2.96800000       2.13000000
 H       5.62200000       2.10400000       2.27300000
 H       5.96200000       3.65200000       2.16200000
 O       2.87300000       2.88700000       3.52200000
 H       3.60100000       2.87300000       2.89700000
 H       3.30900000       2.49900000       4.31600000
 O       8.12700000       7.26700000       1.84000000
 H       8.76000000       8.03300000       1.98500000
 H       8.73300000       6.54200000       2.19000000
 O       4.66400000       5.83600000       3.32800000
 H       3.84700000       6.44800000       3.49800000
 H       4.31600000       4.99900000       3.69000000
 O      10.35800000       1.95900000       6.71700000
 H      10.27600000       1.85600000       5.74000000
 H      10.79100000       2.85700000       6.78000000
