27
XYZ file of cluster: frame_20000_c680d.9cf4e.9c020 - created by MolEdiTo
 O      19.05600000      19.24600000      17.23200000
 H      19.84500000      19.81900000      17.48900000
 H      19.06100000      18.83900000      18.15400000
 O      20.28900000      15.47100000      18.31600000
 H      21.05900000      15.90000000      18.76800000
 H      19.56200000      15.35600000      19.01600000
 O      20.20300000      18.12800000      19.43900000
 H      21.19500000      18.30800000      19.42100000
 H      19.81100000      18.16800000      20.37800000
 O      17.91400000      14.73100000      19.78700000
 H      17.52100000      13.84100000      19.96900000
 H      17.23300000      15.32000000      19.38100000
 O      18.37600000      16.81500000      16.24800000
 H      18.67100000      17.65800000      16.64200000
 H      19.11900000      16.20600000      16.33500000
 O      23.85200000      14.63800000      16.18700000
 H      23.30100000      14.66400000      17.00200000
 H      23.51700000      13.79200000      15.78300000
 O      23.90800000      15.95800000      19.51000000
 H      23.98400000      14.93200000      19.49900000
 H      24.64100000      16.23000000      20.02800000
 O      22.75400000      16.46600000      14.23100000
 H      23.32000000      15.92700000      14.83800000
 H      22.58100000      15.77400000      13.53100000
 O      23.32500000      18.45900000      16.62600000
 H      23.83600000      18.47100000      15.68500000
 H      22.35600000      18.43100000      16.39100000
