42
XYZ file of cluster: frame_20000_9f24c.98d64.8fb5 - created by MolEdiTo
 O      16.35400000      13.67100000       2.81400000
 H      15.91400000      14.46400000       2.76100000
 H      16.11700000      13.43000000       3.73100000
 O      14.24900000      17.23300000       5.96700000
 H      14.76300000      17.68100000       6.74600000
 H      14.81700000      17.49800000       5.16800000
 O      18.27600000      14.91800000       5.43100000
 H      18.36700000      15.81600000       5.95800000
 H      18.36300000      15.26600000       4.49500000
 O      20.23900000      13.86600000       7.36100000
 H      19.77600000      14.01900000       6.48000000
 H      20.87300000      14.68500000       7.49400000
 O      14.22100000      20.39600000       1.50000000
 H      14.11900000      21.15700000       0.88200000
 H      14.70900000      19.71400000       1.02300000
 O      18.02000000      15.93700000       2.35800000
 H      17.28800000      15.40600000       2.64600000
 H      18.24400000      15.74300000       1.38000000
 O      15.02300000      16.08600000       3.44100000
 H      15.60000000      16.87100000       3.71800000
 H      14.17600000      16.54300000       3.11100000
 O      18.34400000      20.16100000       4.47500000
 H      19.05900000      20.83100000       4.29400000
 H      17.73400000      20.80200000       4.95200000
 O      16.82600000      18.94700000       1.57000000
 H      16.67100000      18.34400000       0.77900000
 H      17.44400000      19.61500000       1.24700000
 O      16.00700000      18.55000000       4.09900000
 H      16.88400000      19.00900000       4.48100000
 H      16.03400000      18.90600000       3.18500000
 O      13.81600000      14.28300000       6.24300000
 H      14.37800000      13.52600000       5.88900000
 H      14.27200000      15.08000000       5.84100000
 O      19.99800000      18.04500000       2.16700000
 H      19.22800000      17.49800000       2.14400000
 H      19.80600000      18.71100000       2.84400000
 O      19.13100000      17.80200000       6.20900000
 H      19.17200000      18.56700000       5.57200000
 H      18.82500000      18.28800000       7.04300000
 O      17.70400000      20.62000000       7.45200000
 H      16.83200000      20.70600000       6.96900000
 H      17.36100000      20.64200000       8.34300000
