%chk=cluster_354.chk                                                           
%mem=1GB                                                                       
%nproc=4                                                                       
#b3lyp/6-311++G** scrf=(cpcm,Solvent=Water) nosymm force                       
iop(2/11=1)                                                                    
 Geom=(NoDistance,NoAngle)                                                     
                                                                               
cluster_354                                                                    
                                                                               
0 1                                                                            
 O      10.80500000      20.16100000      14.26700000                          
 H      11.21800000      21.06200000      13.93800000                          
 H      11.52200000      19.59500000      13.86100000                          
 O      11.40500000      18.50300000      18.74800000                          
 H      10.59400000      18.83500000      19.28500000                          
 H      12.07100000      19.26500000      18.92400000                          
 O      17.25600000      20.44300000      16.14600000                          
 H      16.78400000      20.87200000      15.43000000                          
 H      17.28000000      19.49600000      15.88800000                          
 O      13.96300000      19.22200000      16.80200000                          
 H      14.50700000      18.40300000      16.59400000                          
 H      13.19900000      18.82200000      17.28100000                          
 O      14.45800000      23.12800000      18.18400000                          
 H      15.03800000      22.25100000      18.02800000                          
 H      13.60100000      23.02800000      17.83000000                          
 O      11.33400000      22.73900000      17.11000000                          
 H      11.42000000      22.34400000      16.23000000                          
 H      10.44600000      22.47100000      17.45300000                          
 O      13.23500000      22.36700000      20.73900000                          
 H      13.63200000      21.47700000      20.85100000                          
 H      13.81300000      22.86700000      20.14600000                          
 O      17.10300000      23.66300000      20.59900000                          
 H      17.26500000      24.36800000      21.29600000                          
 H      16.35100000      23.12900000      21.07600000                          
 O      16.94700000      25.23900000      18.33000000                          
 H      16.91700000      24.65100000      19.12100000                          
 H      16.13000000      25.03100000      17.79400000                          
 O      12.68000000      23.73200000      13.75700000                          
 H      13.26400000      23.39500000      14.43500000                          
 H      13.13100000      23.48500000      12.87200000                          
 O      15.04400000      22.91500000      15.05400000                          
 H      14.58400000      22.15800000      15.51200000                          
 H      15.53000000      23.33200000      15.82900000                          
 O      10.07500000      23.79600000      19.85000000                          
 H      10.39400000      24.77400000      19.84200000                          
 H      10.81600000      23.16800000      19.93500000                          
                                                                               
