169
XYZ file of cluster: frame_1000_235a5.252d7.6ce75 - created by MolEdiTo
 O       8.53300000       9.47700000      26.91500000
 H       7.91900000       8.74500000      27.18800000
 H       8.41800000       9.54100000      25.99000000
 O      13.44600000      10.68500000      18.66200000
 H      13.41300000      10.76600000      19.61800000
 H      14.41800000      10.51200000      18.47400000
 O      12.21300000       6.19700000      18.47400000
 H      11.34700000       6.48000000      18.00100000
 H      12.78100000       6.92600000      18.38800000
 O      10.68700000       8.90900000      24.68000000
 H      10.64000000       9.63700000      25.32600000
 H       9.70200000       8.97500000      24.26700000
 O      11.52000000       6.17400000      21.37300000
 H      12.02500000       6.31400000      20.54000000
 H      11.83800000       6.83000000      22.01600000
 O       9.54300000      14.00400000      17.51500000
 H      10.52000000      14.17200000      17.30700000
 H       9.52000000      13.05200000      17.53800000
 O      10.54300000      13.42200000      21.30500000
 H      10.81500000      14.17400000      21.85600000
 H       9.97600000      13.85500000      20.69700000
 O       6.42700000      15.99200000      22.70500000
 H       6.68300000      16.22900000      23.72200000
 H       5.79700000      15.31700000      22.83400000
 O      12.27100000       9.60600000      26.38100000
 H      11.96300000       9.51700000      25.48600000
 H      13.08800000       9.20000000      26.36900000
 O       6.01600000       8.57300000      19.86600000
 H       5.99100000       7.62800000      19.77000000
 H       5.03500000       8.80500000      19.81400000
 O      14.43700000      13.73800000      19.08800000
 H      14.12900000      12.97200000      18.49000000
 H      15.42000000      13.85400000      18.72800000
 O       4.75200000      10.91200000      17.30000000
 H       4.56700000      10.93100000      16.35800000
 H       5.67900000      11.24900000      17.24200000
 O       8.32700000      15.04600000      20.03800000
 H       7.58600000      15.58800000      19.76200000
 H       9.05100000      15.59400000      20.40500000
 O       5.36400000       7.48600000      23.39500000
 H       6.12200000       7.94600000      23.08700000
 H       5.73200000       6.69300000      23.82500000
 O      14.95500000      12.38200000      16.72600000
 H      15.89700000      12.40400000      16.94000000
 H      14.78600000      12.94000000      15.88000000
 O       4.68000000      13.95200000      16.85500000
 H       5.21400000      14.03600000      16.04900000
 H       5.37700000      13.66700000      17.46900000
 O       7.65700000       9.69400000      19.75400000
 H       7.11700000       8.86100000      19.62400000
 H       6.98300000      10.27600000      20.18900000
 O      11.95800000      12.26400000      16.50500000
 H      11.32000000      11.51600000      16.28100000
 H      12.69300000      11.79900000      16.86600000
 O       8.76100000       5.91500000      21.69600000
 H       9.74700000       5.87000000      21.47300000
 H       8.50900000       4.91300000      21.72300000
 O      13.75000000       8.78400000      23.87200000
 H      13.48700000       7.84800000      23.60800000
 H      14.07600000       8.66600000      24.76800000
 O      12.18000000      12.76300000      21.86800000
 H      12.69400000      12.06100000      21.33400000
 H      11.27500000      12.93100000      21.44800000
 O      14.90100000      14.39900000      21.85200000
 H      14.45900000      14.15000000      21.00800000
 H      14.12000000      14.54400000      22.44900000
 O      13.34200000       9.23400000      15.55900000
 H      14.19000000       9.65900000      15.44100000
 H      13.20500000       9.21600000      16.50900000
 O      10.46300000      15.92900000      22.53700000
 H      10.03200000      15.55200000      23.29400000
 H       9.94700000      16.75600000      22.52700000
 O       5.78700000       7.85300000      16.25600000
 H       5.85300000       8.63000000      16.85700000
 H       6.74100000       7.86800000      15.83400000
 O      16.05800000      10.79800000      19.97500000
 H      16.64800000      11.35700000      20.58500000
 H      15.73800000      10.02400000      20.43700000
 O       5.64900000       5.91300000      18.69400000
 H       6.37900000       5.24100000      18.53900000
 H       5.59900000       6.32700000      17.75000000
 O      12.18200000      15.63800000      25.19800000
 H      12.95600000      15.28800000      25.73800000
 H      11.42600000      15.49300000      25.81400000
 O      12.09600000       9.47700000      18.67900000
 H      13.02900000       9.24700000      18.88900000
 H      11.77700000       9.90200000      19.51200000
 O      12.13900000       8.47300000      22.88100000
 H      13.12900000       8.57900000      22.98500000
 H      11.58700000       9.13600000      23.30200000
 O      13.45900000       6.58600000      21.93800000
 H      14.07000000       7.29600000      21.59300000
 H      13.84600000       5.66700000      21.71300000
 O      12.17100000      15.21800000      17.24500000
 H      12.72300000      14.44800000      17.27900000
 H      12.14400000      15.38100000      16.27100000
 C      15.71800000      14.57100000      14.31700000
 C      16.03100000      15.83800000      15.20100000
 C      15.78800000      17.14600000      17.38400000
 H      15.71200000      15.09900000      17.21300000
 H      17.58100000      14.55600000      14.32700000
 O      13.93400000      15.94700000      16.42300000
 O      14.67300000      13.96700000      14.32700000
 O      16.87200000      13.90300000      14.00700000
 C      15.36100000      15.91800000      16.61600000
 O      17.43100000      16.24600000      15.23000000
 H      15.50700000      16.50400000      14.58000000
 O      15.12600000      18.17100000      17.50200000
 O      17.06800000      17.05300000      17.93300000
 H      17.53400000      16.42300000      17.31000000
 H      17.62000000      16.88200000      14.52100000
 H      13.41000000      16.26500000      17.09700000
 O      10.17800000       6.13700000      24.59800000
 H       9.91500000       5.93100000      23.70100000
 H      10.52500000       7.03800000      24.58000000
 O       9.71000000      15.31200000      25.21000000
 H       9.53700000      15.09600000      26.13300000
 H       9.42400000      16.23100000      25.10700000
 O      12.86400000      11.63000000      26.03200000
 H      12.17000000      10.99800000      26.41500000
 H      12.27800000      12.28100000      25.54200000
 O      13.18400000       8.09500000      18.38100000
 H      13.73800000       7.57400000      17.76700000
 H      13.76100000       8.35500000      19.11100000
 O       7.71700000       9.47900000      24.36700000
 H       7.77500000       8.58300000      23.88900000
 H       6.89300000       9.93500000      24.04400000
 O      12.28500000       9.92700000      21.33900000
 H      12.59800000       9.17500000      21.89300000
 H      11.31700000      10.06000000      21.55900000
 O      15.77700000       5.33800000      24.14700000
 H      16.36400000       5.71300000      24.81800000
 H      14.90500000       5.19400000      24.63200000
 O      11.52900000      12.31700000      24.43100000
 H      11.95300000      11.62800000      23.93500000
 H      11.93900000      13.10100000      23.99800000
 O       9.94400000      10.47100000      18.19500000
 H      10.67100000      10.71700000      18.79100000
 H       9.28200000       9.99100000      18.75800000
 O       7.92100000       8.57200000      22.59300000
 H       8.46400000       7.90700000      22.15100000
 H       7.25200000       8.73100000      21.90200000
 O      14.10400000       6.34800000      16.34900000
 H      13.41600000       6.24500000      15.58100000
 H      14.93100000       6.80800000      16.00500000
 O      10.62500000      10.52600000      21.69100000
 H      10.93000000      11.41400000      21.84400000
 H       9.68300000      10.62300000      21.94000000
 O       6.85200000      13.00900000      18.87600000
 H       7.08200000      13.69500000      19.51000000
 H       7.67500000      12.83000000      18.45400000
 O       8.24100000       4.82100000      18.69100000
 H       8.97700000       5.30700000      18.97200000
 H       8.10700000       5.05100000      17.78000000
 O      12.33100000       5.91400000      24.42800000
 H      11.49700000       6.17700000      24.04900000
 H      12.82200000       5.57000000      23.64700000
 O      14.67300000      11.88500000      23.19900000
 H      13.78900000      11.79700000      22.77100000
 H      14.55900000      12.45500000      23.96200000
 O      11.58000000      10.22100000      15.73700000
 H      10.89900000      10.72600000      16.26200000
 H      11.29100000       9.25600000      15.79000000
 O       9.71700000       8.43500000      18.27300000
 H      10.63100000       8.75400000      18.31600000
 H       9.35400000       9.02200000      17.55500000
 O      15.54800000      13.60300000      25.35800000
 H      15.31500000      13.21100000      26.26800000
 H      16.46500000      13.65300000      25.31100000
