93
XYZ file of cluster: frame_1000_9b564.9198.c3a80 - created by MolEdiTo
 O      29.30800000       4.61300000      25.89100000
 H      29.87700000       5.41800000      25.59500000
 H      29.99200000       4.20500000      26.54000000
 O      24.00900000       6.52000000      30.81500000
 H      24.42700000       7.23900000      31.36900000
 H      24.16900000       5.65400000      31.30200000
 O      26.84300000       3.90400000      26.94800000
 H      27.58100000       3.98800000      26.26800000
 H      26.17700000       4.55300000      26.67000000
 O      21.06300000       2.08000000      28.88000000
 H      20.20300000       2.25500000      29.37800000
 H      21.37100000       1.18000000      29.11100000
 O      25.62900000       9.72700000      27.13700000
 H      26.58700000       9.98600000      26.93800000
 H      25.57300000       8.79100000      27.08600000
 O      23.22500000       8.82800000      29.68500000
 H      23.59000000       7.84900000      29.80000000
 H      23.20400000       8.84000000      28.69600000
 O      28.81300000      10.05100000      28.97100000
 H      29.22800000       9.33800000      29.45900000
 H      28.65100000       9.49000000      28.13400000
 O      27.89000000       6.83500000      28.06100000
 H      28.57800000       6.34500000      28.48200000
 H      26.99200000       6.66100000      28.47800000
 O      30.65800000       6.32200000      30.18600000
 H      31.50700000       6.45700000      30.67900000
 H      29.98400000       6.38800000      30.92700000
 O      23.82400000      11.07300000      26.38200000
 H      24.13100000      10.15900000      26.43400000
 H      22.84800000      11.01700000      26.58700000
 O      24.52300000       6.10500000      27.70600000
 H      23.66700000       5.85000000      28.03100000
 H      24.84700000       5.93700000      28.66200000
 O      25.74800000       1.92300000      29.58600000
 H      25.96200000       2.65800000      29.02100000
 H      25.02700000       2.26800000      30.19300000
 O      21.80300000       2.50700000      25.90900000
 H      21.71000000       1.90200000      25.16500000
 H      21.27300000       2.13400000      26.61700000
 O      28.73500000       9.28000000      26.67600000
 H      28.84800000       8.33600000      26.86900000
 H      29.35600000       9.34700000      25.97900000
 O      21.96300000       4.26400000      27.90300000
 H      22.47200000       3.65900000      27.31300000
 H      21.97300000       3.66200000      28.67800000
 O      21.32300000      10.51200000      27.33600000
 H      20.83100000      10.34100000      26.48400000
 H      21.59000000       9.65200000      27.72300000
 O      22.43100000       8.57600000      26.96300000
 H      22.28100000       8.69400000      25.94600000
 H      21.60200000       7.96600000      27.16600000
 O      26.02500000      10.22400000      29.81400000
 H      25.63400000       9.54100000      29.24000000
 H      26.90200000      10.42300000      29.36100000
 O      27.89400000       7.57000000      35.17900000
 H      28.11500000       6.63600000      35.28900000
 H      27.86200000       7.86500000      36.10800000
 O      25.85000000       4.66600000      33.26300000
 H      26.84700000       4.54000000      33.21800000
 H      25.60000000       4.47000000      34.18600000
 O      25.63600000       9.46600000      34.10900000
 H      25.56500000      10.38100000      34.31000000
 H      25.79600000       9.63800000      33.11100000
 O      27.99200000      10.48800000      36.53900000
 H      28.36600000      10.81400000      35.62300000
 H      27.19400000      10.04600000      36.10700000
 O      24.96900000       5.25600000      36.09800000
 H      24.79300000       6.19000000      35.84300000
 H      24.01900000       5.18500000      36.46400000
 O      29.09000000       4.62300000      35.91000000
 H      28.23100000       4.50400000      36.39900000
 H      29.56400000       5.35500000      36.38000000
 O      28.50300000       3.44600000      33.03100000
 H      28.41000000       2.54900000      32.67500000
 H      28.54000000       3.36500000      34.06100000
 O      25.03700000       7.82800000      34.85800000
 H      25.45900000       8.66200000      34.66500000
 H      25.85700000       7.24700000      34.89100000
 O      29.69900000       9.31800000      32.42300000
 H      29.98500000       8.63500000      33.08100000
 H      29.09500000       9.88200000      32.95200000
 O      20.86900000       9.53300000      37.06900000
 H      21.35400000       8.99100000      36.48500000
 H      20.06700000       8.95800000      37.33700000
 O      20.78800000       9.50900000      32.50800000
 H      21.58400000       9.63800000      31.92300000
 H      21.11400000       8.85100000      33.14600000
 O      24.77100000       9.98400000      37.26700000
 H      25.05500000      10.91600000      37.23800000
 H      24.07500000       9.96300000      36.56700000
 O      22.48700000       9.15800000      35.24900000
 H      23.28300000       8.51900000      35.16400000
 H      22.61800000       9.94500000      34.66600000
