117
XYZ file of cluster: frame_1000_f7b.4d0be.4c5d9 - created by MolEdiTo
 O       9.54300000      14.00400000      17.51500000
 H      10.52000000      14.17200000      17.30700000
 H       9.52000000      13.05200000      17.53800000
 O       3.74800000      18.20900000      11.05100000
 H       3.69300000      17.30700000      11.30900000
 H       3.49800000      18.21700000      10.12400000
 O       4.22700000      12.84000000      13.31100000
 H       4.53900000      13.33600000      12.53000000
 H       3.55900000      13.41100000      13.73800000
 O      10.54300000      13.42200000      21.30500000
 H      10.81500000      14.17400000      21.85600000
 H       9.97600000      13.85500000      20.69700000
 O       8.55400000      11.50300000      15.27600000
 H       8.32800000      11.07200000      14.43400000
 H       8.75000000      12.41300000      15.00700000
 O       6.76900000      12.72500000       9.82200000
 H       7.24800000      12.35300000      10.64600000
 H       6.93800000      13.68500000       9.83300000
 O       1.25700000      18.27100000      12.69200000
 H       1.78100000      18.28800000      11.86100000
 H       1.11000000      17.25700000      12.68000000
 O       1.53100000      13.84900000      15.66400000
 H       1.19900000      14.10500000      16.49100000
 H       2.55600000      13.82500000      15.76500000
 O       8.34100000      19.79600000      21.04500000
 H       7.66800000      19.03800000      20.90900000
 H       8.01700000      20.44800000      20.44100000
 O       8.80400000      16.80500000      14.75700000
 H       9.54900000      17.37300000      15.06200000
 H       8.37300000      17.40800000      14.11200000
 O       5.14400000      20.10200000      18.31300000
 H       5.72500000      19.68100000      17.60200000
 H       4.77200000      19.29700000      18.80000000
 O       4.75200000      10.91200000      17.30000000
 H       4.56700000      10.93100000      16.35800000
 H       5.67900000      11.24900000      17.24200000
 O       6.73000000      14.74600000      11.95800000
 H       5.95300000      15.26900000      11.92500000
 H       7.45100000      15.36200000      12.26800000
 O       7.10300000      18.82800000      16.43800000
 H       7.81700000      19.47200000      16.51400000
 H       7.60800000      17.95200000      16.53900000
 O       2.04500000      12.89800000      10.97500000
 H       2.51400000      13.03700000      10.14000000
 H       2.53300000      12.08400000      11.35600000
 O       9.78800000      13.88000000      14.10700000
 H       9.64400000      14.77700000      14.54600000
 H      10.71400000      13.68200000      14.33800000
 O       8.32700000      15.04600000      20.03800000
 H       7.58600000      15.58800000      19.76200000
 H       9.05100000      15.59400000      20.40500000
 O       0.90700000      17.63000000      20.49800000
 H       0.12500000      18.27100000      20.59400000
 H       0.49500000      16.77900000      20.15900000
 O       4.68000000      13.95200000      16.85500000
 H       5.21400000      14.03600000      16.04900000
 H       5.37700000      13.66700000      17.46900000
 O       8.69400000      12.01000000      11.97700000
 H       8.90700000      12.83200000      12.44100000
 H       9.35300000      11.88300000      11.20300000
 O       6.87900000      14.21800000      14.81300000
 H       7.68300000      14.45900000      15.37400000
 H       7.13700000      14.42400000      13.85300000
 O       1.33200000      15.65000000      11.68600000
 H       1.40200000      15.77100000      10.68900000
 H       2.19100000      15.07600000      11.87000000
 O       5.31800000      10.35100000      12.92800000
 H       6.21900000      10.13700000      13.17300000
 H       5.13500000      11.29500000      13.31900000
 O       3.71900000      19.62400000      20.96500000
 H       3.73400000      19.45400000      21.91400000
 H       4.12200000      18.87700000      20.49800000
 O       3.71600000      17.64600000      19.14500000
 H       2.80600000      17.67900000      19.57300000
 H       3.64200000      17.11300000      18.37500000
 O       8.45900000      16.72000000      17.97900000
 H       9.04800000      16.84900000      18.73300000
 H       8.92900000      16.01000000      17.47500000
 O      10.37800000      20.55100000      10.27300000
 H      11.37500000      20.62400000      10.15400000
 H      10.24600000      20.72700000      11.27100000
 O       1.74900000      20.77500000      19.63900000
 H       1.25300000      20.07700000      19.16000000
 H       2.62200000      20.35500000      19.95300000
 O       6.29300000      18.14300000      20.87100000
 H       6.24900000      17.37200000      21.55600000
 H       6.11500000      17.80100000      20.01000000
 O       3.41800000      17.86200000      15.32600000
 H       3.56400000      16.93300000      15.03300000
 H       3.97900000      18.36300000      14.69900000
 O       9.94400000      10.47100000      18.19500000
 H      10.67100000      10.71700000      18.79100000
 H       9.28200000       9.99100000      18.75800000
 O      10.02900000      17.71800000      20.30300000
 H      10.11300000      17.37400000      21.23100000
 H       9.74900000      18.62900000      20.39100000
 O       9.70600000      20.20500000      16.25900000
 H      10.42000000      19.53900000      16.10500000
 H      10.01000000      20.73200000      17.08200000
 O       7.96400000      18.54000000      12.89400000
 H       7.41800000      19.36400000      12.95700000
 H       8.77900000      18.73100000      12.42700000
 O       6.85200000      13.00900000      18.87600000
 H       7.08200000      13.69500000      19.51000000
 H       7.67500000      12.83000000      18.45400000
 O       4.14700000      14.82200000      10.69200000
 H       4.44500000      13.99900000      10.35700000
 H       3.68500000      15.33000000       9.99500000
 O       4.82600000      10.65000000      21.60700000
 H       3.83100000      10.35200000      21.59200000
 H       5.10000000      10.32300000      20.76700000
 O       5.93200000      20.74100000      11.70400000
 H       5.81500000      21.33300000      10.89700000
 H       5.52600000      19.88600000      11.41000000
 O       1.86400000      20.56900000      13.69800000
 H       1.61700000      19.61400000      13.73800000
 H       2.62900000      20.50500000      14.32900000
