105
XYZ file of cluster: frame_1000_51674.75394.a04bb - created by MolEdiTo
 O      12.52200000      23.53400000      20.61700000
 H      12.58700000      24.50600000      20.61900000
 H      12.19800000      23.38200000      21.52900000
 O      11.38700000      17.21800000      30.23100000
 H      11.90600000      16.61500000      30.70400000
 H      10.69500000      17.36800000      30.93600000
 O      13.00100000      22.10600000      29.27700000
 H      12.06300000      22.23300000      29.41200000
 H      13.50600000      22.82200000      29.68500000
 O      20.38800000      16.43600000      25.44700000
 H      21.18700000      16.06100000      24.88800000
 H      20.18100000      15.85400000      26.19500000
 O      15.38100000      17.25500000      24.27200000
 H      14.94900000      16.61700000      23.67400000
 H      15.71300000      16.52000000      24.88500000
 O      16.74100000      24.62000000      28.03800000
 H      16.12300000      24.27400000      27.34700000
 H      16.49700000      25.53400000      28.16300000
 O      14.43700000      22.86000000      23.35700000
 H      14.62400000      22.41000000      22.52200000
 H      13.75100000      22.37100000      23.79100000
 O      11.55700000      19.82000000      28.06300000
 H      12.26600000      19.99400000      28.70200000
 H      10.86500000      19.19800000      28.48900000
 O      20.32900000      17.25100000      22.16900000
 H      19.60800000      17.09800000      22.79100000
 H      20.24100000      18.17200000      21.81900000
 O      20.33500000      23.62800000      30.47100000
 H      20.87600000      22.92200000      30.87500000
 H      19.98200000      23.19900000      29.63300000
 O      17.50100000      22.35600000      22.94400000
 H      16.98000000      22.11600000      23.78800000
 H      16.90100000      22.17200000      22.20300000
 O      12.74400000      21.83700000      25.14300000
 H      12.29100000      22.62400000      25.50600000
 H      12.49200000      21.06800000      25.70100000
 O      10.51600000      18.22000000      25.99200000
 H      11.26100000      18.33700000      26.61600000
 H      10.82500000      18.67500000      25.19800000
 O      20.45100000      19.25900000      28.30600000
 H      21.04800000      18.52600000      28.56400000
 H      20.09100000      18.96800000      27.38500000
 O      12.85900000      18.09000000      24.20300000
 H      12.38400000      17.55200000      23.52700000
 H      13.31800000      17.37000000      24.72100000
 O      18.52300000      20.30900000      26.04600000
 H      17.57000000      20.21800000      25.88000000
 H      19.03700000      20.27400000      25.20400000
 O      12.74900000      25.38800000      27.94100000
 H      13.09000000      25.78500000      27.16700000
 H      11.93500000      24.91600000      27.66800000
 O      13.73700000      21.15200000      26.65900000
 H      12.82800000      21.46700000      26.34500000
 H      13.50700000      21.03800000      27.59400000
 O      19.83100000      26.67200000      26.44100000
 H      19.56600000      25.88300000      26.99000000
 H      18.90800000      27.21600000      26.22200000
 O      19.53900000      22.17900000      28.46300000
 H      19.61300000      21.52600000      27.80600000
 H      18.99200000      22.84100000      27.97000000
 O      16.90200000      26.96000000      22.56700000
 H      17.57400000      26.25400000      22.82300000
 H      17.25600000      27.33900000      21.69800000
 O      17.60600000      18.86400000      22.66900000
 H      17.15900000      19.12200000      23.54000000
 H      17.04800000      18.23500000      22.18500000
 O      13.33900000      18.40100000      21.99100000
 H      12.45000000      18.32300000      21.70500000
 H      13.29500000      18.34500000      23.00900000
 O      17.57000000      15.92900000      29.99400000
 H      16.96900000      16.54200000      30.42900000
 H      16.98500000      15.20100000      29.78500000
 O      11.54800000      23.17200000      29.73700000
 H      11.98300000      24.05700000      29.70500000
 H      10.59100000      23.30700000      29.82000000
 O      20.42700000      20.99500000      23.04000000
 H      20.84400000      20.36000000      22.39300000
 H      19.62300000      21.21200000      22.62000000
 O      19.16400000      24.52800000      23.17700000
 H      18.51300000      23.85400000      22.96600000
 H      19.29800000      24.22300000      24.18300000
 O      16.48600000      22.40700000      30.48600000
 H      17.35600000      21.93300000      30.68600000
 H      16.74300000      22.69400000      29.61300000
 O      15.84400000      19.66100000      25.06200000
 H      15.47600000      18.73300000      25.05700000
 H      15.10500000      20.09300000      25.58000000
 O      20.31200000      23.46900000      25.63200000
 H      21.19400000      23.13300000      25.42700000
 H      20.38600000      24.42000000      25.45200000
 O      21.48500000      26.56900000      29.83800000
 H      20.57500000      26.21800000      29.99100000
 H      21.94400000      25.89500000      30.31700000
 O      15.31800000      23.39900000      25.92400000
 H      15.38300000      23.34000000      24.92600000
 H      14.72100000      22.72300000      26.16400000
 O      17.71300000      16.09000000      25.43900000
 H      17.79300000      15.50300000      26.26300000
 H      18.50400000      16.63500000      25.42400000
 O      13.43200000      26.46000000      29.98400000
 H      12.66400000      26.05300000      29.47000000
 H      13.79600000      25.63800000      30.36300000
 O      11.95000000      15.60500000      27.74300000
 H      11.42300000      16.23900000      28.40400000
 H      11.16100000      15.26800000      27.27900000
