1083
XYZ file of cluster: frame_5000_871.738f8.c384b - created by MolEdiTo
 O       5.36600000      32.98800000      34.63600000
 H       5.80000000      32.09800000      34.67900000
 H       4.45100000      32.69500000      34.44800000
 O       2.94900000      35.75700000      35.36400000
 H       1.97700000      35.80100000      35.20800000
 H       3.15700000      36.72900000      35.31700000
 O      23.59900000      27.84300000      34.30700000
 H      23.93800000      28.24800000      35.11400000
 H      22.65500000      27.82700000      34.51900000
 O      11.42700000      26.84500000      37.82900000
 H      10.66800000      27.49400000      37.67600000
 H      11.61500000      26.94100000      38.73700000
 O       1.48300000      29.01100000      38.45700000
 H       2.33500000      29.40200000      38.15100000
 H       0.89700000      29.48100000      37.79000000
 O      32.95900000      25.38900000      40.51900000
 H      32.21400000      24.78400000      40.24700000
 H      32.43300000      26.07400000      40.91700000
 O       9.55100000      20.26000000      35.25600000
 H       9.39200000      21.18400000      35.52300000
 H       8.94200000      20.10200000      34.51300000
 O      15.80800000      27.46600000      37.84900000
 H      16.05000000      28.42300000      37.75500000
 H      16.12500000      27.16300000      36.95600000
 O      22.78400000      31.85600000      38.61500000
 H      22.84200000      32.10100000      37.70800000
 H      23.70400000      31.70900000      38.90500000
 O       7.94100000      23.21900000      38.06700000
 H       7.80500000      24.19000000      38.12300000
 H       7.11600000      22.88500000      38.47100000
 O      29.46500000      29.63100000      38.39400000
 H      29.65700000      28.69100000      38.36400000
 H      28.47200000      29.52200000      38.46700000
 O      34.58600000      35.25400000      38.21800000
 H      35.57300000      35.10700000      38.13300000
 H      34.61700000      36.20000000      38.53900000
 O      26.28800000      34.43900000      35.37300000
 H      26.24900000      35.17500000      36.06000000
 H      26.84700000      33.78900000      35.80900000
 O       2.53900000      27.41300000      34.16200000
 H       2.27500000      28.29000000      33.89800000
 H       1.82700000      27.08700000      34.74300000
 O      16.52300000      36.24800000      33.72400000
 H      16.16500000      36.35600000      34.65400000
 H      16.39400000      37.13300000      33.40200000
 O       7.69600000      28.16300000      40.70300000
 H       6.84800000      27.75100000      40.44500000
 H       7.51000000      29.10400000      40.60100000
 O      30.19800000      27.01600000      38.34600000
 H      29.35600000      26.80200000      38.84700000
 H      29.96400000      26.49500000      37.59300000
 O       4.39000000      23.76500000      36.89900000
 H       4.02200000      24.63100000      37.19300000
 H       4.97900000      23.55300000      37.70900000
 O      11.00500000      38.60400000      40.75500000
 H      11.61100000      38.05700000      41.32700000
 H      10.14300000      38.22900000      41.01600000
 O      30.81700000      24.18800000      39.28000000
 H      29.84800000      24.03500000      39.12400000
 H      31.17000000      23.48000000      38.74000000
 O      16.55900000      26.37400000      40.56400000
 H      15.78700000      26.56200000      41.15300000
 H      16.08700000      26.62000000      39.70700000
 O       7.07700000      25.70200000      38.13900000
 H       7.19300000      26.24000000      37.37200000
 H       6.30800000      26.06500000      38.56300000
 O      21.98000000      37.83100000      35.87600000
 H      21.91300000      37.01700000      36.47200000
 H      21.89900000      37.39200000      34.97400000
 O      26.45600000      30.61500000      37.83900000
 H      26.57200000      31.30800000      37.16600000
 H      25.79400000      31.03700000      38.40400000
 O      21.73000000      24.39400000      36.63700000
 H      21.97100000      25.06100000      35.93000000
 H      22.39900000      23.76700000      36.53700000
 O       3.34000000      21.33800000      40.05200000
 H       3.02700000      20.97400000      40.91200000
 H       2.70300000      20.92200000      39.46100000
 O      35.13000000      40.37200000      34.86200000
 H      35.12400000      39.59800000      35.47800000
 H      36.12600000      40.45000000      34.80000000
 O      22.90800000      28.91300000      37.14400000
 H      23.40600000      28.60500000      37.90700000
 H      21.99000000      28.65800000      37.44900000
 O      26.77100000      23.62900000      37.72000000
 H      27.49400000      23.14600000      38.11500000
 H      27.24300000      24.23900000      37.12800000
 O      16.92900000      25.94400000      35.64500000
 H      17.19200000      25.00400000      35.66800000
 H      16.28700000      25.91700000      34.85300000
 O      10.82100000      23.68400000      34.45200000
 H      11.32900000      23.72700000      33.62200000
 H      11.44500000      24.21800000      35.02000000
 O      31.30400000      22.07100000      34.85200000
 H      31.18800000      21.28400000      34.30300000
 H      31.27100000      21.66900000      35.74300000
 O      37.31200000      30.16200000      35.12500000
 H      36.92000000      29.49900000      35.69600000
 H      36.80200000      30.97800000      35.41900000
 O      11.46100000      37.66700000      38.33400000
 H      11.13600000      37.95500000      39.19600000
 H      12.44000000      37.82600000      38.51500000
 O      24.77000000      34.11900000      40.62100000
 H      25.00100000      34.50800000      41.47800000
 H      23.87400000      34.57300000      40.51100000
 O       1.01000000      23.57600000      34.29300000
 H       2.02500000      23.79700000      34.24800000
 H       1.11200000      23.07100000      35.18800000
 O      16.49700000      33.01100000      34.20400000
 H      15.76100000      33.47800000      33.81200000
 H      16.19900000      32.94200000      35.11000000
 O       1.47800000      30.76900000      40.80600000
 H       1.14800000      31.16500000      40.00600000
 H       1.20400000      31.40200000      41.50000000
 O      19.57400000      38.87200000      35.52700000
 H      19.00600000      39.14400000      36.23700000
 H      20.43600000      38.62800000      35.98900000
 O      20.42300000      27.79700000      38.19900000
 H      20.00800000      27.47200000      37.40200000
 H      19.73900000      28.44000000      38.52300000
 O       9.04700000      33.23300000      36.74400000
 H       9.69400000      33.92400000      37.08600000
 H       8.64700000      33.04700000      37.58300000
 O      31.58300000      21.26300000      39.70000000
 H      32.01600000      20.39100000      39.61000000
 H      31.97100000      21.58800000      40.55400000
 O      36.74000000      33.19000000      36.61000000
 H      37.34400000      32.80400000      37.27800000
 H      36.97500000      34.11400000      36.69700000
 O      26.36700000      38.78400000      36.89200000
 H      26.39100000      39.57200000      37.49900000
 H      25.53000000      39.03100000      36.41500000
 O       1.17300000      38.27500000      39.39500000
 H       0.60000000      39.01700000      39.55800000
 H       1.75400000      38.66800000      38.75100000
 O      20.99600000      26.44300000      34.39400000
 H      20.41300000      27.02100000      34.93200000
 H      20.45400000      26.37700000      33.56800000
 O      12.93500000      21.44900000      34.93900000
 H      12.82700000      20.76000000      35.66400000
 H      12.00900000      21.54700000      34.65400000
 O      25.84500000      36.35900000      37.33100000
 H      26.08600000      37.29100000      37.14700000
 H      25.03600000      36.50200000      37.86200000
 O      31.77900000      26.32500000      35.02400000
 H      31.86500000      26.38900000      34.03400000
 H      32.29000000      25.42600000      35.09500000
 O       0.98800000      25.84100000      40.67900000
 H       1.70700000      25.11600000      40.86700000
 H       0.22900000      25.29500000      40.97600000
 O      38.31200000      32.43400000      38.58400000
 H      39.27000000      32.24800000      38.51100000
 H      38.25600000      32.91200000      39.41300000
 O      28.92900000      23.55100000      35.44500000
 H      29.11400000      24.52700000      35.43700000
 H      29.77100000      23.24400000      34.99200000
 O      23.54500000      33.66400000      35.75300000
 H      23.43400000      32.76400000      35.34400000
 H      24.52900000      33.71500000      35.61100000
 O      14.85600000      39.16700000      37.53400000
 H      14.83800000      38.57400000      38.27600000
 H      14.96000000      38.53800000      36.79700000
 O      26.50700000      28.77100000      35.80100000
 H      26.43300000      29.45100000      36.44700000
 H      26.25300000      27.97800000      36.32900000
 O      22.18500000      34.94900000      40.40000000
 H      21.66400000      34.87600000      41.23400000
 H      21.68100000      34.27800000      39.86500000
 O      39.37500000      29.64900000      36.66400000
 H      38.79000000      30.00100000      35.91900000
 H      39.22900000      28.71500000      36.68200000
 O      12.81700000      23.26500000      37.82000000
 H      13.30400000      23.07100000      38.64200000
 H      11.95700000      22.85900000      38.01700000
 O      13.63600000      31.28900000      34.75700000
 H      13.02300000      30.71900000      35.23800000
 H      13.14700000      32.15300000      34.86400000
 O      29.10100000      26.29200000      35.73600000
 H      28.64200000      26.93800000      35.20200000
 H      30.01300000      26.36000000      35.40000000
 O      12.86400000      37.15000000      34.11400000
 H      12.45800000      37.18200000      33.25100000
 H      12.05500000      37.05200000      34.71300000
 O      39.01400000      36.55600000      38.98800000
 H      39.92700000      36.96800000      39.10100000
 H      38.57000000      37.01500000      39.71800000
 O      12.65800000      27.46400000      40.26200000
 H      13.23800000      27.00300000      40.89800000
 H      11.94300000      27.81100000      40.82700000
 O       9.81200000      37.36600000      35.13000000
 H       9.64600000      37.79000000      34.26900000
 H       8.91500000      37.18300000      35.46800000
 O      15.10400000      22.23900000      36.11500000
 H      14.19000000      22.08300000      35.74100000
 H      14.87900000      22.74200000      36.86200000
 O      25.06200000      31.56000000      39.83600000
 H      25.11800000      32.51300000      40.06900000
 H      25.78700000      31.27900000      40.43700000
 O      15.89700000      33.01500000      37.12100000
 H      16.11700000      33.95700000      37.39100000
 H      15.02800000      32.94900000      37.59300000
 O      38.16200000      37.71300000      35.04200000
 H      37.97200000      38.30500000      34.25400000
 H      39.02200000      38.07300000      35.34200000
 O      20.59500000      23.33600000      38.86000000
 H      20.27200000      24.08600000      39.33800000
 H      20.90400000      23.71500000      38.00300000
 O       4.53800000      38.41600000      35.36700000
 H       5.23400000      39.04500000      35.67300000
 H       4.69600000      38.48500000      34.43800000
 O       3.12900000      33.52500000      37.38700000
 H       3.00100000      34.12900000      36.62000000
 H       3.77100000      34.03800000      37.88500000
 O      18.29500000      29.12800000      39.51400000
 H      18.87000000      29.97600000      39.53200000
 H      17.67500000      29.35900000      38.85200000
 O      34.49300000      26.00300000      38.13500000
 H      33.97300000      25.63700000      38.86500000
 H      33.87900000      26.52500000      37.62100000
 O      17.87500000      23.24200000      35.92700000
 H      18.71100000      22.89900000      36.27800000
 H      17.20200000      22.65500000      36.36900000
 O      23.94200000      40.02200000      35.87200000
 H      23.28100000      39.37700000      35.67400000
 H      23.53900000      40.42100000      36.70200000
 O      26.59500000      34.34900000      38.66500000
 H      26.29800000      35.18100000      38.26400000
 H      25.91400000      34.21100000      39.29400000
 O      33.20400000      24.14100000      34.84100000
 H      32.50500000      23.52500000      34.50900000
 H      33.97500000      23.77500000      34.32600000
 O      31.29200000      37.70700000      35.99700000
 H      31.31600000      36.96200000      35.35900000
 H      31.33400000      37.18400000      36.83800000
 O      28.90100000      21.86600000      39.21900000
 H      28.51200000      21.04300000      38.93800000
 H      29.86600000      21.54300000      39.26300000
 O      28.27400000      35.62300000      33.88400000
 H      28.61300000      34.71700000      33.66900000
 H      27.63100000      35.35000000      34.60400000
 O      33.66000000      35.50500000      35.55600000
 H      32.91600000      34.83300000      35.43000000
 H      34.17500000      35.03100000      36.26300000
 O      22.00800000      35.38400000      36.89500000
 H      21.28900000      34.76800000      37.13200000
 H      22.63500000      34.81800000      36.42800000
 O      37.09300000      26.07500000      39.21900000
 H      36.21300000      25.77500000      38.89400000
 H      36.86400000      26.26900000      40.17000000
 O       3.56300000      30.46200000      36.99900000
 H       3.47300000      31.46400000      36.97900000
 H       3.53200000      30.26300000      36.06000000
 O      18.21600000      35.53300000      40.13100000
 H      18.79200000      36.32800000      40.39400000
 H      17.53200000      35.57900000      40.81800000
 O       2.83500000      39.28300000      37.39200000
 H       3.43100000      38.66300000      36.90000000
 H       3.34800000      40.11500000      37.23900000
 O      28.44600000      38.91900000      40.16400000
 H      27.85300000      38.33800000      39.67500000
 H      29.20400000      38.29000000      40.18700000
 O       8.69700000      28.03600000      38.07400000
 H       8.43700000      27.70400000      37.21100000
 H       8.56100000      27.32600000      38.69300000
 O       5.98900000      32.88100000      40.06000000
 H       5.84200000      32.17900000      39.43500000
 H       5.62400000      33.65500000      39.56200000
 O      30.44100000      37.20500000      40.51900000
 H      31.01500000      36.93300000      39.78500000
 H      30.87000000      36.75200000      41.27400000
 O      36.41600000      27.73400000      36.77400000
 H      36.63900000      27.07800000      37.45500000
 H      35.49200000      27.64000000      36.67900000
 O      14.17300000      36.83900000      39.20300000
 H      14.61500000      36.85700000      40.11400000
 H      14.59600000      36.05200000      38.81900000
 O      18.11800000      32.20400000      40.62000000
 H      18.45000000      32.92300000      40.12700000
 H      17.19400000      32.50600000      40.76100000
 O      32.34600000      28.14700000      38.98800000
 H      32.65700000      28.52600000      38.17700000
 H      31.62800000      27.50500000      38.62500000
 O       5.22500000      27.23800000      39.93800000
 H       4.92400000      26.70300000      40.72300000
 H       4.76100000      28.07900000      40.14500000
 O      28.15200000      27.02600000      39.83600000
 H      27.22500000      26.90000000      39.77800000
 H      28.22000000      26.75900000      40.75800000
 O      13.83600000      32.38100000      38.56900000
 H      14.33400000      32.59300000      39.36400000
 H      13.75900000      31.39700000      38.64200000
 O      33.53200000      28.11700000      36.36400000
 H      32.73900000      27.56000000      36.09200000
 H      33.55700000      28.75800000      35.61900000
 O      35.62700000      33.36300000      40.61200000
 H      35.46400000      32.85300000      41.46100000
 H      36.64300000      33.52500000      40.77600000
 O      36.91900000      21.60400000      35.52500000
 H      37.75400000      21.74400000      35.06000000
 H      36.82000000      20.63300000      35.24800000
 O      10.28700000      35.65800000      37.02800000
 H      10.12000000      36.05200000      36.10700000
 H      10.51400000      36.46400000      37.53400000
 O      12.76000000      25.12300000      35.87600000
 H      12.36100000      25.78600000      36.45300000
 H      12.83700000      24.35800000      36.46700000
 O      27.32900000      21.08300000      34.91700000
 H      27.80500000      21.11900000      34.06800000
 H      27.68700000      21.94600000      35.26100000
 O      31.51100000      34.01500000      35.75000000
 H      30.74600000      33.38200000      35.65500000
 H      31.89300000      33.63300000      36.58200000
 O      34.63200000      31.09400000      38.95900000
 H      33.85400000      31.49000000      38.53400000
 H      35.12100000      31.94400000      39.22100000
 O       7.33300000      37.27000000      36.07100000
 H       6.74100000      36.46400000      36.25200000
 H       7.44600000      37.62200000      37.01400000
 O       9.23000000      40.69700000      38.75700000
 H       9.93900000      40.40300000      38.04200000
 H       8.68800000      39.91300000      38.75500000
 O      34.88300000      38.12600000      36.19000000
 H      34.22200000      37.46700000      36.05100000
 H      35.65200000      37.60200000      36.46800000
 O      20.83000000      26.64800000      40.53800000
 H      20.97900000      27.47000000      41.09100000
 H      20.70500000      27.01800000      39.66600000
 O      32.11500000      40.44700000      36.34900000
 H      32.13700000      40.60700000      35.40300000
 H      31.63800000      39.57900000      36.33800000
 O      39.48300000      26.96400000      38.12900000
 H      40.13300000      27.40500000      38.71400000
 H      38.80000000      26.73700000      38.78900000
 O      37.26500000      35.78800000      36.98200000
 H      37.64600000      36.46800000      36.38400000
 H      37.66500000      36.07700000      37.85100000
 O      34.09700000      39.44200000      38.75300000
 H      33.95600000      39.60200000      37.83900000
 H      33.51000000      40.19200000      39.13100000
 O      24.78600000      23.98100000      35.80100000
 H      24.55400000      23.03600000      35.46300000
 H      25.39100000      23.77100000      36.51400000
 O      18.10600000      39.72300000      37.80200000
 H      17.18300000      39.41200000      37.82300000
 H      18.00200000      40.71300000      37.92700000
 O       2.37100000      22.03200000      36.26000000
 H       3.18800000      22.49000000      36.60000000
 H       2.75300000      21.43800000      35.62500000
 O      10.18200000      22.15600000      38.54100000
 H      10.17900000      22.41000000      39.48000000
 H       9.26400000      22.42800000      38.29400000
 O       7.29500000      38.06900000      38.76200000
 H       7.53400000      37.92700000      39.70800000
 H       6.44700000      38.50100000      38.97300000
 O      23.04600000      31.02900000      35.31500000
 H      22.13400000      30.94000000      34.93200000
 H      23.00900000      30.31400000      36.02000000
 O      24.63900000      23.00900000      39.49300000
 H      25.53500000      23.21800000      39.15500000
 H      24.78300000      22.76300000      40.38000000
 O       5.66100000      30.60600000      38.50800000
 H       4.77700000      30.48200000      38.04100000
 H       5.30700000      30.18300000      39.40500000
 O      25.60200000      26.73700000      37.17700000
 H      24.99200000      26.07700000      36.81000000
 H      25.43600000      26.67900000      38.13200000
 O       5.79200000      40.41200000      38.96400000
 H       6.31500000      41.17100000      38.99200000
 H       4.89200000      40.77300000      39.29800000
 O      34.09300000      22.60400000      37.04800000
 H      33.59200000      21.76000000      37.14500000
 H      33.54800000      23.01200000      36.33700000
 O       2.16400000      35.97300000      40.41400000
 H       3.09300000      36.08500000      40.16500000
 H       1.71000000      36.76100000      40.13200000
 O       7.59700000      27.14100000      35.84800000
 H       6.70200000      27.21900000      35.36300000
 H       8.18800000      27.20400000      35.02600000
 O      31.21900000      33.79000000      39.53300000
 H      30.30900000      33.37400000      39.51600000
 H      31.20700000      33.94900000      40.52900000
 O      35.46000000      37.46700000      39.64900000
 H      34.95200000      38.27900000      39.43300000
 H      36.09900000      37.70300000      40.30600000
 O      28.00500000      32.70600000      36.67600000
 H      28.83800000      32.31300000      36.83300000
 H      27.84800000      33.16800000      37.52400000
 O      19.87600000      32.70800000      36.44300000
 H      20.16100000      33.12700000      35.61500000
 H      19.21900000      32.06600000      36.13500000
 O       5.23300000      35.03100000      38.53900000
 H       5.27400000      35.26400000      37.58600000
 H       5.01400000      35.91800000      38.91000000
 O      16.00300000      29.87600000      35.08800000
 H      15.37800000      30.54400000      34.81000000
 H      15.79000000      29.10300000      34.50200000
 O      30.33800000      31.69100000      36.90000000
 H      30.65600000      31.12500000      36.17600000
 H      30.21000000      30.97100000      37.57500000
 O      38.98800000      23.61400000      37.30500000
 H      38.10500000      23.94000000      37.04800000
 H      39.29100000      24.25200000      37.93200000
 O      18.22500000      20.15600000      40.53200000
 H      18.48400000      21.03300000      40.99100000
 H      18.15700000      19.61900000      41.31700000
 O      36.36800000      24.34500000      36.07000000
 H      35.39400000      24.19800000      36.14800000
 H      36.63100000      23.43800000      35.82700000
 O      18.44400000      35.67600000      36.29600000
 H      18.60900000      36.42600000      35.70300000
 H      19.04700000      34.99600000      36.01500000
 O      13.19100000      34.69100000      37.12200000
 H      12.28300000      34.99400000      37.36700000
 H      13.24500000      33.85700000      37.63500000
 O      13.09600000      40.00000000      34.64100000
 H      13.09400000      40.39400000      33.72700000
 H      13.47500000      39.13000000      34.52700000
 O       8.70600000      34.56300000      40.36600000
 H       9.18100000      33.85500000      39.94100000
 H       7.81500000      34.25800000      40.37300000
 O      23.54800000      36.66100000      38.72100000
 H      22.95400000      36.43600000      37.95700000
 H      23.04500000      36.12500000      39.43700000
 O      25.42200000      26.85400000      39.81600000
 H      25.25400000      27.53300000      40.45800000
 H      25.46500000      26.09600000      40.42200000
 O      19.33100000      21.37900000      37.16600000
 H      19.60000000      21.74900000      37.97100000
 H      19.98300000      20.70400000      36.91300000
 O      24.09600000      20.92900000      37.93000000
 H      24.27900000      21.91200000      38.10800000
 H      24.44200000      20.59900000      38.80400000
 O      34.36400000      32.16500000      35.43600000
 H      33.90600000      32.12800000      36.27000000
 H      35.22100000      32.52400000      35.72200000
 O      28.70000000      39.03100000      35.07400000
 H      27.97700000      38.79600000      35.63200000
 H      29.46300000      38.72200000      35.56900000
 O      20.34900000      30.91100000      39.41200000
 H      21.23800000      31.20700000      38.98300000
 H      20.19100000      31.69900000      39.95600000
 O      36.37300000      21.42900000      38.31800000
 H      36.66500000      21.60700000      37.40600000
 H      35.72900000      22.13100000      38.45600000
 O      37.47400000      26.27800000      34.67400000
 H      37.27700000      27.05400000      35.23300000
 H      36.96700000      25.59600000      35.19500000
 O       7.69700000      30.84600000      40.72100000
 H       7.17900000      31.67600000      40.65800000
 H       8.27900000      30.96000000      39.89700000
 O       8.16000000      30.64300000      38.03600000
 H       7.18200000      30.71800000      38.01000000
 H       8.23800000      29.67900000      37.92200000
 O      12.28100000      20.23500000      37.31400000
 H      11.61600000      20.89900000      37.57400000
 H      12.66300000      20.09300000      38.17300000
 O       5.54500000      22.99600000      39.20400000
 H       4.87700000      22.47500000      39.72600000
 H       5.66200000      23.66300000      39.88800000
 O       5.49900000      35.40600000      35.97700000
 H       4.58700000      35.45300000      35.58200000
 H       5.77800000      34.54000000      35.69400000
 O      36.88500000      40.01900000      38.62000000
 H      36.57800000      40.29100000      39.51100000
 H      36.10200000      39.54300000      38.28000000
 O       5.69200000      40.57400000      36.27200000
 H       5.77800000      40.52500000      37.22300000
 H       6.59000000      40.83300000      35.99500000
 O      16.40700000      35.53500000      38.11900000
 H      16.79000000      35.65700000      37.24700000
 H      17.19600000      35.49800000      38.66900000
 O      40.11000000      39.84200000      35.46500000
 H      40.62300000      39.83600000      36.18400000
 H      40.09100000      40.77200000      35.19400000
 O      28.56100000      32.87700000      39.62700000
 H      28.16300000      32.16200000      40.21600000
 H      27.76400000      33.30800000      39.36700000
 O      14.90600000      36.99000000      35.88100000
 H      14.19800000      36.95200000      35.17000000
 H      14.55500000      36.29000000      36.43000000
 O      19.09400000      27.75100000      35.83200000
 H      18.63100000      28.62200000      35.84300000
 H      18.36200000      27.16500000      35.93200000
 O      40.38800000      21.21300000      37.89700000
 H      41.05200000      21.63600000      37.32700000
 H      39.64900000      21.85400000      37.79500000
 O      12.43100000      28.87800000      35.73300000
 H      11.81300000      29.38800000      36.33900000
 H      12.75700000      28.21600000      36.35000000
 O       5.95900000      23.60900000      34.44900000
 H       5.34000000      23.54600000      35.27000000
 H       6.79000000      23.18600000      34.95400000
 O      33.13000000      33.02400000      37.89600000
 H      33.63200000      33.84100000      38.21000000
 H      32.36900000      33.16300000      38.61300000
 O      13.35800000      29.56100000      38.76000000
 H      13.08500000      28.74800000      39.27200000
 H      13.62400000      29.21800000      37.86800000
 O      20.15600000      33.85500000      39.18800000
 H      19.55700000      34.65700000      39.34300000
 H      19.84000000      33.48300000      38.36400000
 O       0.98100000      32.12100000      38.13400000
 H       1.73800000      32.71000000      37.91500000
 H       1.06300000      31.45800000      37.43500000
 O      13.77700000      22.84600000      40.59700000
 H      13.59100000      21.90500000      40.64000000
 H      14.63200000      22.88000000      41.11100000
 O      37.63800000      29.97400000      40.15900000
 H      38.02700000      29.92400000      39.29300000
 H      36.71000000      30.01600000      39.98600000
 O       5.02300000      27.61800000      35.08600000
 H       4.18100000      27.66100000      34.52400000
 H       4.60100000      27.34600000      35.94700000
 O      10.03100000      33.54800000      34.03000000
 H       9.52700000      32.82500000      33.59800000
 H       9.53600000      33.58600000      34.94100000
 O       8.21700000      22.67500000      35.50800000
 H       8.21000000      23.00400000      36.41700000
 H       8.97300000      23.08400000      35.07400000
 O      10.39200000      30.70000000      36.68600000
 H       9.96600000      31.59800000      36.40300000
 H       9.80300000      30.60400000      37.51800000
 O      24.65000000      40.33900000      40.05900000
 H      25.49800000      40.38300000      39.64300000
 H      24.18900000      41.00700000      39.45000000
 O      11.14400000      39.99400000      36.69100000
 H      11.38400000      39.11500000      37.10500000
 H      11.87100000      39.94000000      35.97400000
 O       2.98100000      26.46100000      37.20300000
 H       2.68400000      26.92100000      37.99200000
 H       2.20000000      26.04400000      36.82500000
 O      12.80100000      33.73400000      34.63500000
 H      12.85800000      34.31900000      35.44600000
 H      11.87300000      33.67500000      34.45600000
 O      17.28000000      40.41600000      34.40400000
 H      18.23300000      40.32100000      34.39000000
 H      17.22900000      41.16600000      35.02900000
 O      11.36200000      33.52700000      39.54700000
 H      12.07400000      32.92200000      39.35100000
 H      11.84200000      34.37500000      39.70300000
 O       4.75800000      37.01200000      40.27700000
 H       5.19100000      36.50800000      41.06800000
 H       4.33500000      37.75600000      40.74900000
 O       4.25300000      29.79700000      40.48500000
 H       4.46600000      29.58600000      41.41400000
 H       3.33200000      30.21100000      40.58400000
 O      16.44900000      30.17300000      37.78000000
 H      16.36700000      31.15700000      37.90100000
 H      16.35400000      30.11800000      36.79700000
 O      40.69100000      26.28700000      35.86900000
 H      40.25200000      26.46400000      36.71000000
 H      40.19500000      25.55300000      35.48200000
 O      40.37500000      35.53100000      34.98400000
 H      39.57900000      35.19400000      35.46300000
 H      39.99600000      35.90300000      34.18500000
 O      31.64400000      36.10500000      38.29900000
 H      31.24500000      35.25900000      38.66300000
 H      32.58700000      35.89900000      38.30600000
 O      30.94300000      30.23900000      40.70300000
 H      31.81600000      29.89300000      40.52300000
 H      30.45800000      30.08300000      39.84400000
 O      15.68100000      28.02300000      46.72300000
 H      16.23700000      28.43600000      47.43300000
 H      16.20200000      27.15700000      46.62500000
 O       7.41300000      34.44800000      45.41400000
 H       7.09900000      33.93100000      46.17600000
 H       8.38000000      34.32200000      45.52700000
 O       0.87400000      24.07600000      45.05000000
 H       0.17500000      24.08200000      44.33100000
 H       1.12300000      23.12800000      44.91800000
 O      31.69800000      27.51000000      47.61600000
 H      32.24000000      27.77700000      46.81700000
 H      30.76600000      27.68800000      47.27900000
 O      24.93600000      28.63500000      46.47500000
 H      24.31900000      27.89700000      46.35200000
 H      24.23300000      29.32400000      46.65600000
 O      20.14200000      26.95600000      48.27100000
 H      20.19000000      27.69000000      47.57100000
 H      19.92100000      26.17400000      47.74800000
 O      10.18500000      33.61500000      46.11300000
 H      10.38800000      33.87200000      47.04800000
 H      10.75900000      32.78000000      46.06900000
 O      35.27200000      32.65500000      44.73900000
 H      34.35200000      32.89000000      44.67200000
 H      35.47400000      32.81500000      45.66000000
 O      22.16700000      23.67300000      45.83000000
 H      22.27800000      24.29400000      45.06100000
 H      22.61100000      22.88300000      45.42300000
 O      33.42100000      39.68300000      44.13400000
 H      33.39700000      40.13200000      44.98300000
 H      32.49600000      39.23800000      44.15800000
 O      33.25600000      28.79700000      45.25100000
 H      33.45800000      28.88100000      44.26500000
 H      34.14000000      28.65200000      45.55300000
 O      32.48200000      24.95400000      46.94800000
 H      32.27100000      25.87700000      47.18100000
 H      31.61000000      24.59400000      46.86100000
 O      13.27100000      39.91300000      46.43100000
 H      12.32300000      39.78200000      46.32200000
 H      13.52700000      39.13600000      46.96700000
 O      21.74300000      21.75100000      42.49200000
 H      20.83400000      22.03600000      42.75000000
 H      21.67200000      22.03800000      41.52000000
 O      23.37400000      30.82500000      46.83900000
 H      23.67800000      31.23000000      47.72400000
 H      23.26200000      31.72600000      46.37100000
 O       3.00600000      34.65000000      45.47700000
 H       3.44400000      34.38400000      44.63500000
 H       2.55400000      33.79200000      45.67300000
 O      37.66100000      40.31800000      44.88500000
 H      37.30200000      39.39600000      45.03500000
 H      37.19900000      40.57100000      44.09900000
 O      19.60900000      21.61200000      46.14400000
 H      20.17200000      21.75600000      46.94800000
 H      20.02100000      20.76000000      45.81900000
 O      35.90400000      40.41100000      42.68800000
 H      35.81300000      41.37800000      42.61600000
 H      35.01800000      40.31000000      43.13400000
 O       2.66300000      30.56100000      48.35200000
 H       2.71000000      31.10600000      49.18600000
 H       2.31400000      29.71900000      48.72200000
 O      16.42800000      30.08300000      44.60600000
 H      17.05500000      29.42400000      44.23000000
 H      15.86400000      29.43900000      45.11600000
 O      37.03300000      20.78200000      47.03900000
 H      37.53300000      20.08600000      46.58800000
 H      37.75500000      21.40500000      47.29800000
 O       1.31100000      33.43800000      42.86500000
 H       2.17000000      33.33600000      43.17400000
 H       1.37700000      34.25800000      42.25800000
 O       6.30000000      38.50900000      44.56000000
 H       6.64200000      39.42800000      44.55300000
 H       5.37300000      38.66000000      44.31000000
 O       7.43900000      27.53000000      45.13300000
 H       7.21100000      27.72300000      44.21000000
 H       6.53100000      27.68500000      45.55200000
 O      19.49900000      24.51400000      47.14400000
 H      20.29400000      24.09600000      46.81900000
 H      19.49600000      24.20500000      48.10000000
 O       4.73300000      24.46400000      46.54600000
 H       4.28000000      23.65100000      46.22200000
 H       4.30200000      25.14100000      46.00000000
 O      31.33600000      34.81100000      43.80900000
 H      31.70900000      34.43200000      44.58800000
 H      32.18700000      34.91800000      43.27500000
 O      35.70800000      26.53000000      47.37400000
 H      34.96300000      26.10800000      47.82300000
 H      36.40300000      26.29900000      48.08400000
 O      28.71800000      37.56200000      46.36000000
 H      28.05400000      37.91300000      46.97600000
 H      28.20300000      37.47500000      45.57400000
 O      24.98800000      28.40400000      43.75300000
 H      25.11200000      28.22700000      44.73200000
 H      24.56400000      29.29200000      43.77200000
 O      11.81600000      21.45100000      46.56900000
 H      10.93100000      21.17900000      46.93700000
 H      11.60500000      21.41500000      45.63000000
 O       4.64800000      36.67700000      46.53200000
 H       4.24200000      35.83700000      46.23400000
 H       4.86400000      37.04500000      45.58400000
 O      38.33200000      30.85200000      48.56400000
 H      38.97100000      31.53200000      48.33600000
 H      38.86400000      30.02800000      48.39100000
 O      33.14700000      38.51300000      47.95400000
 H      33.49100000      39.26800000      47.46400000
 H      33.38700000      38.75900000      48.84300000
 O      24.88900000      37.76500000      42.50200000
 H      24.47600000      37.40300000      41.68800000
 H      24.67600000      38.76400000      42.30600000
 O      18.95500000      22.40300000      43.32200000
 H      18.97600000      23.33700000      43.13200000
 H      18.98800000      22.35500000      44.29600000
 O      39.51900000      32.43500000      46.26400000
 H      40.34400000      32.08800000      45.85700000
 H      38.88300000      31.83000000      45.85000000
 O      16.93000000      38.95400000      44.27600000
 H      17.40500000      39.67200000      43.83400000
 H      16.90000000      39.27100000      45.22700000
 O       4.78700000      28.19700000      44.48500000
 H       4.55800000      28.65300000      45.35600000
 H       4.28200000      27.38900000      44.54000000
 O       0.79700000      40.64600000      47.68900000
 H       0.09000000      40.23700000      47.15900000
 H       0.43600000      40.73300000      48.54300000
 O      40.29600000      25.15100000      47.54300000
 H      40.52900000      24.74800000      46.68200000
 H      41.15800000      25.71600000      47.62800000
 O      34.24500000      21.07200000      47.30800000
 H      34.00900000      20.45600000      46.56100000
 H      35.20500000      21.08100000      47.06800000
 O      32.93300000      33.87600000      45.69700000
 H      33.02000000      33.10800000      46.28400000
 H      32.76200000      34.56900000      46.38400000
 O       4.52600000      29.02500000      47.22900000
 H       4.20000000      29.86500000      47.61700000
 H       5.33300000      28.88900000      47.76800000
 O       9.18500000      30.05500000      44.30700000
 H       8.41100000      30.42500000      43.80300000
 H       9.38500000      29.27900000      43.73200000
 O      40.18000000      28.79300000      48.55800000
 H      40.01300000      28.83900000      47.55100000
 H      40.98400000      28.25800000      48.55100000
 O      38.97300000      24.18000000      43.07800000
 H      38.35700000      23.59900000      42.54800000
 H      38.26900000      24.62600000      43.59700000
 O       2.38300000      31.76400000      45.82400000
 H       2.52600000      31.24200000      46.64500000
 H       2.92600000      31.26400000      45.19500000
 O       8.38200000      37.46800000      42.76900000
 H       7.55100000      37.72000000      43.17700000
 H       8.25000000      36.47800000      42.65300000
 O      19.96300000      28.53200000      45.46300000
 H      19.17100000      28.47600000      44.91400000
 H      20.66200000      28.47200000      44.68300000
 O      10.72500000      25.15800000      43.91800000
 H      10.68000000      24.34000000      43.35300000
 H      11.51700000      24.89400000      44.40500000
 O      25.42100000      24.95500000      43.31900000
 H      25.25500000      24.91000000      44.29800000
 H      26.01200000      24.14600000      43.26400000
 O       7.32000000      22.85000000      46.44300000
 H       7.74400000      23.55900000      45.93400000
 H       6.41000000      23.06900000      46.53800000
 O       4.12100000      33.23300000      43.40000000
 H       4.33300000      32.47300000      43.99300000
 H       4.70800000      32.97400000      42.62200000
 O      16.68900000      35.87900000      46.82800000
 H      16.01300000      35.37700000      47.31800000
 H      17.47300000      35.30400000      46.94500000
 O      32.47800000      31.11200000      47.06600000
 H      33.21800000      31.16200000      47.70400000
 H      32.74600000      30.44900000      46.46300000
 O      39.96700000      28.89800000      45.70200000
 H      40.60600000      28.77600000      45.04000000
 H      39.25500000      29.41900000      45.31500000
 O       7.16400000      31.22600000      46.01600000
 H       7.54900000      31.78800000      46.73900000
 H       8.00400000      30.89600000      45.56000000
 O       3.00900000      23.95200000      42.42300000
 H       3.07200000      22.95700000      42.52700000
 H       3.90800000      24.23000000      42.62600000
 O      15.33000000      37.25700000      43.19800000
 H      15.99500000      37.95500000      43.52000000
 H      15.76900000      36.43300000      43.52800000
 O      38.01500000      30.67800000      44.83900000
 H      37.81600000      30.90500000      43.90300000
 H      37.05900000      30.50000000      45.17500000
 O      20.45400000      37.77000000      48.29700000
 H      21.07900000      37.69400000      49.03900000
 H      20.91100000      38.43800000      47.73100000
 O      12.66600000      37.17500000      43.94700000
 H      12.68300000      36.17400000      43.88600000
 H      13.57600000      37.32500000      43.56600000
 O      31.23500000      21.90600000      48.20100000
 H      31.65100000      21.58600000      47.33600000
 H      30.63600000      22.57500000      47.80000000
 O      21.47900000      29.12000000      43.10500000
 H      22.26500000      29.62200000      43.24100000
 H      21.11200000      29.49800000      42.25800000
 O      13.79200000      35.12000000      47.54300000
 H      14.01200000      34.55500000      48.32800000
 H      13.54700000      34.41000000      46.92100000
 O      36.39600000      32.90500000      47.44400000
 H      35.67800000      32.48900000      47.98200000
 H      37.19100000      32.41200000      47.72500000
 O      17.96200000      28.19600000      43.37400000
 H      18.17200000      28.49900000      42.43500000
 H      17.50900000      27.35400000      43.05900000
 O       4.68600000      30.95900000      44.67600000
 H       5.22600000      31.29200000      45.38800000
 H       5.15000000      30.14000000      44.39200000
 O      16.24000000      32.70100000      45.11500000
 H      15.25700000      32.70600000      45.43200000
 H      16.41000000      31.74100000      45.24400000
 O      20.60200000      30.73600000      47.11300000
 H      20.35000000      29.91700000      46.53600000
 H      21.56700000      30.77000000      46.93000000
 O      24.50800000      38.23000000      47.38100000
 H      24.52800000      37.80200000      46.51600000
 H      25.45200000      38.51800000      47.49100000
 O      39.36800000      39.66400000      42.51300000
 H      38.84100000      38.86600000      42.71700000
 H      38.74700000      40.38100000      42.70400000
 O      32.65800000      21.66300000      43.66900000
 H      33.31200000      22.37400000      43.54900000
 H      33.14400000      21.10400000      44.28700000
 O      24.93900000      34.89700000      44.69900000
 H      25.29600000      34.44900000      45.53000000
 H      25.47100000      35.70700000      44.77800000
 O      21.40200000      21.41700000      48.22600000
 H      22.18400000      21.33700000      47.65700000
 H      21.38600000      20.47100000      48.50100000
 O      26.77000000      20.40900000      43.70200000
 H      27.13600000      20.14100000      44.55300000
 H      26.79000000      21.39200000      43.79200000
 O      10.08100000      27.92800000      42.97700000
 H      10.10300000      27.00100000      43.31700000
 H       9.20600000      27.88800000      42.56500000
 O      37.08400000      22.02600000      42.85600000
 H      36.34700000      22.54600000      43.22500000
 H      36.73100000      21.14900000      42.66500000
 O      16.71900000      22.18200000      46.64600000
 H      16.42100000      21.61500000      47.41600000
 H      17.68900000      21.91000000      46.59000000
 O      28.44400000      34.22100000      44.54200000
 H      28.08800000      34.93600000      44.04800000
 H      29.42700000      34.36100000      44.30400000
 O      27.34600000      31.25600000      42.95800000
 H      27.94700000      30.48300000      43.04000000
 H      27.06300000      31.33700000      43.89200000
 O      37.89600000      25.89700000      48.85400000
 H      38.29900000      26.41400000      49.64400000
 H      38.66200000      25.94700000      48.26700000
 O      34.59000000      36.95600000      44.77300000
 H      34.16800000      37.81400000      44.83100000
 H      34.32300000      36.63900000      43.89600000
 O      15.74100000      32.51700000      48.76700000
 H      16.50000000      32.10000000      48.31700000
 H      15.24500000      31.71500000      48.90800000
 O      38.15100000      38.05200000      48.46400000
 H      38.81500000      38.36600000      47.81500000
 H      38.31800000      37.08100000      48.42000000
 O      14.64700000      22.00600000      44.63400000
 H      15.46600000      22.15800000      45.14800000
 H      14.65800000      21.01500000      44.47200000
 O       0.96400000      21.31000000      45.28300000
 H       0.20400000      20.78200000      45.63400000
 H       0.79500000      21.15000000      44.34300000
 O      25.91100000      31.11000000      45.45900000
 H      26.31900000      30.32200000      45.90300000
 H      25.03300000      31.08500000      45.89500000
 O      22.53900000      25.31800000      43.38800000
 H      21.92500000      25.61100000      42.72000000
 H      23.42000000      25.38200000      43.00700000
 O       8.05000000      37.13200000      45.95600000
 H       7.20600000      37.50700000      45.57100000
 H       7.96300000      36.24000000      45.64300000
 O      16.95500000      25.50500000      45.74500000
 H      17.09100000      25.38500000      44.76200000
 H      17.72300000      25.00500000      46.10300000
 O      34.55900000      23.69600000      43.27900000
 H      34.90300000      24.18800000      44.01400000
 H      34.03900000      24.36600000      42.78600000
 O       1.88800000      37.17400000      44.39700000
 H       1.70800000      36.75800000      43.48200000
 H       2.05000000      36.39100000      44.94700000
 O      13.32500000      23.56900000      48.08000000
 H      14.02000000      22.92800000      48.45100000
 H      12.63000000      22.91200000      47.87800000
 O      27.39600000      25.27700000      46.93000000
 H      26.93600000      25.21800000      47.77700000
 H      26.78400000      24.73200000      46.40600000
 O       5.98900000      35.38500000      43.46100000
 H       5.31200000      34.74400000      43.36600000
 H       6.57500000      34.94700000      44.14300000
 O      16.47100000      24.20800000      48.90500000
 H      16.62600000      23.67100000      48.08600000
 H      16.09700000      25.02100000      48.46400000
 O      39.75300000      20.54100000      42.56300000
 H      39.07600000      21.25000000      42.48500000
 H      39.14700000      19.80100000      42.30500000
 O       2.75300000      33.98000000      48.47700000
 H       3.28300000      34.03400000      47.63400000
 H       3.00400000      33.22500000      48.92200000
 O      26.19000000      37.34900000      44.70600000
 H      25.75800000      37.34900000      43.82500000
 H      26.23100000      38.29000000      44.91300000
 O       1.71000000      28.01200000      43.27000000
 H       1.60200000      28.74100000      42.58800000
 H       1.27400000      27.30500000      42.71000000
 O       8.13900000      37.33600000      48.87900000
 H       8.23600000      37.20800000      47.90600000
 H       7.10600000      37.28900000      48.89800000
 O      23.27800000      40.47200000      44.33800000
 H      22.56900000      40.68400000      43.74400000
 H      24.01900000      40.45900000      43.74000000
 O      35.81100000      29.35400000      46.77600000
 H      35.98100000      28.41500000      46.90100000
 H      36.24000000      29.71600000      47.51500000
 O      29.87300000      23.91900000      46.74200000
 H      29.75800000      24.07900000      45.73900000
 H      29.07500000      24.37900000      47.06300000
 O       2.53600000      38.46900000      48.09900000
 H       2.10800000      39.39700000      48.02700000
 H       2.50600000      38.16500000      47.21700000
 O      29.28700000      29.47100000      44.28400000
 H      29.14900000      30.07200000      45.01400000
 H      30.06400000      29.96500000      43.85500000
 O       7.94200000      32.82100000      48.29200000
 H       7.94000000      31.98600000      48.85700000
 H       8.87400000      33.11000000      48.66000000
 O      29.37500000      35.09300000      47.42200000
 H      29.35500000      36.00400000      47.13800000
 H      29.20700000      34.55900000      46.62800000
 O      12.85400000      24.02000000      45.04500000
 H      12.83000000      23.56200000      45.91600000
 H      13.60900000      23.51700000      44.64500000
 O      27.32000000      23.07900000      42.95600000
 H      28.11400000      23.20100000      43.53500000
 H      27.88800000      22.84000000      42.10100000
 O       8.93200000      28.93200000      47.25900000
 H       8.61000000      28.63300000      46.38900000
 H       8.05500000      29.22900000      47.62400000
 O      16.60600000      35.14700000      43.86600000
 H      16.45000000      34.33300000      44.35600000
 H      16.82900000      35.74500000      44.62500000
 O      12.16300000      26.61400000      46.15500000
 H      11.86600000      26.53900000      47.10500000
 H      11.98100000      25.75200000      45.77100000
 O      32.47300000      35.63700000      48.01700000
 H      32.62800000      36.61200000      47.72100000
 H      31.72000000      35.78400000      48.64100000
 O      13.54700000      37.75600000      48.09700000
 H      12.84500000      37.59700000      48.80400000
 H      13.61500000      36.77100000      47.82700000
 O      30.68700000      39.01400000      44.94500000
 H      30.38900000      39.97700000      45.07600000
 H      29.97000000      38.51800000      45.46200000
 O      38.24400000      35.08800000      47.81000000
 H      38.96000000      34.86800000      48.41300000
 H      37.72200000      34.31800000      47.83700000
 O      19.55700000      37.77700000      42.59000000
 H      20.11300000      38.50700000      42.29900000
 H      19.20500000      38.07700000      43.42600000
 O      38.30500000      37.31000000      43.00500000
 H      37.69600000      37.40500000      43.80600000
 H      38.77700000      36.50600000      43.24400000
 O      36.37500000      25.46100000      44.63900000
 H      36.52300000      26.33600000      44.23100000
 H      36.22600000      25.67400000      45.53700000
 O       9.08400000      20.81400000      47.08800000
 H       8.63400000      20.42900000      47.79100000
 H       8.43800000      21.49900000      46.75600000
 O      29.54400000      31.02900000      46.92200000
 H      29.57500000      30.14600000      47.33800000
 H      30.52500000      31.24200000      46.90900000
 O      23.29400000      26.11100000      46.18100000
 H      22.99800000      25.15800000      46.33800000
 H      22.97300000      26.26200000      45.27100000
 O       7.86000000      24.91400000      44.78700000
 H       8.79500000      24.91000000      44.39300000
 H       7.92100000      25.88600000      45.07700000
 O      11.79200000      34.78300000      43.72300000
 H      11.15400000      34.51400000      43.00600000
 H      11.25900000      34.43500000      44.51900000
 O      19.89100000      35.52200000      46.88700000
 H      20.00000000      36.37300000      47.35800000
 H      19.66600000      34.93400000      47.64400000
 O       5.53500000      36.83700000      49.25000000
 H       5.14000000      36.82200000      48.34700000
 H       4.75800000      37.03600000      49.78300000
 O      27.67400000      27.15500000      44.14100000
 H      26.74900000      27.02600000      44.15300000
 H      27.81200000      28.08800000      44.26800000
 O       3.72000000      39.02500000      43.72300000
 H       2.89200000      38.49900000      43.99600000
 H       3.24000000      39.79500000      43.31400000
 O      26.27300000      33.51400000      46.63400000
 H      27.12000000      33.94800000      46.39500000
 H      26.43100000      32.65800000      46.12400000
 O      19.50500000      40.42400000      44.03000000
 H      19.94700000      39.88400000      44.73700000
 H      19.70000000      41.35300000      44.18100000
 O      25.67100000      23.48400000      45.55500000
 H      25.19000000      22.77200000      45.11700000
 H      25.60400000      23.23100000      46.44400000
 O      23.94300000      21.92300000      43.95300000
 H      23.60200000      21.28300000      44.57000000
 H      23.21700000      21.96400000      43.31300000
 O       7.93000000      25.91700000      48.18100000
 H       7.19900000      25.29700000      48.07700000
 H       7.58900000      26.77500000      48.21500000
 O      11.03800000      22.64000000      42.76600000
 H      11.96000000      22.98600000      42.76500000
 H      11.26100000      21.72900000      43.14100000
 O      37.06400000      37.64600000      45.36000000
 H      37.29300000      37.59000000      46.28700000
 H      36.14000000      37.39100000      45.33300000
 O      30.72800000      20.41500000      45.21300000
 H      31.01000000      21.04000000      44.50300000
 H      30.65200000      19.60700000      44.66800000
 O      33.77200000      35.62200000      42.49900000
 H      34.27600000      36.29500000      42.01200000
 H      34.25500000      34.81000000      42.24500000
 O       5.59700000      24.12800000      43.27900000
 H       5.47200000      23.27200000      43.71500000
 H       6.42000000      24.48700000      43.73700000
 O       4.74100000      21.73300000      44.04400000
 H       4.34600000      21.58600000      44.97500000
 H       5.17200000      20.81800000      43.97000000
 O      23.13200000      33.04500000      45.23900000
 H      23.82700000      33.66000000      44.92100000
 H      22.37900000      33.69300000      45.29900000
 O      39.84800000      38.41700000      45.89900000
 H      39.51300000      38.92400000      45.15700000
 H      40.66600000      37.99800000      45.47700000
 O      23.67100000      30.68600000      43.37300000
 H      23.83800000      31.17700000      42.57000000
 H      23.28300000      31.31800000      43.98000000
 O      15.16300000      32.21900000      42.50400000
 H      15.27600000      32.38800000      43.45400000
 H      15.10900000      31.23800000      42.53300000
 O       2.89800000      25.99400000      44.77000000
 H       2.30800000      26.75400000      44.43600000
 H       2.19600000      25.29800000      44.72400000
 O      20.80000000      34.40000000      44.28700000
 H      20.43500000      34.81400000      45.11500000
 H      20.02000000      33.81600000      44.04900000
 O      10.36000000      38.58500000      45.32500000
 H       9.61000000      38.05200000      45.57400000
 H      11.11300000      37.90800000      45.21000000
 O      11.51900000      31.18600000      45.58400000
 H      11.95600000      30.26900000      45.59000000
 H      10.71600000      30.99700000      45.06400000
 O      29.18500000      24.76800000      44.19800000
 H      29.91700000      25.29600000      43.76200000
 H      28.53400000      25.47800000      44.29500000
 O      16.22700000      38.22100000      47.78100000
 H      15.29700000      38.08000000      47.97400000
 H      16.44000000      37.39200000      47.32100000
 O      22.14400000      39.47700000      46.78900000
 H      22.42300000      39.60300000      45.85700000
 H      22.95400000      39.05400000      47.17700000
 O      26.88600000      28.75100000      48.53100000
 H      26.35000000      28.64100000      49.34400000
 H      26.24200000      28.70600000      47.80500000
 O      13.11800000      29.09200000      46.27900000
 H      14.07200000      28.88200000      46.29500000
 H      12.80600000      28.13000000      46.35900000
 O      11.33900000      29.20800000      48.81800000
 H      10.49600000      28.95900000      48.29900000
 H      11.98900000      29.11400000      48.11200000
 O      24.51400000      32.24300000      48.73800000
 H      24.91600000      32.10400000      49.59500000
 H      25.24100000      32.72900000      48.26500000
 O      39.94500000      22.32100000      48.46900000
 H      39.01000000      22.53500000      48.75900000
 H      40.25900000      23.22200000      48.27000000
 O       5.69900000      39.92400000      47.97300000
 H       5.27000000      39.12200000      48.28400000
 H       5.05100000      40.10100000      47.21200000
 O      38.62700000      33.72100000      42.46800000
 H      38.63700000      34.22700000      43.27200000
 H      39.57200000      33.51800000      42.37600000
 O      13.55100000      33.15300000      45.38500000
 H      12.84000000      32.50600000      45.43900000
 H      13.29500000      33.69700000      44.62300000
 O      29.17900000      27.90500000      47.11700000
 H      28.48700000      28.01500000      47.76400000
 H      28.74100000      27.30700000      46.44400000
 O      26.28500000      39.95700000      44.88700000
 H      26.12200000      40.91700000      45.07300000
 H      26.72600000      40.07600000      44.01800000
 O      36.68100000      27.57900000      43.05200000
 H      35.84100000      27.94500000      42.77600000
 H      37.31900000      28.22300000      42.57900000
 O       3.44700000      21.71800000      46.71600000
 H       2.58100000      21.66000000      46.30200000
 H       3.32700000      21.31700000      47.56900000
 O      38.86800000      34.70400000      44.93800000
 H      39.23000000      33.89100000      45.42400000
 H      38.35600000      35.12100000      45.67900000
 O      34.24700000      28.96700000      42.45800000
 H      34.18300000      29.84800000      42.01200000
 H      33.75900000      28.39900000      41.79600000
 O      23.40900000      25.93400000      49.17300000
 H      23.24900000      26.21500000      48.27300000
 H      23.75200000      26.70500000      49.57800000
 O      18.54300000      31.88800000      48.44300000
 H      18.87000000      32.69400000      48.85000000
 H      19.35500000      31.51600000      48.05000000
 O      14.53700000      26.65500000      44.19000000
 H      15.01500000      26.70200000      45.03600000
 H      13.94300000      25.86800000      44.35400000
 O      18.76100000      25.01000000      42.94100000
 H      18.02100000      25.18200000      42.35600000
 H      19.44000000      25.59500000      42.64100000
 O      34.55600000      23.72400000      48.47200000
 H      33.94900000      24.16500000      47.82800000
 H      34.64500000      22.85800000      48.08000000
 O      30.63900000      26.91400000      43.31100000
 H      30.45100000      27.34000000      42.42900000
 H      30.45400000      27.72000000      43.86100000
