990
XYZ file of cluster: frame_5000_9af0f.4b1df.4aa2c - created by MolEdiTo
 O      30.94000000      24.61300000      15.57200000
 H      31.93000000      24.78700000      15.48100000
 H      30.89800000      23.76700000      15.01200000
 O      32.95900000      25.38900000      40.51900000
 H      32.21400000      24.78400000      40.24700000
 H      32.43300000      26.07400000      40.91700000
 O      31.09900000      22.18600000      26.82800000
 H      31.72100000      21.91200000      26.10800000
 H      30.33600000      21.64200000      26.67800000
 O      30.91100000      35.93300000      17.02500000
 H      30.23700000      35.29600000      16.75700000
 H      31.33200000      36.08500000      16.15200000
 O      28.22600000      34.00700000      21.35500000
 H      27.58600000      34.55800000      20.83500000
 H      28.72900000      33.61000000      20.62300000
 O      31.86900000      14.91900000      33.49200000
 H      31.22600000      15.34900000      34.05500000
 H      31.23400000      14.29400000      32.98600000
 O      30.19800000      27.01600000      38.34600000
 H      29.35600000      26.80200000      38.84700000
 H      29.96400000      26.49500000      37.59300000
 O      30.81700000      24.18800000      39.28000000
 H      29.84800000      24.03500000      39.12400000
 H      31.17000000      23.48000000      38.74000000
 O      34.36000000      33.73300000      15.06900000
 H      33.51300000      34.18200000      15.25100000
 H      34.83400000      33.97400000      15.87900000
 O      31.08400000      21.97200000      14.69900000
 H      31.81800000      21.34700000      14.55400000
 H      30.91700000      22.18100000      13.72600000
 O      34.87100000      24.73000000      24.77100000
 H      33.86900000      24.71800000      24.78600000
 H      35.03700000      24.01300000      24.12400000
 O      34.83700000      33.10100000      21.93600000
 H      35.06000000      33.67100000      22.66000000
 H      34.44700000      32.36400000      22.51200000
 O      35.43400000      26.12800000      20.35300000
 H      36.17100000      25.53000000      20.63100000
 H      35.34900000      26.69400000      21.16600000
 O      28.67700000      39.36700000      32.39900000
 H      28.91700000      39.23200000      33.35100000
 H      29.58300000      39.53500000      32.03100000
 O      36.39000000      38.63700000      18.88600000
 H      36.48000000      38.48800000      19.84300000
 H      37.23900000      39.09700000      18.70600000
 O      31.77900000      26.32500000      35.02400000
 H      31.86500000      26.38900000      34.03400000
 H      32.29000000      25.42600000      35.09500000
 O      31.55700000      27.41300000      26.66100000
 H      30.96000000      26.65800000      26.79800000
 H      32.16800000      27.31400000      27.40300000
 O      33.58100000      20.67100000      14.39400000
 H      33.75700000      19.75600000      14.06100000
 H      34.10400000      20.63800000      15.22100000
 O      29.37600000      25.96400000      30.32200000
 H      29.14600000      26.29800000      29.44400000
 H      28.67100000      26.47900000      30.84400000
 O      33.61400000      25.26200000      14.55100000
 H      33.79600000      25.97100000      13.92800000
 H      33.90900000      24.48900000      14.00500000
 O      33.18300000      29.91600000      34.43200000
 H      33.53100000      29.66600000      33.51300000
 H      33.79100000      30.72700000      34.48700000
 O      30.09200000      32.60100000      19.60700000
 H      31.00200000      33.07100000      19.66400000
 H      30.25100000      32.07900000      18.80700000
 O      38.57900000      39.80200000      27.85200000
 H      39.12700000      39.84200000      27.00600000
 H      38.34400000      40.73200000      27.85400000
 O      30.72200000      16.53600000      27.80900000
 H      30.43700000      15.82900000      28.44000000
 H      29.95300000      16.58000000      27.23100000
 O      28.69900000      20.55700000      27.00500000
 H      27.81300000      20.97400000      26.75000000
 H      28.57900000      20.50500000      27.95800000
 O      28.74300000      21.31000000      32.59300000
 H      28.97200000      22.11600000      32.11500000
 H      29.56900000      20.80800000      32.66400000
 O      39.78500000      25.62700000      21.78500000
 H      39.78500000      26.22300000      21.04900000
 H      40.18600000      24.79300000      21.41200000
 O      30.44100000      37.20500000      40.51900000
 H      31.01500000      36.93300000      39.78500000
 H      30.87000000      36.75200000      41.27400000
 O      36.41600000      27.73400000      36.77400000
 H      36.63900000      27.07800000      37.45500000
 H      35.49200000      27.64000000      36.67900000
 O      39.08000000      18.73700000      22.06000000
 H      38.16900000      18.56700000      22.35100000
 H      39.43700000      17.82800000      21.98400000
 O      34.51300000      21.87800000      17.29900000
 H      34.55700000      22.85600000      17.31000000
 H      35.15000000      21.68400000      16.56900000
 O      33.78400000      38.66600000      18.91700000
 H      33.63400000      39.61400000      19.15000000
 H      34.76100000      38.65500000      18.99600000
 O      32.34600000      28.14700000      38.98800000
 H      32.65700000      28.52600000      38.17700000
 H      31.62800000      27.50500000      38.62500000
 O      28.15200000      27.02600000      39.83600000
 H      27.22500000      26.90000000      39.77800000
 H      28.22000000      26.75900000      40.75800000
 O      26.93700000      14.36200000      39.64600000
 H      27.84700000      14.42700000      39.31500000
 H      26.43400000      14.34500000      38.77200000
 O      30.13400000      30.09700000      29.51400000
 H      30.98300000      29.67200000      29.70100000
 H      30.49300000      30.83800000      28.94500000
 O      33.53200000      28.11700000      36.36400000
 H      32.73900000      27.56000000      36.09200000
 H      33.55700000      28.75800000      35.61900000
 O      29.74500000      26.46800000      13.84900000
 H      28.89500000      26.03600000      13.73300000
 H      30.16900000      25.82500000      14.43000000
 O      35.62700000      33.36300000      40.61200000
 H      35.46400000      32.85300000      41.46100000
 H      36.64300000      33.52500000      40.77600000
 O      40.29000000      26.27500000      16.04400000
 H      40.58800000      27.03700000      16.59900000
 H      40.90600000      25.53200000      16.40400000
 O      36.91900000      21.60400000      35.52500000
 H      37.75400000      21.74400000      35.06000000
 H      36.82000000      20.63300000      35.24800000
 O      36.55000000      30.41900000      30.95500000
 H      36.60300000      31.24200000      31.43800000
 H      35.70400000      29.98400000      31.16700000
 O      27.88900000      29.78900000      21.64400000
 H      27.76700000      28.94200000      22.06900000
 H      28.04300000      29.59300000      20.71100000
 O      35.50200000      23.39200000      33.30400000
 H      35.39100000      22.77600000      32.58400000
 H      36.36200000      23.74400000      33.08000000
 O      34.01900000      24.68700000      17.34000000
 H      34.07900000      24.84200000      16.33600000
 H      33.47200000      25.49400000      17.59000000
 O      32.19900000      35.20400000      21.64700000
 H      32.67600000      34.60300000      21.06900000
 H      32.04000000      34.60600000      22.37700000
 O      34.09300000      22.60400000      37.04800000
 H      33.59200000      21.76000000      37.14500000
 H      33.54800000      23.01200000      36.33700000
 O      28.05800000      20.21800000      29.72500000
 H      28.51800000      20.20400000      30.55500000
 H      27.11300000      20.30500000      30.03200000
 O      31.60700000      21.82700000      17.61400000
 H      32.50100000      22.04000000      17.29300000
 H      31.15700000      21.74600000      16.75400000
 O      31.99200000      24.72000000      24.58900000
 H      32.04700000      25.59100000      24.10100000
 H      31.45400000      24.84300000      25.33300000
 O      34.90400000      14.81000000      14.18100000
 H      34.60300000      15.56000000      14.70700000
 H      35.10100000      14.16500000      14.89000000
 O      28.95400000      24.18600000      21.54200000
 H      29.08300000      23.69400000      20.62800000
 H      27.97000000      24.25800000      21.44000000
 O      28.33600000      18.05800000      20.00100000
 H      27.82200000      18.84800000      20.19800000
 H      28.92000000      18.38000000      19.26700000
 O      36.63900000      16.38900000      34.45700000
 H      36.73800000      15.39800000      34.60600000
 H      35.73600000      16.37900000      34.11100000
 O      38.71800000      32.02300000      24.33500000
 H      38.67700000      31.35100000      25.03100000
 H      38.14900000      32.70300000      24.72200000
 O      35.25100000      21.69500000      31.36400000
 H      34.39400000      21.31000000      31.05900000
 H      35.62200000      20.93100000      31.84600000
 O      36.37300000      21.42900000      38.31800000
 H      36.66500000      21.60700000      37.40600000
 H      35.72900000      22.13100000      38.45600000
 O      31.07500000      34.17400000      14.37300000
 H      30.24700000      34.10200000      14.93200000
 H      31.31600000      33.22100000      14.31900000
 O      34.06000000      16.85200000      15.70000000
 H      33.53400000      16.33900000      16.40400000
 H      34.42500000      17.53300000      16.36300000
 O      36.88500000      40.01900000      38.62000000
 H      36.57800000      40.29100000      39.51100000
 H      36.10200000      39.54300000      38.28000000
 O      34.28700000      27.55700000      22.21200000
 H      33.58300000      27.24000000      22.76800000
 H      33.82600000      28.07900000      21.53700000
 O      34.92100000      30.60800000      20.06200000
 H      34.21200000      29.91300000      20.14300000
 H      35.03100000      30.51100000      19.09600000
 O      29.21500000      20.83500000      22.78400000
 H      29.55000000      21.73800000      22.66400000
 H      29.61900000      20.56500000      23.66000000
 O      29.90700000      12.94000000      17.02900000
 H      30.00800000      13.87400000      16.74600000
 H      29.05800000      12.74500000      16.54000000
 O      37.63800000      29.97400000      40.15900000
 H      38.02700000      29.92400000      39.29300000
 H      36.71000000      30.01600000      39.98600000
 O      34.38500000      36.96300000      26.94700000
 H      35.34100000      37.09000000      27.19200000
 H      34.07400000      37.87000000      27.25700000
 O      32.51400000      27.14600000      17.54000000
 H      31.86000000      27.38100000      18.17800000
 H      32.87700000      27.97500000      17.28300000
 O      31.96200000      33.05200000      23.44100000
 H      32.10200000      32.85000000      24.35100000
 H      31.60800000      32.19300000      23.04000000
 O      40.07000000      16.00100000      21.62100000
 H      41.00300000      15.85700000      21.52300000
 H      39.85500000      15.23300000      22.14700000
 O      28.90700000      34.59800000      15.96100000
 H      28.54500000      35.35600000      15.44100000
 H      28.12900000      34.24200000      16.42500000
 O      31.86400000      25.95300000      29.33900000
 H      31.97200000      25.01500000      28.97500000
 H      31.05200000      25.77200000      29.85800000
 O      31.05800000      36.16300000      33.61100000
 H      31.00600000      35.90000000      32.65700000
 H      30.12600000      36.00400000      33.84000000
 O      40.69100000      26.28700000      35.86900000
 H      40.25200000      26.46400000      36.71000000
 H      40.19500000      25.55300000      35.48200000
 O      31.64400000      36.10500000      38.29900000
 H      31.24500000      35.25900000      38.66300000
 H      32.58700000      35.89900000      38.30600000
 O      32.58600000      20.41300000      36.76400000
 H      33.03100000      19.59500000      36.43900000
 H      32.11700000      20.00900000      37.53400000
 O      34.62900000      18.13200000      29.01700000
 H      34.04600000      18.81300000      28.64000000
 H      34.48900000      18.21900000      29.96900000
 O      34.48900000      36.80400000      22.22200000
 H      33.71600000      36.27900000      21.78400000
 H      33.98200000      37.14000000      22.96800000
 O      30.72800000      40.06300000      22.56100000
 H      30.41700000      40.63400000      21.78000000
 H      30.96300000      39.26600000      22.01300000
 O      39.32700000      15.82200000      15.75600000
 H      39.60000000      16.16400000      16.62700000
 H      39.36700000      16.64000000      15.27600000
 O      29.50300000      25.51000000      17.61900000
 H      29.54800000      24.64700000      18.14700000
 H      30.10100000      25.31300000      16.87700000
 O      33.32100000      14.44600000      37.59600000
 H      33.62000000      14.34600000      36.69300000
 H      33.90900000      13.95600000      38.14300000
 O      30.88300000      37.61700000      21.38000000
 H      31.41800000      36.80100000      21.29600000
 H      30.76600000      37.81600000      20.44300000
 O      29.72100000      38.95700000      28.84700000
 H      30.25100000      38.43700000      28.17000000
 H      28.85100000      38.45900000      28.72600000
 O      31.11700000      37.16200000      27.34900000
 H      31.73400000      37.75500000      26.96700000
 H      31.09700000      36.40600000      26.71500000
 O      33.54800000      17.92100000      13.32700000
 H      33.72900000      17.24800000      13.99600000
 H      32.88900000      17.37100000      12.73400000
 O      34.06900000      29.13500000      31.84300000
 H      33.55000000      29.23200000      31.07300000
 H      34.25700000      28.16300000      31.81900000
 O      29.21900000      40.09700000      17.97800000
 H      29.75100000      39.44300000      18.36100000
 H      28.38700000      40.09400000      18.52800000
 O      29.46500000      29.63100000      38.39400000
 H      29.65700000      28.69100000      38.36400000
 H      28.47200000      29.52200000      38.46700000
 O      36.77500000      15.67000000      40.36000000
 H      37.42800000      15.67100000      41.12000000
 H      37.33700000      15.36200000      39.67200000
 O      29.48400000      26.98700000      21.99100000
 H      28.98500000      26.17500000      22.16900000
 H      29.78000000      26.88100000      21.07500000
 O      34.58600000      35.25400000      38.21800000
 H      35.57300000      35.10700000      38.13300000
 H      34.61700000      36.20000000      38.53900000
 O      30.86100000      38.06000000      18.65800000
 H      31.64100000      38.48300000      18.27400000
 H      30.58600000      37.41200000      17.92800000
 O      38.52500000      33.15300000      32.03100000
 H      37.58400000      33.09400000      32.26900000
 H      38.39200000      33.36700000      31.09300000
 O      28.46200000      32.82900000      28.57000000
 H      29.39500000      32.73600000      28.86400000
 H      28.65700000      32.81400000      27.59900000
 O      36.74500000      33.78900000      29.59300000
 H      36.01000000      33.41700000      30.12600000
 H      36.31100000      33.83400000      28.74900000
 O      34.22900000      23.14400000      27.36200000
 H      34.72400000      22.32600000      27.12400000
 H      34.31100000      23.60700000      26.49300000
 O      31.12400000      31.41600000      14.45500000
 H      30.85300000      31.11600000      13.58200000
 H      31.93400000      30.88300000      14.59500000
 O      40.27300000      40.00400000      25.71500000
 H      39.84400000      40.52500000      24.94300000
 H      41.19000000      40.49800000      25.70200000
 O      38.71800000      36.02700000      23.02000000
 H      39.27500000      35.31700000      22.65800000
 H      39.12600000      36.18700000      23.90800000
 O      38.44100000      14.93900000      38.15200000
 H      39.34100000      14.84000000      37.71000000
 H      37.90000000      14.44800000      37.52200000
 O      32.81500000      34.47300000      28.57000000
 H      33.07300000      35.06200000      27.84000000
 H      33.19800000      34.97300000      29.32700000
 O      33.53300000      21.34200000      24.05200000
 H      32.73800000      21.58000000      23.58000000
 H      34.20100000      21.74300000      23.43800000
 O      36.04700000      17.37000000      20.58000000
 H      35.25100000      17.04700000      20.24200000
 H      35.91900000      18.32700000      20.65600000
 O      32.21200000      19.41400000      28.61700000
 H      32.47700000      19.68900000      27.71700000
 H      31.51900000      18.71800000      28.39500000
 O      30.25000000      30.96800000      21.83800000
 H      29.28300000      30.68700000      21.68000000
 H      30.33200000      31.53400000      21.01000000
 O      32.76500000      21.05200000      20.47500000
 H      32.48500000      21.66600000      21.20300000
 H      32.84900000      21.64600000      19.72500000
 O      29.19700000      22.55600000      19.39500000
 H      29.96600000      22.28600000      18.83100000
 H      28.44400000      22.45200000      18.85700000
 O      28.20400000      17.70800000      40.34600000
 H      27.84100000      18.50100000      39.83200000
 H      27.37300000      17.53000000      40.87000000
 O      35.40100000      38.10300000      16.18100000
 H      35.69100000      38.21900000      17.11000000
 H      35.96400000      37.33800000      15.99200000
 O      39.24800000      27.35700000      19.74000000
 H      38.45800000      27.94600000      19.76400000
 H      39.98000000      27.93200000      19.76700000
 O      38.97700000      27.73800000      31.47500000
 H      38.93400000      28.49300000      32.13000000
 H      38.95600000      28.27600000      30.67000000
 O      38.31200000      32.43400000      38.58400000
 H      39.27000000      32.24800000      38.51100000
 H      38.25600000      32.91200000      39.41300000
 O      39.92100000      16.14400000      18.98000000
 H      40.28200000      15.21500000      19.04000000
 H      40.08400000      16.32700000      19.95400000
 O      36.09300000      19.75900000      32.96500000
 H      36.12400000      19.39800000      33.85600000
 H      37.04200000      19.66100000      32.74300000
 O      33.37600000      39.54200000      27.25400000
 H      34.09900000      40.06400000      27.67600000
 H      32.68200000      40.19800000      27.14100000
 O      38.23400000      13.32700000      32.09300000
 H      38.70600000      14.15900000      31.96100000
 H      37.81900000      13.48500000      32.99300000
 O      29.10100000      26.29200000      35.73600000
 H      28.64200000      26.93800000      35.20200000
 H      30.01300000      26.36000000      35.40000000
 O      35.32000000      33.05400000      27.41200000
 H      35.85700000      32.21000000      27.51700000
 H      35.60100000      33.28900000      26.48200000
 O      39.01400000      36.55600000      38.98800000
 H      39.92700000      36.96800000      39.10100000
 H      38.57000000      37.01500000      39.71800000
 O      38.50400000      19.56800000      14.74700000
 H      38.79400000      18.76000000      14.23100000
 H      39.21300000      19.56600000      15.43000000
 O      38.09200000      28.00300000      15.28600000
 H      38.12300000      28.75300000      15.92700000
 H      38.86800000      27.51200000      15.53300000
 O      31.17100000      38.98400000      31.08800000
 H      31.35400000      38.01800000      31.17600000
 H      30.68200000      38.96500000      30.25400000
 O      28.18000000      14.26000000      35.61500000
 H      27.43100000      14.35200000      36.18900000
 H      28.80000000      13.72800000      36.17000000
 O      39.88200000      33.72500000      22.62800000
 H      40.46200000      32.96600000      22.47700000
 H      39.33300000      33.39400000      23.34300000
 O      35.83800000      38.16300000      29.50300000
 H      36.73000000      37.90500000      29.55500000
 H      35.66900000      38.49000000      30.40100000
 O      33.86200000      36.30700000      30.16000000
 H      33.91800000      36.45100000      31.13500000
 H      34.28600000      37.12000000      29.79700000
 O      33.20400000      24.14100000      34.84100000
 H      32.50500000      23.52500000      34.50900000
 H      33.97500000      23.77500000      34.32600000
 O      37.65100000      40.34300000      21.67100000
 H      37.40400000      39.40000000      21.83300000
 H      37.83900000      40.35500000      20.72400000
 O      35.62300000      20.79400000      26.43200000
 H      35.90700000      19.85800000      26.52300000
 H      35.11800000      20.75200000      25.63600000
 O      35.88400000      32.53600000      32.80600000
 H      35.21200000      32.82100000      32.13100000
 H      35.40600000      32.73900000      33.64600000
 O      39.24200000      22.59800000      32.64000000
 H      38.66900000      23.30600000      32.42800000
 H      40.01000000      23.05900000      33.03900000
 O      39.57700000      15.70900000      31.89700000
 H      39.72100000      16.45200000      32.57000000
 H      40.51400000      15.45600000      31.77800000
 O      30.09600000      19.44200000      25.01800000
 H      29.37700000      18.77600000      24.80300000
 H      29.68100000      19.85000000      25.84400000
 O      38.90000000      19.87200000      32.76100000
 H      39.61700000      19.49400000      32.23600000
 H      39.21600000      20.83300000      32.72900000
 O      28.44600000      38.91900000      40.16400000
 H      27.85300000      38.33800000      39.67500000
 H      29.20400000      38.29000000      40.18700000
 O      29.63700000      23.26000000      30.75200000
 H      29.53400000      24.18700000      30.71200000
 H      30.55800000      23.08100000      30.39800000
 O      37.53700000      21.62600000      19.20600000
 H      36.91000000      22.34800000      19.06300000
 H      37.93800000      21.52600000      18.32500000
 O      37.30400000      36.25800000      15.97500000
 H      36.91800000      35.48900000      16.51600000
 H      37.52000000      35.78500000      15.18400000
 O      32.56000000      29.33000000      20.77000000
 H      31.78400000      28.78000000      20.52600000
 H      32.17800000      30.07900000      21.24300000
 O      32.73300000      20.81200000      30.84400000
 H      32.46500000      21.71300000      30.47700000
 H      32.64800000      20.22500000      30.05500000
 O      32.90100000      33.60400000      32.92700000
 H      32.51500000      34.39700000      33.25000000
 H      32.95500000      33.04900000      33.66100000
 O      32.54000000      15.52300000      25.56300000
 H      32.00600000      15.73900000      26.39400000
 H      33.14800000      16.26400000      25.64300000
 O      39.88400000      37.90300000      19.66600000
 H      40.33300000      37.52700000      20.42400000
 H      39.45800000      37.10700000      19.23300000
 O      31.51100000      34.01500000      35.75000000
 H      30.74600000      33.38200000      35.65500000
 H      31.89300000      33.63300000      36.58200000
 O      28.71100000      27.84100000      28.33300000
 H      29.08200000      28.17500000      27.51100000
 H      28.96700000      28.51600000      28.95500000
 O      29.79600000      17.13600000      38.40700000
 H      29.21600000      17.32600000      39.17600000
 H      29.95200000      16.19300000      38.52700000
 O      32.78300000      19.59600000      25.97700000
 H      32.94600000      20.18500000      25.17800000
 H      31.95600000      19.13800000      25.74100000
 O      36.23700000      35.06100000      23.58500000
 H      35.58000000      35.72100000      23.16900000
 H      37.05400000      35.50400000      23.28200000
 O      36.68800000      19.00600000      35.50700000
 H      36.54800000      18.02200000      35.42000000
 H      37.48400000      19.05000000      36.01200000
 O      35.46000000      37.46700000      39.64900000
 H      34.95200000      38.27900000      39.43300000
 H      36.09900000      37.70300000      40.30600000
 O      28.00500000      32.70600000      36.67600000
 H      28.83800000      32.31300000      36.83300000
 H      27.84800000      33.16800000      37.52400000
 O      35.72000000      40.69100000      15.49600000
 H      34.88100000      41.00300000      15.91100000
 H      35.62500000      39.74300000      15.61300000
 O      36.53000000      33.43200000      19.89500000
 H      37.18000000      32.72300000      20.08200000
 H      35.97900000      33.43400000      20.71700000
 O      35.32000000      30.11500000      17.52900000
 H      36.22400000      30.32500000      17.25100000
 H      35.46700000      29.13100000      17.69400000
 O      34.36400000      32.16500000      35.43600000
 H      33.90600000      32.12800000      36.27000000
 H      35.22100000      32.52400000      35.72200000
 O      28.70000000      39.03100000      35.07400000
 H      27.97700000      38.79600000      35.63200000
 H      29.46300000      38.72200000      35.56900000
 O      28.42700000      15.84600000      14.97600000
 H      29.19200000      15.95300000      15.51600000
 H      28.43800000      14.86900000      14.86600000
 O      38.37200000      39.07400000      30.48000000
 H      39.00100000      39.80500000      30.64200000
 H      38.46900000      39.05600000      29.47900000
 O      27.31200000      13.63700000      32.81600000
 H      27.83600000      13.75500000      33.61400000
 H      26.48900000      14.08700000      33.18900000
 O      34.05600000      17.97400000      31.57000000
 H      34.19900000      18.61600000      32.26500000
 H      33.13200000      17.74300000      31.74700000
 O      30.54800000      27.00800000      32.59100000
 H      30.19700000      26.53700000      31.79400000
 H      30.30500000      27.94200000      32.39200000
 O      34.03400000      17.44500000      23.41100000
 H      33.13700000      17.01000000      23.35800000
 H      33.83000000      18.30200000      23.01700000
 O      34.93700000      39.43500000      31.98700000
 H      34.74700000      39.94800000      32.79100000
 H      34.42800000      38.61300000      32.19400000
 O      32.87500000      32.68500000      25.89400000
 H      33.46800000      32.89700000      26.68400000
 H      32.64000000      31.78700000      26.09800000
 O      30.71500000      13.90800000      29.04200000
 H      31.69100000      13.71600000      29.15800000
 H      30.52300000      13.28900000      28.32400000
 O      40.76400000      37.64100000      16.99300000
 H      41.34600000      36.96100000      17.23800000
 H      40.49400000      37.97900000      17.90900000
 O      33.70800000      35.87800000      17.68700000
 H      33.59300000      36.73000000      18.10300000
 H      32.69700000      35.66600000      17.74600000
 O      28.56100000      32.87700000      39.62700000
 H      28.16300000      32.16200000      40.21600000
 H      27.76400000      33.30800000      39.36700000
 O      32.03100000      38.67800000      15.83200000
 H      32.57100000      39.12500000      16.46700000
 H      32.73700000      38.47500000      15.12400000
 O      31.11000000      16.95800000      31.60900000
 H      30.14900000      16.80700000      31.44600000
 H      31.26800000      16.27800000      32.26700000
 O      27.27000000      37.22200000      32.00200000
 H      27.89600000      38.00900000      32.04700000
 H      27.76800000      36.63800000      32.63600000
 O      39.28500000      17.34900000      33.98000000
 H      38.96800000      18.24200000      33.79200000
 H      38.43500000      16.89200000      34.21900000
 O      38.79200000      30.68600000      21.79000000
 H      38.45500000      29.80500000      22.08700000
 H      38.67800000      31.24000000      22.55000000
 O      30.94300000      30.23900000      40.70300000
 H      31.81600000      29.89300000      40.52300000
 H      30.45800000      30.08300000      39.84400000
 O      38.06800000      25.12500000      32.28100000
 H      38.40200000      26.00200000      31.95100000
 H      37.75300000      25.47800000      33.15400000
 O      29.80400000      30.17500000      24.40600000
 H      30.05900000      30.18800000      23.45200000
 H      29.12400000      29.42600000      24.42400000
 O      37.39800000      15.49300000      18.73200000
 H      38.28400000      15.80500000      18.90900000
 H      36.86600000      15.99600000      19.38800000
 O      36.76900000      32.64500000      14.46500000
 H      35.93100000      33.09500000      14.48200000
 H      37.34600000      33.39900000      14.18000000
 O      26.99300000      21.03800000      21.30800000
 H      26.68500000      21.97300000      21.24200000
 H      27.92000000      21.12700000      21.52900000
 O      35.95100000      34.34400000      17.32900000
 H      35.15200000      34.76800000      17.69800000
 H      36.27100000      33.89300000      18.19000000
 O      39.94400000      20.43200000      25.02800000
 H      40.04700000      20.77300000      25.91500000
 H      39.47200000      19.59400000      25.16800000
 O      35.22800000      13.97000000      17.80100000
 H      35.29700000      13.15200000      18.37600000
 H      35.99000000      14.47500000      18.17300000
 O      29.10100000      34.56100000      24.01600000
 H      28.75800000      33.84400000      23.43300000
 H      28.74400000      35.34400000      23.52900000
 O      34.70200000      16.21500000      27.21800000
 H      35.31300000      16.76900000      26.72400000
 H      34.47800000      16.82700000      27.97900000
 O      32.07900000      18.76400000      38.86900000
 H      32.82200000      18.12500000      39.05900000
 H      31.30900000      18.23300000      38.98800000
 O      35.13000000      40.37200000      34.86200000
 H      35.12400000      39.59800000      35.47800000
 H      36.12600000      40.45000000      34.80000000
 O      31.58300000      21.26300000      39.70000000
 H      32.01600000      20.39100000      39.61000000
 H      31.97100000      21.58800000      40.55400000
 O      28.96900000      32.51200000      25.94600000
 H      28.97700000      33.32100000      25.44900000
 H      29.21300000      31.79800000      25.30200000
 O      29.30300000      38.96300000      15.41300000
 H      29.23800000      39.53500000      16.22700000
 H      30.27600000      38.86900000      15.35100000
 O      36.74000000      33.19000000      36.61000000
 H      37.34400000      32.80400000      37.27800000
 H      36.97500000      34.11400000      36.69700000
 O      32.96300000      29.78500000      16.89500000
 H      33.01300000      29.69600000      15.89600000
 H      33.90500000      29.95300000      17.05300000
 O      28.53500000      16.57500000      30.79500000
 H      27.67500000      16.56400000      31.26300000
 H      28.49900000      17.43400000      30.40800000
 O      37.45400000      39.17200000      32.97700000
 H      37.73100000      38.90500000      32.04100000
 H      36.54900000      39.39400000      32.74100000
 O      37.60700000      25.77600000      27.19800000
 H      37.81800000      25.43100000      26.25700000
 H      37.28700000      24.90700000      27.54100000
 O      38.18800000      21.58900000      30.27300000
 H      37.27900000      21.67700000      30.59100000
 H      38.67200000      21.72500000      31.11200000
 O      28.92900000      23.55100000      35.44500000
 H      29.11400000      24.52700000      35.43700000
 H      29.77100000      23.24400000      34.99200000
 O      39.60400000      15.19100000      26.46200000
 H      39.69900000      15.60000000      25.57000000
 H      39.93100000      15.87700000      27.02800000
 O      39.37500000      29.64900000      36.66400000
 H      38.79000000      30.00100000      35.91900000
 H      39.22900000      28.71500000      36.68200000
 O      38.05400000      13.50500000      16.63500000
 H      38.42400000      14.37600000      16.28900000
 H      37.98300000      13.72900000      17.55200000
 O      40.72100000      36.55200000      32.06100000
 H      40.69200000      37.46600000      32.35900000
 H      41.50100000      36.56600000      31.45700000
 O      35.29900000      19.92300000      19.99200000
 H      35.88100000      20.66500000      19.78800000
 H      34.50400000      20.40700000      20.32200000
 O      39.06800000      18.84400000      36.87600000
 H      39.62800000      18.15400000      37.27000000
 H      39.54000000      19.65600000      37.21400000
 O      38.76900000      21.92000000      16.68900000
 H      38.45700000      22.53400000      15.94800000
 H      39.56500000      21.54400000      16.30600000
 O      32.78600000      32.88500000      19.95400000
 H      32.72300000      31.96300000      19.56300000
 H      33.66000000      32.83000000      20.33600000
 O      38.16200000      37.71300000      35.04200000
 H      37.97200000      38.30500000      34.25400000
 H      39.02200000      38.07300000      35.34200000
 O      34.46400000      26.46000000      31.88900000
 H      34.23900000      25.80200000      32.55300000
 H      34.37700000      25.87400000      31.07500000
 O      27.78000000      17.64600000      36.74800000
 H      28.59800000      17.54300000      37.28800000
 H      28.16000000      17.79300000      35.86100000
 O      34.49300000      26.00300000      38.13500000
 H      33.97300000      25.63700000      38.86500000
 H      33.87900000      26.52500000      37.62100000
 O      31.29200000      37.70700000      35.99700000
 H      31.31600000      36.96200000      35.35900000
 H      31.33400000      37.18400000      36.83800000
 O      28.13300000      17.77500000      24.43500000
 H      27.30200000      18.12500000      24.04200000
 H      27.81000000      17.16100000      25.08600000
 O      33.66000000      35.50500000      35.55600000
 H      32.91600000      34.83300000      35.43000000
 H      34.17500000      35.03100000      36.26300000
 O      37.09300000      26.07500000      39.21900000
 H      36.21300000      25.77500000      38.89400000
 H      36.86400000      26.26900000      40.17000000
 O      29.52700000      29.72600000      32.04000000
 H      29.43900000      29.86800000      31.07800000
 H      28.66300000      29.47800000      32.33400000
 O      40.42200000      25.92000000      13.19100000
 H      39.59100000      26.08700000      12.69300000
 H      40.24700000      26.26400000      14.03300000
 O      38.17900000      36.57000000      26.62000000
 H      38.19100000      37.49400000      26.50500000
 H      38.80300000      36.35600000      27.27600000
 O      27.32900000      21.08300000      34.91700000
 H      27.80500000      21.11900000      34.06800000
 H      27.68700000      21.94600000      35.26100000
 O      34.63200000      31.09400000      38.95900000
 H      33.85400000      31.49000000      38.53400000
 H      35.12100000      31.94400000      39.22100000
 O      40.55500000      30.96200000      16.91500000
 H      41.00800000      30.04800000      16.83900000
 H      40.71000000      31.06200000      17.88000000
 O      31.61400000      22.94100000      22.63800000
 H      31.85800000      23.65300000      23.22900000
 H      30.88600000      23.43400000      22.14000000
 O      30.17500000      18.70400000      18.07000000
 H      29.70200000      18.96800000      17.25200000
 H      30.98600000      19.23800000      17.97300000
 O      34.88300000      38.12600000      36.19000000
 H      34.22200000      37.46700000      36.05100000
 H      35.65200000      37.60200000      36.46800000
 O      32.11500000      40.44700000      36.34900000
 H      32.13700000      40.60700000      35.40300000
 H      31.63800000      39.57900000      36.33800000
 O      40.42100000      21.20200000      27.63800000
 H      39.76000000      20.65300000      28.07500000
 H      41.22900000      21.00100000      28.15200000
 O      32.93800000      40.48600000      23.93700000
 H      32.16200000      40.46000000      23.42400000
 H      33.16600000      39.60000000      24.15200000
 O      37.26500000      35.78800000      36.98200000
 H      37.64600000      36.46800000      36.38400000
 H      37.66500000      36.07700000      37.85100000
 O      34.09700000      39.44200000      38.75300000
 H      33.95600000      39.60200000      37.83900000
 H      33.51000000      40.19200000      39.13100000
 O      38.77600000      19.47600000      28.91700000
 H      39.56200000      19.26400000      29.46200000
 H      38.58500000      20.33400000      29.35300000
 O      34.22700000      13.80300000      24.50100000
 H      33.84600000      13.86400000      23.61000000
 H      33.70200000      14.47600000      25.03700000
 O      28.06800000      36.67200000      14.56600000
 H      27.96400000      36.57900000      13.62200000
 H      27.90100000      37.57000000      14.83800000
 O      36.16200000      23.76300000      18.71000000
 H      36.89200000      24.38200000      18.36400000
 H      35.39700000      24.03500000      18.20100000
 O      34.05600000      30.55100000      23.36800000
 H      34.58400000      30.48700000      24.16300000
 H      33.99300000      29.67500000      23.05500000
 O      34.90200000      23.18900000      22.38800000
 H      35.80400000      23.52900000      22.13100000
 H      34.34700000      23.56300000      21.65900000
 O      27.01200000      23.31700000      29.59400000
 H      27.88500000      23.13700000      29.93200000
 H      26.98800000      23.21000000      28.67800000
 O      36.36800000      24.34500000      36.07000000
 H      35.39400000      24.19800000      36.14800000
 H      36.63100000      23.43800000      35.82700000
 O      36.92600000      37.66700000      21.36500000
 H      37.47500000      36.91000000      21.63600000
 H      36.07800000      37.34200000      21.83700000
 O      39.59800000      21.31400000      21.10500000
 H      39.56300000      20.31400000      21.16400000
 H      38.76300000      21.44800000      20.60500000
 O      39.03300000      22.28100000      23.43200000
 H      39.29100000      21.53100000      24.02000000
 H      39.31500000      21.84500000      22.55800000
 O      33.74600000      36.96700000      32.93400000
 H      32.78200000      36.81700000      33.16300000
 H      34.19600000      36.60800000      33.72700000
 O      37.47400000      26.27800000      34.67400000
 H      37.27700000      27.05400000      35.23300000
 H      36.96700000      25.59600000      35.19500000
 O      39.27400000      35.67200000      29.10400000
 H      38.42600000      35.17300000      29.20700000
 H      39.29100000      36.21800000      29.89200000
 O      30.04700000      16.17200000      34.71400000
 H      29.58900000      15.43200000      35.15900000
 H      29.26100000      16.61900000      34.36500000
 O      30.52100000      27.57600000      19.33600000
 H      29.78500000      28.23700000      19.14600000
 H      30.13800000      26.78400000      18.82600000
 O      31.35700000      35.65600000      25.24500000
 H      31.86600000      34.86200000      25.00400000
 H      30.48200000      35.44900000      24.84800000
 O      28.53000000      29.38600000      18.83700000
 H      27.67100000      29.83400000      18.58700000
 H      29.20400000      30.00800000      18.42200000
 O      35.72500000      27.27800000      26.05900000
 H      35.33300000      26.52300000      25.57200000
 H      36.54100000      26.87800000      26.37000000
 O      40.11000000      39.84200000      35.46500000
 H      40.62300000      39.83600000      36.18400000
 H      40.09100000      40.77200000      35.19400000
 O      30.75800000      30.99900000      17.56300000
 H      30.54800000      31.11200000      16.60800000
 H      31.60300000      30.57300000      17.48900000
 O      38.69700000      40.18700000      18.93100000
 H      39.45600000      40.69000000      18.51200000
 H      39.24400000      39.40900000      19.21000000
 O      28.31000000      18.00500000      34.01300000
 H      28.53500000      18.95700000      34.05500000
 H      27.62600000      18.05900000      33.36300000
 O      40.38800000      21.21300000      37.89700000
 H      41.05200000      21.63600000      37.32700000
 H      39.64900000      21.85400000      37.79500000
 O      33.13000000      33.02400000      37.89600000
 H      33.63200000      33.84100000      38.21000000
 H      32.36900000      33.16300000      38.61300000
 O      38.86200000      24.38500000      25.24200000
 H      38.86000000      23.57300000      24.67200000
 H      39.57200000      24.89500000      24.87200000
 O      38.70800000      38.62200000      15.46200000
 H      38.17200000      37.82800000      15.70300000
 H      39.47500000      38.40200000      16.08600000
 O      30.90200000      36.14400000      30.86600000
 H      31.75500000      35.96000000      30.42300000
 H      30.29000000      36.22500000      30.11900000
 O      33.36300000      37.62100000      24.51600000
 H      32.59500000      36.98600000      24.55300000
 H      33.81400000      37.37500000      25.36200000
 O      31.14100000      20.30000000      32.80500000
 H      31.19500000      19.28400000      32.67100000
 H      31.88100000      20.51600000      32.17100000
 O      33.54600000      24.09300000      20.24400000
 H      33.62300000      23.92400000      19.30500000
 H      33.92600000      24.99200000      20.30100000
 O      40.37500000      35.53100000      34.98400000
 H      39.57900000      35.19400000      35.46300000
 H      39.99600000      35.90300000      34.18500000
 O      31.97300000      22.92500000      29.24500000
 H      31.31800000      22.57600000      28.63000000
 H      32.84100000      22.89100000      28.69300000
 O      28.45000000      35.32400000      29.48700000
 H      28.28200000      34.43900000      29.09000000
 H      28.32000000      35.14800000      30.42900000
 O      40.05400000      34.69200000      17.43400000
 H      40.28900000      34.46100000      18.35900000
 H      39.30000000      35.27400000      17.58200000
 O      31.35000000      18.95600000      21.45000000
 H      31.67900000      19.75000000      20.95300000
 H      30.68500000      19.41800000      22.02200000
 O      39.14100000      29.81400000      29.68900000
 H      39.77600000      30.56000000      29.84200000
 H      38.56900000      29.99500000      30.44400000
 O      31.69100000      30.33600000      26.55900000
 H      31.68600000      29.37600000      26.64900000
 H      31.07100000      30.44200000      25.78000000
 O      27.29300000      37.43400000      28.38900000
 H      27.88000000      36.58500000      28.34100000
 H      26.47200000      37.07200000      27.96300000
 O      33.38200000      29.83400000      14.29000000
 H      34.23800000      30.15200000      14.01800000
 H      33.30000000      29.03900000      13.71800000
 O      35.33500000      24.68500000      29.36400000
 H      36.21500000      24.53900000      29.63600000
 H      35.17500000      24.04200000      28.64400000
 O      32.33500000      16.70700000      19.91900000
 H      31.48600000      16.16200000      20.02300000
 H      32.11500000      17.45400000      20.49100000
 O      31.30400000      22.07100000      34.85200000
 H      31.18800000      21.28400000      34.30300000
 H      31.27100000      21.66900000      35.74300000
 O      37.31200000      30.16200000      35.12500000
 H      36.92000000      29.49900000      35.69600000
 H      36.80200000      30.97800000      35.41900000
 O      37.38300000      33.79100000      25.65400000
 H      37.85800000      34.55800000      26.12000000
 H      36.81900000      34.33700000      25.02100000
 O      30.35300000      15.55800000      17.03200000
 H      31.31200000      15.44800000      17.22700000
 H      30.19700000      16.36200000      17.58600000
 O      31.27200000      32.39400000      28.53600000
 H      31.79300000      33.25500000      28.59600000
 H      31.42200000      32.16600000      27.60900000
 O      37.18400000      19.60800000      39.85800000
 H      37.06000000      18.87100000      39.25400000
 H      36.94400000      20.37500000      39.28400000
 O      33.63500000      16.15400000      40.22700000
 H      32.97700000      15.67400000      39.72100000
 H      34.46100000      15.67800000      40.07600000
 O      36.48900000      13.81400000      34.54700000
 H      35.83800000      13.40400000      33.97200000
 H      36.20100000      13.47100000      35.43300000
 O      31.71800000      16.13300000      23.00200000
 H      30.85200000      16.47100000      22.72500000
 H      31.41700000      15.60700000      23.81200000
 O      35.51400000      29.88500000      25.35400000
 H      35.52100000      29.98000000      26.31600000
 H      35.70900000      28.88300000      25.28100000
 O      40.24500000      24.23500000      27.86700000
 H      40.14700000      23.29200000      28.12500000
 H      39.32200000      24.37700000      27.46800000
 O      36.09900000      15.73800000      30.98700000
 H      35.67000000      16.57300000      31.15700000
 H      36.94100000      15.85800000      31.47000000
 O      38.57500000      17.84500000      25.31700000
 H      37.91900000      18.02600000      26.04000000
 H      37.94800000      17.68800000      24.60300000
 O      37.91600000      35.78000000      19.25600000
 H      37.18800000      36.46600000      19.45100000
 H      37.50300000      34.95600000      19.47800000
 O      29.61900000      15.83600000      19.98400000
 H      29.06600000      16.70700000      19.94400000
 H      29.23700000      15.44900000      20.82100000
 O      28.29300000      28.20300000      24.63500000
 H      27.76200000      27.48200000      24.20900000
 H      27.90800000      28.21700000      25.51600000
 O      38.77600000      13.53200000      13.42200000
 H      38.89100000      13.95200000      14.29100000
 H      38.54200000      14.30000000      12.88100000
 O      28.61600000      36.93900000      22.91500000
 H      29.43400000      37.26100000      22.54500000
 H      27.93500000      37.44600000      22.41600000
 O      32.10700000      18.05600000      35.55500000
 H      31.92500000      17.83200000      36.45900000
 H      31.49300000      17.43500000      35.07100000
 O      28.90100000      21.86600000      39.21900000
 H      28.51200000      21.04300000      38.93800000
 H      29.86600000      21.54300000      39.26300000
 O      28.27400000      35.62300000      33.88400000
 H      28.61300000      34.71700000      33.66900000
 H      27.63100000      35.35000000      34.60400000
 O      38.16000000      28.49300000      26.98600000
 H      38.14400000      27.55200000      27.25500000
 H      38.44600000      28.90500000      27.85700000
 O      28.95800000      15.63200000      22.83900000
 H      28.82800000      16.32600000      23.50500000
 H      29.09800000      14.83600000      23.37400000
 O      37.95500000      28.26700000      22.49600000
 H      37.02500000      28.11100000      22.41300000
 H      38.23800000      27.36100000      22.73100000
 O      36.15700000      27.60000000      18.10200000
 H      35.79500000      26.94100000      18.74000000
 H      36.76300000      27.07800000      17.55900000
 O      37.55800000      23.13100000      28.12900000
 H      37.43800000      22.32600000      27.51500000
 H      37.94600000      22.67900000      28.94200000
 O      27.68000000      14.51600000      18.17300000
 H      28.46500000      15.07900000      18.18300000
 H      27.43100000      14.56200000      19.16500000
 O      27.81500000      21.25600000      14.13300000
 H      27.67900000      22.11300000      14.56500000
 H      26.88900000      20.98300000      13.90600000
 O      28.17300000      38.22400000      25.75200000
 H      28.07500000      37.46300000      25.22600000
 H      27.66600000      37.97500000      26.58700000
 O      28.56300000      32.86300000      33.68400000
 H      28.10100000      32.61900000      34.53700000
 H      29.37500000      32.31000000      33.84800000
 O      31.82100000      27.17000000      23.63900000
 H      30.97700000      26.86300000      23.13200000
 H      31.50800000      27.63500000      24.40800000
 O      32.97900000      15.33900000      17.68000000
 H      32.95700000      16.09700000      18.28700000
 H      33.88000000      14.94500000      17.95300000
 O      39.48300000      26.96400000      38.12900000
 H      40.13300000      27.40500000      38.71400000
 H      38.80000000      26.73700000      38.78900000
 O      29.96100000      25.00200000      26.69300000
 H      30.05900000      24.04800000      26.77600000
 H      29.05800000      25.14600000      26.96800000
 O      36.86800000      18.34500000      27.43300000
 H      36.30700000      18.01300000      28.16800000
 H      37.56100000      18.86200000      27.91800000
 O      37.63500000      30.37900000      19.46500000
 H      38.13200000      30.65600000      20.27700000
 H      36.71200000      30.36000000      19.89600000
 O      39.34500000      29.05600000      24.72100000
 H      38.67200000      28.98700000      24.06500000
 H      38.79900000      28.98300000      25.55800000
 O      34.55600000      13.36300000      31.63300000
 H      33.58000000      13.64900000      31.61600000
 H      34.96900000      14.27800000      31.49600000
 O      34.27000000      32.73900000      30.87800000
 H      33.64700000      33.15400000      31.53000000
 H      33.67500000      32.45700000      30.16800000
 O      33.94000000      16.53900000      34.27800000
 H      33.38300000      17.08200000      34.89000000
 H      33.22600000      15.86500000      34.05000000
 O      31.21900000      33.79000000      39.53300000
 H      30.30900000      33.37400000      39.51600000
 H      31.20700000      33.94900000      40.52900000
 O      36.05600000      30.63000000      28.31200000
 H      36.30000000      30.74300000      29.29200000
 H      35.84800000      29.69500000      28.35800000
 O      37.40000000      24.61800000      21.91400000
 H      37.77200000      23.68800000      22.07000000
 H      38.32800000      25.04900000      22.05100000
 O      30.33800000      31.69100000      36.90000000
 H      30.65600000      31.12500000      36.17600000
 H      30.21000000      30.97100000      37.57500000
 O      38.98800000      23.61400000      37.30500000
 H      38.10500000      23.94000000      37.04800000
 H      39.29100000      24.25200000      37.93200000
 O      34.98300000      28.15500000      28.58100000
 H      35.33500000      27.59500000      29.32800000
 H      35.09600000      27.57400000      27.80400000
 O      33.76800000      38.22800000      13.75300000
 H      34.35600000      37.85000000      14.46000000
 H      33.31100000      37.35200000      13.48100000
 O      34.69300000      18.65900000      17.49300000
 H      35.16600000      19.29900000      16.96300000
 H      34.75100000      19.07500000      18.37300000
 O      29.64900000      40.27300000      25.33000000
 H      29.18200000      39.42100000      25.46300000
 H      30.05800000      40.08100000      24.43400000
 O      32.56600000      28.59000000      29.83600000
 H      33.29500000      28.48500000      29.21200000
 H      32.27300000      27.62500000      29.81800000
 O      36.79100000      17.93900000      23.37000000
 H      35.91200000      17.81500000      23.84500000
 H      36.47000000      17.50900000      22.51300000
 O      27.04100000      26.58500000      17.22200000
 H      27.15200000      27.06000000      16.40800000
 H      27.99800000      26.24600000      17.33200000
 O      38.43000000      23.33700000      14.38600000
 H      38.35600000      24.16600000      13.85300000
 H      37.60400000      22.92300000      13.99900000
 O      38.08900000      25.52300000      18.18000000
 H      38.82600000      25.50600000      17.54900000
 H      38.49300000      26.06800000      18.88000000
 O      36.30700000      21.35200000      15.58300000
 H      37.25300000      21.25700000      15.89400000
 H      36.49400000      21.33800000      14.57800000
 O      35.64900000      14.13200000      28.50200000
 H      35.89000000      14.77400000      29.23700000
 H      35.23700000      14.80500000      27.87800000
 O      28.86100000      19.18300000      15.46400000
 H      28.56600000      20.00700000      14.93500000
 H      28.86600000      18.56400000      14.69900000
 O      30.63500000      31.05900000      34.00500000
 H      31.46700000      30.51000000      33.95600000
 H      30.17800000      30.68000000      33.23400000
 O      37.88000000      30.13500000      16.94700000
 H      37.76300000      30.29800000      17.89500000
 H      38.77900000      30.50100000      16.79600000
 O      29.86400000      14.65500000      38.75000000
 H      30.03700000      14.14900000      39.56800000
 H      29.98200000      13.86700000      38.13800000
 O      38.95600000      30.29200000      32.72900000
 H      38.60500000      30.17600000      33.63300000
 H      38.85400000      31.23800000      32.61900000
 O      32.43600000      13.56900000      21.29700000
 H      32.25000000      13.29300000      20.39900000
 H      32.25800000      14.52500000      21.28800000
