325
XYZ file of cluster: frame_5000_250b5.212d3.4da88 - created by MolEdiTo
 O      10.59100000       9.08700000      15.45800000
 H      10.13500000       8.21000000      15.44200000
 H       9.95900000       9.56900000      14.86000000
 O      17.58600000       8.01300000      16.23400000
 H      17.52500000       8.99500000      16.31300000
 H      17.04600000       7.94500000      15.44700000
 O      12.41700000      17.62800000      24.60900000
 H      13.32200000      17.28800000      24.70200000
 H      12.21900000      17.18900000      23.71500000
 O       9.93900000      11.35900000      25.68300000
 H       9.56800000      11.62100000      26.55300000
 H       9.65600000      10.43100000      25.65200000
 O      12.20200000      10.44800000      21.21800000
 H      11.92700000      11.12100000      21.85300000
 H      13.17600000      10.33700000      21.47200000
 O      15.42100000      17.69600000      27.58600000
 H      15.67100000      18.60000000      27.96200000
 H      14.46000000      17.84300000      27.50600000
 O      16.06300000       8.50800000      13.84600000
 H      16.20800000       9.38000000      14.22400000
 H      15.07500000       8.47000000      13.94400000
 O       8.19500000      13.65600000      20.73600000
 H       9.18400000      13.49800000      20.66000000
 H       7.86900000      12.77000000      20.48700000
 O      17.66400000      19.52100000      14.00900000
 H      16.94100000      19.49600000      14.71600000
 H      17.50300000      20.43100000      13.69400000
 O       8.53500000      12.89500000      16.28600000
 H       8.43700000      11.89200000      16.30500000
 H       7.61500000      13.13500000      16.45600000
 O      14.98700000       6.00700000      14.94800000
 H      14.77500000       6.93600000      15.03900000
 H      14.50700000       5.62900000      15.75000000
 O       9.70700000       9.71600000      19.75700000
 H       9.15400000      10.02900000      20.48400000
 H      10.57800000       9.91300000      20.05900000
 O      17.20400000      12.92000000      17.92400000
 H      17.78000000      13.27600000      17.16600000
 H      17.23600000      13.75600000      18.47600000
 O      20.73100000      17.21300000      23.42900000
 H      20.73300000      17.98200000      24.08900000
 H      21.21900000      16.60900000      24.01300000
 O       7.94400000      15.95600000      17.47400000
 H       7.25000000      15.33100000      17.18500000
 H       8.71400000      15.35500000      17.59800000
 O      17.66800000      13.60800000      21.46400000
 H      17.60300000      14.06100000      20.56200000
 H      17.93300000      12.74500000      21.26700000
 O      14.93100000      16.57300000      24.30300000
 H      15.23800000      17.41700000      23.88100000
 H      15.78600000      16.22200000      24.62800000
 O      11.75800000      20.34600000      21.32900000
 H      11.77900000      20.74700000      22.21100000
 H      12.70800000      19.95300000      21.29900000
 O      11.36400000      14.77200000      26.39900000
 H      12.16500000      14.83000000      27.01200000
 H      11.90700000      14.54600000      25.57800000
 O      20.09200000       7.30000000      16.31200000
 H      19.21200000       7.65600000      16.43900000
 H      19.86400000       6.55800000      15.67700000
 O      13.63700000       8.49700000      15.12300000
 H      12.73100000       8.69600000      14.85500000
 H      13.65500000       9.11100000      15.94800000
 O       7.73200000      13.80700000      13.92900000
 H       8.31100000      13.20600000      13.36300000
 H       8.12100000      13.46100000      14.80800000
 O      12.21900000       7.98200000      26.96800000
 H      12.90200000       7.37500000      27.33500000
 H      12.72900000       8.33500000      26.21600000
 O      14.63600000      10.87800000      22.68900000
 H      15.22800000      11.68600000      22.84900000
 H      15.23000000      10.39900000      22.07100000
 O      11.72300000       8.02100000      22.14900000
 H      11.85200000       8.92300000      21.84500000
 H      12.54400000       7.53400000      21.82500000
 O      16.57700000      19.61300000      16.42700000
 H      16.19000000      18.74200000      16.69700000
 H      15.97200000      20.22100000      16.89100000
 O      18.14800000      20.81100000      27.35600000
 H      17.44900000      20.77200000      28.03000000
 H      18.21200000      19.88100000      27.08900000
 O      20.86700000      11.56300000      24.09100000
 H      20.53800000      10.86400000      23.44100000
 H      21.58400000      11.94600000      23.50800000
 O      11.89700000      14.16700000      14.62000000
 H      12.22800000      13.33400000      14.96100000
 H      12.04700000      13.96500000      13.66900000
 O      13.47700000      14.02000000      24.65200000
 H      13.90500000      14.93300000      24.58900000
 H      14.22100000      13.53100000      24.23000000
 O      14.08300000      19.17200000      21.00700000
 H      14.63300000      18.87500000      21.76700000
 H      14.33900000      20.13700000      21.06800000
 O      20.61300000       7.51200000      18.78900000
 H      20.66300000       6.57900000      19.06900000
 H      20.48700000       7.33500000      17.79500000
 O       7.75800000      16.85600000      22.21100000
 H       8.45600000      17.50100000      21.99100000
 H       8.18800000      16.46000000      23.04500000
 O      12.06000000      16.79500000      17.95300000
 H      11.53000000      16.02700000      17.75100000
 H      11.38300000      17.33100000      18.47200000
 O       8.48800000       9.11500000      25.97000000
 H       8.74700000       8.55100000      25.22500000
 H       8.90500000       8.63100000      26.71200000
 O      14.27300000      16.94900000      19.41800000
 H      13.94800000      17.69600000      19.95500000
 H      13.57100000      16.86300000      18.75500000
 O      19.09800000      11.29800000      26.13900000
 H      19.83600000      11.34500000      26.82400000
 H      19.67700000      11.36200000      25.33300000
 O      12.52500000      17.82500000      15.45200000
 H      11.89100000      17.26700000      14.88200000
 H      12.40300000      17.32600000      16.28500000
 O      17.56200000      16.18800000      24.94600000
 H      17.82500000      16.14700000      24.07200000
 H      17.53900000      15.25600000      25.20900000
 C      22.21300000      21.56800000      20.38500000
 C      21.60600000      20.76600000      21.65300000
 C      19.33500000      19.92100000      20.62900000
 H      19.75200000      20.15200000      22.64300000
 H      24.08000000      21.18600000      19.96900000
 O      19.57400000      22.07800000      21.86500000
 O      22.12300000      20.67100000      19.25700000
 O      23.57100000      21.77200000      20.59500000
 C      20.07100000      20.71900000      21.75000000
 O      22.00400000      19.38700000      21.68100000
 H      21.99300000      21.23900000      22.57200000
 O      18.01900000      19.47400000      21.00500000
 O      19.16900000      20.72000000      19.40500000
 H      19.33000000      20.07600000      18.70100000
 H      21.90400000      19.03300000      22.58800000
 H      19.72600000      22.57300000      20.99700000
 O      15.09500000       8.66400000      19.94900000
 H      14.67400000       8.05600000      20.58700000
 H      15.45600000       8.08800000      19.31000000
 O       6.46200000      16.03800000      27.44900000
 H       6.61200000      16.22300000      28.41800000
 H       7.18500000      15.43300000      27.31900000
 O      15.18400000      12.04700000      14.76500000
 H      15.02300000      13.00000000      15.05100000
 H      14.28900000      11.65500000      15.02000000
 O      20.68700000      17.59500000      15.32200000
 H      20.23300000      17.22800000      14.52100000
 H      20.90300000      18.51000000      15.04400000
 O      10.33200000      16.42300000      14.09100000
 H       9.37700000      16.27100000      14.27000000
 H      10.68500000      15.54600000      14.28200000
 O      19.61500000      13.30300000      15.70900000
 H      18.97300000      14.02700000      15.32000000
 H      20.22300000      13.86900000      16.21300000
 O      13.82500000       9.68900000      24.92700000
 H      13.97700000      10.04600000      24.05900000
 H      14.20100000       8.78700000      24.83500000
 O       9.40100000      18.28900000      18.74700000
 H       9.23900000      18.04000000      19.68000000
 H       9.04800000      17.59100000      18.22800000
 O       8.92200000      15.51500000      24.41300000
 H       9.33200000      15.10300000      25.13800000
 H       8.05200000      14.97500000      24.36800000
 O       9.67700000      19.69200000      28.32000000
 H       8.98400000      20.31900000      28.05400000
 H       9.63100000      19.10900000      27.53200000
 O      12.04200000       6.37000000      17.73100000
 H      12.53700000       7.26600000      17.67000000
 H      12.78000000       5.84100000      17.98800000
 O      18.94400000      18.86900000      17.46200000
 H      17.95000000      18.86600000      17.23300000
 H      19.32400000      18.62100000      16.63900000
 O      12.32200000      12.34500000      18.29700000
 H      11.94500000      12.35600000      19.21100000
 H      13.13400000      12.86700000      18.47000000
 O      18.18700000      17.97400000      26.86800000
 H      18.04900000      17.33800000      26.17000000
 H      17.39600000      17.84700000      27.41000000
 O      11.72300000      16.12900000      22.62100000
 H      11.01800000      15.45400000      22.92300000
 H      12.42300000      15.55000000      22.37500000
 O      12.12500000      20.47900000      14.46100000
 H      12.41000000      19.69400000      15.01300000
 H      12.06000000      21.16900000      15.12100000
 O      10.45300000      21.12000000      19.06700000
 H      10.93000000      21.07200000      19.94900000
 H      10.15200000      20.16300000      19.06600000
 O      15.70600000      13.27800000      23.37500000
 H      16.17200000      13.51100000      22.54500000
 H      16.54700000      13.34300000      23.92600000
 O      12.37300000      20.54400000      23.95300000
 H      12.29800000      20.82000000      24.94100000
 H      12.50100000      19.55700000      24.11000000
 O      16.88400000      10.55100000      20.69400000
 H      16.49500000       9.72600000      20.44700000
 H      17.80500000      10.47500000      20.39800000
 O      19.69100000      13.74000000      19.36700000
 H      19.95800000      13.84300000      20.33700000
 H      20.06000000      14.65100000      19.10900000
 O      18.66200000      16.73000000      19.28800000
 H      18.79900000      17.46400000      18.69200000
 H      19.39400000      16.83900000      19.94000000
 O      14.86900000       6.93500000      24.68600000
 H      15.83600000       7.17000000      24.75800000
 H      14.88600000       6.12100000      25.29700000
 O      20.15600000      10.91900000      16.68000000
 H      19.82900000      11.71400000      16.25600000
 H      21.10000000      10.99600000      16.77300000
 O      17.94100000      16.78600000      22.25100000
 H      18.84700000      17.05500000      22.42000000
 H      18.00700000      16.49200000      21.34000000
 O      12.23600000      21.22400000      26.49000000
 H      12.04800000      20.32900000      26.84400000
 H      12.30600000      21.71800000      27.35700000
 O       7.25400000       8.87400000      18.52300000
 H       7.74000000       8.06300000      18.38100000
 H       8.00300000       9.45500000      18.88300000
 O       7.99700000      10.77300000      21.44800000
 H       7.12100000      10.34300000      21.33800000
 H       7.93200000      11.10200000      22.40900000
 O      20.25300000      10.23300000      21.83600000
 H      19.76300000       9.99900000      20.97300000
 H      21.09200000      10.53300000      21.38200000
 O      16.59700000      10.43200000      16.42400000
 H      16.83700000      11.18000000      17.04500000
 H      16.17400000      10.97900000      15.70500000
 O      20.78500000      18.31100000      27.57800000
 H      20.72000000      18.82900000      28.39600000
 H      19.89400000      18.24600000      27.27500000
 O      11.89400000      12.36900000      23.23300000
 H      11.39000000      12.13300000      24.03000000
 H      12.72100000      12.69400000      23.62200000
 O       8.81900000      14.39800000      27.57900000
 H       9.76000000      14.42700000      27.34500000
 H       8.79600000      14.37400000      28.56300000
 O      13.50300000      14.79600000      21.17900000
 H      13.99000000      13.93400000      20.93200000
 H      13.90400000      15.40100000      20.62800000
 O       7.82500000      12.02300000      24.03600000
 H       8.67000000      12.14400000      24.50800000
 H       7.29300000      12.71600000      24.54800000
 O      20.52400000      20.11100000      14.24900000
 H      20.41600000      21.07400000      14.33100000
 H      19.60600000      19.82000000      14.09300000
 O       8.28200000      20.07100000      24.88400000
 H       9.21100000      19.76400000      25.03200000
 H       7.80800000      19.27900000      25.23600000
 O      14.46900000      14.33900000      16.09500000
 H      14.84800000      15.26500000      16.00500000
 H      13.54700000      14.53800000      15.97500000
 O      14.95800000      12.58200000      20.01900000
 H      15.57100000      12.98400000      19.34500000
 H      15.42000000      11.81200000      20.27800000
 O      18.26400000      15.03700000      14.20300000
 H      18.62000000      15.80300000      13.70300000
 H      17.46300000      14.85400000      13.64800000
 O       9.97500000      18.16800000      21.55100000
 H      10.43800000      18.97900000      21.50100000
 H      10.63200000      17.46600000      21.70600000
 O      13.16100000       9.46400000      17.90600000
 H      13.86700000       9.43600000      18.57100000
 H      12.50900000      10.12600000      18.24600000
 O       9.74000000       7.38600000      24.26200000
 H      10.34100000       6.75700000      24.71500000
 H      10.28000000       7.75900000      23.55000000
 O      18.40200000       6.89200000      21.23300000
 H      17.72400000       6.21600000      21.40400000
 H      18.46100000       6.93100000      20.30600000
 O       7.00900000      10.55800000      16.26500000
 H       6.48300000      10.24500000      15.48100000
 H       7.01000000       9.72300000      16.81100000
 O      16.04100000      18.89500000      23.13800000
 H      16.37500000      19.84200000      23.31600000
 H      16.73100000      18.55100000      22.52500000
 O      13.68200000      10.68700000      27.35500000
 H      13.55300000      10.42100000      26.42900000
 H      14.33100000      11.42400000      27.29200000
 O      10.11300000      18.20400000      26.02100000
 H      10.85700000      17.93100000      25.35200000
 H       9.61200000      17.34300000      25.83900000
 O      14.15300000       6.96600000      21.89500000
 H      14.64300000       6.92800000      22.72400000
 H      14.17400000       6.01100000      21.64200000
 O      16.37700000      15.35000000      19.31900000
 H      17.17200000      15.88600000      19.26000000
 H      15.67600000      16.06300000      19.38800000
 O      17.52800000       9.45900000      27.87500000
 H      17.80500000      10.23500000      27.32300000
 H      18.18400000       9.59300000      28.65000000
 O      11.39500000      13.18100000      20.65800000
 H      12.10700000      13.87200000      20.53800000
 H      11.52600000      13.02700000      21.59300000
 O      10.24800000      14.57400000      17.73000000
 H      10.42900000      13.85300000      18.31600000
 H       9.87500000      14.15300000      16.95100000
 O      12.52900000      11.33100000      15.64300000
 H      12.44800000      11.78300000      16.51600000
 H      11.89000000      10.64700000      15.67700000
 O      19.42000000       9.91900000      19.23900000
 H      19.78600000       9.00800000      19.18600000
 H      19.56900000      10.17300000      18.30700000
 O       9.69200000       7.05000000      19.28000000
 H      10.38200000       6.71200000      18.73900000
 H       9.89300000       8.03600000      19.21100000
 O      17.34900000      13.40900000      25.79600000
 H      16.73100000      12.95200000      26.45600000
 H      18.06300000      12.73500000      25.84900000
 O      17.83600000      10.83200000      13.84000000
 H      17.76000000      11.26300000      14.70900000
 H      18.65600000      11.23500000      13.50000000
 O      20.58300000      12.21800000      13.20700000
 H      20.45900000      12.56200000      14.13300000
 H      21.30500000      11.57400000      13.40600000
 O      18.06800000       8.91000000      22.85800000
 H      18.14500000       8.15400000      22.23100000
 H      18.98300000       9.24500000      22.83700000
 O       6.65100000      10.68300000      26.82600000
 H       7.38600000      11.17900000      27.30000000
 H       7.23600000      10.00100000      26.42500000
 O      15.06900000      16.93500000      15.38900000
 H      15.19300000      16.81400000      14.43100000
 H      14.26400000      17.49900000      15.34200000
 O      17.76000000       7.58500000      25.40600000
 H      17.82800000       8.34100000      24.82100000
 H      17.62500000       8.00400000      26.29700000
 O       6.98400000      13.87100000      25.71300000
 H       7.73700000      13.86700000      26.31100000
 H       6.32000000      13.47300000      26.30700000
