114
XYZ file of cluster: frame_10500_710da.750ea.c7065 - created by MolEdiTo
 O      23.04600000      22.05700000      26.67700000
 H      22.76600000      22.62300000      25.89500000
 H      24.02300000      22.08200000      26.47200000
 O      16.59900000      19.05800000      30.03800000
 H      17.31900000      19.68100000      29.99300000
 H      16.99000000      18.13900000      30.07300000
 O      24.70700000      20.15900000      29.66800000
 H      24.01600000      19.64000000      29.24800000
 H      25.39400000      19.49400000      30.00400000
 O      23.07100000      26.05400000      30.57900000
 H      22.16800000      25.93300000      30.96900000
 H      23.24200000      25.15600000      29.99500000
 O      20.92700000      26.32100000      28.24800000
 H      20.74700000      26.31200000      27.33500000
 H      20.68300000      25.45200000      28.64800000
 O      21.15600000      18.11800000      30.72900000
 H      22.03600000      18.13800000      31.17200000
 H      21.31600000      18.19500000      29.77300000
 O      26.73700000      21.98400000      29.25500000
 H      26.59300000      22.32700000      30.12700000
 H      25.92500000      21.46600000      29.16200000
 O      17.53600000      17.39500000      26.99700000
 H      16.87300000      17.58100000      26.22800000
 H      18.06200000      18.18400000      26.98400000
 O      18.63700000      24.19300000      29.23300000
 H      17.76600000      24.19800000      28.81900000
 H      18.56400000      23.59700000      30.01700000
 O      17.14300000      25.25300000      26.63300000
 H      17.81200000      25.60800000      26.04200000
 H      16.47200000      25.87600000      26.60700000
 O      19.03200000      21.53100000      27.93300000
 H      18.81700000      22.50000000      28.09000000
 H      18.23700000      21.21700000      27.38500000
 O      20.42100000      16.12700000      27.74400000
 H      21.04500000      15.84300000      27.02700000
 H      19.93700000      16.85500000      27.29300000
 O      22.83600000      23.48200000      29.56100000
 H      22.17500000      23.20400000      30.28100000
 H      22.95100000      22.63900000      29.08500000
 O      24.01900000      16.34900000      28.21800000
 H      24.28200000      17.29300000      28.29200000
 H      24.55300000      16.09400000      27.45800000
 O      15.38800000      24.75800000      29.84300000
 H      16.17900000      25.16600000      30.16400000
 H      15.44200000      23.84500000      30.21300000
 O      25.38100000      26.57200000      27.07400000
 H      25.77800000      25.69900000      27.30200000
 H      24.92200000      26.94000000      27.86200000
 O      21.58000000      20.19800000      28.54200000
 H      21.89500000      21.01600000      28.13100000
 H      20.62500000      20.32300000      28.37300000
 O      17.96000000      25.03300000      35.76900000
 H      18.58800000      24.49100000      36.23400000
 H      18.17700000      25.82600000      36.25100000
 O      20.47000000      17.15700000      35.60500000
 H      21.31500000      16.58000000      35.64600000
 H      20.29900000      17.21700000      34.62100000
 O      17.03200000      26.48700000      33.25600000
 H      17.63200000      27.22800000      33.44400000
 H      17.49100000      25.71700000      33.58600000
 O      18.45400000      16.33300000      37.47300000
 H      17.80200000      15.83300000      36.98500000
 H      19.01500000      16.60400000      36.78900000
 O      18.37500000      16.91600000      32.82200000
 H      19.13300000      17.33700000      32.30700000
 H      18.79100000      16.05100000      33.02300000
 O      22.83200000      20.53100000      34.85000000
 H      22.22700000      21.22000000      34.50400000
 H      23.10300000      20.25900000      33.85400000
 O      15.02600000      25.29700000      35.47800000
 H      15.93100000      25.42900000      35.16900000
 H      14.64400000      26.01600000      34.98900000
 O      16.69300000      15.99700000      34.86000000
 H      16.59300000      15.23600000      34.22800000
 H      16.42700000      16.74600000      34.27600000
 O      18.37600000      21.54800000      36.61200000
 H      19.18500000      21.67700000      37.02300000
 H      18.29500000      20.56400000      36.70000000
 O      15.63900000      21.50600000      34.81600000
 H      16.12900000      20.64900000      35.09700000
 H      15.32800000      21.78000000      35.65400000
 O      18.81600000      20.13300000      33.21300000
 H      18.16400000      19.62900000      33.73400000
 H      19.52400000      19.47700000      32.94600000
 O      20.77400000      19.67200000      36.64000000
 H      20.57800000      18.77700000      36.10400000
 H      21.54500000      19.97800000      36.10400000
 O      16.42200000      19.11200000      35.87300000
 H      16.12500000      18.83700000      36.73600000
 H      15.88500000      18.63100000      35.19200000
 O      24.47900000      24.39200000      35.66400000
 H      24.97600000      23.99000000      34.97300000
 H      24.96900000      25.12100000      35.97600000
 O      16.44000000      23.52400000      37.60500000
 H      16.50700000      24.28900000      36.92600000
 H      17.11100000      22.89500000      37.19700000
 O      21.12200000      22.59100000      33.18100000
 H      20.31800000      22.08800000      32.84600000
 H      20.70700000      23.38200000      33.53100000
 O      22.27000000      22.98900000      37.19400000
 H      22.57900000      23.00900000      38.17600000
 H      23.04100000      23.32000000      36.67100000
 O      20.59500000      25.07700000      34.06200000
 H      20.15200000      25.92800000      33.84700000
 H      21.13100000      25.30800000      34.82700000
 O      23.88100000      17.82100000      33.21300000
 H      23.97000000      16.81700000      33.15500000
 H      24.80200000      18.10500000      33.27200000
 O      24.88300000      18.99700000      36.58800000
 H      24.48400000      19.65700000      35.96600000
 H      25.11800000      18.19700000      36.06500000
 O      17.73600000      22.68200000      33.28500000
 H      17.12400000      22.56800000      34.02400000
 H      18.16600000      21.77500000      33.09200000
