117
XYZ file of cluster: frame_19500_c14d3.4b67a.76844 - created by MolEdiTo
 O      27.82300000      13.69000000      17.33600000
 H      28.30100000      12.99600000      16.83800000
 H      28.32400000      13.90400000      18.18100000
 O      29.15700000      16.48400000      16.30800000
 H      29.86500000      17.16300000      16.28700000
 H      28.69100000      16.66100000      15.43200000
 O      30.62000000      18.33800000      23.14700000
 H      31.20800000      18.20600000      23.90600000
 H      29.99600000      19.07600000      23.42100000
 O      30.41900000      15.18300000      18.47500000
 H      29.85700000      15.36200000      17.74000000
 H      31.30700000      15.47900000      18.21200000
 O      29.87500000      14.75000000      25.16500000
 H      30.67500000      15.28400000      24.97800000
 H      29.15400000      15.15100000      24.58700000
 O      27.39700000      13.07200000      20.97100000
 H      27.57100000      13.95000000      20.60000000
 H      26.83500000      12.62400000      20.28100000
 O      29.66300000      11.93200000      25.21700000
 H      29.65700000      11.64300000      24.16300000
 H      29.92600000      12.87000000      25.09700000
 O      26.42500000      18.13800000      17.98600000
 H      26.64000000      17.28100000      17.44400000
 H      25.48900000      18.30500000      17.62000000
 O      29.09900000      19.81400000      17.54500000
 H      28.95100000      20.77900000      17.60400000
 H      28.22400000      19.32400000      17.63300000
 O      29.11400000      11.24300000      22.75600000
 H      29.07800000      12.07300000      22.25900000
 H      28.26500000      11.20900000      23.15400000
 O      28.77100000      20.45100000      23.79600000
 H      27.90900000      19.88200000      23.86400000
 H      28.63300000      21.36800000      24.21100000
 O      25.66100000      13.48600000      15.66100000
 H      25.12500000      14.16500000      16.05400000
 H      26.60000000      13.80600000      15.78800000
 O      28.39400000      16.64500000      23.31100000
 H      27.97200000      17.07200000      22.51200000
 H      29.30700000      17.01100000      23.24000000
 O      26.54200000      11.52700000      18.72800000
 H      26.42600000      12.33400000      18.20000000
 H      27.14500000      10.87600000      18.29600000
 O      30.12300000      13.06300000      20.44500000
 H      30.13900000      13.59200000      19.63100000
 H      29.28200000      13.33800000      20.79700000
 O      27.92600000      19.96100000      20.56700000
 H      28.19500000      20.60800000      21.29300000
 H      27.25000000      20.56000000      20.06200000
 O      27.26600000      15.52300000      19.36700000
 H      27.40300000      15.40200000      18.48700000
 H      27.03500000      16.46200000      19.47800000
 O      30.34100000      10.45300000      18.12500000
 H      30.21400000      10.71200000      17.16700000
 H      29.48500000       9.92100000      18.26100000
 O      27.40100000      14.11300000      23.66900000
 H      27.13500000      13.67000000      22.87600000
 H      27.36800000      15.05300000      23.44600000
 O      34.27900000      20.27600000      23.85700000
 H      33.91400000      21.08200000      24.35500000
 H      34.60400000      19.72400000      24.59200000
 O      35.92400000      19.82700000      21.50100000
 H      35.19800000      19.85500000      22.12900000
 H      36.27000000      18.89900000      21.46500000
 O      32.72200000      19.34900000      19.95900000
 H      31.78100000      19.27900000      19.80000000
 H      32.93800000      18.43900000      20.00800000
 O      36.88800000      16.73600000      24.37700000
 H      37.07000000      16.89700000      23.35900000
 H      37.39800000      17.45200000      24.75100000
 O      35.68000000      15.71800000      20.02200000
 H      35.01700000      16.18800000      20.57100000
 H      35.62900000      16.06200000      19.10100000
 O      34.52800000      12.64500000      18.96600000
 H      33.64100000      12.35400000      19.37500000
 H      34.67700000      13.49200000      19.44300000
 O      36.20200000       9.85300000      22.66400000
 H      36.24600000      10.60000000      22.02800000
 H      36.98100000      10.12800000      23.20500000
 O      34.30800000      15.74400000      23.82500000
 H      35.10800000      16.21700000      24.25700000
 H      34.35200000      16.03600000      22.89200000
 O      37.14000000      12.43900000      18.08100000
 H      36.89500000      11.48200000      17.99900000
 H      36.28500000      12.83500000      18.24900000
 O      34.14900000      13.03400000      15.65000000
 H      33.76200000      13.91000000      15.40500000
 H      34.04600000      13.03300000      16.61200000
 O      36.17900000      12.96800000      23.31900000
 H      35.97800000      13.88400000      23.01600000
 H      36.57100000      12.97400000      24.23400000
 O      33.97100000      10.91600000      24.24400000
 H      34.02700000      11.89400000      24.05800000
 H      34.65900000      10.51300000      23.68000000
 O      33.45000000      16.94000000      21.04900000
 H      33.06000000      17.54200000      21.81300000
 H      32.69300000      16.40900000      20.62300000
 O      35.61400000      10.39700000      15.76800000
 H      34.98700000       9.78400000      15.30800000
 H      35.32500000      11.31700000      15.64300000
 O      35.91200000      18.82000000      18.32400000
 H      36.85600000      19.10000000      18.30700000
 H      35.50700000      19.19500000      19.11000000
 O      36.55800000      12.23800000      25.85400000
 H      35.97400000      12.09300000      26.65000000
 H      36.80200000      11.30600000      25.55100000
 O      32.98800000      18.29300000      16.49600000
 H      33.64900000      19.04200000      16.53600000
 H      32.17900000      18.71100000      16.95100000
 O      35.71100000      20.84800000      15.22400000
 H      35.20700000      21.04400000      16.03600000
 H      36.59500000      21.12900000      15.42700000
 O      33.50200000      21.27100000      17.00100000
 H      32.94700000      20.51400000      17.35300000
 H      32.80400000      21.96100000      17.06100000
 O      34.56200000      16.14900000      17.12800000
 H      34.51800000      17.10600000      16.85000000
 H      35.50700000      15.77400000      16.96200000
