129
XYZ file of cluster: frame_19500_c41a1.76b3d.477d0 - created by MolEdiTo
 O      27.77800000      17.32000000      13.95200000
 H      27.22200000      17.58200000      13.17000000
 H      28.64500000      17.25900000      13.55600000
 O      29.15700000      16.48400000      16.30800000
 H      29.86500000      17.16300000      16.28700000
 H      28.69100000      16.66100000      15.43200000
 O      29.17400000      25.60000000      13.81900000
 H      29.21400000      24.98600000      13.12000000
 H      29.84800000      26.31800000      13.57200000
 O      27.92600000      19.96100000      20.56700000
 H      28.19500000      20.60800000      21.29300000
 H      27.25000000      20.56000000      20.06200000
 O      26.91900000      16.52600000      11.01300000
 H      27.35900000      17.35000000      10.68200000
 H      27.61700000      15.88600000      11.18500000
 O      29.03700000      24.07700000      10.91900000
 H      29.29500000      23.19300000      10.55100000
 H      29.86100000      24.62300000      10.81800000
 O      29.57100000      22.23400000      18.74600000
 H      30.21000000      22.32300000      19.43400000
 H      29.08200000      23.01000000      18.91700000
 O      27.97500000      24.67700000      20.05300000
 H      27.77300000      24.89800000      19.08800000
 H      28.51400000      25.43900000      20.29000000
 O      30.10800000      25.87700000      18.35400000
 H      30.85800000      25.46600000      17.84300000
 H      29.96300000      26.77000000      17.93100000
 O      27.26600000      15.52300000      19.36700000
 H      27.40300000      15.40200000      18.48700000
 H      27.03500000      16.46200000      19.47800000
 O      28.74800000      20.88900000      14.63800000
 H      29.24600000      21.38700000      13.93800000
 H      28.15900000      20.39700000      14.01600000
 O      26.31900000      22.32600000      20.48900000
 H      26.20300000      22.43600000      19.55300000
 H      26.68200000      23.22800000      20.73500000
 O      28.87200000      24.13700000      16.56200000
 H      29.03700000      24.41200000      15.62000000
 H      29.19000000      24.98800000      16.97100000
 O      26.42500000      18.13800000      17.98600000
 H      26.64000000      17.28100000      17.44400000
 H      25.48900000      18.30500000      17.62000000
 O      29.09900000      19.81400000      17.54500000
 H      28.95100000      20.77900000      17.60400000
 H      28.22400000      19.32400000      17.63300000
 O      29.44100000      20.92800000      11.64900000
 H      29.74900000      21.57300000      10.94500000
 H      30.23900000      20.56500000      12.02100000
 O      30.26300000      17.41100000      13.08600000
 H      30.90000000      17.01300000      12.42200000
 H      30.84700000      17.48900000      13.93600000
 O      33.21100000      21.94800000      13.45800000
 H      33.62400000      22.65500000      13.99000000
 H      33.76200000      21.17900000      13.61500000
 O      34.20400000      22.19600000      10.11200000
 H      33.91000000      21.39200000      10.61400000
 H      34.02300000      22.02600000       9.18300000
 O      34.97800000      16.56900000      12.90300000
 H      35.53500000      17.30700000      13.19000000
 H      35.42500000      15.72400000      13.13200000
 O      32.72200000      19.34900000      19.95900000
 H      31.78100000      19.27900000      19.80000000
 H      32.93800000      18.43900000      20.00800000
 O      36.61700000      24.72400000      20.35700000
 H      36.10700000      23.93000000      20.31900000
 H      36.92100000      24.85100000      19.45300000
 O      36.10700000      17.98500000      15.40800000
 H      35.93300000      18.95900000      15.46300000
 H      37.06300000      17.85700000      15.61600000
 O      35.68000000      15.71800000      20.02200000
 H      35.01700000      16.18800000      20.57100000
 H      35.62900000      16.06200000      19.10100000
 O      36.80100000      23.50500000      16.28300000
 H      37.38100000      24.18600000      16.68500000
 H      37.06300000      23.50500000      15.38500000
 O      36.33600000      26.88100000      15.23300000
 H      36.57100000      26.30300000      14.44200000
 H      37.23800000      26.85000000      15.60800000
 O      35.74000000      24.56200000      10.22800000
 H      34.95800000      24.98700000      10.71800000
 H      35.53200000      23.57000000      10.40500000
 O      36.06000000      17.74800000      10.36400000
 H      35.06800000      17.65200000      10.51400000
 H      36.42400000      17.92700000      11.24800000
 O      33.45000000      16.94000000      21.04900000
 H      33.06000000      17.54200000      21.81300000
 H      32.69300000      16.40900000      20.62300000
 O      32.57900000      16.41100000      10.47800000
 H      31.73300000      15.97700000      10.27600000
 H      33.05300000      15.56300000      10.21900000
 O      36.66500000      24.97200000      13.26000000
 H      36.17300000      24.70800000      12.47400000
 H      37.29300000      24.20200000      13.45700000
 O      33.35400000      24.50500000      12.12500000
 H      33.55400000      24.73400000      13.01900000
 H      33.33500000      23.51100000      12.15100000
 O      34.05200000      24.54200000      14.81600000
 H      33.93900000      24.82000000      15.74500000
 H      35.07300000      24.64500000      14.62100000
 O      34.56100000      24.90600000      17.69100000
 H      34.10100000      24.28600000      18.29400000
 H      35.33200000      24.35300000      17.37600000
 O      36.97200000      20.89500000      12.40800000
 H      37.76500000      21.13900000      11.84900000
 H      37.19700000      19.93300000      12.67500000
 O      35.91200000      18.82000000      18.32400000
 H      36.85600000      19.10000000      18.30700000
 H      35.50700000      19.19500000      19.11000000
 O      32.98800000      18.29300000      16.49600000
 H      33.64900000      19.04200000      16.53600000
 H      32.17900000      18.71100000      16.95100000
 O      37.17000000      27.13700000      20.80400000
 H      37.08900000      27.45300000      19.82900000
 H      36.67400000      26.26700000      20.70500000
 O      33.50200000      21.27100000      17.00100000
 H      32.94700000      20.51400000      17.35300000
 H      32.80400000      21.96100000      17.06100000
 O      33.79500000      19.77100000      11.41300000
 H      33.70100000      19.01900000      12.05800000
 H      34.62200000      20.20900000      11.48100000
 O      35.71100000      20.84800000      15.22400000
 H      35.20700000      21.04400000      16.03600000
 H      36.59500000      21.12900000      15.42700000
 O      34.56200000      16.14900000      17.12800000
 H      34.51800000      17.10600000      16.85000000
 H      35.50700000      15.77400000      16.96200000
 O      34.50700000      22.60300000      19.67700000
 H      34.36900000      22.06500000      18.88300000
 H      34.75200000      21.91500000      20.32300000
