114
XYZ file of cluster: frame_19500_48ef7.9ad91.9adf3 - created by MolEdiTo
 O      11.37300000      26.65300000      23.81500000
 H      11.80500000      25.80900000      23.85800000
 H      11.52900000      26.95000000      24.74200000
 O      11.08800000      23.28200000      27.80800000
 H      11.42000000      24.13700000      28.08900000
 H      10.67900000      22.97100000      28.62900000
 O      20.54900000      24.76600000      20.14200000
 H      20.33600000      25.27000000      20.97300000
 H      21.49000000      24.95100000      19.89400000
 O      10.14000000      30.07800000      22.29200000
 H      10.96900000      29.57800000      22.46100000
 H       9.48000000      29.34400000      22.07000000
 O      17.55500000      22.57900000      21.54900000
 H      18.34600000      21.95700000      21.67100000
 H      17.29900000      22.34600000      20.67500000
 O      13.66700000      25.15700000      23.14500000
 H      14.23800000      24.36500000      23.30900000
 H      13.38200000      24.98400000      22.22000000
 O      14.66600000      29.64500000      25.01200000
 H      14.30500000      30.54000000      24.88600000
 H      14.84100000      29.19800000      24.22600000
 O      14.83000000      24.05700000      28.54100000
 H      14.62200000      24.59800000      27.73100000
 H      13.95500000      23.75100000      28.80000000
 O      14.53300000      22.63700000      22.22600000
 H      15.31600000      22.09500000      22.34400000
 H      14.68000000      23.01600000      21.37400000
 O      16.99800000      30.18200000      23.40800000
 H      16.34100000      30.08000000      22.72000000
 H      17.30200000      29.28400000      23.60000000
 O      10.97100000      30.10800000      27.26900000
 H      10.06800000      30.09800000      27.70000000
 H      11.38700000      30.59500000      28.02600000
 O      20.29200000      21.70200000      23.03500000
 H      21.20400000      22.12400000      23.10400000
 H      20.36300000      21.03300000      22.26200000
 O      13.77900000      27.02600000      28.40300000
 H      13.89600000      27.79600000      28.99100000
 H      14.44600000      27.13400000      27.68200000
 O      19.36800000      26.65200000      28.28500000
 H      20.19300000      27.14000000      28.02500000
 H      18.93000000      26.31500000      27.43800000
 O      16.47400000      30.30100000      27.07100000
 H      15.65000000      30.10800000      27.63100000
 H      16.12600000      30.47700000      26.15900000
 O      17.91000000      24.15100000      30.13300000
 H      17.06000000      23.77600000      29.85900000
 H      17.72100000      25.09100000      30.10300000
 O      18.76600000      27.07600000      21.75300000
 H      19.18400000      27.20200000      20.91300000
 H      17.80900000      27.13400000      21.55600000
 O      14.27800000      21.91600000      27.03200000
 H      13.77200000      22.36400000      26.35000000
 H      14.99600000      22.54500000      27.23500000
 O      20.73800000      23.81400000      28.32400000
 H      19.86400000      24.18400000      28.70600000
 H      21.21400000      23.36800000      29.04900000
 O      16.45100000      20.60600000      28.26400000
 H      16.01500000      20.09200000      28.98800000
 H      15.83200000      21.33400000      28.00200000
 O      16.78200000      27.30100000      23.92800000
 H      16.20700000      26.57800000      24.31400000
 H      17.63200000      27.29100000      24.47000000
 O      19.82900000      22.31500000      26.40200000
 H      19.93500000      22.76600000      25.53200000
 H      20.08500000      22.96500000      27.08800000
 O      18.83500000      29.17700000      29.06700000
 H      18.29600000      29.54200000      28.35000000
 H      19.24100000      28.34600000      28.74300000
 O      11.18500000      24.94800000      30.70600000
 H      11.83400000      25.31000000      31.36100000
 H      10.36200000      25.38500000      31.07800000
 O      16.60700000      27.55200000      30.39900000
 H      17.21000000      28.20500000      30.00700000
 H      15.75500000      28.05200000      30.35200000
 O      11.34400000      23.51100000      22.24300000
 H      10.48200000      23.26400000      22.61600000
 H      11.90000000      22.75300000      22.46100000
 O      20.24700000      25.63000000      23.90100000
 H      19.53400000      25.35000000      23.34700000
 H      20.21400000      26.58200000      23.76000000
 O      20.83300000      28.55700000      24.16500000
 H      20.43800000      29.42600000      23.82100000
 H      21.74700000      28.75400000      24.40800000
 O      17.77700000      25.38200000      26.22300000
 H      16.93800000      25.45000000      26.71500000
 H      17.81700000      24.70500000      25.43500000
 O      10.94400000      20.57100000      25.99300000
 H       9.95000000      20.45200000      25.69300000
 H      11.00800000      21.53800000      26.12600000
 O      15.48300000      28.60400000      21.83300000
 H      15.62700000      28.15900000      20.94500000
 H      15.88900000      27.90000000      22.42300000
 O      11.67900000      27.49200000      26.43700000
 H      12.27300000      27.53600000      27.12800000
 H      11.27800000      28.38700000      26.55100000
 O      12.64900000      28.80400000      22.38800000
 H      12.45200000      27.89600000      22.61100000
 H      13.50700000      28.74800000      21.93800000
 O      13.89000000      29.70700000      29.04700000
 H      14.02900000      30.66500000      29.26400000
 H      12.89200000      29.53700000      29.22000000
 O      18.64900000      28.48200000      25.90500000
 H      18.49200000      29.42500000      25.95900000
 H      19.55000000      28.27100000      26.00100000
 O      17.48000000      23.48600000      24.45900000
 H      17.79900000      23.42100000      23.55600000
 H      17.47000000      22.50800000      24.64000000
 O      13.98800000      25.29900000      26.09700000
 H      13.54000000      25.97700000      26.60700000
 H      13.81200000      25.47800000      25.16600000
 O      15.90600000      27.52800000      26.78700000
 H      16.85300000      27.51800000      27.06500000
 H      15.81100000      28.19200000      26.15400000
