117
XYZ file of cluster: frame_19500_c678b.882.258de - created by MolEdiTo
 O      30.10300000       1.38000000      12.78800000
 H      29.64000000       2.28500000      12.71900000
 H      29.39700000       0.90100000      13.40200000
 O      30.04200000       7.04300000       9.63600000
 H      30.60900000       6.30000000       9.49500000
 H      30.04000000       7.51300000       8.78700000
 O      27.46100000       4.65100000       9.10000000
 H      27.53800000       5.58500000       8.99200000
 H      28.02600000       4.26000000       8.37500000
 O      29.47600000       4.76200000       7.07400000
 H      30.24200000       5.01800000       7.64500000
 H      29.45200000       5.57700000       6.56100000
 O      26.30100000       9.64800000      14.93200000
 H      25.87400000       9.66400000      15.74600000
 H      26.90600000       8.88100000      14.91100000
 O      27.46000000       4.78100000      15.58100000
 H      27.09100000       3.89900000      15.89800000
 H      27.37600000       5.33200000      16.39800000
 O      28.01600000       1.61600000       7.13700000
 H      28.75400000       2.16100000       6.79400000
 H      28.44600000       0.99700000       7.71300000
 O      30.41500000       7.00400000       5.57500000
 H      31.35500000       7.33800000       5.76200000
 H      29.97800000       7.87300000       5.74000000
 O      29.44900000       5.05600000      13.51800000
 H      28.78200000       4.68100000      14.20800000
 H      30.31100000       5.11300000      14.08400000
 O      27.01000000       9.24500000      12.02000000
 H      26.62500000       9.41700000      12.93000000
 H      27.45100000       8.32100000      12.06000000
 O      29.81200000      10.01800000       5.68100000
 H      30.58900000      10.56500000       5.41600000
 H      28.97300000      10.38900000       5.36300000
 O      27.67200000       7.13200000       7.97800000
 H      27.02500000       7.70400000       8.33500000
 H      27.26500000       6.74000000       7.11400000
 O      29.06900000      11.08300000      11.76200000
 H      28.83100000      11.92400000      12.19700000
 H      28.20000000      10.53700000      11.95800000
 O      30.71100000       9.69400000      15.39200000
 H      31.37900000       9.15800000      14.85600000
 H      29.95400000       9.04200000      15.48700000
 O      27.35100000       3.34100000      11.50100000
 H      27.81700000       3.68000000      10.71700000
 H      26.89400000       4.13100000      11.69700000
 O      25.99400000       2.20400000       5.66300000
 H      26.62400000       1.71000000       6.28500000
 H      26.16000000       1.66700000       4.82400000
 O      30.57200000       3.14700000       9.87300000
 H      29.89700000       2.79200000       9.23400000
 H      30.87800000       2.38800000      10.46200000
 O      27.32400000      10.63700000       7.80100000
 H      26.42000000      10.33300000       7.95000000
 H      27.34700000      10.95100000       6.84800000
 O      29.52100000      10.02800000       9.35700000
 H      29.15700000      10.32700000      10.22300000
 H      28.73300000       9.91700000       8.68600000
 O      28.14500000       7.73900000      15.15200000
 H      28.43800000       6.96800000      15.66300000
 H      28.64200000       7.87900000      14.28800000
 O      25.89300000       6.71800000      10.97300000
 H      26.88500000       6.73600000      11.25000000
 H      25.79700000       6.06900000      10.27000000
 O      28.36500000       6.89300000      11.86700000
 H      28.80800000       6.33200000      12.55200000
 H      29.08800000       7.05200000      11.23400000
 O      35.07400000       2.42400000      15.26800000
 H      34.52100000       2.62900000      16.05600000
 H      35.69100000       3.13800000      15.17700000
 O      35.38700000       3.43100000       6.84800000
 H      34.95400000       4.32500000       7.17600000
 H      36.29700000       3.73900000       6.77000000
 O      34.91900000       4.17900000      11.17300000
 H      34.10000000       3.69400000      10.79800000
 H      35.50200000       3.51400000      11.59100000
 O      33.40700000       8.77100000       7.56000000
 H      33.26800000       9.11800000       8.47700000
 H      32.76000000       9.33000000       7.03500000
 O      36.45300000       9.61200000       6.92700000
 H      36.40000000      10.44300000       6.50400000
 H      35.65200000       9.68500000       7.56600000
 O      34.81900000       6.55300000       6.31700000
 H      34.70800000       6.19200000       7.13700000
 H      35.12000000       7.50300000       6.45400000
 O      35.61400000      10.39700000      15.76800000
 H      34.98700000       9.78400000      15.30800000
 H      35.32500000      11.31700000      15.64300000
 O      36.15100000       0.98300000       8.61500000
 H      35.19500000       0.98600000       8.80400000
 H      36.46800000       0.06900000       8.78000000
 O      33.41200000       6.79700000      11.94600000
 H      33.34400000       5.81400000      12.07400000
 H      32.72200000       7.01300000      11.27100000
 O      33.66600000       4.73700000      14.07800000
 H      34.47600000       5.22700000      14.26500000
 H      34.00000000       3.86900000      13.97600000
 O      34.26600000       8.33100000      14.11900000
 H      34.66300000       7.47500000      14.37800000
 H      33.87100000       7.94100000      13.28500000
 O      34.58300000       9.33300000      10.62200000
 H      35.50600000       9.62300000      10.70400000
 H      34.54300000       8.44100000      11.05900000
 O      36.14000000       1.59800000      12.18000000
 H      36.41100000       2.37800000      12.79400000
 H      35.99700000       0.79000000      12.75600000
 O      32.95100000       2.30100000       7.18800000
 H      33.84100000       2.54000000       7.07200000
 H      32.48100000       3.18400000       7.16000000
 O      36.46600000       6.70500000      11.74000000
 H      37.15100000       6.58500000      11.00700000
 H      35.80500000       6.05800000      11.60200000
 O      33.82800000       5.25400000       8.84200000
 H      34.55900000       5.19800000       9.47700000
 H      33.29100000       4.37600000       8.96500000
 O      35.90100000       6.10300000      14.82900000
 H      36.45100000       6.36200000      14.06600000
 H      36.41800000       6.60300000      15.49900000
