102
XYZ file of cluster: frame_19500_c42dc.1124.c4f4e - created by MolEdiTo
 O      27.60300000       7.29800000      30.13800000
 H      28.17900000       8.08300000      30.00800000
 H      27.99200000       6.83800000      30.93300000
 O      30.33200000       6.63300000      30.49900000
 H      30.23800000       6.00500000      29.69500000
 H      29.83500000       7.41700000      30.18900000
 O      26.84500000      10.74200000      27.40700000
 H      26.01100000      10.73900000      26.99700000
 H      27.39000000      10.02300000      26.98500000
 O      27.23900000       1.64400000      27.33000000
 H      28.16500000       1.66800000      27.60700000
 H      26.80400000       1.47400000      28.23700000
 O      29.03100000       9.34000000      29.27600000
 H      28.43500000      10.10500000      29.28700000
 H      29.63900000       9.59900000      28.46100000
 O      28.82800000       8.91300000      26.11500000
 H      29.56000000       8.31900000      26.17800000
 H      29.09700000       9.40600000      25.30000000
 O      30.27400000       2.73500000      26.47700000
 H      29.89100000       3.18600000      25.75300000
 H      30.74700000       1.99600000      26.04300000
 O      26.81800000       4.33500000      29.74200000
 H      26.73300000       4.21200000      30.71200000
 H      26.64800000       5.27400000      29.54900000
 O      30.41100000       5.17300000      28.23600000
 H      30.42400000       4.17000000      27.93400000
 H      30.22200000       5.68200000      27.44400000
 O      27.29500000       4.07300000      25.89200000
 H      27.75400000       3.59800000      26.60000000
 H      27.15200000       4.97800000      26.30700000
 O      29.03700000       3.03100000      29.59600000
 H      28.28700000       3.69200000      29.50000000
 H      29.12100000       3.10100000      30.55600000
 O      27.45400000       6.49600000      26.96400000
 H      27.78900000       7.11700000      27.59400000
 H      27.37300000       7.24100000      26.36200000
 O      27.40000000       0.94200000      34.85000000
 H      27.89600000       0.13900000      34.58000000
 H      28.02200000       1.67400000      34.68300000
 O      27.09000000       6.18100000      36.42900000
 H      27.73200000       6.79500000      35.96900000
 H      26.24200000       6.65400000      36.27900000
 O      25.55300000       4.35200000      34.64300000
 H      25.49900000       3.55200000      34.09800000
 H      26.45400000       4.48400000      34.99900000
 O      25.99400000       2.20400000      37.02400000
 H      26.62400000       1.71000000      37.64600000
 H      26.16000000       1.66700000      36.18500000
 O      29.79500000       2.70200000      35.41600000
 H      30.50900000       2.10900000      35.68200000
 H      30.20500000       3.49600000      34.95700000
 O      27.78200000       8.99200000      34.54800000
 H      27.47600000       9.77600000      35.06200000
 H      28.73500000       9.28000000      34.37800000
 O      28.59000000       4.97100000      33.65300000
 H      29.50400000       5.34100000      33.49500000
 H      28.60100000       4.65000000      34.54600000
 O      30.75600000      10.01000000      34.25900000
 H      31.38600000      10.76000000      34.49500000
 H      31.28800000       9.24400000      34.33100000
 O      25.74000000       7.38100000      33.82300000
 H      25.87000000       6.38700000      33.90300000
 H      26.57400000       7.89600000      34.06700000
 O      36.89100000       5.34400000      26.63800000
 H      37.52200000       5.99400000      26.27400000
 H      36.98300000       4.57200000      26.03700000
 O      37.31500000       2.41300000      26.17800000
 H      38.05400000       1.82800000      25.98100000
 H      36.66000000       1.83200000      26.69100000
 O      33.01400000      10.85600000      27.20200000
 H      32.59700000      11.50600000      26.61400000
 H      33.74600000      10.50400000      26.62600000
 O      33.48100000       2.10100000      29.55600000
 H      34.17500000       2.89600000      29.52600000
 H      32.65600000       2.41600000      29.98400000
 O      35.21100000       4.36600000      28.75900000
 H      35.62400000       4.68400000      27.94300000
 H      34.26200000       4.50200000      28.53800000
 O      36.26700000       8.44700000      30.46900000
 H      36.37400000       7.51000000      30.37000000
 H      35.37200000       8.71600000      30.00000000
 O      35.54800000       9.54300000      27.05600000
 H      36.08400000       9.14800000      26.32100000
 H      35.22100000       8.77900000      27.60300000
 O      33.69700000       7.72800000      28.32200000
 H      33.35100000       7.17800000      27.57300000
 H      33.22500000       7.42900000      29.11900000
 O      35.77500000       1.03000000      32.13200000
 H      34.83400000       1.18000000      31.89400000
 H      35.74900000       0.48700000      32.99300000
 O      35.35500000       4.82800000      32.88100000
 H      35.17600000       4.93400000      31.90100000
 H      35.96900000       4.02500000      32.95300000
 O      36.99400000       4.63800000      36.01200000
 H      36.44700000       5.40400000      35.96600000
 H      36.43900000       3.84000000      35.89800000
 O      33.35100000       4.95800000      35.19700000
 H      33.24800000       5.62600000      35.92400000
 H      34.20200000       5.22600000      34.80100000
 O      35.21000000       2.49800000      35.01800000
 H      34.54600000       1.83000000      34.82600000
 H      34.67100000       3.35000000      35.01400000
