138
XYZ file of cluster: frame_4500_49169.1dea.4d85f - created by MolEdiTo
 O      16.40100000       5.59500000      18.80200000
 H      16.07600000       6.37600000      18.32500000
 H      17.01400000       5.21100000      18.19200000
 O      15.12500000       8.33900000      10.75300000
 H      15.62900000       8.63000000      11.47200000
 H      15.04300000       7.38800000      11.08700000
 O      14.22500000       2.89100000      11.19300000
 H      14.81100000       2.80800000      10.38800000
 H      14.82500000       2.65100000      11.90400000
 O      10.06000000       3.19300000      20.61100000
 H      10.54200000       3.56000000      21.37800000
 H       9.65200000       2.30000000      20.87400000
 O      13.28100000       8.78000000      15.62500000
 H      13.34900000       9.10900000      14.67500000
 H      12.78900000       7.94000000      15.46700000
 O      15.75200000       8.16100000      13.07200000
 H      15.38000000       7.79100000      13.92800000
 H      16.40100000       8.78700000      13.36700000
 O      18.04500000       6.39500000      14.09800000
 H      18.76400000       7.03500000      14.16400000
 H      17.27200000       6.72400000      14.53500000
 O      19.70400000       5.74400000      17.27900000
 H      20.00800000       5.44600000      16.35200000
 H      19.79400000       6.71200000      17.29200000
 O      10.35600000       5.52000000      19.10800000
 H      11.07900000       5.20500000      18.52900000
 H      10.50800000       4.71700000      19.65000000
 O      12.25200000       3.54200000      14.86600000
 H      11.26300000       3.29100000      14.78000000
 H      12.32700000       4.41500000      14.32800000
 O      12.43700000       2.91500000      17.79000000
 H      12.43200000       3.32100000      16.92300000
 H      11.86000000       2.13000000      17.86500000
 O      17.22100000       1.92800000      14.18500000
 H      17.03600000       2.72200000      13.63700000
 H      17.69700000       2.33400000      14.96100000
 O      11.88500000       6.36300000      14.35300000
 H      11.33300000       5.86700000      13.67300000
 H      11.29400000       6.98600000      14.77300000
 O      17.87200000       1.12000000      11.72600000
 H      17.12400000       1.63300000      12.05500000
 H      17.37200000       0.37100000      11.33200000
 O      16.20500000       7.45000000      15.58700000
 H      15.84100000       6.59300000      15.46300000
 H      15.61900000       7.91900000      16.23100000
 O      13.28200000       3.39300000      20.75400000
 H      12.62000000       3.09200000      20.04200000
 H      12.98600000       4.22800000      21.04400000
 O      14.46000000       5.87500000      13.02900000
 H      14.01700000       5.31900000      12.35300000
 H      13.85400000       6.57100000      13.32700000
 O      20.06100000       1.80200000      19.59000000
 H      20.06200000       2.74500000      19.32000000
 H      19.16200000       1.58000000      19.91000000
 O      10.20900000       1.23600000      17.30200000
 H       9.39900000       0.79300000      17.55000000
 H      10.84600000       0.64900000      17.74000000
 O      15.04100000       7.13700000      21.26100000
 H      15.17300000       7.10100000      22.21800000
 H      15.85000000       7.53400000      20.76500000
 O      19.72600000       9.07200000      21.14400000
 H      19.54300000       9.44500000      20.19300000
 H      19.88900000       9.86100000      21.71400000
 O      20.88200000       1.65900000      10.86900000
 H      20.18000000       0.99800000      10.60100000
 H      21.65700000       1.09700000      10.68700000
 O      15.50100000       8.90400000      18.01600000
 H      14.82400000       8.25500000      18.35800000
 H      15.18100000       9.74800000      18.39900000
 O      19.25300000       2.60400000      16.58500000
 H      18.63300000       3.35600000      16.74400000
 H      19.20200000       2.04200000      17.37400000
 O      19.30600000       4.93300000      11.55200000
 H      19.08000000       5.78300000      12.02000000
 H      20.04600000       4.50000000      11.98400000
 O      20.25500000       8.31600000      13.30400000
 H      19.79900000       8.71000000      12.54700000
 H      20.60800000       9.14500000      13.66300000
 O      18.44000000       4.54900000      20.44700000
 H      17.87000000       5.26900000      20.12100000
 H      18.06400000       4.36000000      21.33900000
 O      15.10300000       4.03600000      15.56100000
 H      15.11700000       4.75500000      14.93900000
 H      14.18500000       3.58000000      15.39700000
 O      16.43700000       3.11400000      17.21500000
 H      15.69000000       3.63400000      17.37100000
 H      16.13000000       2.21200000      17.05500000
 O      18.09900000      10.04200000      11.50900000
 H      17.21800000       9.80500000      11.15400000
 H      17.97200000       9.94400000      12.52800000
 O      17.56700000       9.51500000      14.86400000
 H      18.04400000      10.43100000      14.89200000
 H      16.76400000       9.46200000      15.39800000
 O      21.25000000       5.76500000      19.56500000
 H      20.39100000       5.77300000      19.09800000
 H      21.00600000       5.08000000      20.20400000
 O      13.17700000       9.86400000      12.30200000
 H      13.35100000       9.56000000      11.42100000
 H      12.22100000      10.12800000      12.30000000
 O      16.71500000       8.07300000      20.81400000
 H      16.67600000       8.82200000      20.23300000
 H      17.67100000       7.83600000      20.95000000
 O      17.70700000       0.95900000      20.93300000
 H      16.92000000       1.58100000      20.68500000
 H      17.17400000       0.24200000      21.32200000
 O      21.17400000       3.10200000      12.77100000
 H      21.43300000       2.47800000      13.43000000
 H      20.81300000       2.50600000      12.03300000
 O      10.54100000      10.05800000      11.65500000
 H      10.06400000       9.24600000      11.47400000
 H       9.87600000      10.69800000      11.26500000
 O      12.64200000       0.84400000      12.90900000
 H      13.52000000       1.34600000      12.93800000
 H      11.99600000       1.47000000      13.39300000
 O      19.77100000       8.67100000      17.18100000
 H      18.90600000       8.81200000      16.87500000
 H      19.99000000       9.46600000      17.79800000
 O      11.54700000       1.84200000      10.07000000
 H      12.00300000       2.45700000      10.67700000
 H      11.52600000       1.02900000      10.68300000
 O      15.56700000       2.34400000      20.19500000
 H      16.01000000       3.18600000      20.03200000
 H      15.31300000       2.28700000      21.11100000
 O      16.56100000       4.14800000      12.64500000
 H      17.31100000       4.73000000      12.96400000
 H      16.31700000       4.60900000      11.78600000
 O      15.28500000       1.45900000      13.69100000
 H      15.67900000       2.13500000      14.30000000
 H      15.79800000       0.73700000      13.85000000
 O      14.57800000       6.02800000      18.59300000
 H      15.42700000       5.50300000      18.48000000
 H      14.41500000       6.11700000      19.54100000
 O      19.66000000       1.08000000      13.69500000
 H      18.70600000       1.12400000      13.56100000
 H      20.05300000       1.12600000      12.82300000
 O      21.42600000       1.26700000      15.52300000
 H      20.71200000       1.68900000      15.94600000
 H      20.96800000       0.61600000      14.87000000
