105
XYZ file of cluster: frame_4500_c38e2.0.72c8a - created by MolEdiTo
 O      28.87300000       6.49500000      20.70800000
 H      29.04400000       5.52000000      20.87700000
 H      27.97600000       6.66800000      21.20500000
 O      26.87600000       2.56600000      26.65400000
 H      26.91800000       2.53900000      25.67800000
 H      27.73900000       2.13100000      27.03300000
 O      28.40200000       3.01700000      17.48900000
 H      27.86900000       3.12700000      18.28600000
 H      27.79900000       2.65100000      16.84900000
 O      29.07300000       8.98800000      18.61000000
 H      29.45700000       9.81900000      18.91800000
 H      28.47900000       8.87400000      19.36800000
 O      27.32400000       9.67600000      15.63300000
 H      27.64900000       9.42300000      16.50400000
 H      27.96600000       9.26700000      15.00400000
 O      30.04500000       8.52800000      15.99600000
 H      30.81600000       9.07800000      15.95300000
 H      30.00800000       8.30500000      17.01800000
 O      26.54700000       5.11200000      16.38000000
 H      26.41700000       4.18200000      15.95000000
 H      27.41200000       5.39200000      16.11000000
 O      27.37800000       3.70100000      23.33000000
 H      27.57700000       4.40900000      24.01100000
 H      26.43700000       3.95200000      23.04800000
 O      25.31200000       7.75600000      24.72100000
 H      25.14800000       6.97600000      25.26700000
 H      26.22700000       7.66500000      24.36700000
 O      28.46500000       3.45100000      20.81900000
 H      28.20800000       3.68400000      21.68300000
 H      28.14000000       2.51700000      20.62500000
 O      30.63600000       4.67100000      18.42600000
 H      30.01800000       3.91300000      18.52200000
 H      30.05800000       5.35700000      18.77000000
 O      29.66400000       9.69000000      25.79900000
 H      30.54600000       9.20300000      25.83900000
 H      29.31200000       9.52700000      26.68800000
 O      29.24500000       1.41100000      25.79600000
 H      29.15600000       0.52400000      26.21100000
 H      29.16700000       1.27700000      24.85200000
 O      29.78200000       0.98000000      14.94500000
 H      29.84400000       1.17300000      15.91800000
 H      30.00200000       0.00000000      14.91000000
 O      29.49300000       0.86300000      23.21500000
 H      29.47200000       0.61900000      22.25300000
 H      30.27500000       0.25300000      23.50000000
 O      27.66600000       5.57200000      25.53300000
 H      28.11300000       6.27200000      26.11700000
 H      27.39400000       4.85000000      26.13800000
 O      26.57000000       7.01500000      18.80200000
 H      26.99800000       7.73200000      18.28000000
 H      27.30200000       6.30500000      18.83900000
 O      34.26200000       8.49000000      18.81600000
 H      35.18800000       8.85300000      19.03200000
 H      33.90500000       8.71900000      19.73200000
 O      32.36900000       6.27200000      26.10500000
 H      31.88700000       5.90800000      25.33700000
 H      32.90700000       5.54800000      26.46900000
 O      35.98500000       2.02300000      18.90900000
 H      36.46200000       2.64500000      19.48900000
 H      36.55400000       1.95600000      18.19900000
 O      35.33300000       6.42300000      22.20000000
 H      34.89100000       6.28200000      21.33000000
 H      35.81900000       7.27000000      21.95600000
 O      33.87300000       7.68000000      24.16400000
 H      34.21800000       7.01200000      23.54700000
 H      33.51500000       7.09700000      24.93600000
 O      35.68800000       4.63900000      24.66300000
 H      35.64200000       4.60900000      23.65000000
 H      36.00000000       3.74400000      24.88300000
 O      35.16800000       6.31400000      17.19100000
 H      34.38700000       5.83700000      16.72200000
 H      34.81100000       7.00400000      17.76100000
 O      36.14600000       3.15800000      22.15000000
 H      36.47800000       3.79800000      21.47600000
 H      35.18800000       3.24900000      21.90000000
 O      33.88900000       2.27600000      24.21800000
 H      34.36900000       2.35500000      23.36600000
 H      33.94100000       1.31000000      24.44600000
 O      32.80900000       9.10500000      21.40700000
 H      33.54500000       9.24000000      22.00900000
 H      32.37500000       8.27100000      21.69500000
 O      32.91300000       2.96900000      21.45700000
 H      32.51300000       2.18900000      21.87600000
 H      32.35100000       3.14700000      20.70300000
 O      36.95900000       8.31100000      24.34100000
 H      36.36200000       7.63300000      24.72200000
 H      36.37800000       9.12200000      24.32300000
 O      32.83500000       2.76700000      27.12300000
 H      33.36800000       2.96600000      26.33300000
 H      32.09300000       2.30600000      26.67900000
 O      36.75900000       4.55000000      19.05300000
 H      36.01300000       4.56800000      18.38900000
 H      37.43600000       5.13400000      18.68500000
 O      36.39300000       9.32000000      21.62100000
 H      35.87300000      10.16100000      21.43100000
 H      37.16100000       9.65100000      21.99100000
 O      32.61300000       5.56900000      15.94500000
 H      32.24100000       6.42300000      15.99900000
 H      32.60400000       5.34200000      16.93600000
 O      36.24400000       1.91900000      26.71100000
 H      35.35400000       1.63400000      26.47200000
 H      36.82700000       1.29500000      26.24300000
 O      34.93400000       2.29300000      15.81000000
 H      35.22600000       1.35300000      15.60300000
 H      34.01700000       2.05200000      16.24900000
