123
XYZ file of cluster: frame_4500_64e7.6a30.223e2 - created by MolEdiTo
 O       4.64800000       1.14100000      10.53700000
 H       3.69900000       0.85900000      10.70800000
 H       4.83100000       0.86100000       9.56900000
 O       4.82300000       3.48600000       6.11000000
 H       4.91300000       3.19800000       7.03600000
 H       4.34200000       4.34800000       6.17900000
 O       4.34300000       8.29500000      14.29000000
 H       4.78800000       7.87100000      15.03900000
 H       3.87900000       7.65800000      13.68700000
 O       6.50000000       2.04800000       8.33900000
 H       6.98100000       1.34000000       8.82600000
 H       7.14800000       2.32600000       7.66000000
 O       8.27700000       1.49300000       4.76300000
 H       9.17700000       1.63700000       4.44800000
 H       8.05200000       2.22900000       5.39000000
 O       9.34100000       1.90000000       7.78900000
 H       9.70400000       2.76400000       8.05300000
 H       9.69600000       1.39700000       8.50500000
 O       3.39500000       7.16500000      11.78400000
 H       3.67600000       7.50900000      10.90400000
 H       3.11300000       6.28100000      11.57300000
 O      10.23300000       7.85500000       9.21800000
 H       9.70900000       8.63900000       8.99700000
 H       9.85900000       7.45500000      10.05000000
 O       8.54900000       7.26000000      11.51000000
 H       7.88200000       7.94700000      11.35700000
 H       8.30100000       6.67400000      12.30100000
 O       6.56500000      10.87700000       6.60200000
 H       7.11700000      11.04200000       5.82300000
 H       5.86800000      10.12600000       6.46300000
 O       4.00400000       5.98200000       6.83900000
 H       3.47600000       6.71600000       7.11400000
 H       4.41900000       5.73500000       7.67800000
 O       9.65100000       7.92100000      14.46700000
 H       9.20700000       8.42700000      13.78300000
 H       8.93200000       7.63200000      15.00900000
 O       6.71200000       9.22600000      12.60300000
 H       6.58200000       8.57800000      13.35900000
 H       6.65700000      10.08300000      13.10800000
 O       6.82300000       8.87100000       9.80200000
 H       6.81100000       9.84400000       9.51900000
 H       6.75200000       8.96800000      10.80700000
 O       6.41400000       3.33900000      11.19100000
 H       6.17300000       2.47200000      10.83400000
 H       6.62300000       3.32000000      12.13600000
 O       6.12600000      11.14500000      16.17100000
 H       5.46300000      10.44600000      16.38300000
 H       5.52000000      11.88800000      15.82000000
 O       9.15100000       1.82200000      12.33200000
 H       8.93300000       1.04900000      12.84200000
 H       8.61600000       1.72600000      11.49600000
 O       2.51400000       3.26000000       8.88800000
 H       3.50800000       3.17500000       8.97600000
 H       2.28400000       2.82300000       8.01700000
 O       3.77100000       8.76600000       9.46600000
 H       3.81700000       8.85900000       8.46400000
 H       4.46600000       9.47100000       9.65500000
 O       6.04300000       2.83100000      14.19500000
 H       6.00600000       1.94400000      14.60100000
 H       5.43200000       3.39700000      14.66500000
 O       3.30500000       2.45100000      12.89300000
 H       3.78800000       2.14800000      13.65100000
 H       4.00700000       2.77300000      12.29100000
 O       6.45400000       6.81700000       5.19000000
 H       5.58700000       6.28300000       5.42300000
 H       6.93500000       7.13400000       6.02000000
 O       3.91600000       9.07300000       6.72700000
 H       4.23200000       9.76900000       6.01300000
 H       3.22600000       9.61200000       7.23400000
 O       7.63900000       5.57800000      13.62800000
 H       7.43400000       4.61200000      13.67400000
 H       7.11800000       6.06200000      14.39600000
 O       0.85100000       9.02600000       7.84800000
 H       0.81100000       9.56200000       8.62900000
 H       1.01200000       9.60700000       7.07600000
 O       7.51500000       7.37100000       7.48300000
 H       7.01800000       7.71300000       8.26500000
 H       8.46100000       7.36900000       7.61500000
 O       3.66800000       5.38500000      14.14600000
 H       2.79800000       5.21700000      14.58100000
 H       3.42000000       5.62700000      13.28800000
 O      10.29700000       8.82500000       5.81700000
 H      11.20700000       9.14000000       5.99300000
 H       9.96200000       9.59200000       5.30600000
 O      10.00200000       4.35900000      12.73200000
 H       9.68400000       3.52000000      12.40400000
 H       9.37600000       4.75700000      13.43000000
 O       9.51400000       2.89900000      15.48200000
 H       8.87100000       2.89100000      16.20900000
 H       9.41300000       2.00100000      15.03700000
 O       9.25200000      10.43200000       8.33900000
 H       9.90300000      11.18600000       8.11100000
 H       8.55700000      10.43700000       7.65600000
 O       5.22000000       5.18800000       9.76200000
 H       5.28200000       5.95100000      10.33000000
 H       5.96700000       4.56200000       9.84500000
 O       2.84600000      11.14700000      13.78300000
 H       2.12000000      10.90600000      14.48900000
 H       3.42600000      10.33700000      13.83100000
 O       3.53800000       2.29300000      15.81000000
 H       3.83000000       1.35300000      15.60300000
 H       2.62100000       2.05200000      16.24900000
 O       8.52400000       4.62400000       9.12700000
 H       8.31200000       4.27400000      10.00800000
 H       8.29800000       5.58800000       9.26800000
 O       1.35000000       7.47000000       5.64400000
 H       2.28400000       7.66600000       5.35900000
 H       1.21000000       7.95000000       6.47400000
 O      10.54100000      10.05800000      11.65500000
 H      10.06400000       9.24600000      11.47400000
 H       9.87600000      10.69800000      11.26500000
 O       2.49200000       1.75900000       6.74600000
 H       3.18900000       0.99700000       6.89900000
 H       2.41800000       2.05500000       5.78400000
 O       1.55800000       4.96700000      10.82700000
 H       1.87300000       4.51200000       9.98000000
 H       1.36900000       4.11600000      11.27300000
 O       8.07400000       4.36600000       5.64700000
 H       8.57500000       4.70100000       6.42500000
 H       7.19800000       4.88700000       5.66300000
 O       1.85800000      10.34200000      11.03400000
 H       2.51500000       9.66600000      10.71200000
 H       2.17000000      10.46700000      11.96000000
