129
XYZ file of cluster: frame_4500_16a5.476fc.24172 - created by MolEdiTo
 O       3.48200000      14.27400000      10.80200000
 H       4.17500000      14.19600000      10.09200000
 H       4.03300000      14.37400000      11.66100000
 O       3.26800000      17.47300000       8.86900000
 H       3.35300000      17.18900000       9.84500000
 H       3.62800000      16.72700000       8.30200000
 O       7.26900000      17.34700000       9.73100000
 H       7.34900000      16.98200000       8.82700000
 H       6.93300000      18.12200000       9.43300000
 O       2.42400000      21.26600000      12.41700000
 H       2.88000000      20.46500000      12.01100000
 H       2.38000000      21.85500000      11.67400000
 O      10.10000000      15.13900000       7.93000000
 H      10.48700000      15.74500000       7.34000000
 H      10.85200000      14.54400000       8.13700000
 O       1.59700000      12.22300000       7.89000000
 H       1.93300000      12.29000000       8.86800000
 H       0.69100000      11.76900000       7.87100000
 O       2.08200000      21.04800000      15.31500000
 H       1.63100000      21.75600000      15.76100000
 H       2.50600000      21.39500000      14.50200000
 O      10.27200000      11.67900000      13.97900000
 H       9.91400000      10.97400000      14.65000000
 H      10.77200000      11.15200000      13.29500000
 O       4.56600000      19.12500000      15.40600000
 H       5.14900000      19.42300000      14.64200000
 H       3.98300000      19.89000000      15.57200000
 O       1.46800000      18.38100000      13.69700000
 H       1.77700000      18.73300000      14.50000000
 H       0.98400000      19.12000000      13.36900000
 O       1.04800000      16.62700000       5.67200000
 H       0.32900000      17.04100000       5.21300000
 H       1.56800000      16.20500000       4.96600000
 O       6.56500000      10.87700000       6.60200000
 H       7.11700000      11.04200000       5.82300000
 H       5.86800000      10.12600000       6.46300000
 O       5.61900000      20.98700000       5.50300000
 H       5.82700000      20.42900000       6.28300000
 H       4.71500000      20.74100000       5.18000000
 O       5.81700000      20.41200000      13.35400000
 H       5.73500000      21.41600000      13.28400000
 H       6.68200000      20.18200000      12.91600000
 O       8.25600000      19.45600000      11.34300000
 H       8.09200000      18.60800000      10.86900000
 H       9.19900000      19.62200000      11.48000000
 O       2.71500000      20.00500000       9.60800000
 H       3.10500000      19.27700000       9.17100000
 H       1.81700000      19.67300000       9.70700000
 O       6.12600000      11.14500000      16.17100000
 H       5.46300000      10.44600000      16.38300000
 H       5.52000000      11.88800000      15.82000000
 O       7.59800000      16.14400000       6.95900000
 H       7.88400000      15.50500000       6.26600000
 H       7.43800000      17.00800000       6.50800000
 O       7.86600000      14.68100000      10.24000000
 H       8.55300000      14.63500000       9.46600000
 H       7.67200000      15.66100000      10.32000000
 O      11.09700000      16.98500000       5.62600000
 H      11.11300000      16.80400000       4.68800000
 H      10.29300000      17.60000000       5.71500000
 O       4.13600000      15.77300000       6.61400000
 H       4.39500000      15.88700000       5.67600000
 H       3.19900000      15.40300000       6.52700000
 O       1.24900000      16.84400000      16.67700000
 H       1.14000000      17.68500000      17.27000000
 H       0.83300000      17.09100000      15.81500000
 O       1.00500000      10.66200000       5.57800000
 H       1.33000000      11.04300000       4.73800000
 H       0.18200000      11.11700000       5.77400000
 O       5.28700000      14.26900000       8.74500000
 H       6.09100000      13.89500000       8.32400000
 H       5.18700000      15.13600000       8.25600000
 O       2.65700000      19.08700000       5.98900000
 H       2.42400000      18.15800000       5.73900000
 H       2.74700000      19.12900000       6.96900000
 O       6.67800000      19.77900000       8.11200000
 H       6.22700000      20.61800000       8.29700000
 H       7.59100000      20.02800000       8.23500000
 O       5.64500000      11.40900000       9.31400000
 H       6.10600000      11.63200000       8.53000000
 H       5.29400000      12.31200000       9.54500000
 O      10.54800000      12.12900000       6.49800000
 H      11.39800000      12.58300000       6.77200000
 H      10.12400000      12.73700000       5.86100000
 O       9.25200000      10.43200000       8.33900000
 H       9.90300000      11.18600000       8.11100000
 H       8.55700000      10.43700000       7.65600000
 O       2.84600000      11.14700000      13.78300000
 H       2.12000000      10.90600000      14.48900000
 H       3.42600000      10.33700000      13.83100000
 O       9.16400000      12.18100000      10.68900000
 H       8.81600000      13.09800000      10.83500000
 H       8.76900000      11.92200000       9.88800000
 O       7.97700000      17.29800000      13.26200000
 H       7.92700000      18.08800000      12.77800000
 H       7.50700000      17.53500000      14.10300000
 O       7.39900000      11.95000000      13.40100000
 H       8.37900000      11.95700000      13.52100000
 H       7.01600000      12.67000000      13.86800000
 O      10.54100000      10.05800000      11.65500000
 H      10.06400000       9.24600000      11.47400000
 H       9.87600000      10.69800000      11.26500000
 O       2.79800000      13.01400000       5.35900000
 H       2.33700000      12.73000000       6.22400000
 H       3.24300000      12.16400000       5.18500000
 O      10.36700000      15.60900000      12.09400000
 H       9.43500000      15.95600000      12.11400000
 H      10.62400000      16.06800000      11.27900000
 O       4.50500000      12.86000000      15.08400000
 H       3.77000000      12.54400000      14.44800000
 H       4.29200000      13.80400000      15.22600000
 O      10.03200000      21.63000000      14.22100000
 H      10.46000000      20.97200000      14.84600000
 H      10.55500000      21.52000000      13.42600000
 O       4.05300000      16.32500000      16.13300000
 H       4.23300000      17.18100000      15.61400000
 H       3.20200000      16.45900000      16.61900000
 O       9.20300000      19.01600000       5.73600000
 H       9.31200000      19.48300000       4.86300000
 H       9.14200000      19.72100000       6.41100000
 O       5.70400000      16.07100000      11.95400000
 H       6.45000000      15.86900000      12.49500000
 H       6.10600000      16.50300000      11.20000000
 O      10.84100000      20.96900000      11.17700000
 H      10.41100000      21.10600000      10.32000000
 H      11.78500000      21.37100000      11.11800000
 O      10.43700000      17.86800000       9.48300000
 H       9.82300000      18.05900000       8.75300000
 H      10.97400000      17.14700000       9.03100000
