138
XYZ file of cluster: frame_7500_2311f.0.4a6bf - created by MolEdiTo
 O      12.66500000       1.45600000      21.87200000
 H      13.51600000       1.21900000      21.50100000
 H      12.10800000       1.46000000      21.05400000
 O      11.02400000       3.01200000       9.70600000
 H      12.04300000       2.89900000       9.66100000
 H      10.84100000       2.92200000      10.73500000
 O       5.64400000       6.04000000      11.66600000
 H       5.84900000       5.30800000      11.00100000
 H       5.66800000       5.59500000      12.56900000
 O       6.58700000       2.57100000      19.58000000
 H       7.05800000       1.87500000      20.08900000
 H       6.32000000       1.93300000      18.89400000
 O      13.52900000       8.02900000      12.74900000
 H      13.77200000       8.26000000      11.85400000
 H      14.36400000       8.38500000      13.13000000
 O      13.78500000       4.33500000      11.51700000
 H      14.49700000       3.86700000      11.01400000
 H      13.47500000       4.99400000      10.84200000
 O      10.22700000       7.24500000      18.13200000
 H       9.58200000       6.63000000      18.55000000
 H      11.04700000       7.40200000      18.69000000
 O      15.86600000       1.27000000      14.21700000
 H      15.38700000       0.48700000      14.63500000
 H      16.74100000       1.18200000      14.67200000
 O       6.10700000      10.31100000      16.69800000
 H       6.87900000       9.91600000      16.18300000
 H       6.17600000       9.85900000      17.57000000
 O      11.25700000       5.55300000      12.23200000
 H      12.02600000       5.27000000      12.69900000
 H      11.26400000       6.53900000      12.24100000
 O       6.73000000       2.67000000      10.77300000
 H       6.83900000       1.98500000      10.11200000
 H       7.45500000       3.31900000      10.50600000
 O      12.06600000       5.12100000      20.34300000
 H      12.42100000       5.72000000      21.00100000
 H      12.79700000       4.47500000      20.12700000
 O       5.86200000       4.87000000      13.99700000
 H       6.78800000       4.53800000      13.89300000
 H       5.47800000       4.22700000      14.62600000
 O      11.13500000       8.80700000      13.98400000
 H      10.87700000       7.98500000      14.46100000
 H      12.09400000       8.62500000      13.84500000
 O       9.74900000       6.57200000      15.04900000
 H       8.90700000       7.03400000      15.07900000
 H       9.82200000       6.59600000      16.01800000
 O       8.97400000       4.31700000      13.98900000
 H       9.46700000       5.10700000      14.27600000
 H       8.70000000       4.51300000      13.07400000
 O       5.36400000      10.50000000      12.26200000
 H       5.05900000       9.57000000      12.49800000
 H       6.35600000      10.34700000      12.20400000
 O       4.66300000      10.83300000      19.72500000
 H       4.52100000       9.98100000      19.20000000
 H       5.25000000      10.75200000      20.45600000
 O      10.86500000       2.07200000      19.61400000
 H      11.20100000       2.29700000      18.73800000
 H      10.22400000       2.79600000      19.80600000
 O       8.98000000       9.32000000      16.49400000
 H       9.13000000       8.57700000      17.18900000
 H       9.94500000       9.50900000      16.17900000
 O       6.44500000       2.78100000      16.49500000
 H       6.69400000       3.43400000      17.14800000
 H       7.24600000       2.54000000      16.01400000
 O       6.37800000       7.42400000      15.30600000
 H       5.73400000       6.94900000      14.76200000
 H       6.03400000       7.36500000      16.25400000
 O       8.10600000       5.98200000      20.16900000
 H       8.66000000       5.49800000      20.80400000
 H       7.34700000       6.24400000      20.79700000
 O       9.33400000      11.13600000      14.19000000
 H      10.27200000      11.43900000      14.01500000
 H       9.38400000      10.18200000      14.47100000
 O       7.98300000       8.01700000      11.60000000
 H       7.39500000       7.54000000      12.15000000
 H       7.76000000       7.54400000      10.75100000
 O       4.97500000       2.10200000      13.04300000
 H       5.57800000       2.47900000      12.34600000
 H       5.43900000       1.27600000      13.28700000
 O      10.66700000      10.65600000      21.15700000
 H      10.15000000      10.51900000      20.30500000
 H      10.01800000      10.16000000      21.72200000
 O       7.55200000       9.12100000      19.54800000
 H       7.15800000       8.35500000      19.07000000
 H       7.63100000       9.05700000      20.52700000
 O      11.24000000       2.17900000      16.78800000
 H      11.12600000       1.21300000      16.63600000
 H      12.12000000       2.48100000      16.40500000
 O      15.30700000       1.71900000      11.60700000
 H      16.10000000       2.24500000      11.46000000
 H      15.25000000       1.72000000      12.59700000
 O      13.60600000       7.84100000      16.01700000
 H      14.00200000       7.56400000      16.92400000
 H      13.46200000       7.01900000      15.56300000
 O       5.78300000       7.20900000      18.50700000
 H       4.98600000       6.67400000      18.23500000
 H       6.44600000       6.48300000      18.69400000
 O      14.25000000       6.37600000      18.40400000
 H      14.34100000       5.47100000      18.14000000
 H      13.77700000       6.32800000      19.26700000
 O      15.07400000       0.94500000      20.69200000
 H      15.09200000       1.69100000      20.03300000
 H      15.89000000       0.41100000      20.56200000
 O       9.62800000       2.30500000      12.09300000
 H       9.26900000       2.65300000      12.95800000
 H      10.48600000       1.89400000      12.45200000
 O      10.11200000       9.74600000      11.44900000
 H       9.23900000       9.29900000      11.34300000
 H      10.23000000       9.50800000      12.37600000
 O       8.56300000       5.23400000      10.84300000
 H       8.39300000       5.93600000      11.43700000
 H       9.20100000       5.53200000      10.21300000
 O       5.61900000       4.63000000      21.12200000
 H       6.04800000       3.93000000      20.46900000
 H       4.85900000       4.11800000      21.44800000
 O      14.86200000      10.41200000      14.59200000
 H      14.38700000       9.60600000      14.89900000
 H      15.12300000      10.82500000      15.47900000
 O      14.30400000       3.87500000      19.86500000
 H      15.26700000       3.96100000      19.55700000
 H      14.51200000       3.68600000      20.80900000
 O      16.10000000       9.17800000      11.76100000
 H      15.70000000       9.45600000      10.89700000
 H      17.00500000       8.92900000      11.48300000
 O      12.03100000      10.43900000      16.92600000
 H      12.20300000       9.68600000      16.35100000
 H      12.43500000      11.21600000      16.43400000
 O      12.40700000       8.64100000      19.89500000
 H      12.51300000       9.00000000      18.98800000
 H      11.92200000       9.28100000      20.36400000
 O      13.98700000       5.79100000      13.96300000
 H      13.82900000       6.59600000      13.40100000
 H      14.48400000       5.10300000      13.36600000
 O      13.56900000       3.02100000      15.56700000
 H      13.65200000       3.85500000      15.19200000
 H      14.34200000       2.48600000      15.22600000
 O      12.17500000       0.70800000      12.83300000
 H      12.71900000       1.51600000      12.65100000
 H      12.64800000       0.00000000      13.27000000
