114
XYZ file of cluster: frame_7500_37da.c519c.74248 - created by MolEdiTo
 O       9.27500000      26.01500000      18.05100000
 H       9.51000000      26.81800000      17.50000000
 H       9.93600000      25.37500000      17.78500000
 O       8.11600000      30.20900000      18.89800000
 H       8.43300000      29.67600000      18.10800000
 H       8.92800000      30.54000000      19.35000000
 O       5.16100000      29.52100000      18.58100000
 H       5.76400000      28.78900000      18.71100000
 H       4.97200000      29.79600000      19.54100000
 O       4.02700000      30.05400000      15.73300000
 H       4.91500000      29.57400000      15.54000000
 H       4.26900000      30.50400000      16.58900000
 O       2.32600000      27.97600000      26.56100000
 H       2.98600000      28.57400000      26.14300000
 H       1.48300000      28.30500000      26.17800000
 O       4.15600000      30.49400000      26.33600000
 H       4.48000000      30.93100000      27.24700000
 H       4.66100000      30.86200000      25.58300000
 O       7.52900000      26.25600000      20.09900000
 H       7.67500000      27.10200000      20.60400000
 H       8.08000000      26.27800000      19.30200000
 O      10.03200000      30.55600000      22.02700000
 H      10.66300000      29.93600000      21.58500000
 H       9.13100000      30.23300000      22.05200000
 O       8.75100000      28.52500000      16.70600000
 H       8.25200000      28.86500000      15.89200000
 H       9.69000000      28.49100000      16.35100000
 O       3.17500000      27.31800000      17.40900000
 H       3.44000000      28.13100000      18.02900000
 H       4.07900000      27.11600000      17.05200000
 O       7.63800000      28.82100000      21.60300000
 H       6.96000000      29.29600000      21.02000000
 H       7.19100000      28.91600000      22.50800000
 O       3.34100000      26.68100000      21.45900000
 H       2.51100000      26.52100000      21.95600000
 H       4.12800000      26.45500000      21.96700000
 O       7.44100000      29.89400000      24.23600000
 H       7.99000000      30.25500000      24.98900000
 H       6.69400000      30.47400000      24.44600000
 O       7.56400000      26.13300000      24.18100000
 H       6.61700000      26.34200000      24.26400000
 H       7.85800000      26.62900000      24.96900000
 O       4.94900000      26.82200000      24.41100000
 H       4.37000000      26.40200000      25.06200000
 H       4.49000000      27.68300000      24.28700000
 O       5.91600000      27.57700000      16.23800000
 H       6.84400000      27.84000000      16.52800000
 H       5.83600000      26.60100000      16.43300000
 O       4.88500000      30.13100000      21.14900000
 H       4.26900000      30.94200000      21.09700000
 H       4.62400000      29.52600000      21.88900000
 O       9.86600000      28.12300000      23.78600000
 H       9.81900000      27.46900000      23.04800000
 H       8.95300000      28.49100000      23.79200000
 O       1.42200000      28.86800000      19.91900000
 H       0.81100000      29.30500000      20.59500000
 H       2.00800000      28.31800000      20.45600000
 O       3.75600000      29.15200000      23.79200000
 H       2.86200000      29.58600000      23.67700000
 H       4.32900000      30.00200000      23.84500000
 O       3.76700000      34.78800000      15.47000000
 H       3.73400000      33.92600000      15.07700000
 H       4.20700000      34.56200000      16.28700000
 O       7.77000000      33.88900000      22.85900000
 H       8.68600000      33.66300000      22.48400000
 H       7.86900000      34.64900000      23.54400000
 O       9.78100000      36.90900000      24.64400000
 H       9.09400000      37.00500000      24.00000000
 H      10.37500000      36.25500000      24.22500000
 O       7.61500000      37.05000000      22.92600000
 H       6.85100000      37.49400000      23.38300000
 H       6.97100000      36.44400000      22.52000000
 O       6.58700000      34.00200000      19.58000000
 H       7.05800000      33.30600000      20.08900000
 H       6.32000000      33.36400000      18.89400000
 O       3.43300000      34.20400000      22.03000000
 H       2.84900000      33.54000000      22.49700000
 H       2.76600000      34.74500000      21.57200000
 O       3.73100000      37.16300000      17.62500000
 H       2.93000000      37.43600000      17.22800000
 H       3.34500000      36.27000000      17.77700000
 O       1.10400000      34.63800000      19.92900000
 H       0.45000000      35.37500000      20.10500000
 H       0.64000000      33.84200000      20.27500000
 O       5.11600000      32.99600000      23.79200000
 H       5.96000000      33.31800000      23.43400000
 H       4.62000000      33.63700000      23.16700000
 O      10.86500000      33.50300000      19.61400000
 H      11.20100000      33.72800000      18.73800000
 H      10.22400000      34.22700000      19.80600000
 O       1.88000000      32.70400000      23.86800000
 H       1.07400000      32.35200000      24.30300000
 H       2.13100000      33.25700000      24.67500000
 O       1.03200000      36.11800000      16.73800000
 H       1.79600000      35.91700000      16.11200000
 H       0.86300000      35.23700000      17.26900000
 O       5.09400000      36.89900000      24.51700000
 H       5.03100000      36.62900000      25.48100000
 H       4.17300000      37.16200000      24.44300000
 O       5.61900000      36.06100000      21.12200000
 H       6.04800000      35.36100000      20.46900000
 H       4.85900000      35.54900000      21.44800000
 O       1.60300000      36.62900000      22.25300000
 H       1.33600000      36.41100000      23.16500000
 H       0.73800000      36.77000000      21.84100000
 O      10.45000000      35.06100000      22.43800000
 H      10.70600000      34.11500000      22.11400000
 H      10.87100000      35.53200000      21.71000000
 O       3.32100000      33.52900000      18.02600000
 H       3.93900000      32.79200000      18.30600000
 H       3.07900000      33.79200000      18.91300000
 O       6.44500000      34.21200000      16.49500000
 H       6.69400000      34.86500000      17.14800000
 H       7.24600000      33.97100000      16.01400000
