114
XYZ file of cluster: frame_7500_46d4a.c048e.9bf80 - created by MolEdiTo
 O      12.09700000      26.15600000      25.02600000
 H      12.11700000      26.47600000      25.96600000
 H      11.46500000      26.71900000      24.57400000
 O      17.03200000      28.36500000      28.66500000
 H      16.90600000      29.32700000      28.92900000
 H      17.42900000      28.04300000      29.50500000
 O      15.42500000      25.54600000      26.05800000
 H      15.05300000      24.75500000      25.66800000
 H      15.25200000      26.22900000      25.35600000
 O      11.91100000      29.04600000      20.62000000
 H      12.40300000      29.02000000      21.45200000
 H      11.59600000      28.18600000      20.26300000
 O      16.29700000      26.69300000      21.10900000
 H      16.27200000      25.65300000      21.17500000
 H      16.67700000      26.79000000      20.24700000
 O      19.20200000      27.38600000      27.28600000
 H      18.86500000      27.37000000      26.34800000
 H      18.44300000      27.90300000      27.78400000
 O      20.12300000      29.76400000      25.73800000
 H      19.96900000      29.09900000      26.49500000
 H      20.44700000      29.27600000      24.96000000
 O      10.36200000      27.80000000      27.93500000
 H      10.34900000      28.77400000      28.08300000
 H      10.69700000      27.59500000      28.82300000
 O      17.52000000      27.95000000      24.31100000
 H      17.09100000      28.67800000      24.84700000
 H      16.89800000      27.72500000      23.54500000
 O      11.32300000      29.76000000      25.41100000
 H      10.69900000      29.11700000      24.94300000
 H      10.89900000      29.65100000      26.30000000
 O      14.42100000      27.89100000      28.14300000
 H      14.33400000      28.53600000      27.51100000
 H      15.43800000      27.99700000      28.40500000
 O      19.63800000      30.02900000      29.05800000
 H      20.61400000      30.22000000      29.02400000
 H      19.24500000      30.86000000      29.25800000
 O      19.84600000      27.31000000      30.56600000
 H      19.60200000      27.93200000      29.86600000
 H      18.94900000      26.83600000      30.73100000
 O      10.03200000      30.55600000      22.02700000
 H      10.66300000      29.93600000      21.58500000
 H       9.13100000      30.23300000      22.05200000
 O      19.30100000      25.61900000      24.20100000
 H      19.03100000      25.23900000      25.09100000
 H      18.60800000      26.23800000      23.95600000
 O      18.08500000      29.59800000      20.89700000
 H      18.06100000      30.47500000      21.30500000
 H      18.85400000      29.11100000      21.25100000
 O      14.48600000      26.92400000      23.48900000
 H      14.81300000      27.88300000      23.56700000
 H      13.47000000      26.90200000      23.46800000
 O      14.75500000      29.41400000      23.87300000
 H      15.23900000      29.95200000      23.25200000
 H      14.03000000      29.99100000      24.13000000
 O      17.90200000      35.67500000      23.58500000
 H      18.80000000      35.92700000      23.41100000
 H      17.23200000      36.20400000      23.03100000
 O      12.66500000      32.88700000      21.87200000
 H      13.51600000      32.65000000      21.50100000
 H      12.10800000      32.89100000      21.05400000
 O      15.05800000      36.30900000      25.79800000
 H      15.09500000      36.05400000      24.90900000
 H      15.91000000      35.91000000      26.05300000
 O      12.23400000      34.80800000      27.10700000
 H      11.79500000      35.67200000      27.01800000
 H      12.29400000      34.46600000      26.17800000
 O      12.32600000      36.22400000      30.04700000
 H      12.85900000      35.37300000      30.10100000
 H      12.33600000      36.54300000      29.16200000
 O      15.37000000      36.36500000      28.50000000
 H      14.88600000      37.02600000      27.98200000
 H      15.11000000      35.55300000      28.16100000
 O      18.49400000      32.90100000      23.43300000
 H      18.01700000      32.24900000      24.05000000
 H      17.99800000      33.77700000      23.45800000
 O      17.08300000      34.19100000      29.48300000
 H      16.55600000      34.95800000      29.17600000
 H      17.09100000      34.31700000      30.48100000
 O      14.18200000      34.03300000      30.63700000
 H      14.92700000      34.49100000      31.04200000
 H      14.00600000      33.16500000      31.02300000
 O      12.34000000      33.55300000      24.43800000
 H      12.01600000      32.63700000      24.78500000
 H      12.19000000      33.52400000      23.45500000
 O      16.91600000      32.18900000      25.66100000
 H      16.09900000      32.26200000      26.25200000
 H      17.50400000      32.72700000      26.23800000
 O      20.19800000      36.26300000      22.12500000
 H      20.06100000      37.25700000      21.96400000
 H      20.24400000      35.91200000      21.21700000
 O      19.25600000      35.50100000      28.69000000
 H      18.35500000      35.07300000      28.83100000
 H      19.67300000      35.05600000      27.87000000
 O      21.02900000      34.88000000      24.23400000
 H      21.85000000      34.45500000      23.84000000
 H      20.66100000      35.41900000      23.39300000
 O      21.18800000      32.74700000      21.45900000
 H      21.00100000      33.57200000      20.91100000
 H      20.65100000      32.85200000      22.28100000
 O      10.88900000      32.16000000      28.23500000
 H      11.13500000      33.05500000      27.75400000
 H      10.69700000      32.27100000      29.16900000
 O      10.45000000      35.06100000      22.43800000
 H      10.70600000      34.11500000      22.11400000
 H      10.87100000      35.53200000      21.71000000
 O      14.14800000      35.34000000      22.62300000
 H      13.42300000      34.65500000      22.77800000
 H      13.79200000      36.12800000      23.09400000
 O      14.56100000      32.19200000      27.35400000
 H      14.21200000      32.61300000      28.19200000
 H      13.76800000      32.11000000      26.80200000
 O      19.22100000      33.65600000      26.39600000
 H      19.01200000      34.14200000      25.55500000
 H      19.70500000      32.82500000      26.16700000
