129
XYZ file of cluster: frame_7500_7386f.9ebca.2286b - created by MolEdiTo
 O      22.32300000      21.59600000       8.30200000
 H      22.08500000      20.78600000       8.80300000
 H      21.50300000      21.71100000       7.73000000
 O      18.75300000      24.52500000      13.58700000
 H      18.05900000      24.48000000      12.88600000
 H      18.80400000      25.51900000      13.60000000
 O      15.74800000      28.19500000       9.17500000
 H      15.61500000      28.58800000       8.31100000
 H      16.28300000      27.45200000       8.91100000
 O      22.94200000      28.31800000      14.85900000
 H      22.54600000      27.82100000      15.61300000
 H      23.55700000      29.02200000      15.20200000
 O      18.68400000      25.49400000      16.22500000
 H      18.90300000      25.26100000      15.26600000
 H      19.24200000      24.97700000      16.82900000
 O      19.70400000      22.27200000      11.22100000
 H      20.36200000      23.08500000      11.38800000
 H      20.10300000      21.86600000      10.46300000
 O      25.19900000      23.35000000      11.71700000
 H      25.30500000      22.40200000      11.53300000
 H      25.43900000      23.65500000      10.79400000
 O      18.87200000      30.51800000       9.16900000
 H      19.44100000      29.78100000       9.41700000
 H      18.51000000      30.19400000       8.35500000
 O      20.13400000      29.28200000      14.94100000
 H      20.99900000      29.37200000      14.56300000
 H      19.62300000      28.79400000      14.24600000
 O      19.22100000      20.90500000      15.83600000
 H      19.92200000      21.54700000      15.62400000
 H      18.82600000      20.56100000      14.95600000
 O      16.33100000      28.98700000      12.02300000
 H      15.57200000      29.53800000      11.82600000
 H      16.29000000      28.36100000      11.21400000
 O      24.76700000      27.21600000       6.64000000
 H      24.23400000      27.87500000       6.20800000
 H      24.25700000      26.87500000       7.36700000
 O      15.78100000      22.78900000       7.24700000
 H      15.63500000      22.97000000       8.18500000
 H      16.74500000      22.56900000       7.27300000
 O      18.49900000      29.64000000       6.46000000
 H      18.37200000      28.68500000       6.20000000
 H      19.11400000      30.09100000       5.80600000
 O      15.58400000      28.94800000       6.54400000
 H      16.38000000      28.84600000       6.02100000
 H      14.89300000      28.61100000       5.94400000
 O      25.61700000      21.61500000      14.56100000
 H      26.48300000      21.57400000      14.96400000
 H      25.51900000      20.78200000      13.93500000
 O      22.57600000      29.03000000       9.25000000
 H      22.31000000      29.07300000      10.18000000
 H      23.43200000      29.30600000       9.30200000
 O      24.39600000      23.47700000       7.69700000
 H      24.17700000      22.81100000       8.33000000
 H      23.74400000      24.15000000       7.92700000
 O      23.36100000      23.98800000      13.81700000
 H      24.24000000      23.58200000      13.54100000
 H      23.05500000      24.27500000      12.87800000
 O      26.73000000      25.17400000       6.85700000
 H      27.21900000      25.77200000       6.32600000
 H      25.91400000      24.84600000       6.46200000
 O      17.65400000      21.43200000      12.91500000
 H      17.68700000      22.15500000      13.56600000
 H      18.42700000      21.65000000      12.28700000
 O      21.34400000      25.19200000      15.13500000
 H      20.80500000      24.42700000      14.90600000
 H      22.28300000      25.01800000      14.77800000
 O      25.36300000      29.31100000       9.31200000
 H      25.40200000      28.35000000       9.18300000
 H      26.31300000      29.58100000       9.49000000
 O      20.66300000      26.95800000       9.27600000
 H      21.07600000      26.18400000       8.72900000
 H      21.35000000      27.64300000       9.22700000
 O      17.01900000      23.98400000      11.53500000
 H      16.24600000      23.44300000      11.74500000
 H      17.30700000      23.59700000      10.71800000
 O      17.54200000      23.98700000       4.88800000
 H      16.94200000      24.55100000       4.48200000
 H      17.00100000      23.28500000       5.28600000
 O      22.26400000      29.14000000       6.26000000
 H      21.46800000      28.54700000       5.93600000
 H      21.84600000      29.51200000       7.06300000
 O      18.03300000      27.21200000       5.59000000
 H      17.24300000      26.79100000       5.19800000
 H      18.33700000      26.49900000       6.21000000
 O      18.70400000      23.68700000       8.21500000
 H      19.59600000      24.07600000       8.19900000
 H      18.91200000      22.73200000       8.55200000
 O      25.89400000      26.76500000       9.62100000
 H      26.08100000      26.37200000       8.75600000
 H      26.78100000      26.82200000      10.08200000
 O      17.17900000      21.15300000       9.64800000
 H      16.60900000      20.43600000       9.81000000
 H      17.39800000      21.39200000      10.55200000
 O      22.36400000      25.43300000       7.20300000
 H      21.53700000      25.01000000       6.80100000
 H      22.72300000      25.90500000       6.37300000
 O      22.04600000      23.52800000      11.19800000
 H      22.52400000      24.46000000      11.06000000
 H      22.70600000      22.83100000      10.81800000
 O      25.19000000      29.94300000      15.86100000
 H      25.06300000      30.32300000      14.96800000
 H      25.87100000      30.53000000      16.24300000
 O      16.38800000      25.53900000       7.96600000
 H      15.92600000      25.32200000       8.83400000
 H      16.69400000      24.60700000       7.72100000
 O      18.46600000      26.84600000      10.95000000
 H      17.99900000      26.00000000      10.75500000
 H      19.27800000      26.86400000      10.36900000
 O      25.60000000      27.38300000      15.08400000
 H      25.57200000      28.25900000      15.55600000
 H      24.68300000      27.35300000      14.69800000
 O      23.45100000      25.80900000      11.14500000
 H      24.20400000      26.33600000      10.70400000
 H      23.22400000      26.54800000      11.76400000
 O      20.29700000      24.20900000       5.53900000
 H      19.33800000      23.94700000       5.52800000
 H      20.69200000      23.29300000       5.46100000
 O      17.96400000      27.53200000      13.82200000
 H      17.25100000      27.28100000      14.48500000
 H      17.55500000      28.04400000      13.04600000
 O      24.30000000      21.16300000       5.73100000
 H      25.14500000      21.50500000       5.57800000
 H      24.01200000      21.41200000       6.59100000
 O      21.27400000      30.20400000      11.43300000
 H      21.46900000      30.93100000      12.04400000
 H      20.27600000      30.12000000      11.36100000
 O      20.66400000      22.52800000      14.13600000
 H      20.13300000      23.14500000      13.60800000
 H      21.63500000      22.66500000      14.04100000
