90
XYZ file of cluster: frame_7500_9d648.cab57.c4e57 - created by MolEdiTo
 O      28.78900000      26.51200000      27.59100000
 H      29.46900000      26.98600000      27.10500000
 H      28.10900000      27.23900000      27.85900000
 O      24.40500000      26.89700000      30.46200000
 H      23.78300000      26.18100000      30.44400000
 H      24.54400000      27.10300000      31.42600000
 O      24.79800000      30.06600000      29.20000000
 H      23.76900000      29.96700000      29.41100000
 H      25.05500000      30.39500000      30.07100000
 O      29.67700000      30.35200000      26.19100000
 H      29.58800000      30.18800000      27.14400000
 H      29.05100000      29.71700000      25.82700000
 O      25.41100000      30.30900000      26.31600000
 H      24.63800000      30.80700000      26.18700000
 H      25.61300000      30.50800000      27.23200000
 O      29.49600000      29.83300000      28.76400000
 H      30.05200000      29.90600000      29.59500000
 H      28.67000000      29.21800000      28.96100000
 O      27.04800000      28.13800000      28.92300000
 H      26.89700000      27.36600000      29.58400000
 H      26.13400000      28.52900000      29.00800000
 O      22.49200000      29.34600000      30.41000000
 H      21.61200000      29.06800000      30.71700000
 H      23.04200000      28.51800000      30.04200000
 O      22.52200000      30.09300000      35.08000000
 H      23.00700000      29.77400000      35.83400000
 H      22.86100000      29.72700000      34.27300000
 O      28.55700000      27.33300000      34.58900000
 H      28.22400000      26.84600000      35.42000000
 H      28.54600000      26.64200000      33.90600000
 O      26.33800000      29.32800000      35.98500000
 H      25.75000000      29.25300000      35.23900000
 H      26.73700000      30.23700000      35.80300000
 O      25.21200000      26.71100000      35.16500000
 H      24.80100000      26.09700000      35.70800000
 H      25.41500000      27.39900000      35.83200000
 O      30.78400000      29.33400000      34.99100000
 H      30.30400000      28.48300000      35.00300000
 H      30.95300000      29.53800000      35.95700000
 O      27.34600000      29.24400000      33.22600000
 H      27.70000000      28.52200000      33.86300000
 H      27.67500000      30.07800000      33.63600000
 O      21.87900000      33.87300000      28.10500000
 H      20.98300000      33.96600000      28.18700000
 H      22.23800000      34.00000000      28.94400000
 O      24.94300000      37.27500000      28.68200000
 H      25.50400000      37.06900000      29.42500000
 H      25.29400000      36.65400000      27.95100000
 O      22.33300000      36.45200000      29.57400000
 H      21.78200000      36.69800000      28.88300000
 H      23.21900000      36.80200000      29.23200000
 O      27.84000000      33.46800000      29.77200000
 H      28.23200000      33.13800000      30.64200000
 H      27.45500000      32.69800000      29.28500000
 O      29.05200000      34.56300000      26.57700000
 H      29.35300000      33.78300000      26.16400000
 H      28.81300000      34.23900000      27.42200000
 O      25.63500000      35.76900000      26.45800000
 H      25.25800000      35.95700000      25.56000000
 H      25.25600000      34.81100000      26.62800000
 O      29.49600000      32.99700000      33.59700000
 H      29.66000000      33.76100000      34.14600000
 H      30.07400000      32.26700000      34.05800000
 O      26.45300000      35.94700000      32.68100000
 H      26.58500000      35.19400000      32.11100000
 H      26.64200000      35.72600000      33.63000000
 O      24.21500000      35.73000000      34.59800000
 H      23.41200000      35.87800000      35.21600000
 H      23.72000000      35.69300000      33.69400000
 O      29.02300000      33.76200000      36.09600000
 H      29.43300000      32.96400000      36.58700000
 H      28.96400000      34.52800000      36.71900000
 O      21.13000000      35.24800000      37.25400000
 H      20.92900000      36.17700000      36.94900000
 H      22.14300000      35.42000000      37.52500000
 O      20.29000000      32.72600000      36.68000000
 H      21.09900000      32.42300000      36.22300000
 H      20.56300000      33.68500000      36.86100000
 O      26.30400000      34.27300000      34.94100000
 H      25.56500000      34.82400000      35.21200000
 H      27.15100000      34.55000000      35.46400000
 O      27.36800000      36.58500000      36.64500000
 H      26.96300000      37.03900000      35.87000000
 H      28.33800000      36.94700000      36.69000000
 O      24.72600000      32.89600000      33.30300000
 H      23.92900000      33.33500000      33.72800000
 H      25.49400000      33.18900000      33.92300000
 O      21.31300000      36.58400000      34.06000000
 H      20.93100000      35.64900000      33.90500000
 H      21.42600000      36.86800000      33.16100000
