33
XYZ file of cluster: frame_3500_cdba3.ca643.767c8 - created by MolEdiTo
 O      20.51400000      18.49300000      17.94400000
 H      19.89200000      18.51800000      17.23900000
 H      21.25700000      17.93800000      17.60600000
 O      18.08600000      18.49200000      11.09500000
 H      18.23800000      19.35700000      11.53000000
 H      18.30600000      17.83500000      11.82800000
 O      19.34400000      19.19900000      15.37100000
 H      20.04500000      19.68700000      14.81900000
 H      19.32100000      18.26700000      15.15800000
 O      20.07100000      25.69900000      17.65600000
 H      20.21200000      24.74900000      17.55200000
 H      20.17200000      26.05100000      16.70300000
 O      18.84000000      23.67000000      12.58200000
 H      19.38200000      23.23700000      11.86900000
 H      18.80800000      24.62300000      12.28100000
 O      20.61500000      22.57700000      10.83800000
 H      21.21400000      21.76600000      10.88700000
 H      21.23500000      23.13600000      10.36400000
 O      20.79200000      22.30700000      13.79800000
 H      21.46300000      23.06800000      13.55300000
 H      20.02700000      22.87300000      13.61100000
 O      23.80800000      18.76300000      14.51500000
 H      24.78700000      19.07600000      14.43600000
 H      23.31400000      19.57500000      14.09300000
 O      24.01300000      19.30100000      10.90600000
 H      24.99900000      19.38300000      11.16800000
 H      23.72000000      18.36100000      11.11300000
 O      24.74600000      23.48800000      15.68400000
 H      24.22300000      23.92800000      15.02800000
 H      24.09100000      23.31600000      16.36200000
 O      23.66700000      24.52000000      13.07400000
 H      24.68000000      24.50600000      12.86000000
 H      23.37700000      25.36000000      12.73300000
