64
XYZ file of cluster: frame_3500_4a016.4c024.24bb9 - created by MolEdiTo
 O      11.01500000       7.53200000       4.03900000
 H      11.49000000       6.73900000       3.69200000
 H      11.30400000       8.27400000       3.51200000
 O      14.90700000       9.17200000       3.21300000
 H      15.26900000       8.26100000       3.26900000
 H      14.28100000       9.14100000       3.95500000
 O      14.11500000      11.92900000       5.72400000
 H      13.48800000      12.54000000       5.23100000
 H      15.00400000      11.95600000       5.30300000
 O       8.40400000       8.59200000       4.19500000
 H       9.28000000       8.27800000       4.12900000
 H       7.91800000       7.74000000       4.10300000
 O       6.86500000      12.11100000       9.99500000
 H       6.50600000      11.19700000      10.24700000
 H       7.62700000      12.26800000      10.62200000
 O      12.31000000      15.06800000       4.56700000
 H      12.18000000      15.78700000       3.88200000
 H      11.89400000      14.24800000       4.24600000
 O      13.12500000       9.55700000       5.41300000
 H      13.44300000      10.50500000       5.41400000
 H      12.21700000       9.77900000       5.38300000
 O       8.07800000      10.20700000       8.23000000
 H       7.41000000      10.78400000       8.67500000
 H       8.41800000       9.67200000       9.03500000
 C      11.28500000       9.13300000      11.66200000
 C      10.28900000      10.32500000      11.35000000
 C      12.25400000      11.71800000      10.36200000
 H      10.95200000      10.36500000       9.41300000
 H      10.43900000       8.09200000      10.15600000
 O       9.77800000      12.13400000       9.67900000
 O      10.83900000       8.43400000      12.87300000
 O      11.34100000       8.17900000      10.54500000
 C      10.83400000      11.14600000      10.19800000
 O       8.99500000       9.75900000      11.00000000
 H      10.23100000      10.90100000      12.32200000
 O      12.22200000      12.67200000      11.41500000
 O      12.47100000      12.44200000       9.18400000
 H      11.66500000      12.99800000       9.11600000
 H       8.35600000      10.01300000      11.70200000
 H       9.36700000      11.58400000       9.01600000
 O      11.16200000       8.75100000       7.73800000
 H      10.68500000       7.92400000       7.82900000
 H      10.97000000       9.14800000       6.89200000
 O       8.29000000      11.64300000       4.91700000
 H       8.36100000      11.64400000       5.93900000
 H       8.27700000      10.70600000       4.69700000
 O       8.76700000      13.48400000       7.14200000
 H       8.25300000      13.58700000       7.95200000
 H       9.48600000      14.16300000       7.24700000
 O       8.02400000      14.21000000       3.61800000
 H       7.95300000      14.88600000       4.33600000
 H       7.92300000      13.35400000       4.12400000
 O       9.17700000       6.74600000       6.20100000
 H       8.96400000       7.69300000       6.14400000
 H       9.95100000       6.69800000       5.59900000
 O      14.45700000      14.38300000       7.51200000
 H      14.17600000      13.49900000       7.19600000
 H      15.33900000      14.52700000       7.02200000
 O      14.35500000       8.56000000       8.34300000
 H      13.42200000       8.81400000       8.39100000
 H      14.36900000       7.90300000       7.66200000
 O      11.32100000      12.42200000       4.58400000
 H      11.20400000      11.85200000       3.82800000
 H      10.82400000      12.12100000       5.39700000
