51
XYZ file of cluster: frame_3500_4ddc9.bd65e.1e921 - created by MolEdiTo
 O       7.37400000      18.51600000       7.08800000
 H       7.68100000      17.92500000       6.37500000
 H       7.39200000      19.41800000       6.65500000
 O      13.29300000      18.99200000       7.00900000
 H      13.85000000      18.62500000       6.34800000
 H      13.64700000      19.89000000       7.13100000
 O      14.19000000      17.64000000       4.68200000
 H      13.49100000      17.94900000       3.97400000
 H      13.98700000      16.69000000       4.82200000
 O       9.84400000      19.58500000      10.79500000
 H       9.40700000      20.30800000      10.48400000
 H       9.86400000      19.07000000       9.97000000
 O      12.30200000      20.24200000       9.23300000
 H      12.03500000      19.63000000       9.90400000
 H      12.53100000      19.66400000       8.50600000
 O       9.37200000      18.81300000       3.27500000
 H       9.67600000      18.07800000       2.67400000
 H       9.74200000      18.45600000       4.17800000
 O      10.30100000      19.05600000       6.36700000
 H      11.24600000      18.97000000       6.52200000
 H       9.89600000      18.51300000       7.11900000
 O       9.69700000      25.05200000      10.48000000
 H      10.19600000      25.52000000      11.19600000
 H       8.78400000      25.36400000      10.60900000
 O       8.06700000      22.74700000       6.55000000
 H       8.87300000      22.96200000       6.03000000
 H       7.54800000      23.57500000       6.61800000
 O      10.86900000      24.01400000       8.04400000
 H      11.06600000      24.52000000       8.88500000
 H      10.48100000      23.20600000       8.43100000
 O      14.15600000      23.28900000       7.51400000
 H      13.89300000      23.92000000       6.77500000
 H      13.84500000      23.65900000       8.40200000
 O       9.51200000      24.82300000       5.43800000
 H      10.11900000      25.15000000       4.67800000
 H       9.92600000      24.77200000       6.30300000
 O      14.56900000      22.90600000       4.50600000
 H      14.40200000      22.16400000       3.85400000
 H      13.71300000      23.42000000       4.73500000
 O       7.50300000      23.32200000       3.27200000
 H       7.20200000      24.19900000       3.71300000
 H       6.96900000      22.59400000       3.68800000
 O       7.70500000      22.54800000       9.71400000
 H       7.74200000      22.14300000       8.72600000
 H       6.84500000      23.08400000       9.62900000
 O      11.78100000      22.32800000       4.44700000
 H      12.01900000      23.01500000       5.15700000
 H      11.51000000      21.60200000       4.99400000
 O      13.25000000      25.12700000       9.48300000
 H      12.81900000      24.71200000      10.23300000
 H      13.91800000      25.76800000       9.66400000
