36
XYZ file of cluster: frame_3500_caff5.21c6.21ae2 - created by MolEdiTo
 O      20.61500000       1.06300000      10.83800000
 H      21.21400000       0.25200000      10.88700000
 H      21.23500000       1.62200000      10.36400000
 O      17.84600000       3.38900000       9.66600000
 H      18.67200000       3.96100000       9.57700000
 H      17.93300000       2.88500000       8.84200000
 O      20.47900000       5.10200000       9.08600000
 H      20.94500000       4.38400000       9.57900000
 H      20.12600000       5.61500000       9.82300000
 O      18.04700000       3.81200000       3.39800000
 H      18.49300000       4.58200000       2.94600000
 H      18.32100000       3.92900000       4.36500000
 O      20.88600000       1.15700000       3.78600000
 H      20.99600000       0.24400000       3.39600000
 H      20.30000000       1.58000000       3.11600000
 O      19.21100000       4.64100000       6.28500000
 H      20.06500000       4.42100000       5.84100000
 H      19.56900000       4.97100000       7.16800000
 O      25.38300000       1.25000000       4.12000000
 H      24.50600000       0.81900000       4.17000000
 H      25.26400000       2.20500000       3.86200000
 O      23.01800000       3.03400000       5.45700000
 H      23.72200000       3.53600000       4.96500000
 H      22.60600000       2.46700000       4.81500000
 O      22.92200000       6.00300000       4.13000000
 H      22.62400000       5.64600000       3.33700000
 H      22.44800000       6.88900000       4.20200000
 O      23.72700000       6.92200000       7.72600000
 H      23.15200000       6.25200000       8.21400000
 H      24.20200000       6.44000000       7.03900000
 O      23.86400000       3.08300000       9.76600000
 H      24.47800000       3.92100000       9.66600000
 H      24.35600000       2.37000000       9.31300000
 O      25.46400000       0.61500000       8.08600000
 H      25.68000000       1.47100000       7.66900000
 H      24.84300000       0.18600000       7.46500000
