42
XYZ file of cluster: frame_3500_0.7b4ea.28c79 - created by MolEdiTo
 O       3.29300000      16.85000000       8.39100000
 H       3.02300000      17.60300000       7.84400000
 H       4.25500000      16.96800000       8.59500000
 O       7.40700000      16.76700000       4.48200000
 H       7.48300000      17.20700000       3.64800000
 H       6.45800000      16.95900000       4.77200000
 O       4.77300000      12.28400000       4.97200000
 H       5.40200000      11.80800000       5.60400000
 H       5.31700000      12.93800000       4.56800000
 O       4.12800000      15.53600000       6.07900000
 H       4.25700000      15.64800000       5.14800000
 H       3.69800000      16.38800000       6.27500000
 O       1.01300000      14.76100000       8.90700000
 H       0.00000000      14.64600000       8.95300000
 H       1.30200000      15.64100000       8.78500000
 O       2.17100000      18.30500000       6.60500000
 H       1.51100000      17.74600000       6.14500000
 H       1.74000000      19.19300000       6.54400000
 O       6.86500000      12.11100000       9.99500000
 H       6.50600000      11.19700000      10.24700000
 H       7.62700000      12.26800000      10.62200000
 O       2.87600000      16.57300000      11.33000000
 H       3.11600000      16.77800000      10.39000000
 H       2.25800000      15.80000000      11.11500000
 O       4.78000000      13.70200000       8.11900000
 H       4.01000000      14.03600000       8.70300000
 H       4.69100000      14.42000000       7.41200000
 O       5.09000000      10.86600000       7.54800000
 H       5.39300000      11.82100000       7.71600000
 H       4.15500000      10.98300000       7.65900000
 O       4.48800000      13.90900000      11.00700000
 H       5.05100000      13.30500000      10.53700000
 H       4.81500000      14.73300000      10.66300000
 O       1.38300000      11.73800000      11.11000000
 H       1.45700000      12.49500000      10.56800000
 H       1.13300000      10.97900000      10.59500000
 O       2.31500000      11.73700000       6.38600000
 H       2.12900000      12.60200000       6.82300000
 H       3.11500000      11.81800000       5.86100000
 O       2.43600000      13.89400000       3.87600000
 H       2.34100000      14.84500000       3.56700000
 H       2.80300000      13.90900000       4.76000000
