45
XYZ file of cluster: frame_3500_9dd6c.78014.50476 - created by MolEdiTo
 O      20.68000000      10.67400000      13.92800000
 H      20.87800000      11.21200000      13.09500000
 H      20.98300000      11.18800000      14.73400000
 O      14.74400000      14.39100000      10.23000000
 H      14.63700000      14.52900000       9.26700000
 H      14.85600000      13.42700000      10.13300000
 O      17.05400000      11.33200000      13.25800000
 H      16.30400000      11.88900000      13.17800000
 H      17.78900000      11.95300000      12.96800000
 O      14.21600000      16.23700000      12.07900000
 H      14.35200000      17.08300000      11.66000000
 H      14.34600000      15.51100000      11.32900000
 O      16.70600000      16.51200000      13.52500000
 H      15.94700000      16.24500000      12.88200000
 H      17.46600000      16.50800000      12.96000000
 O      18.08600000      18.49200000      11.09500000
 H      18.23800000      19.35700000      11.53000000
 H      18.30600000      17.83500000      11.82800000
 O      19.08600000      17.27300000       7.42800000
 H      18.30900000      17.22900000       8.04100000
 H      19.33200000      18.18800000       7.50500000
 O      18.78900000      11.25100000       8.44700000
 H      18.95200000      12.22300000       8.18800000
 H      18.04300000      11.33100000       9.08900000
 O      16.77100000      16.96100000       9.06800000
 H      15.82700000      17.27600000       9.02500000
 H      17.12800000      17.52900000       9.75800000
 O      19.00700000      15.93200000      12.27500000
 H      18.88800000      14.96300000      12.06600000
 H      19.61600000      15.82000000      13.10200000
 O      18.21500000      14.43800000       8.79300000
 H      17.27400000      14.11400000       9.05800000
 H      17.91300000      15.22100000       8.36600000
 O      19.02700000      13.06700000      12.01200000
 H      19.96400000      12.92200000      12.36600000
 H      19.07700000      12.54700000      11.11400000
 O      15.40600000      11.48800000       9.30600000
 H      15.56900000      10.57500000       9.71300000
 H      14.86200000      11.28000000       8.56100000
 O      14.45700000      14.38300000       7.51200000
 H      14.17600000      13.49900000       7.19600000
 H      15.33900000      14.52700000       7.02200000
 O      14.70900000      13.02700000      12.94800000
 H      15.15300000      13.34200000      12.08600000
 H      13.87600000      12.64800000      12.56800000
