48
XYZ file of cluster: frame_3500_781f.1ae51.1a9a7 - created by MolEdiTo
 O       1.58300000       8.98900000       2.93200000
 H       1.19700000       9.71900000       2.32700000
 H       1.53100000       9.44700000       3.82500000
 O       4.65100000       3.02200000       7.09600000
 H       4.47400000       3.46100000       6.24100000
 H       4.60300000       3.80000000       7.78100000
 O       2.75100000       9.15200000       5.89500000
 H       2.73300000      10.06700000       6.22300000
 H       2.14600000       8.53300000       6.44600000
 O       1.45900000       6.00300000       4.13000000
 H       1.16100000       5.64600000       3.33700000
 H       0.98500000       6.88900000       4.20200000
 O       2.26400000       6.92200000       7.72600000
 H       1.68900000       6.25200000       8.21400000
 H       2.73900000       6.44000000       7.03900000
 O       3.45500000       7.91900000      10.37000000
 H       2.95700000       8.66100000      10.04600000
 H       2.89100000       7.65500000      11.16800000
 O       4.28300000       5.32500000       9.25700000
 H       3.83800000       5.94400000       9.80900000
 H       4.63100000       5.95100000       8.59300000
 O       6.88900000       4.94500000       7.67500000
 H       7.69800000       5.01000000       7.21100000
 H       6.34400000       4.42300000       7.09500000
 O       2.40100000       3.08300000       9.76600000
 H       3.01500000       3.92100000       9.66600000
 H       2.89300000       2.37000000       9.31300000
 O       6.82000000       4.10100000       4.52800000
 H       6.62000000       5.04100000       4.57300000
 H       7.83700000       4.09800000       4.60500000
 O       5.07100000       8.40500000       4.54300000
 H       5.73100000       8.70900000       5.24900000
 H       4.18000000       8.85500000       4.84300000
 O       6.71500000       4.02700000      10.60400000
 H       6.77200000       4.69500000      11.35800000
 H       6.68400000       4.61700000       9.76900000
 O       1.32900000       9.23700000       8.91100000
 H       1.60200000       8.35100000       8.45800000
 H       0.66000000       9.57100000       8.29100000
 O       6.14500000       8.17200000       7.21600000
 H       6.95600000       8.09700000       7.80100000
 H       5.83000000       9.11200000       7.37800000
 O       4.52200000       6.10800000       5.88100000
 H       4.93500000       6.77600000       6.48800000
 H       3.95200000       6.71500000       5.32300000
 O       3.82200000       4.08200000       3.96100000
 H       4.77600000       4.01800000       4.11000000
 H       3.62400000       4.99300000       3.64300000
