166
XYZ file of cluster: frame_2500_1db54.1fde5.68637 - created by MolEdiTo
 O      14.30800000       9.86100000      27.17500000
 H      14.33100000      10.47500000      27.93900000
 H      14.37500000      10.41600000      26.33800000
 O      16.09500000       4.61300000      21.58600000
 H      15.16700000       4.96100000      21.63100000
 H      16.65500000       5.41100000      21.66200000
 O       8.44400000      15.09600000      22.80300000
 H       9.05300000      15.03100000      23.54100000
 H       8.86800000      14.44500000      22.22500000
 O      12.60400000       6.30400000      16.66200000
 H      13.00300000       5.49600000      16.17500000
 H      13.20000000       6.59200000      17.38300000
 O       7.88900000       9.17300000      23.34700000
 H       7.26000000       8.49300000      23.08200000
 H       7.40900000      10.03100000      23.12700000
 O       6.87300000       8.59300000      16.07300000
 H       6.07600000       8.23800000      16.48700000
 H       6.69500000       8.76900000      15.21000000
 O      13.55200000       6.94900000      24.85300000
 H      13.96900000       6.09600000      24.61600000
 H      13.93000000       7.28800000      25.68700000
 O      10.92100000      11.59400000      26.67400000
 H      10.08800000      11.95800000      26.27300000
 H      11.26500000      10.81800000      26.19700000
 O      13.45200000      13.94300000      19.43300000
 H      12.46000000      14.05300000      19.51900000
 H      13.90700000      14.82100000      19.47000000
 O      10.25200000      11.03800000      16.11700000
 H      10.22800000      10.10600000      16.41500000
 H      10.55900000      11.48600000      16.93500000
 O      13.94000000       7.62400000      18.64600000
 H      14.43100000       7.82400000      19.48300000
 H      14.75500000       7.68200000      18.12700000
 O      11.53500000      13.85500000      22.97500000
 H      11.07600000      13.02000000      22.77100000
 H      12.50600000      13.61700000      22.78800000
 O      14.72500000      15.03500000      24.78700000
 H      14.18000000      14.49700000      24.15200000
 H      15.36600000      15.51300000      24.21300000
 O      12.24100000       8.03200000      21.65600000
 H      11.62100000       8.13500000      22.41600000
 H      12.44000000       8.90400000      21.35700000
 O       9.95800000       6.65500000      16.38400000
 H      10.85800000       6.30800000      16.46200000
 H       9.99600000       7.61900000      16.21300000
 O      13.04500000      12.19600000      17.32700000
 H      13.49000000      12.71500000      17.99400000
 H      13.19000000      12.80500000      16.62900000
 O      13.42800000       5.43200000      22.26100000
 H      12.61900000       5.92200000      22.30400000
 H      13.18300000       4.64200000      21.72500000
 O       9.68700000      11.00300000      22.86000000
 H      10.47700000      10.96300000      23.49800000
 H       9.14300000      10.33200000      23.33200000
 O       8.05500000       4.35600000      22.88600000
 H       7.33800000       4.10200000      23.47400000
 H       7.90200000       5.28900000      22.54000000
 O       8.95300000      10.61700000      20.18600000
 H       9.31600000      10.39300000      21.07800000
 H       9.14800000      11.56100000      20.11400000
 O      10.96900000       5.85800000      23.33000000
 H      10.29200000       6.22800000      22.70100000
 H      10.63700000       4.98400000      23.34200000
 O       5.47600000      14.01100000      22.54000000
 H       6.11300000      13.19400000      22.58600000
 H       6.05900000      14.69600000      22.20300000
 O      11.05700000       8.44800000      24.20700000
 H      10.68800000       8.52900000      25.12900000
 H      11.92400000       7.98200000      24.30800000
 O       4.74400000       8.18800000      20.69100000
 H       5.29600000       8.68200000      20.05100000
 H       4.78700000       7.17500000      20.58200000
 O      10.82400000      14.71400000      19.11700000
 H      10.72300000      15.60100000      19.56000000
 H      10.15600000      14.72700000      18.47500000
 O      12.03700000      11.26700000      20.36500000
 H      11.85300000      11.08100000      19.40100000
 H      11.55600000      12.08400000      20.51700000
 O      11.90100000       9.57400000      17.80100000
 H      12.38800000       8.86300000      18.32600000
 H      12.67300000      10.13200000      17.51300000
 C      15.40000000      14.48900000      14.88100000
 C      16.10100000      15.87800000      14.56400000
 C      15.87300000      16.61200000      17.05000000
 H      14.43100000      16.88200000      15.36500000
 H      17.08400000      14.06700000      15.50000000
 O      15.99600000      18.18900000      15.09300000
 O      14.20400000      14.32800000      14.93800000
 O      16.21800000      13.60000000      15.52000000
 C      15.52500000      16.91200000      15.50200000
 O      17.51600000      15.77700000      14.56100000
 H      15.80200000      16.28800000      13.54600000
 O      16.92800000      16.14400000      17.41500000
 O      14.78000000      16.64900000      17.87100000
 H      14.08600000      17.05300000      17.34200000
 H      17.92500000      16.66300000      14.88600000
 H      15.63300000      18.99400000      15.53600000
 O       9.54900000       7.69600000      19.25400000
 H       9.19400000       8.63100000      19.23800000
 H       9.27000000       7.25100000      18.42000000
 O       5.38500000       7.26900000      23.88800000
 H       5.06600000       7.42300000      23.00100000
 H       5.35700000       6.27200000      23.95700000
 O      15.57000000      15.64800000      21.44900000
 H      15.99800000      14.75500000      21.46500000
 H      16.00000000      16.05900000      22.23900000
 O      14.14500000      13.02000000      22.76000000
 H      14.81000000      12.41600000      23.19300000
 H      14.30400000      12.74700000      21.81200000
 O       8.30400000      15.49400000      18.12500000
 H       7.99600000      15.95000000      18.91400000
 H       7.91200000      16.05400000      17.37200000
 O       8.70300000      13.52300000      26.63400000
 H       8.31700000      14.26500000      27.13900000
 H       9.25200000      13.96100000      25.92100000
 O       6.54600000       9.57700000      18.94700000
 H       7.24600000      10.05500000      19.34500000
 H       6.78700000       9.59100000      18.00300000
 O       5.61800000      10.59500000      22.28500000
 H       5.75100000      11.32800000      21.58100000
 H       5.22200000       9.86400000      21.70200000
 O       7.71400000      12.56500000      15.77700000
 H       6.97900000      12.24100000      16.35100000
 H       8.56500000      12.41400000      16.23100000
 O      15.63500000       7.71400000      26.23800000
 H      15.19800000       8.47100000      26.55900000
 H      16.46900000       8.20000000      25.93500000
 O       8.10000000       6.31300000      21.67400000
 H       8.90800000       6.79300000      21.44500000
 H       7.58300000       6.26500000      20.85900000
 O      10.73300000      14.51400000      25.49000000
 H      10.96000000      14.10500000      24.69900000
 H      10.34100000      15.35400000      25.22700000
 O       9.38100000       9.15800000      25.68100000
 H       8.95800000       8.99900000      26.53200000
 H       8.84500000       8.61600000      25.06600000
 O       7.34500000      15.69100000      25.74800000
 H       6.61100000      15.49700000      26.41200000
 H       6.92800000      15.44400000      24.88600000
 O      15.95600000      12.76400000      20.42500000
 H      15.11200000      13.25300000      20.24700000
 H      16.59000000      13.25000000      19.78400000
 O      14.88100000       9.38200000      21.04100000
 H      14.11700000       9.78500000      20.56900000
 H      14.42800000       8.96400000      21.84700000
 O       7.34300000      12.86000000      18.48500000
 H       7.32800000      13.81300000      18.36200000
 H       6.42400000      12.69100000      18.82000000
 O      12.63100000       5.17100000      26.40700000
 H      12.62500000       6.09400000      26.43900000
 H      12.99500000       5.03500000      25.50200000
 O       9.89800000       6.12600000      25.92900000
 H       9.90400000       6.23200000      25.00500000
 H      10.78700000       5.72400000      26.20400000
 O       6.80400000      11.01800000      25.98800000
 H       7.69600000      11.03500000      26.35900000
 H       6.53300000      10.04000000      26.05700000
 O       4.50800000      12.58000000      25.99200000
 H       3.84900000      11.88400000      25.84200000
 H       5.39900000      12.08200000      25.94800000
 O      11.25300000       5.78800000      20.12100000
 H      10.65700000       6.43400000      19.64800000
 H      12.03300000       6.30600000      20.40400000
 O       5.81800000       8.46600000      25.83400000
 H       4.80900000       8.29000000      25.94800000
 H       5.95800000       7.94800000      25.00000000
