120
XYZ file of cluster: frame_2500_73993.a162a.980b3 - created by MolEdiTo
 O      23.51400000      24.58300000      24.97600000
 H      24.00200000      25.18100000      24.36800000
 H      23.50600000      25.03100000      25.85400000
 O      20.88100000      29.93700000      20.73100000
 H      21.36800000      30.27100000      21.53000000
 H      20.39300000      30.70500000      20.55500000
 O      21.55900000      25.15300000      24.90800000
 H      21.08000000      24.85900000      24.05200000
 H      22.50100000      25.44900000      24.69000000
 O      18.63200000      29.39000000      23.55200000
 H      19.28400000      28.94500000      24.16400000
 H      19.23000000      29.90500000      22.91000000
 O      22.00200000      26.26500000      29.74700000
 H      21.17600000      25.94300000      29.18600000
 H      22.69400000      25.50500000      29.74300000
 O      20.98000000      24.21700000      22.35700000
 H      20.72200000      23.29200000      22.07100000
 H      21.94100000      24.26300000      22.13500000
 O      22.20500000      21.17900000      28.17000000
 H      22.97300000      20.77300000      27.62600000
 H      21.99200000      22.00700000      27.66600000
 O      24.08500000      23.12700000      26.83600000
 H      23.97200000      22.24200000      27.24200000
 H      23.42800000      23.18300000      26.13600000
 O      26.49400000      28.64500000      29.17200000
 H      26.16600000      27.73600000      28.96200000
 H      27.46500000      28.48700000      29.07900000
 O      22.10000000      21.18500000      24.07300000
 H      22.83800000      20.85900000      23.45600000
 H      21.33900000      20.91300000      23.48600000
 O      19.06300000      23.87500000      26.66900000
 H      19.91000000      23.42200000      26.79100000
 H      18.68400000      23.43900000      25.85600000
 O      22.41500000      27.32300000      20.91400000
 H      21.48600000      27.37100000      20.75600000
 H      22.56300000      27.87800000      21.72500000
 O      21.64500000      28.57500000      28.21900000
 H      21.96100000      27.80000000      28.74400000
 H      21.87200000      29.43300000      28.61200000
 O      24.68100000      29.05100000      25.19200000
 H      25.06500000      29.94500000      25.37700000
 H      23.88400000      28.93200000      25.84100000
 O      16.72300000      24.69600000      20.59500000
 H      17.24300000      24.77900000      19.73000000
 H      17.29200000      25.08500000      21.33200000
 O      22.69700000      29.60900000      25.46600000
 H      22.80900000      30.48100000      25.77500000
 H      22.43400000      29.00200000      26.24500000
 O      21.80400000      22.76600000      26.12900000
 H      21.42300000      23.57400000      25.66400000
 H      21.88700000      22.14500000      25.39600000
 O      25.93700000      26.08100000      27.24800000
 H      26.61900000      26.11800000      26.52100000
 H      26.35600000      25.39300000      27.81600000
 O      18.83100000      28.68100000      27.62400000
 H      19.79300000      28.51800000      27.76700000
 H      18.28700000      27.90600000      27.95100000
 O      26.44300000      20.91600000      20.98700000
 H      26.04900000      21.55800000      20.38600000
 H      27.19600000      21.34300000      21.41500000
 O      23.92300000      23.20900000      22.45200000
 H      23.97200000      22.22500000      22.46700000
 H      23.75800000      23.49700000      23.38400000
 O      15.05700000      23.34600000      30.31000000
 H      15.86300000      23.23400000      29.81000000
 H      14.97700000      22.48700000      30.75900000
 O      15.99400000      26.96700000      25.91200000
 H      15.78500000      27.89900000      25.64600000
 H      15.45100000      26.47300000      25.28600000
 O      20.63200000      28.18900000      24.62300000
 H      21.40200000      28.21900000      25.23500000
 H      19.94600000      27.59700000      25.04200000
 O      17.61900000      22.91500000      29.08200000
 H      18.30000000      23.61800000      28.75800000
 H      18.14300000      22.21700000      29.48800000
 O      19.98600000      24.28800000      30.11900000
 H      19.24100000      24.57400000      30.72800000
 H      20.78700000      24.12200000      30.69700000
 O      18.37600000      26.02900000      28.27400000
 H      18.77000000      26.04400000      29.17400000
 H      18.37100000      25.12100000      27.93600000
 O      18.28600000      22.44400000      24.87300000
 H      18.31500000      22.98100000      24.05000000
 H      17.47700000      21.95100000      25.02100000
 O      16.16500000      29.63700000      25.21400000
 H      16.46300000      30.46400000      25.68200000
 H      16.99600000      29.46100000      24.69300000
 O      18.57100000      26.36200000      25.28700000
 H      17.62900000      26.57000000      25.59300000
 H      18.91300000      25.92700000      26.13100000
 O      17.00800000      30.73200000      27.23000000
 H      17.82100000      31.23900000      26.93700000
 H      17.26800000      29.82800000      27.39100000
 O      25.46300000      24.20000000      21.48400000
 H      25.35100000      24.66200000      22.35200000
 H      24.52400000      23.89600000      21.31400000
 O      19.95300000      21.50900000      22.11000000
 H      20.52100000      21.05500000      21.44400000
 H      19.04100000      21.29000000      21.84500000
 O      24.66200000      29.33100000      21.54200000
 H      24.65500000      30.29300000      21.28700000
 H      24.96400000      29.31900000      22.49500000
 O      23.89000000      25.06200000      29.59900000
 H      24.01500000      24.17000000      29.29800000
 H      23.90900000      25.53000000      28.75500000
 O      24.95600000      26.59400000      23.44500000
 H      24.95300000      27.43800000      23.92200000
 H      24.91800000      26.80900000      22.41500000
 O      18.63900000      25.95400000      22.48900000
 H      19.53300000      25.65500000      22.24300000
 H      18.68600000      26.21000000      23.43500000
 O      24.83900000      22.47000000      29.77700000
 H      24.02500000      22.13600000      29.36100000
 H      25.60100000      22.46400000      29.22400000
 O      23.40500000      27.38200000      26.92000000
 H      23.43600000      28.16900000      27.59100000
 H      24.36100000      27.04700000      26.92600000
 O      24.04900000      30.14500000      28.64000000
 H      23.98300000      31.02400000      28.17100000
 H      24.98700000      29.86600000      28.58200000
