123
XYZ file of cluster: frame_2500_c516e.c1ca3.70f33 - created by MolEdiTo
 O      28.75700000      27.63900000      23.00800000
 H      28.12000000      26.99300000      22.40900000
 H      29.08600000      27.12200000      23.73800000
 O      27.95200000      27.90600000      17.38700000
 H      28.78500000      28.33500000      17.56000000
 H      27.53400000      27.89400000      18.29100000
 O      28.08000000      28.94500000      25.75800000
 H      27.91500000      28.03600000      25.92700000
 H      27.19300000      29.43300000      25.61700000
 O      28.27000000      30.85900000      19.08800000
 H      29.31000000      30.80700000      19.26500000
 H      27.78800000      30.29500000      19.76400000
 O      30.63100000      27.14800000      15.51400000
 H      29.71800000      27.42000000      15.31600000
 H      30.69200000      27.50700000      16.39100000
 O      26.80100000      29.73800000      23.04000000
 H      27.27500000      30.53900000      22.83300000
 H      27.42200000      28.98100000      23.29800000
 O      29.31800000      28.44700000      20.34300000
 H      29.23200000      28.64900000      21.35300000
 H      29.87400000      27.65100000      20.23700000
 O      26.28300000      28.35100000      14.94300000
 H      27.04200000      28.94500000      14.65700000
 H      26.48200000      28.25100000      15.92600000
 O      27.37300000      26.27500000      21.27800000
 H      26.99500000      26.82400000      20.57000000
 H      26.64200000      25.69500000      21.40900000
 O      27.92500000      25.70800000      15.54800000
 H      27.83600000      26.36300000      16.24500000
 H      28.54300000      24.94400000      15.87100000
 O      27.10100000      36.43200000      21.86000000
 H      27.08600000      36.36600000      20.82900000
 H      27.47600000      37.40100000      21.96500000
 O      28.39900000      35.52000000      25.95900000
 H      28.79200000      34.70100000      25.67900000
 H      27.60700000      35.35400000      25.47600000
 O      29.64100000      32.62500000      25.51600000
 H      30.37300000      32.29100000      26.13200000
 H      29.05400000      31.82200000      25.45200000
 O      29.96000000      33.76400000      21.57100000
 H      30.20200000      34.17300000      22.43100000
 H      29.03600000      34.01700000      21.52700000
 O      29.67800000      36.26100000      19.30100000
 H      29.39100000      37.12600000      18.92200000
 H      28.91800000      35.68100000      19.15800000
 O      28.78700000      33.01000000      16.21800000
 H      29.65100000      33.56600000      16.41400000
 H      28.50900000      32.88400000      17.13300000
 O      29.87700000      37.11300000      21.94300000
 H      30.82900000      36.81500000      22.09800000
 H      29.55700000      36.61200000      21.19600000
 O      26.54000000      36.55700000      27.09500000
 H      26.68200000      35.85700000      27.75300000
 H      27.13500000      36.51700000      26.35900000
 O      26.12600000      35.29200000      24.25000000
 H      26.44000000      35.93500000      23.54400000
 H      25.76300000      34.49100000      23.80300000
 O      26.12600000      32.48900000      26.22300000
 H      26.84400000      32.56500000      26.87500000
 H      25.53500000      33.24600000      26.46500000
 O      26.92100000      36.29900000      18.82500000
 H      26.87800000      37.30000000      18.64400000
 H      26.55000000      35.88300000      17.98000000
 O      27.30200000      33.71800000      22.33800000
 H      26.38800000      33.59400000      21.95200000
 H      27.37500000      34.75400000      22.26300000
 O      26.17900000      34.90900000      16.60800000
 H      26.75800000      34.19900000      16.97400000
 H      25.74700000      34.46900000      15.80300000
 O      33.36200000      28.50900000      24.10800000
 H      32.73500000      28.00300000      24.71400000
 H      34.11700000      28.79800000      24.58400000
 O      34.78700000      26.65300000      16.76500000
 H      34.18600000      27.24900000      17.28200000
 H      34.31400000      26.37900000      15.91700000
 O      36.22600000      30.09000000      17.52200000
 H      36.41800000      29.23200000      17.14500000
 H      36.08000000      29.86400000      18.47200000
 O      36.27600000      27.17500000      22.50100000
 H      36.86700000      26.45100000      22.05500000
 H      35.62800000      26.56100000      22.83700000
 O      32.82600000      29.00400000      18.12000000
 H      33.30100000      29.89300000      18.11100000
 H      32.37600000      29.14200000      19.05800000
 O      35.66800000      27.79000000      25.59700000
 H      35.36000000      27.45000000      26.44300000
 H      36.53000000      27.33200000      25.43300000
 O      33.20100000      29.90100000      21.78000000
 H      33.39800000      29.38800000      22.62800000
 H      32.63700000      30.70100000      22.08100000
 O      35.95100000      29.59900000      20.45600000
 H      35.84900000      28.94500000      21.18100000
 H      35.04500000      29.98200000      20.50000000
 O      36.53600000      36.15200000      23.28900000
 H      36.39400000      35.18700000      23.35800000
 H      35.80100000      36.59500000      22.80600000
 O      37.15100000      36.04400000      16.25100000
 H      37.57400000      35.47900000      15.46200000
 H      36.34300000      35.45200000      16.35400000
 O      32.89900000      33.35800000      19.18100000
 H      32.33000000      33.35900000      20.03900000
 H      33.83000000      33.62200000      19.46100000
 O      32.88200000      33.86400000      24.26300000
 H      33.63800000      33.25200000      24.19300000
 H      32.19000000      33.51000000      24.83700000
 O      35.60500000      34.32600000      20.18100000
 H      36.48700000      34.77000000      20.08400000
 H      35.75400000      33.61500000      20.90500000
 O      35.33500000      33.54400000      25.22100000
 H      34.67000000      34.02200000      25.78600000
 H      35.82700000      33.19900000      25.98000000
 O      32.59900000      34.71200000      16.42900000
 H      32.39100000      35.22900000      17.18800000
 H      33.59100000      34.59800000      16.41500000
 O      35.43800000      34.11500000      17.05400000
 H      35.42600000      34.06200000      18.02900000
 H      35.56300000      33.13900000      16.82800000
 O      35.73900000      33.27000000      22.94200000
 H      36.22500000      32.46600000      22.61900000
 H      35.84300000      33.30100000      23.90600000
 O      33.84300000      36.10100000      21.93500000
 H      34.20400000      35.40900000      21.27100000
 H      33.68600000      35.52900000      22.72800000
