114
XYZ file of cluster: frame_2500_48dd.48abd.bfc6e - created by MolEdiTo
 O       4.56200000      14.49300000      29.73300000
 H       4.65600000      14.29500000      30.68200000
 H       5.30300000      14.09500000      29.22000000
 O       3.36600000      11.72700000      29.94100000
 H       3.84900000      10.89600000      29.80400000
 H       4.05600000      12.45000000      29.82600000
 O       9.31100000      17.96300000      27.99600000
 H       9.11200000      17.31800000      28.66600000
 H       8.69900000      18.71500000      28.22500000
 O       9.26600000      10.63800000      29.74100000
 H       9.22900000      11.22500000      28.93700000
 H       8.78400000       9.83000000      29.37600000
 O       6.04400000      12.06900000      28.77700000
 H       6.49200000      11.21000000      28.99400000
 H       6.32700000      12.33700000      27.89900000
 O       9.61600000      14.60400000      30.27800000
 H      10.03500000      14.08100000      29.60100000
 H      10.30800000      15.28600000      30.45200000
 O       1.31600000      11.36100000      28.11700000
 H       2.11400000      11.52100000      28.72000000
 H       0.59000000      11.38100000      28.79000000
 O      10.92100000      11.59400000      26.67400000
 H      10.08800000      11.95800000      26.27300000
 H      11.26500000      10.81800000      26.19700000
 O       3.81500000      19.27000000      25.79600000
 H       3.82500000      18.29500000      25.85500000
 H       3.12100000      19.41500000      26.44500000
 O       1.22000000      18.65800000      30.72500000
 H       0.59400000      17.86100000      30.84400000
 H       2.10600000      18.32000000      30.61600000
 O       2.29400000      18.15200000      27.52900000
 H       2.29900000      17.29400000      27.06700000
 H       1.72100000      18.02400000      28.32500000
 O       1.74100000      15.73900000      29.63800000
 H       2.63400000      15.45400000      29.39100000
 H       1.31300000      14.89600000      29.72200000
 O       7.86400000      17.47600000      30.48500000
 H       8.43000000      17.73500000      31.23100000
 H       7.29000000      18.26000000      30.37600000
 O       8.70300000      13.52300000      26.63400000
 H       8.31700000      14.26500000      27.13900000
 H       9.25200000      13.96100000      25.92100000
 O       5.52700000      18.52400000      27.88700000
 H       4.69400000      18.06500000      27.89200000
 H       5.36600000      19.01200000      28.75000000
 O       7.50000000      15.13400000      28.49700000
 H       8.06900000      15.05600000      29.28600000
 H       7.18000000      16.03700000      28.54400000
 O       7.34500000      15.69100000      25.74800000
 H       6.61100000      15.49700000      26.41200000
 H       6.92800000      15.44400000      24.88600000
 O       5.57300000      19.51900000      30.48300000
 H       5.39200000      18.86000000      31.19700000
 H       5.95700000      20.34300000      30.82900000
 O       4.89000000      15.02500000      26.59100000
 H       4.79400000      14.06600000      26.42400000
 H       5.03600000      15.01200000      27.55100000
 O       8.87800000      11.84700000      37.55400000
 H       9.81600000      12.07600000      37.26200000
 H       8.54200000      11.72600000      36.67400000
 O       2.21700000      15.26300000      34.08000000
 H       3.17300000      14.96700000      34.05800000
 H       1.97400000      15.48300000      33.17300000
 O       2.72400000      20.84200000      35.28800000
 H       1.92700000      20.82000000      34.74400000
 H       2.20600000      20.95100000      36.13200000
 O       5.27000000      17.95700000      34.72700000
 H       5.04600000      18.70700000      35.29500000
 H       5.58800000      17.25700000      35.33800000
 O      11.27800000      10.00100000      35.40700000
 H      11.50300000      10.76900000      34.84200000
 H      10.25700000       9.99800000      35.48200000
 O       6.26900000      15.85300000      36.03700000
 H       7.19700000      15.62300000      35.47100000
 H       6.51100000      15.65400000      36.96200000
 O       2.88900000      15.31300000      37.23000000
 H       3.23800000      15.09900000      38.12200000
 H       3.66500000      15.29600000      36.64100000
 O       8.81100000       9.86200000      34.27100000
 H       8.90700000      10.09900000      33.31200000
 H       8.19500000      10.56800000      34.59500000
 O       8.81300000      15.21200000      34.49500000
 H       8.81400000      14.91700000      33.58400000
 H       9.41900000      16.02700000      34.35100000
 O       4.85000000      14.43200000      34.07800000
 H       5.14200000      13.47100000      34.06500000
 H       5.37000000      14.89900000      34.92000000
 O      10.31700000      17.82900000      33.68000000
 H      10.01100000      18.62300000      34.14600000
 H      11.25500000      17.89600000      33.54100000
 O       2.99400000      10.25700000      35.20900000
 H       3.44300000      10.86900000      35.79200000
 H       3.08700000       9.35400000      35.64700000
 O      11.19300000      11.98900000      33.47300000
 H      10.70400000      11.48100000      32.80500000
 H      10.44200000      12.32100000      34.04200000
 O       0.91200000      13.37000000      35.84300000
 H       1.08700000      13.36700000      34.84300000
 H       1.39200000      14.11700000      36.15300000
 O       5.39800000      11.72600000      34.48900000
 H       4.69600000      11.08200000      34.19500000
 H       5.33700000      11.80400000      35.48600000
 O       8.13500000      12.58400000      34.58400000
 H       8.33300000      13.46000000      34.95800000
 H       7.13400000      12.60800000      34.58400000
 O       9.69800000      16.98200000      36.89700000
 H       9.15700000      16.42800000      37.42400000
 H      10.03600000      16.23600000      36.29300000
 O       5.05200000      20.04600000      36.68900000
 H       5.12400000      20.82600000      37.24000000
 H       4.34600000      20.30000000      36.02200000
 O       8.50000000      19.23500000      35.50000000
 H       8.91700000      18.49900000      35.97000000
 H       7.80500000      19.39100000      36.14600000
