132
XYZ file of cluster: frame_4000_6f766.6f35e.c3643 - created by MolEdiTo
 O      24.73200000      25.70800000      28.48000000
 H      23.95800000      25.99000000      27.96700000
 H      24.44900000      25.77900000      29.38200000
 O      18.94400000      15.03600000      28.67700000
 H      19.63900000      14.30600000      28.45300000
 H      19.24500000      15.80100000      28.04200000
 O      21.69300000      20.86800000      29.57800000
 H      21.73800000      21.44700000      28.82100000
 H      22.58100000      20.44300000      29.64500000
 O      20.25300000      18.39100000      29.98800000
 H      20.07800000      17.78300000      29.15700000
 H      20.72900000      19.05100000      29.61700000
 O      25.47900000      16.31300000      27.26800000
 H      26.11000000      16.73800000      27.79900000
 H      24.70500000      16.54200000      27.75100000
 O      23.55400000      21.09800000      27.36800000
 H      22.75700000      21.73400000      27.29300000
 H      23.25300000      20.28800000      26.86100000
 O      24.44500000      20.60200000      30.17900000
 H      24.81100000      21.46600000      30.56800000
 H      24.19100000      20.73100000      29.22200000
 O      20.38700000      17.32400000      27.49300000
 H      20.58700000      18.14100000      26.88500000
 H      21.14500000      16.73700000      27.29000000
 O      21.95200000      25.87000000      27.55000000
 H      21.02200000      25.69200000      27.41700000
 H      21.96600000      26.27200000      28.45300000
 O      16.22400000      19.19000000      26.63900000
 H      16.62400000      18.78900000      27.49100000
 H      16.21900000      18.49200000      25.92500000
 O      26.11500000      21.39400000      27.17700000
 H      25.10800000      21.57100000      26.99200000
 H      26.28400000      21.33100000      26.19100000
 O      16.51700000      15.51000000      30.10900000
 H      15.82300000      15.83700000      29.42700000
 H      17.02500000      14.89300000      29.56200000
 O      21.28500000      22.66100000      27.49800000
 H      20.59200000      22.80400000      26.84200000
 H      21.32400000      23.41300000      28.12100000
 O      17.57500000      23.42900000      29.76600000
 H      17.15900000      23.72000000      30.63600000
 H      18.15500000      22.65100000      30.00000000
 O      25.67100000      23.03300000      29.37700000
 H      25.14400000      23.80200000      29.02500000
 H      25.93300000      22.58600000      28.54800000
 O      23.38500000      17.08500000      28.82200000
 H      22.56100000      17.35100000      29.25400000
 H      23.85000000      17.88100000      28.64900000
 O      18.52400000      24.25100000      26.32500000
 H      18.22400000      23.32900000      26.33700000
 H      18.40000000      24.46800000      25.42500000
 O      21.14500000      24.03100000      29.83300000
 H      20.59300000      23.75700000      30.55300000
 H      21.98900000      23.81100000      30.31800000
 O      18.65100000      26.01300000      28.96300000
 H      18.52500000      25.49200000      28.16000000
 H      18.39400000      25.31300000      29.63600000
 O      26.12500000      18.93100000      28.68700000
 H      25.73400000      19.19600000      29.53800000
 H      26.09400000      19.66200000      28.04300000
 O      15.41200000      16.29800000      27.89700000
 H      16.17900000      16.28500000      27.33500000
 H      14.64200000      15.95400000      27.30700000
 O      16.55500000      26.53700000      26.23600000
 H      16.52000000      26.71800000      25.26300000
 H      17.23700000      25.91700000      26.33200000
 O      22.10800000      16.68800000      32.97800000
 H      22.81100000      17.08600000      33.56900000
 H      21.44500000      17.45200000      32.77600000
 O      21.06200000      19.86600000      35.39000000
 H      21.08500000      19.82700000      36.37800000
 H      20.11700000      19.52900000      35.12800000
 O      15.66600000      19.78300000      32.42300000
 H      15.28600000      19.89900000      31.56600000
 H      16.31500000      20.52800000      32.52100000
 O      26.58500000      18.50800000      34.24200000
 H      25.59500000      18.41400000      34.30900000
 H      26.84100000      18.44700000      35.17100000
 O      17.18000000      18.66400000      37.29700000
 H      18.01600000      18.23300000      37.63400000
 H      16.80900000      17.99200000      36.63900000
 O      23.95100000      19.27700000      35.41400000
 H      24.52400000      19.79200000      34.78800000
 H      23.00700000      19.36000000      35.04000000
 O      19.22500000      18.40500000      34.26600000
 H      18.29800000      18.02100000      34.49600000
 H      19.35700000      18.04500000      33.38900000
 O      18.68900000      20.83200000      32.67200000
 H      18.71700000      20.12300000      33.44000000
 H      19.57000000      20.73700000      32.31000000
 O      15.05400000      15.69400000      33.87000000
 H      14.34800000      15.18200000      33.45400000
 H      15.74000000      15.83200000      33.15400000
 O      24.71000000      26.54000000      36.84800000
 H      24.79700000      26.05400000      37.70200000
 H      25.56300000      26.68500000      36.52600000
 O      19.87100000      23.43000000      35.18500000
 H      18.97100000      23.51000000      34.74100000
 H      20.03600000      22.51700000      35.34800000
 O      23.36200000      23.27900000      33.30200000
 H      23.05700000      22.62100000      33.95600000
 H      24.34000000      23.57100000      33.46900000
 O      16.28900000      18.11600000      34.74600000
 H      15.97100000      18.55400000      33.92500000
 H      15.65100000      17.27300000      34.84100000
 O      24.47900000      16.40700000      34.79600000
 H      24.50700000      16.63300000      35.82000000
 H      24.12500000      15.48300000      34.83900000
 O      25.90300000      21.76400000      34.73800000
 H      25.83100000      22.70400000      34.78800000
 H      26.78500000      21.50700000      34.45100000
 O      25.58200000      24.59000000      34.63800000
 H      25.94000000      24.81000000      35.58500000
 H      26.22700000      25.10300000      34.08500000
 O      22.46500000      23.41300000      36.34600000
 H      22.99700000      23.95300000      35.73700000
 H      21.56100000      23.49500000      35.94100000
 O      18.73700000      26.09000000      36.75000000
 H      19.49500000      26.40900000      37.29300000
 H      18.16000000      26.93700000      36.75900000
 O      17.31600000      25.29000000      34.15700000
 H      17.86700000      25.46900000      34.95700000
 H      17.25900000      26.12700000      33.64800000
 O      22.68900000      26.30000000      34.47800000
 H      23.13200000      25.47100000      34.22100000
 H      23.42200000      26.75300000      34.96200000
 O      18.09000000      20.57900000      35.68700000
 H      17.39700000      20.04600000      36.12500000
 H      18.25600000      21.26200000      36.40400000
 O      25.48100000      14.91500000      32.62900000
 H      25.51100000      15.77900000      33.15000000
 H      26.37100000      14.81400000      32.24200000
