144
XYZ file of cluster: frame_4000_18bc.70468.20a38 - created by MolEdiTo
 O       6.12000000      25.60900000       7.96500000
 H       5.63300000      26.37400000       7.57400000
 H       5.45300000      24.95000000       8.32100000
 O       9.99700000      21.15800000      13.49700000
 H       9.29300000      20.68800000      12.89700000
 H       9.54900000      21.91300000      13.89400000
 O       9.47500000      18.25700000       4.95300000
 H       9.95600000      19.13000000       4.91500000
 H       9.96600000      17.68500000       5.60200000
 O       8.22600000      15.44500000       7.06900000
 H       8.76200000      16.03300000       6.50600000
 H       8.87500000      14.81800000       7.48200000
 O       2.09400000      25.99900000      13.07700000
 H       2.45000000      26.93100000      13.23000000
 H       1.07500000      26.10500000      13.10700000
 O       0.97800000      19.88000000      10.66300000
 H       0.19900000      19.83000000      10.01900000
 H       0.50900000      19.80000000      11.50600000
 O       5.63900000      17.80400000      15.93900000
 H       6.65800000      17.82500000      15.85600000
 H       5.13400000      17.96500000      15.10200000
 O       4.85600000      18.60900000      13.57700000
 H       4.56800000      19.51400000      13.40900000
 H       5.39600000      18.35400000      12.85100000
 O       3.99100000      23.89000000       9.14500000
 H       3.87200000      23.57100000       8.22400000
 H       3.40500000      24.68400000       9.28400000
 O       9.28900000      18.75100000       9.82200000
 H       8.62200000      18.35000000      10.45400000
 H       9.32800000      19.67100000      10.13500000
 O       5.70300000      16.72900000       7.98800000
 H       5.37900000      15.86700000       8.04400000
 H       6.67000000      16.45700000       7.86600000
 O       8.00800000      22.56400000       4.69400000
 H       8.10500000      21.50600000       4.68800000
 H       7.94300000      22.83200000       5.64000000
 O      10.53700000      17.50400000       7.44500000
 H      11.53200000      17.64300000       7.49500000
 H      10.12400000      17.78600000       8.27200000
 O       4.42900000      22.34400000       6.47200000
 H       4.11700000      22.58900000       5.53400000
 H       5.26700000      21.79600000       6.46700000
 O       9.43300000      16.26600000      14.51700000
 H       8.95000000      16.30800000      13.62500000
 H       8.87500000      15.76200000      15.10600000
 O       2.16000000      23.19700000      14.74700000
 H       2.04900000      24.10800000      14.44100000
 H       2.29600000      22.72200000      13.90500000
 O       7.34200000      22.68200000       7.33000000
 H       7.01100000      23.57400000       7.64300000
 H       7.23600000      22.17900000       8.15700000
 O       4.39900000      21.90100000      13.36300000
 H       3.96400000      21.66400000      14.21700000
 H       3.65800000      21.96600000      12.65800000
 O       2.47400000      20.38300000      15.17900000
 H       2.38300000      20.99900000      15.95300000
 H       1.96700000      19.68900000      15.58800000
 O      10.57100000      23.48600000       6.29500000
 H      11.10200000      23.37700000       7.04300000
 H       9.68300000      23.01100000       6.41000000
 O       1.09000000      22.80900000       9.52900000
 H       0.21500000      22.35000000       9.56800000
 H       1.24300000      23.28200000       8.71900000
 O       2.12800000      22.25200000      12.07300000
 H       1.62100000      23.10000000      11.75000000
 H       1.90900000      21.51800000      11.38400000
 O       4.81100000      24.41700000      12.66600000
 H       4.65300000      23.42500000      12.91400000
 H       3.94500000      24.86500000      12.54300000
 O       9.57600000      25.51200000       8.11800000
 H       9.59900000      24.76500000       8.81300000
 H      10.34600000      25.33500000       7.56000000
 O       7.26900000      24.46400000      11.61400000
 H       7.84300000      24.16700000      12.41400000
 H       6.33900000      24.39700000      11.94400000
 O       2.36600000      20.15700000       6.09100000
 H       2.95400000      20.90800000       6.27000000
 H       2.71500000      19.46600000       6.77900000
 O       6.67300000      17.02700000       4.92500000
 H       7.33300000      16.94000000       4.22000000
 H       7.32100000      16.62000000       5.58000000
 O       3.60800000      19.55200000      10.19600000
 H       3.58100000      19.18200000       9.29700000
 H       2.62800000      19.57300000      10.32000000
 O       3.97000000      16.14000000       5.34500000
 H       4.92400000      15.81500000       5.24500000
 H       3.97000000      16.87400000       4.62400000
 O       7.56700000      20.64500000      11.86900000
 H       7.13300000      21.09100000      11.10200000
 H       7.27100000      21.13500000      12.67200000
 O       1.95700000      17.73300000      13.62800000
 H       2.37900000      17.31000000      12.87900000
 H       2.52000000      18.46200000      13.91600000
 O       9.19900000      23.24600000       9.75400000
 H       8.41800000      23.50700000      10.36900000
 H       9.46800000      22.26600000       9.84700000
 O       8.29700000      16.62800000      11.68900000
 H       8.84500000      15.80900000      11.36000000
 H       7.43900000      16.68100000      11.31600000
 O       8.00600000      25.66700000       5.72900000
 H       8.10500000      25.58500000       6.71800000
 H       8.26600000      24.73800000       5.33700000
 O       9.11600000      26.63500000      11.84800000
 H       8.53600000      25.83300000      11.69200000
 H       9.02100000      27.15900000      11.05900000
 O       7.11900000      21.95200000      14.19400000
 H       7.62600000      22.16500000      15.05700000
 H       6.16400000      21.94200000      14.49900000
 O       8.10800000      18.90500000      14.78400000
 H       8.31900000      18.30600000      14.01600000
 H       7.47800000      19.59400000      14.39900000
 O       8.83900000      26.06500000      15.71900000
 H       8.09200000      26.27500000      15.11200000
 H       9.04500000      27.01000000      15.99200000
 O       5.06300000      15.04000000      14.78200000
 H       5.58000000      14.56200000      15.43100000
 H       4.49600000      15.78400000      15.29400000
 O       2.73300000      15.24700000       8.03700000
 H       3.08400000      15.95300000       7.44400000
 H       2.59900000      14.44300000       7.44500000
 O       9.20900000      24.25800000      13.58100000
 H       9.21700000      25.22100000      13.56200000
 H       9.76200000      24.13200000      14.37500000
 O       3.56600000      18.24900000       7.60900000
 H       4.47600000      17.77200000       7.82700000
 H       3.36600000      17.79200000       6.79200000
 O       5.43800000      21.66900000      10.22700000
 H       5.05500000      22.62000000      10.18200000
 H       4.70700000      21.11700000      10.25500000
 O       2.98200000      16.01900000      10.83600000
 H       2.90200000      16.15800000       9.86300000
 H       3.44200000      15.17600000      10.86800000
 O       5.86900000      18.05400000      11.07700000
 H       4.99100000      18.11500000      10.65700000
 H       5.98200000      19.02700000      11.28800000
 O       2.57700000      25.65500000       6.67400000
 H       3.00000000      25.24600000       5.89400000
 H       3.09600000      26.50400000       6.90700000
 O       6.14500000      26.29300000      14.30300000
 H       5.77000000      26.40200000      15.22600000
 H       5.65700000      25.58600000      13.79600000
 O       6.18800000      19.55400000       5.66000000
 H       6.63500000      19.68600000       6.54800000
 H       6.38100000      18.56700000       5.36400000
