144
XYZ file of cluster: frame_4000_49797.9e59a.71fcf - created by MolEdiTo
 O      11.60100000      22.62700000      18.05700000
 H      10.92800000      22.10600000      18.48800000
 H      11.58200000      23.40000000      18.67200000
 O      17.80600000      29.41400000      26.00000000
 H      17.61500000      29.22800000      25.03500000
 H      17.13800000      30.13000000      26.32500000
 O      19.22300000      25.75400000      15.62900000
 H      18.87700000      25.68500000      14.73800000
 H      18.63100000      25.11600000      16.03800000
 O      21.13900000      25.86100000      19.70800000
 H      20.62800000      25.24500000      19.10500000
 H      21.36200000      26.61400000      19.20800000
 O      10.24400000      28.11000000      16.67100000
 H      10.78100000      28.89900000      16.45900000
 H      10.11200000      28.01200000      17.66500000
 O      18.33600000      28.58300000      23.22900000
 H      19.02900000      28.64900000      22.49800000
 H      17.42600000      28.76900000      22.80400000
 O      10.21400000      30.51200000      23.43500000
 H       9.86100000      31.40600000      23.60900000
 H      11.02600000      30.32000000      24.05900000
 O      14.20800000      24.56200000      17.73200000
 H      14.28400000      23.62300000      17.55500000
 H      13.63900000      24.87600000      16.87100000
 O      18.38100000      25.54900000      23.64000000
 H      18.45000000      26.50600000      23.80600000
 H      17.60000000      25.53200000      23.07700000
 O      21.11300000      27.79400000      16.45700000
 H      20.24300000      28.28100000      16.30600000
 H      20.87700000      26.90300000      16.11300000
 O      19.65900000      24.39200000      18.26000000
 H      19.17300000      23.56200000      17.94900000
 H      19.67800000      24.87100000      17.40800000
 O       9.65200000      27.53900000      19.38600000
 H      10.62400000      27.65900000      19.51000000
 H       9.45800000      26.57500000      19.44300000
 O      14.77000000      29.76400000      25.80500000
 H      14.10300000      30.30800000      25.32400000
 H      15.10500000      30.29000000      26.53800000
 O      15.26600000      28.29400000      23.61200000
 H      15.34000000      28.90400000      22.86300000
 H      14.95200000      28.96900000      24.27000000
 O      10.92700000      24.70300000      19.73400000
 H      11.33200000      25.05700000      20.59100000
 H      10.10700000      24.42300000      20.16800000
 O      20.38300000      22.96800000      21.64300000
 H      20.80900000      22.72100000      22.46600000
 H      21.13100000      23.37000000      21.20800000
 O      13.90300000      21.88100000      23.35700000
 H      13.03500000      21.71800000      23.80000000
 H      14.39300000      21.00600000      23.37000000
 O      18.01400000      29.79300000      15.87600000
 H      17.32200000      30.19400000      15.32000000
 H      17.73400000      28.88700000      15.83000000
 O      19.93900000      28.34200000      21.16300000
 H      20.56500000      28.61200000      20.44100000
 H      19.52000000      27.50600000      20.84400000
 O      16.73300000      21.24600000      18.02000000
 H      16.54800000      21.89500000      18.64900000
 H      17.66500000      21.16300000      18.15500000
 O      10.92000000      22.42200000      23.94000000
 H      10.95100000      23.26900000      24.52300000
 H      10.60700000      22.71900000      23.01900000
 O      16.28800000      29.68900000      21.25600000
 H      15.90800000      30.59800000      21.14200000
 H      16.58500000      29.39000000      20.38300000
 O      11.93500000      28.84500000      25.45800000
 H      12.69800000      28.22400000      25.61500000
 H      11.37500000      28.59200000      26.22400000
 O      16.98600000      21.51300000      23.08800000
 H      16.32900000      20.87400000      22.73200000
 H      16.50900000      22.39600000      23.01000000
 O      10.73500000      24.43500000      25.78400000
 H      11.61600000      24.85300000      25.47000000
 H      10.80300000      24.56600000      26.74900000
 O      13.64400000      25.66900000      23.94900000
 H      14.35800000      26.34100000      23.76300000
 H      14.14200000      24.97400000      24.42600000
 O      18.04100000      20.93300000      25.62400000
 H      17.86300000      21.00900000      24.68000000
 H      17.33100000      20.37000000      25.96600000
 O      13.42900000      28.71900000      18.91600000
 H      13.33200000      29.12900000      19.76400000
 H      12.99000000      29.33400000      18.31700000
 O      16.98500000      26.42600000      18.03700000
 H      17.31800000      25.61400000      18.53600000
 H      17.61100000      27.04600000      18.38100000
 O      14.80000000      23.77400000      25.60000000
 H      14.42400000      23.36400000      26.45200000
 H      14.40100000      23.17100000      24.91700000
 O      16.45800000      26.72200000      15.20100000
 H      16.00300000      25.87400000      15.02400000
 H      16.70700000      26.49600000      16.12800000
 O      21.35900000      27.17300000      25.12000000
 H      20.88700000      26.66000000      24.41400000
 H      21.36800000      26.63900000      26.02100000
 O      15.55500000      24.16900000      22.08800000
 H      15.29300000      25.13400000      21.92100000
 H      14.70900000      23.74900000      22.35900000
 O      14.62100000      21.14900000      15.95100000
 H      15.45400000      20.99700000      16.46100000
 H      13.92900000      20.85300000      16.53300000
 O      14.19200000      25.98900000      20.27100000
 H      14.21400000      25.24700000      19.57400000
 H      14.03300000      26.89700000      19.89300000
 O      18.18500000      29.28600000      18.84600000
 H      18.71400000      29.27300000      19.70600000
 H      18.40700000      30.12400000      18.32100000
 O      11.81800000      23.02300000      15.45000000
 H      11.77700000      22.74800000      16.35600000
 H      11.54100000      23.93300000      15.47100000
 O      18.52400000      24.25100000      26.32500000
 H      18.22400000      23.32900000      26.33700000
 H      18.40000000      24.46800000      25.42500000
 O      13.50200000      27.33200000      16.41600000
 H      13.32100000      27.89600000      17.21900000
 H      14.41400000      27.00900000      16.63000000
 O      16.63600000      23.90300000      19.35900000
 H      16.71100000      23.28400000      20.12200000
 H      15.96400000      24.47200000      19.60200000
 O      18.42900000      25.79000000      20.90200000
 H      18.61300000      25.26700000      20.05700000
 H      18.87300000      25.27000000      21.61700000
 O      11.69500000      26.02700000      21.93900000
 H      12.50500000      26.29200000      21.41800000
 H      11.96500000      25.95800000      22.91100000
 O      19.23700000      22.39900000      16.25600000
 H      18.63200000      23.23800000      16.20800000
 H      18.60800000      21.68100000      15.93700000
 O      18.43800000      21.17200000      20.44400000
 H      18.94800000      21.96200000      20.78800000
 H      17.94600000      20.97100000      21.30000000
 O      17.08900000      24.05600000      16.49200000
 H      16.70800000      24.30400000      17.39700000
 H      16.26800000      23.74900000      16.00600000
 O      20.24400000      30.72600000      23.72500000
 H      19.99800000      29.76900000      23.75900000
 H      20.28200000      30.87900000      24.66000000
 O      16.55500000      26.53700000      26.23600000
 H      16.52000000      26.71800000      25.26300000
 H      17.23700000      25.91700000      26.33200000
 O      11.63600000      30.42100000      20.56400000
 H      10.98400000      30.93800000      20.05000000
 H      11.42200000      30.74300000      21.41400000
