144
XYZ file of cluster: frame_4000_4d8d9.1f204.3498 - created by MolEdiTo
 O      16.22800000      11.47100000       5.98400000
 H      15.30200000      11.37300000       6.39600000
 H      16.10500000      11.44500000       5.03600000
 O      16.72200000       8.42800000       1.68200000
 H      17.66100000       8.62100000       1.62900000
 H      16.29200000       9.28700000       2.00600000
 O      16.37200000      11.34100000       3.17300000
 H      17.10200000      12.03200000       2.94400000
 H      15.52600000      11.61000000       2.71300000
 O      17.42800000      13.98300000       3.31100000
 H      17.79600000      14.56900000       4.07200000
 H      18.12400000      14.22400000       2.64900000
 O      16.37900000      11.57100000       9.98400000
 H      15.58000000      11.94500000       9.51300000
 H      16.14800000      10.61900000       9.78200000
 O      12.85100000      13.99500000       2.45000000
 H      11.88600000      13.77100000       2.37400000
 H      13.27200000      13.63200000       1.66500000
 O      18.58700000      13.04500000       6.67000000
 H      17.65900000      12.76700000       6.57200000
 H      18.57900000      13.83300000       7.26200000
 O      21.39200000       9.43600000       3.20300000
 H      22.09300000       9.95000000       3.65100000
 H      20.66600000       9.42800000       3.89100000
 O      10.12000000      13.57900000       7.84600000
 H      10.50800000      13.92400000       8.68300000
 H      10.46400000      12.65200000       7.69800000
 O      21.07000000      12.74800000       5.80800000
 H      21.61400000      13.43800000       6.23800000
 H      20.18200000      12.98300000       6.23000000
 O      10.71900000      14.56100000      10.31800000
 H      11.06900000      14.36600000      11.18900000
 H      11.04900000      15.46600000      10.07100000
 O      20.75400000       6.00500000       9.14400000
 H      21.50100000       6.58900000       9.29400000
 H      19.87400000       6.47600000       9.18300000
 O      10.88900000       5.66600000       2.67600000
 H       9.98300000       5.76500000       3.02700000
 H      11.44400000       5.77600000       3.58000000
 O      19.55900000      15.17000000       1.34600000
 H      19.01900000      15.30100000       0.53100000
 H      20.47100000      15.50700000       1.16000000
 O      15.94800000       4.80700000       5.77100000
 H      15.48200000       5.24600000       5.03000000
 H      15.33400000       4.00400000       5.86300000
 O      19.87700000       6.27700000       5.99100000
 H      20.41000000       6.76800000       5.34200000
 H      20.00900000       6.83700000       6.82500000
 O      13.41600000      12.70000000       5.51900000
 H      13.31000000      12.36100000       4.61900000
 H      12.62800000      13.22400000       5.75000000
 O      12.41600000       9.15600000       6.11500000
 H      12.15400000      10.01900000       5.66700000
 H      13.20000000       8.87100000       5.73900000
 O      18.40400000       7.91300000       9.83200000
 H      18.24200000       8.72600000       9.39500000
 H      17.54700000       7.52000000       9.72100000
 O      17.33600000       7.37300000       6.38300000
 H      16.84000000       7.08100000       5.60200000
 H      18.25100000       7.17200000       6.28500000
 O      10.86600000      11.20300000       4.67400000
 H      10.73300000      10.89900000       3.78300000
 H      10.51400000      12.11000000       4.60900000
 O      15.05400000      15.69400000       2.30400000
 H      14.34800000      15.18200000       1.88800000
 H      15.74000000      15.83200000       1.58800000
 O      13.95100000      16.40600000       7.07500000
 H      14.47100000      15.70000000       6.62400000
 H      13.50900000      16.81000000       6.31500000
 O      15.57500000      14.67500000       5.65600000
 H      15.43800000      14.11800000       4.81400000
 H      16.59700000      14.84900000       5.70400000
 O      12.84900000       6.80000000       1.22400000
 H      13.15800000       5.86700000       1.32200000
 H      11.93500000       6.81800000       1.24000000
 O      11.63100000       6.31100000       6.82500000
 H      11.99900000       7.18500000       6.54200000
 H      10.84400000       6.61000000       7.29500000
 O      19.68800000       8.70500000       1.09500000
 H      19.95700000       9.07100000       1.94300000
 H      20.12000000       9.34500000       0.43300000
 O      18.22200000       4.46400000       4.19600000
 H      17.23900000       4.65900000       4.46700000
 H      18.57000000       5.39900000       4.06000000
 O      10.27500000      13.80000000       5.11000000
 H      10.93000000      14.56500000       4.97400000
 H      10.04100000      13.80700000       6.07800000
 O      14.54000000      12.99800000       8.46600000
 H      14.26200000      13.95700000       8.30600000
 H      14.67200000      12.71100000       7.50700000
 O      15.92800000       7.39500000       9.07300000
 H      15.61300000       6.46600000       9.28400000
 H      16.28300000       7.19400000       8.18100000
 O      12.24800000      15.57900000       4.75400000
 H      12.59100000      16.51000000       4.71500000
 H      12.66500000      15.22800000       3.95400000
 O      19.58400000       6.38600000       2.88000000
 H      19.74800000       6.95100000       2.06600000
 H      20.45600000       6.03700000       3.14100000
 O      21.62900000      13.08200000       9.38500000
 H      20.86400000      12.52200000       9.36600000
 H      21.26800000      13.87600000      10.01300000
 O      18.41800000      15.64400000       5.12400000
 H      19.33200000      15.67400000       4.74000000
 H      18.39700000      15.42000000       6.05300000
 O      14.98400000       8.72000000      11.25000000
 H      15.14800000       8.23600000      10.45400000
 H      14.07400000       9.07900000      11.15800000
 O      19.72400000      10.70600000       8.84700000
 H      18.95800000      10.32400000       8.27900000
 H      20.54500000      10.32400000       8.39700000
 O      15.92100000       6.46700000       3.28500000
 H      15.45700000       5.73100000       2.85100000
 H      16.22000000       7.06000000       2.46700000
 O      14.14700000       9.61400000       8.27500000
 H      13.40400000       9.51400000       7.66800000
 H      14.55200000       8.68700000       8.36700000
 O      18.29100000      15.16300000       8.29500000
 H      18.68300000      15.89700000       8.78800000
 H      17.52700000      14.89100000       8.89700000
 O      13.33500000       5.77600000       9.21700000
 H      12.67900000       6.40600000       9.70500000
 H      12.68900000       5.12000000       8.83200000
 O      10.27600000      10.90900000       8.00000000
 H       9.98900000       9.99700000       8.30600000
 H      11.23900000      10.86900000       7.70900000
 O      12.73800000      11.72700000      10.24100000
 H      12.81400000      10.79900000      10.58100000
 H      13.11700000      11.76100000       9.37200000
 O      13.02300000       9.62900000       1.30400000
 H      12.62800000       9.83000000       0.42500000
 H      13.22400000       8.61200000       1.45000000
 O      17.47800000       9.59300000       7.63400000
 H      17.37700000       8.60500000       7.50600000
 H      17.07800000      10.12700000       6.84100000
 O      14.59600000       9.06100000       4.20600000
 H      15.55100000       8.88600000       4.12400000
 H      14.15300000       8.66600000       3.45800000
 O      19.85500000      10.18700000       5.29200000
 H      20.14900000      11.06200000       5.49100000
 H      19.04800000      10.00600000       5.83200000
 O      19.30200000      11.63400000       2.13500000
 H      18.68000000      11.38400000       1.32900000
 H      18.78600000      11.58900000       3.01200000
