120
XYZ file of cluster: frame_4000_2fc.70468.4806 - created by MolEdiTo
 O       2.32000000      20.62100000       1.78400000
 H       1.62100000      19.98800000       2.01000000
 H       2.18900000      21.29500000       2.44100000
 O       6.12000000      25.60900000       7.96500000
 H       5.63300000      26.37400000       7.57400000
 H       5.45300000      24.95000000       8.32100000
 O       9.47500000      18.25700000       4.95300000
 H       9.95600000      19.13000000       4.91500000
 H       9.96600000      17.68500000       5.60200000
 O       8.22600000      15.44500000       7.06900000
 H       8.76200000      16.03300000       6.50600000
 H       8.87500000      14.81800000       7.48200000
 O       0.97800000      19.88000000      10.66300000
 H       0.19900000      19.83000000      10.01900000
 H       0.50900000      19.80000000      11.50600000
 O       3.99100000      23.89000000       9.14500000
 H       3.87200000      23.57100000       8.22400000
 H       3.40500000      24.68400000       9.28400000
 O       9.28900000      18.75100000       9.82200000
 H       8.62200000      18.35000000      10.45400000
 H       9.32800000      19.67100000      10.13500000
 O       5.70300000      16.72900000       7.98800000
 H       5.37900000      15.86700000       8.04400000
 H       6.67000000      16.45700000       7.86600000
 O       8.00800000      22.56400000       4.69400000
 H       8.10500000      21.50600000       4.68800000
 H       7.94300000      22.83200000       5.64000000
 O      10.53700000      17.50400000       7.44500000
 H      11.53200000      17.64300000       7.49500000
 H      10.12400000      17.78600000       8.27200000
 O       4.42900000      22.34400000       6.47200000
 H       4.11700000      22.58900000       5.53400000
 H       5.26700000      21.79600000       6.46700000
 O       0.89800000      23.05600000       3.79100000
 H       0.02400000      23.42800000       3.99100000
 H       1.56200000      23.45200000       4.44100000
 O       7.68000000      24.41200000       2.60100000
 H       7.39900000      23.75700000       3.27100000
 H       7.95800000      23.92800000       1.78600000
 O       3.46100000      17.90000000       3.28300000
 H       2.54400000      18.15900000       3.57400000
 H       3.85000000      18.69100000       2.88100000
 O       7.34200000      22.68200000       7.33000000
 H       7.01100000      23.57400000       7.64300000
 H       7.23600000      22.17900000       8.15700000
 O       2.57700000      25.65500000       6.67400000
 H       3.00000000      25.24600000       5.89400000
 H       3.09600000      26.50400000       6.90700000
 O       5.69400000      17.75000000       1.25600000
 H       5.31200000      16.97300000       0.77500000
 H       5.78600000      17.35000000       2.14100000
 O       1.10800000      15.62700000       3.26000000
 H       1.23100000      14.75500000       3.60100000
 H       1.49300000      16.05700000       3.96100000
 O       1.09000000      22.80900000       9.52900000
 H       0.21500000      22.35000000       9.56800000
 H       1.24300000      23.28200000       8.71900000
 O      10.57100000      23.48600000       6.29500000
 H      11.10200000      23.37700000       7.04300000
 H       9.68300000      23.01100000       6.41000000
 O       7.59300000      19.99400000       2.68500000
 H       7.24500000      20.83900000       2.51400000
 H       7.72900000      19.64400000       1.73800000
 O       1.43100000      26.02000000       3.13600000
 H       2.14000000      25.87700000       2.43600000
 H       1.59800000      25.23500000       3.67400000
 O       5.55500000      21.73100000       3.47300000
 H       6.29000000      22.00800000       4.02300000
 H       5.38700000      20.75700000       3.64700000
 O       9.57600000      25.51200000       8.11800000
 H       9.59900000      24.76500000       8.81300000
 H      10.34600000      25.33500000       7.56000000
 O       2.36600000      20.15700000       6.09100000
 H       2.95400000      20.90800000       6.27000000
 H       2.71500000      19.46600000       6.77900000
 O       6.67300000      17.02700000       4.92500000
 H       7.33300000      16.94000000       4.22000000
 H       7.32100000      16.62000000       5.58000000
 O       3.60800000      19.55200000      10.19600000
 H       3.58100000      19.18200000       9.29700000
 H       2.62800000      19.57300000      10.32000000
 O       3.97000000      16.14000000       5.34500000
 H       4.92400000      15.81500000       5.24500000
 H       3.97000000      16.87400000       4.62400000
 O       9.19900000      23.24600000       9.75400000
 H       8.41800000      23.50700000      10.36900000
 H       9.46800000      22.26600000       9.84700000
 O       8.00600000      25.66700000       5.72900000
 H       8.10500000      25.58500000       6.71800000
 H       8.26600000      24.73800000       5.33700000
 O       4.58600000      23.42000000       1.39000000
 H       4.86000000      22.76400000       2.04400000
 H       4.92800000      23.07100000       0.58200000
 O       3.33900000      24.21200000       4.27500000
 H       3.83100000      24.99500000       3.84400000
 H       3.88800000      23.46700000       4.01100000
 O       8.36100000      16.43100000       2.76400000
 H       8.80900000      17.29000000       2.92500000
 H       8.75400000      16.31100000       1.87900000
 O       5.64400000      25.68400000       4.33200000
 H       6.27400000      25.95000000       5.08800000
 H       6.22800000      25.40200000       3.66900000
 O       2.73300000      15.24700000       8.03700000
 H       3.08400000      15.95300000       7.44400000
 H       2.59900000      14.44300000       7.44500000
 O       3.56600000      18.24900000       7.60900000
 H       4.47600000      17.77200000       7.82700000
 H       3.36600000      17.79200000       6.79200000
 O       5.43800000      21.66900000      10.22700000
 H       5.05500000      22.62000000      10.18200000
 H       4.70700000      21.11700000      10.25500000
 O       2.98200000      16.01900000      10.83600000
 H       2.90200000      16.15800000       9.86300000
 H       3.44200000      15.17600000      10.86800000
 O      10.51700000      21.05900000       2.05700000
 H      10.47700000      21.83000000       1.49200000
 H       9.65200000      20.70300000       2.23100000
 O       6.18800000      19.55400000       5.66000000
 H       6.63500000      19.68600000       6.54800000
 H       6.38100000      18.56700000       5.36400000
