126
XYZ file of cluster: frame_4000_a2649.c3f19.25a88 - created by MolEdiTo
 O      21.21400000      27.75900000       8.59100000
 H      21.34700000      27.16600000       7.85000000
 H      21.74500000      28.60300000       8.39900000
 O      30.43500000      29.08600000      13.72900000
 H      30.99000000      28.60600000      14.40500000
 H      29.59800000      29.36300000      14.30500000
 O      30.16000000      29.39900000       5.23900000
 H      30.26600000      29.84600000       6.12700000
 H      30.95300000      28.78600000       5.28600000
 O      25.94500000      28.90100000      13.52100000
 H      26.48300000      28.36200000      12.89400000
 H      25.45800000      28.22500000      14.04300000
 O      20.90400000      29.64600000      11.53900000
 H      20.95200000      28.94200000      12.27300000
 H      21.73800000      29.63500000      11.12500000
 O      25.46500000      26.27000000      14.70000000
 H      26.17300000      26.68500000      15.27100000
 H      25.70600000      25.35000000      14.69500000
 O      30.23100000      29.06300000       8.10300000
 H      29.43800000      29.34300000       8.68900000
 H      29.96600000      28.06500000       7.93000000
 O      22.04400000      26.12900000       5.91500000
 H      22.58400000      25.41100000       5.83100000
 H      22.38700000      26.78500000       5.29700000
 O      24.89600000      27.91200000       8.09000000
 H      24.21500000      27.63600000       8.70300000
 H      24.66300000      28.83800000       8.06900000
 O      29.72300000      27.20100000      16.32500000
 H      30.75400000      27.16500000      16.37100000
 H      29.54800000      26.61700000      15.56000000
 O      21.73800000      30.38100000       8.07700000
 H      21.65600000      31.38600000       8.26100000
 H      22.69100000      30.36200000       7.95200000
 O      24.71000000      26.54000000       5.28200000
 H      24.79700000      26.05400000       6.13600000
 H      25.56300000      26.68500000       4.96000000
 O      29.23400000      28.22000000      11.25300000
 H      29.55100000      28.88100000      11.89900000
 H      28.79700000      28.60300000      10.42500000
 O      21.53400000      26.77200000      12.34000000
 H      21.00100000      26.16600000      11.69300000
 H      22.15600000      27.13200000      11.75100000
 O      23.34600000      28.57900000      11.03600000
 H      23.91100000      27.84800000      11.28800000
 H      23.88100000      29.38000000      11.11800000
 O      27.14600000      26.25200000       8.06200000
 H      26.34500000      26.81100000       7.86600000
 H      26.77100000      25.40400000       8.42100000
 O      29.48700000      26.14900000      13.18200000
 H      29.41000000      26.86400000      12.50800000
 H      29.32300000      25.35100000      12.69300000
 O      27.51300000      29.18900000       9.11600000
 H      26.75700000      28.56600000       9.26300000
 H      27.35500000      29.55300000       8.21800000
 O      23.33900000      25.66000000       9.94100000
 H      22.64000000      26.24500000       9.66300000
 H      23.57100000      25.20600000       9.09000000
 O      26.19500000      27.12700000      10.97000000
 H      26.33400000      26.21000000      11.35000000
 H      26.88900000      27.23800000      10.31600000
 O      28.40100000      30.06400000      15.37100000
 H      27.48800000      30.21100000      15.23300000
 H      28.31500000      29.06200000      15.45500000
 O      23.11100000      28.31300000      14.61100000
 H      22.34000000      28.29800000      15.24700000
 H      23.27700000      27.40300000      14.53700000
 O      24.38200000      30.58200000       8.42600000
 H      24.79000000      31.38900000       8.06600000
 H      24.36300000      30.90700000       9.34200000
 O      30.34300000      26.28700000       8.49000000
 H      30.96400000      25.95200000       7.81300000
 H      31.08600000      26.39900000       9.10500000
 O      27.02100000      30.44500000       6.69500000
 H      27.91000000      30.79900000       6.67600000
 H      26.76400000      30.17500000       5.77800000
 O      26.95800000      33.89500000       9.93400000
 H      27.02700000      34.68100000      10.54300000
 H      26.59800000      33.11500000      10.33100000
 O      24.86600000      36.83000000      11.39700000
 H      25.73100000      36.54000000      11.69700000
 H      25.02900000      37.74000000      11.24900000
 O      21.75100000      34.47800000       7.93300000
 H      22.42500000      34.83400000       7.33300000
 H      21.91100000      35.00300000       8.74700000
 O      29.09000000      34.17000000       6.76400000
 H      29.11800000      35.02800000       7.25400000
 H      29.78200000      34.11300000       6.10100000
 O      24.03900000      33.02100000      10.88200000
 H      23.49100000      33.85100000      10.66200000
 H      23.72600000      33.01700000      11.81300000
 O      29.47900000      33.14000000       9.54800000
 H      28.45900000      33.37800000       9.57200000
 H      29.75500000      33.50000000       8.69400000
 O      29.18800000      36.61400000       8.17200000
 H      29.83800000      37.01600000       8.82100000
 H      28.53300000      37.41600000       8.09700000
 O      24.02300000      34.67400000       5.15400000
 H      23.83400000      35.51100000       4.86900000
 H      24.71400000      34.87600000       5.84800000
 O      22.90800000      33.35400000      13.53600000
 H      23.45000000      33.49000000      14.31600000
 H      22.02200000      33.15300000      13.94000000
 O      27.62800000      35.01000000      15.10000000
 H      27.08200000      35.39000000      14.39500000
 H      27.48100000      34.08100000      14.95700000
 O      23.57600000      36.76000000       7.48400000
 H      24.44600000      36.45700000       7.75000000
 H      23.74700000      37.64400000       7.05700000
 O      27.73200000      35.90700000      11.82200000
 H      28.18400000      36.61600000      12.40700000
 H      28.54800000      35.34600000      11.72200000
 O      29.45900000      33.58100000      12.49700000
 H      29.00300000      32.75900000      12.75100000
 H      29.74200000      33.49000000      11.58900000
 O      22.54100000      35.45800000      10.85600000
 H      23.27600000      35.86900000      11.31700000
 H      21.96300000      36.18900000      10.92400000
 O      26.54200000      33.07200000      13.12200000
 H      26.51100000      32.14100000      13.38500000
 H      25.82000000      33.04700000      12.54100000
 O      26.43600000      35.49500000       6.75600000
 H      27.04700000      34.70100000       6.61300000
 H      26.70100000      35.93700000       7.59600000
 O      23.58700000      36.36200000      14.67800000
 H      24.28600000      36.34400000      13.97100000
 H      24.02500000      36.08200000      15.48500000
