102
XYZ file of cluster: frame_4000_1bd.7b6.9b4c0 - created by MolEdiTo
 O       1.98900000       1.83800000      22.97000000
 H       1.35000000       1.40400000      22.30200000
 H       1.39900000       2.58000000      23.41000000
 O       6.91100000       1.11600000      23.94500000
 H       7.46000000       1.19800000      23.14700000
 H       6.28700000       1.86800000      23.76700000
 O       5.62700000       4.80100000      22.51800000
 H       5.66600000       5.76900000      22.65700000
 H       4.76400000       4.63900000      22.17900000
 O       4.94600000       5.76400000      25.76200000
 H       5.23300000       5.94700000      26.67100000
 H       5.34100000       4.87200000      25.68500000
 O       2.47200000       7.64700000      29.12000000
 H       2.63500000       7.29100000      30.01400000
 H       2.82300000       6.88300000      28.58400000
 O       3.07500000       2.84200000      26.06300000
 H       3.13800000       3.10100000      25.06600000
 H       2.33700000       2.21600000      26.21200000
 O       8.31900000      11.08800000      30.30400000
 H       7.91700000      11.82000000      30.80900000
 H       7.76200000      10.34800000      30.60400000
 O       7.67300000       9.99500000      25.23200000
 H       6.85000000      10.44700000      25.11400000
 H       7.60500000       9.95700000      26.27400000
 O       1.17300000       0.87200000      29.16100000
 H       0.97400000       0.06200000      29.62200000
 H       0.77900000       0.57800000      28.31700000
 O       6.59100000       2.34800000      20.34800000
 H       7.02200000       1.65900000      20.88300000
 H       6.24300000       2.90300000      21.06300000
 O       3.57500000       2.27700000      30.57300000
 H       3.90000000       2.16800000      29.63600000
 H       4.29300000       2.73900000      31.00600000
 O       3.38800000       9.76900000      25.95200000
 H       3.77300000      10.35500000      25.26500000
 H       3.70800000      10.03100000      26.87400000
 O       4.25200000      10.09000000      21.03500000
 H       4.25900000       9.76900000      20.07900000
 H       4.16300000       9.21500000      21.50300000
 O       2.97600000       5.07000000      27.91100000
 H       2.95800000       4.32900000      27.22300000
 H       3.63300000       4.62800000      28.50800000
 O       4.83700000       5.10500000      30.28700000
 H       4.65400000       4.96600000      31.23900000
 H       5.00700000       6.06000000      30.23700000
 O       4.60500000      10.45100000      28.33900000
 H       4.25200000       9.65700000      28.80000000
 H       5.55100000      10.25600000      28.46900000
 O       8.58500000       2.05200000      26.02400000
 H       8.04100000       1.78800000      25.26900000
 H       7.97300000       2.43700000      26.63000000
 O       3.97200000       7.34900000      22.26700000
 H       4.44700000       7.57800000      23.09100000
 H       3.16500000       6.92900000      22.59100000
 O       5.89900000       7.63700000      23.98400000
 H       6.48400000       8.37600000      24.27000000
 H       6.02600000       6.89900000      24.56300000
 O       5.03700000      11.01300000      23.63500000
 H       4.61500000      10.42200000      23.06100000
 H       4.92600000      11.92700000      23.44000000
 O       8.57200000       6.42900000      30.04000000
 H       9.15400000       5.65200000      30.07700000
 H       9.13500000       7.02200000      29.46900000
 O      10.05000000       3.58700000      29.26700000
 H      10.18600000       2.93600000      28.52300000
 H       9.17200000       3.28400000      29.65700000
 O       1.04600000       6.27200000      23.28600000
 H       0.01400000       6.27600000      23.33100000
 H       1.34300000       6.46100000      24.20400000
 O       8.66700000       3.66800000      22.03600000
 H       8.20800000       4.24100000      22.68000000
 H       8.63700000       4.18800000      21.21700000
 O      10.24800000       8.15100000      24.86600000
 H       9.70300000       8.90700000      24.61900000
 H      11.11300000       8.47000000      24.49300000
 O       8.33100000      10.55100000      21.81900000
 H       9.12800000      10.25000000      22.21900000
 H       7.82000000      10.98300000      22.50600000
 O       7.38600000       4.00900000      27.97700000
 H       7.59400000       4.84700000      27.58700000
 H       7.33900000       4.18600000      28.94200000
 O       4.60100000       2.04000000      22.38900000
 H       3.71900000       1.65400000      22.74000000
 H       4.36900000       1.98900000      21.46100000
 O       9.91000000       8.73200000      27.96500000
 H       9.94400000       8.96800000      27.01000000
 H      10.75400000       8.79100000      28.41300000
 O       2.42700000       7.12800000      25.56500000
 H       2.63800000       7.98400000      25.20000000
 H       3.22900000       6.54100000      25.77700000
 O       8.60000000       5.97400000      24.57200000
 H       9.37900000       6.58600000      24.37400000
 H       9.02100000       5.40400000      25.22400000
 O       1.18000000       9.74700000      30.45100000
 H       1.19100000       9.83000000      31.39500000
 H       2.12700000       9.33000000      30.26300000
 O       6.09300000       7.58000000      29.80100000
 H       7.02100000       7.18300000      29.84200000
 H       6.04300000       8.38600000      30.34300000
 O       7.32600000       9.96000000      27.99300000
 H       7.80300000      10.39600000      28.73200000
 H       7.78200000       9.14100000      28.11300000
