138
XYZ file of cluster: frame_18000_4bac3.71ac8.c6705 - created by MolEdiTo
 O      16.19600000      23.90900000      28.25700000
 H      15.66800000      24.19400000      27.47700000
 H      16.52600000      24.74100000      28.69500000
 O      15.53300000      15.65500000      30.64800000
 H      14.77500000      15.91000000      31.14100000
 H      15.50400000      14.66200000      30.40400000
 O      21.24000000      17.50700000      27.69600000
 H      20.48500000      17.56300000      28.26100000
 H      21.48600000      16.49700000      27.67500000
 O      20.40000000      20.28800000      26.74900000
 H      19.51400000      20.63800000      26.80300000
 H      20.25900000      19.33100000      27.07800000
 O      19.80800000      17.52200000      30.52100000
 H      18.95100000      17.72800000      30.98400000
 H      20.23300000      18.36600000      30.49800000
 O      14.62500000      19.33700000      26.70500000
 H      15.37500000      19.27200000      26.10300000
 H      14.85300000      18.49600000      27.18200000
 O      14.11300000      19.60900000      29.65200000
 H      14.26300000      20.20100000      28.96900000
 H      14.00800000      18.83900000      29.16900000
 O      14.71300000      26.66400000      29.52500000
 H      14.76000000      27.52500000      30.06900000
 H      14.92100000      25.93700000      30.21800000
 O      20.72400000      22.87000000      29.07200000
 H      21.49800000      22.70600000      28.45500000
 H      20.39200000      21.99300000      29.15200000
 O      12.62800000      15.89500000      26.25400000
 H      12.19500000      16.42400000      25.54200000
 H      13.59300000      15.93100000      26.01900000
 O      18.49100000      26.62200000      26.45800000
 H      18.44600000      26.02300000      25.63600000
 H      18.65200000      25.95800000      27.14800000
 O      12.78100000      24.98200000      28.06600000
 H      13.54100000      25.50200000      28.24800000
 H      13.08400000      24.00200000      28.22700000
 O      11.98600000      19.67600000      26.50900000
 H      11.94800000      20.74100000      26.52700000
 H      12.97000000      19.43600000      26.45300000
 O      15.47800000      16.80200000      27.97300000
 H      15.67800000      15.92500000      27.57700000
 H      15.43300000      16.55200000      28.92300000
 O      13.70200000      22.35100000      29.06100000
 H      13.04600000      22.52200000      29.76600000
 H      14.61700000      22.62000000      29.29900000
 O      18.26700000      18.84800000      28.16100000
 H      18.12200000      18.37200000      28.99900000
 H      17.82300000      19.74200000      28.32000000
 O      11.50400000      18.34500000      28.92200000
 H      11.29000000      18.80200000      28.04800000
 H      10.65200000      18.43000000      29.31500000
 O      18.52200000      17.50900000      25.50500000
 H      19.19700000      16.85100000      25.69300000
 H      18.20900000      17.84400000      26.42300000
 O      20.20600000      24.23300000      26.09100000
 H      20.57700000      24.51800000      26.97600000
 H      20.77300000      23.45600000      25.89400000
 O      13.04500000      22.46600000      26.27300000
 H      13.68200000      21.96600000      25.75800000
 H      13.28200000      22.36700000      27.23600000
 O      10.00600000      25.06500000      26.77100000
 H      10.90900000      25.29200000      26.40900000
 H      10.01700000      25.35400000      27.69400000
 O      16.97200000      21.41400000      29.06900000
 H      16.86200000      21.94200000      29.84500000
 H      16.95400000      22.19200000      28.42200000
 O      10.57800000      22.23600000      29.57300000
 H       9.78900000      22.28700000      29.00700000
 H      10.41800000      21.51500000      30.16700000
 O      11.95100000      15.92500000      30.40700000
 H      12.13400000      16.76300000      29.89200000
 H      12.00300000      16.24200000      31.37900000
 O      12.39600000      23.06300000      34.02700000
 H      13.00900000      23.68100000      34.49000000
 H      12.55000000      22.26700000      34.58200000
 O      12.00000000      15.80200000      36.71900000
 H      11.83100000      15.72400000      37.64500000
 H      11.14000000      16.25600000      36.42000000
 O      15.04900000      18.88700000      34.42500000
 H      14.82400000      18.19900000      33.86700000
 H      14.36700000      19.56600000      34.26500000
 O      19.82800000      24.47500000      33.32000000
 H      19.52700000      24.46200000      32.37100000
 H      19.79600000      25.40300000      33.66500000
 O      19.80400000      21.42800000      36.10800000
 H      19.92400000      20.71200000      36.78900000
 H      19.53300000      22.30200000      36.54200000
 O      12.87000000      21.63900000      36.57100000
 H      12.97100000      20.62200000      36.70000000
 H      13.73000000      22.06300000      36.67900000
 O      12.77300000      25.64600000      33.54500000
 H      12.34800000      24.86400000      33.15500000
 H      12.52300000      26.30500000      32.84400000
 O      14.92900000      25.66000000      35.37000000
 H      14.08500000      26.07100000      35.04000000
 H      15.55400000      26.42600000      35.26400000
 O      18.91500000      21.47900000      33.09400000
 H      19.77900000      21.99200000      33.02900000
 H      18.33000000      21.94700000      33.70500000
 O      17.23500000      18.44800000      36.05000000
 H      16.48600000      18.72200000      35.47500000
 H      16.92300000      17.57000000      36.34000000
 O      17.11300000      21.42800000      36.91900000
 H      17.14500000      20.58600000      36.45900000
 H      17.88800000      21.93000000      36.54300000
 O      15.10400000      23.43000000      36.88900000
 H      15.94600000      22.97300000      36.52700000
 H      15.17200000      24.34800000      36.48600000
 O      19.93300000      16.74200000      35.10700000
 H      19.73200000      17.71100000      35.21700000
 H      19.39700000      16.45600000      34.34600000
 O      13.13900000      16.66900000      34.40600000
 H      12.58400000      17.50100000      34.74300000
 H      12.90400000      16.14100000      35.25600000
 O      21.73400000      21.88400000      34.12900000
 H      20.96300000      21.61400000      34.72400000
 H      21.95500000      22.76600000      34.48500000
 O      18.03800000      24.37400000      36.29900000
 H      18.65500000      24.80700000      35.65700000
 H      18.23600000      24.83200000      37.11900000
 O      15.91100000      24.59100000      32.83700000
 H      15.51500000      24.58200000      33.72700000
 H      16.69700000      24.05700000      32.93400000
 O      15.81000000      21.73100000      33.68600000
 H      15.08400000      21.65500000      33.09200000
 H      16.04800000      20.80200000      33.85800000
 O      17.52300000      18.95600000      32.43000000
 H      17.65500000      19.88300000      32.53000000
 H      16.62100000      18.92300000      32.15200000
 O      10.24000000      24.87600000      35.16600000
 H      11.00200000      24.25000000      35.07000000
 H      10.72900000      25.51500000      35.72400000
 O      12.65500000      20.08100000      33.51700000
 H      12.88000000      20.10200000      32.55600000
 H      11.77300000      19.64700000      33.48500000
 O      17.44400000      15.84200000      34.29000000
 H      16.93200000      15.79000000      33.41600000
 H      16.80400000      15.29100000      34.89400000
