108
XYZ file of cluster: frame_5500_9a3ac.6a0c.cad94 - created by MolEdiTo
 O      28.68000000       1.33100000      27.35200000
 H      29.13000000       1.14500000      26.51400000
 H      28.85200000       2.29500000      27.43200000
 O      27.93600000       4.73900000      26.99800000
 H      27.05200000       4.30900000      26.92900000
 H      28.24400000       4.26100000      27.76900000
 O      23.41900000       2.14500000      28.29900000
 H      24.09400000       2.90900000      28.35900000
 H      23.98200000       1.36800000      28.12100000
 O      29.20700000       6.10500000      30.48300000
 H      28.61200000       6.88200000      30.58800000
 H      29.59000000       6.13400000      29.57000000
 O      26.21100000       6.39900000      30.66800000
 H      26.44900000       6.70800000      31.57300000
 H      25.51900000       7.07700000      30.36800000
 O      21.42800000       1.88100000      30.24900000
 H      21.34400000       0.91700000      30.35500000
 H      21.97800000       1.97400000      29.45300000
 O      27.89100000       9.67000000      30.62500000
 H      26.98900000      10.01900000      30.50400000
 H      28.24500000       9.89100000      31.53400000
 O      24.30400000       8.85700000      29.92300000
 H      24.52600000       8.62400000      29.00700000
 H      24.18100000       9.82000000      29.97300000
 O      30.21100000       3.56900000      28.39600000
 H      30.44200000       4.52700000      28.17700000
 H      30.93800000       3.30500000      29.03300000
 O      21.79000000       5.92100000      27.96600000
 H      21.31400000       5.07900000      27.96000000
 H      21.94700000       6.11600000      27.01400000
 O      28.71600000       8.57000000      27.75900000
 H      29.17000000       9.41900000      27.55600000
 H      28.39200000       8.65600000      28.66500000
 O      25.35500000       7.78200000      27.46100000
 H      26.09700000       7.20700000      27.70700000
 H      24.83900000       7.31700000      26.77100000
 O      30.50100000       6.50900000      27.82300000
 H      31.13300000       6.99500000      28.46300000
 H      29.98400000       7.23600000      27.38700000
 O      21.21000000       3.10900000      27.16700000
 H      21.49300000       3.10100000      26.23300000
 H      21.97200000       2.64600000      27.63000000
 O      21.07600000      10.97400000      28.00500000
 H      21.97600000      11.04500000      27.67100000
 H      21.05400000      10.20200000      28.59000000
 O      25.19300000       4.44500000      27.68600000
 H      25.33100000       5.19100000      28.22700000
 H      24.33100000       4.56100000      27.21300000
 O      23.08400000       3.87800000      37.43100000
 H      22.34900000       4.35800000      37.05100000
 H      23.21700000       3.10900000      36.81000000
 O      21.48200000       6.30600000      33.06200000
 H      21.66500000       6.43200000      32.16800000
 H      22.04100000       5.49300000      33.25200000
 O      22.67700000       3.83900000      33.41600000
 H      23.10100000       3.22300000      34.06700000
 H      22.60600000       3.27700000      32.60200000
 O      28.60100000       9.96700000      36.42000000
 H      27.96600000      10.05400000      37.15600000
 H      29.17500000       9.19300000      36.61000000
 O      29.11000000       4.73100000      37.45600000
 H      29.22000000       4.35300000      36.54700000
 H      30.01100000       4.58500000      37.87900000
 O      29.76800000       7.25400000      36.90900000
 H      30.76500000       7.06700000      36.83000000
 H      29.41000000       6.37700000      37.09400000
 O      20.65300000       3.65100000      35.44900000
 H      19.97700000       2.94500000      35.07400000
 H      21.21100000       3.61500000      34.58200000
 O      25.10500000       9.23000000      36.11100000
 H      25.12800000       9.95300000      35.41400000
 H      24.88600000       8.45500000      35.57000000
 O      21.68000000       6.34000000      36.09700000
 H      21.11700000       6.65200000      36.82100000
 H      21.31200000       5.40800000      35.95900000
 O      23.19900000       8.12200000      34.17800000
 H      23.55500000       8.02400000      33.30600000
 H      22.60100000       7.28800000      34.33500000
 O      21.54400000       9.95900000      35.78700000
 H      21.61900000      10.46300000      36.65000000
 H      22.26300000       9.28400000      35.73900000
 O      26.23500000       2.41300000      33.20500000
 H      26.31100000       1.98400000      32.24400000
 H      26.64300000       1.76400000      33.80200000
 O      27.87300000       1.94900000      36.92500000
 H      28.11000000       2.71300000      37.45600000
 H      27.34200000       2.38200000      36.14900000
 O      26.39100000       6.61500000      36.89100000
 H      26.69200000       7.40600000      36.45900000
 H      26.64200000       5.87800000      36.35000000
 O      25.61300000       3.92700000      35.28800000
 H      25.61700000       3.33500000      34.47100000
 H      24.94000000       4.58800000      35.08400000
 O      23.13200000       1.60200000      35.42200000
 H      23.00900000       0.85200000      34.76100000
 H      23.44400000       1.18600000      36.31900000
 O      29.74500000      10.95800000      34.03400000
 H      30.13200000      10.20200000      33.44300000
 H      29.41100000      10.45200000      34.85500000
 O      28.68700000       4.17400000      34.09800000
 H      27.77700000       3.94700000      33.90100000
 H      28.96000000       4.80900000      33.39800000
 O      21.63700000       9.93800000      32.78500000
 H      22.25800000       9.47200000      33.36900000
 H      21.62500000       9.31200000      32.06000000
 O      27.76600000       7.59100000      34.62800000
 H      27.76500000       8.45700000      35.06400000
 H      28.49000000       6.95700000      34.90400000
