141
XYZ file of cluster: frame_5500_71813.9c857.50d42 - created by MolEdiTo
 O      21.47500000      28.75300000      12.08800000
 H      21.00300000      29.60300000      12.38700000
 H      21.70500000      28.87900000      11.10000000
 O      18.35700000      20.91100000      17.17000000
 H      18.51300000      21.03600000      18.11700000
 H      17.43500000      21.29500000      17.03500000
 O      26.29100000      26.09400000      18.33300000
 H      26.69200000      25.34500000      18.86500000
 H      26.82700000      26.86300000      18.50800000
 O      18.30800000      23.61800000      21.29700000
 H      17.57400000      23.83800000      21.96300000
 H      18.08600000      24.33900000      20.57700000
 O      26.25600000      30.28100000      17.67100000
 H      26.48300000      31.06500000      17.13600000
 H      25.42000000      29.95600000      17.21200000
 O      26.60600000      29.43100000      14.75100000
 H      25.93100000      29.80900000      15.34000000
 H      26.00700000      29.20000000      14.01400000
 O      23.29500000      26.70000000      20.71100000
 H      23.84300000      25.90300000      20.83100000
 H      23.48400000      26.82600000      19.75900000
 O      21.94900000      25.60300000      12.32300000
 H      21.63200000      26.45200000      12.03000000
 H      22.49400000      25.48700000      11.49800000
 O      16.28600000      21.91400000      13.74800000
 H      15.50000000      21.74900000      14.30900000
 H      16.69100000      21.05200000      13.69600000
 O      16.28700000      29.57900000      10.50900000
 H      16.65800000      30.52400000      10.45300000
 H      15.30200000      29.61800000      10.91800000
 O      23.60400000      21.31300000      11.23400000
 H      24.33800000      21.56200000      11.85200000
 H      23.42400000      22.23500000      10.85000000
 O      17.60200000      27.78700000      13.47300000
 H      17.44700000      27.43900000      14.34600000
 H      18.58900000      27.87400000      13.39900000
 O      21.97000000      21.59200000      13.64900000
 H      21.63500000      20.68800000      13.84900000
 H      22.92400000      21.53400000      13.46000000
 O      23.76100000      20.43500000      16.86900000
 H      22.84600000      20.12000000      16.99900000
 H      23.57200000      21.26800000      16.33000000
 O      24.47800000      23.71100000      20.54500000
 H      24.35200000      23.17800000      21.35900000
 H      25.41800000      23.94300000      20.72900000
 O      17.61400000      22.49400000      11.22500000
 H      17.28100000      21.85100000      11.96000000
 H      18.42900000      22.80100000      11.55600000
 O      25.87800000      22.01800000      15.04500000
 H      25.45300000      22.87000000      15.46000000
 H      26.82300000      22.11000000      15.45300000
 O      18.29300000      21.04200000      20.06200000
 H      18.05900000      21.90800000      20.56300000
 H      18.63500000      20.47100000      20.80600000
 O      24.92200000      26.02500000      11.86400000
 H      24.98900000      26.99500000      12.01300000
 H      25.27100000      25.96100000      10.93600000
 O      20.15100000      27.72300000      15.37900000
 H      21.06600000      27.68300000      15.07200000
 H      20.04600000      26.88700000      15.92000000
 O      25.31000000      23.09800000      12.39700000
 H      25.22100000      23.96800000      12.02700000
 H      25.59200000      23.24700000      13.35600000
 O      20.27000000      22.40700000      15.89900000
 H      20.60300000      21.76500000      15.19700000
 H      19.38400000      22.16900000      16.17100000
 O      20.62800000      24.91300000      16.80200000
 H      19.74100000      25.16800000      16.43400000
 H      20.73300000      23.90000000      16.62700000
 O      25.39800000      26.87900000      15.06200000
 H      26.35700000      26.83400000      15.22600000
 H      25.28800000      26.26800000      14.25000000
 O      21.91900000      30.39300000      16.99300000
 H      21.44300000      29.94100000      17.61500000
 H      21.64000000      31.38300000      17.13700000
 O      19.41500000      28.48900000      20.65500000
 H      19.31000000      28.92400000      19.82800000
 H      19.37300000      27.63000000      20.33200000
 O      23.01100000      23.20800000      15.84500000
 H      22.54500000      23.94100000      16.39200000
 H      22.25700000      22.85800000      15.30000000
 O      22.67800000      27.64900000      14.38000000
 H      22.22400000      28.07700000      13.67400000
 H      23.27100000      27.03200000      13.85200000
 O      22.29600000      29.02800000      19.40300000
 H      22.08100000      28.77100000      20.34900000
 H      22.92400000      28.30600000      19.09000000
 O      19.24000000      29.39100000      17.75300000
 H      19.64600000      28.95200000      16.95000000
 H      18.76800000      30.13900000      17.28700000
 O      21.15300000      21.74500000      19.31100000
 H      21.72900000      22.51500000      19.15200000
 H      20.32200000      22.12200000      19.69200000
 O      26.07300000      28.27800000      20.54700000
 H      25.73000000      29.02600000      21.14200000
 H      25.27400000      27.81200000      20.14900000
 O      25.17200000      28.77500000      12.11500000
 H      25.60500000      28.88800000      11.21500000
 H      24.70000000      29.61300000      12.21900000
 O      15.99000000      28.58600000      16.67900000
 H      15.68300000      29.34900000      16.16200000
 H      16.58100000      29.00400000      17.38900000
 O      17.97300000      23.70600000      15.15300000
 H      18.90600000      23.66200000      14.92800000
 H      17.56500000      23.28600000      14.42000000
 O      21.96100000      24.62800000      19.25000000
 H      21.85500000      24.96300000      18.29600000
 H      22.86200000      24.35600000      19.41300000
 O      15.78400000      30.06500000      13.55000000
 H      16.46800000      29.49500000      13.93800000
 H      15.80700000      29.77000000      12.63300000
 O      19.96400000      23.40600000      12.84500000
 H      20.57600000      22.70800000      12.98300000
 H      20.51800000      24.23700000      12.74400000
 O      17.82700000      26.23600000      17.03700000
 H      16.97700000      25.72800000      17.00500000
 H      17.45300000      27.14300000      16.94000000
 O      15.16200000      25.59300000      14.18700000
 H      14.70200000      24.85700000      14.65500000
 H      16.13700000      25.44200000      14.18200000
 O      19.12400000      25.54400000      19.73100000
 H      18.90900000      25.71700000      18.79600000
 H      19.98200000      25.05300000      19.66600000
 O      15.27500000      26.20400000      20.55700000
 H      14.82900000      27.01900000      20.71400000
 H      16.04700000      26.21900000      21.17200000
 O      15.33000000      21.81500000      20.94900000
 H      16.06000000      21.22300000      21.26600000
 H      15.62700000      22.03600000      20.06900000
 O      23.88000000      27.08100000      18.02800000
 H      23.46200000      26.99900000      17.15500000
 H      24.74300000      26.71300000      17.87100000
 O      18.71600000      28.27900000      10.52900000
 H      17.69700000      28.09500000      10.66100000
 H      18.72700000      29.28400000      10.77100000
 O      16.30500000      28.90500000      19.48200000
 H      16.77100000      28.90500000      20.37200000
 H      15.41500000      29.37400000      19.66600000
 O      24.24400000      29.69600000      15.84700000
 H      23.25300000      29.77100000      15.92300000
 H      24.41500000      28.82600000      15.37300000
