105
XYZ file of cluster: frame_5500_c5040.1dc0.ca920 - created by MolEdiTo
 O      28.68000000       1.33100000      27.35200000
 H      29.13000000       1.14500000      26.51400000
 H      28.85200000       2.29500000      27.43200000
 O      27.93600000       4.73900000      26.99800000
 H      27.05200000       4.30900000      26.92900000
 H      28.24400000       4.26100000      27.76900000
 O      26.21100000       6.39900000      30.66800000
 H      26.44900000       6.70800000      31.57300000
 H      25.51900000       7.07700000      30.36800000
 O      27.89100000       9.67000000      30.62500000
 H      26.98900000      10.01900000      30.50400000
 H      28.24500000       9.89100000      31.53400000
 O      30.21100000       3.56900000      28.39600000
 H      30.44200000       4.52700000      28.17700000
 H      30.93800000       3.30500000      29.03300000
 O      28.71600000       8.57000000      27.75900000
 H      29.17000000       9.41900000      27.55600000
 H      28.39200000       8.65600000      28.66500000
 O      30.50100000       6.50900000      27.82300000
 H      31.13300000       6.99500000      28.46300000
 H      29.98400000       7.23600000      27.38700000
 O      29.20700000       6.10500000      30.48300000
 H      28.61200000       6.88200000      30.58800000
 H      29.59000000       6.13400000      29.57000000
 O      29.74500000      10.95800000      34.03400000
 H      30.13200000      10.20200000      33.44300000
 H      29.41100000      10.45200000      34.85500000
 O      28.60100000       9.96700000      36.42000000
 H      27.96600000      10.05400000      37.15600000
 H      29.17500000       9.19300000      36.61000000
 O      29.11000000       4.73100000      37.45600000
 H      29.22000000       4.35300000      36.54700000
 H      30.01100000       4.58500000      37.87900000
 O      26.23500000       2.41300000      33.20500000
 H      26.31100000       1.98400000      32.24400000
 H      26.64300000       1.76400000      33.80200000
 O      28.68700000       4.17400000      34.09800000
 H      27.77700000       3.94700000      33.90100000
 H      28.96000000       4.80900000      33.39800000
 O      27.87300000       1.94900000      36.92500000
 H      28.11000000       2.71300000      37.45600000
 H      27.34200000       2.38200000      36.14900000
 O      26.39100000       6.61500000      36.89100000
 H      26.69200000       7.40600000      36.45900000
 H      26.64200000       5.87800000      36.35000000
 O      29.76800000       7.25400000      36.90900000
 H      30.76500000       7.06700000      36.83000000
 H      29.41000000       6.37700000      37.09400000
 O      27.76600000       7.59100000      34.62800000
 H      27.76500000       8.45700000      35.06400000
 H      28.49000000       6.95700000      34.90400000
 O      32.72000000       1.01400000      29.46300000
 H      32.22300000       1.00900000      30.30600000
 H      32.05400000       1.40900000      28.86200000
 O      37.41800000       5.23200000      28.63300000
 H      37.89200000       6.11600000      28.80400000
 H      36.67600000       5.48300000      28.06400000
 O      37.12800000       3.12800000      26.81000000
 H      37.86000000       3.67100000      26.39100000
 H      36.79200000       3.74300000      27.52700000
 O      34.58000000       9.09400000      26.96000000
 H      33.88200000       9.59400000      26.41800000
 H      34.96500000       8.56000000      26.19700000
 O      35.69100000       0.79400000      26.48600000
 H      36.18900000       1.64900000      26.51500000
 H      36.10800000       0.23900000      27.18300000
 O      37.14500000       8.15600000      27.36900000
 H      37.13000000       7.53700000      26.62900000
 H      36.32600000       8.77300000      27.27800000
 O      34.61600000       5.44300000      27.11800000
 H      34.86100000       6.40600000      26.97200000
 H      33.68500000       5.44500000      26.88900000
 O      33.52800000       8.35100000      29.35000000
 H      33.10800000       9.25700000      29.42900000
 H      34.12200000       8.47100000      28.61600000
 O      36.07300000       0.98700000      29.52200000
 H      36.95000000       0.54400000      29.74300000
 H      35.49600000       0.48400000      30.11800000
 O      34.46400000       3.46400000      29.10900000
 H      34.89600000       2.56600000      29.12900000
 H      34.76600000       3.98900000      28.35400000
 O      34.07200000       1.76800000      37.26800000
 H      34.08500000       0.76500000      37.22800000
 H      33.53800000       1.97700000      36.47400000
 O      32.67300000       3.51200000      35.42600000
 H      33.22400000       4.35400000      35.48100000
 H      32.01100000       3.67700000      34.72600000
 O      34.06100000       6.88800000      36.94500000
 H      34.36500000       6.15400000      36.35800000
 H      34.73400000       6.82100000      37.73600000
 O      36.15500000       4.04000000      35.79600000
 H      36.32500000       4.00300000      34.82500000
 H      35.77000000       3.11600000      35.89500000
 O      33.50000000       9.20400000      33.89000000
 H      33.92000000       8.92800000      32.99900000
 H      33.08700000       8.33800000      34.10400000
 O      35.22200000       1.83400000      33.75400000
 H      34.32500000       1.99400000      33.51900000
 H      35.81200000       2.16100000      32.99400000
 O      35.49500000       9.67400000      36.43200000
 H      34.88900000       8.87400000      36.32700000
 H      35.38500000      10.12700000      35.54400000
 O      34.53600000       5.77800000      33.65100000
 H      33.97500000       5.81000000      32.82500000
 H      35.50400000       5.75400000      33.38800000
