157
XYZ file of cluster: frame_5500_4dd82.69e4a.69a67 - created by MolEdiTo
 O      18.18300000      25.70100000      25.25300000
 H      18.47500000      26.73100000      25.09900000
 H      17.89000000      25.57500000      26.18300000
 O      18.35700000      20.91100000      17.17000000
 H      18.51300000      21.03600000      18.11700000
 H      17.43500000      21.29500000      17.03500000
 O      14.93900000      16.65800000      22.25600000
 H      15.24900000      15.76200000      21.89400000
 H      15.08700000      17.15800000      21.44900000
 O      18.30800000      23.61800000      21.29700000
 H      17.57400000      23.83800000      21.96300000
 H      18.08600000      24.33900000      20.57700000
 O      21.27500000      23.73100000      22.29200000
 H      20.33700000      23.37100000      22.14400000
 H      21.60600000      24.20000000      21.47600000
 O      20.95600000      15.45600000      22.57200000
 H      21.37000000      15.29500000      23.40500000
 H      20.06500000      15.77400000      22.86100000
 O      13.15300000      21.07100000      18.55600000
 H      12.44900000      21.02100000      19.32500000
 H      12.51700000      21.63000000      18.07000000
 O      19.01600000      17.11800000      16.51200000
 H      18.05600000      17.35200000      16.46200000
 H      19.12800000      17.06800000      15.56800000
 O      11.40100000      17.35300000      19.33300000
 H      12.37200000      17.69100000      19.33400000
 H      10.91200000      18.12900000      19.28100000
 O      10.08300000      14.95500000      19.62600000
 H      10.69100000      14.27800000      19.24500000
 H      10.68200000      15.75900000      19.81600000
 O      18.77000000      22.96600000      25.07800000
 H      19.69600000      23.38400000      25.06500000
 H      18.15500000      23.68200000      24.79700000
 O      11.17600000      18.68900000      16.00700000
 H      11.72600000      18.16400000      16.63000000
 H      10.38700000      18.20000000      15.84400000
 O      14.79600000      25.24400000      24.94800000
 H      14.40800000      25.91700000      24.40200000
 H      15.64800000      25.62300000      25.20300000
 O      16.45100000      18.59200000      20.43500000
 H      16.94300000      17.74900000      20.36100000
 H      17.00200000      19.27600000      19.93800000
 O      17.88600000      21.17700000      23.11800000
 H      17.35700000      20.58200000      23.63500000
 H      18.25500000      21.72200000      23.81500000
 O      12.03800000      16.18200000      16.64700000
 H      11.54800000      15.51200000      16.18800000
 H      12.00700000      15.94200000      17.60500000
 O      18.23800000      16.23700000      20.99900000
 H      18.24000000      15.26300000      20.76000000
 H      19.17600000      16.47400000      21.23200000
 O      20.99300000      16.60600000      25.76200000
 H      21.18200000      17.55800000      25.53600000
 H      20.01800000      16.39100000      25.85600000
 O      10.27300000      14.97700000      23.07800000
 H      10.87500000      15.78900000      23.05700000
 H      10.77700000      14.43600000      22.33500000
 C      15.37400000      17.27000000      16.18100000
 C      15.55600000      15.87700000      16.75900000
 C      16.09400000      14.90700000      14.43200000
 H      17.47700000      15.49800000      15.77700000
 H      13.46500000      16.94000000      16.60000000
 O      16.74500000      13.64400000      16.34100000
 O      16.28300000      18.04500000      15.86300000
 O      14.04900000      17.64700000      16.24300000
 C      16.53000000      14.98400000      15.89500000
 O      16.16200000      15.99200000      17.97100000
 H      14.56400000      15.41300000      16.74700000
 O      15.07400000      15.44700000      14.01000000
 O      16.70700000      13.98700000      13.66300000
 H      17.45500000      13.61200000      14.24800000
 H      15.51700000      15.72200000      18.66200000
 H      17.64400000      13.62600000      16.60900000
 O      18.29300000      21.04200000      20.06200000
 H      18.05900000      21.90800000      20.56300000
 H      18.63500000      20.47100000      20.80600000
 O      21.09000000      15.90600000      18.00400000
 H      20.38600000      16.57900000      17.87000000
 H      21.78300000      16.17300000      17.45700000
 O      20.49300000      18.71100000      20.69600000
 H      20.16100000      19.42300000      20.14300000
 H      21.40000000      18.42100000      20.29900000
 O      20.27000000      22.40700000      15.89900000
 H      20.60300000      21.76500000      15.19700000
 H      19.38400000      22.16900000      16.17100000
 O      20.62800000      24.91300000      16.80200000
 H      19.74100000      25.16800000      16.43400000
 H      20.73300000      23.90000000      16.62700000
 O      18.67900000      18.10000000      26.29600000
 H      18.63700000      19.02600000      26.63500000
 H      18.67200000      17.48200000      27.04700000
 O      10.96600000      24.56500000      24.50400000
 H      11.44900000      23.98400000      25.10200000
 H      10.63000000      25.13100000      25.20600000
 O      15.64700000      21.73400000      16.95900000
 H      15.00800000      21.28500000      17.60400000
 H      15.39900000      22.73100000      17.04800000
 O      11.32500000      17.85800000      22.27400000
 H      11.58300000      18.65300000      21.78200000
 H      12.07900000      17.90400000      22.97000000
 O      15.12300000      24.94400000      17.80400000
 H      14.68400000      25.82100000      17.51500000
 H      15.29100000      25.13400000      18.79600000
 O      18.73100000      16.46900000      24.05600000
 H      18.20000000      16.80000000      23.33600000
 H      18.38600000      17.06000000      24.78500000
 O      13.08300000      16.43400000      24.46400000
 H      13.54200000      15.77700000      24.94800000
 H      13.71600000      16.54900000      23.72700000
 O      13.29700000      24.15300000      22.37800000
 H      13.56500000      24.58700000      21.56700000
 H      12.84000000      24.86400000      22.85400000
 O      11.11400000      20.62100000      20.51800000
 H      10.16300000      20.29400000      20.51400000
 H      11.28400000      20.96000000      21.44000000
 O      15.80500000      19.17400000      23.55000000
 H      15.44700000      18.34200000      23.89400000
 H      16.08200000      18.79200000      22.59800000
 O      21.15300000      21.74500000      19.31100000
 H      21.72900000      22.51500000      19.15200000
 H      20.32200000      22.12200000      19.69200000
 O      14.08700000      18.64600000      19.08400000
 H      14.85500000      18.52500000      19.66300000
 H      14.00300000      19.62400000      18.99000000
 O      14.42200000      22.36900000      24.89800000
 H      15.39700000      22.26400000      25.04300000
 H      14.40900000      23.38200000      24.79500000
 O      11.62900000      20.76300000      26.21100000
 H      11.51200000      19.78200000      26.37100000
 H      12.55300000      20.80100000      25.84600000
 O      20.92400000      19.40500000      17.23800000
 H      20.13800000      19.05400000      16.79300000
 H      20.52600000      20.00400000      17.93800000
 O      11.73600000      25.13400000      16.97800000
 H      12.26300000      25.93300000      16.79800000
 H      11.81300000      24.86500000      17.94700000
 O      17.82700000      26.23600000      17.03700000
 H      16.97700000      25.72800000      17.00500000
 H      17.45300000      27.14300000      16.94000000
 O      19.12400000      25.54400000      19.73100000
 H      18.90900000      25.71700000      18.79600000
 H      19.98200000      25.05300000      19.66600000
 O      16.20700000      24.15000000      22.81600000
 H      15.27200000      24.50200000      23.04100000
 H      15.96600000      23.22900000      22.47100000
 O      11.75500000      20.59400000      23.18600000
 H      12.62400000      20.81400000      23.41800000
 H      11.22600000      20.75200000      24.01000000
 O      15.33000000      21.81500000      20.94900000
 H      16.06000000      21.22300000      21.26600000
 H      15.62700000      22.03600000      20.06900000
 O      11.68100000      23.41600000      19.55200000
 H      10.92500000      23.56100000      20.24800000
 H      12.39700000      22.87800000      20.02800000
 O      11.05200000      17.66500000      26.33600000
 H      10.11600000      17.46000000      26.16300000
 H      11.46800000      17.36700000      25.54300000
