117
XYZ file of cluster: frame_5500_39ef.a05d4.195d - created by MolEdiTo
 O       6.38400000      26.92700000       3.72900000
 H       6.87500000      26.87400000       4.60700000
 H       6.05900000      27.86100000       3.72900000
 O       3.43900000      21.79000000       3.77400000
 H       3.48900000      22.50500000       3.10400000
 H       2.53300000      21.36800000       3.67000000
 O       9.58100000      23.84800000       3.62000000
 H       9.38500000      23.46900000       2.78600000
 H       8.68600000      24.02400000       4.07000000
 O       1.20300000      27.93600000       7.85200000
 H       1.69200000      27.25900000       8.39000000
 H       1.92800000      28.35000000       7.20400000
 O       7.18800000      21.98600000       7.24900000
 H       7.75400000      22.57900000       7.79200000
 H       7.66700000      21.21900000       7.02500000
 O       2.35500000      28.56300000       2.93000000
 H       2.24000000      28.66000000       1.96500000
 H       1.66900000      29.09700000       3.41500000
 O       6.92800000      30.64400000       8.14700000
 H       6.29900000      30.92100000       8.83600000
 H       6.25700000      30.21300000       7.51900000
 O       2.33300000      24.94700000       6.91700000
 H       2.16300000      24.09200000       6.47000000
 H       1.57800000      25.04500000       7.51600000
 O       7.89600000      22.60100000       0.77500000
 H       7.35700000      21.89700000       0.37300000
 H       7.88700000      23.40400000       0.20500000
 O       5.55600000      26.07100000       6.36800000
 H       6.31600000      26.38500000       6.96000000
 H       5.97300000      25.33400000       5.84800000
 O       5.88000000      21.15300000       2.76400000
 H       4.92900000      21.13000000       2.97000000
 H       5.86800000      20.73600000       1.87100000
 O      10.55600000      22.03600000       6.54700000
 H      10.52800000      21.28600000       7.23600000
 H      10.29600000      22.82500000       7.07700000
 O       8.80400000      28.80200000       7.76300000
 H       9.37800000      29.60500000       7.53300000
 H       7.94300000      29.25800000       7.97400000
 O       4.24700000      26.70900000       1.33700000
 H       3.29900000      26.66400000       1.15100000
 H       4.35000000      26.97300000       2.28600000
 O      11.10200000      27.16700000       8.33800000
 H      11.33200000      27.22200000       9.32700000
 H      10.19400000      27.47300000       8.42400000
 O       6.07000000      29.11700000       1.07000000
 H       5.46000000      28.33300000       1.03800000
 H       6.29100000      29.09500000       2.04200000
 O       4.89600000      22.82900000       6.10000000
 H       5.82800000      22.61600000       6.47200000
 H       4.95900000      22.86100000       5.14100000
 O       8.25100000      20.61400000       5.16700000
 H       8.98900000      21.22500000       5.50600000
 H       8.35600000      20.81900000       4.19200000
 O      10.69700000      28.11100000       4.02600000
 H       9.92800000      28.72100000       4.09300000
 H      11.27200000      28.46200000       4.78100000
 O       6.28800000      23.70800000       3.42500000
 H       6.16400000      22.79400000       3.08800000
 H       5.80300000      24.36800000       2.87100000
 O       8.35000000      22.34800000      10.11200000
 H       8.84300000      22.67400000      10.92500000
 H       7.67700000      21.79000000      10.58900000
 O       2.70900000      23.92900000       1.94800000
 H       2.67200000      24.64600000       2.63300000
 H       2.40800000      24.37900000       1.23200000
 O       8.52800000      26.39000000       6.06400000
 H       8.67900000      25.64500000       6.72000000
 H       9.06900000      27.15000000       6.45800000
 O       1.90800000      22.51700000       9.72800000
 H       2.30600000      21.97200000       9.07800000
 H       1.46000000      23.20900000       9.19900000
 O       9.95700000      30.02100000      10.94900000
 H      10.04800000      30.59000000      10.16500000
 H      10.68400000      29.39200000      11.12000000
 O       7.98500000      25.87200000       1.62600000
 H       8.83200000      26.24600000       1.86700000
 H       7.37500000      26.16200000       2.33200000
 O       6.64000000      27.14400000       9.62600000
 H       7.16800000      27.70700000      10.17300000
 H       6.95000000      26.25700000       9.84800000
 O       4.37900000      29.69200000       7.19800000
 H       4.34300000      29.04100000       7.93600000
 H       4.27200000      29.15300000       6.33900000
 O       1.21100000      27.68400000      11.00100000
 H       1.78300000      27.96900000      10.26600000
 H       1.47400000      26.79500000      11.18100000
 O       9.63000000      24.17100000       8.47800000
 H      10.32100000      24.56300000       9.08500000
 H       8.93500000      23.78800000       9.10900000
 O       2.42300000      25.51500000       4.08700000
 H       1.87700000      26.32600000       4.01400000
 H       2.63100000      25.62100000       5.06700000
 O       4.51500000      24.43100000       9.05100000
 H       4.20900000      23.67400000       8.61400000
 H       4.31900000      25.14600000       8.46200000
 O       3.30100000      27.70000000       5.69700000
 H       3.34200000      28.04200000       4.80800000
 H       4.16600000      27.31800000       5.82700000
 O       5.26500000      29.30300000       3.62800000
 H       4.91600000      30.08000000       3.03800000
 H       5.47900000      29.83000000       4.43800000
 O       1.29100000      30.54400000       9.61300000
 H       1.21500000      30.88200000      10.53300000
 H       0.46900000      29.96000000       9.54000000
 O       8.66100000      30.44600000       4.20900000
 H       8.52600000      30.69500000       5.18100000
 H       8.47500000      31.28800000       3.77200000
 O       4.10300000      28.13400000       9.36700000
 H       5.00400000      27.79300000       9.15400000
 H       4.11900000      28.07200000      10.33700000
 O       5.05400000      21.37300000       9.09800000
 H       5.27200000      21.63600000      10.00900000
 H       5.82800000      21.67500000       8.61200000
 O       2.95400000      21.42900000       7.29900000
 H       3.61100000      21.75500000       6.59000000
 H       3.62500000      21.41200000       8.03900000
