117
XYZ file of cluster: frame_5500_c9295.a1504.40d4 - created by MolEdiTo
 O      26.44100000      24.96200000       3.68100000
 H      26.13400000      25.81400000       3.33600000
 H      27.12000000      24.60600000       3.08000000
 O      27.26000000      22.19000000       9.63700000
 H      26.33300000      22.31700000       9.96800000
 H      27.54500000      21.45300000      10.20000000
 O      30.36700000      24.53100000       8.62200000
 H      29.76400000      24.26700000       7.91000000
 H      29.65500000      24.75000000       9.27800000
 O      30.36100000      23.45800000       5.20900000
 H      30.55100000      23.83800000       4.29400000
 H      31.06500000      22.80900000       5.31600000
 O      28.60400000      27.88500000       8.95900000
 H      28.74300000      27.26400000       9.66600000
 H      29.39300000      27.75200000       8.30700000
 O      30.54600000      29.79000000       4.94400000
 H      30.18600000      28.96000000       5.36300000
 H      29.89600000      30.54500000       5.20000000
 O      27.26000000      25.72200000       6.99000000
 H      27.19400000      25.05200000       6.34500000
 H      26.46100000      26.25200000       6.85700000
 O      30.40100000      20.77000000       6.51400000
 H      31.32600000      21.03900000       6.78500000
 H      29.80400000      21.58900000       6.61900000
 O      26.62000000      29.55500000       5.71300000
 H      26.99600000      30.39500000       6.00000000
 H      27.10400000      28.75100000       5.98900000
 O      29.10700000      30.10700000       1.14300000
 H      28.36900000      30.35600000       0.52400000
 H      28.62400000      30.15200000       2.03800000
 O      29.78000000      26.84800000       3.08000000
 H      29.38800000      26.41600000       3.87900000
 H      29.42900000      27.78300000       3.19800000
 O      28.78500000      22.69500000       7.44800000
 H      27.98000000      22.71800000       6.92900000
 H      28.47500000      22.15700000       8.22800000
 O      26.05600000      28.59100000       9.56100000
 H      26.95100000      28.10900000       9.33500000
 H      26.10700000      29.30300000       8.90700000
 O      28.15800000      22.24900000       3.98400000
 H      27.35700000      22.34100000       4.54700000
 H      28.93400000      22.72400000       4.39100000
 O      27.09700000      30.17100000       3.05900000
 H      26.79600000      29.99100000       4.06400000
 H      26.79000000      29.41200000       2.49600000
 O      27.45300000      22.48000000       1.18800000
 H      28.26200000      22.10700000       0.67900000
 H      27.87100000      22.66400000       2.09800000
 O      26.66300000      26.86800000       1.52000000
 H      27.59100000      27.07900000       1.36000000
 H      26.39600000      26.30400000       0.75700000
 O      29.34800000      26.71600000       5.65300000
 H      28.50000000      26.33300000       6.05600000
 H      30.10900000      26.58600000       6.28500000
 O      30.07300000      23.47800000       2.04400000
 H      30.05500000      23.70700000       1.16800000
 H      31.03400000      23.54600000       2.20600000
 O      27.83800000      24.74600000      10.11600000
 H      27.64700000      23.78800000      10.08600000
 H      27.69500000      24.91800000      11.08000000
 O      35.06200000      21.79000000       3.77400000
 H      35.11200000      22.50500000       3.10400000
 H      34.15600000      21.36800000       3.67000000
 O      32.82600000      27.93600000       7.85200000
 H      33.31500000      27.25900000       8.39000000
 H      33.55100000      28.35000000       7.20400000
 O      33.97800000      28.56300000       2.93000000
 H      33.86300000      28.66000000       1.96500000
 H      33.29200000      29.09700000       3.41500000
 O      33.95600000      24.94700000       6.91700000
 H      33.78600000      24.09200000       6.47000000
 H      33.20100000      25.04500000       7.51600000
 O      37.50300000      21.15300000       2.76400000
 H      36.55200000      21.13000000       2.97000000
 H      37.49100000      20.73600000       1.87100000
 O      35.87000000      26.70900000       1.33700000
 H      34.92200000      26.66400000       1.15100000
 H      35.97300000      26.97300000       2.28600000
 O      36.51900000      22.82900000       6.10000000
 H      37.45100000      22.61600000       6.47200000
 H      36.58200000      22.86100000       5.14100000
 O      34.33200000      23.92900000       1.94800000
 H      34.29500000      24.64600000       2.63300000
 H      34.03100000      24.37900000       1.23200000
 O      33.53100000      22.51700000       9.72800000
 H      33.92900000      21.97200000       9.07800000
 H      33.08300000      23.20900000       9.19900000
 O      36.00200000      29.69200000       7.19800000
 H      35.96600000      29.04100000       7.93600000
 H      35.89500000      29.15300000       6.33900000
 O      32.83400000      27.68400000      11.00100000
 H      33.40600000      27.96900000      10.26600000
 H      33.09700000      26.79500000      11.18100000
 O      34.04600000      25.51500000       4.08700000
 H      33.50000000      26.32600000       4.01400000
 H      34.25400000      25.62100000       5.06700000
 O      36.13800000      24.43100000       9.05100000
 H      35.83200000      23.67400000       8.61400000
 H      35.94200000      25.14600000       8.46200000
 O      34.92400000      27.70000000       5.69700000
 H      34.96500000      28.04200000       4.80800000
 H      35.78900000      27.31800000       5.82700000
 O      36.88800000      29.30300000       3.62800000
 H      36.53900000      30.08000000       3.03800000
 H      37.10200000      29.83000000       4.43800000
 O      32.91400000      30.54400000       9.61300000
 H      32.83800000      30.88200000      10.53300000
 H      32.09200000      29.96000000       9.54000000
 O      35.72600000      28.13400000       9.36700000
 H      36.62700000      27.79300000       9.15400000
 H      35.74200000      28.07200000      10.33700000
 O      36.67700000      21.37300000       9.09800000
 H      36.89500000      21.63600000      10.00900000
 H      37.45100000      21.67500000       8.61200000
 O      34.57700000      21.42900000       7.29900000
 H      35.23400000      21.75500000       6.59000000
 H      35.24800000      21.41200000       8.03900000
