%chk=cluster_441.chk
%mem=1GB
%nproc=4
#b3lyp/6-311++G** scrf=(cpcm,Solvent=Water) nosymm force
iop(2/11=1) 
 Geom=(NoDistance,NoAngle)

cluster_441

0 1
 O      14.29100000      20.74600000       6.87700000
 H      14.16400000      21.71500000       7.17800000
 H      15.17200000      20.54400000       7.34000000
 O      14.71100000      19.22500000      10.30600000
 H      15.68300000      19.04600000      10.29700000
 H      14.57800000      18.70200000      11.12900000
 O      16.31800000      20.19000000       4.65600000
 H      16.15700000      20.06900000       5.61800000
 H      15.99500000      21.09400000       4.34400000
 O      16.94400000      20.12200000       7.39000000
 H      17.86800000      20.04400000       7.70500000
 H      16.70000000      19.17700000       7.29400000
 O      20.11200000      18.68400000       9.42700000
 H      20.77500000      19.08700000      10.07200000
 H      20.49400000      18.57900000       8.57400000
 O      20.44200000      16.56600000       6.60900000
 H      21.01500000      17.20900000       6.16600000
 H      20.75900000      16.56400000       7.55900000
 O      17.56100000      17.53800000       4.06300000
 H      17.54100000      17.95600000       3.16300000
 H      17.76500000      18.32200000       4.64700000
 O      18.06900000      20.71500000      10.14000000
 H      18.18700000      19.74200000       9.80100000
 H      18.90000000      20.91100000      10.57000000
 O      14.72100000      15.26800000       8.55600000
 H      15.22200000      15.72200000       7.85100000
 H      13.87300000      15.82000000       8.56500000
 O      14.55800000      17.74800000       4.31300000
 H      14.10300000      18.39400000       3.69800000
 H      15.32600000      18.33200000       4.44700000
 O      17.73600000      15.42000000       6.17100000
 H      18.65400000      15.56900000       5.89600000
 H      17.33900000      16.22600000       5.74700000
 O      16.83900000      14.24100000      10.29300000
 H      17.51100000      14.19700000       9.58100000
 H      16.11600000      14.67400000       9.76800000
 O      16.69300000      17.26100000       7.61800000
 H      17.11500000      16.44900000       7.35400000
 H      16.66800000      17.24400000       8.62800000
 O      16.80700000      17.31600000      10.30800000
 H      17.76100000      17.09800000      10.43200000
 H      16.48600000      16.49800000      10.71600000

