%chk=cluster_443.chk
%mem=6GB
%nproc=8
#b3lyp/6-31G** scrf=(cpcm,Solvent=Water) nosymm force
iop(2/11=1)
 Geom=(NoDistance,NoAngle)
guess=checkpoint

cluster_443

0 1
 O      19.98710814    15.17920647    17.78858515
 H      20.42426426    16.02781575    17.62545084
 H      20.48141512    14.77564828    18.51789372
 O      17.01543458    13.81392179    14.39848800
 H      16.81414445    14.67976422    14.00141782
 H      16.90411545    13.97784727    15.35699551
 O      19.54358616    15.11605026    14.22162106
 H      20.11959623    14.78593531    14.92753150
 H      18.80600879    14.47174619    14.18523638
 O      13.87258643    15.33317147    14.49468374
 H      13.71199287    15.40223772    15.44596471
 H      14.56403285    14.65366255    14.44467826
 O      16.09725410    17.01075791    16.57381278
 H      16.45545268    17.21016847    15.69746501
 H      16.66670824    16.25944666    16.83896066
 O      20.09877840    20.47476426    15.01673532
 H      19.90369137    19.98995593    14.20345340
 H      19.22331588    20.57709131    15.43096988
 O      17.30503532    14.69912031    17.02397147
 H      17.02358354    14.65501090    17.94549588
 H      18.27902307    14.64803569    17.08169332
 O      17.25743437    20.44016905    16.15402844
 H      16.76886786    20.95359913    15.49577713
 H      17.17482033    19.53252002    15.82300669
 O      18.53760161    17.52284181    15.04274047
 H      19.11224327    17.84442694    15.75004413
 H      18.84412509    16.60405225    14.84378935
 O      16.23630879    16.62965269    13.05012166
 H      15.37935340    16.59181280    13.50376625
 H      16.47890607    17.57253415    13.03028161
 O      13.95135042    19.21682906    16.79484515
 H      14.60554372    18.49057029    16.81999094
 H      13.17517048    18.83011275    17.21836224
 O      19.19496342    18.25874402    12.42435602
 H      19.05186900    17.98264184    13.35150145
 H      18.33552117    18.63252713    12.19452429
 O      16.45977504    19.42792744    13.08374398
 H      16.66779216    20.12357079    12.44644865
 H      15.51091019    19.52996747    13.23974888

