%chk=cluster_503.chk
%mem=8GB
%nproc=8
#b3lyp/6-31G** scrf=(cpcm,Solvent=Water) nosymm force
iop(2/11=1)
 Geom=(NoDistance,NoAngle)
guess=checkpoint

cluster_503

0 1
 O      18.90059219     1.28546353    12.18910166
 H      18.67055746     1.71152036    11.33559639
 H      19.85478748     1.14320997    12.13114276
 O      18.51127215     6.94226101    13.79659198
 H      18.26563437     6.56175244    14.65250993
 H      19.45982762     7.13335846    13.89790706
 O      17.73231128     2.98097909    15.07530583
 H      17.89664039     2.02826367    15.11963232
 H      17.88666922     3.19425306    14.14145137
 O      18.34812131     2.90378959     9.99508563
 H      18.25434931     3.62111261    10.65813119
 H      17.44807568     2.74070744     9.67805915
 O      18.47727873     4.39903669    12.28214740
 H      18.52481849     5.29789599    12.67862806
 H      19.28063831     3.94259785    12.57506496
 O      19.52206945     4.25400153    17.27867037
 H      19.44817101     3.85063516    16.39794406
 H      18.59682678     4.43809390    17.47836427
 O      22.09739553     7.39940892    14.28309920
 H      22.49057958     6.50551983    14.25138093
 H      22.48037361     7.81230796    13.49106707
 O      22.12511955     3.08298038    10.85983929
 H      22.26261069     2.34413253    10.25297112
 H      21.23045957     3.39354640    10.65514867
 O      23.72690167     4.97664779    13.99488819
 H      23.42271636     4.04357310    14.05431999
 H      24.43641736     5.04677205    14.64829526
 O      23.01039076     2.20001809    13.67992369
 H      22.62085926     2.36722459    12.80019836
 H      22.29044949     1.80659266    14.19737653
 O      23.44736244     7.79640310    11.23635807
 H      22.58766992     7.89119946    10.80356789
 H      23.69636333     6.86367533    11.03775853
 O      22.04862577     6.82865017    17.50676912
 H      21.26021206     6.26485790    17.46097918
 H      22.13554106     7.15677972    16.59723593
 O      23.16779422     3.13805287    17.30383458
 H      22.61626306     3.91404031    17.48477150
 H      22.74147681     2.43728831    17.81424874
 O      24.24312748     5.07797915    10.77607072
 H      24.37500681     4.97172716    11.73405082
 H      23.47877522     4.48689690    10.61239927

