309
XYZ file of cluster: frame_12000_49e95.167.4a42c - created by MolEdiTo
 O      27.40400000       1.08500000      17.43900000
 H      27.77800000       1.22800000      18.32400000
 H      27.15600000       2.02400000      17.23500000
 O      27.41600000       9.66100000      23.66100000
 H      26.51600000       9.34500000      23.57500000
 H      27.87800000       8.85900000      23.48200000
 O      24.18400000      11.20600000      24.87100000
 H      24.48800000      10.34600000      25.06200000
 H      23.95200000      11.57100000      25.77400000
 O      24.85700000       4.98400000      25.23500000
 H      25.68400000       5.22600000      25.69700000
 H      24.72000000       4.08500000      25.62900000
 O      15.65100000       8.23400000      26.55100000
 H      15.91800000       7.70400000      25.76200000
 H      16.42700000       8.00200000      27.10600000
 O      13.87100000       4.02000000      20.42700000
 H      14.09200000       4.02000000      21.43100000
 H      14.74600000       4.33200000      20.15200000
 O      16.72200000       4.01200000      16.20400000
 H      17.36500000       4.40500000      16.73000000
 H      15.88800000       4.43600000      16.50200000
 O      14.17400000       6.54500000      24.31800000
 H      13.55600000       6.95600000      24.88200000
 H      14.01600000       6.94200000      23.43700000
 O      23.75300000       9.16800000      21.70100000
 H      24.10700000       8.37400000      21.31400000
 H      24.47500000       9.79300000      21.64200000
 O      20.75700000       1.50300000      19.43800000
 H      20.31500000       1.79800000      20.30400000
 H      20.73300000       0.52400000      19.56600000
 O      25.87600000       3.15800000      28.07900000
 H      26.68600000       3.19700000      27.50900000
 H      26.12000000       3.82800000      28.75500000
 O      18.71600000      11.93200000      21.35800000
 H      19.15400000      12.52600000      20.72700000
 H      17.80800000      12.34400000      21.36900000
 O      18.96000000      13.93200000      14.84500000
 H      19.91600000      13.76900000      14.78300000
 H      18.90400000      14.89400000      14.77600000
 O      25.90000000       9.27000000      26.36900000
 H      26.14800000       9.91300000      27.06500000
 H      26.73400000       8.74500000      26.24000000
 O      15.57600000       1.30800000      27.32500000
 H      16.15300000       1.40500000      28.07800000
 H      15.14500000       0.43600000      27.48300000
 O      27.00100000       8.26300000      20.30000000
 H      27.37100000       7.79900000      19.52500000
 H      26.21800000       7.69800000      20.59400000
 O      20.41300000       8.22900000      16.79900000
 H      20.98700000       8.72700000      17.41800000
 H      20.28600000       8.93000000      16.10400000
 O      27.33600000       4.77500000      20.25000000
 H      26.40500000       4.44600000      20.25300000
 H      27.37500000       5.29500000      19.47300000
 O      14.31300000      12.60800000      15.69100000
 H      13.92400000      12.11700000      14.99900000
 H      15.23500000      12.71100000      15.32500000
 O      14.35800000       2.94100000      25.54800000
 H      14.75100000       2.14100000      25.97200000
 H      14.53800000       3.65700000      26.12700000
 O      17.26000000       9.60600000      14.71200000
 H      16.90900000      10.48600000      14.81300000
 H      17.79100000       9.54600000      15.51100000
 O      20.68600000      10.10100000      14.82400000
 H      20.17500000      10.52600000      14.04200000
 H      20.93100000      10.93400000      15.28300000
 O      19.69200000       7.93600000      21.38200000
 H      20.13200000       8.75100000      21.60600000
 H      19.38800000       7.73600000      22.28700000
 O      13.52600000      10.48000000      14.33600000
 H      13.91700000       9.63100000      14.54500000
 H      12.57800000      10.24000000      14.14400000
 O      13.36500000      10.72800000      25.06300000
 H      13.60200000      11.29400000      25.79300000
 H      14.18600000      10.38900000      24.70600000
 O      23.82700000       7.29100000      26.19800000
 H      23.98800000       6.43400000      25.75600000
 H      24.73500000       7.69100000      26.15100000
 O      14.52300000      11.43000000      18.09600000
 H      14.75200000      12.25100000      18.63300000
 H      14.74500000      11.74800000      17.17400000
 O      25.30500000       4.92200000      22.50700000
 H      24.94600000       4.86100000      23.41000000
 H      26.25600000       4.86500000      22.61200000
 O      22.38600000       3.29900000      17.87900000
 H      22.30500000       2.65900000      18.62400000
 H      21.51200000       3.18400000      17.39100000
 O      23.41600000       3.96800000      27.54300000
 H      23.18600000       4.65500000      28.21600000
 H      24.36300000       3.83700000      27.73100000
 O      14.04300000       5.12100000      16.29400000
 H      13.68500000       4.39600000      16.86800000
 H      13.36600000       5.05500000      15.56400000
 O      25.39300000       2.33900000      24.59700000
 H      25.94100000       1.99100000      23.88000000
 H      24.51200000       2.04700000      24.36500000
 O      24.80900000       6.83300000      20.70300000
 H      25.00600000       6.07700000      21.32100000
 H      24.32100000       6.37800000      19.95500000
 O      18.79000000       1.67200000      13.38600000
 H      18.70600000       2.43900000      12.81300000
 H      19.22400000       2.04300000      14.13900000
 O      17.38800000      11.66900000      23.88400000
 H      17.93100000      11.84900000      23.09900000
 H      16.92300000      12.56900000      23.97400000
 O      17.57900000       5.41400000      26.68800000
 H      17.53300000       6.10100000      27.40300000
 H      16.62700000       5.23300000      26.51300000
 O      23.09100000       2.50400000      13.20700000
 H      23.33600000       2.09800000      14.09200000
 H      23.80300000       2.22000000      12.65600000
 O      15.19600000      13.84500000      19.35000000
 H      15.85400000      14.37700000      18.89900000
 H      14.37600000      14.40100000      19.21700000
 O      23.55700000       7.15500000      16.79600000
 H      22.85600000       7.15200000      16.12700000
 H      23.27300000       7.96600000      17.29700000
 O      16.73200000       5.14800000      23.44000000
 H      16.16900000       5.58600000      24.14900000
 H      15.95500000       4.70700000      22.96100000
 O      16.46700000       5.36700000      19.80000000
 H      16.45400000       6.12800000      19.18300000
 H      17.35200000       5.41000000      20.16400000
 O      25.85500000      10.69200000      21.02600000
 H      26.10300000       9.90700000      20.55600000
 H      26.72300000      11.14200000      21.13200000
 O      22.47600000       7.97400000      14.39700000
 H      21.78500000       7.24400000      14.26700000
 H      21.81400000       8.71300000      14.61300000
 O      13.76700000       8.10100000      22.13200000
 H      14.17900000       8.31600000      21.31200000
 H      14.27300000       8.74100000      22.76000000
 O      20.21400000       1.65000000      21.91400000
 H      19.78800000       0.72700000      21.82200000
 H      19.57400000       2.00800000      22.59200000
 O      21.19200000       3.64700000      25.63400000
 H      21.90500000       3.74500000      26.26000000
 H      20.43000000       3.38300000      26.24000000
 O      24.09500000       4.96600000      18.64500000
 H      24.15400000       5.46600000      17.81100000
 H      23.35100000       4.37300000      18.40700000
 O      17.70000000       2.31100000      22.99300000
 H      17.36700000       3.25200000      23.10200000
 H      17.13400000       1.81300000      23.60000000
 O      21.11100000      12.38000000      17.03200000
 H      22.02500000      12.11300000      17.22600000
 H      21.34500000      13.22100000      16.52300000
 O      18.88800000      14.27400000      23.17600000
 H      18.00600000      14.34100000      23.54500000
 H      19.28300000      13.67500000      23.85500000
 O      15.93100000       1.28300000      17.05700000
 H      15.37400000       1.30900000      16.28200000
 H      16.32400000       2.16100000      17.02600000
 O      24.95900000       4.86700000      15.31900000
 H      25.24500000       4.40800000      14.47000000
 H      24.31600000       5.49100000      15.00900000
 O      25.49800000      10.05700000      17.46900000
 H      25.56900000       9.10200000      17.20800000
 H      26.38600000      10.22700000      17.88000000
 O      16.73600000       3.73900000      13.48100000
 H      16.23100000       4.59100000      13.53400000
 H      16.93500000       3.59800000      14.44100000
 O      14.20900000       7.57500000      18.07300000
 H      14.03600000       6.69900000      17.77000000
 H      15.18900000       7.52600000      18.26900000
 O      16.89700000       0.91800000      25.13200000
 H      16.34600000       0.77600000      25.92100000
 H      17.01800000       0.01500000      24.77500000
 O      17.49900000       6.87800000      15.46300000
 H      16.84300000       6.48000000      14.82100000
 H      17.48900000       7.80500000      15.08900000
 O      21.29100000       7.83100000      26.70500000
 H      21.01900000       7.31500000      25.95800000
 H      22.27400000       7.67900000      26.60700000
 O      23.67000000       1.65800000      15.51000000
 H      23.45000000       2.30600000      16.24300000
 H      23.53000000       0.83900000      15.96500000
 O      15.17800000       9.58300000      20.20200000
 H      16.11700000       9.53700000      20.25600000
 H      15.05800000       9.88500000      19.28300000
 O      26.64700000       6.25800000      27.07000000
 H      27.28200000       5.92600000      26.41900000
 H      27.17900000       6.93000000      27.52900000
 O      22.49900000       2.29700000      23.53800000
 H      21.83200000       2.19200000      22.83000000
 H      22.03900000       2.80800000      24.20900000
 O      14.38200000       4.01700000      23.10500000
 H      14.11100000       4.83100000      23.57700000
 H      14.49000000       3.38400000      23.86100000
 O      20.17000000      13.10300000      25.23400000
 H      20.50200000      13.03000000      26.14700000
 H      20.48400000      12.23500000      24.90300000
 O      14.46400000      12.19500000      27.10800000
 H      15.32100000      12.51500000      26.83600000
 H      14.50700000      12.47000000      28.09200000
 O      27.82700000      13.71200000      18.34700000
 H      27.62600000      12.79900000      18.17900000
 H      26.89600000      14.06200000      18.50300000
 O      17.82800000       7.54800000      23.59100000
 H      18.63800000       7.21400000      24.07000000
 H      17.51800000       6.71100000      23.22000000
 O      25.37600000       1.99200000      19.64800000
 H      24.72200000       2.54000000      19.23400000
 H      26.16300000       2.51700000      19.59600000
 O      23.56600000      13.71100000      23.63200000
 H      23.80100000      12.84700000      24.08400000
 H      22.61200000      13.66500000      23.49000000
 O      20.32300000      10.39800000      26.90500000
 H      20.90100000      10.40900000      26.08300000
 H      20.75400000       9.58500000      27.29700000
 O      23.69500000      11.71200000      16.66700000
 H      23.79500000      11.61300000      15.72500000
 H      24.40700000      11.09100000      17.01000000
 O      21.21700000      10.06800000      21.83900000
 H      21.35600000      10.94500000      21.41900000
 H      22.14400000       9.75700000      21.95100000
 O      17.43200000      14.00400000      17.32700000
 H      17.46500000      15.00000000      17.27200000
 H      17.66600000      13.80200000      16.40600000
 O      26.05200000       7.59900000      16.24000000
 H      26.32100000       7.71800000      15.35900000
 H      25.12400000       7.38900000      16.25900000
 O      16.68900000      12.56000000      14.43500000
 H      16.80400000      12.43800000      13.47400000
 H      17.53700000      13.03800000      14.64600000
 O      16.95600000       7.22500000      18.09400000
 H      17.40700000       7.03500000      17.24700000
 H      17.19500000       8.11000000      18.27700000
 O      23.59300000      12.69400000      20.91500000
 H      24.39000000      12.20500000      20.99900000
 H      23.55200000      13.28800000      21.65800000
 O      23.00600000       1.36000000      26.39800000
 H      22.54700000       1.41600000      25.56800000
 H      23.37700000       2.24400000      26.49700000
 O      14.07300000       1.70800000      15.03100000
 H      14.01500000       2.18500000      14.16700000
 H      13.57600000       2.36100000      15.61100000
 O      16.36800000      13.10200000      21.52100000
 H      16.36800000      14.09900000      21.67600000
 H      15.92700000      13.14000000      20.65300000
 O      19.42000000      13.25200000      18.85100000
 H      18.66300000      13.40900000      18.25500000
 H      19.95200000      12.66500000      18.30900000
 O      17.20300000       2.06800000      20.14300000
 H      16.29800000       1.65100000      20.40400000
 H      17.51000000       2.24000000      21.05800000
 O      15.63400000       9.65100000      23.44900000
 H      16.26700000      10.46000000      23.64200000
 H      16.30500000       8.96900000      23.36400000
 O      27.41200000      12.77400000      13.46300000
 H      26.85400000      13.22500000      12.76900000
 H      27.24200000      13.41400000      14.19900000
 O      22.26300000       9.72000000      18.13600000
 H      22.94200000      10.23000000      17.66400000
 H      22.50800000       9.83100000      19.04900000
 O      23.80900000      11.33000000      13.77300000
 H      23.45600000      11.41900000      12.90700000
 H      23.89700000      10.38700000      13.96100000
 O      26.69900000      12.93900000      23.22300000
 H      27.07000000      13.54100000      23.85500000
 H      26.19200000      12.29000000      23.73500000
 O      20.15700000       5.75600000      15.46600000
 H      19.14800000       5.72100000      15.46200000
 H      20.24000000       6.39400000      16.23600000
 O      21.36000000      10.82300000      24.60100000
 H      21.08300000      10.41100000      23.77200000
 H      22.29600000      10.75900000      24.51500000
 O      27.55400000       6.49800000      18.07700000
 H      26.95600000       6.81900000      17.38300000
 H      28.43300000       6.48800000      17.71800000
 O      19.81500000       6.14900000      24.89600000
 H      20.42100000       5.37700000      25.07200000
 H      19.06000000       5.83700000      25.42500000
 O      23.03500000      13.04000000      26.79500000
 H      23.56000000      13.68600000      27.28500000
 H      22.26500000      12.94600000      27.30400000
 O      19.85900000       3.02500000      15.56300000
 H      19.41000000       3.36800000      16.39600000
 H      20.23800000       3.84800000      15.29900000
 O      13.84300000      11.54400000      21.81000000
 H      14.52700000      11.17100000      21.18700000
 H      14.19600000      11.02100000      22.56000000
 O      17.86800000       9.60300000      20.19400000
 H      18.56600000       9.00300000      20.44100000
 H      18.26500000      10.47400000      20.50800000
 O      19.25100000       3.31200000      27.57800000
 H      19.21300000       3.47100000      28.54700000
 H      18.51200000       3.86100000      27.25700000
 O      18.84300000       5.35900000      20.97700000
 H      19.16300000       4.86300000      21.71500000
 H      19.29400000       6.27000000      21.17200000
 O      26.81200000       3.74300000      17.03700000
 H      26.03600000       4.03400000      16.45100000
 H      27.49400000       4.33600000      16.77900000
 O      18.78000000       3.26900000      18.21200000
 H      19.35800000       2.49500000      18.40400000
 H      18.05700000       3.02600000      18.87500000
 O      17.68600000       9.99600000      17.22000000
 H      18.30100000       9.89200000      18.01500000
 H      17.08900000      10.67400000      17.55000000
 O      27.29400000       1.36500000      22.61800000
 H      27.36200000       0.46700000      22.22400000
 H      27.81400000       1.90200000      21.98000000
 O      14.14900000       5.21300000      27.19000000
 H      13.90400000       4.63200000      27.90900000
 H      14.35400000       6.04400000      27.66300000
 O      17.66100000      10.87600000      26.48900000
 H      18.55700000      10.51700000      26.29200000
 H      17.34300000      11.12200000      25.56900000
