567
XYZ file of cluster: frame_12000_21dd6.9b322.c4504 - created by MolEdiTo
 O      20.38700000      35.60000000      35.27000000
 H      20.14300000      36.52500000      34.91400000
 H      19.63900000      35.06600000      34.86600000
 O       7.33600000      33.65500000      38.20500000
 H       6.80700000      34.46400000      38.16400000
 H       8.10700000      33.96200000      37.61500000
 O      15.46500000      31.01500000      35.96700000
 H      15.52500000      30.11700000      35.51800000
 H      15.84200000      30.71600000      36.83300000
 O      12.52000000      36.00100000      36.81600000
 H      13.23800000      35.44000000      36.59600000
 H      11.76400000      35.62100000      36.37500000
 O      31.32400000      33.72300000      37.12600000
 H      30.64700000      34.15500000      37.73600000
 H      31.49800000      32.94900000      37.71100000
 O      30.26800000      35.08600000      39.42800000
 H      29.63900000      34.30100000      39.59000000
 H      29.56000000      35.80000000      39.62500000
 O      25.51800000      32.80900000      34.30200000
 H      25.39900000      33.69000000      34.83300000
 H      25.74600000      33.24100000      33.45700000
 O      22.95100000      34.56100000      35.36600000
 H      22.18600000      35.18800000      35.17500000
 H      23.68300000      35.19100000      35.30100000
 O      10.34700000      30.25600000      40.47500000
 H      10.98200000      31.00500000      40.48700000
 H       9.76300000      30.52700000      39.72500000
 O      31.41000000      33.97400000      34.32400000
 H      31.22400000      34.94300000      34.22700000
 H      30.96400000      33.81900000      35.17800000
 O      17.60200000      39.09000000      39.70500000
 H      18.19000000      38.75200000      40.41500000
 H      17.60000000      40.04300000      39.92300000
 O      33.85300000      30.43000000      37.19200000
 H      33.69600000      30.56000000      38.16300000
 H      34.79500000      30.77300000      37.11900000
 O      16.75600000      34.97500000      36.45600000
 H      17.05600000      35.87400000      36.70700000
 H      17.08900000      34.40300000      37.19600000
 O      13.55600000      37.97400000      34.40500000
 H      12.84700000      37.78100000      35.05200000
 H      13.23800000      37.57100000      33.60600000
 O      40.55500000      32.17700000      36.79100000
 H      39.74100000      32.46900000      37.20400000
 H      41.11100000      32.05300000      37.61100000
 O      32.79900000      38.70500000      37.55100000
 H      32.97300000      37.80900000      37.18300000
 H      32.64700000      39.17500000      36.69200000
 O       9.87700000      34.53500000      36.16500000
 H       8.89700000      34.87100000      36.12400000
 H      10.12300000      34.83600000      35.28100000
 O      33.59200000      35.39100000      36.91000000
 H      34.10600000      34.79400000      36.32500000
 H      32.73100000      34.90400000      36.89900000
 O      17.73400000      38.24800000      36.94300000
 H      17.47400000      38.59600000      37.77500000
 H      18.60000000      38.60600000      36.85200000
 O      33.02600000      34.44700000      39.65100000
 H      33.20600000      34.99900000      38.88700000
 H      32.05500000      34.65700000      39.76400000
 O      40.62100000      39.28000000      36.00000000
 H      40.72000000      39.49400000      36.98800000
 H      39.88300000      39.93000000      35.78600000
 O      25.22500000      39.40600000      38.65500000
 H      25.02000000      40.26900000      39.11100000
 H      24.43800000      39.35400000      38.04500000
 O      37.98600000      38.37600000      38.77400000
 H      37.28100000      37.76500000      38.51300000
 H      37.56500000      39.20900000      38.71500000
 O      12.71200000      32.33800000      39.55400000
 H      12.10900000      32.40800000      38.78300000
 H      13.54300000      32.84900000      39.33000000
 O       7.65000000      35.73400000      36.27600000
 H       7.17700000      36.00000000      35.46100000
 H       7.95800000      36.60300000      36.60200000
 O      32.06700000      28.10900000      39.10400000
 H      32.91400000      28.50300000      39.43600000
 H      31.65500000      27.85300000      39.92500000
 O      28.94300000      39.79500000      34.10900000
 H      28.86300000      40.25900000      34.94600000
 H      29.78800000      40.27100000      33.81200000
 O      15.80300000      39.51800000      34.45700000
 H      16.25300000      39.01400000      35.20900000
 H      14.94900000      38.99400000      34.44800000
 O       6.47700000      39.92800000      37.12700000
 H       7.17600000      39.28600000      37.01800000
 H       5.76300000      39.37500000      37.52300000
 O      31.43700000      31.66700000      38.95900000
 H      31.03700000      30.84100000      39.29100000
 H      32.33700000      31.47700000      39.34400000
 O      25.44500000      35.78400000      34.81100000
 H      24.86100000      36.00500000      34.06300000
 H      26.32200000      36.14400000      34.43500000
 O      31.56800000      31.22000000      35.81000000
 H      32.27600000      30.92300000      36.46900000
 H      31.58500000      32.18000000      36.03500000
 O      29.34700000      29.67200000      35.98100000
 H      30.26800000      30.07000000      35.95600000
 H      28.84300000      30.51200000      35.73500000
 O      13.03900000      38.08800000      38.80100000
 H      13.03500000      37.43300000      38.08800000
 H      12.67100000      38.85500000      38.35800000
 O      21.82000000      30.06700000      38.86200000
 H      21.76200000      30.17900000      39.82600000
 H      21.85700000      30.97700000      38.54100000
 O      23.01200000      33.08100000      40.62600000
 H      22.56900000      32.32800000      41.11300000
 H      23.79500000      33.21500000      41.21700000
 O      33.77100000      30.50000000      39.82900000
 H      34.65500000      30.28000000      39.91700000
 H      33.38000000      30.31400000      40.73600000
 O      11.47300000      32.43700000      37.16800000
 H      10.98800000      31.76500000      36.61900000
 H      11.04900000      33.25700000      36.87600000
 O      24.37000000      36.09800000      40.62500000
 H      25.02400000      35.43500000      40.43200000
 H      24.61500000      36.80200000      39.99500000
 O      36.95900000      30.73800000      39.02000000
 H      36.68200000      30.00700000      39.60800000
 H      37.28600000      31.38600000      39.77000000
 O      21.63700000      36.15600000      37.50200000
 H      21.16100000      35.88500000      36.61400000
 H      21.26800000      35.37000000      38.00000000
 O      20.08800000      31.95800000      36.25600000
 H      19.96700000      31.94400000      35.30100000
 H      19.72800000      31.06000000      36.50400000
 O      29.25900000      29.26900000      38.94600000
 H      28.39400000      29.66200000      38.57900000
 H      29.70100000      29.13900000      38.06200000
 O      14.28000000      28.09700000      37.55900000
 H      15.09200000      28.41200000      37.15700000
 H      14.51300000      27.14600000      37.66200000
 O      10.18000000      38.44900000      35.53700000
 H       9.44100000      38.18200000      34.87200000
 H       9.64600000      38.34400000      36.36100000
 O      18.00900000      33.14600000      37.97200000
 H      18.84600000      32.76300000      37.59100000
 H      18.20700000      32.99900000      38.94400000
 O      27.66500000      31.90100000      35.52000000
 H      28.15200000      32.78000000      35.71400000
 H      27.03000000      32.28800000      34.89000000
 O      20.80500000      34.41200000      39.44800000
 H      20.03800000      33.89200000      39.63100000
 H      21.60600000      33.79600000      39.59200000
 O      27.04900000      30.29200000      37.62200000
 H      27.38000000      30.88100000      36.81500000
 H      26.39700000      30.94500000      37.95200000
 O      16.05800000      28.41500000      35.02000000
 H      15.67200000      27.83400000      34.33900000
 H      16.98400000      28.45400000      34.68900000
 O      36.43600000      31.92900000      36.77200000
 H      36.55900000      31.40500000      37.65800000
 H      37.02400000      32.64500000      37.00700000
 O       7.59800000      29.79500000      36.53300000
 H       7.34400000      28.88900000      36.68700000
 H       6.75200000      30.22900000      36.32700000
 O      22.31500000      32.62900000      37.70400000
 H      22.75400000      33.26200000      37.14600000
 H      21.57900000      32.30500000      37.06700000
 O       8.82800000      34.47400000      40.41800000
 H       9.58600000      33.84800000      40.58800000
 H       8.26000000      33.90500000      39.86700000
 O      40.34600000      37.09200000      34.57200000
 H      40.46300000      37.93800000      35.05100000
 H      40.12300000      37.45400000      33.66300000
 O      25.12400000      32.43600000      38.62500000
 H      25.65900000      33.21700000      38.42600000
 H      24.26400000      32.77300000      38.84900000
 O      34.17300000      38.43100000      39.91600000
 H      34.07100000      38.67800000      38.98800000
 H      33.26600000      38.43700000      40.23500000
 O      25.50000000      28.26000000      37.79700000
 H      25.31000000      28.66900000      38.68200000
 H      26.11900000      28.95900000      37.50100000
 O      20.63600000      38.78600000      38.76000000
 H      20.81600000      37.99900000      38.09500000
 H      20.93900000      38.33600000      39.57700000
 O       8.58300000      38.25500000      37.74700000
 H       8.33600000      37.93900000      38.63900000
 H       9.05800000      39.04900000      38.03800000
 O      37.61600000      30.94800000      34.27400000
 H      37.17600000      31.36100000      35.02600000
 H      36.97800000      31.01900000      33.54700000
 O      24.57000000      30.11600000      39.93900000
 H      23.71700000      30.38300000      40.39800000
 H      24.84800000      30.95500000      39.51800000
 O       8.46900000      31.07600000      38.67100000
 H       8.17000000      30.57800000      37.84400000
 H       7.90700000      31.85900000      38.60000000
 O      35.53800000      38.19300000      35.30200000
 H      35.01800000      38.10600000      34.42700000
 H      35.67900000      39.17900000      35.30100000
 O      27.21000000      27.59000000      35.38400000
 H      26.73000000      27.50600000      36.18100000
 H      27.76400000      28.35200000      35.49300000
 O       9.91700000      27.28900000      40.66100000
 H       9.72400000      27.12100000      39.71400000
 H      10.04200000      28.23500000      40.62800000
 O      38.28300000      33.80400000      36.99600000
 H      38.43200000      33.77400000      36.04400000
 H      38.67600000      34.63300000      37.26600000
 O      23.46500000      38.43900000      36.74000000
 H      22.86800000      37.75300000      37.22600000
 H      23.42600000      37.98200000      35.84800000
 O      10.02200000      30.49800000      35.89200000
 H       9.08000000      30.19200000      36.03200000
 H      10.47000000      29.84600000      36.49500000
 O      16.40600000      28.95600000      40.55400000
 H      15.50500000      29.16200000      40.20600000
 H      16.52300000      29.70800000      41.15800000
 O      33.85300000      27.49200000      36.80000000
 H      33.42300000      27.59800000      37.66600000
 H      34.16700000      28.42000000      36.66400000
 O      32.57600000      40.36400000      35.56100000
 H      33.41700000      40.88200000      35.70500000
 H      32.19500000      40.83600000      34.85200000
 O      16.70300000      29.82800000      38.00300000
 H      17.59900000      29.78900000      37.51600000
 H      17.00100000      29.49900000      38.86600000
 O      28.75100000      32.79700000      39.93200000
 H      27.85200000      33.11500000      40.25800000
 H      28.87200000      31.95400000      40.28200000
 O      19.33400000      29.24700000      37.16400000
 H      20.14500000      29.40700000      37.69300000
 H      19.46500000      28.24300000      36.98300000
 O      14.31300000      34.20400000      35.62000000
 H      15.18800000      34.52800000      35.94700000
 H      14.38400000      33.24500000      35.88600000
 O      39.81600000      36.65200000      37.59900000
 H      39.97200000      37.07500000      36.70400000
 H      39.25400000      37.37500000      37.95300000
 O      22.94400000      29.96900000      36.25200000
 H      22.78700000      29.35600000      36.95900000
 H      23.32100000      30.73800000      36.74000000
 O      11.69800000      28.44800000      36.64000000
 H      12.55100000      28.29200000      37.00600000
 H      11.80900000      28.34800000      35.66600000
 O      15.63200000      37.07300000      39.67000000
 H      14.88300000      37.66700000      39.49800000
 H      16.36000000      37.72500000      39.63200000
 O       8.82200000      37.62100000      40.30600000
 H       8.70200000      36.66100000      40.45900000
 H       9.79900000      37.75800000      40.47900000
 O      30.72500000      36.89800000      35.09300000
 H      30.38300000      37.30400000      35.88100000
 H      31.08900000      37.62600000      34.57400000
 O      29.83300000      38.53000000      36.89300000
 H      30.15100000      39.15000000      37.60400000
 H      28.87900000      38.54900000      37.19300000
 O      12.42300000      39.58900000      36.66000000
 H      13.16300000      39.22100000      36.12300000
 H      11.67700000      39.00900000      36.23500000
 O      16.87400000      32.21600000      34.07100000
 H      16.38700000      31.87600000      34.87300000
 H      16.91500000      31.36200000      33.53400000
 O      15.05000000      33.82200000      39.41600000
 H      15.50400000      33.52100000      38.61000000
 H      15.07200000      34.81600000      39.25800000
 O      37.58600000      28.14400000      37.88000000
 H      37.75500000      28.16700000      36.86900000
 H      37.70800000      29.08000000      38.10500000
 O      13.69800000      29.30400000      39.90100000
 H      13.61300000      28.90400000      39.02900000
 H      13.35500000      30.21500000      39.73300000
 O      18.27100000      34.47100000      34.38400000
 H      17.77500000      33.64500000      34.21300000
 H      17.80100000      34.72300000      35.22000000
 O      29.72700000      40.55600000      39.01600000
 H      29.09800000      41.16900000      39.50200000
 H      30.33000000      40.38400000      39.74000000
 O      28.63700000      34.50100000      35.45100000
 H      29.43900000      35.05700000      35.51400000
 H      27.99300000      35.26100000      35.26000000
 O      36.16100000      36.93800000      37.64700000
 H      35.98500000      37.56600000      36.88000000
 H      35.25500000      36.54400000      37.65300000
 O      37.65300000      28.49700000      35.29600000
 H      37.83900000      29.41500000      34.90600000
 H      36.94600000      28.25600000      34.65800000
 O      27.29100000      38.14400000      37.42500000
 H      26.77700000      38.59100000      38.01200000
 H      26.70000000      37.65200000      36.84400000
 O      35.11400000      33.66600000      35.30100000
 H      35.90200000      33.90800000      34.79600000
 H      35.42100000      32.87100000      35.78400000
 O      16.93000000      32.81300000      47.25100000
 H      17.80800000      33.24400000      47.48300000
 H      17.24000000      31.87100000      47.10500000
 O      29.76400000      32.74500000      46.97300000
 H      30.69100000      32.92800000      46.65200000
 H      29.76700000      33.38000000      47.72700000
 O      40.27900000      34.38300000      47.30900000
 H      39.78100000      33.56900000      47.46900000
 H      39.87300000      35.04600000      47.86400000
 O      13.87200000      38.35500000      44.71300000
 H      14.48500000      38.81100000      45.30100000
 H      14.42100000      37.57100000      44.55200000
 O      30.19700000      30.34600000      42.89700000
 H      29.89300000      29.64400000      42.26000000
 H      29.71000000      30.10000000      43.71000000
 O      19.48000000      38.29400000      43.22600000
 H      20.29400000      37.77600000      43.04600000
 H      19.04200000      37.64900000      43.86900000
 O       6.96000000      38.64900000      43.63800000
 H       7.73800000      38.24300000      43.16800000
 H       6.44300000      37.83700000      43.71800000
 O      33.25500000      27.57500000      47.49400000
 H      33.97300000      28.10000000      47.89800000
 H      33.48500000      26.68700000      47.84000000
 O      11.14800000      32.78400000      43.47600000
 H      11.59700000      32.26600000      44.21900000
 H      11.95400000      32.93000000      42.92400000
 O      29.11100000      29.92700000      45.16800000
 H      28.22100000      29.69100000      45.55300000
 H      29.50400000      30.51700000      45.79400000
 O      37.56400000      27.45200000      48.86600000
 H      37.92000000      27.90100000      48.06800000
 H      37.64600000      26.53400000      48.49500000
 O      18.76500000      32.69400000      42.36500000
 H      19.18900000      32.40400000      43.24700000
 H      17.90700000      32.17900000      42.40800000
 O      12.88900000      37.74000000      48.19800000
 H      13.87500000      37.64500000      48.34000000
 H      12.73300000      37.19300000      47.39100000
 O      35.67000000      28.99600000      45.30900000
 H      36.45800000      28.50300000      45.32400000
 H      34.95300000      28.33000000      45.50800000
 O       9.18500000      40.01800000      48.45500000
 H       9.18800000      39.04300000      48.22600000
 H      10.15400000      40.21300000      48.25600000
 O      36.89100000      35.33500000      45.77700000
 H      36.20000000      34.70500000      45.45300000
 H      37.56600000      35.10300000      45.07000000
 O      11.63100000      38.03200000      42.88300000
 H      12.41900000      38.00400000      43.44600000
 H      12.03300000      38.08100000      42.00000000
 O      35.88100000      30.61000000      47.80800000
 H      36.07800000      29.95600000      47.11300000
 H      35.63900000      29.97000000      48.55800000
 O      12.25200000      34.89300000      46.85100000
 H      11.87300000      34.03400000      47.15100000
 H      11.44100000      35.32200000      46.41900000
 O      26.65000000      34.32800000      42.53700000
 H      26.01900000      34.06400000      43.23400000
 H      27.25200000      34.96900000      42.97100000
 O      17.19100000      37.06800000      48.74100000
 H      17.14900000      37.75500000      48.09200000
 H      16.40700000      36.50300000      48.51700000
 O      14.57200000      27.26200000      48.56000000
 H      14.83400000      28.19400000      48.37700000
 H      15.27700000      26.76600000      48.05800000
 O      31.07500000      37.27100000      43.16200000
 H      31.37200000      36.49100000      42.62800000
 H      30.15000000      37.37800000      42.80100000
 O      28.86100000      39.67500000      46.59000000
 H      29.58400000      39.45600000      47.19200000
 H      29.23500000      40.48700000      46.16300000
 O      26.61700000      38.71200000      47.66600000
 H      26.75600000      38.26700000      48.51500000
 H      27.49600000      39.10200000      47.52800000
 O      32.01200000      30.59200000      46.85200000
 H      32.38300000      31.47700000      46.97600000
 H      32.12300000      30.20900000      47.72000000
 O      13.67300000      28.62600000      44.12800000
 H      12.90400000      28.03700000      44.03400000
 H      13.77300000      28.81400000      43.14700000
 O      15.80500000      39.49100000      46.96600000
 H      16.69900000      39.80200000      46.81000000
 H      15.67600000      39.65900000      47.94800000
 O      32.92300000      29.95100000      43.89100000
 H      32.65300000      30.42400000      44.74700000
 H      32.48200000      29.13600000      43.99000000
 O      39.21700000      34.53000000      44.14900000
 H      39.96500000      34.50400000      44.81000000
 H      39.33700000      35.40600000      43.74400000
 O      25.87700000      28.23900000      43.28800000
 H      25.52000000      28.81500000      42.56500000
 H      26.06700000      28.87100000      43.97700000
 O      36.02500000      29.07700000      42.65500000
 H      35.38400000      28.34500000      42.90300000
 H      36.22900000      29.38200000      43.56100000
 O      37.69900000      32.46900000      42.38600000
 H      36.90500000      32.32100000      42.87300000
 H      38.28700000      32.81300000      43.07600000
 O      34.23400000      34.13000000      43.70300000
 H      33.61900000      34.21600000      42.90600000
 H      34.99600000      34.65500000      43.31500000
 O      30.48200000      38.17700000      48.36300000
 H      30.44500000      37.48800000      47.60100000
 H      29.78500000      37.84700000      48.94700000
 O      34.19200000      38.32900000      44.35200000
 H      34.53400000      37.57400000      43.85000000
 H      34.01200000      37.95500000      45.22600000
 O      20.84800000      33.08600000      47.25500000
 H      21.11600000      33.99200000      47.00700000
 H      20.24700000      33.25800000      47.96600000
 O      31.60100000      39.90600000      43.02100000
 H      31.51600000      39.03000000      43.27500000
 H      32.56400000      40.06100000      43.10300000
 O      30.49800000      35.88500000      45.73000000
 H      30.76900000      36.37100000      44.93500000
 H      31.04500000      35.05300000      45.61500000
 O      39.95300000      30.07500000      43.55700000
 H      39.18600000      30.41700000      44.04000000
 H      40.68200000      30.59800000      43.95300000
 O      16.41900000      28.39600000      44.69800000
 H      15.44000000      28.44700000      44.75800000
 H      16.50300000      28.20800000      43.72900000
 O      24.00200000      37.91100000      44.80900000
 H      23.92200000      37.34700000      45.58400000
 H      24.18600000      37.26300000      44.11100000
 O      38.55900000      28.58200000      46.03000000
 H      39.20700000      28.24000000      45.44700000
 H      38.51000000      29.50600000      45.73500000
 O      23.07200000      35.82100000      47.96300000
 H      23.59800000      35.15600000      48.42300000
 H      23.18300000      36.59100000      48.58800000
 O      39.44500000      37.27100000      42.69400000
 H      40.36800000      37.30400000      42.32500000
 H      38.95500000      37.74400000      42.01200000
 O      35.63700000      32.01900000      44.50200000
 H      35.19800000      32.80100000      44.16600000
 H      34.91200000      31.35700000      44.58500000
 O      29.59900000      30.76400000      48.75800000
 H      29.79900000      31.48000000      48.09600000
 H      30.45400000      30.69600000      49.18800000
 O      32.55600000      33.47900000      45.72700000
 H      33.38900000      33.79300000      45.27700000
 H      32.07000000      33.26000000      44.85600000
 O      11.23300000      32.55300000      47.71100000
 H      10.83300000      32.10300000      48.47800000
 H      11.92200000      31.83000000      47.47200000
 O      23.42100000      29.38600000      47.77300000
 H      23.81800000      28.95700000      48.56100000
 H      23.38600000      28.57700000      47.15100000
 O      13.24200000      31.29000000      44.42400000
 H      13.46900000      30.35000000      44.37900000
 H      14.05500000      31.80100000      44.48500000
 O      18.44600000      35.90100000      44.97300000
 H      19.19500000      36.18800000      45.51100000
 H      18.34300000      34.99800000      45.35200000
 O      26.55000000      29.73600000      46.23000000
 H      26.71300000      30.58200000      46.64900000
 H      25.87500000      29.36100000      46.75200000
 O      19.89200000      31.55700000      44.58500000
 H      20.42700000      31.97100000      45.30600000
 H      19.30000000      30.99200000      45.12800000
 O      10.49100000      29.57400000      44.91400000
 H       9.66700000      29.04500000      44.80800000
 H      10.60000000      29.96800000      44.01500000
 O      22.53900000      40.47900000      45.10500000
 H      22.12600000      40.72600000      44.22600000
 H      23.15100000      39.75300000      44.80400000
 O      32.59400000      39.86300000      48.05800000
 H      32.02600000      40.43800000      47.42700000
 H      31.85500000      39.33700000      48.42300000
 O      38.38700000      31.34000000      45.30800000
 H      38.44300000      31.73200000      46.25000000
 H      37.41300000      31.52000000      45.16700000
 O      35.85800000      39.95400000      45.65200000
 H      35.18000000      39.42100000      45.16900000
 H      36.54200000      39.29700000      45.86000000
 O      31.13400000      33.03400000      43.48000000
 H      31.36100000      33.14800000      42.56700000
 H      30.86200000      32.12500000      43.56100000
 O      29.96100000      27.99900000      48.79400000
 H      29.23800000      27.45100000      48.42200000
 H      29.68100000      28.87800000      48.64500000
 O      30.97500000      27.61400000      46.05600000
 H      30.18900000      27.98500000      46.42700000
 H      31.61500000      27.68700000      46.78500000
 O      17.89200000      30.43100000      46.94000000
 H      17.14700000      29.84500000      46.56300000
 H      17.91200000      29.97100000      47.83900000
 O       9.21000000      32.87000000      45.45500000
 H       9.91200000      32.36000000      45.95800000
 H       9.54000000      32.78800000      44.51700000
 O      15.81100000      35.91000000      44.19800000
 H      15.69000000      36.13700000      43.21800000
 H      16.79300000      36.02300000      44.29500000
 O      15.26200000      33.11500000      44.68600000
 H      15.76300000      33.33900000      45.49000000
 H      14.94300000      33.97000000      44.38900000
 O      39.59400000      40.65500000      45.44700000
 H      39.00800000      39.94700000      45.78300000
 H      40.27100000      40.24000000      44.91400000
 O      34.54600000      33.10300000      48.37800000
 H      34.59600000      32.22000000      47.97800000
 H      33.78600000      33.53000000      47.98300000
 O       6.64100000      34.12600000      44.90700000
 H       7.34000000      34.70900000      45.18100000
 H       6.25500000      34.50100000      44.13100000
 O      20.53500000      37.12700000      47.06700000
 H      20.50600000      37.69900000      47.89600000
 H      21.41400000      36.75400000      47.21100000
 O      37.94700000      32.30200000      48.29900000
 H      37.09800000      31.80800000      48.10000000
 H      38.06500000      32.08600000      49.22500000
 O      21.80400000      28.06500000      43.94300000
 H      21.11600000      27.38800000      43.97700000
 H      22.38900000      27.81500000      44.74500000
 O      25.24800000      32.91700000      44.63600000
 H      24.61600000      32.53400000      45.33800000
 H      26.05500000      32.64500000      45.08400000
 O      16.22900000      31.51100000      42.82700000
 H      16.12900000      32.22100000      43.56800000
 H      15.55000000      31.79400000      42.20200000
 O       9.03300000      37.33800000      47.50500000
 H       8.61200000      36.45500000      47.68600000
 H       9.66300000      36.94800000      46.77900000
 O      11.89100000      40.19700000      48.15200000
 H      12.41300000      40.64400000      47.44000000
 H      12.48100000      39.37000000      48.19300000
 O      36.23700000      35.63700000      42.52900000
 H      35.88000000      36.33400000      41.88400000
 H      37.20200000      35.71600000      42.39800000
 O      22.92800000      40.37200000      48.23900000
 H      22.83200000      40.31100000      47.24600000
 H      21.96800000      40.34400000      48.44600000
 O      21.63900000      37.02800000      42.54200000
 H      21.17900000      36.20200000      42.15200000
 H      22.52300000      36.78600000      42.28500000
 O      33.63100000      37.38800000      47.60400000
 H      33.10600000      36.69300000      48.04200000
 H      33.15800000      38.18900000      47.90800000
 O      21.80800000      30.52100000      43.10200000
 H      21.98000000      29.59300000      43.41700000
 H      21.01800000      30.73500000      43.62500000
 O      27.33700000      32.20100000      47.06200000
 H      27.39300000      32.56000000      48.01100000
 H      28.22100000      32.60000000      46.78100000
 O       8.19100000      28.27900000      46.28700000
 H       7.70800000      29.06900000      46.42500000
 H       8.40400000      28.03500000      47.19500000
 O      20.17700000      40.78500000      43.28300000
 H      20.08600000      39.80800000      43.26600000
 H      19.95100000      41.03000000      42.37100000
 O      12.05100000      29.79000000      47.52700000
 H      12.02200000      28.88000000      47.87400000
 H      11.63300000      29.60200000      46.64800000
 O      14.69100000      34.99900000      48.33700000
 H      14.15100000      34.83700000      47.56500000
 H      14.08600000      34.57900000      49.01800000
 O       8.21600000      34.29600000      48.25300000
 H       8.40100000      33.71700000      47.50800000
 H       8.70200000      33.81400000      48.99800000
 O      10.26700000      35.95200000      44.74400000
 H      10.74500000      36.73100000      44.30300000
 H      10.13600000      35.35300000      44.03800000
 O       7.08100000      30.94800000      45.16500000
 H       7.42900000      31.84900000      45.02400000
 H       6.63300000      30.84000000      44.27800000
 O      27.77000000      36.85900000      44.80000000
 H      28.31400000      36.48700000      45.52400000
 H      27.13100000      37.43800000      45.30400000
 O      23.41500000      32.03500000      46.70900000
 H      22.51800000      32.34200000      46.78100000
 H      23.44200000      31.29700000      47.35200000
 O      38.10500000      38.29300000      46.78700000
 H      37.69600000      37.39800000      46.66900000
 H      38.57500000      38.12700000      47.64600000
 O      28.56400000      37.40000000      42.30300000
 H      28.29400000      38.29600000      41.99200000
 H      28.14600000      37.36900000      43.17800000
 O      14.83600000      29.76600000      47.92600000
 H      13.91400000      29.76000000      47.54600000
 H      14.74000000      30.46700000      48.56300000
