318
XYZ file of cluster: frame_3000_49c1a.13f0.22368 - created by MolEdiTo
 O      21.64300000      13.58400000      19.79000000
 H      22.26600000      13.04900000      19.27200000
 H      21.02700000      13.84900000      19.01800000
 O      17.39900000      12.63000000       6.09100000
 H      17.94800000      11.82800000       5.80500000
 H      17.36900000      12.41400000       7.04300000
 O      23.25800000       1.61800000       6.25200000
 H      22.35400000       1.73000000       6.56700000
 H      23.79800000       1.89200000       6.97700000
 O      20.95400000       9.65000000      18.36700000
 H      21.82500000       9.17400000      18.52000000
 H      20.34300000       8.84400000      18.32900000
 O      21.53400000      12.31900000       6.49800000
 H      22.07400000      12.09400000       7.34200000
 H      20.83000000      12.83600000       6.98600000
 O      18.82500000       7.57300000      15.51400000
 H      19.43200000       8.31400000      15.22400000
 H      17.96800000       8.08200000      15.63000000
 O      15.95600000       6.76400000      14.81800000
 H      16.83400000       6.70800000      14.39600000
 H      16.03500000       7.65900000      15.26600000
 O      16.35200000       4.03800000      17.85100000
 H      15.86700000       3.80000000      17.03300000
 H      15.66500000       3.83400000      18.55200000
 O      15.88400000      13.69500000      13.77700000
 H      16.49700000      14.39700000      14.00200000
 H      15.74200000      13.77300000      12.80700000
 O      15.11900000      13.79000000      11.15700000
 H      14.16600000      13.90200000      11.32700000
 H      15.14300000      13.89000000      10.17300000
 O      19.76500000       5.12200000      15.46900000
 H      19.27500000       5.96800000      15.50000000
 H      19.83200000       5.00300000      14.51700000
 O      19.31800000       1.08900000      12.46800000
 H      19.44000000       1.67100000      13.27500000
 H      19.29500000       0.21200000      12.90700000
 O      21.63000000      12.73300000      11.91600000
 H      22.03200000      13.49700000      11.47200000
 H      22.21200000      11.99300000      11.64600000
 O      23.99100000       8.02300000      16.08900000
 H      23.43600000       7.19200000      15.85400000
 H      24.79200000       7.76900000      15.44300000
 O      15.80200000       5.60300000      10.75300000
 H      16.07700000       5.28900000      11.65500000
 H      16.01100000       4.78100000      10.21800000
 O      13.25600000      10.27800000      10.11100000
 H      14.25600000      10.26600000      10.15300000
 H      13.17200000       9.25500000      10.04100000
 O      14.88700000      10.58500000      19.91800000
 H      14.07400000      10.11100000      20.26700000
 H      14.62900000      11.48800000      20.17400000
 O      26.74900000       8.07300000      11.80100000
 H      26.15300000       7.59600000      11.20100000
 H      26.23700000       8.91600000      11.88600000
 O      16.37200000       1.70800000      11.56600000
 H      17.31800000       1.71900000      11.55600000
 H      16.23500000       2.49800000      10.92000000
 O      25.91200000      13.38300000      10.96700000
 H      26.58800000      13.41400000      10.22500000
 H      26.25400000      14.02300000      11.57600000
 O      19.00600000      10.67500000      21.30800000
 H      18.29400000      11.29300000      21.10700000
 H      19.04400000      10.21700000      20.42000000
 O      17.57700000       4.99500000      12.99200000
 H      17.61800000       4.07100000      13.39200000
 H      18.50500000       5.21000000      12.88900000
 O      23.47500000      13.78600000       9.72500000
 H      24.25700000      13.62600000      10.22700000
 H      23.81700000      14.26300000       8.94800000
 O      24.79000000       2.12000000       8.43100000
 H      25.37200000       1.44200000       8.80300000
 H      25.16300000       2.93700000       8.88400000
 O      26.61000000       3.08100000      15.03700000
 H      27.14300000       3.95300000      15.26000000
 H      27.26300000       2.58700000      14.56100000
 O      21.40000000       4.11100000       8.76900000
 H      21.03300000       4.69800000       9.52700000
 H      22.12200000       3.68400000       9.27300000
 O      21.19500000       6.47500000       9.95600000
 H      22.03000000       6.92600000       9.96000000
 H      20.71200000       6.82000000       9.22800000
 O      13.23800000       7.49500000      10.58200000
 H      14.00500000       7.01400000      10.18400000
 H      13.48900000       7.30100000      11.55900000
 O      14.01200000       1.54100000      14.09900000
 H      13.78400000       1.98500000      13.26200000
 H      13.86800000       0.60000000      13.85900000
 O      19.39900000      10.39200000       6.28000000
 H      19.39100000      10.33300000       7.26200000
 H      20.16300000      11.00000000       6.14400000
 O      25.91400000       6.24500000      18.28500000
 H      25.90300000       5.33100000      18.06500000
 H      26.30200000       6.70100000      17.52100000
 O      27.73600000       2.28800000      11.04900000
 H      27.94000000       1.95200000      11.93700000
 H      27.48500000       1.50900000      10.51700000
 O      13.42000000       7.27500000      13.46900000
 H      13.23000000       8.10300000      13.92000000
 H      14.32500000       7.07400000      13.77700000
 O      15.87100000      10.44700000      11.06600000
 H      16.60900000       9.75400000      11.00500000
 H      16.08400000      10.75500000      12.02500000
 O      27.06300000      13.57300000      19.24300000
 H      26.52400000      12.99400000      18.67200000
 H      27.99500000      13.42700000      18.91500000
 O      22.60600000       8.01800000      12.02000000
 H      23.11300000       7.20400000      11.75000000
 H      21.85300000       7.59200000      12.51700000
 O      15.81100000       7.20200000       8.39900000
 H      15.81600000       6.59600000       9.18500000
 H      16.77600000       7.48200000       8.45600000
 O      19.52100000       7.49700000      18.21600000
 H      18.56100000       7.27700000      18.42700000
 H      19.47200000       7.30600000      17.25600000
 O      27.18100000       2.11600000       6.55700000
 H      26.29900000       2.15700000       7.03400000
 H      27.14100000       3.04900000       6.23200000
 O      26.09500000      10.86300000      14.70200000
 H      25.77900000      10.84400000      13.78200000
 H      26.77500000      11.59500000      14.64900000
 O      22.66200000       8.35100000       8.69200000
 H      23.22500000       8.93400000       8.08100000
 H      22.00700000       8.99600000       8.98000000
 O      23.90700000       3.35200000      14.55400000
 H      23.86200000       4.29900000      14.88800000
 H      24.88700000       3.26100000      14.50500000
 O      26.13700000      11.01800000      12.09500000
 H      25.92800000      11.91100000      11.79400000
 H      27.08100000      10.88100000      11.94600000
 O      13.60500000       2.25200000      11.50200000
 H      13.56400000       2.72200000      10.66100000
 H      14.58900000       2.28200000      11.68200000
 O      20.04200000       6.37000000       7.08900000
 H      20.46600000       6.06400000       6.17900000
 H      20.08000000       5.54400000       7.61300000
 O      19.31600000      13.96400000      13.15300000
 H      19.25100000      13.96800000      12.11800000
 H      20.18700000      13.50800000      13.21800000
 O      20.39400000       4.77900000      20.28200000
 H      20.39500000       5.50300000      19.69100000
 H      21.25300000       4.40100000      20.16000000
 O      16.69900000      11.12500000      13.80400000
 H      17.57100000      11.39400000      14.17300000
 H      16.24800000      12.00400000      13.85300000
 O      17.74600000       8.49300000      11.06800000
 H      17.91400000       8.17200000      11.97600000
 H      18.01700000       7.80600000      10.51600000
 O      17.41000000       9.51700000      19.46200000
 H      17.23000000       8.82400000      18.83600000
 H      16.52800000       9.76300000      19.76200000
 O      16.94100000       6.94200000      17.96300000
 H      15.96900000       7.10200000      17.82200000
 H      16.91300000       5.97200000      17.77300000
 O      23.62800000       5.01300000       6.93700000
 H      23.01600000       4.71700000       6.23800000
 H      23.01900000       5.12000000       7.66700000
 O      13.70800000       7.91600000       6.84100000
 H      14.26000000       7.50900000       7.56300000
 H      13.66500000       7.16400000       6.21400000
 O      23.06800000      10.47900000      15.24400000
 H      23.94400000      10.88400000      15.02700000
 H      23.35200000       9.65500000      15.67500000
 O      24.92100000       7.23500000      10.10600000
 H      25.59300000       6.99500000       9.47900000
 H      24.26000000       7.65500000       9.51200000
 O      23.19600000      11.45100000       8.68700000
 H      23.17300000      10.96000000       9.54800000
 H      23.18700000      12.36900000       8.99300000
 O      26.11600000       6.81800000      14.78500000
 H      26.37700000       7.17400000      13.87500000
 H      26.93700000       6.28500000      15.00600000
 O      14.12400000       7.00300000      17.53600000
 H      13.81400000       6.32500000      16.92100000
 H      13.55100000       7.74100000      17.25700000
 O      19.01400000      11.55800000      18.12600000
 H      18.31300000      10.95400000      18.31600000
 H      19.87800000      10.99300000      18.35400000
 O      22.53000000       2.47400000      10.38300000
 H      22.33600000       1.59200000      10.73200000
 H      23.47000000       2.60200000      10.63600000
 O      25.62900000      11.44900000       7.22200000
 H      24.87800000      11.65800000       7.76900000
 H      25.17900000      10.74000000       6.62200000
 O      15.01100000       1.21000000      16.73200000
 H      15.91300000       0.77100000      16.51600000
 H      14.75000000       1.38100000      15.77600000
 O      17.10100000      11.77300000       8.56300000
 H      16.87300000      11.46000000       9.43600000
 H      16.45900000      11.14500000       8.03500000
 O      13.60500000      12.90600000      15.34300000
 H      14.42600000      13.26800000      15.02700000
 H      13.45200000      12.19600000      14.72200000
 O      16.28700000       3.25100000       9.22000000
 H      16.71000000       3.35700000       8.33700000
 H      15.38100000       3.04800000       8.89600000
 O      18.50600000       7.80200000       8.50400000
 H      18.99200000       7.33600000       7.77100000
 H      19.07000000       8.57800000       8.60500000
 O      22.70600000       5.80500000      15.76400000
 H      22.92300000       5.22700000      16.48600000
 H      21.75400000       5.58500000      15.67600000
 O      22.65600000       7.75400000      21.19400000
 H      22.56900000       7.90400000      20.20400000
 H      23.64000000       7.64000000      21.25200000
 O      23.33100000       3.70600000      20.68400000
 H      23.58500000       2.81300000      20.77300000
 H      24.09800000       4.25200000      20.99900000
 O      26.31400000       2.33000000      20.44800000
 H      26.30700000       2.33300000      19.45400000
 H      26.88300000       3.15900000      20.54000000
 O      26.79000000       9.08600000      20.75200000
 H      26.75200000       9.70300000      21.56600000
 H      27.19000000       9.69800000      20.10500000
 O      18.99600000      11.56400000      15.41200000
 H      19.78300000      12.20400000      15.27500000
 H      18.92900000      11.67300000      16.39600000
 O      23.29900000      10.40800000      11.17500000
 H      24.03500000      10.53700000      11.84500000
 H      23.08100000       9.45700000      11.39200000
 O      26.10500000       2.56900000      17.58400000
 H      26.23200000       2.87000000      16.68700000
 H      26.62600000       1.71100000      17.57400000
 O      27.89200000      10.50600000      18.87300000
 H      27.56900000      11.26800000      18.33200000
 H      28.08700000       9.87400000      18.17700000
 O      28.20500000       9.64300000      16.36000000
 H      27.37300000       9.89500000      15.93300000
 H      28.79300000       9.84500000      15.63200000
 O      25.31100000       6.95100000      21.01400000
 H      25.54100000       6.80300000      20.05000000
 H      25.97900000       7.66600000      21.19600000
 O      25.56800000      12.02200000      17.31200000
 H      25.13700000      11.66200000      18.06400000
 H      25.28000000      11.42400000      16.55900000
 O      17.82900000      13.72100000      19.15800000
 H      18.48200000      14.21800000      18.64100000
 H      17.83200000      12.90900000      18.64000000
 O      13.17400000       9.84800000      14.42800000
 H      12.59300000      10.05500000      13.62700000
 H      13.96400000      10.38300000      14.14400000
 O      22.89200000       5.08400000      12.49800000
 H      23.12400000       4.48600000      13.19500000
 H      23.44400000       4.71000000      11.75800000
 O      20.66200000      10.09400000       9.15300000
 H      20.97200000      11.02300000       8.96400000
 H      20.32000000      10.26300000      10.05800000
 O      20.26700000       5.36100000      12.63900000
 H      20.23900000       5.79600000      11.74600000
 H      21.22000000       5.17400000      12.69000000
 O      14.63200000       5.57700000      19.60200000
 H      14.38500000       6.36800000      20.12400000
 H      14.35600000       5.96900000      18.71400000
 O      20.77600000       2.32000000       6.73200000
 H      20.05400000       2.72500000       6.26900000
 H      20.95800000       2.98100000       7.41400000
 O      13.59000000       1.84200000      18.89300000
 H      14.25300000       1.74900000      18.17300000
 H      13.45300000       0.90700000      19.12800000
 O      23.29400000       3.99500000      17.55500000
 H      24.04900000       3.64200000      18.07500000
 H      22.62300000       3.29000000      17.93300000
 O      22.33500000       1.13000000      14.21700000
 H      21.53300000       1.48700000      14.63800000
 H      22.88200000       1.90200000      14.32800000
 O      26.12700000       4.66000000       9.01200000
 H      27.10000000       4.51300000       8.96200000
 H      25.90500000       4.99400000       8.12500000
 O      20.46900000       9.48200000      14.43700000
 H      21.36100000       9.91100000      14.60300000
 H      19.90900000      10.27900000      14.57900000
 O      20.06300000       0.92100000      21.08800000
 H      19.32700000       1.39100000      21.49200000
 H      19.66200000       0.45400000      20.36700000
 O      16.67500000       9.11800000      15.80100000
 H      16.01000000       9.75200000      16.24200000
 H      16.81000000       9.63400000      14.98200000
 O      19.84600000      12.66700000       8.78400000
 H      18.95200000      12.28800000       8.64400000
 H      19.69600000      13.43800000       9.33100000
 O      24.46800000      11.04900000      19.44300000
 H      24.33900000      10.15200000      19.82600000
 H      24.29800000      11.55200000      20.26800000
 O      27.03000000       7.91900000       7.66500000
 H      27.06600000       8.65000000       7.03100000
 H      27.77100000       8.10900000       8.28300000
 O      17.15400000       2.46300000      14.28100000
 H      16.39100000       2.88200000      14.72400000
 H      16.64600000       1.86100000      13.69900000
 O      21.58800000      12.77100000      15.09800000
 H      22.26500000      12.14800000      14.82200000
 H      21.92300000      13.15900000      15.91800000
 O      25.16100000       3.45600000      11.38400000
 H      25.45000000       4.04100000      10.67200000
 H      26.00000000       2.93700000      11.51900000
 O      14.98600000      10.64700000      17.00900000
 H      14.44700000      11.50800000      17.03700000
 H      14.92300000      10.32800000      17.92000000
 O      15.35300000       4.17900000      15.21400000
 H      15.64100000       5.05400000      14.91100000
 H      14.34400000       4.33100000      15.30100000
 O      18.01900000       2.35000000      19.18900000
 H      17.59300000       2.98500000      18.62000000
 H      18.18700000       2.83100000      20.02500000
 O      19.91900000       2.31900000      15.06200000
 H      18.99300000       2.42900000      14.88500000
 H      20.22200000       3.15700000      15.38800000
 O      20.17000000      10.41300000      11.84300000
 H      20.50500000       9.93600000      12.58400000
 H      20.45300000      11.34800000      12.02600000
 O      23.24700000       8.25600000      18.53100000
 H      23.46700000       8.57600000      17.59000000
 H      23.93200000       7.50500000      18.52200000
 O      21.82500000       1.85400000      18.58500000
 H      21.04300000       2.08200000      19.16500000
 H      22.24500000       1.21000000      19.17600000
 O      25.33700000      14.14000000      15.19500000
 H      26.12900000      13.55900000      15.39900000
 H      25.75100000      14.75400000      14.58000000
