303
XYZ file of cluster: frame_3000_724ad.787ec.10e1 - created by MolEdiTo
 O      26.83400000      33.18800000       7.38100000
 H      25.93900000      32.74400000       7.28300000
 H      26.95400000      33.10000000       8.37300000
 O      27.88100000      30.12200000       6.88100000
 H      27.01000000      30.34600000       7.23300000
 H      27.78200000      29.12800000       6.93900000
 O      22.65200000      25.32100000       3.41600000
 H      22.74900000      24.43900000       3.82000000
 H      21.74200000      25.56100000       3.74200000
 O      24.94900000      30.79900000      11.12900000
 H      24.41800000      30.30600000      10.48700000
 H      25.67600000      30.06800000      11.28900000
 O      29.39700000      30.94500000      10.57800000
 H      29.01000000      31.48400000      11.32600000
 H      30.34000000      31.32700000      10.60700000
 O      20.78300000      24.53700000       9.12700000
 H      20.45500000      23.91200000       9.84100000
 H      21.38400000      25.09600000       9.63600000
 O      22.87900000      29.56600000       9.60900000
 H      22.13600000      29.19700000      10.15200000
 H      22.62800000      30.49300000       9.64100000
 O      27.21600000      24.95700000      13.49200000
 H      27.71500000      25.56600000      14.05200000
 H      27.40200000      24.11300000      13.93800000
 O      31.79100000      35.11800000       8.83900000
 H      31.58000000      34.20600000       8.57400000
 H      31.15200000      35.63600000       8.29900000
 O      26.68900000      25.39600000       5.96800000
 H      26.07400000      25.70200000       5.22100000
 H      27.08500000      26.26500000       6.16700000
 O      29.94000000      30.52500000      14.04400000
 H      29.77200000      30.63400000      15.01500000
 H      29.71500000      31.37000000      13.72300000
 O      31.65800000      32.98700000       4.70900000
 H      30.83900000      32.63200000       4.28800000
 H      31.26800000      33.12900000       5.66400000
 O      28.34500000      35.33700000       1.57200000
 H      28.24100000      34.46100000       1.97700000
 H      29.27900000      35.55200000       1.85500000
 O      33.14200000      31.51600000       2.84800000
 H      32.61700000      32.09600000       3.52800000
 H      33.19800000      30.69200000       3.41300000
 O      24.28300000      31.85300000       7.22200000
 H      23.43900000      32.41000000       7.22800000
 H      23.93200000      31.01200000       6.92800000
 O      28.35100000      21.12400000       3.45100000
 H      27.68200000      21.83900000       3.45900000
 H      29.05900000      21.67700000       3.87000000
 O      20.59100000      26.89500000       4.23800000
 H      20.85600000      27.83500000       4.30900000
 H      19.76100000      26.91300000       4.78900000
 O      24.87800000      26.58700000       4.35500000
 H      24.05100000      26.41900000       3.96100000
 H      25.07200000      27.48800000       4.01600000
 O      33.41900000      33.47500000       0.86300000
 H      33.37800000      32.79100000       1.51200000
 H      33.90000000      34.14400000       1.39600000
 O      29.88600000      25.10400000       5.76600000
 H      28.92700000      24.94500000       5.71600000
 H      29.99100000      25.98000000       5.38100000
 O      32.12000000      26.70600000      12.36900000
 H      31.34500000      27.28100000      12.39600000
 H      31.92400000      26.16800000      11.57200000
 O      30.34800000      31.21700000       1.60200000
 H      30.13900000      31.90400000       0.87700000
 H      29.80900000      31.60500000       2.34600000
 O      24.06200000      21.28800000       3.27500000
 H      23.47800000      21.13600000       4.02400000
 H      24.70400000      20.55600000       3.38600000
 O      31.81000000      23.09400000      12.21900000
 H      31.72300000      24.01700000      12.47400000
 H      32.69700000      23.16100000      11.73800000
 O      21.96800000      32.92000000       4.10400000
 H      21.54900000      32.90800000       3.16200000
 H      22.74300000      33.44800000       3.93700000
 O      31.89000000      31.76500000      11.37300000
 H      32.45000000      31.42100000      12.08800000
 H      31.94300000      32.74400000      11.63300000
 O      20.27000000      23.30100000      11.44800000
 H      19.84700000      23.73100000      12.21800000
 H      21.18200000      23.16900000      11.80600000
 O      21.13500000      33.07200000       1.57900000
 H      21.63200000      32.58500000       0.81000000
 H      21.45800000      33.98300000       1.32900000
 O      22.82800000      29.62000000       6.37500000
 H      22.63100000      28.80400000       6.86200000
 H      23.57600000      29.29000000       5.77900000
 O      30.81600000      22.40000000       4.57600000
 H      31.72900000      22.25000000       4.55800000
 H      30.81600000      23.38100000       4.44700000
 O      28.36800000      24.47800000       1.39200000
 H      29.25600000      24.40400000       1.83500000
 H      28.50700000      23.97100000       0.59600000
 O      27.31100000      20.78900000      10.93000000
 H      27.03400000      20.77500000       9.94500000
 H      28.08200000      21.37400000      10.81600000
 O      34.10600000      22.57400000       3.75200000
 H      34.90400000      21.96200000       3.96900000
 H      34.09700000      22.39500000       2.79300000
 O      24.44600000      24.15500000      12.80100000
 H      25.16900000      24.82900000      12.96000000
 H      25.02000000      23.36000000      12.79200000
 O      20.16600000      28.84600000       8.01300000
 H      20.89600000      28.20900000       7.93500000
 H      20.65000000      29.70100000       7.92300000
 O      28.95300000      27.80300000       3.87100000
 H      28.55600000      26.98600000       3.51300000
 H      29.47700000      28.08400000       3.06000000
 O      22.09300000      27.04000000       7.38900000
 H      21.92200000      26.17200000       6.97200000
 H      23.03500000      26.85500000       7.64800000
 O      30.56300000      28.72700000       9.27300000
 H      30.08400000      27.91000000       9.58100000
 H      29.99600000      29.41200000       9.69300000
 O      22.61100000      34.28100000      13.98200000
 H      22.48500000      34.79800000      13.13000000
 H      22.12700000      33.46900000      13.65800000
 O      33.63000000      21.47100000       6.76600000
 H      34.57000000      21.23700000       7.09300000
 H      33.71500000      22.41900000       7.03900000
 O      25.57700000      23.58800000       7.88600000
 H      25.82700000      24.19200000       7.16600000
 H      24.61300000      23.42000000       7.65800000
 O      25.53000000      31.49300000       0.82300000
 H      25.44800000      30.50600000       0.86700000
 H      26.40800000      31.54600000       0.26500000
 O      25.51100000      26.46500000      10.97400000
 H      26.26700000      25.92700000      11.28700000
 H      25.88300000      27.39000000      11.12800000
 O      33.45400000      25.79300000       2.39100000
 H      34.17800000      25.53500000       3.00800000
 H      34.04600000      25.97800000       1.57100000
 O      35.38700000      30.03600000       4.43400000
 H      34.47500000      29.65100000       4.42200000
 H      35.77600000      29.28200000       4.93300000
 O      31.60800000      26.07200000       9.64200000
 H      32.17600000      26.72500000       9.32900000
 H      31.53200000      25.40700000       8.91900000
 O      27.95200000      33.21900000       3.14000000
 H      28.19600000      32.36900000       3.58400000
 H      26.96400000      33.14100000       3.23400000
 O      31.04800000      32.96100000       7.74400000
 H      31.73600000      32.34400000       7.99100000
 H      30.24400000      32.59500000       8.14900000
 O      29.70600000      22.35900000       7.28300000
 H      29.89600000      22.41900000       6.29800000
 H      30.27100000      23.14200000       7.57600000
 O      32.44600000      34.23800000      12.00800000
 H      33.20600000      34.80700000      11.72600000
 H      31.70700000      34.70000000      11.60600000
 O      24.69200000      29.44200000       3.78900000
 H      24.06000000      29.51200000       3.04900000
 H      25.24600000      30.19800000       3.57100000
 O      31.48300000      24.42200000       7.58600000
 H      30.78400000      24.64700000       6.88700000
 H      32.28900000      24.39200000       6.96200000
 O      27.11100000      34.92500000       5.00300000
 H      26.87900000      34.30400000       5.76000000
 H      27.59000000      34.28300000       4.46400000
 O      24.71300000      24.34500000       1.55800000
 H      25.19800000      25.17900000       1.41000000
 H      23.94800000      24.74700000       2.08500000
 O      22.76400000      20.50000000       5.39200000
 H      22.89000000      21.16700000       6.08300000
 H      21.86000000      20.59100000       5.08600000
 O      28.46500000      30.99700000       4.23100000
 H      28.31100000      30.68000000       5.14300000
 H      28.65600000      30.13300000       3.83800000
 O      29.75800000      28.01500000      12.71200000
 H      29.43400000      27.60700000      13.52100000
 H      29.58700000      28.95400000      12.96600000
 O      34.56300000      22.80900000      11.27600000
 H      35.10800000      22.42700000      11.99400000
 H      35.16000000      23.43000000      10.91400000
 O      31.29700000      28.83000000       2.54300000
 H      31.55100000      28.59400000       1.60000000
 H      30.76500000      29.61700000       2.38900000
 O      33.06600000      27.27700000       6.84400000
 H      33.38100000      26.46300000       6.47100000
 H      33.01900000      27.84400000       6.06800000
 O      34.26100000      33.83800000       5.06800000
 H      34.13200000      34.28800000       5.96900000
 H      33.38000000      33.49500000       5.02500000
 O      20.90500000      29.19300000      11.52500000
 H      21.25200000      28.93300000      12.38700000
 H      20.09300000      28.67700000      11.44700000
 O      22.94400000      25.31400000      10.64000000
 H      23.16100000      24.90500000      11.47700000
 H      23.77600000      25.82800000      10.46900000
 O      27.67400000      25.45600000       9.49100000
 H      28.42000000      24.88400000       9.73600000
 H      27.10300000      24.89500000       9.01400000
 O      24.76000000      33.31700000      10.66200000
 H      24.98000000      32.39400000      10.79300000
 H      24.75000000      33.60000000      11.61900000
 O      23.03700000      23.63800000       7.32600000
 H      22.51200000      24.06900000       8.05200000
 H      22.35600000      23.59200000       6.62300000
 O      22.22900000      32.30200000      10.05100000
 H      21.41900000      32.51900000       9.71100000
 H      22.82700000      33.03500000       9.93900000
 O      27.32500000      27.62800000       7.78500000
 H      26.41600000      27.63200000       7.94300000
 H      27.66700000      26.94300000       8.39900000
 O      22.33000000      22.21300000      12.74100000
 H      23.14300000      22.39000000      12.25200000
 H      22.35000000      21.33300000      13.09600000
 O      24.49300000      21.84000000      10.02000000
 H      25.45200000      21.66900000      10.29300000
 H      24.66200000      22.68000000       9.52000000
 O      22.16500000      31.63600000      12.91700000
 H      22.60500000      31.67800000      11.99900000
 H      21.24700000      31.79400000      12.58700000
 O      30.76200000      24.32000000       2.45200000
 H      31.56000000      24.90700000       2.55300000
 H      31.19200000      23.58800000       1.91300000
 O      26.85200000      23.36600000       3.14300000
 H      25.99900000      23.54100000       2.64100000
 H      27.46200000      23.80300000       2.51000000
 O      24.83200000      27.57400000       8.61600000
 H      24.94400000      27.04300000       9.43900000
 H      24.31800000      28.34900000       8.91000000
 O      28.71800000      35.48400000       8.13100000
 H      29.21200000      35.84000000       7.37000000
 H      28.46100000      34.61200000       7.84200000
 O      34.01600000      21.88100000       1.03100000
 H      33.06900000      22.11200000       0.72700000
 H      34.01600000      20.93800000       0.74500000
 O      32.73300000      29.21100000       4.91200000
 H      32.02500000      29.48700000       5.55400000
 H      32.10000000      28.96500000       4.12100000
 O      23.62900000      34.48300000       2.77200000
 H      24.39900000      34.78700000       2.25500000
 H      22.93500000      34.75300000       2.12100000
 O      28.61800000      32.93300000      12.62700000
 H      28.00400000      32.94600000      13.37800000
 H      29.03000000      33.78100000      12.66100000
 O      20.02700000      25.01100000      13.50100000
 H      20.89200000      24.86000000      13.89300000
 H      19.51400000      25.24000000      14.31200000
 O      31.43700000      20.52700000       8.30600000
 H      30.73500000      21.08600000       7.85900000
 H      32.19200000      20.80100000       7.75500000
 O      29.60600000      22.37600000      10.50100000
 H      29.96700000      22.49000000       9.60800000
 H      30.38800000      22.43300000      11.01800000
 O      33.13300000      20.62000000      10.75600000
 H      33.31100000      21.55700000      11.01900000
 H      32.69900000      20.75600000       9.89100000
 O      25.36800000      32.35200000       3.33000000
 H      24.67700000      33.06600000       3.28800000
 H      25.36400000      32.05200000       2.39900000
 O      20.77300000      30.45900000       4.84900000
 H      21.40100000      30.07800000       5.51700000
 H      21.24500000      31.21800000       4.53400000
 O      20.95200000      23.57100000       5.49600000
 H      20.59100000      22.72400000       5.91400000
 H      20.17400000      24.15800000       5.45500000
 O      34.65100000      27.86600000      11.52000000
 H      34.03800000      27.33200000      12.07600000
 H      34.00700000      28.26800000      10.89100000
 O      33.68300000      24.05000000       5.98500000
 H      33.87900000      23.51000000       5.17100000
 H      34.52200000      24.62900000       5.90000000
 O      34.22700000      30.80200000      12.48500000
 H      34.58900000      31.33300000      11.73500000
 H      34.94300000      30.10900000      12.58500000
 O      30.60100000      29.88200000       6.67700000
 H      29.62900000      29.87300000       6.57700000
 H      30.69600000      29.58500000       7.59500000
 O      33.21800000      28.57500000       9.25500000
 H      32.20500000      28.77900000       9.41200000
 H      33.06900000      28.18600000       8.33300000
 O      24.76000000      21.85400000       0.69700000
 H      24.76400000      22.82600000       0.84500000
 H      24.32000000      21.61300000       1.52700000
 O      22.69800000      28.12200000       2.01300000
 H      21.78500000      28.18300000       1.66600000
 H      22.67500000      27.26900000       2.48400000
 O      27.16800000      29.20300000      11.24100000
 H      27.79600000      28.81200000      11.87500000
 H      27.66000000      30.01300000      10.96600000
 O      21.93300000      33.17800000       6.84500000
 H      21.83100000      33.05500000       5.86700000
 H      21.89100000      34.18700000       6.83800000
 O      25.53000000      21.66500000      13.19700000
 H      25.85100000      20.94500000      13.81700000
 H      26.08500000      21.46600000      12.31800000
 O      35.11500000      30.31800000       1.43900000
 H      34.32200000      30.79900000       1.79400000
 H      35.47900000      31.05500000       0.89500000
 O      32.73400000      31.27900000       8.80700000
 H      32.68000000      31.54800000       9.74700000
 H      33.08800000      30.37000000       9.00400000
 O      27.06200000      21.00000000       8.20000000
 H      27.53700000      20.65600000       7.39900000
 H      26.81400000      21.93300000       7.83500000
 O      31.22400000      22.18900000       0.86200000
 H      30.85500000      21.35400000       1.26300000
 H      30.51500000      22.38000000       0.17900000
 O      25.29700000      28.77400000       0.87000000
 H      25.67600000      27.89800000       0.67000000
 H      24.37100000      28.55200000       0.94200000
