618
XYZ file of cluster: frame_3000_23724.9b2e1.c3e9a - created by MolEdiTo
 O      27.50500000      31.15400000      35.86900000
 H      27.11200000      30.35100000      36.27000000
 H      26.91000000      31.30600000      35.12400000
 O      38.42700000      40.52800000      40.29900000
 H      38.03200000      41.37200000      39.88200000
 H      38.55700000      40.87800000      41.22600000
 O      16.33800000      33.43400000      37.89800000
 H      16.77700000      34.14800000      37.38700000
 H      15.38100000      33.63100000      37.66400000
 O      29.86000000      32.16800000      36.66200000
 H      28.91400000      31.90100000      36.29700000
 H      30.10500000      31.19800000      36.84400000
 O      38.42400000      38.17300000      38.92400000
 H      39.30500000      37.82700000      39.12000000
 H      38.53900000      39.09700000      39.22700000
 O      13.03000000      39.67100000      36.11300000
 H      13.43800000      39.64000000      36.99500000
 H      13.83600000      39.62300000      35.55000000
 O      10.87000000      37.55500000      38.63600000
 H      10.90100000      37.92600000      39.48300000
 H      11.43500000      36.81100000      38.64700000
 O      16.66200000      27.59100000      33.73300000
 H      17.46600000      27.94800000      33.38400000
 H      16.61400000      27.91200000      34.65200000
 O       8.83400000      27.39100000      35.61300000
 H       8.28700000      28.10700000      35.18800000
 H       9.65900000      27.55800000      35.07100000
 O      12.39400000      29.92100000      40.27500000
 H      12.73500000      29.07300000      40.51400000
 H      11.71500000      29.78100000      39.63700000
 O      18.62800000      32.14600000      34.60200000
 H      17.91700000      31.47100000      34.61700000
 H      19.03700000      32.01200000      35.47800000
 O      39.67000000      30.41600000      36.06400000
 H      38.80600000      30.30300000      35.69700000
 H      40.23800000      30.11700000      35.33800000
 O      36.96900000      31.55200000      39.39900000
 H      37.59800000      30.84800000      39.04300000
 H      36.63800000      31.96100000      38.59100000
 O      20.21800000      36.50900000      37.06000000
 H      20.81000000      35.76200000      36.81800000
 H      19.40500000      36.16000000      36.61100000
 O      14.42200000      39.30300000      38.47200000
 H      15.38700000      39.52400000      38.61900000
 H      14.55400000      38.35100000      38.69900000
 O      33.21400000      34.99200000      38.51300000
 H      33.33000000      35.77700000      39.08000000
 H      33.03900000      34.31400000      39.22000000
 O      33.80700000      38.98300000      37.57200000
 H      32.92600000      38.97600000      38.08500000
 H      34.43100000      38.83100000      38.30000000
 O      21.11300000      39.07800000      36.70800000
 H      22.10500000      39.13300000      36.91600000
 H      21.03200000      38.09900000      36.98200000
 O      23.64600000      39.71600000      37.65900000
 H      23.91700000      40.61000000      37.38000000
 H      24.46700000      39.26900000      37.35700000
 O      15.37400000      27.22700000      36.73200000
 H      16.07800000      27.10800000      37.36000000
 H      14.91900000      28.02100000      36.95600000
 O      29.23400000      27.32300000      34.04100000
 H      28.93300000      28.23800000      33.84000000
 H      28.44900000      27.03300000      34.53000000
 O      31.77200000      30.43300000      33.92400000
 H      32.26600000      29.95500000      34.69200000
 H      32.43900000      30.30400000      33.24100000
 O      21.90700000      30.70500000      40.16500000
 H      21.50000000      30.42900000      41.03200000
 H      21.81700000      29.80900000      39.72000000
 O      21.36300000      34.02600000      36.78400000
 H      21.77700000      33.87700000      37.66300000
 H      20.71700000      33.33200000      36.71200000
 O      14.68400000      36.49500000      38.89800000
 H      14.56400000      36.14100000      37.99700000
 H      14.03500000      35.92300000      39.35800000
 O      17.25300000      39.17900000      38.41500000
 H      17.57600000      39.16800000      37.47500000
 H      17.93600000      39.77400000      38.78500000
 O      10.38100000      35.01100000      34.98700000
 H      10.48100000      34.10000000      35.18900000
 H      11.24300000      35.25900000      34.64700000
 O      31.68100000      33.26600000      34.52900000
 H      31.78900000      32.28700000      34.27000000
 H      30.91700000      33.17000000      35.16100000
 O      24.01400000      35.93600000      38.85300000
 H      24.14100000      36.28100000      37.93900000
 H      24.30000000      35.00900000      38.73300000
 O       8.87500000      37.22900000      35.08300000
 H       9.24100000      36.28400000      35.16800000
 H       9.61200000      37.73700000      35.46500000
 O      30.40400000      29.32200000      36.84500000
 H      31.12700000      28.96600000      36.31100000
 H      30.27500000      28.62100000      37.53400000
 O      16.54200000      30.63000000      38.64500000
 H      15.59900000      30.50100000      38.82500000
 H      16.62400000      31.57300000      38.79600000
 O      33.28800000      29.38400000      35.80200000
 H      33.86600000      30.10200000      35.92900000
 H      33.82800000      28.67800000      36.23000000
 O       7.95100000      32.76100000      36.68300000
 H       7.94800000      31.87000000      37.17200000
 H       7.10100000      33.13900000      37.14900000
 O      33.19100000      31.12400000      39.15000000
 H      32.93000000      31.80100000      39.82800000
 H      32.62200000      30.41200000      39.51000000
 O       7.76600000      29.81700000      38.55900000
 H       7.52200000      30.22600000      39.42400000
 H       6.89700000      29.31900000      38.41200000
 O      26.14300000      38.24400000      36.56400000
 H      25.71300000      37.40500000      36.26900000
 H      27.08100000      37.83800000      36.60800000
 O      39.12300000      34.57200000      37.72400000
 H      39.67300000      33.78900000      37.98900000
 H      38.53800000      34.70900000      38.46800000
 O      26.32300000      28.91200000      37.18000000
 H      26.72800000      28.16800000      36.71200000
 H      26.85500000      28.91300000      37.99800000
 O      22.30400000      30.37900000      34.65900000
 H      22.74900000      30.16100000      35.54700000
 H      22.48100000      31.32700000      34.66700000
 O      39.94000000      28.89900000      40.46700000
 H      39.49600000      28.02400000      40.52300000
 H      39.43100000      29.22500000      39.68100000
 O      24.62200000      36.02200000      36.13000000
 H      25.12100000      35.43300000      35.61300000
 H      23.92600000      36.38700000      35.51000000
 O      38.92700000      33.10800000      34.96000000
 H      38.48300000      33.62300000      35.65900000
 H      39.15700000      32.33100000      35.45100000
 O      29.22000000      39.90600000      35.12600000
 H      29.82100000      39.53600000      35.78000000
 H      29.53100000      40.85800000      35.10200000
 O      35.15100000      34.75200000      34.55900000
 H      35.37900000      34.62600000      35.50000000
 H      34.77900000      35.64400000      34.59600000
 O      22.39800000      38.49000000      39.57200000
 H      22.95000000      38.87400000      38.79100000
 H      23.06500000      37.75700000      39.76200000
 O      27.56300000      38.07700000      39.83500000
 H      27.66700000      37.91600000      40.75300000
 H      27.88800000      39.01000000      39.71400000
 O      25.28600000      31.43000000      34.24000000
 H      25.22900000      30.79800000      33.51800000
 H      24.43100000      31.50800000      34.66000000
 O      12.02600000      28.06000000      37.55400000
 H      11.29300000      28.36200000      38.18700000
 H      11.75900000      27.15000000      37.39800000
 O      35.61100000      34.61800000      37.15900000
 H      36.20500000      35.26100000      37.57600000
 H      34.87200000      34.52600000      37.75700000
 O      32.24900000      28.52900000      40.09100000
 H      33.17500000      28.39300000      40.31600000
 H      32.18900000      27.95100000      39.30100000
 O      26.08300000      33.83600000      37.99700000
 H      26.23900000      33.81200000      37.06100000
 H      26.77000000      34.44000000      38.31300000
 O      32.50800000      35.50500000      36.03400000
 H      32.39700000      34.60500000      35.69100000
 H      32.69500000      35.31700000      36.98200000
 O      10.14600000      28.64500000      39.23500000
 H       9.73800000      28.03700000      39.90700000
 H       9.26000000      29.09500000      38.91200000
 O      36.93800000      36.03300000      39.15400000
 H      36.99700000      35.94100000      40.13700000
 H      37.49100000      36.80900000      39.01500000
 O      11.64500000      30.75100000      35.60000000
 H      12.26700000      30.66600000      34.83400000
 H      11.17600000      29.85500000      35.46000000
 O      19.63500000      31.78600000      36.95600000
 H      19.08100000      31.65500000      37.73800000
 H      20.06500000      30.93700000      36.87800000
 O      12.29500000      34.96500000      39.81600000
 H      12.19400000      34.64200000      40.73900000
 H      11.60000000      34.50000000      39.36200000
 O      36.86000000      30.01400000      35.41400000
 H      36.56800000      30.44300000      34.55700000
 H      36.21900000      30.40100000      36.05900000
 O      28.33600000      36.51300000      36.42100000
 H      29.28200000      36.78700000      36.43300000
 H      28.30700000      36.04800000      37.27100000
 O      14.19500000      31.86500000      39.91600000
 H      13.39900000      31.31700000      39.87500000
 H      14.06500000      32.39500000      39.08900000
 O      25.86400000      34.05200000      34.77100000
 H      26.83000000      34.20500000      34.51500000
 H      25.69400000      33.17900000      34.40900000
 O      40.36300000      37.25200000      36.92600000
 H      40.04800000      36.34600000      37.05000000
 H      39.82500000      37.46200000      36.11700000
 O       8.15600000      33.62400000      34.06700000
 H       8.27300000      33.44400000      35.04300000
 H       8.90100000      34.29600000      33.99300000
 O      38.35800000      26.91200000      35.30200000
 H      37.43100000      26.53500000      35.31200000
 H      38.04200000      27.84000000      35.33300000
 O      35.13700000      31.41700000      37.26000000
 H      34.52900000      31.18500000      37.99600000
 H      34.82900000      32.25800000      36.98000000
 O      22.05100000      28.12100000      38.43900000
 H      21.17400000      28.24700000      37.92700000
 H      22.66800000      28.43900000      37.70500000
 O      18.10300000      35.20000000      35.86600000
 H      17.26700000      35.49700000      35.45800000
 H      18.35800000      34.55000000      35.11500000
 O      14.30100000      29.55000000      37.13100000
 H      13.95700000      30.44500000      37.04700000
 H      13.52100000      29.04500000      37.20700000
 O      13.53700000      36.82900000      35.26200000
 H      13.16800000      37.54600000      35.82100000
 H      13.24300000      37.06500000      34.37800000
 O      22.71100000      32.97000000      38.92100000
 H      23.66800000      32.77700000      38.98900000
 H      22.30200000      32.14200000      39.15400000
 O      28.47800000      34.41400000      34.16900000
 H      28.92700000      35.12800000      34.66000000
 H      28.98300000      34.36700000      33.31200000
 O      23.68300000      28.79500000      36.59100000
 H      24.60800000      28.96000000      36.91600000
 H      23.90000000      28.08000000      35.89600000
 O      27.69200000      31.56000000      39.44200000
 H      28.49400000      31.90400000      39.81300000
 H      27.47800000      32.14900000      38.69800000
 O      38.48800000      29.39000000      38.18700000
 H      38.99400000      29.67600000      37.44600000
 H      37.69000000      28.96700000      37.77900000
 O      19.73000000      36.39800000      39.81200000
 H      19.92600000      36.31900000      38.83600000
 H      18.81200000      36.01500000      39.82600000
 O      14.28400000      34.61300000      36.79700000
 H      13.56600000      33.90100000      36.95100000
 H      14.07000000      34.90800000      35.94400000
 O      17.56700000      34.89200000      39.93500000
 H      17.13500000      34.41100000      39.20100000
 H      17.95000000      34.10800000      40.38600000
 O      22.97900000      32.88500000      34.83000000
 H      22.44600000      33.50800000      35.43000000
 H      23.55700000      33.56400000      34.45700000
 O      27.95200000      35.66600000      38.79900000
 H      28.56900000      35.45400000      39.58600000
 H      27.48500000      36.48500000      39.21600000
 O      31.26800000      39.20100000      38.76200000
 H      31.10900000      39.17000000      39.74100000
 H      30.31500000      39.46500000      38.51000000
 O      20.45700000      29.07400000      36.52900000
 H      19.46600000      29.00500000      36.52700000
 H      20.61400000      29.18200000      35.62300000
 O      12.62000000      32.42300000      37.46400000
 H      12.20800000      31.77400000      36.83100000
 H      11.80200000      32.91700000      37.75600000
 O      28.58700000      28.97300000      39.41700000
 H      28.27300000      29.90100000      39.45700000
 H      29.52000000      29.06200000      39.65600000
 O      17.83600000      29.34300000      36.57000000
 H      17.17800000      29.56400000      35.83700000
 H      17.19600000      29.69700000      37.30500000
 O      34.81100000      27.56800000      40.53000000
 H      35.07300000      28.46200000      40.81500000
 H      35.73300000      27.21200000      40.27100000
 O      30.68100000      37.64500000      36.50700000
 H      31.26800000      37.08000000      35.92000000
 H      31.40200000      38.20900000      36.97700000
 O       6.35800000      37.29900000      36.30100000
 H       7.26200000      37.46400000      36.01900000
 H       6.05200000      36.63000000      35.60400000
 O      28.84300000      40.05500000      38.30000000
 H      28.23100000      39.56100000      37.72100000
 H      28.62200000      40.97100000      38.00300000
 O      18.47600000      39.53900000      35.77300000
 H      19.23800000      39.24600000      36.21400000
 H      18.87900000      39.99400000      34.97300000
 O      34.30000000      37.41500000      35.39600000
 H      33.44300000      36.96300000      35.45700000
 H      34.27600000      37.99700000      36.20400000
 O      10.44400000      33.47000000      38.24700000
 H       9.74300000      33.61200000      37.66000000
 H      10.04600000      32.86200000      38.92300000
 O      16.11500000      36.35700000      34.63900000
 H      16.11300000      36.79800000      33.78500000
 H      15.23000000      36.58400000      35.04500000
 O      10.41700000      39.03700000      36.56000000
 H      10.58600000      38.48600000      37.36600000
 H      11.37600000      39.15400000      36.31700000
 O      37.06700000      37.88400000      35.57100000
 H      37.33200000      37.52100000      36.42500000
 H      36.09200000      37.69100000      35.56300000
 O      17.24000000      27.57100000      39.00000000
 H      17.39000000      28.34100000      38.47700000
 H      16.99900000      27.95400000      39.89100000
 O      15.47000000      39.57000000      35.38300000
 H      15.49800000      39.33600000      34.39300000
 H      16.40200000      39.27900000      35.59500000
 O      30.03400000      32.85800000      39.45000000
 H      30.19800000      32.76300000      38.50100000
 H      30.24600000      33.81000000      39.63500000
 O       7.94900000      40.09100000      40.45400000
 H       7.38200000      39.61100000      39.76900000
 H       8.41300000      39.28700000      40.77500000
 O      27.88100000      30.12200000      48.30500000
 H      27.01000000      30.34600000      48.65700000
 H      27.78200000      29.12800000      48.36300000
 O      15.48500000      31.50800000      48.44400000
 H      16.09700000      32.02400000      47.84900000
 H      14.73400000      31.48600000      47.81300000
 O      25.67500000      36.19200000      43.02500000
 H      25.51700000      36.44400000      42.08100000
 H      26.57400000      35.88500000      43.03200000
 O       9.23500000      31.81200000      47.14000000
 H       8.87000000      30.93200000      47.43700000
 H       9.38200000      31.55800000      46.18600000
 O      18.31200000      29.20300000      47.12100000
 H      18.76200000      28.61000000      47.75500000
 H      18.95800000      29.95400000      47.06900000
 O      31.65800000      32.98700000      46.13300000
 H      30.83900000      32.63200000      45.71200000
 H      31.26800000      33.12900000      47.08800000
 O       8.63000000      39.50800000      46.45200000
 H       9.17900000      39.98300000      45.81500000
 H       7.75200000      39.91600000      46.28900000
 O      28.34500000      35.33700000      42.99600000
 H      28.24100000      34.46100000      43.40100000
 H      29.27900000      35.55200000      43.27900000
 O      31.16600000      40.59400000      44.91300000
 H      30.92000000      40.74100000      45.85300000
 H      31.25600000      41.53600000      44.65000000
 O      33.14200000      31.51600000      44.27200000
 H      32.61700000      32.09600000      44.95200000
 H      33.19800000      30.69200000      44.83700000
 O      20.59100000      26.89500000      45.66200000
 H      20.85600000      27.83500000      45.73300000
 H      19.76100000      26.91300000      46.21300000
 O      33.92500000      36.94800000      42.04000000
 H      34.14400000      36.53600000      42.90100000
 H      34.34000000      37.81400000      42.09600000
 O       7.65900000      27.93000000      45.27400000
 H       7.00500000      28.42200000      44.72000000
 H       8.33100000      27.79100000      44.57100000
 O      33.41900000      33.47500000      42.28700000
 H      33.37800000      32.79100000      42.93600000
 H      33.90000000      34.14400000      42.82000000
 O      18.99900000      36.94000000      44.35600000
 H      19.73200000      37.47400000      43.90400000
 H      18.26200000      37.19000000      43.73900000
 O       9.33400000      32.48900000      41.99500000
 H       8.49500000      32.01500000      41.93200000
 H       9.68100000      32.24900000      42.85700000
 O      30.34800000      31.21700000      43.02600000
 H      30.13900000      31.90400000      42.30100000
 H      29.80900000      31.60500000      43.77000000
 O      14.01000000      40.60700000      46.28900000
 H      13.60000000      40.85200000      45.44800000
 H      14.62600000      39.94400000      46.06800000
 O      28.21500000      37.86400000      46.44600000
 H      27.62000000      37.17700000      46.82500000
 H      29.09100000      37.57700000      46.80400000
 O      38.54000000      32.75200000      47.07100000
 H      37.78700000      32.82700000      46.36500000
 H      39.12600000      33.46900000      46.66300000
 O      21.96800000      32.92000000      45.52800000
 H      21.54900000      32.90800000      44.58600000
 H      22.74300000      33.44800000      45.36100000
 O      11.87300000      31.50900000      44.06300000
 H      12.30100000      30.95400000      43.37100000
 H      12.55000000      32.22000000      44.16300000
 O      21.13500000      33.07200000      43.00300000
 H      21.63200000      32.58500000      42.23400000
 H      21.45800000      33.98300000      42.75300000
 O      22.82800000      29.62000000      47.79900000
 H      22.63100000      28.80400000      48.28600000
 H      23.57600000      29.29000000      47.20300000
 O       9.47100000      30.89100000      44.46500000
 H      10.46300000      31.00300000      44.41400000
 H       9.34200000      30.30400000      43.73000000
 O      16.27000000      34.65700000      44.21900000
 H      17.06700000      34.18100000      44.59900000
 H      16.58900000      34.91000000      43.36400000
 O      13.46000000      34.01700000      44.64700000
 H      13.04100000      34.86300000      44.47500000
 H      14.39800000      34.22200000      44.37300000
 O       6.21200000      36.54800000      46.16500000
 H       7.15500000      36.53800000      46.00100000
 H       6.17600000      36.06700000      47.02900000
 O      24.62800000      37.63700000      45.10200000
 H      25.36400000      38.20000000      45.24500000
 H      24.84700000      37.03700000      44.45300000
 O      28.95300000      27.80300000      45.29500000
 H      28.55600000      26.98600000      44.93700000
 H      29.47700000      28.08400000      44.48400000
 O      22.08700000      35.43100000      42.22300000
 H      21.25300000      35.86200000      41.86000000
 H      22.71500000      35.61800000      41.42400000
 O      31.95800000      36.86500000      45.60900000
 H      32.36800000      36.47900000      44.83600000
 H      32.45200000      37.68600000      45.73300000
 O      16.23600000      28.20100000      45.55400000
 H      17.06700000      28.66000000      45.84300000
 H      16.32700000      27.39600000      46.09200000
 O      37.97300000      33.29800000      42.85100000
 H      37.58200000      33.04000000      43.68600000
 H      37.55000000      32.69800000      42.19700000
 O      25.53000000      31.49300000      42.24700000
 H      25.44800000      30.50600000      42.29100000
 H      26.40800000      31.54600000      41.68900000
 O      35.38700000      30.03600000      45.85800000
 H      34.47500000      29.65100000      45.84600000
 H      35.77600000      29.28200000      46.35700000
 O      27.95200000      33.21900000      44.56400000
 H      28.19600000      32.36900000      45.00800000
 H      26.96400000      33.14100000      44.65800000
 O      18.36800000      39.59200000      47.56100000
 H      17.65300000      39.64200000      48.20200000
 H      19.09600000      39.91300000      48.02200000
 O      38.11100000      36.18300000      46.94600000
 H      38.37300000      37.12800000      46.84400000
 H      37.15500000      36.21900000      46.75200000
 O      13.61500000      32.05700000      46.59000000
 H      13.54300000      32.80000000      45.88400000
 H      14.09800000      31.36800000      46.00200000
 O      34.69400000      35.56900000      44.15400000
 H      34.67700000      35.38200000      45.12800000
 H      35.66200000      35.72800000      44.03900000
 O      14.28900000      29.77500000      44.84500000
 H      14.99000000      29.16300000      45.25800000
 H      13.47800000      29.16900000      45.11100000
 O      14.72300000      38.07200000      44.49700000
 H      15.50900000      37.93900000      43.93500000
 H      14.87900000      37.44600000      45.20300000
 O      24.69200000      29.44200000      45.21300000
 H      24.06000000      29.51200000      44.47300000
 H      25.24600000      30.19800000      44.99500000
 O      27.11100000      34.92500000      46.42700000
 H      26.87900000      34.30400000      47.18400000
 H      27.59000000      34.28300000      45.88800000
 O      17.39700000      28.88500000      43.12800000
 H      17.09100000      29.81100000      43.00400000
 H      16.82400000      28.62000000      43.87300000
 O      28.46500000      30.99700000      45.65500000
 H      28.31100000      30.68000000      46.56700000
 H      28.65600000      30.13300000      45.26200000
 O      36.80500000      28.32900000      43.96200000
 H      36.96900000      28.85200000      44.80200000
 H      36.26400000      29.03100000      43.49600000
 O      31.29700000      28.83000000      43.96700000
 H      31.55100000      28.59400000      43.02400000
 H      30.76500000      29.61700000      43.81300000
 O      18.96900000      40.37200000      42.15700000
 H      19.75700000      40.59700000      41.64800000
 H      19.37000000      39.51300000      42.57700000
 O      33.06600000      27.27700000      48.26800000
 H      33.38100000      26.46300000      47.89500000
 H      33.01900000      27.84400000      47.49200000
 O      40.11000000      37.31200000      43.60300000
 H      40.66500000      36.54500000      43.69000000
 H      40.59900000      37.87100000      42.98400000
 O      11.62900000      35.89800000      44.21100000
 H      10.72300000      35.47500000      44.04000000
 H      11.55300000      36.67300000      43.62400000
 O      34.26100000      33.83800000      46.49200000
 H      34.13200000      34.28800000      47.39300000
 H      33.38000000      33.49500000      46.44900000
 O      24.78700000      35.58200000      47.24700000
 H      24.64000000      35.82300000      46.31500000
 H      25.80000000      35.27700000      47.11300000
 O      30.40500000      36.75000000      47.92000000
 H      31.05800000      36.42500000      47.17000000
 H      31.10300000      37.31300000      48.38800000
 O      40.32000000      29.54900000      44.87100000
 H      40.52800000      28.60700000      45.11200000
 H      40.17700000      29.46400000      43.94000000
 O      40.07900000      34.54000000      45.82500000
 H      40.20200000      35.10800000      46.59000000
 H      40.71700000      34.96900000      45.21300000
 O      12.11200000      38.48100000      42.99400000
 H      11.84700000      39.25100000      43.58300000
 H      13.03600000      38.31900000      43.32300000
 O      35.22000000      39.33000000      42.31400000
 H      35.12900000      40.32200000      42.38100000
 H      36.11900000      39.16600000      42.66700000
 O      37.36800000      36.08100000      43.34400000
 H      37.91600000      35.27000000      43.39500000
 H      38.00600000      36.77400000      43.17600000
 O       8.98400000      36.40500000      46.07000000
 H       9.72900000      36.83800000      46.56100000
 H       8.83300000      35.60700000      46.62100000
 O      25.08800000      38.73900000      49.25400000
 H      24.83300000      37.80100000      49.33600000
 H      25.02100000      38.90300000      48.29600000
 O      32.73300000      29.21100000      46.33600000
 H      32.02500000      29.48700000      46.97800000
 H      32.10000000      28.96500000      45.54500000
 O      23.62900000      34.48300000      44.19600000
 H      24.39900000      34.78700000      43.67900000
 H      22.93500000      34.75300000      43.54500000
 O      20.74700000      38.54600000      43.10400000
 H      21.54400000      38.98700000      43.59100000
 H      21.29300000      38.40600000      42.24400000
 O      16.59600000      37.59100000      42.59100000
 H      16.40700000      36.97300000      41.88000000
 H      16.81300000      38.36600000      42.00500000
 O      19.96600000      29.50200000      43.32700000
 H      19.88100000      29.63600000      44.30100000
 H      19.15700000      29.03800000      43.11800000
 O      11.58200000      32.77900000      48.20900000
 H      10.77700000      32.68900000      47.64500000
 H      12.24400000      32.83300000      47.49500000
 O      15.04500000      35.88700000      46.30900000
 H      15.59000000      35.42000000      45.58400000
 H      15.61200000      35.69500000      47.07400000
 O      16.19300000      31.40600000      43.38000000
 H      15.47000000      30.88600000      43.82400000
 H      15.72300000      31.74700000      42.63600000
 O       9.35800000      34.85700000      43.32600000
 H       9.36900000      34.36300000      42.52400000
 H       8.46900000      34.62700000      43.66500000
 O      38.70300000      27.68800000      48.59900000
 H      38.81400000      28.52100000      48.10800000
 H      38.05700000      28.02100000      49.29400000
 O      38.82100000      30.14800000      47.40300000
 H      39.48800000      29.94200000      46.82900000
 H      38.63900000      31.10100000      47.36500000
 O      30.39300000      38.60100000      42.99500000
 H      29.47100000      38.64000000      43.37800000
 H      30.82500000      39.20300000      43.68200000
 O      17.42200000      32.77200000      47.23900000
 H      17.90800000      33.12000000      46.44100000
 H      17.70900000      33.46600000      47.92700000
 O      33.39100000      39.37600000      45.72700000
 H      32.61500000      39.57600000      45.13200000
 H      33.71200000      40.26700000      45.94700000
 O      36.05000000      27.62600000      47.00100000
 H      35.86300000      27.79300000      47.96300000
 H      35.94800000      26.65800000      46.97000000
 O      12.29000000      36.32600000      46.79500000
 H      13.27300000      36.33200000      46.71900000
 H      11.95400000      35.95500000      45.97200000
 O      25.36800000      32.35200000      44.75400000
 H      24.67700000      33.06600000      44.71200000
 H      25.36400000      32.05200000      43.82300000
 O      23.18500000      39.74200000      43.84900000
 H      23.60900000      40.57800000      44.22600000
 H      23.79100000      39.09100000      44.14000000
 O      26.84200000      40.77700000      45.33500000
 H      27.26100000      41.47800000      45.85300000
 H      26.08400000      41.16900000      44.92700000
 O      39.77700000      35.24800000      48.90200000
 H      40.52700000      35.78400000      48.56900000
 H      39.09000000      35.51500000      48.24300000
 O      20.77300000      30.45900000      46.27300000
 H      21.40100000      30.07800000      46.94100000
 H      21.24500000      31.21800000      45.95800000
 O       8.23300000      38.04300000      48.77100000
 H       7.27000000      38.23000000      49.03000000
 H       8.20800000      38.35200000      47.88300000
 O      27.80300000      38.63100000      43.95000000
 H      27.47400000      39.50400000      44.34800000
 H      27.91100000      38.17000000      44.84700000
 O      12.77600000      40.67300000      48.67900000
 H      12.88200000      40.69300000      47.71100000
 H      12.75600000      39.68100000      48.84100000
 O      30.60100000      29.88200000      48.10100000
 H      29.62900000      29.87300000      48.00100000
 H      30.69600000      29.58500000      49.01900000
 O      18.53300000      32.56500000      42.19900000
 H      17.93300000      32.04800000      42.67000000
 H      19.40100000      32.37600000      42.59200000
 O      39.15100000      38.45000000      46.05500000
 H      39.48100000      38.11800000      45.19400000
 H      39.81900000      39.13900000      46.30500000
 O      12.16000000      28.31300000      45.56400000
 H      11.32100000      27.81000000      45.33100000
 H      12.13900000      28.28600000      46.50400000
 O       7.87800000      34.15300000      47.67500000
 H       8.12800000      33.31600000      47.28300000
 H       8.01200000      34.00800000      48.59500000
 O      22.69800000      28.12200000      43.43700000
 H      21.78500000      28.18300000      43.09000000
 H      22.67500000      27.26900000      43.90800000
 O      21.93300000      33.17800000      48.26900000
 H      21.83100000      33.05500000      47.29100000
 H      21.89100000      34.18700000      48.26200000
 O      35.11500000      30.31800000      42.86300000
 H      34.32200000      30.79900000      43.21800000
 H      35.47900000      31.05500000      42.31900000
 O      12.78600000      27.22300000      43.18300000
 H      12.51000000      27.76300000      43.90800000
 H      12.19800000      26.40100000      43.32900000
 O       8.71300000      29.31800000      47.49300000
 H       8.26700000      28.89300000      46.71800000
 H       9.47500000      28.72400000      47.56900000
 O      35.43800000      37.53100000      46.76500000
 H      34.69200000      37.90200000      46.26500000
 H      35.69600000      38.26400000      47.33300000
 O       8.90500000      37.85000000      43.35900000
 H       9.02900000      36.83600000      43.26000000
 H       9.15500000      38.00200000      44.27500000
 O      31.27800000      36.03200000      42.69700000
 H      32.19800000      36.25600000      42.45100000
 H      30.88200000      36.97300000      42.75200000
 O      36.49700000      32.47900000      45.37300000
 H      36.06700000      31.59600000      45.47700000
 H      35.77500000      33.05400000      45.69500000
 O      40.54100000      32.27000000      43.13400000
 H      39.63100000      32.61900000      42.99300000
 H      40.38700000      31.30600000      43.20200000
 O      19.49400000      37.12400000      47.15000000
 H      19.04100000      38.00500000      47.25900000
 H      19.45700000      37.02100000      46.18900000
 O      25.29700000      28.77400000      42.29400000
 H      25.67600000      27.89800000      42.09400000
 H      24.37100000      28.55200000      42.36600000
 O      18.77600000      34.21900000      45.21200000
 H      18.86000000      35.12800000      44.95700000
 H      19.67300000      33.84000000      45.08900000
 O      29.03200000      40.23800000      48.65000000
 H      28.72800000      39.58100000      47.98100000
 H      28.34900000      40.93100000      48.50200000
 O      18.79300000      34.89700000      48.68900000
 H      19.23500000      35.53700000      48.07800000
 H      18.12800000      35.47700000      49.15400000
