744
XYZ file of cluster: frame_3000_9b7bf.0.c38f1 - created by MolEdiTo
 O      30.03600000       9.64800000      39.01400000
 H      30.50500000      10.38500000      38.61600000
 H      29.58500000      10.08900000      39.76400000
 O      38.42700000      40.52800000      40.29900000
 H      38.03200000      41.37200000      39.88200000
 H      38.55700000      40.87800000      41.22600000
 O      39.63200000      23.64600000      38.48800000
 H      38.71100000      23.96600000      38.49000000
 H      39.90500000      23.88700000      37.58900000
 O      35.42800000      11.13100000      35.77400000
 H      36.05200000      11.86900000      35.56000000
 H      34.62100000      11.53400000      35.41500000
 O      37.86400000      12.85300000      39.86200000
 H      38.30700000      12.07300000      40.33600000
 H      38.62400000      13.43000000      39.83700000
 O      40.40500000       1.14300000      37.88800000
 H      40.42200000       0.53200000      38.65300000
 H      41.26700000       0.89100000      37.53200000
 O      38.42400000      38.17300000      38.92400000
 H      39.30500000      37.82700000      39.12000000
 H      38.53900000      39.09700000      39.22700000
 O      29.86000000      32.16800000      36.66200000
 H      28.91400000      31.90100000      36.29700000
 H      30.10500000      31.19800000      36.84400000
 O      33.31700000      24.27600000      39.19800000
 H      32.75000000      24.13800000      39.99000000
 H      34.20900000      24.34400000      39.59600000
 O      32.16500000       6.41000000      36.36600000
 H      32.03400000       6.47700000      37.38100000
 H      32.90600000       7.10700000      36.30300000
 O      40.00300000      13.46400000      36.30200000
 H      40.36700000      13.64400000      37.20100000
 H      40.79000000      13.25500000      35.84500000
 O      28.73000000      22.27900000      37.00600000
 H      29.66800000      22.21600000      37.22500000
 H      28.54400000      21.39100000      36.73300000
 O      39.67000000      30.41600000      36.06400000
 H      38.80600000      30.30300000      35.69700000
 H      40.23800000      30.11700000      35.33800000
 O      36.96900000      31.55200000      39.39900000
 H      37.59800000      30.84800000      39.04300000
 H      36.63800000      31.96100000      38.59100000
 O      30.25200000       6.93600000      34.56400000
 H      31.01100000       6.64800000      35.16500000
 H      30.48900000       6.43200000      33.77500000
 O      33.21400000      34.99200000      38.51300000
 H      33.33000000      35.77700000      39.08000000
 H      33.03900000      34.31400000      39.22000000
 O      33.80700000      38.98300000      37.57200000
 H      32.92600000      38.97600000      38.08500000
 H      34.43100000      38.83100000      38.30000000
 O      27.85300000      18.48700000      38.87600000
 H      28.75500000      18.71500000      38.86600000
 H      27.44200000      19.13400000      39.47100000
 O      34.06900000      24.16700000      36.57300000
 H      33.34500000      23.91500000      35.92400000
 H      33.59000000      24.10800000      37.43100000
 O      34.20900000      19.41600000      39.76700000
 H      33.32500000      18.91100000      39.86500000
 H      34.82800000      18.71400000      39.99100000
 O      35.61500000      10.95700000      38.79800000
 H      36.30400000      11.67600000      38.96500000
 H      35.74000000      10.76500000      37.91100000
 O      35.42300000       2.92400000      36.07400000
 H      35.71500000       3.79300000      36.42200000
 H      35.84800000       2.27700000      36.59700000
 O      29.23400000      27.32300000      34.04100000
 H      28.93300000      28.23800000      33.84000000
 H      28.44900000      27.03300000      34.53000000
 O      31.77200000      30.43300000      33.92400000
 H      32.26600000      29.95500000      34.69200000
 H      32.43900000      30.30400000      33.24100000
 O      40.37500000       3.67800000      35.26300000
 H      39.67000000       3.28500000      34.75700000
 H      40.37000000       3.27500000      36.11700000
 O      36.77400000      24.26600000      37.84700000
 H      35.88600000      24.10800000      37.52500000
 H      36.69600000      23.84100000      38.74900000
 O      36.85700000      20.34600000      36.77700000
 H      37.25500000      20.49100000      37.67500000
 H      36.34000000      19.55700000      36.95300000
 O      28.40800000      11.12000000      40.42000000
 H      28.02200000      12.00700000      40.25700000
 H      27.78000000      10.77500000      41.03600000
 O      30.55100000      21.20100000      33.83000000
 H      30.66300000      21.49400000      34.75800000
 H      31.16700000      21.73300000      33.34000000
 O      28.41300000       4.66900000      37.04900000
 H      28.92600000       4.74400000      37.85600000
 H      27.96800000       3.79300000      37.12300000
 O      35.78400000      25.74000000      35.24600000
 H      35.29200000      25.85100000      34.38400000
 H      35.17800000      25.06000000      35.67700000
 O      31.68100000      33.26600000      34.52900000
 H      31.78900000      32.28700000      34.27000000
 H      30.91700000      33.17000000      35.16100000
 O      39.04700000       6.18000000      38.63800000
 H      38.74700000       6.20900000      37.69100000
 H      39.50200000       5.27300000      38.61600000
 O      30.40400000      29.32200000      36.84500000
 H      31.12700000      28.96600000      36.31100000
 H      30.27500000      28.62100000      37.53400000
 O      33.28800000      29.38400000      35.80200000
 H      33.86600000      30.10200000      35.92900000
 H      33.82800000      28.67800000      36.23000000
 O      38.22000000      15.90600000      34.67300000
 H      39.10000000      15.88800000      34.21300000
 H      38.11500000      16.89800000      34.69200000
 O      33.19100000      31.12400000      39.15000000
 H      32.93000000      31.80100000      39.82800000
 H      32.62200000      30.41200000      39.51000000
 O      40.45200000      24.76400000      35.70800000
 H      40.93200000      24.77600000      34.85200000
 H      39.77000000      25.40600000      35.61100000
 O      27.87400000       8.04500000      38.52600000
 H      28.11300000       7.96400000      37.56500000
 H      28.59000000       8.63200000      38.79300000
 O      39.12300000      34.57200000      37.72400000
 H      39.67300000      33.78900000      37.98900000
 H      38.53800000      34.70900000      38.46800000
 O      36.72800000       7.16300000      35.03100000
 H      36.58200000       7.19300000      34.11800000
 H      37.58300000       6.69500000      35.10700000
 O      33.47100000      16.42700000      38.13600000
 H      33.32500000      15.79800000      38.86400000
 H      33.04300000      17.26800000      38.48200000
 O      31.81000000       6.94000000      38.94500000
 H      31.33500000       6.57700000      39.71900000
 H      31.49200000       7.81000000      38.98200000
 O      32.98800000      12.09600000      35.20400000
 H      32.53900000      11.86400000      36.03900000
 H      32.23600000      12.53900000      34.80100000
 O      40.72600000       9.54400000      36.54000000
 H      40.45000000       8.63800000      36.23200000
 H      40.27400000      10.10100000      35.86000000
 O      38.96800000      26.07700000      40.45300000
 H      38.87000000      25.78800000      41.42400000
 H      39.78700000      25.58200000      40.25400000
 O      29.03200000      22.29000000      39.62900000
 H      28.64700000      22.52400000      38.77300000
 H      28.42700000      21.57300000      39.92700000
 O      34.80800000       1.46300000      33.72600000
 H      33.80200000       1.59400000      33.67800000
 H      34.93100000       1.97300000      34.52300000
 O      37.34400000      13.22000000      35.52600000
 H      38.25200000      13.45900000      35.85500000
 H      37.18000000      14.09100000      35.02700000
 O      39.94000000      28.89900000      40.46700000
 H      39.49600000      28.02400000      40.52300000
 H      39.43100000      29.22500000      39.68100000
 O      38.92700000      33.10800000      34.96000000
 H      38.48300000      33.62300000      35.65900000
 H      39.15700000      32.33100000      35.45100000
 O      29.43000000      14.18900000      36.68700000
 H      28.62600000      14.66600000      36.98100000
 H      29.47800000      14.61500000      35.76700000
 O      34.97700000      27.57900000      37.00000000
 H      35.17800000      26.88500000      36.32300000
 H      35.70000000      27.38800000      37.62400000
 O      29.22000000      39.90600000      35.12600000
 H      29.82100000      39.53600000      35.78000000
 H      29.53100000      40.85800000      35.10200000
 O      38.11600000       2.32800000      36.67000000
 H      37.79600000       2.58000000      37.57700000
 H      38.66800000       1.52900000      36.90700000
 O      35.15100000      34.75200000      34.55900000
 H      35.37900000      34.62600000      35.50000000
 H      34.77900000      35.64400000      34.59600000
 O      35.38200000      17.89600000      36.52000000
 H      34.58600000      17.44700000      36.94300000
 H      34.92400000      18.42700000      35.83600000
 O      27.56300000      38.07700000      39.83500000
 H      27.66700000      37.91600000      40.75300000
 H      27.88800000      39.01000000      39.71400000
 O      30.16700000      11.23100000      33.64500000
 H      29.87200000      11.32400000      34.53100000
 H      29.44600000      10.74900000      33.18100000
 O      38.75500000      19.15300000      35.08400000
 H      38.30200000      19.53800000      35.84300000
 H      39.38900000      18.52200000      35.47600000
 O      39.20300000       6.10400000      35.62100000
 H      39.76100000       6.70000000      35.07400000
 H      39.62600000       5.25500000      35.37100000
 O      39.76300000      21.38700000      39.93100000
 H      39.71300000      22.30000000      39.54600000
 H      39.14300000      20.83300000      39.44300000
 O      35.61100000      34.61800000      37.15900000
 H      36.20500000      35.26100000      37.57600000
 H      34.87200000      34.52600000      37.75700000
 O      36.87200000      15.36200000      37.55800000
 H      36.63600000      14.68100000      36.85300000
 H      36.95300000      16.11500000      36.94000000
 O      32.24900000      28.52900000      40.09100000
 H      33.17500000      28.39300000      40.31600000
 H      32.18900000      27.95100000      39.30100000
 O      40.55700000      17.78000000      36.77500000
 H      40.03600000      17.37000000      37.50900000
 H      41.43300000      17.43900000      36.98700000
 O      32.50800000      35.50500000      36.03400000
 H      32.39700000      34.60500000      35.69100000
 H      32.69500000      35.31700000      36.98200000
 O      37.11300000       3.03000000      39.12900000
 H      36.86300000       3.86200000      38.72200000
 H      36.36800000       2.80800000      39.71700000
 O      36.93800000      36.03300000      39.15400000
 H      36.99700000      35.94100000      40.13700000
 H      37.49100000      36.80900000      39.01500000
 O      37.95400000      19.45700000      39.13900000
 H      37.39900000      18.96800000      39.82000000
 H      38.55200000      18.66600000      38.92500000
 O      32.83400000      15.58300000      35.54900000
 H      33.13500000      15.91500000      36.42600000
 H      33.30400000      14.72500000      35.53900000
 O      28.85000000       8.55400000      36.07500000
 H      29.41500000       7.85800000      35.58900000
 H      27.99500000       8.30900000      35.64200000
 O      34.13900000       5.31900000      39.73000000
 H      33.44200000       5.50300000      39.08700000
 H      33.62700000       4.52200000      40.18200000
 O      30.33900000       2.71300000      35.63000000
 H      31.15100000       2.99400000      36.07300000
 H      29.99100000       3.57000000      35.35900000
 O      38.86400000      16.91100000      38.48400000
 H      38.19800000      16.32800000      38.08000000
 H      39.23100000      16.29700000      39.14200000
 O      36.86000000      30.01400000      35.41400000
 H      36.56800000      30.44300000      34.55700000
 H      36.21900000      30.40100000      36.05900000
 O      28.33600000      36.51300000      36.42100000
 H      29.28200000      36.78700000      36.43300000
 H      28.30700000      36.04800000      37.27100000
 O      29.99200000      25.23600000      36.91200000
 H      30.61200000      25.69100000      37.41400000
 H      30.53700000      24.74200000      36.28100000
 O      40.36300000      37.25200000      36.92600000
 H      40.04800000      36.34600000      37.05000000
 H      39.82500000      37.46200000      36.11700000
 O      38.35800000      26.91200000      35.30200000
 H      37.43100000      26.53500000      35.31200000
 H      38.04200000      27.84000000      35.33300000
 O      40.30300000       8.42200000      39.76500000
 H      39.84700000       7.60500000      39.43800000
 H      40.29800000       9.01300000      39.02400000
 O      35.13700000      31.41700000      37.26000000
 H      34.52900000      31.18500000      37.99600000
 H      34.82900000      32.25800000      36.98000000
 O      32.22200000      23.75700000      34.85800000
 H      32.50200000      23.45500000      33.95700000
 H      32.03100000      24.72100000      34.59300000
 O      33.49000000       8.71400000      35.80800000
 H      34.00400000       9.56900000      35.68300000
 H      32.93300000       8.69300000      35.02800000
 O      28.47800000      34.41400000      34.16900000
 H      28.92700000      35.12800000      34.66000000
 H      28.98300000      34.36700000      33.31200000
 O      35.81000000      14.78200000      39.88900000
 H      36.09400000      14.87900000      38.95200000
 H      36.40000000      14.05000000      40.14900000
 O      27.69200000      31.56000000      39.44200000
 H      28.49400000      31.90400000      39.81300000
 H      27.47800000      32.14900000      38.69800000
 O      38.48800000      29.39000000      38.18700000
 H      38.99400000      29.67600000      37.44600000
 H      37.69000000      28.96700000      37.77900000
 O      32.32000000      27.19800000      37.57500000
 H      32.20100000      26.82700000      36.67300000
 H      33.28500000      27.22700000      37.64900000
 O      27.95200000      35.66600000      38.79900000
 H      28.56900000      35.45400000      39.58600000
 H      27.48500000      36.48500000      39.21600000
 O      37.09700000      26.76500000      38.53700000
 H      37.91900000      26.71200000      39.08200000
 H      37.07400000      25.81300000      38.23800000
 O      31.45800000       2.29200000      38.69600000
 H      31.16600000       1.50400000      38.17500000
 H      31.95500000       2.72500000      37.98400000
 O      28.73600000      11.37300000      35.97300000
 H      28.95700000      10.47400000      36.28700000
 H      29.32100000      11.90800000      36.54000000
 O      31.85600000      26.58800000      34.61100000
 H      30.92700000      26.87800000      34.49600000
 H      32.27900000      27.04500000      33.83600000
 O      27.48500000      25.03600000      38.45300000
 H      27.15800000      24.64600000      37.61200000
 H      28.38100000      25.29900000      38.20400000
 O      31.26800000      39.20100000      38.76200000
 H      31.10900000      39.17000000      39.74100000
 H      30.31500000      39.46500000      38.51000000
 O      34.76200000      21.27700000      35.22400000
 H      33.92100000      20.95000000      35.61900000
 H      35.41400000      21.13300000      35.94600000
 O      28.26900000       4.81600000      34.25800000
 H      28.30400000       5.78000000      34.27500000
 H      28.19000000       4.62300000      35.17300000
 O      31.59800000      19.18900000      36.75700000
 H      31.31600000      18.45300000      37.36000000
 H      31.33600000      18.85000000      35.89900000
 O      35.91100000       7.55800000      40.11700000
 H      35.13600000       7.00500000      40.16400000
 H      35.98900000       7.71800000      39.18300000
 O      29.88600000       4.51600000      39.38300000
 H      30.59100000       3.85300000      39.36900000
 H      29.31700000       4.18800000      40.12100000
 O      31.27600000      13.34400000      40.22500000
 H      32.01300000      14.00100000      40.31400000
 H      31.89800000      12.51100000      40.23800000
 O      31.35500000      21.78700000      37.73800000
 H      31.62300000      20.91300000      37.46400000
 H      32.12400000      22.19100000      38.10900000
 O      27.55700000      16.07000000      37.61400000
 H      26.60400000      15.99000000      37.83200000
 H      27.79000000      16.88100000      38.15200000
 O      39.06900000      10.93600000      34.48000000
 H      39.08400000      11.81200000      34.96400000
 H      38.30300000      11.10100000      33.90500000
 O      28.58700000      28.97300000      39.41700000
 H      28.27300000      29.90100000      39.45700000
 H      29.52000000      29.06200000      39.65600000
 O      28.52000000      19.48200000      35.68000000
 H      28.20900000      19.79600000      34.76500000
 H      28.52700000      18.51900000      35.52000000
 O      32.61100000       3.55100000      36.45400000
 H      33.55200000       3.34900000      36.28900000
 H      32.55600000       4.50400000      36.27000000
 O      34.81100000      27.56800000      40.53000000
 H      35.07300000      28.46200000      40.81500000
 H      35.73300000      27.21200000      40.27100000
 O      35.76300000       7.92900000      37.29300000
 H      36.20500000       7.79600000      36.39900000
 H      34.90300000       8.19500000      36.99800000
 O      30.68100000      37.64500000      36.50700000
 H      31.26800000      37.08000000      35.92000000
 H      31.40200000      38.20900000      36.97700000
 O      28.84300000      40.05500000      38.30000000
 H      28.23100000      39.56100000      37.72100000
 H      28.62200000      40.97100000      38.00300000
 O      34.30000000      37.41500000      35.39600000
 H      33.44300000      36.96300000      35.45700000
 H      34.27600000      37.99700000      36.20400000
 O      33.35600000      11.49900000      40.40500000
 H      33.16800000      10.60800000      40.83200000
 H      34.03400000      11.19600000      39.76400000
 O      40.29800000       3.88700000      38.29200000
 H      40.00000000       2.99600000      38.01800000
 H      41.16700000       3.59200000      38.72500000
 O      35.53500000       5.23900000      37.43400000
 H      35.22300000       5.41800000      38.34200000
 H      36.03100000       6.05800000      37.27800000
 O      30.48000000      17.04200000      38.09600000
 H      30.08600000      16.20000000      37.92300000
 H      30.18500000      17.15300000      39.05000000
 O      39.59200000      14.88700000      40.35800000
 H      39.50500000      14.85000000      41.31700000
 H      40.30600000      14.29100000      40.13100000
 O      37.06700000      37.88400000      35.57100000
 H      37.33200000      37.52100000      36.42500000
 H      36.09200000      37.69100000      35.56300000
 O      31.16200000      12.32100000      37.52700000
 H      30.65500000      13.12800000      37.15200000
 H      31.38700000      12.75200000      38.38900000
 O      36.29800000      17.71000000      40.42800000
 H      36.06600000      16.79400000      40.05300000
 H      36.76600000      17.36400000      41.24900000
 O      36.14300000      23.36300000      40.20700000
 H      35.41400000      22.83000000      40.43800000
 H      36.87600000      23.04300000      40.78500000
 O      30.03400000      32.85800000      39.45000000
 H      30.19800000      32.76300000      38.50100000
 H      30.24600000      33.81000000      39.63500000
 O      27.88100000      30.12200000      48.30500000
 H      27.01000000      30.34600000      48.65700000
 H      27.78200000      29.12800000      48.36300000
 O      39.80600000       9.70200000      44.89100000
 H      39.63100000       9.32200000      45.76500000
 H      40.13900000       8.91000000      44.44800000
 O      31.65800000      32.98700000      46.13300000
 H      30.83900000      32.63200000      45.71200000
 H      31.26800000      33.12900000      47.08800000
 O      36.44100000      11.40500000      44.28000000
 H      36.74200000      10.54800000      43.91300000
 H      37.20400000      11.95000000      44.06400000
 O      28.34500000      35.33700000      42.99600000
 H      28.24100000      34.46100000      43.40100000
 H      29.27900000      35.55200000      43.27900000
 O      31.16600000      40.59400000      44.91300000
 H      30.92000000      40.74100000      45.85300000
 H      31.25600000      41.53600000      44.65000000
 O      33.14200000      31.51600000      44.27200000
 H      32.61700000      32.09600000      44.95200000
 H      33.19800000      30.69200000      44.83700000
 O      28.35100000      21.12400000      44.87500000
 H      27.68200000      21.83900000      44.88300000
 H      29.05900000      21.67700000      45.29400000
 O      30.66300000      19.99900000      44.02100000
 H      31.38800000      20.05600000      44.71300000
 H      29.88100000      20.25800000      44.55000000
 O      36.11000000      24.98300000      47.06300000
 H      36.30900000      25.06700000      46.12300000
 H      37.00100000      24.84400000      47.42800000
 O      33.92500000      36.94800000      42.04000000
 H      34.14400000      36.53600000      42.90100000
 H      34.34000000      37.81400000      42.09600000
 O      36.19200000      20.90900000      45.34300000
 H      36.10900000      19.99700000      44.91000000
 H      36.91400000      20.68900000      45.96400000
 O      37.74100000       4.75700000      48.55500000
 H      37.76400000       4.68700000      47.60200000
 H      37.24200000       5.55700000      48.72100000
 O      33.41900000      33.47500000      42.28700000
 H      33.37800000      32.79100000      42.93600000
 H      33.90000000      34.14400000      42.82000000
 O      39.39900000       1.28600000      44.35000000
 H      39.31200000       2.26700000      44.30700000
 H      38.72200000       1.04300000      44.99900000
 O      36.75300000       7.60400000      45.63700000
 H      37.55200000       7.60200000      46.22100000
 H      37.13100000       8.15000000      44.90300000
 O      34.20500000       1.95500000      46.91400000
 H      34.90200000       2.12000000      46.28200000
 H      33.78700000       2.84500000      46.90600000
 O      29.88600000      25.10400000      47.19000000
 H      28.92700000      24.94500000      47.14000000
 H      29.99100000      25.98000000      46.80500000
 O      34.10600000       7.96200000      45.06200000
 H      33.51200000       7.65900000      45.78100000
 H      35.00000000       7.84600000      45.43100000
 O      30.34800000      31.21700000      43.02600000
 H      30.13900000      31.90400000      42.30100000
 H      29.80900000      31.60500000      43.77000000
 O      28.21500000      37.86400000      46.44600000
 H      27.62000000      37.17700000      46.82500000
 H      29.09100000      37.57700000      46.80400000
 O      38.54000000      32.75200000      47.07100000
 H      37.78700000      32.82700000      46.36500000
 H      39.12600000      33.46900000      46.66300000
 O      29.97300000      13.13400000      43.95500000
 H      30.42200000      13.11100000      43.06200000
 H      30.58800000      13.73700000      44.42200000
 O      36.95600000       9.74400000      48.98400000
 H      36.65900000      10.21400000      48.12500000
 H      37.32100000      10.53600000      49.40400000
 O      30.81600000      22.40000000      46.00000000
 H      31.72900000      22.25000000      45.98200000
 H      30.81600000      23.38100000      45.87100000
 O      33.27700000       9.00300000      42.73900000
 H      33.53000000       8.58200000      43.61100000
 H      34.03900000       8.68900000      42.20900000
 O      39.14700000      11.44800000      43.11300000
 H      39.09900000      10.84200000      43.92400000
 H      40.12500000      11.60800000      43.18100000
 O      28.36800000      24.47800000      42.81600000
 H      29.25600000      24.40400000      43.25900000
 H      28.50700000      23.97100000      42.02000000
 O      34.42700000      13.02600000      43.91100000
 H      33.92800000      12.72400000      43.11200000
 H      35.26000000      12.54100000      43.77900000
 O      34.10600000      22.57400000      45.17600000
 H      34.90400000      21.96200000      45.39300000
 H      34.09700000      22.39500000      44.21700000
 O      28.95300000      27.80300000      45.29500000
 H      28.55600000      26.98600000      44.93700000
 H      29.47700000      28.08400000      44.48400000
 O      31.95800000      36.86500000      45.60900000
 H      32.36800000      36.47900000      44.83600000
 H      32.45200000      37.68600000      45.73300000
 O      36.19900000       2.76300000      45.01400000
 H      36.83800000       3.48900000      45.21900000
 H      36.68800000       2.00100000      45.49600000
 O      40.35500000      12.04800000      46.54900000
 H      40.43600000      12.70400000      45.82200000
 H      40.30900000      11.20000000      46.10000000
 O      33.63000000      21.47100000      48.19000000
 H      34.57000000      21.23700000      48.51700000
 H      33.71500000      22.41900000      48.46300000
 O      37.97300000      33.29800000      42.85100000
 H      37.58200000      33.04000000      43.68600000
 H      37.55000000      32.69800000      42.19700000
 O      36.74900000      14.22800000      45.15000000
 H      36.53400000      14.62900000      46.00400000
 H      35.90100000      13.70000000      45.02200000
 O      30.45100000      18.39500000      46.56500000
 H      31.18800000      19.04400000      46.66000000
 H      30.92900000      17.57800000      46.83800000
 O      33.45400000      25.79300000      43.81500000
 H      34.17800000      25.53500000      44.43200000
 H      34.04600000      25.97800000      42.99500000
 O      35.38700000      30.03600000      45.85800000
 H      34.47500000      29.65100000      45.84600000
 H      35.77600000      29.28200000      46.35700000
 O      27.95200000      33.21900000      44.56400000
 H      28.19600000      32.36900000      45.00800000
 H      26.96400000      33.14100000      44.65800000
 O      37.27900000       8.94900000      43.40900000
 H      38.01000000       9.22800000      42.82800000
 H      36.84800000       8.32400000      42.76500000
 O      27.45300000      20.41900000      42.25900000
 H      27.84700000      20.43400000      43.12000000
 H      26.54700000      20.71100000      42.38800000
 O      38.11100000      36.18300000      46.94600000
 H      38.37300000      37.12800000      46.84400000
 H      37.15500000      36.21900000      46.75200000
 O      34.97700000      18.31700000      45.02400000
 H      34.31900000      17.65000000      44.74900000
 H      35.78200000      17.96400000      44.54000000
 O      34.69400000      35.56900000      44.15400000
 H      34.67700000      35.38200000      45.12800000
 H      35.66200000      35.72800000      44.03900000
 O      37.70000000       4.84200000      45.75600000
 H      37.23800000       5.69000000      45.60500000
 H      38.09300000       4.68500000      44.85500000
 O      27.84500000       4.23000000      45.69800000
 H      27.16000000       4.84000000      46.08400000
 H      28.43900000       4.13600000      46.43100000
 O      29.70600000      22.35900000      48.70700000
 H      29.89600000      22.41900000      47.72200000
 H      30.27100000      23.14200000      49.00000000
 O      39.38600000      14.13700000      45.13000000
 H      38.43800000      14.13800000      45.18700000
 H      39.62500000      14.95400000      45.70500000
 O      29.93800000      16.04400000      45.14300000
 H      29.88900000      15.47900000      45.96100000
 H      29.83800000      16.90400000      45.56900000
 O      31.48300000      24.42200000      49.01000000
 H      30.78400000      24.64700000      48.31100000
 H      32.28900000      24.39200000      48.38600000
 O      28.39000000       3.59100000      43.17700000
 H      28.33400000       3.66600000      44.13700000
 H      27.55000000       3.98600000      42.85600000
 O      28.46500000      30.99700000      45.65500000
 H      28.31100000      30.68000000      46.56700000
 H      28.65600000      30.13300000      45.26200000
 O      32.35000000      16.42300000      47.28800000
 H      31.65100000      15.76000000      47.50200000
 H      33.14100000      15.90700000      47.57400000
 O      36.80500000      28.32900000      43.96200000
 H      36.96900000      28.85200000      44.80200000
 H      36.26400000      29.03100000      43.49600000
 O      32.91500000      16.32300000      44.52200000
 H      33.24000000      15.89800000      45.32300000
 H      32.17700000      16.88800000      44.90900000
 O      30.26600000      10.15400000      43.90400000
 H      29.99500000      10.93400000      43.39100000
 H      31.04000000      10.47800000      44.38200000
 O      31.29700000      28.83000000      43.96700000
 H      31.55100000      28.59400000      43.02400000
 H      30.76500000      29.61700000      43.81300000
 O      39.38900000       8.34300000      47.42800000
 H      40.21000000       7.86200000      47.68400000
 H      38.85100000       8.25000000      48.19600000
 O      33.06600000      27.27700000      48.26800000
 H      33.38100000      26.46300000      47.89500000
 H      33.01900000      27.84400000      47.49200000
 O      29.95500000      14.18100000      47.15900000
 H      30.26000000      13.40300000      47.68200000
 H      29.00400000      13.94800000      47.23600000
 O      40.11000000      37.31200000      43.60300000
 H      40.66500000      36.54500000      43.69000000
 H      40.59900000      37.87100000      42.98400000
 O      34.26100000      33.83800000      46.49200000
 H      34.13200000      34.28800000      47.39300000
 H      33.38000000      33.49500000      46.44900000
 O      35.75000000      15.80700000      47.46200000
 H      36.51100000      16.38200000      47.43600000
 H      35.17900000      16.21900000      48.15100000
 O      31.16300000       7.61300000      43.09000000
 H      30.48200000       8.20500000      43.33300000
 H      31.92200000       8.19400000      42.89600000
 O      37.38600000      17.17700000      44.29900000
 H      37.27400000      16.19200000      44.51300000
 H      38.12900000      17.38500000      44.88600000
 O      39.62800000      21.56900000      47.07800000
 H      40.07300000      22.21400000      47.71900000
 H      40.42400000      21.30400000      46.54000000
 O      28.56000000      10.37900000      46.61500000
 H      28.97100000      10.50700000      45.74900000
 H      28.30200000      11.29900000      46.86700000
 O      40.51200000      26.98500000      45.35800000
 H      40.78900000      26.66100000      46.25700000
 H      40.49800000      26.11700000      44.82300000
 O      39.33000000       3.82700000      43.53400000
 H      38.78800000       4.56500000      43.15600000
 H      40.16700000       3.97900000      43.02000000
 O      30.40500000      36.75000000      47.92000000
 H      31.05800000      36.42500000      47.17000000
 H      31.10300000      37.31300000      48.38800000
 O      40.32000000      29.54900000      44.87100000
 H      40.52800000      28.60700000      45.11200000
 H      40.17700000      29.46400000      43.94000000
 O      40.07900000      34.54000000      45.82500000
 H      40.20200000      35.10800000      46.59000000
 H      40.71700000      34.96900000      45.21300000
 O      35.22000000      39.33000000      42.31400000
 H      35.12900000      40.32200000      42.38100000
 H      36.11900000      39.16600000      42.66700000
 O      30.76200000      24.32000000      43.87600000
 H      31.56000000      24.90700000      43.97700000
 H      31.19200000      23.58800000      43.33700000
 O      35.82300000      11.16000000      46.98700000
 H      35.97800000      10.99300000      46.01900000
 H      36.20600000      12.03500000      47.11200000
 O      27.96500000      19.80800000      47.44700000
 H      28.23300000      20.11900000      46.51900000
 H      28.66400000      19.11900000      47.53300000
 O      37.36800000      36.08100000      43.34400000
 H      37.91600000      35.27000000      43.39500000
 H      38.00600000      36.77400000      43.17600000
 O      32.81800000       3.40600000      42.37700000
 H      32.08300000       3.22800000      42.98900000
 H      32.53400000       2.74300000      41.66500000
 O      34.01600000      21.88100000      42.45500000
 H      33.06900000      22.11200000      42.15100000
 H      34.01600000      20.93800000      42.16900000
 O      32.73300000      29.21100000      46.33600000
 H      32.02500000      29.48700000      46.97800000
 H      32.10000000      28.96500000      45.54500000
 O      37.50300000      17.94300000      48.21200000
 H      37.28100000      18.85100000      48.46900000
 H      38.08900000      18.15400000      47.47300000
 O      38.70300000      27.68800000      48.59900000
 H      38.81400000      28.52100000      48.10800000
 H      38.05700000      28.02100000      49.29400000
 O      38.82100000      30.14800000      47.40300000
 H      39.48800000      29.94200000      46.82900000
 H      38.63900000      31.10100000      47.36500000
 O      30.39300000      38.60100000      42.99500000
 H      29.47100000      38.64000000      43.37800000
 H      30.82500000      39.20300000      43.68200000
 O      36.51100000      25.57100000      44.42500000
 H      36.70100000      26.56500000      44.18300000
 H      36.75500000      25.13300000      43.59500000
 O      33.39100000      39.37600000      45.72700000
 H      32.61500000      39.57600000      45.13200000
 H      33.71200000      40.26700000      45.94700000
 O      40.02200000      16.39300000      47.28700000
 H      40.06900000      16.99800000      48.07900000
 H      40.68100000      15.76000000      47.53800000
 O      27.29900000      13.67300000      44.00200000
 H      28.26900000      13.57100000      44.12100000
 H      27.30100000      13.73400000      43.01100000
 O      36.05000000      27.62600000      47.00100000
 H      35.86300000      27.79300000      47.96300000
 H      35.94800000      26.65800000      46.97000000
 O      37.06800000      21.36400000      47.94100000
 H      37.11900000      21.22100000      48.87800000
 H      38.00500000      21.59800000      47.71100000
 O      29.80900000       4.26700000      47.67300000
 H      30.39300000       5.00100000      47.28300000
 H      30.41500000       3.47100000      47.46400000
 O      29.69400000      16.23800000      42.47200000
 H      29.66300000      16.15800000      43.45000000
 H      29.68400000      15.26300000      42.22900000
 O      39.77700000      35.24800000      48.90200000
 H      40.52700000      35.78400000      48.56900000
 H      39.09000000      35.51500000      48.24300000
 O      28.45400000       7.73400000      44.97600000
 H      28.86200000       8.56100000      45.35600000
 H      29.23700000       7.15600000      44.91500000
 O      39.59400000      24.59300000      43.98600000
 H      38.97000000      23.86800000      43.80300000
 H      40.38600000      24.03000000      43.98500000
 O      27.80300000      38.63100000      43.95000000
 H      27.47400000      39.50400000      44.34800000
 H      27.91100000      38.17000000      44.84700000
 O      39.12600000      19.21800000      43.39000000
 H      39.69300000      18.62600000      42.82900000
 H      39.15300000      20.00000000      42.80400000
 O      31.47700000      12.11200000      47.89100000
 H      31.15900000      11.23600000      48.10900000
 H      31.91900000      12.01500000      47.06900000
 O      33.15900000      15.39900000      42.01400000
 H      34.14900000      15.31900000      42.12900000
 H      32.92400000      15.74700000      42.88500000
 O      33.68300000      24.05000000      47.40900000
 H      33.87900000      23.51000000      46.59500000
 H      34.52200000      24.62900000      47.32400000
 O      38.08500000      12.89100000      47.73100000
 H      38.98800000      12.77600000      47.31100000
 H      38.33000000      12.86600000      48.69400000
 O      31.06100000       1.64300000      47.53100000
 H      30.40400000       1.04700000      47.93100000
 H      31.61800000       1.87800000      48.36000000
 O      38.59500000      19.18900000      45.90600000
 H      38.95400000      19.17200000      44.97800000
 H      38.94400000      20.05300000      46.17500000
 O      30.60100000      29.88200000      48.10100000
 H      29.62900000      29.87300000      48.00100000
 H      30.69600000      29.58500000      49.01900000
 O      32.62600000      11.33400000      45.24400000
 H      33.22500000      10.63000000      45.42100000
 H      33.24500000      12.02200000      44.90500000
 O      30.85800000       3.23200000      44.26100000
 H      29.98800000       3.25900000      43.80400000
 H      30.79300000       4.09500000      44.74000000
 O      37.60400000       0.90800000      46.31000000
 H      37.98400000       1.46200000      46.99300000
 H      37.73400000       0.00000000      46.61700000
 O      32.44000000       6.99800000      47.19600000
 H      33.04700000       7.64500000      47.70400000
 H      32.61700000       6.23100000      47.78100000
 O      39.15100000      38.45000000      46.05500000
 H      39.48100000      38.11800000      45.19400000
 H      39.81900000      39.13900000      46.30500000
 O      31.06600000       5.92500000      45.23200000
 H      31.72500000       6.45900000      45.76300000
 H      31.13700000       6.39900000      44.35800000
 O      35.16800000       2.04100000      42.75300000
 H      35.56800000       2.36000000      43.57400000
 H      34.29400000       2.48100000      42.73900000
 O      37.94900000       5.66800000      42.58400000
 H      37.13300000       6.03100000      42.20900000
 H      38.61900000       5.90100000      41.87700000
 O      35.11500000      30.31800000      42.86300000
 H      34.32200000      30.79900000      43.21800000
 H      35.47900000      31.05500000      42.31900000
 O      39.06400000       2.22700000      48.67900000
 H      39.93000000       2.60100000      48.21200000
 H      38.58900000       3.05900000      48.66300000
 O      35.43800000      37.53100000      46.76500000
 H      34.69200000      37.90200000      46.26500000
 H      35.69600000      38.26400000      47.33300000
 O      31.38800000      18.26700000      42.12900000
 H      31.33700000      18.83700000      42.89000000
 H      30.66800000      17.65700000      42.29100000
 O      31.27800000      36.03200000      42.69700000
 H      32.19800000      36.25600000      42.45100000
 H      30.88200000      36.97300000      42.75200000
 O      36.49700000      32.47900000      45.37300000
 H      36.06700000      31.59600000      45.47700000
 H      35.77500000      33.05400000      45.69500000
 O      40.54100000      32.27000000      43.13400000
 H      39.63100000      32.61900000      42.99300000
 H      40.38700000      31.30600000      43.20200000
 O      31.22400000      22.18900000      42.28600000
 H      30.85500000      21.35400000      42.68700000
 H      30.51500000      22.38000000      41.60300000
 O      37.96600000      22.53500000      43.81500000
 H      38.59000000      21.84600000      44.05200000
 H      37.23800000      22.39600000      44.42600000
 O      29.03200000      40.23800000      48.65000000
 H      28.72800000      39.58100000      47.98100000
 H      28.34900000      40.93100000      48.50200000
 O      32.76400000      19.89700000      45.96800000
 H      33.61600000      19.51000000      45.67000000
 H      33.18200000      20.55200000      46.64100000
