1467
XYZ file of cluster: frame_3000_22ac.49899.9c7ed - created by MolEdiTo
 O      24.18500000      20.40800000      32.66300000
 H      24.69800000      19.58600000      32.74000000
 H      23.77600000      20.48900000      33.53400000
 O      25.04900000      25.56300000      27.91600000
 H      24.17500000      25.93000000      27.86300000
 H      24.97500000      24.87100000      27.23000000
 O      24.64900000      38.97400000      31.47900000
 H      24.94000000      38.26600000      30.95300000
 H      25.45900000      39.33000000      31.83500000
 O       6.34900000      14.60100000      30.21300000
 H       7.13500000      14.28600000      29.73500000
 H       6.55500000      14.36500000      31.12900000
 O      37.88400000      19.43600000      27.40900000
 H      38.23400000      18.54700000      27.61700000
 H      37.39300000      19.62100000      28.25900000
 O      25.63500000      36.98900000      29.83700000
 H      26.59400000      37.15500000      29.99300000
 H      25.59500000      35.98800000      29.91200000
 O      16.33800000      33.43400000      37.89800000
 H      16.77700000      34.14800000      37.38700000
 H      15.38100000      33.63100000      37.66400000
 O      31.93700000      39.40000000      31.66100000
 H      32.05900000      40.15200000      32.28200000
 H      32.43200000      39.70400000      30.86400000
 O      38.42400000      38.17300000      38.92400000
 H      39.30500000      37.82700000      39.12000000
 H      38.53900000      39.09700000      39.22700000
 O      29.86000000      32.16800000      36.66200000
 H      28.91400000      31.90100000      36.29700000
 H      30.10500000      31.19800000      36.84400000
 O      22.38100000      26.57300000      28.45100000
 H      22.36300000      27.48100000      28.79500000
 H      22.06000000      25.98900000      29.17800000
 O      10.87000000      37.55500000      38.63600000
 H      10.90100000      37.92600000      39.48300000
 H      11.43500000      36.81100000      38.64700000
 O      16.66200000      27.59100000      33.73300000
 H      17.46600000      27.94800000      33.38400000
 H      16.61400000      27.91200000      34.65200000
 O       4.21400000      17.76500000      27.99600000
 H       4.45800000      18.69200000      27.96800000
 H       4.47800000      17.50400000      28.87100000
 O      12.39400000      29.92100000      40.27500000
 H      12.73500000      29.07300000      40.51400000
 H      11.71500000      29.78100000      39.63700000
 O      26.94700000      26.93400000      35.35200000
 H      26.75200000      26.02300000      35.58100000
 H      26.13600000      27.14400000      34.82700000
 O      22.55900000      35.05500000      29.35700000
 H      22.86100000      34.88500000      28.43600000
 H      22.43300000      36.02800000      29.26300000
 O      26.06600000      21.44100000      35.20900000
 H      25.69000000      20.57800000      35.37300000
 H      26.37000000      21.33700000      34.34400000
 O      19.13400000      17.15800000      37.05500000
 H      19.94600000      17.61300000      36.81100000
 H      19.20600000      17.16400000      38.06400000
 O       9.37900000      25.87900000      30.51100000
 H       9.37300000      24.97000000      30.09100000
 H       9.21600000      26.41400000      29.71800000
 O      35.97200000      17.21200000      29.69700000
 H      36.12400000      16.29300000      29.87300000
 H      36.78100000      17.68300000      29.81200000
 O      23.20200000      35.95400000      33.90800000
 H      23.34700000      35.34600000      33.12800000
 H      22.30500000      36.30400000      33.74400000
 O      33.21400000      34.99200000      38.51300000
 H      33.33000000      35.77700000      39.08000000
 H      33.03900000      34.31400000      39.22000000
 O      33.80700000      38.98300000      37.57200000
 H      32.92600000      38.97600000      38.08500000
 H      34.43100000      38.83100000      38.30000000
 O       5.05700000      19.70600000      39.83800000
 H       5.48200000      18.82300000      39.70800000
 H       4.18200000      19.55800000      39.43400000
 O       9.13200000      19.67400000      30.81800000
 H       9.78900000      19.97900000      31.48900000
 H       9.76000000      19.07700000      30.31700000
 O      37.83600000      35.59500000      31.50200000
 H      38.17200000      34.68900000      31.42900000
 H      38.04800000      35.72500000      32.46800000
 O      15.37400000      27.22700000      36.73200000
 H      16.07800000      27.10800000      37.36000000
 H      14.91900000      28.02100000      36.95600000
 O      29.23400000      27.32300000      34.04100000
 H      28.93300000      28.23800000      33.84000000
 H      28.44900000      27.03300000      34.53000000
 O      17.84100000      32.84500000      27.50400000
 H      18.36700000      32.39000000      26.76700000
 H      18.57200000      33.01100000      28.17100000
 O       5.49800000      28.15300000      38.52100000
 H       6.21100000      27.53300000      38.27100000
 H       4.75100000      27.50600000      38.50500000
 O      32.91300000      34.25500000      32.19200000
 H      32.55500000      33.69800000      32.94500000
 H      32.57900000      35.10800000      32.45000000
 O       6.80800000      32.23000000      28.35200000
 H       6.96000000      31.68800000      27.58000000
 H       7.42300000      31.83200000      28.96400000
 O       7.06100000      27.51400000      32.07800000
 H       7.89500000      27.17200000      31.79800000
 H       6.58000000      26.64600000      32.27000000
 O      10.38100000      35.01100000      34.98700000
 H      10.48100000      34.10000000      35.18900000
 H      11.24300000      35.25900000      34.64700000
 O      13.97100000      37.46900000      29.07100000
 H      14.38100000      36.57700000      29.17500000
 H      13.39300000      37.22400000      28.26300000
 O      18.38600000      22.31000000      34.23900000
 H      18.87400000      22.54800000      35.05600000
 H      18.75900000      21.42200000      34.08200000
 O       4.81900000      35.97100000      34.46200000
 H       3.99500000      36.40600000      34.21700000
 H       5.34700000      36.16400000      33.61900000
 O      33.19100000      31.12400000      39.15000000
 H      32.93000000      31.80100000      39.82800000
 H      32.62200000      30.41200000      39.51000000
 O       3.50100000      16.86700000      37.63000000
 H       3.12600000      16.48900000      38.47400000
 H       3.92300000      16.04900000      37.25200000
 O       7.95100000      32.76100000      36.68300000
 H       7.94800000      31.87000000      37.17200000
 H       7.10100000      33.13900000      37.14900000
 O       7.76600000      29.81700000      38.55900000
 H       7.52200000      30.22600000      39.42400000
 H       6.89700000      29.31900000      38.41200000
 O       3.12300000      39.74600000      29.37200000
 H       2.42900000      39.18300000      29.74600000
 H       2.85300000      40.61000000      29.69700000
 O       7.20600000      29.26500000      34.15700000
 H       7.38900000      28.72800000      33.37700000
 H       7.66600000      30.13200000      33.96600000
 O      15.82700000      26.57300000      29.18300000
 H      15.47900000      25.67900000      29.08400000
 H      16.01300000      26.61900000      30.14900000
 O      26.19000000      34.28700000      29.65400000
 H      26.35400000      33.37800000      29.64800000
 H      26.70600000      34.58800000      28.84200000
 O      20.61700000      31.50100000      27.11300000
 H      20.88200000      31.83700000      27.98200000
 H      20.05400000      30.73500000      27.38400000
 O      40.03900000      36.04900000      29.93400000
 H      39.23600000      36.01200000      30.49600000
 H      40.59500000      35.31900000      30.33300000
 O      38.96800000      26.07700000      40.45300000
 H      38.87000000      25.78800000      41.42400000
 H      39.78700000      25.58200000      40.25400000
 O      37.56100000      21.79200000      31.38400000
 H      37.04200000      22.39100000      31.91200000
 H      36.99000000      21.73600000      30.58600000
 O      39.94000000      28.89900000      40.46700000
 H      39.49600000      28.02400000      40.52300000
 H      39.43100000      29.22500000      39.68100000
 O      28.88800000      15.09300000      34.15000000
 H      27.87200000      15.05300000      34.26000000
 H      28.96100000      14.45400000      33.45700000
 O      40.07600000      36.45900000      27.22000000
 H      39.94300000      36.33000000      28.17400000
 H      41.06600000      36.35600000      27.24600000
 O      29.84700000      34.48300000      31.89000000
 H      30.68200000      34.91800000      32.05500000
 H      29.98700000      33.85000000      31.17400000
 O      28.94500000      30.13200000      33.73900000
 H      29.84900000      30.14700000      34.04800000
 H      28.56700000      30.77700000      34.41600000
 O      35.15100000      34.75200000      34.55900000
 H      35.37900000      34.62600000      35.50000000
 H      34.77900000      35.64400000      34.59600000
 O      35.38200000      17.89600000      36.52000000
 H      34.58600000      17.44700000      36.94300000
 H      34.92400000      18.42700000      35.83600000
 O      19.48800000      21.23200000      28.78000000
 H      20.44100000      21.30400000      28.95400000
 H      19.51100000      20.67800000      27.94700000
 O      38.75500000      19.15300000      35.08400000
 H      38.30200000      19.53800000      35.84300000
 H      39.38900000      18.52200000      35.47600000
 O      12.02600000      28.06000000      37.55400000
 H      11.29300000      28.36200000      38.18700000
 H      11.75900000      27.15000000      37.39800000
 O       4.26100000      36.80700000      30.68900000
 H       4.22200000      35.81900000      30.64100000
 H       3.49700000      37.11900000      30.13100000
 O      13.30100000      39.29300000      30.93000000
 H      13.41700000      38.65600000      30.19700000
 H      12.72200000      39.93900000      30.50600000
 O      18.67600000      29.43700000      27.98500000
 H      19.16000000      29.59000000      28.82000000
 H      17.82900000      29.86700000      28.19000000
 O      10.81700000      16.66000000      28.56900000
 H      11.58200000      16.60900000      27.97500000
 H      10.48200000      17.54400000      28.36400000
 O      19.21000000      17.17300000      39.63200000
 H      18.61500000      16.91700000      40.32700000
 H      20.05400000      16.85400000      39.98700000
 O      32.24900000      28.52900000      40.09100000
 H      33.17500000      28.39300000      40.31600000
 H      32.18900000      27.95100000      39.30100000
 O      32.55400000      32.69400000      29.48000000
 H      33.34200000      33.28400000      29.60900000
 H      31.83200000      33.31100000      29.56200000
 O       1.88900000      19.99400000      39.08200000
 H       1.04800000      20.47500000      39.27200000
 H       1.74000000      19.14500000      39.48400000
 O      34.47000000      18.70700000      34.06500000
 H      35.31300000      18.77800000      33.60800000
 H      34.09800000      19.58400000      33.86200000
 O       9.29100000      18.42000000      35.13000000
 H       9.83200000      18.21800000      34.33300000
 H       9.88800000      19.05600000      35.57300000
 O       3.59200000      17.60200000      33.14400000
 H       3.50200000      18.31800000      33.82600000
 H       4.44600000      17.22000000      33.41800000
 O      10.14600000      28.64500000      39.23500000
 H       9.73800000      28.03700000      39.90700000
 H       9.26000000      29.09500000      38.91200000
 O      38.65300000      36.17500000      33.88800000
 H      38.06900000      36.85100000      34.29000000
 H      39.40800000      36.80000000      33.70600000
 O      16.69000000      23.09400000      37.98300000
 H      17.42200000      23.73200000      37.93000000
 H      16.14400000      23.39000000      38.72400000
 O      21.59000000      29.02100000      32.61900000
 H      21.87500000      29.50200000      33.42200000
 H      22.37100000      29.31400000      31.99900000
 O      37.95400000      19.45700000      39.13900000
 H      37.39900000      18.96800000      39.82000000
 H      38.55200000      18.66600000      38.92500000
 O      35.47500000      32.78600000      28.04600000
 H      36.27400000      32.27300000      28.33500000
 H      35.42300000      33.44300000      28.78600000
 O      11.64500000      30.75100000      35.60000000
 H      12.26700000      30.66600000      34.83400000
 H      11.17600000      29.85500000      35.46000000
 O       1.78100000      24.26800000      33.28900000
 H       1.47000000      24.81700000      32.49500000
 H       2.72600000      24.48800000      33.27200000
 O      23.37700000      16.18700000      33.01700000
 H      22.47300000      16.32600000      33.31500000
 H      23.24500000      15.47100000      32.37600000
 O      28.33600000      36.51300000      36.42100000
 H      29.28200000      36.78700000      36.43300000
 H      28.30700000      36.04800000      37.27100000
 O       4.96900000      14.58100000      36.48800000
 H       5.53600000      14.75300000      35.65000000
 H       4.89900000      13.62400000      36.50900000
 O      12.57800000      28.34900000      29.37200000
 H      12.81000000      29.14700000      28.89000000
 H      12.62400000      27.67500000      28.67400000
 O      40.36300000      37.25200000      36.92600000
 H      40.04800000      36.34600000      37.05000000
 H      39.82500000      37.46200000      36.11700000
 O      24.83400000      24.16400000      38.38500000
 H      25.81900000      24.38600000      38.45400000
 H      24.50600000      24.48800000      39.19000000
 O      27.60500000      26.27200000      27.96700000
 H      27.64100000      26.60800000      27.01300000
 H      26.59200000      26.12600000      27.95000000
 O      35.13700000      31.41700000      37.26000000
 H      34.52900000      31.18500000      37.99600000
 H      34.82900000      32.25800000      36.98000000
 O      14.19300000      25.59400000      34.76300000
 H      14.39800000      26.13500000      35.52500000
 H      14.92800000      24.96800000      34.71800000
 O      25.11700000      21.20300000      38.06600000
 H      25.07200000      22.06600000      37.58400000
 H      25.11900000      21.48700000      38.96200000
 O      19.40400000      33.32100000      29.69200000
 H      19.18900000      33.11200000      30.68400000
 H      20.35800000      33.06200000      29.81700000
 O       5.61200000      35.97300000      40.35100000
 H       6.09300000      35.46200000      41.08100000
 H       6.00900000      35.46700000      39.59000000
 O      14.28400000      34.61300000      36.79700000
 H      13.56600000      33.90100000      36.95100000
 H      14.07000000      34.90800000      35.94400000
 O      40.62600000      18.63000000      32.67300000
 H      39.75600000      18.77800000      33.06400000
 H      41.14000000      19.33300000      33.09500000
 O       2.12200000      14.81500000      29.78400000
 H       1.64800000      15.55700000      29.29800000
 H       2.83900000      14.60500000      29.18000000
 O      27.44700000      13.55900000      39.68100000
 H      26.98900000      13.03000000      39.04600000
 H      27.50800000      14.41300000      39.13000000
 O      32.32000000      27.19800000      37.57500000
 H      32.20100000      26.82700000      36.67300000
 H      33.28500000      27.22700000      37.64900000
 O      28.26400000      20.22600000      33.18000000
 H      29.09600000      20.69500000      33.39800000
 H      28.57600000      19.33500000      32.99400000
 O      30.63800000      19.91200000      29.30400000
 H      30.47900000      18.94200000      29.34400000
 H      29.82800000      20.31300000      29.05200000
 O      37.09700000      26.76500000      38.53700000
 H      37.91900000      26.71200000      39.08200000
 H      37.07400000      25.81300000      38.23800000
 O      24.21900000      15.77000000      37.60500000
 H      24.52900000      15.93600000      38.54400000
 H      23.63200000      16.54100000      37.55200000
 O      24.97100000      15.37100000      28.86200000
 H      25.52100000      15.89100000      29.45900000
 H      25.47900000      15.34800000      28.04000000
 O      13.58000000      23.28800000      39.50200000
 H      12.91500000      23.09800000      40.12800000
 H      13.45900000      22.66400000      38.81400000
 O      21.18700000      15.58100000      29.93500000
 H      21.52200000      16.43400000      30.27300000
 H      21.89100000      14.96900000      30.22200000
 O      22.85900000      39.21900000      33.75600000
 H      22.45100000      38.43500000      33.96200000
 H      23.03300000      39.14700000      32.75600000
 O       1.49300000      30.62900000      33.92300000
 H       2.13700000      29.97200000      34.24800000
 H       2.02000000      31.45500000      34.03000000
 O      34.37200000      26.25400000      29.80400000
 H      34.90300000      25.76500000      29.09800000
 H      33.86300000      26.89300000      29.22000000
 O      26.22300000      27.11000000      31.22500000
 H      27.18200000      27.16200000      30.80300000
 H      26.12200000      26.12400000      31.08900000
 O       5.89900000      28.02000000      27.97100000
 H       5.58900000      28.48900000      28.75700000
 H       5.04700000      27.51100000      27.79400000
 O       3.99000000      22.55400000      35.35500000
 H       4.49100000      22.00400000      34.67800000
 H       3.46100000      21.87400000      35.81400000
 O      17.28100000      13.88600000      40.29400000
 H      17.54600000      13.01800000      40.74800000
 H      17.81500000      13.72600000      39.44700000
 O      26.75800000      24.22500000      35.90800000
 H      26.25600000      23.40900000      35.58200000
 H      27.66000000      23.76700000      36.15900000
 O      21.28800000      19.06400000      27.90700000
 H      21.62800000      18.54600000      27.12000000
 H      21.31900000      18.43200000      28.63100000
 O       6.35800000      37.29900000      36.30100000
 H       7.26200000      37.46400000      36.01900000
 H       6.05200000      36.63000000      35.60400000
 O       4.14400000      20.71600000      28.54100000
 H       3.55700000      20.81300000      29.31500000
 H       4.80800000      21.44900000      28.68000000
 O      17.23200000      19.84300000      31.40200000
 H      17.98100000      19.41200000      30.89900000
 H      17.28600000      19.32200000      32.24600000
 O      10.44400000      33.47000000      38.24700000
 H       9.74300000      33.61200000      37.66000000
 H      10.04600000      32.86200000      38.92300000
 O      28.99000000      24.27200000      29.47400000
 H      28.53900000      23.94200000      30.27400000
 H      28.44300000      25.09500000      29.28300000
 O      10.77200000      28.26400000      34.14900000
 H      10.95700000      27.30200000      33.86000000
 H      10.95200000      28.67700000      33.25400000
 O      16.50100000      38.80500000      28.79400000
 H      15.79500000      38.11600000      28.66700000
 H      17.23500000      38.38700000      28.22600000
 O      30.48000000      17.04200000      38.09600000
 H      30.08600000      16.20000000      37.92300000
 H      30.18500000      17.15300000      39.05000000
 O      30.51900000      26.22400000      31.76100000
 H      30.56700000      25.36900000      31.31500000
 H      29.90900000      25.97500000      32.49300000
 O       5.29500000      20.66100000      33.75600000
 H       6.19000000      20.80900000      33.43700000
 H       5.42200000      19.94200000      34.39500000
 O      37.06700000      37.88400000      35.57100000
 H      37.33200000      37.52100000      36.42500000
 H      36.09200000      37.69100000      35.56300000
 O      15.47000000      39.57000000      35.38300000
 H      15.49800000      39.33600000      34.39300000
 H      16.40200000      39.27900000      35.59500000
 O      10.32000000      19.27500000      28.23800000
 H      10.74100000      19.98000000      27.63200000
 H       9.43300000      19.65700000      28.34300000
 O      13.87300000      32.51900000      31.11400000
 H      14.33200000      31.89700000      30.53000000
 H      14.07400000      33.38600000      30.67400000
 O      18.90100000      14.70500000      28.80600000
 H      19.78200000      14.85900000      29.26700000
 H      18.48900000      15.50600000      29.11100000
 O       2.27500000      36.48800000      32.74500000
 H       2.51300000      37.30800000      32.20300000
 H       1.55800000      36.88900000      33.27300000
 O       5.61100000      34.55900000      27.76000000
 H       5.78400000      33.62200000      28.03900000
 H       6.51900000      34.84100000      27.48300000
 O       3.14500000      26.34200000      38.70100000
 H       3.06600000      25.44400000      38.26500000
 H       3.32000000      26.01300000      39.60300000
 O      36.93000000      26.82000000      27.91400000
 H      37.19100000      27.00100000      28.84900000
 H      37.30300000      25.95700000      27.70000000
 O      25.69000000      21.51300000      30.54600000
 H      25.11300000      21.34700000      31.26400000
 H      26.07600000      20.61900000      30.35100000
 O      20.84800000      40.38500000      30.66800000
 H      21.18200000      41.36100000      30.60500000
 H      20.18900000      40.49500000      29.92600000
 O      21.25800000      25.30500000      31.01100000
 H      20.48600000      25.70900000      31.40300000
 H      21.10900000      24.38400000      31.15600000
 O       2.91200000      39.71900000      34.03500000
 H       3.71100000      39.77300000      33.45900000
 H       3.34000000      39.86500000      34.89700000
 O      27.50500000      31.15400000      35.86900000
 H      27.11200000      30.35100000      36.27000000
 H      26.91000000      31.30600000      35.12400000
 O       8.59900000      21.64800000      35.48200000
 H       7.64800000      21.62200000      35.30300000
 H       8.84400000      22.56500000      35.07600000
 O      13.41600000      31.13300000      33.40300000
 H      13.55200000      31.65600000      32.61200000
 H      13.52900000      30.23200000      33.09100000
 O       7.90600000      16.84900000      28.60700000
 H       8.74300000      16.28000000      28.56100000
 H       7.27300000      16.14200000      28.75500000
 O      33.39100000      21.02300000      29.11200000
 H      32.46700000      20.77500000      28.85200000
 H      33.21900000      21.25700000      30.05800000
 O      33.31700000      24.27600000      39.19800000
 H      32.75000000      24.13800000      39.99000000
 H      34.20900000      24.34400000      39.59600000
 O      13.03000000      39.67100000      36.11300000
 H      13.43800000      39.64000000      36.99500000
 H      13.83600000      39.62300000      35.55000000
 O      33.28700000      23.78000000      30.32700000
 H      34.01900000      24.23800000      29.90000000
 H      32.56900000      24.01200000      29.71000000
 O       2.84500000      15.88400000      40.27500000
 H       3.72400000      15.47600000      40.14300000
 H       2.31800000      15.30100000      39.66700000
 O      21.13800000      19.80400000      37.84300000
 H      21.59400000      20.26100000      38.58700000
 H      20.17700000      20.01500000      38.13000000
 O      20.87000000      37.35400000      33.33100000
 H      20.33800000      37.77300000      34.04600000
 H      20.28000000      37.09000000      32.62200000
 O      20.41900000      16.57200000      33.84300000
 H      19.69600000      16.02000000      33.42700000
 H      20.28200000      17.44500000      33.42200000
 O       9.81500000      14.64600000      38.53700000
 H       9.15800000      13.91000000      38.46400000
 H       9.96800000      14.92300000      37.62800000
 O      28.22400000      30.44100000      31.00900000
 H      28.44500000      29.49100000      31.01000000
 H      28.62100000      30.68800000      31.87000000
 O      15.22300000      17.51100000      40.15600000
 H      15.91000000      17.08200000      40.71800000
 H      14.95800000      16.78900000      39.58900000
 O      21.16700000      15.05900000      36.31000000
 H      20.78700000      15.85500000      35.82400000
 H      21.72500000      15.50400000      36.95900000
 O       6.46800000      25.24500000      33.15400000
 H       5.82900000      24.67800000      32.65200000
 H       7.27300000      24.70700000      33.21300000
 O      20.21800000      36.50900000      37.06000000
 H      20.81000000      35.76200000      36.81800000
 H      19.40500000      36.16000000      36.61100000
 O       8.79100000      26.39500000      40.10800000
 H       8.98700000      25.47900000      39.84500000
 H       8.19600000      26.57800000      39.28100000
 O      14.42200000      39.30300000      38.47200000
 H      15.38700000      39.52400000      38.61900000
 H      14.55400000      38.35100000      38.69900000
 O      27.85300000      18.48700000      38.87600000
 H      28.75500000      18.71500000      38.86600000
 H      27.44200000      19.13400000      39.47100000
 O      34.68500000      27.87300000      31.99700000
 H      34.90700000      27.27200000      31.21700000
 H      33.79100000      28.10300000      31.66100000
 O      23.64600000      39.71600000      37.65900000
 H      23.91700000      40.61000000      37.38000000
 H      24.46700000      39.26900000      37.35700000
 O       8.59700000      30.59900000      29.68300000
 H       8.93400000      29.77700000      29.20400000
 H       9.39700000      31.00400000      29.90300000
 O      14.72100000      15.02800000      28.65400000
 H      14.21400000      15.72500000      28.07900000
 H      15.57400000      15.57200000      28.69500000
 O      32.42700000      38.38800000      27.68700000
 H      33.33400000      38.06500000      27.73200000
 H      32.45400000      39.04100000      28.47800000
 O      35.61500000      14.54600000      33.31800000
 H      35.80900000      15.47400000      33.54500000
 H      34.97600000      14.61800000      32.60200000
 O      25.37200000      24.57300000      30.61000000
 H      25.28300000      23.68400000      30.33800000
 H      25.18400000      25.03700000      29.80300000
 O      36.85700000      20.34600000      36.77700000
 H      37.25500000      20.49100000      37.67500000
 H      36.34000000      19.55700000      36.95300000
 O      10.99900000      20.95900000      34.97800000
 H      10.08100000      21.36600000      34.97100000
 H      11.44300000      21.79700000      35.11100000
 O      21.90700000      30.70500000      40.16500000
 H      21.50000000      30.42900000      41.03200000
 H      21.81700000      29.80900000      39.72000000
 O      21.36300000      34.02600000      36.78400000
 H      21.77700000      33.87700000      37.66300000
 H      20.71700000      33.33200000      36.71200000
 O      20.73400000      23.85600000      38.75300000
 H      20.07900000      24.54600000      38.46600000
 H      21.48500000      24.46400000      38.97200000
 O       2.85400000      22.40700000      39.66400000
 H       3.06600000      22.85200000      38.79500000
 H       2.45900000      21.55800000      39.36200000
 O      14.68400000      36.49500000      38.89800000
 H      14.56400000      36.14100000      37.99700000
 H      14.03500000      35.92300000      39.35800000
 O       1.17100000      34.03000000      33.79200000
 H       0.37000000      33.61100000      34.08400000
 H       1.12900000      34.90700000      34.13700000
 O      31.68100000      33.26600000      34.52900000
 H      31.78900000      32.28700000      34.27000000
 H      30.91700000      33.17000000      35.16100000
 O       5.63600000      40.61700000      32.56800000
 H       5.80600000      40.44700000      31.57400000
 H       6.34100000      40.00300000      32.92100000
 O      24.01400000      35.93600000      38.85300000
 H      24.14100000      36.28100000      37.93900000
 H      24.30000000      35.00900000      38.73300000
 O       8.87500000      37.22900000      35.08300000
 H       9.24100000      36.28400000      35.16800000
 H       9.61200000      37.73700000      35.46500000
 O      30.40400000      29.32200000      36.84500000
 H      31.12700000      28.96600000      36.31100000
 H      30.27500000      28.62100000      37.53400000
 O      16.54200000      30.63000000      38.64500000
 H      15.59900000      30.50100000      38.82500000
 H      16.62400000      31.57300000      38.79600000
 O       8.19000000      35.06200000      30.83500000
 H       7.89400000      34.18500000      31.16200000
 H       8.88900000      34.75800000      30.19900000
 O      27.98100000      17.62600000      27.45200000
 H      28.33800000      17.65300000      28.32200000
 H      28.81700000      17.67900000      26.90600000
 O      26.14300000      38.24400000      36.56400000
 H      25.71300000      37.40500000      36.26900000
 H      27.08100000      37.83800000      36.60800000
 O      39.12300000      34.57200000      37.72400000
 H      39.67300000      33.78900000      37.98900000
 H      38.53800000      34.70900000      38.46800000
 O      26.32300000      28.91200000      37.18000000
 H      26.72800000      28.16800000      36.71200000
 H      26.85500000      28.91300000      37.99800000
 O      33.47100000      16.42700000      38.13600000
 H      33.32500000      15.79800000      38.86400000
 H      33.04300000      17.26800000      38.48200000
 O       7.07100000      21.73200000      29.85400000
 H       7.30300000      20.84000000      29.49800000
 H       7.62000000      22.21800000      29.26100000
 O      31.62600000      36.80300000      32.92500000
 H      31.74600000      37.71100000      32.59500000
 H      30.77800000      36.93500000      33.41300000
 O      32.71600000      40.41800000      29.20200000
 H      33.54900000      40.63600000      28.67900000
 H      32.29600000      41.36200000      29.04300000
 O      11.10800000      23.84600000      35.56100000
 H      11.06000000      24.49000000      34.81500000
 H      11.58200000      24.44700000      36.19400000
 O      23.90400000      18.22700000      30.11400000
 H      24.84000000      18.58400000      30.09500000
 H      23.98900000      17.41500000      29.59100000
 O      25.28600000      31.43000000      34.24000000
 H      25.22900000      30.79800000      33.51800000
 H      24.43100000      31.50800000      34.66000000
 O       1.36800000      38.29600000      30.76300000
 H       0.53100000      38.86000000      31.07800000
 H       0.86800000      37.68800000      30.15200000
 O      13.08400000      25.79600000      30.67800000
 H      13.96800000      26.09500000      30.91900000
 H      12.74800000      26.65500000      30.35300000
 O      39.76300000      21.38700000      39.93100000
 H      39.71300000      22.30000000      39.54600000
 H      39.14300000      20.83300000      39.44300000
 O      35.61100000      34.61800000      37.15900000
 H      36.20500000      35.26100000      37.57600000
 H      34.87200000      34.52600000      37.75700000
 O      14.89900000      34.84300000      29.84400000
 H      14.87800000      34.42800000      28.99700000
 H      15.80400000      35.14800000      29.96600000
 O      36.87200000      15.36200000      37.55800000
 H      36.63600000      14.68100000      36.85300000
 H      36.95300000      16.11500000      36.94000000
 O       3.33600000      20.36300000      31.39600000
 H       3.97400000      19.95900000      31.97000000
 H       2.89900000      20.97500000      31.93600000
 O      32.50800000      35.50500000      36.03400000
 H      32.39700000      34.60500000      35.69100000
 H      32.69500000      35.31700000      36.98200000
 O      22.17400000      22.40200000      32.05100000
 H      22.66500000      21.63500000      31.90400000
 H      22.74700000      22.92200000      32.63600000
 O      12.25900000      25.01800000      37.68900000
 H      12.65400000      24.54800000      38.52000000
 H      13.09200000      25.44000000      37.40500000
 O      39.11800000      33.14600000      31.15900000
 H      39.04200000      32.29200000      31.66700000
 H      40.10100000      33.17000000      31.04000000
 O      26.65200000      39.76700000      33.86000000
 H      26.18600000      39.03300000      34.37900000
 H      27.45200000      39.89500000      34.47700000
 O      19.63500000      31.78600000      36.95600000
 H      19.08100000      31.65500000      37.73800000
 H      20.06500000      30.93700000      36.87800000
 O      21.97200000      32.35900000      29.33800000
 H      22.79000000      31.84500000      29.14900000
 H      22.41700000      33.20500000      29.62700000
 O      32.83400000      15.58300000      35.54900000
 H      33.13500000      15.91500000      36.42600000
 H      33.30400000      14.72500000      35.53900000
 O       5.38600000      14.20100000      40.16800000
 H       5.77600000      13.58500000      40.90100000
 H       5.70300000      13.59400000      39.41500000
 O      34.61100000      29.76100000      29.63900000
 H      35.45300000      30.11200000      29.26500000
 H      34.63200000      30.13000000      30.52700000
 O      12.29500000      34.96500000      39.81600000
 H      12.19400000      34.64200000      40.73900000
 H      11.60000000      34.50000000      39.36200000
 O       1.66600000      34.23200000      30.87000000
 H       2.62500000      34.41400000      30.73800000
 H       1.64300000      34.20100000      31.85800000
 O      14.19500000      31.86500000      39.91600000
 H      13.39900000      31.31700000      39.87500000
 H      14.06500000      32.39500000      39.08900000
 O      14.10400000      28.59400000      32.71900000
 H      13.77000000      27.68300000      32.80100000
 H      15.05800000      28.50800000      32.77000000
 O      28.72700000      37.37200000      33.58300000
 H      28.14100000      37.07100000      34.34300000
 H      29.08300000      38.22500000      33.98700000
 O      14.58500000      17.10400000      35.84800000
 H      14.64900000      18.05000000      35.49000000
 H      15.32700000      17.09200000      36.49400000
 O      25.86400000      34.05200000      34.77100000
 H      26.83000000      34.20500000      34.51500000
 H      25.69400000      33.17900000      34.40900000
 O       5.56200000      33.40800000      34.71000000
 H       6.49900000      33.41800000      34.30000000
 H       5.36700000      34.38900000      34.65000000
 O      19.63700000      23.22400000      31.67700000
 H      19.28200000      22.91000000      32.50200000
 H      20.53400000      22.75700000      31.67000000
 O       7.09100000      21.65800000      39.53600000
 H       7.82900000      21.04400000      39.36400000
 H       6.36600000      21.07900000      39.35800000
 O      13.53700000      36.82900000      35.26200000
 H      13.16800000      37.54600000      35.82100000
 H      13.24300000      37.06500000      34.37800000
 O      28.47800000      34.41400000      34.16900000
 H      28.92700000      35.12800000      34.66000000
 H      28.98300000      34.36700000      33.31200000
 O       5.99000000      39.77900000      29.98300000
 H       6.23600000      38.88600000      29.67100000
 H       5.02600000      39.78400000      29.68700000
 O       3.48000000      30.86900000      30.89900000
 H       3.30900000      31.43800000      31.66500000
 H       4.41000000      30.65000000      31.04600000
 O      27.69200000      31.56000000      39.44200000
 H      28.49400000      31.90400000      39.81300000
 H      27.47800000      32.14900000      38.69800000
 O      38.48800000      29.39000000      38.18700000
 H      38.99400000      29.67600000      37.44600000
 H      37.69000000      28.96700000      37.77900000
 O      16.67800000      15.95800000      37.13300000
 H      17.37100000      16.60800000      36.83800000
 H      17.17800000      15.14600000      37.36000000
 O      39.37800000      30.60100000      32.25700000
 H      40.12000000      30.54800000      32.85500000
 H      39.20000000      29.67600000      32.00700000
 O      35.20400000      37.45200000      32.34400000
 H      35.77600000      36.86500000      32.81900000
 H      34.34500000      37.41100000      32.88800000
 O      12.45200000      23.43100000      29.07000000
 H      12.61900000      22.63200000      29.61800000
 H      13.03200000      24.04200000      29.58100000
 O      39.78300000      25.56300000      28.58600000
 H      39.76400000      24.95200000      27.82400000
 H      39.99000000      26.40100000      28.15100000
 O      11.29000000      40.45800000      29.53800000
 H      11.32000000      40.01700000      28.66600000
 H      10.70800000      39.77400000      30.01800000
 O      31.85600000      26.58800000      34.61100000
 H      30.92700000      26.87800000      34.49600000
 H      32.27900000      27.04500000      33.83600000
 O       6.74500000      32.88000000      31.59000000
 H       6.20900000      32.17700000      31.24100000
 H       7.11100000      32.45000000      32.37500000
 O      23.50100000      24.95600000      32.74200000
 H      24.36900000      24.72000000      32.57200000
 H      23.18200000      25.39400000      31.90400000
 O      27.48500000      25.03600000      38.45300000
 H      27.15800000      24.64600000      37.61200000
 H      28.38100000      25.29900000      38.20400000
 O      34.76200000      21.27700000      35.22400000
 H      33.92100000      20.95000000      35.61900000
 H      35.41400000      21.13300000      35.94600000
 O       9.83700000      15.73500000      36.09300000
 H       9.53900000      16.60500000      35.74100000
 H      10.73700000      15.60000000      35.64400000
 O      31.59800000      19.18900000      36.75700000
 H      31.31600000      18.45300000      37.36000000
 H      31.33600000      18.85000000      35.89900000
 O      32.16300000      28.39800000      31.26000000
 H      31.58700000      27.59700000      31.36200000
 H      31.46000000      29.08200000      31.18500000
 O      27.55700000      16.07000000      37.61400000
 H      26.60400000      15.99000000      37.83200000
 H      27.79000000      16.88100000      38.15200000
 O      28.51600000      22.94800000      31.75800000
 H      28.13400000      22.17700000      32.15600000
 H      29.36400000      22.99400000      32.25500000
 O      28.58700000      28.97300000      39.41700000
 H      28.27300000      29.90100000      39.45700000
 H      29.52000000      29.06200000      39.65600000
 O      17.83600000      29.34300000      36.57000000
 H      17.17800000      29.56400000      35.83700000
 H      17.19600000      29.69700000      37.30500000
 O       6.92000000      37.21000000      29.36000000
 H       7.42600000      36.69400000      30.00500000
 H       6.05700000      36.86100000      29.48800000
 O      30.68100000      37.64500000      36.50700000
 H      31.26800000      37.08000000      35.92000000
 H      31.40200000      38.20900000      36.97700000
 O      28.84300000      40.05500000      38.30000000
 H      28.23100000      39.56100000      37.72100000
 H      28.62200000      40.97100000      38.00300000
 O      24.18400000      27.01800000      34.50400000
 H      23.60800000      26.72100000      33.83000000
 H      24.00000000      26.37100000      35.25700000
 O       7.87500000      39.04200000      33.47300000
 H       8.47800000      39.64800000      33.97800000
 H       8.14900000      38.20200000      33.85900000
 O      10.91900000      16.74900000      40.19900000
 H      11.41200000      17.23800000      39.52000000
 H      10.41500000      16.08500000      39.53900000
 O      18.41800000      28.09500000      30.84400000
 H      18.31400000      27.40300000      30.13400000
 H      19.18200000      28.56100000      30.43100000
 O       1.57700000      29.80900000      29.44400000
 H       2.14800000      30.15900000      30.12600000
 H       1.98800000      28.92600000      29.32800000
 O      22.29700000      22.38600000      35.60300000
 H      22.49700000      21.40400000      35.50000000
 H      21.34100000      22.39200000      35.69300000
 O       9.28600000      23.71900000      39.97200000
 H       9.75400000      23.32400000      39.20500000
 H       8.88000000      22.84300000      40.28000000
 O      40.70300000      16.00000000      33.49400000
 H      41.54200000      15.48700000      33.23400000
 H      40.97700000      16.83800000      32.98000000
 O      24.51500000      31.43000000      28.82000000
 H      24.65900000      31.62700000      27.88200000
 H      25.43000000      31.47100000      29.13000000
 O      14.21000000      17.26500000      31.01600000
 H      14.75900000      16.48000000      30.83700000
 H      13.36000000      16.86100000      31.22200000
 O      37.23200000      39.53300000      28.57600000
 H      37.96700000      39.38100000      27.92700000
 H      37.15200000      38.67500000      28.98800000
 O      16.17100000      14.73100000      34.37600000
 H      15.25500000      14.62800000      33.95400000
 H      15.84600000      15.04300000      35.24600000
 O      38.42700000      40.52800000      40.29900000
 H      38.03200000      41.37200000      39.88200000
 H      38.55700000      40.87800000      41.22600000
 O      39.63200000      23.64600000      38.48800000
 H      38.71100000      23.96600000      38.49000000
 H      39.90500000      23.88700000      37.58900000
 O      36.80300000      40.44600000      32.67500000
 H      36.27000000      39.67400000      32.47900000
 H      36.09200000      41.00700000      33.06100000
 O      29.82900000      38.59700000      27.41700000
 H      29.32300000      38.86100000      28.14900000
 H      30.73500000      38.53700000      27.72900000
 O       4.87400000      17.65800000      30.65900000
 H       4.27800000      17.62600000      31.44700000
 H       5.76100000      17.63000000      31.13500000
 O      24.68500000      39.36600000      28.16300000
 H      25.04600000      40.10200000      28.67800000
 H      24.93100000      38.58900000      28.67400000
 O      22.43800000      25.64000000      39.70600000
 H      22.37000000      26.40100000      39.04300000
 H      22.06400000      26.08900000      40.45700000
 O      18.62800000      32.14600000      34.60200000
 H      17.91700000      31.47100000      34.61700000
 H      19.03700000      32.01200000      35.47800000
 O      28.73000000      22.27900000      37.00600000
 H      29.66800000      22.21600000      37.22500000
 H      28.54400000      21.39100000      36.73300000
 O       7.46300000      21.48400000      32.66100000
 H       7.56900000      21.40200000      31.64200000
 H       7.92700000      22.30600000      32.82200000
 O      35.28000000      24.31400000      28.04400000
 H      34.63800000      23.70200000      27.56600000
 H      36.09100000      24.13200000      27.51100000
 O      26.15000000      26.22200000      40.40300000
 H      27.00300000      25.74100000      40.69600000
 H      26.40800000      26.46000000      39.54800000
 O      21.13800000      24.54600000      34.00600000
 H      21.44600000      23.86300000      34.63500000
 H      21.93000000      24.78700000      33.48500000
 O      16.54800000      24.31700000      34.42200000
 H      17.13300000      25.09800000      34.61500000
 H      17.24400000      23.64000000      34.25700000
 O       3.32700000      24.30300000      27.63800000
 H       2.61700000      23.79100000      27.16900000
 H       3.06400000      24.08300000      28.53700000
 O       5.84800000      33.41100000      38.12500000
 H       4.94800000      33.41200000      37.68500000
 H       5.76300000      32.76100000      38.80900000
 O      16.72000000      22.49800000      31.00600000
 H      17.62700000      22.76100000      31.10700000
 H      16.76700000      21.52500000      31.20300000
 O      31.77200000      30.43300000      33.92400000
 H      32.26600000      29.95500000      34.69200000
 H      32.43900000      30.30400000      33.24100000
 O       8.18800000      26.66900000      27.65000000
 H       7.95700000      26.42700000      26.70400000
 H       7.37800000      27.13100000      27.90300000
 O      36.77400000      24.26600000      37.84700000
 H      35.88600000      24.10800000      37.52500000
 H      36.69600000      23.84100000      38.74900000
 O       0.89800000      32.59200000      37.51700000
 H       0.50800000      31.83400000      36.99000000
 H       1.84100000      32.46300000      37.22200000
 O      12.36800000      15.86800000      35.26100000
 H      13.02100000      16.57700000      35.47500000
 H      12.68500000      15.11400000      35.73700000
 O       6.38200000      17.53600000      39.27000000
 H       7.19400000      17.72900000      38.74000000
 H       5.87900000      17.02100000      38.63700000
 O      29.50500000      17.75000000      32.92900000
 H      29.24500000      17.00300000      33.51500000
 H      30.53300000      17.69700000      33.13100000
 O      25.28200000      16.66600000      39.89600000
 H      25.51700000      16.23800000      40.71900000
 H      24.59500000      17.28500000      40.23600000
 O      30.55100000      21.20100000      33.83000000
 H      30.66300000      21.49400000      34.75800000
 H      31.16700000      21.73300000      33.34000000
 O      14.10100000      14.02900000      32.83600000
 H      13.81600000      13.87100000      31.91700000
 H      13.81900000      13.12800000      33.21800000
 O      35.82200000      23.04700000      33.03400000
 H      35.23200000      23.67100000      32.64900000
 H      35.47000000      22.84100000      33.86700000
 O      35.78400000      25.74000000      35.24600000
 H      35.29200000      25.85100000      34.38400000
 H      35.17800000      25.06000000      35.67700000
 O      18.65200000      32.51000000      31.96700000
 H      18.65500000      32.63000000      32.95900000
 H      18.15900000      31.64400000      31.89500000
 O       7.11300000      19.39900000      36.68900000
 H       7.69600000      18.93900000      36.03000000
 H       7.76200000      19.91600000      37.24700000
 O      33.28800000      29.38400000      35.80200000
 H      33.86600000      30.10200000      35.92900000
 H      33.82800000      28.67800000      36.23000000
 O      15.57500000      25.86500000      31.92800000
 H      16.10400000      26.33400000      32.60400000
 H      15.66600000      24.96800000      32.22400000
 O      40.45200000      24.76400000      35.70800000
 H      40.93200000      24.77600000      34.85200000
 H      39.77000000      25.40600000      35.61100000
 O       1.79400000      20.33200000      35.95000000
 H       2.55600000      19.76400000      36.22800000
 H       1.05100000      19.72900000      36.13700000
 O       6.34200000      23.92600000      36.96800000
 H       6.35700000      23.22300000      37.62600000
 H       5.76800000      23.50000000      36.27800000
 O      14.82700000      14.91600000      38.86400000
 H      15.43200000      14.17300000      39.05400000
 H      15.36400000      15.36000000      38.15900000
 O      18.93300000      13.89500000      37.93300000
 H      19.79800000      14.30800000      37.86400000
 H      18.99900000      13.19500000      37.27500000
 O      15.49100000      39.56500000      32.50400000
 H      16.03100000      38.85400000      32.12200000
 H      14.66500000      39.53400000      31.98700000
 O      18.57200000      25.41100000      38.06300000
 H      18.11200000      26.11600000      38.50000000
 H      18.69500000      25.76800000      37.15600000
 O      30.89400000      30.31900000      29.47700000
 H      30.79800000      29.38200000      29.06100000
 H      31.78700000      30.44800000      29.47900000
 O      39.84400000      27.30800000      32.89200000
 H      40.52200000      27.68100000      33.47500000
 H      39.36600000      26.73500000      33.58400000
 O      29.89600000      17.50700000      29.97500000
 H      29.70900000      16.51300000      29.75900000
 H      29.96300000      17.51100000      30.89700000
 O       1.25500000      17.30800000      28.07600000
 H       1.05100000      18.04100000      28.71900000
 H       2.18600000      17.37300000      27.89500000
 O      37.34400000      13.22000000      35.52600000
 H      38.25200000      13.45900000      35.85500000
 H      37.18000000      14.09100000      35.02700000
 O      32.41200000      19.70000000      31.55900000
 H      31.72400000      19.86800000      30.84300000
 H      32.04700000      18.92800000      31.95800000
 O      22.72500000      19.89800000      35.58800000
 H      22.01000000      19.73400000      36.20700000
 H      23.47400000      19.92900000      36.21000000
 O      34.97700000      27.57900000      37.00000000
 H      35.17800000      26.88500000      36.32300000
 H      35.70000000      27.38800000      37.62400000
 O      25.46500000      18.87400000      36.90600000
 H      26.39000000      18.60700000      37.30800000
 H      25.33700000      19.67900000      37.49600000
 O      22.24700000      37.89700000      28.92000000
 H      21.78400000      38.74200000      28.97000000
 H      23.08600000      38.19500000      28.46700000
 O      31.64100000      15.57000000      28.52900000
 H      31.18000000      16.14000000      27.85000000
 H      32.50100000      16.11700000      28.65200000
 O      16.73700000      16.84300000      29.14700000
 H      17.42600000      17.49400000      29.36200000
 H      16.26400000      17.40600000      28.48600000
 O      13.80900000      19.74200000      27.54300000
 H      14.75200000      19.40200000      27.42000000
 H      13.89000000      20.19800000      28.36800000
 O      22.86900000      13.72000000      27.68300000
 H      23.56100000      14.09500000      28.22100000
 H      22.03100000      14.11700000      27.95000000
 O      37.40700000      30.94500000      29.50000000
 H      37.17300000      30.25100000      30.15000000
 H      38.00300000      31.54400000      30.05500000
 O      26.08300000      33.83600000      37.99700000
 H      26.23900000      33.81200000      37.06100000
 H      26.77000000      34.44000000      38.31300000
 O      40.55700000      17.78000000      36.77500000
 H      40.03600000      17.37000000      37.50900000
 H      41.43300000      17.43900000      36.98700000
 O       9.56600000      39.05500000      31.06300000
 H       9.51900000      38.12900000      31.40400000
 H       8.84500000      39.47200000      31.58300000
 O      22.25100000      21.58900000      39.42100000
 H      23.15100000      21.96400000      39.50900000
 H      21.67800000      22.26400000      39.14900000
 O       9.12900000      37.51300000      27.71200000
 H       8.30600000      37.55300000      28.24700000
 H       9.23400000      36.58900000      27.53400000
 O      18.92000000      19.86600000      39.27500000
 H      18.26500000      20.07900000      39.92600000
 H      18.81500000      18.88800000      39.20500000
 O      38.86400000      16.91100000      38.48400000
 H      38.19800000      16.32800000      38.08000000
 H      39.23100000      16.29700000      39.14200000
 O      11.15400000      17.25300000      33.31000000
 H      11.17600000      16.93700000      32.39200000
 H      11.81800000      16.70900000      33.66100000
 O      36.86000000      30.01400000      35.41400000
 H      36.56800000      30.44300000      34.55700000
 H      36.21900000      30.40100000      36.05900000
 O      18.20000000      23.55000000      28.00300000
 H      19.18000000      23.76900000      27.77600000
 H      18.35400000      22.66700000      28.42600000
 O      22.01000000      17.35700000      38.35300000
 H      22.55900000      17.64300000      39.10400000
 H      21.75900000      18.21400000      38.04200000
 O      29.99200000      25.23600000      36.91200000
 H      30.61200000      25.69100000      37.41400000
 H      30.53700000      24.74200000      36.28100000
 O       4.33600000      23.71500000      31.52900000
 H       4.55700000      22.79200000      31.35600000
 H       3.44300000      23.73400000      30.99300000
 O       8.15600000      33.62400000      34.06700000
 H       8.27300000      33.44400000      35.04300000
 H       8.90100000      34.29600000      33.99300000
 O       9.82700000      28.44100000      28.83300000
 H       9.27600000      27.90700000      28.25300000
 H      10.72700000      28.18000000      28.64600000
 O      22.05100000      28.12100000      38.43900000
 H      21.17400000      28.24700000      37.92700000
 H      22.66800000      28.43900000      37.70500000
 O      33.95700000      25.34700000      32.59100000
 H      33.52600000      25.06600000      31.76400000
 H      34.25900000      26.23100000      32.35300000
 O      14.30100000      29.55000000      37.13100000
 H      13.95700000      30.44500000      37.04700000
 H      13.52100000      29.04500000      37.20700000
 O      22.71100000      32.97000000      38.92100000
 H      23.66800000      32.77700000      38.98900000
 H      22.30200000      32.14200000      39.15400000
 O      37.11900000      19.25600000      32.96600000
 H      37.71400000      19.34900000      33.68600000
 H      37.01400000      20.14300000      32.61600000
 O      23.68300000      28.79500000      36.59100000
 H      24.60800000      28.96000000      36.91600000
 H      23.90000000      28.08000000      35.89600000
 O      20.43600000      29.85000000      29.92500000
 H      21.15100000      30.51400000      29.70200000
 H      20.72500000      29.64900000      30.88000000
 O      19.73000000      36.39800000      39.81200000
 H      19.92600000      36.31900000      38.83600000
 H      18.81200000      36.01500000      39.82600000
 O      17.56700000      34.89200000      39.93500000
 H      17.13500000      34.41100000      39.20100000
 H      17.95000000      34.10800000      40.38600000
 O      16.46700000      30.54600000      34.46500000
 H      15.55500000      30.77200000      34.43400000
 H      16.57300000      30.45700000      33.44400000
 O      22.97900000      32.88500000      34.83000000
 H      22.44600000      33.50800000      35.43000000
 H      23.55700000      33.56400000      34.45700000
 O      38.63400000      16.59000000      27.50500000
 H      39.57500000      16.92300000      27.50000000
 H      38.79600000      15.66200000      27.65900000
 O       9.30800000      19.82200000      38.23700000
 H       9.90100000      20.40800000      37.76800000
 H       9.70700000      19.73500000      39.08000000
 O      25.64500000      18.41200000      33.79600000
 H      25.69700000      17.53300000      33.39500000
 H      25.46700000      18.20000000      34.71300000
 O       2.59200000      32.35700000      28.40500000
 H       2.52400000      31.60400000      29.01300000
 H       2.45700000      33.15200000      28.96000000
 O      31.26800000      39.20100000      38.76200000
 H      31.10900000      39.17000000      39.74100000
 H      30.31500000      39.46500000      38.51000000
 O       2.93200000      24.24200000      37.00100000
 H       3.21600000      23.75900000      36.21900000
 H       1.97100000      24.08500000      36.94800000
 O      31.27600000      13.34400000      40.22500000
 H      32.01300000      14.00100000      40.31400000
 H      31.89800000      12.51100000      40.23800000
 O       4.16000000      18.86600000      35.90900000
 H       3.97500000      18.12500000      36.54600000
 H       5.11900000      19.00200000      36.04600000
 O      13.02900000      21.26800000      37.57400000
 H      13.43400000      21.85700000      36.93900000
 H      13.79600000      21.11300000      38.12300000
 O      29.88100000      32.93900000      29.77300000
 H      29.44200000      32.92400000      28.87800000
 H      30.17100000      32.00000000      29.78900000
 O      14.64700000      22.44600000      33.10800000
 H      15.46900000      22.50300000      32.58300000
 H      14.05500000      22.12700000      32.47300000
 O      26.08700000      14.95300000      33.42400000
 H      25.97700000      13.94300000      33.50000000
 H      25.20200000      15.21000000      33.46300000
 O       3.42000000      32.59700000      33.08600000
 H       2.80300000      33.31900000      33.38900000
 H       4.18200000      32.79200000      33.62900000
 O       2.47200000      28.23900000      37.03600000
 H       2.36400000      29.04800000      37.59900000
 H       2.72300000      27.60900000      37.65000000
 O      35.88600000      21.73300000      29.06300000
 H      35.59000000      22.59100000      28.64000000
 H      34.95500000      21.41200000      29.33700000
 O      32.34900000      22.53500000      32.51200000
 H      32.83000000      22.94400000      31.73800000
 H      32.43900000      21.57200000      32.21000000
 O      31.49300000      24.09400000      28.31700000
 H      30.66600000      24.45300000      28.54200000
 H      31.33800000      23.21300000      27.95800000
 O      27.16500000      31.92600000      28.97900000
 H      27.26000000      31.30100000      28.23000000
 H      27.58200000      31.42900000      29.69000000
 O       6.42300000      36.68000000      32.52900000
 H       5.74300000      36.84700000      31.85600000
 H       7.12800000      36.24900000      31.99300000
 O       5.29300000      30.13800000      36.07500000
 H       5.11700000      29.41800000      36.65900000
 H       5.94600000      29.81800000      35.48800000
 O      20.20900000      40.31500000      33.52900000
 H      20.19000000      40.21000000      32.51500000
 H      21.07100000      39.93700000      33.72700000
 O      16.73000000      37.24100000      31.93700000
 H      17.56900000      37.59500000      31.50000000
 H      16.65100000      36.40600000      31.43400000
 O      26.88700000      16.44400000      31.01900000
 H      27.54300000      16.08100000      30.38600000
 H      26.97400000      15.76300000      31.73400000
 O      18.47600000      39.53900000      35.77300000
 H      19.23800000      39.24600000      36.21400000
 H      18.87900000      39.99400000      34.97300000
 O      34.30000000      37.41500000      35.39600000
 H      33.44300000      36.96300000      35.45700000
 H      34.27600000      37.99700000      36.20400000
 O       6.52300000      16.19200000      34.15100000
 H       7.04300000      16.43900000      33.34000000
 H       7.08300000      15.45400000      34.51300000
 O      16.11500000      36.35700000      34.63900000
 H      16.11300000      36.79800000      33.78500000
 H      15.23000000      36.58400000      35.04500000
 O      35.02700000      37.49700000      27.61400000
 H      35.39600000      37.14600000      28.46900000
 H      35.76200000      38.01400000      27.32200000
 O      19.35600000      28.19200000      33.48700000
 H      19.08100000      28.09900000      32.52000000
 H      20.27000000      28.48100000      33.27500000
 O      17.24000000      27.57100000      39.00000000
 H      17.39000000      28.34100000      38.47700000
 H      16.99900000      27.95400000      39.89100000
 O      11.04500000      29.21200000      31.39300000
 H      10.26900000      29.04400000      30.82500000
 H      11.73700000      28.77600000      30.83500000
 O      36.14300000      23.36300000      40.20700000
 H      35.41400000      22.83000000      40.43800000
 H      36.87600000      23.04300000      40.78500000
 O       4.95200000      27.56200000      34.23800000
 H       5.45600000      26.77800000      34.05800000
 H       5.63800000      28.20600000      34.25100000
 O      11.53900000      19.85500000      32.42100000
 H      11.70800000      18.94600000      32.66200000
 H      11.40800000      20.35500000      33.23900000
 O      30.03400000      32.85800000      39.45000000
 H      30.19800000      32.76300000      38.50100000
 H      30.24600000      33.81000000      39.63500000
 O      39.52100000      39.91700000      31.86600000
 H      38.59900000      40.06700000      32.18300000
 H      39.83100000      40.81000000      31.64300000
 O      39.49600000      30.71500000      27.79800000
 H      38.68400000      30.82600000      28.34100000
 H      40.15100000      30.52500000      28.53700000
 O      16.68400000      18.19900000      33.35300000
 H      16.56400000      17.28600000      33.30700000
 H      15.76600000      18.47400000      33.48500000
 O      29.27900000      14.77900000      29.97800000
 H      29.81900000      14.21100000      29.36700000
 H      29.20400000      14.13200000      30.72300000
 O      16.87800000      20.66600000      36.76200000
 H      16.36700000      20.28900000      37.55100000
 H      16.99700000      21.60500000      37.04700000
 O      40.28800000      21.64100000      30.77100000
 H      40.64100000      21.07100000      31.52200000
 H      39.37000000      21.68800000      31.08300000
 O      19.21300000      25.95500000      35.04100000
 H      20.08100000      25.58900000      34.81200000
 H      19.30800000      26.84300000      34.64900000
 O      14.46500000      22.83700000      35.98300000
 H      14.64800000      22.94300000      35.06100000
 H      15.25900000      23.18500000      36.44400000
 O       1.30900000      38.61200000      39.19500000
 H       1.00700000      38.12600000      38.41700000
 H       1.75700000      37.82700000      39.65900000
 O      18.57500000      14.19600000      33.03900000
 H      18.36200000      13.99300000      32.14000000
 H      17.65400000      14.17200000      33.42500000
 O      31.97400000      17.60900000      33.83000000
 H      32.83400000      18.04500000      34.02900000
 H      32.20600000      16.67600000      34.06900000
 O      12.16000000      37.63400000      32.82200000
 H      11.30600000      37.98900000      32.62300000
 H      12.69500000      38.01200000      32.11200000
 O       8.83400000      27.39100000      35.61300000
 H       8.28700000      28.10700000      35.18800000
 H       9.65900000      27.55800000      35.07100000
 O      15.11500000      19.63000000      35.20900000
 H      15.77600000      20.10300000      35.82600000
 H      14.50900000      20.35400000      35.05700000
 O      39.67000000      30.41600000      36.06400000
 H      38.80600000      30.30300000      35.69700000
 H      40.23800000      30.11700000      35.33800000
 O      19.67300000      22.30300000      36.60300000
 H      18.92400000      21.87000000      37.02400000
 H      20.17600000      22.62300000      37.37500000
 O       9.82900000      23.35800000      29.70400000
 H       9.60800000      23.24500000      28.75500000
 H      10.79300000      23.32500000      29.62400000
 O      36.96900000      31.55200000      39.39900000
 H      37.59800000      30.84800000      39.04300000
 H      36.63800000      31.96100000      38.59100000
 O      27.58900000      34.92600000      27.31500000
 H      28.18600000      35.71600000      27.20700000
 H      28.30900000      34.29900000      27.63500000
 O      16.70600000      30.35100000      31.82600000
 H      16.65100000      30.89100000      31.01100000
 H      16.75300000      29.43600000      31.47400000
 O       2.89100000      14.62400000      32.45100000
 H       2.72400000      14.71000000      31.50100000
 H       3.21000000      15.51800000      32.69200000
 O       7.23700000      17.88200000      31.60400000
 H       7.63300000      18.81800000      31.60600000
 H       7.56200000      17.57400000      30.74600000
 O      22.21700000      21.72800000      27.94600000
 H      23.15200000      21.86000000      27.70000000
 H      22.20700000      20.72000000      27.86800000
 O       1.26200000      18.88700000      29.97900000
 H       1.01300000      18.48500000      30.84900000
 H       1.83400000      19.62100000      30.33100000
 O      21.11300000      39.07800000      36.70800000
 H      22.10500000      39.13300000      36.91600000
 H      21.03200000      38.09900000      36.98200000
 O      11.01600000      31.94700000      30.64800000
 H      11.31500000      31.04800000      31.01500000
 H      11.92100000      32.28500000      30.49700000
 O      34.06900000      24.16700000      36.57300000
 H      33.34500000      23.91500000      35.92400000
 H      33.59000000      24.10800000      37.43100000
 O      36.05300000      32.25300000      33.67300000
 H      37.01200000      32.44700000      33.69900000
 H      35.69500000      33.09700000      33.95400000
 O      34.20900000      19.41600000      39.76700000
 H      33.32500000      18.91100000      39.86500000
 H      34.82800000      18.71400000      39.99100000
 O      40.52100000      38.25000000      33.94600000
 H      40.42100000      38.70300000      33.04500000
 H      41.42300000      38.60100000      34.15600000
 O      11.85500000      25.74400000      33.46900000
 H      12.14900000      25.61900000      32.59200000
 H      12.74300000      25.76400000      33.92900000
 O       6.28000000      38.47600000      38.83800000
 H       6.14100000      37.68400000      39.40700000
 H       6.29900000      37.96000000      37.95500000
 O      25.14900000      22.21900000      27.78300000
 H      25.38300000      22.07200000      28.71600000
 H      25.35100000      21.34600000      27.41100000
 O      20.68800000      24.10400000      27.64900000
 H      21.31000000      23.40400000      27.65600000
 H      21.22200000      24.89800000      27.74200000
 O      17.25300000      39.17900000      38.41500000
 H      17.57600000      39.16800000      37.47500000
 H      17.93600000      39.77400000      38.78500000
 O      25.90500000      29.76200000      32.04700000
 H      26.78500000      30.08700000      31.85300000
 H      26.05100000      28.77900000      32.08800000
 O      38.22000000      15.90600000      34.67300000
 H      39.10000000      15.88800000      34.21300000
 H      38.11500000      16.89800000      34.69200000
 O      35.00300000      34.02300000      30.43100000
 H      35.04600000      34.96700000      30.60600000
 H      34.62900000      33.68600000      31.25700000
 O      33.28900000      17.75300000      29.08700000
 H      33.36800000      18.62600000      29.55300000
 H      34.28400000      17.51200000      29.14000000
 O       9.82300000      33.54300000      29.06900000
 H      10.23400000      32.93100000      29.74000000
 H      10.56300000      33.49700000      28.37400000
 O      15.43400000      20.12300000      39.12800000
 H      16.06300000      20.47400000      39.79900000
 H      15.27000000      19.19900000      39.58200000
 O       3.83800000      27.52300000      30.37400000
 H       4.03600000      28.11900000      31.16200000
 H       3.42000000      26.82400000      30.79700000
 O      28.69700000      27.62000000      30.25500000
 H      28.55200000      27.39600000      29.28700000
 H      29.46000000      27.06700000      30.46700000
 O      22.30400000      30.37900000      34.65900000
 H      22.74900000      30.16100000      35.54700000
 H      22.48100000      31.32700000      34.66700000
 O       5.18800000      39.95500000      36.10200000
 H       5.50500000      39.07600000      35.87200000
 H       6.07700000      40.45900000      35.98100000
 O      29.03200000      22.29000000      39.62900000
 H      28.64700000      22.52400000      38.77300000
 H      28.42700000      21.57300000      39.92700000
 O       1.16900000      25.82400000      31.16500000
 H       0.63000000      26.39800000      31.74400000
 H       0.66500000      25.87100000      30.29600000
 O      24.62200000      36.02200000      36.13000000
 H      25.12100000      35.43300000      35.61300000
 H      23.92600000      36.38700000      35.51000000
 O      38.92700000      33.10800000      34.96000000
 H      38.48300000      33.62300000      35.65900000
 H      39.15700000      32.33100000      35.45100000
 O      29.43000000      14.18900000      36.68700000
 H      28.62600000      14.66600000      36.98100000
 H      29.47800000      14.61500000      35.76700000
 O      29.22000000      39.90600000      35.12600000
 H      29.82100000      39.53600000      35.78000000
 H      29.53100000      40.85800000      35.10200000
 O      22.39800000      38.49000000      39.57200000
 H      22.95000000      38.87400000      38.79100000
 H      23.06500000      37.75700000      39.76200000
 O       1.50700000      21.40900000      33.40800000
 H       1.79000000      21.31000000      34.37100000
 H       1.48200000      22.40000000      33.46000000
 O      27.56300000      38.07700000      39.83500000
 H      27.66700000      37.91600000      40.75300000
 H      27.88800000      39.01000000      39.71400000
 O       2.60700000      36.38800000      39.98200000
 H       3.59800000      36.24100000      40.17400000
 H       2.36100000      35.42900000      39.76800000
 O       8.91100000      31.19100000      32.58200000
 H       9.64900000      31.44500000      32.00700000
 H       8.94900000      31.94200000      33.22600000
 O       3.42400000      32.31800000      36.52900000
 H       3.97000000      31.50800000      36.42000000
 H       3.87000000      32.88200000      35.83300000
 O      36.93800000      36.03300000      39.15400000
 H      36.99700000      35.94100000      40.13700000
 H      37.49100000      36.80900000      39.01500000
 O       9.31700000      23.55000000      32.47100000
 H       9.44600000      23.69900000      31.49900000
 H      10.03300000      24.19600000      32.77500000
 O      13.08900000      21.41700000      30.82900000
 H      13.75900000      20.79500000      30.43500000
 H      12.56200000      20.71400000      31.23300000
 O      39.50700000      14.13500000      31.21300000
 H      40.08000000      13.41400000      31.43600000
 H      39.79500000      14.83600000      31.85300000
 O       2.20300000      23.53100000      30.07700000
 H       1.48400000      22.94900000      30.30100000
 H       1.69800000      24.39500000      30.22100000
 O      23.63600000      34.34100000      31.75600000
 H      22.99000000      34.75500000      31.21500000
 H      24.43800000      34.32500000      31.21600000
 O      23.44100000      25.30300000      36.36100000
 H      23.05700000      24.41300000      36.06500000
 H      24.03100000      24.92300000      37.06000000
 O      21.01100000      19.72800000      33.43800000
 H      20.25100000      19.53100000      34.04900000
 H      21.75900000      19.84900000      34.04600000
 O       7.74100000      13.90800000      35.25100000
 H       7.80000000      13.05000000      35.64900000
 H       8.49800000      14.32800000      35.74400000
 O      14.64700000      30.70000000      27.64100000
 H      15.21800000      29.93500000      27.35400000
 H      13.77500000      30.36700000      27.31400000
 O      40.01000000      21.22900000      28.21700000
 H      40.08900000      21.48700000      29.14900000
 H      39.15000000      20.71200000      28.26300000
 O      38.35800000      26.91200000      35.30200000
 H      37.43100000      26.53500000      35.31200000
 H      38.04200000      27.84000000      35.33300000
 O      18.62700000      19.42300000      34.87000000
 H      18.08000000      19.84600000      35.55600000
 H      17.96900000      18.90400000      34.39300000
 O      23.65300000      29.80700000      30.62300000
 H      23.93700000      30.56000000      29.98800000
 H      24.51600000      29.65500000      31.00700000
 O       7.39600000      26.43200000      37.85400000
 H       8.07000000      26.68700000      37.19500000
 H       7.19500000      25.52800000      37.44300000
 O      32.22200000      23.75700000      34.85800000
 H      32.50200000      23.45500000      33.95700000
 H      32.03100000      24.72100000      34.59300000
 O      18.10300000      35.20000000      35.86600000
 H      17.26700000      35.49700000      35.45800000
 H      18.35800000      34.55000000      35.11500000
 O      39.64900000      13.74300000      28.41100000
 H      40.60800000      13.82900000      28.18800000
 H      39.64300000      13.99500000      29.33500000
 O      18.53400000      25.47400000      30.02000000
 H      18.90900000      24.86400000      30.68500000
 H      18.59200000      24.92800000      29.22300000
 O       4.65300000      34.30100000      30.40200000
 H       5.04700000      34.16500000      29.53200000
 H       5.35600000      33.82800000      30.94900000
 O      37.85700000      28.36700000      31.22100000
 H      37.00800000      28.18200000      31.66100000
 H      38.37900000      27.57000000      31.55900000
 O      14.92100000      19.67500000      30.02400000
 H      14.69400000      18.73500000      30.18900000
 H      15.75000000      19.78900000      30.51700000
 O      18.97700000      18.46900000      29.75200000
 H      18.99500000      19.29200000      29.23600000
 H      19.91900000      18.49100000      30.10400000
 O      35.81000000      14.78200000      39.88900000
 H      36.09400000      14.87900000      38.95200000
 H      36.40000000      14.05000000      40.14900000
 O      38.18400000      18.81600000      30.51400000
 H      39.10400000      18.96700000      30.71200000
 H      37.72800000      18.81900000      31.38500000
 O      29.51500000      39.21200000      30.65300000
 H      30.39400000      39.17300000      31.08200000
 H      29.17000000      38.26000000      30.79100000
 O       6.36400000      30.06800000      31.26200000
 H       7.24700000      30.32400000      30.87700000
 H       6.52700000      29.12500000      31.35800000
 O      27.95200000      35.66600000      38.79900000
 H      28.56900000      35.45400000      39.58600000
 H      27.48500000      36.48500000      39.21600000
 O      12.82900000      33.77700000      34.18800000
 H      12.99700000      32.82700000      34.01300000
 H      13.49600000      34.20800000      33.59900000
 O      10.71200000      22.54900000      37.93700000
 H      11.53100000      22.03300000      37.76200000
 H      10.53300000      22.87800000      37.05000000
 O      20.45700000      29.07400000      36.52900000
 H      19.46600000      29.00500000      36.52700000
 H      20.61400000      29.18200000      35.62300000
 O      12.62000000      32.42300000      37.46400000
 H      12.20800000      31.77400000      36.83100000
 H      11.80200000      32.91700000      37.75600000
 O      33.82100000      27.99700000      27.71600000
 H      34.51400000      28.10800000      27.00900000
 H      33.92500000      28.84000000      28.14200000
 O      28.54000000      36.63800000      30.60900000
 H      28.23800000      36.85800000      31.54200000
 H      29.30700000      36.10700000      30.78500000
 O      31.35500000      21.78700000      37.73800000
 H      31.62300000      20.91300000      37.46400000
 H      32.12400000      22.19100000      38.10900000
 O      22.55200000      13.31800000      38.72900000
 H      23.15500000      13.98400000      38.43300000
 H      21.77600000      13.44200000      38.07400000
 O      19.53500000      37.29600000      27.98300000
 H      20.46800000      37.30800000      28.24600000
 H      19.53700000      36.62500000      27.30800000
 O      19.01700000      37.94000000      30.56800000
 H      19.13400000      37.56900000      29.68500000
 H      19.71200000      38.56900000      30.63000000
 O       2.08700000      28.01100000      34.45800000
 H       2.07800000      28.06800000      35.48700000
 H       2.99500000      27.60800000      34.36000000
 O       7.53100000      19.69400000      27.98700000
 H       7.45400000      18.71200000      28.17700000
 H       7.10600000      19.68800000      27.09600000
 O      28.52000000      19.48200000      35.68000000
 H      28.20900000      19.79600000      34.76500000
 H      28.52700000      18.51900000      35.52000000
 O      12.16400000      18.56000000      38.52100000
 H      12.82900000      18.88400000      39.09600000
 H      12.18600000      19.24100000      37.80000000
 O      34.81100000      27.56800000      40.53000000
 H      35.07300000      28.46200000      40.81500000
 H      35.73300000      27.21200000      40.27100000
 O       1.96000000      33.59600000      39.84600000
 H       1.45500000      33.05900000      40.46200000
 H       1.68600000      33.17300000      38.97800000
 O      16.29000000      31.56000000      29.51100000
 H      16.72200000      32.25200000      28.97400000
 H      15.79200000      31.12900000      28.73000000
 O       3.42500000      40.10100000      26.79000000
 H       3.59300000      39.16800000      26.55300000
 H       3.30700000      39.96600000      27.79300000
 O       4.59700000      13.73200000      27.93600000
 H       5.10700000      12.86600000      27.79600000
 H       5.35900000      14.14800000      28.49500000
 O      15.51800000      23.61000000      28.91600000
 H      16.37300000      23.99800000      28.70600000
 H      15.67300000      23.27300000      29.80500000
 O       3.26300000      40.29600000      39.96500000
 H       4.13200000      39.94900000      39.76700000
 H       2.70200000      39.68500000      39.42400000
 O      33.63600000      31.21900000      31.95300000
 H      34.16800000      31.82600000      32.47300000
 H      33.01100000      31.77500000      31.52900000
 O      10.41700000      39.03700000      36.56000000
 H      10.58600000      38.48600000      37.36600000
 H      11.37600000      39.15400000      36.31700000
 O      11.88300000      16.13000000      31.05600000
 H      12.16500000      15.17000000      30.95200000
 H      11.63600000      16.33400000      30.12500000
 O      39.59200000      14.88700000      40.35800000
 H      39.50500000      14.85000000      41.31700000
 H      40.30600000      14.29100000      40.13100000
 O      36.33400000      37.23200000      29.88300000
 H      35.92800000      37.57000000      30.72100000
 H      36.91500000      36.53300000      30.29500000
 O      21.40600000      18.34900000      30.86100000
 H      21.43200000      18.89500000      31.63200000
 H      22.38600000      18.38900000      30.62600000
 O      28.35800000      21.57200000      28.82000000
 H      28.29900000      21.65100000      27.84400000
 H      28.40800000      22.56600000      28.99200000
 O       4.24600000      31.38900000      39.74300000
 H       3.65900000      30.68000000      40.08500000
 H       3.80900000      32.16700000      39.94500000
 O      36.29800000      17.71000000      40.42800000
 H      36.06600000      16.79400000      40.05300000
 H      36.76600000      17.36400000      41.24900000
 O      26.63100000      18.98100000      30.36100000
 H      27.26400000      19.38900000      30.95400000
 H      26.52900000      18.08900000      30.78600000
 O      17.50500000      35.23000000      29.95100000
 H      18.00600000      36.01900000      29.66900000
 H      18.19700000      34.53000000      29.87600000
 O       7.94900000      40.09100000      40.45400000
 H       7.38200000      39.61100000      39.76900000
 H       8.41300000      39.28700000      40.77500000
