%chk=cluster_545.chk
%mem=1GB
%nproc=4
#b3lyp/6-311++G** scrf=(cpcm,Solvent=Water) nosymm freq
iop(2/11=1) 
 Geom=(NoDistance,NoAngle)

cluster_545

0 1
 O      19.29600000      18.55700000      20.57700000
 H      18.92700000      19.13100000      21.29300000
 H      18.89700000      18.99000000      19.76300000
 O      19.46200000      15.29800000      19.24000000
 H      19.58200000      15.91000000      19.99400000
 H      18.79800000      14.62700000      19.57300000
 O      17.11600000      15.06800000      24.06700000
 H      17.88800000      15.60100000      24.33900000
 H      16.91600000      14.69600000      24.94300000
 O      17.56100000      17.53800000      25.63400000
 H      17.54100000      17.95600000      24.73400000
 H      17.76500000      18.32200000      26.21800000
 O      19.99900000      16.30600000      23.79600000
 H      20.91200000      16.36900000      23.98700000
 H      19.96800000      17.05400000      23.19600000
 O      18.30400000      20.23300000      24.10000000
 H      17.82000000      20.84800000      23.46600000
 H      17.82100000      20.42500000      24.97600000
 O      22.98800000      15.89500000      17.85000000
 H      22.13700000      15.82400000      18.31500000
 H      22.81500000      16.16400000      16.89800000
 O      22.99700000      17.22300000      20.45400000
 H      23.54200000      17.83800000      20.95200000
 H      23.59500000      16.98200000      19.71700000
 O      22.26800000      20.10300000      18.99100000
 H      21.81400000      19.34900000      19.51600000
 H      23.25500000      19.89600000      18.81700000
 O      24.64200000      14.47900000      25.57500000
 H      24.66000000      14.67300000      24.59200000
 H      24.28800000      15.20900000      26.10500000
 O      24.09900000      14.76600000      22.85100000
 H      23.96800000      14.21600000      22.03600000
 H      23.53500000      15.58700000      22.73500000
 O      23.51100000      19.65700000      25.79800000
 H      24.05400000      20.44500000      26.08900000
 H      24.02900000      19.27300000      25.01700000

