132
XYZ file of cluster: frame_7500_22574.c6c14.48c15 - created by MolEdiTo
 O      10.25200000      29.20600000      14.85300000
 H       9.80300000      29.12200000      15.76300000
 H      11.19500000      29.36800000      15.17400000
 O       8.25500000      29.81500000      10.34100000
 H       8.86100000      30.30100000      10.89100000
 H       7.61100000      30.53000000      10.06200000
 O       4.69800000      28.15800000      17.80700000
 H       5.54600000      28.17700000      17.34700000
 H       4.43000000      27.20000000      17.70600000
 O       8.42000000      26.82700000      11.59800000
 H       7.63400000      26.24400000      11.44700000
 H       8.18200000      27.76800000      11.49100000
 O       7.43400000      28.90100000      19.12300000
 H       7.53300000      29.86700000      19.06800000
 H       6.67300000      28.99900000      19.75400000
 O      14.56400000      27.20900000      19.07000000
 H      14.84400000      28.15400000      18.94300000
 H      13.63700000      27.22200000      19.35000000
 O       8.80600000      25.89000000      14.15800000
 H       9.28000000      26.11900000      14.94500000
 H       8.36700000      26.69800000      13.87100000
 O       6.29000000      27.95000000      10.23600000
 H       6.07400000      27.36700000      10.90200000
 H       7.09200000      27.52900000       9.83900000
 O      11.56200000      27.61200000      19.31100000
 H      11.04800000      28.31000000      18.80300000
 H      10.99300000      27.34600000      20.10300000
 O      12.74600000      30.24800000      14.04800000
 H      11.85000000      30.10300000      13.58700000
 H      12.92900000      31.17900000      13.78800000
 O      12.01400000      30.61200000      20.84400000
 H      12.78500000      30.04400000      20.53200000
 H      11.38400000      29.96800000      21.14100000
 O       9.07100000      29.17600000      17.27100000
 H       9.06700000      28.19500000      17.34300000
 H       8.31000000      29.52900000      17.81300000
 O      13.92400000      26.24300000       9.57200000
 H      13.74100000      26.58100000      10.52000000
 H      14.81000000      26.56500000       9.33800000
 O       7.74100000      26.79600000      17.24000000
 H       7.60700000      27.45600000      16.50200000
 H       7.66200000      27.17500000      18.15600000
 O      14.97900000      30.00500000      20.32700000
 H      15.38600000      30.93300000      20.09500000
 H      15.66600000      29.63500000      20.83400000
 O      15.42100000      29.75200000      12.06300000
 H      15.37200000      30.67200000      12.46200000
 H      16.35600000      29.55700000      12.01200000
 O      15.48700000      30.13300000      15.16200000
 H      15.14900000      29.25900000      15.60400000
 H      15.65100000      29.88300000      14.25700000
 O      13.03400000      26.83300000      14.27500000
 H      13.70100000      27.49700000      14.50700000
 H      12.87200000      27.06400000      13.32700000
 O      10.83600000      28.30300000      12.98300000
 H      10.58300000      27.39200000      12.71300000
 H      10.25000000      28.48000000      13.79900000
 O       6.55900000      27.98700000      14.69700000
 H       6.23000000      28.46400000      13.94700000
 H       6.24300000      27.08900000      14.61300000
 O       8.94000000      27.80700000      20.11900000
 H       7.97200000      28.19500000      20.16100000
 H       9.10400000      27.47200000      21.07000000
 O      13.15700000      27.99300000      11.45100000
 H      12.72000000      28.33500000      12.22900000
 H      13.99700000      28.49300000      11.47700000
 O       5.79800000      29.57900000      13.21900000
 H       5.34600000      29.25200000      12.40300000
 H       6.77800000      29.75600000      12.99600000
 O       7.95700000      29.65800000      13.72500000
 H       7.53600000      30.54700000      13.88100000
 H       8.60300000      29.66400000      14.44000000
 O      13.85700000      28.29000000      16.40800000
 H      14.06600000      27.99800000      17.35100000
 H      13.05800000      27.80900000      16.14000000
 O       6.81600000      34.73200000      15.59800000
 H       7.32800000      34.55800000      14.79200000
 H       7.11000000      35.63900000      15.78400000
 O       8.57800000      35.85200000      11.20700000
 H       7.87400000      35.64100000      10.61700000
 H       9.28700000      35.88700000      10.56300000
 O       8.39200000      35.59900000      18.74300000
 H       9.23900000      35.91200000      18.34700000
 H       7.91700000      36.52400000      18.79500000
 O       7.92900000      34.12900000      13.73100000
 H       8.48900000      34.51000000      13.00500000
 H       7.01000000      34.36500000      13.46300000
 O      12.95400000      33.38400000      15.71500000
 H      13.15400000      33.03500000      14.82900000
 H      13.71600000      32.97900000      16.26600000
 O      12.19900000      36.73700000      11.20000000
 H      11.66300000      36.74200000      10.41600000
 H      12.81300000      37.40400000      10.95400000
 O      13.96000000      37.18200000      16.50800000
 H      13.94400000      38.12200000      16.66100000
 H      14.36400000      37.08500000      15.63800000
 O      12.23100000      34.53500000      18.19900000
 H      11.67000000      33.77400000      18.19900000
 H      12.31600000      34.58000000      17.20900000
 O       5.35300000      34.27500000      13.09100000
 H       4.42600000      34.48400000      12.95000000
 H       5.42000000      33.28600000      13.11400000
 O      15.27400000      36.39100000      18.95300000
 H      14.60400000      36.51100000      18.21800000
 H      14.92300000      37.05000000      19.62200000
 O      11.74300000      35.39600000      13.44600000
 H      12.64800000      35.55300000      13.76200000
 H      11.79200000      35.63100000      12.43600000
 O       4.63700000      32.94900000      16.02800000
 H       5.43100000      33.53900000      15.78400000
 H       4.78800000      32.04300000      15.73500000
 O      10.39600000      37.12100000      17.50800000
 H      11.33900000      37.01900000      17.80800000
 H      10.48200000      37.25500000      16.54800000
 O       5.49000000      35.61500000      19.38700000
 H       6.13100000      35.25000000      20.07200000
 H       5.93600000      35.48400000      18.52200000
 O      12.66900000      35.60700000      20.83000000
 H      12.85700000      35.51800000      19.86200000
 H      12.38700000      34.66200000      21.00400000
 O       7.01600000      37.26400000      16.72700000
 H       7.86600000      37.05900000      16.31300000
 H       7.25200000      37.99800000      17.34000000
 O      14.31300000      34.69800000      13.67800000
 H      15.31300000      34.72500000      13.80900000
 H      13.89100000      34.40200000      14.55000000
 O      10.52200000      33.41800000      11.51500000
 H      10.53700000      34.28200000      11.99300000
 H      11.25500000      33.46700000      10.92200000
 O       7.65300000      33.27600000      18.05100000
 H       7.51100000      33.50300000      17.04700000
 H       8.20900000      34.13100000      18.29500000
