78
XYZ file of cluster: frame_7500_c2f50.c4816.1f0a - created by MolEdiTo
 O      26.51200000      27.49900000       0.81400000
 H      26.49400000      28.47000000       0.93700000
 H      27.32200000      27.11100000       1.31400000
 O      26.08100000      30.10500000       8.01000000
 H      26.27700000      31.06100000       7.90000000
 H      25.12700000      29.98600000       7.91000000
 O      27.08200000      29.08700000       5.58300000
 H      26.68600000      29.66000000       6.31800000
 H      26.70000000      28.20700000       5.81800000
 O      27.24500000      26.85000000       8.54400000
 H      27.03300000      27.82100000       8.47300000
 H      27.67100000      26.78800000       9.46200000
 O      30.28100000      29.11000000       5.51100000
 H      30.54800000      28.98100000       6.45200000
 H      29.70800000      28.34100000       5.37800000
 O      26.67300000      30.85100000       3.24000000
 H      25.73300000      31.21800000       3.10000000
 H      26.54500000      30.47300000       4.14800000
 O      28.26900000      32.98000000       1.07200000
 H      27.54900000      32.83900000       1.76100000
 H      27.91300000      32.55900000       0.24900000
 O      28.45300000      36.27500000       2.14100000
 H      28.37200000      35.41500000       2.51300000
 H      28.85800000      36.15000000       1.25100000
 O      29.46600000      33.48900000       4.52000000
 H      29.26200000      33.93600000       5.36200000
 H      29.55800000      32.49700000       4.71900000
 O      28.93600000      35.08700000       6.89400000
 H      27.96400000      35.23100000       6.89700000
 H      29.21600000      35.95600000       7.22700000
 O      32.97200000      29.49400000       8.31900000
 H      33.08200000      29.08100000       9.20500000
 H      33.33600000      30.43200000       8.39100000
 O      33.40600000      26.82500000       6.97800000
 H      34.36900000      26.72700000       7.26900000
 H      33.08800000      27.45200000       7.66900000
 O      35.52400000      28.75200000       5.72700000
 H      35.99300000      27.92800000       6.17000000
 H      34.61800000      28.66100000       6.10200000
 O      33.80800000      26.53000000       1.33200000
 H      32.96300000      26.17000000       1.07800000
 H      33.86100000      26.39900000       2.32000000
 O      32.48200000      29.34600000       2.67900000
 H      31.65400000      29.07200000       3.03200000
 H      32.66600000      30.17900000       3.16800000
 O      36.11700000      26.71700000       7.43600000
 H      36.83300000      27.16900000       7.93800000
 H      36.24500000      25.75100000       7.50100000
 O      36.13700000      29.28200000       2.78800000
 H      35.87900000      28.61300000       2.22100000
 H      35.73700000      28.98300000       3.68800000
 O      35.12300000      30.50600000      10.00400000
 H      35.69100000      30.73600000       9.29200000
 H      34.51000000      31.28500000      10.13200000
 O      35.57000000      26.30100000       3.68100000
 H      36.47900000      26.58600000       4.00500000
 H      35.85400000      25.59700000       2.95400000
 O      36.09100000      36.80000000       4.93600000
 H      36.85300000      36.32200000       5.37500000
 H      35.25100000      36.64500000       5.49300000
 O      36.28500000      35.29500000       2.70100000
 H      35.98500000      35.97300000       3.26600000
 H      35.49600000      35.01900000       2.09100000
 O      32.40300000      37.88300000       4.76900000
 H      32.53200000      36.92500000       5.10300000
 H      31.78100000      38.29200000       5.43300000
 O      33.37100000      35.14300000       4.80000000
 H      33.36500000      35.44400000       3.83800000
 H      32.53600000      34.56900000       4.86500000
 O      32.59000000      34.47400000       9.75500000
 H      31.74900000      34.36900000      10.22100000
 H      32.45900000      35.14700000       9.14300000
 O      35.68100000      33.37500000       5.99800000
 H      35.02700000      33.80100000       5.37500000
 H      35.40700000      32.36100000       6.03900000
 O      35.30200000      33.17700000       1.08600000
 H      35.31500000      32.42000000       1.73500000
 H      34.54100000      32.74000000       0.57000000
