96
XYZ file of cluster: frame_7500_71080.a3afd.19ce - created by MolEdiTo
 O      15.53900000      27.29800000       2.25100000
 H      16.04600000      27.19100000       1.43500000
 H      14.56800000      27.26500000       1.93100000
 O      24.01600000      24.03300000       5.43400000
 H      24.66400000      23.49800000       5.98000000
 H      23.20100000      24.02900000       6.01100000
 O      26.54800000      21.79400000       9.35000000
 H      27.19100000      22.46900000       9.70800000
 H      26.18100000      21.32200000      10.16400000
 O      21.88800000      22.30500000       2.08000000
 H      22.12200000      22.12800000       1.11900000
 H      22.73500000      22.44000000       2.50100000
 O      23.74800000      30.01500000       4.87100000
 H      24.52500000      29.40100000       4.61700000
 H      23.59000000      30.50800000       4.06400000
 O      16.94300000      24.21100000       1.12100000
 H      17.50000000      24.94200000       1.45000000
 H      17.33700000      24.06800000       0.20700000
 O      22.68800000      22.72000000       9.75300000
 H      22.23600000      22.86500000      10.62900000
 H      23.18100000      23.54000000       9.48400000
 O      16.13400000      24.88900000       4.08800000
 H      16.10400000      25.40700000       3.27600000
 H      15.23200000      24.96300000       4.38100000
 O      22.83900000      25.09200000       3.22000000
 H      23.47800000      24.91000000       2.50500000
 H      23.12100000      24.48900000       3.90700000
 O      20.16100000      24.30100000       3.20200000
 H      19.86300000      24.25000000       2.28500000
 H      21.12700000      24.02900000       3.07700000
 O      18.57300000      26.16300000       5.03300000
 H      18.64800000      25.35800000       4.38400000
 H      17.63600000      26.25500000       5.15300000
 O      22.81700000      28.51600000       7.34100000
 H      22.89200000      27.61400000       7.59400000
 H      22.68100000      28.40600000       6.42400000
 O      17.59700000      30.54200000       3.36900000
 H      16.81500000      30.07800000       3.77000000
 H      18.39900000      30.22400000       3.78700000
 O      20.12500000      29.07900000       9.17000000
 H      20.76300000      29.74200000       9.35000000
 H      20.60400000      28.22200000       9.31800000
 O      16.36900000      28.40100000       5.11900000
 H      15.69800000      28.70500000       5.71800000
 H      16.00200000      28.02300000       4.32400000
 O      18.51000000      27.53700000       7.53400000
 H      18.69100000      27.21700000       6.65600000
 H      19.21100000      28.20800000       7.77400000
 O      26.67300000      30.85100000       3.24000000
 H      25.73300000      31.21800000       3.10000000
 H      26.54500000      30.47300000       4.14800000
 O      19.31300000      29.17300000       4.93000000
 H      18.79300000      28.34300000       4.87800000
 H      20.27000000      28.75200000       4.91100000
 O      26.21500000      22.78300000       6.76700000
 H      27.03400000      23.22200000       6.57200000
 H      26.20400000      22.58600000       7.71800000
 O      26.08100000      30.10500000       8.01000000
 H      26.27700000      31.06100000       7.90000000
 H      25.12700000      29.98600000       7.91000000
 O      17.85400000      21.57200000       2.86400000
 H      18.27600000      22.41800000       3.06400000
 H      16.87800000      21.69100000       2.92200000
 O      19.17800000      25.29600000       9.53300000
 H      19.50000000      25.55500000       8.63800000
 H      18.23100000      25.25300000       9.58600000
 O      25.55000000      26.53100000       4.66700000
 H      25.94200000      26.62000000       3.82900000
 H      24.98100000      25.76200000       4.58000000
 O      24.18400000      25.55700000       8.40200000
 H      24.03800000      26.41800000       8.93400000
 H      25.06800000      25.16700000       8.63400000
 O      16.77200000      23.08500000       8.69900000
 H      17.29100000      22.39100000       8.33000000
 H      15.95300000      22.59200000       8.94000000
 O      24.88900000      23.50000000       1.54400000
 H      25.40700000      24.20700000       1.21100000
 H      24.95100000      22.85800000       0.75700000
 O      16.62900000      28.48900000       9.21700000
 H      17.17700000      29.09300000       9.78100000
 H      17.42100000      28.20600000       8.65300000
 O      21.29300000      23.85100000       5.84500000
 H      21.23000000      22.86000000       5.72500000
 H      20.76700000      24.20400000       5.02900000
 O      18.07100000      26.72200000       1.86800000
 H      18.98300000      26.88200000       2.08000000
 H      17.65500000      27.24600000       2.54000000
 O      21.39800000      27.42100000       4.12200000
 H      20.86600000      26.73800000       4.58900000
 H      21.92400000      26.82600000       3.49500000
 O      21.37400000      25.90100000       7.78600000
 H      22.30500000      25.67900000       8.01500000
 H      21.14400000      25.19900000       7.15100000
 O      19.83800000      22.26200000       9.46200000
 H      19.42400000      23.15500000       9.41700000
 H      20.70200000      22.36100000       9.03700000
