120
XYZ file of cluster: frame_2500_2ec9.37e3.74f9c - created by MolEdiTo
 O       1.25500000      10.04400000      26.76000000
 H       1.66000000       9.54500000      26.05000000
 H       0.37700000      10.13800000      26.38300000
 O       6.08600000       3.37000000      15.57400000
 H       6.38000000       3.64300000      16.46600000
 H       6.12300000       4.25500000      15.07300000
 O      11.04900000       2.22200000      24.83900000
 H      10.39500000       2.93300000      25.11000000
 H      11.81100000       2.62100000      24.51200000
 O       6.60800000       3.87100000      23.85800000
 H       6.15700000       3.95700000      24.75300000
 H       5.96900000       4.36200000      23.30400000
 O      11.23200000       8.18500000      23.71800000
 H      10.43900000       8.80000000      24.04700000
 H      11.95700000       8.80500000      23.59000000
 O       8.30600000       6.27000000      23.74400000
 H       8.83800000       5.88100000      24.50200000
 H       8.91500000       6.88500000      23.27700000
 O       9.63200000       4.03500000      22.62700000
 H       9.35200000       3.42600000      21.92800000
 H       8.78500000       4.46700000      22.90800000
 O       9.34800000       8.55300000      15.67800000
 H      10.07000000       7.98100000      16.03100000
 H       9.15600000       9.25600000      16.35500000
 O       1.83900000       1.52000000      20.03500000
 H       2.61700000       1.03900000      20.11700000
 H       1.94500000       2.34000000      19.51400000
 O       4.88700000       9.71700000      26.90300000
 H       4.63100000      10.21100000      26.06300000
 H       5.53800000       9.04700000      26.49500000
 O       9.07200000       9.81200000      23.78500000
 H       8.21700000       9.75400000      23.30300000
 H       9.32200000      10.68100000      23.47200000
 O       7.87200000       6.01400000      19.84700000
 H       8.74500000       5.49100000      19.76500000
 H       8.18800000       6.94100000      19.88200000
 O       3.26500000       6.62400000      26.43800000
 H       4.01000000       7.16000000      26.03300000
 H       3.75100000       5.93500000      26.93300000
 O       8.21300000       8.92500000      19.08700000
 H       7.65600000       9.74900000      19.18600000
 H       8.68400000       9.06000000      19.93200000
 O      10.45000000       5.23400000      19.71000000
 H      10.63500000       6.16500000      19.86900000
 H      10.94800000       4.91500000      20.44600000
 O       8.78500000       4.16200000      25.69200000
 H       8.47900000       3.36000000      26.24900000
 H       8.10400000       4.10400000      24.94400000
 O       4.27400000       2.65300000      21.63400000
 H       4.20200000       1.77700000      21.20500000
 H       5.02000000       2.90800000      21.11700000
 O       1.92900000       3.41300000      15.91000000
 H       1.52500000       2.67700000      16.29400000
 H       2.19100000       2.88600000      15.12200000
 O       6.71900000      10.38400000      16.47000000
 H       6.09400000      10.71000000      15.75100000
 H       6.06800000      10.08300000      17.13200000
 O       9.33000000       4.28100000      17.16500000
 H       9.37200000       4.83000000      17.96800000
 H       8.85800000       4.93500000      16.52900000
 O       6.02200000       3.15500000      18.41000000
 H       5.21500000       3.66200000      18.52500000
 H       5.64600000       2.21400000      18.36300000
 O       7.45400000       6.38600000      16.07500000
 H       8.11300000       7.07900000      15.79300000
 H       7.17600000       6.63900000      16.92900000
 O       2.86000000       6.46700000      19.16000000
 H       3.68300000       6.87800000      18.79200000
 H       3.17000000       6.24600000      20.03300000
 O       4.86700000       3.78500000      26.23700000
 H       4.42500000       2.95000000      26.04000000
 H       4.55500000       4.05600000      27.14000000
 O       2.85200000       8.45400000      16.01600000
 H       2.72600000       7.47600000      15.70300000
 H       1.90000000       9.04800000      15.98200000
 O       2.35000000       3.69000000      18.57200000
 H       2.55600000       4.59300000      18.96600000
 H       2.60300000       3.87100000      17.63100000
 O       8.60800000       8.44100000      26.57800000
 H       8.34600000       9.37900000      26.84300000
 H       8.04400000       8.45600000      25.74000000
 O       6.72100000      10.97600000      22.81900000
 H       7.19200000      11.08500000      21.98000000
 H       6.01000000      10.31400000      22.76500000
 O       8.90000000       1.73600000      17.02600000
 H       9.07700000       2.68700000      17.19400000
 H       9.17700000       1.33100000      17.83700000
 O      10.22300000       7.92000000      20.89600000
 H      10.97600000       8.17300000      20.28600000
 H      10.40100000       8.26800000      21.77900000
 O       8.25800000       2.02700000      20.74900000
 H       8.38700000       1.23600000      20.14700000
 H       7.59200000       2.47300000      20.17700000
 O       5.92000000       5.37800000      21.76800000
 H       6.52900000       5.40700000      20.99200000
 H       6.21900000       6.18500000      22.16300000
 O       1.66500000       8.69300000      21.17200000
 H       2.35100000       8.38000000      20.65500000
 H       1.27900000       7.92000000      21.63800000
 O       6.10400000       7.42200000      25.45000000
 H       6.39200000       7.16900000      26.33500000
 H       6.50700000       6.66600000      24.79900000
 O       4.73300000       8.31700000      22.14300000
 H       4.10900000       9.02600000      21.81300000
 H       3.96200000       7.78900000      22.59600000
 O       2.47000000       6.87200000      23.27700000
 H       2.71600000       6.96400000      24.21700000
 H       1.93000000       6.02900000      23.27600000
 O       1.76700000       3.87700000      22.28800000
 H       1.38600000       3.56200000      21.45700000
 H       2.71500000       3.52700000      22.25900000
 O       5.45200000       6.78500000      18.94000000
 H       6.05600000       6.03400000      19.11000000
 H       6.04300000       7.51300000      19.17800000
 O       3.68900000       2.03600000      24.07600000
 H       4.08100000       2.00100000      23.18200000
 H       3.13500000       2.86900000      24.07500000
 O       5.02700000       0.75700000      16.31500000
 H       5.40000000       1.66300000      16.01800000
 H       5.74000000       0.45100000      16.91500000
