175
XYZ file of cluster: frame_2500_1fb4c.64a8e.63eaf - created by MolEdiTo
 O       5.45700000      24.95700000      22.67200000
 H       5.94300000      25.13200000      23.55900000
 H       5.85400000      25.60900000      22.11900000
 O      14.75800000      25.71000000      25.25500000
 H      15.64100000      26.05700000      25.22000000
 H      14.36400000      26.58100000      25.47200000
 O      13.36400000      24.05200000      16.59000000
 H      12.56500000      23.91500000      17.12500000
 H      13.69400000      23.22700000      16.33000000
 O      15.88600000      20.00800000      21.10800000
 H      15.03000000      19.90000000      21.46300000
 H      15.80300000      20.65800000      20.37700000
 O       8.55200000      25.02100000      22.29300000
 H       9.18400000      25.11500000      23.07000000
 H       8.39400000      23.99800000      22.28500000
 O      11.22200000      26.69500000      15.85000000
 H      10.90000000      26.23200000      15.01000000
 H      10.53900000      27.41000000      15.92000000
 O      12.15500000      26.46600000      20.53900000
 H      11.98600000      25.77400000      21.28000000
 H      12.73400000      27.21000000      20.95100000
 O      13.61200000      22.75600000      23.49100000
 H      13.32500000      21.80400000      23.33600000
 H      14.17400000      22.74000000      24.36800000
 O      12.00800000      22.57100000      19.06600000
 H      11.79100000      21.67100000      19.34300000
 H      12.30100000      23.07300000      19.88500000
 O      13.58100000      19.62100000      23.01100000
 H      14.38500000      19.73100000      23.59500000
 H      13.46900000      18.61300000      22.99700000
 O      11.09400000      16.69500000      19.54500000
 H      11.23800000      16.34700000      18.68500000
 H      11.96200000      17.16500000      19.79600000
 O      14.41200000      15.97400000      22.52200000
 H      13.69400000      16.36700000      23.14100000
 H      14.70800000      15.12500000      23.00500000
 O       7.54900000      25.49200000      19.84900000
 H       7.81000000      25.37500000      20.83300000
 H       7.69600000      24.63100000      19.48100000
 O      10.44300000      25.20100000      24.30700000
 H      11.15500000      24.59100000      24.05700000
 H      10.40600000      25.06900000      25.29500000
 C      16.27500000      14.32700000      16.03900000
 C      15.53800000      15.03200000      14.85000000
 C      15.01300000      17.09700000      16.17100000
 H      16.74000000      16.83400000      15.11100000
 H      16.70500000      12.99700000      14.71700000
 O      15.16800000      17.22900000      13.83000000
 O      16.33600000      14.73400000      17.15800000
 O      16.77300000      13.12200000      15.71700000
 C      15.73100000      16.56700000      14.98100000
 O      16.12900000      14.60800000      13.66300000
 H      14.45900000      14.75100000      14.96300000
 O      13.91100000      16.68900000      16.57400000
 O      15.67100000      17.93100000      16.95700000
 H      16.30600000      18.48100000      16.48900000
 H      15.55000000      14.85100000      12.87500000
 H      15.94900000      17.17900000      13.20600000
 O       9.58300000      20.25100000      17.57500000
 H       9.32700000      20.48300000      18.47200000
 H       8.86700000      20.65000000      17.01700000
 O       5.84000000      21.55700000      25.77100000
 H       5.86500000      22.51100000      25.98600000
 H       5.91000000      21.03700000      26.57700000
 O       8.34700000      17.03600000      16.62900000
 H       8.20100000      17.72700000      17.26400000
 H       9.18000000      17.27800000      16.22100000
 O      10.78300000      19.09300000      25.84500000
 H      11.58300000      19.67000000      26.03800000
 H      10.96500000      18.62100000      24.98000000
 O       9.43600000      16.70600000      23.41900000
 H       9.84800000      16.05900000      24.05600000
 H       8.50300000      16.58600000      23.62300000
 O      14.88500000      22.43700000      19.71700000
 H      13.94400000      22.30100000      19.49300000
 H      15.33700000      22.90700000      19.01400000
 O       7.67400000      18.23100000      25.63500000
 H       8.54600000      18.43000000      26.11600000
 H       6.90200000      18.50700000      26.24400000
 O       6.01600000      15.26800000      17.22300000
 H       6.56500000      16.08100000      17.05800000
 H       6.62500000      14.54900000      17.33000000
 O      12.53900000      21.02700000      25.92800000
 H      12.98000000      21.87400000      25.79200000
 H      12.76100000      20.79500000      26.84500000
 O       6.04200000      18.08200000      19.20200000
 H       5.36400000      17.34300000      19.04000000
 H       6.51400000      17.52300000      19.88700000
 O      16.08700000      24.71900000      18.19900000
 H      16.45400000      25.57500000      18.59800000
 H      15.23400000      25.01100000      17.93000000
 O       8.41300000      23.00400000      26.19300000
 H       8.34800000      22.11900000      26.56800000
 H       8.87100000      22.74100000      25.42500000
 O      12.74700000      16.99800000      24.24500000
 H      12.23200000      16.26900000      24.68200000
 H      13.29400000      17.30600000      25.00300000
 O       7.43700000      16.76400000      20.98200000
 H       6.88900000      16.79800000      21.84900000
 H       8.04800000      17.50700000      20.97300000
 O      13.90800000      26.72600000      18.16100000
 H      13.15000000      26.62000000      18.83700000
 H      13.73100000      26.19500000      17.44200000
 O      15.91600000      23.97900000      21.75600000
 H      15.68900000      23.45100000      21.01100000
 H      15.74700000      23.33100000      22.43800000
 O      11.03800000      20.89700000      23.36100000
 H      11.77000000      20.22900000      23.07400000
 H      11.14500000      20.95300000      24.33100000
 O       9.81400000      23.50900000      17.46300000
 H       8.87200000      23.44600000      17.75200000
 H      10.31500000      23.22100000      18.27100000
 O       7.59100000      20.79800000      19.62700000
 H       7.08600000      19.93700000      19.55000000
 H       7.80000000      20.78600000      20.63900000
 O       5.02400000      21.33900000      23.23400000
 H       4.08800000      21.14700000      23.22700000
 H       5.46000000      21.14200000      24.11800000
 O      11.29100000      17.49200000      16.03700000
 H      11.02000000      18.39900000      16.21000000
 H      12.14500000      17.25900000      16.47100000
 O       9.95800000      21.76000000      21.31400000
 H       9.67900000      20.91100000      20.97000000
 H      10.32600000      21.39100000      22.16000000
 O      11.07300000      22.95500000      14.95300000
 H      10.81700000      23.41100000      15.88500000
 H      11.86200000      22.45600000      15.16900000
 O       5.62500000      23.30700000      19.83500000
 H       5.70600000      23.80800000      20.64800000
 H       6.00300000      22.34700000      19.89500000
 O      14.61600000      22.86700000      26.08400000
 H      14.41800000      23.74300000      25.64900000
 H      14.49200000      23.18100000      27.03800000
 O       9.57300000      18.91900000      21.08000000
 H      10.24200000      18.74400000      20.38700000
 H       9.74000000      18.24000000      21.74600000
 O      13.20100000      19.77700000      16.50600000
 H      13.98200000      20.26300000      16.61700000
 H      13.47100000      19.02500000      15.95200000
 O      15.48300000      19.47300000      25.16700000
 H      15.13100000      19.95900000      25.98000000
 H      16.39800000      19.06300000      25.38600000
 O       6.97800000      20.55100000      16.56400000
 H       6.07500000      20.53900000      17.02000000
 H       6.71100000      20.88000000      15.63800000
 O       7.32000000      19.33300000      22.76900000
 H       7.15900000      19.29100000      23.73300000
 H       8.28200000      19.61600000      22.68700000
 O       4.57500000      19.34800000      21.46600000
 H       5.52500000      19.46700000      21.69300000
 H       4.31800000      20.20600000      21.13900000
 O       6.40000000      16.53500000      23.78000000
 H       6.71100000      17.20700000      24.47100000
 H       5.56700000      16.13100000      24.11100000
 O      11.68000000      19.76800000      19.07200000
 H      10.91400000      19.80200000      18.48000000
 H      12.29700000      19.18400000      18.53100000
 O      13.56100000      17.13700000      20.29300000
 H      13.77100000      16.63800000      21.08700000
 H      14.39100000      17.52500000      20.01400000
 O       7.19700000      23.25700000      17.46700000
 H       7.10400000      22.26300000      17.69200000
 H       6.26100000      23.52800000      17.24100000
 O       4.97600000      26.94800000      18.73600000
 H       5.19200000      26.06500000      18.88700000
 H       5.74900000      27.46100000      19.08500000
 O       7.79000000      26.19300000      15.87600000
 H       7.35400000      25.57800000      16.54200000
 H       8.34800000      26.73600000      16.49200000
 O      12.02200000      24.02500000      21.60000000
 H      12.85600000      23.74800000      22.09900000
 H      11.41300000      23.26700000      21.60100000
 O       7.15400000      22.66000000      22.30500000
 H       6.28100000      23.12100000      22.49800000
 H       7.09500000      21.77900000      22.77600000
