111
XYZ file of cluster: frame_2500_99e29.c4a44.3761 - created by MolEdiTo
 O      22.50500000      30.68000000       1.69200000
 H      22.50100000      31.52300000       2.21500000
 H      23.24800000      30.26700000       2.18900000
 O      29.55200000      27.54200000       9.61500000
 H      29.62200000      27.05500000      10.47200000
 H      30.47400000      27.69800000       9.35200000
 O      27.23800000      28.31900000       4.89100000
 H      27.44300000      28.61000000       3.96200000
 H      26.36000000      27.81000000       4.74000000
 O      23.98600000      26.11900000       9.53500000
 H      24.27200000      26.66500000       8.76500000
 H      23.25300000      26.61900000       9.95300000
 O      21.18300000      27.61900000       5.10400000
 H      21.36000000      27.46800000       6.07200000
 H      20.28000000      27.35300000       5.00800000
 O      25.37100000      30.40900000      10.46200000
 H      25.80700000      29.55700000      10.81900000
 H      25.27300000      31.02400000      11.22400000
 O      26.94000000      27.71100000       8.34000000
 H      27.84200000      27.91300000       8.51900000
 H      26.46300000      27.54200000       9.17300000
 O      26.79400000      28.84800000       2.13700000
 H      27.22100000      29.65800000       1.86300000
 H      26.12200000      29.24900000       2.76200000
 O      20.49700000      28.44900000       2.11900000
 H      21.03600000      28.45000000       2.94800000
 H      20.56600000      29.30700000       1.62200000
 O      30.29200000      29.22600000       5.55500000
 H      29.35100000      29.06800000       5.90500000
 H      30.21700000      30.14600000       5.35800000
 O      23.09100000      29.40800000       5.82600000
 H      22.32500000      28.94500000       5.51900000
 H      23.00800000      29.62400000       6.78800000
 O      23.29300000      30.12600000       8.48200000
 H      22.44900000      29.79900000       8.97800000
 H      23.99400000      30.27100000       9.18300000
 O      26.05700000      26.06100000       6.13100000
 H      26.90800000      25.98600000       5.69800000
 H      26.19400000      26.70600000       6.88600000
 O      26.30000000      25.74600000       2.66900000
 H      26.39200000      26.66600000       2.35700000
 H      25.67100000      25.69200000       3.43500000
 O      22.66000000      26.21500000       3.02300000
 H      21.92700000      26.38200000       3.66700000
 H      23.14300000      25.39000000       3.30100000
 O      29.08300000      27.07200000       0.94400000
 H      29.94300000      26.91300000       1.26000000
 H      28.80800000      28.02200000       1.06500000
 O      23.87600000      28.63400000       3.16000000
 H      23.40700000      27.75300000       2.87200000
 H      23.42800000      28.90000000       3.99500000
 O      21.17100000      33.38900000       4.80200000
 H      22.05400000      33.47700000       5.22500000
 H      21.24500000      33.87700000       3.97000000
 O      20.93000000      33.26900000       7.89500000
 H      21.13500000      33.88900000       8.63000000
 H      21.68200000      32.66000000       7.85600000
 O      28.24900000      34.76700000       5.06800000
 H      27.81800000      34.09800000       5.67800000
 H      27.83200000      35.70400000       5.34300000
 O      29.60600000      35.51700000       9.12500000
 H      28.71400000      35.75500000       8.79100000
 H      29.63300000      34.54800000       9.11700000
 O      20.41700000      36.81600000       2.32900000
 H      19.84100000      36.14200000       2.70500000
 H      21.19500000      36.82800000       2.95300000
 O      23.54700000      36.50300000       4.75300000
 H      24.15500000      37.22500000       4.65000000
 H      23.42400000      36.25100000       5.73000000
 O      28.61300000      32.46000000       1.41000000
 H      28.28600000      33.38800000       1.60300000
 H      28.46100000      32.44500000       0.44600000
 O      26.86400000      36.08000000       7.50900000
 H      26.12600000      36.77600000       7.44600000
 H      26.41900000      35.62900000       8.22900000
 O      30.07500000      33.08400000       3.88700000
 H      29.45400000      33.74800000       4.19600000
 H      29.65500000      32.81400000       3.02100000
 O      26.49300000      33.73400000       8.74600000
 H      26.40100000      32.89600000       9.28800000
 H      26.71600000      33.47000000       7.78100000
 O      30.42900000      36.75600000       6.24600000
 H      30.06200000      36.89000000       5.38600000
 H      29.59200000      36.62100000       6.78000000
 O      22.84900000      36.10400000       7.60200000
 H      23.31100000      35.23200000       7.54700000
 H      23.47000000      36.69500000       7.95900000
 O      26.80900000      32.61200000       5.97600000
 H      26.43600000      32.41800000       5.07500000
 H      26.65700000      31.81400000       6.53600000
 O      22.67000000      34.80300000       2.75500000
 H      22.66000000      35.33600000       1.89500000
 H      22.89000000      35.57800000       3.34100000
 O      25.13700000      36.56100000      10.18100000
 H      25.10400000      35.72400000      10.51900000
 H      25.99500000      36.82500000      10.58900000
 O      29.86000000      32.59000000       9.22000000
 H      29.20100000      31.89500000       9.22100000
 H      30.65200000      32.32000000       8.68500000
 O      24.16100000      33.97000000       6.70300000
 H      24.37900000      33.76400000       5.76600000
 H      24.45800000      33.22800000       7.22000000
 O      25.85200000      33.36900000       3.48600000
 H      24.94600000      33.69000000       3.16300000
 H      26.61800000      33.99000000       3.11800000
 O      27.83600000      34.93000000       2.20500000
 H      28.05200000      35.44200000       3.01000000
 H      27.96300000      35.53700000       1.48700000
 O      30.35900000      36.54000000       3.05500000
 H      31.03200000      36.05100000       2.49000000
 H      29.85300000      37.12100000       2.53500000
