36
XYZ file of cluster: frame_1000_3526.c0fec.41b5c - created by MolEdiTo
 O       4.22000000      18.98100000       8.99700000
 H       4.22300000      18.90500000       7.99300000
 H       3.31200000      18.66700000       9.20400000
 O       1.75000000      17.77500000       9.62000000
 H       1.68900000      16.80700000       9.62000000
 H       0.81500000      18.06800000       9.38900000
 O       5.67900000      19.29300000      13.00900000
 H       5.74200000      18.32500000      13.33200000
 H       5.33200000      19.90600000      13.74300000
 O       6.51700000      22.86900000      11.62400000
 H       5.57600000      22.70600000      11.27300000
 H       7.07600000      22.22900000      11.17000000
 O       1.38800000      22.44600000       8.60200000
 H       1.19300000      23.40200000       8.85600000
 H       1.60200000      21.83800000       9.35400000
 O       3.59000000      21.79500000      11.33500000
 H       3.72600000      21.31500000      12.18300000
 H       4.01700000      21.26100000      10.66700000
 O       6.54900000      22.84900000       8.11000000
 H       7.03000000      23.37700000       7.35800000
 H       5.76000000      22.46900000       7.66900000
 O       2.82200000      23.22300000       6.13700000
 H       2.47100000      23.36800000       7.01600000
 H       1.91700000      23.22400000       5.61200000
 O       1.20200000      23.13600000      12.35300000
 H       0.29000000      23.10700000      11.91600000
 H       1.92100000      22.73100000      11.76400000
 O       5.62700000      24.98000000      14.17700000
 H       6.53900000      24.67300000      13.85600000
 H       5.01200000      24.66700000      13.48200000
 O       3.98300000      24.95900000       8.89700000
 H       4.91500000      24.58500000       8.91400000
 H       3.93700000      25.64700000       8.19700000
 O       4.08300000      24.64600000      12.01900000
 H       4.12000000      25.09800000      11.15400000
 H       3.75100000      23.70700000      11.89300000
