70
XYZ file of cluster: frame_1000_52701.5c87c.1f014 - created by MolEdiTo
 O      14.28600000      11.15900000       4.46400000
 H      14.16600000      10.85800000       5.41900000
 H      14.73600000      10.38800000       4.04200000
 O       9.72400000      10.19200000       4.13100000
 H       9.28900000      10.94300000       4.59100000
 H      10.08800000       9.67400000       4.87200000
 O      13.68300000      12.58400000       7.14200000
 H      14.40300000      12.13700000       7.68700000
 H      13.09900000      11.88900000       7.02700000
 O      11.24600000      16.01600000       3.30600000
 H      11.88500000      16.35100000       2.64800000
 H      11.52800000      16.73700000       3.99700000
 O       8.52100000      14.12500000      10.94800000
 H       7.72200000      14.07600000      11.53400000
 H       8.11700000      14.53000000      10.10400000
 O       8.17000000      16.05000000       5.26200000
 H       8.16200000      15.20700000       4.77800000
 H       7.19700000      16.05600000       5.58100000
 O      12.79800000      17.91700000       8.05000000
 H      12.41500000      17.11200000       7.65500000
 H      13.01000000      17.72900000       9.03500000
 O       9.60300000      10.99100000       6.99400000
 H       9.26400000      11.88800000       7.16600000
 H       8.81400000      10.44100000       7.17300000
 O      11.26300000      14.43300000       9.04200000
 H      10.97200000      14.66200000       8.14900000
 H      10.51100000      14.86400000       9.52000000
 O       8.32400000      13.94400000       3.51200000
 H       8.50200000      14.68000000       2.90800000
 H       8.37000000      13.07300000       3.03700000
 O      11.69100000      12.10400000       3.37800000
 H      11.11800000      11.25300000       3.24300000
 H      12.57200000      11.75400000       3.64300000
 O       8.96000000      15.60300000       8.33000000
 H       8.15800000      16.19800000       8.12300000
 H       9.68700000      16.19000000       7.94200000
 O      10.61200000      13.76900000       5.47700000
 H      11.28700000      13.22000000       5.10900000
 H      10.54500000      14.44900000       4.77400000
 O      13.20300000      13.83300000      11.22100000
 H      12.26200000      13.67100000      11.50400000
 H      13.02000000      14.24400000      10.31400000
 O      14.89500000      16.69100000       4.27800000
 H      15.52000000      15.93300000       4.37200000
 H      14.05600000      16.22900000       4.62700000
 O       8.22200000      13.31600000       6.56500000
 H       9.04300000      13.86600000       6.34900000
 H       7.47800000      13.83600000       6.94700000
 C       9.20400000      10.41100000      11.10200000
 C      10.62200000      11.00900000      11.36000000
 C      11.52600000       9.37500000       9.56500000
 H      11.26500000      11.57500000       9.48800000
 H       7.61000000      10.96300000      10.28500000
 O      13.02800000      11.12900000      10.69400000
 O       8.43000000      10.59500000      12.22800000
 O       8.58300000      10.97900000       9.95400000
 C      11.60500000      10.80200000      10.24600000
 O      10.61800000      12.48300000      11.65100000
 H      11.06500000      10.57900000      12.22300000
 O      11.32000000       8.46700000      10.61800000
 O      12.71900000       8.99800000       8.91600000
 H      12.57000000       8.05800000       8.68100000
 H       9.76200000      12.97300000      11.39900000
 H      13.14500000      12.07600000      10.69600000
 O      13.29500000      15.27200000       5.85900000
 H      12.65600000      14.65500000       5.44300000
 H      13.75200000      14.58100000       6.35600000
 O       9.82400000      17.62600000       6.57800000
 H       9.36300000      16.91900000       6.02200000
 H       9.21000000      18.41000000       6.43400000
