45
XYZ file of cluster: frame_1000_4e5f2.5399.7462c - created by MolEdiTo
 O      13.74900000       3.66000000      17.60400000
 H      13.84500000       4.53700000      17.11200000
 H      14.57800000       3.14900000      17.42900000
 O      12.98900000       1.37400000      10.12700000
 H      12.04000000       1.29300000      10.34600000
 H      13.12100000       2.25000000      10.43200000
 O      11.17700000       2.75200000      12.58900000
 H      11.69100000       3.38200000      13.22100000
 H      10.24000000       2.95400000      12.66000000
 O      13.25700000       6.60300000      11.91700000
 H      12.68500000       7.25300000      11.49300000
 H      13.32700000       7.02000000      12.86600000
 O      11.98600000       1.63600000      15.93400000
 H      11.22600000       1.39100000      16.53000000
 H      11.63000000       2.45500000      15.52000000
 O      10.42600000       5.17900000      14.85900000
 H      10.28500000       6.14600000      15.22800000
 H      11.36000000       5.14700000      14.70000000
 O      12.33700000       0.45500000      13.23700000
 H      11.85000000       1.25900000      12.82300000
 H      12.91100000       0.96100000      13.88100000
 O      14.30900000       5.88500000      16.14200000
 H      15.22900000       5.90500000      16.30700000
 H      13.95100000       6.80900000      15.99000000
 O      14.35200000       0.49600000      16.93400000
 H      13.50200000       0.96300000      16.71400000
 H      15.03100000       1.23200000      16.99000000
 O       6.84200000       4.05000000       9.94000000
 H       7.05300000       3.57800000      10.72100000
 H       7.33500000       4.86700000      10.05500000
 O       7.69200000       6.15300000      13.20400000
 H       7.88800000       5.22100000      13.06100000
 H       8.57600000       6.54100000      13.16500000
 O       7.93300000       1.97100000      13.84400000
 H       7.16500000       1.60800000      13.26700000
 H       8.60600000       1.23700000      13.94800000
 O      13.23300000       4.24100000      10.61200000
 H      12.59200000       4.41200000      11.37000000
 H      13.90300000       4.86200000      10.90100000
 O      13.25300000       4.21200000      13.98200000
 H      13.80400000       3.46800000      13.74400000
 H      13.81700000       4.46900000      14.72600000
 O       8.34200000       3.07600000      17.40200000
 H       8.24200000       3.45300000      18.29300000
 H       8.09100000       3.69800000      16.67400000
