30
XYZ file of cluster: frame_1000_a2b8e.a0ba6.6f26e - created by MolEdiTo
 O      15.62800000      19.61400000      10.24500000
 H      14.68300000      19.76300000      10.47100000
 H      15.64000000      19.00800000       9.49300000
 O      18.06500000      14.25400000      16.26800000
 H      18.38400000      15.16700000      16.12000000
 H      18.43000000      13.99700000      17.19600000
 O      17.75700000      18.15800000      11.26100000
 H      16.97400000      18.70900000      11.64600000
 H      17.31700000      17.32100000      10.91700000
 O      18.63000000      17.19500000      15.54300000
 H      18.38600000      16.44600000      14.94600000
 H      17.78400000      17.46400000      15.99600000
 O      14.36900000      15.24500000      14.23500000
 H      14.20600000      16.22700000      14.10100000
 H      14.42900000      14.75300000      13.42600000
 O      15.10300000      17.75500000      13.39500000
 H      14.53800000      18.54300000      13.28300000
 H      15.95400000      18.22200000      13.69900000
 O      17.25200000      20.40000000      13.21400000
 H      17.68000000      20.99500000      13.86300000
 H      17.83800000      20.35400000      12.48100000
 O      20.07900000      17.92400000      12.97600000
 H      19.85500000      17.46700000      13.78800000
 H      19.30100000      17.78700000      12.45300000
 O      17.62600000      15.50300000      13.46600000
 H      16.77700000      16.11700000      13.36600000
 H      17.40500000      14.69500000      13.01200000
 O      16.48500000      19.05000000      16.25900000
 H      15.70100000      19.52700000      16.73900000
 H      17.34100000      19.62800000      16.35600000
