36
XYZ file of cluster: frame_1000_506ef.961e2.c77bb - created by MolEdiTo
 O       7.88400000      16.71800000      17.74200000
 H       8.04400000      15.78800000      17.65700000
 H       8.70800000      16.98300000      17.26600000
 O      11.86400000      14.57600000      18.09200000
 H      11.25500000      13.84300000      17.92300000
 H      12.67300000      14.20200000      18.52600000
 O      10.85400000      16.51500000      19.98100000
 H      10.50900000      15.76000000      20.47900000
 H      11.16000000      15.92700000      19.29800000
 O       9.34300000      20.41300000      17.03700000
 H       9.46800000      19.97100000      17.96000000
 H       8.72300000      21.15500000      17.17700000
 O       8.93500000      18.75600000      19.59600000
 H       8.68700000      18.11200000      18.85100000
 H       9.52400000      18.16300000      20.06400000
 O      12.48300000      18.90700000      20.55000000
 H      12.53900000      19.13500000      19.60700000
 H      12.15600000      17.93700000      20.49800000
 O       7.02200000      13.91900000      18.95600000
 H       7.24400000      14.73000000      19.49400000
 H       7.72500000      13.85800000      18.32900000
 O       8.32400000      13.94400000      24.36300000
 H       8.50200000      14.68000000      23.75900000
 H       8.37000000      13.07300000      23.88800000
 O       8.08000000      17.24700000      23.10900000
 H       9.05600000      17.31500000      23.40900000
 H       7.50900000      17.20500000      23.89700000
 O      11.24600000      16.01600000      24.15700000
 H      11.88500000      16.35100000      23.49900000
 H      11.52800000      16.73700000      24.84800000
 O      13.28900000      16.57800000      22.67000000
 H      13.96900000      17.15600000      22.23200000
 H      13.77000000      16.44200000      23.57900000
 O      10.65400000      19.75200000      23.31500000
 H      11.38200000      19.47100000      22.72600000
 H      10.92000000      19.25800000      24.13400000
