33
XYZ file of cluster: frame_1000_d3907.27ccd.0 - created by MolEdiTo
 O      19.85900000       4.44600000       0.75700000
 H      20.33400000       3.79000000       0.23600000
 H      19.36500000       5.09500000       0.16200000
 O      19.21100000       7.30000000       5.51500000
 H      19.57700000       7.38300000       6.41100000
 H      18.47000000       7.93700000       5.47200000
 O      19.68600000       5.09600000       3.88500000
 H      19.82800000       6.03700000       4.34100000
 H      19.58500000       5.25100000       2.91300000
 O      20.15000000       7.29700000       2.22100000
 H      20.38600000       8.21400000       1.93400000
 H      19.33800000       7.39300000       2.69900000
 O      23.80700000       4.08300000       3.93900000
 H      23.21600000       4.84400000       3.63600000
 H      23.13400000       3.46600000       4.34000000
 O      25.40800000      10.58700000       4.66900000
 H      24.52900000      10.27100000       5.17200000
 H      26.13900000       9.92500000       4.90900000
 O      23.82200000       6.12000000       6.84300000
 H      23.06700000       5.49500000       6.97300000
 H      23.62500000       6.38600000       5.89800000
 O      22.50000000      10.41500000       5.16200000
 H      21.73200000       9.89000000       5.20100000
 H      22.64500000      10.73300000       6.06800000
 O      23.53200000       6.11300000       0.75400000
 H      23.25000000       5.55800000       0.00000000
 H      22.71400000       6.16600000       1.35900000
 O      24.16800000       9.06600000       1.15200000
 H      24.30300000       8.24300000       1.68200000
 H      24.13200000       8.77000000       0.19800000
 O      23.66400000       7.00600000       4.29100000
 H      23.14700000       7.68700000       3.76400000
 H      24.46400000       6.79100000       3.77100000
