36
XYZ file of cluster: frame_1000_3429e.9f21c.9fd95 - created by MolEdiTo
 O       9.85100000      19.72800000      14.17700000
 H       9.73600000      19.53700000      15.15400000
 H      10.73800000      19.89200000      13.86900000
 O      10.25600000      16.81300000      16.91500000
 H      10.53100000      15.93600000      17.25300000
 H      11.01400000      17.25800000      16.50300000
 O       8.23700000      15.65900000      14.58600000
 H       8.28800000      15.93100000      13.65200000
 H       7.72700000      16.39700000      14.99600000
 O       7.88400000      16.71800000      17.74200000
 H       8.04400000      15.78800000      17.65700000
 H       8.70800000      16.98300000      17.26600000
 O       4.84600000      19.17500000      17.07000000
 H       5.47600000      19.84400000      17.44100000
 H       4.65300000      18.61800000      17.90700000
 O      10.85400000      16.51500000      19.98100000
 H      10.50900000      15.76000000      20.47900000
 H      11.16000000      15.92700000      19.29800000
 O       4.55400000      16.23700000      18.18900000
 H       4.84300000      15.59000000      18.84600000
 H       5.39200000      16.59200000      17.80900000
 O       9.34300000      20.41300000      17.03700000
 H       9.46800000      19.97100000      17.96000000
 H       8.72300000      21.15500000      17.17700000
 O       5.61700000      16.62600000      14.79500000
 H       4.92900000      15.93700000      14.98200000
 H       5.70800000      16.98600000      15.69200000
 O       8.93500000      18.75600000      19.59600000
 H       8.68700000      18.11200000      18.85100000
 H       9.52400000      18.16300000      20.06400000
 O       5.90500000      18.97600000      19.74800000
 H       5.51700000      18.13100000      19.98100000
 H       6.69800000      19.03200000      20.27100000
 O       7.02200000      13.91900000      18.95600000
 H       7.24400000      14.73000000      19.49400000
 H       7.72500000      13.85800000      18.32900000
