108
XYZ file of cluster: frame_4500_2b9f.75a3a.c562c - created by MolEdiTo
 O       1.23900000      26.50500000      25.90100000
 H       1.98900000      26.12000000      26.37200000
 H       0.66000000      26.92100000      26.65500000
 O       1.34800000      22.55600000      30.71700000
 H       1.70700000      23.40600000      30.35300000
 H       2.03600000      21.98000000      30.36700000
 O       2.15300000      25.17500000      29.72800000
 H       1.43600000      25.80200000      29.94300000
 H       2.63400000      25.63800000      28.93800000
 O       4.25400000      15.39600000      30.54100000
 H       4.61300000      15.26500000      31.48700000
 H       4.13100000      16.38500000      30.45100000
 O       9.88600000      17.21100000      28.21700000
 H       8.86300000      17.19200000      28.08600000
 H      10.11800000      17.75600000      27.42200000
 O       6.71400000      16.87500000      26.80300000
 H       6.11200000      16.11300000      27.09700000
 H       6.27400000      17.63900000      27.28600000
 O       7.27300000      20.40000000      29.68700000
 H       7.93100000      20.49700000      30.42500000
 H       7.47700000      21.26900000      29.29300000
 O       4.36900000      22.22700000      28.72100000
 H       4.33300000      21.42700000      29.32000000
 H       4.57800000      22.98600000      29.37500000
 O       7.88200000      23.20200000      29.86500000
 H       7.51900000      23.59000000      30.65600000
 H       8.21400000      24.03100000      29.48200000
 O      10.50400000      23.60200000      29.57600000
 H      11.31100000      23.11500000      29.71800000
 H       9.82400000      22.86400000      29.55300000
 O       5.46900000      18.86200000      28.50400000
 H       4.96800000      19.55300000      28.01600000
 H       6.10000000      19.45700000      29.12000000
 O       7.53700000      25.90100000      29.23600000
 H       6.67100000      26.04300000      28.71300000
 H       8.13700000      26.26700000      28.46400000
 O      10.76400000      20.70400000      29.49700000
 H      10.15500000      19.91200000      29.32000000
 H      11.53000000      20.25300000      29.97900000
 O       7.56000000      26.37700000      26.37800000
 H       7.31300000      27.26000000      26.57700000
 H       7.76800000      26.38400000      25.45700000
 O      10.24400000      18.74000000      26.03300000
 H      10.38300000      19.60900000      26.44700000
 H       9.38600000      18.81000000      25.48400000
 O       3.07000000      17.47300000      27.75600000
 H       3.86700000      17.95800000      27.57100000
 H       2.54900000      17.64200000      26.90300000
 O       2.24500000      22.42800000      26.45800000
 H       2.85000000      22.62900000      27.19400000
 H       2.06600000      23.24600000      26.05500000
 O       2.17100000      24.93200000      34.92100000
 H       2.03300000      24.11300000      34.57000000
 H       2.84300000      24.81800000      35.66300000
 O       8.61200000      16.20800000      36.29200000
 H       7.90600000      16.43000000      36.94600000
 H       8.66800000      17.04800000      35.79800000
 O       4.89900000      22.03200000      34.88000000
 H       4.79700000      22.65000000      35.67300000
 H       5.24200000      22.67900000      34.20700000
 O       7.64400000      16.41500000      32.86500000
 H       7.02000000      16.12100000      32.12800000
 H       7.31200000      17.24100000      33.22600000
 O       8.59800000      23.39700000      35.03300000
 H       9.46200000      23.19400000      34.76800000
 H       8.58800000      24.19100000      35.58300000
 O       6.93000000      26.03600000      33.48400000
 H       7.82500000      25.78500000      33.74500000
 H       6.93600000      26.11800000      32.45100000
 O       9.50900000      18.41300000      33.09300000
 H       8.90800000      18.87200000      33.78400000
 H       9.12600000      17.54900000      33.01200000
 O       3.28700000      19.21600000      35.81500000
 H       3.09900000      19.20700000      36.73600000
 H       2.65500000      18.68800000      35.30700000
 O       9.85500000      26.32800000      35.59300000
 H       9.89800000      26.15600000      34.59000000
 H       9.42700000      27.19600000      35.61500000
 O       5.71600000      18.29600000      33.85600000
 H       5.86600000      19.19700000      34.27200000
 H       5.08800000      18.34600000      33.08100000
 O       2.03900000      21.83900000      35.20200000
 H       2.91100000      21.41500000      35.38800000
 H       1.38500000      21.27600000      35.67800000
 O       3.55200000      20.67900000      32.41500000
 H       3.74500000      21.22600000      33.23300000
 H       3.44700000      19.73900000      32.76500000
 O       4.78200000      17.03100000      36.52900000
 H       5.13000000      17.13300000      35.53100000
 H       3.98500000      17.56900000      36.52200000
 O       1.20300000      17.70800000      34.85100000
 H       0.35300000      17.62800000      34.39600000
 H       1.20600000      16.99600000      35.51100000
 O       4.95300000      24.03900000      32.52600000
 H       5.53000000      24.80700000      32.62200000
 H       4.06400000      24.33000000      32.70900000
 O       6.03000000      20.15700000      36.80000000
 H       5.28800000      19.50100000      36.97200000
 H       5.55200000      20.80800000      36.14200000
 O       8.18000000      20.32000000      34.85800000
 H       7.71600000      20.25800000      35.75300000
 H       8.70700000      21.14400000      34.89500000
 O       9.88100000      25.76500000      32.97100000
 H       9.83300000      26.22700000      32.14000000
 H      10.56700000      25.13000000      32.77500000
 O       3.17900000      17.85100000      32.36900000
 H       2.37700000      17.82200000      32.94900000
 H       2.79100000      18.12100000      31.48700000
