99
XYZ file of cluster: frame_4500_5487.c50be.4aad0 - created by MolEdiTo
 O       7.87300000      30.34300000      19.24900000
 H       7.68000000      31.18400000      19.73600000
 H       7.71900000      30.70800000      18.39600000
 O       9.49300000      29.90600000      14.73600000
 H       9.54200000      29.13900000      14.03300000
 H       8.76000000      30.46500000      14.30800000
 O       6.66500000      29.20900000      15.96300000
 H       7.33600000      29.89700000      15.74600000
 H       6.98700000      29.08900000      16.85700000
 O       3.61600000      29.56400000      16.66800000
 H       3.14800000      30.43400000      16.56000000
 H       4.47100000      29.96200000      16.23900000
 O       2.22100000      26.98600000      19.97700000
 H       1.62900000      26.22900000      20.05900000
 H       2.81200000      26.64000000      19.25100000
 O       4.63800000      30.73700000      13.23200000
 H       4.61100000      31.17200000      12.37700000
 H       4.27100000      31.39300000      13.86100000
 O       9.64900000      28.14500000      16.84700000
 H       9.41800000      27.21500000      16.87600000
 H       9.79300000      28.42400000      15.92700000
 O       8.89400000      29.36700000      11.11000000
 H       9.13800000      28.40100000      11.26500000
 H       7.89300000      29.33600000      11.00600000
 O       3.03200000      28.97800000      11.21300000
 H       2.96900000      29.72600000      11.82300000
 H       2.75500000      28.17500000      11.72600000
 O       3.66700000      26.07000000      16.40000000
 H       3.96700000      26.96000000      16.70100000
 H       2.79700000      25.92600000      16.87100000
 O       9.62400000      27.44400000      13.73700000
 H      10.37400000      26.75000000      13.93200000
 H       8.93000000      27.02400000      13.17800000
 O      10.52500000      30.37700000      18.23900000
 H      10.14200000      29.95400000      17.44000000
 H       9.72100000      30.48900000      18.76500000
 O       7.50400000      26.55400000      11.55800000
 H       6.83200000      26.96900000      12.16600000
 H       7.37800000      25.56900000      11.38300000
 O       2.11800000      26.33200000      12.36000000
 H       3.04300000      26.39600000      12.35900000
 H       1.78000000      26.57100000      13.27400000
 O       5.63400000      28.21900000      18.74800000
 H       4.83600000      28.57200000      18.33500000
 H       5.27200000      28.10500000      19.62500000
 O       5.64800000      28.18800000      13.50100000
 H       4.90900000      28.82000000      13.35300000
 H       6.10900000      28.55600000      14.34200000
 O       5.13300000      30.54000000       9.88400000
 H       4.89800000      29.78500000      10.50200000
 H       6.07400000      30.41200000       9.63100000
 O       8.52800000      28.51200000      21.26000000
 H       9.44300000      28.23500000      20.98200000
 H       8.18500000      28.77500000      20.42700000
 O       3.56600000      36.25500000      18.45900000
 H       2.77200000      36.71600000      18.83800000
 H       3.36800000      35.33400000      18.54600000
 O       4.33300000      33.82900000      15.75400000
 H       3.69000000      34.44200000      16.25400000
 H       5.16700000      34.07700000      16.23700000
 O       1.37700000      33.79600000      17.39500000
 H       1.03700000      34.52800000      17.85400000
 H       0.68400000      33.85100000      16.61500000
 O       2.49900000      33.95000000      20.14600000
 H       2.26700000      33.70000000      19.19400000
 H       2.81200000      33.13700000      20.58300000
 O      10.60000000      34.30000000      14.98200000
 H      11.02000000      34.50100000      14.08500000
 H      10.21500000      33.42000000      14.97800000
 O       2.17300000      34.30900000      12.70800000
 H       2.15400000      34.99000000      11.97100000
 H       2.50200000      34.91700000      13.42900000
 O       7.56600000      33.14700000      13.69900000
 H       6.80000000      32.88300000      13.17100000
 H       7.09500000      33.66400000      14.37200000
 O       9.34200000      35.67700000      10.19900000
 H       9.84800000      36.07600000      10.94500000
 H      10.09000000      35.43600000       9.63800000
 O       2.68800000      35.62100000      10.06800000
 H       2.44100000      34.69500000       9.95900000
 H       3.54600000      35.45100000      10.57700000
 O       9.95500000      33.52400000      12.00100000
 H       9.19600000      33.00500000      12.46200000
 H       9.60100000      33.50600000      11.07700000
 O       5.69100000      35.90900000      12.20900000
 H       6.02400000      35.67500000      11.32900000
 H       6.41000000      36.48900000      12.69400000
 O       6.68600000      34.44300000      18.91400000
 H       6.05000000      34.27100000      19.69300000
 H       6.71500000      35.40300000      18.74400000
 O       7.57700000      33.99400000      16.44800000
 H       7.43700000      34.20400000      17.40500000
 H       8.27800000      34.60400000      16.16800000
 O       4.75400000      37.03300000      15.81700000
 H       4.81300000      37.11900000      16.77600000
 H       5.69500000      36.95400000      15.60300000
 O       8.76500000      36.93800000      20.66500000
 H       9.02300000      37.24000000      19.79300000
 H       7.98400000      36.29700000      20.56300000
