153
XYZ file of cluster: frame_4500_24afd.9e113.4aad0 - created by MolEdiTo
 O      15.09700000      24.34300000      14.82600000
 H      14.69000000      23.81500000      14.11300000
 H      14.42200000      24.13100000      15.48200000
 O      16.62700000      29.08700000      11.64900000
 H      15.67200000      29.52600000      11.78900000
 H      17.22000000      29.82100000      11.27100000
 O       6.66500000      29.20900000      15.96300000
 H       7.33600000      29.89700000      15.74600000
 H       6.98700000      29.08900000      16.85700000
 O       5.45500000      22.11300000      17.65200000
 H       5.61200000      22.71600000      18.39400000
 H       6.37300000      21.88300000      17.35600000
 O      15.54000000      24.48800000      19.91700000
 H      14.62200000      24.57900000      19.56600000
 H      15.33900000      24.13600000      20.80600000
 O       9.62400000      27.44400000      13.73700000
 H      10.37400000      26.75000000      13.93200000
 H       8.93000000      27.02400000      13.17800000
 O      16.31100000      29.34700000      18.37900000
 H      16.26500000      29.34600000      17.44000000
 H      15.40800000      29.56000000      18.66300000
 O      13.49800000      22.11900000      21.15300000
 H      13.28700000      21.73900000      20.24100000
 H      14.41700000      21.99100000      21.33300000
 O      16.05100000      29.66200000      15.20800000
 H      15.44800000      28.96600000      14.85500000
 H      16.39000000      30.20400000      14.41300000
 O       8.06900000      23.06900000      12.56200000
 H       7.89500000      22.24100000      13.10500000
 H       8.81200000      22.68400000      11.94100000
 O      11.37900000      22.68300000      19.06300000
 H      10.60500000      22.28300000      19.51900000
 H      11.65200000      23.41200000      19.62100000
 O      13.42100000      22.19300000      13.41400000
 H      13.77400000      22.26800000      12.52900000
 H      14.20500000      21.94800000      14.04200000
 O      14.57400000      26.91900000      14.50800000
 H      14.86900000      26.00300000      14.69900000
 H      14.75600000      27.05100000      13.62000000
 O       8.52800000      28.51200000      21.26000000
 H       9.44300000      28.23500000      20.98200000
 H       8.18500000      28.77500000      20.42700000
 O      15.49000000      26.68300000      11.57600000
 H      16.20500000      27.39300000      11.39800000
 H      15.65900000      25.93800000      10.83700000
 O      13.15600000      28.23700000      12.26000000
 H      14.01000000      27.85700000      11.84100000
 H      13.31700000      28.71600000      13.10800000
 O       7.87300000      30.34300000      19.24900000
 H       7.68000000      31.18400000      19.73600000
 H       7.71900000      30.70800000      18.39600000
 O       9.49300000      29.90600000      14.73600000
 H       9.54200000      29.13900000      14.03300000
 H       8.76000000      30.46500000      14.30800000
 O       9.34900000      21.34100000      20.64900000
 H       8.39500000      21.16300000      20.83200000
 H       9.73500000      21.29100000      21.56200000
 O       9.64900000      28.14500000      16.84700000
 H       9.41800000      27.21500000      16.87600000
 H       9.79300000      28.42400000      15.92700000
 O       8.75500000      21.42700000      14.71000000
 H       8.51900000      21.41900000      15.65700000
 H       8.41900000      20.51100000      14.39600000
 O      11.99800000      30.51300000       9.94600000
 H      12.76500000      31.01600000      10.28700000
 H      11.30200000      30.50800000      10.71500000
 O       9.57700000      24.87500000      16.67500000
 H       8.88700000      25.10400000      16.02700000
 H      10.34000000      25.44500000      16.43300000
 O      12.50900000      25.52200000      19.67000000
 H      11.83500000      25.80800000      18.90100000
 H      12.33000000      26.38700000      20.25700000
 O      11.83500000      26.53100000      10.67300000
 H      12.44400000      25.90300000      10.35900000
 H      12.24000000      27.08000000      11.38400000
 O      11.40100000      21.17200000      15.64700000
 H      11.76000000      22.11000000      15.69600000
 H      10.41300000      21.18700000      15.63200000
 O      14.66500000      30.76800000      12.23100000
 H      15.25700000      31.50100000      12.57100000
 H      13.78100000      30.70800000      12.74300000
 O      15.29800000      26.61800000      17.49400000
 H      15.95300000      26.47800000      16.84000000
 H      15.18200000      25.77100000      17.87900000
 O       5.69100000      21.67800000      12.00200000
 H       6.25900000      22.47500000      12.00100000
 H       5.93800000      21.32800000      11.12200000
 O      12.82200000      30.12400000      14.78100000
 H      13.23000000      29.61100000      15.54200000
 H      12.05000000      30.42600000      15.27600000
 O      12.10800000      26.20400000      16.36100000
 H      12.21900000      26.07100000      15.39900000
 H      12.40100000      25.29600000      16.64500000
 O       7.07200000      25.13400000      14.04000000
 H       6.11900000      25.14600000      13.81300000
 H       7.40400000      24.33700000      13.52900000
 O       8.89400000      29.36700000      11.11000000
 H       9.13800000      28.40100000      11.26500000
 H       7.89300000      29.33600000      11.00600000
 O      10.80100000      28.03200000      19.68900000
 H      11.59600000      28.58800000      19.83700000
 H      10.59300000      28.06800000      18.75600000
 O      13.75300000      30.51900000      19.61100000
 H      13.09400000      30.97300000      20.19100000
 H      13.31900000      29.99300000      18.95900000
 O      13.89000000      21.28200000      18.21000000
 H      13.71400000      20.91400000      17.33100000
 H      14.77400000      21.61400000      18.19800000
 O       5.64800000      28.18800000      13.50100000
 H       4.90900000      28.82000000      13.35300000
 H       6.10900000      28.55600000      14.34200000
 O       6.83100000      24.83300000      16.67100000
 H       6.03300000      24.19900000      16.63700000
 H       6.84000000      25.16500000      15.72400000
 O      13.51100000      23.92800000      11.09200000
 H      14.43900000      23.85300000      10.92600000
 H      13.27800000      23.81800000      10.11400000
 O       5.13300000      30.54000000       9.88400000
 H       4.89800000      29.78500000      10.50200000
 H       6.07400000      30.41200000       9.63100000
 O       4.75000000      24.26600000      19.50600000
 H       5.02000000      24.77600000      18.73500000
 H       5.43300000      24.40800000      20.12000000
 O      15.55100000      23.36400000      17.41700000
 H      16.47100000      23.37700000      17.00400000
 H      15.65600000      23.55400000      18.43900000
 O      12.69200000      23.39300000      16.66300000
 H      13.63100000      23.10200000      16.61600000
 H      12.34100000      23.18900000      17.59100000
 O       8.29500000      22.21100000      17.29200000
 H       8.47000000      23.10900000      17.00500000
 H       8.85100000      22.03500000      18.14900000
 O       7.98400000      24.87000000      19.50200000
 H       8.82200000      24.77400000      19.14100000
 H       7.60100000      25.41100000      18.87500000
 O      11.72800000      25.66700000      13.75400000
 H      11.36300000      25.34500000      12.84500000
 H      12.49100000      26.16500000      13.41900000
 O      10.72100000      22.40300000      12.88200000
 H      11.64600000      22.59200000      12.97600000
 H      10.35500000      22.59600000      13.70400000
 O      10.52500000      30.37700000      18.23900000
 H      10.14200000      29.95400000      17.44000000
 H       9.72100000      30.48900000      18.76500000
 O       7.50400000      26.55400000      11.55800000
 H       6.83200000      26.96900000      12.16600000
 H       7.37800000      25.56900000      11.38300000
 O      13.30500000      28.54100000      17.22600000
 H      12.67800000      27.86300000      17.06200000
 H      14.03200000      27.92200000      17.48000000
 O       5.63400000      28.21900000      18.74800000
 H       4.83600000      28.57200000      18.33500000
 H       5.27200000      28.10500000      19.62500000
