138
XYZ file of cluster: frame_4500_c7859.217c1.7385b - created by MolEdiTo
 O      30.83900000       9.06500000      23.61100000
 H      30.30300000       8.47800000      23.04900000
 H      30.19000000       9.73200000      23.99100000
 O      26.16100000       9.56100000      16.78900000
 H      25.83300000      10.49000000      16.73000000
 H      27.14300000       9.65500000      16.80300000
 O      29.25900000      14.80900000      20.20500000
 H      28.54300000      14.21500000      20.56600000
 H      28.85700000      15.73700000      20.02600000
 O      29.59900000       4.36600000      18.41700000
 H      29.09200000       4.34500000      17.58200000
 H      29.63700000       5.35000000      18.56600000
 O      28.71300000       7.14800000      15.94500000
 H      28.87400000       7.24700000      16.90900000
 H      29.15600000       7.91200000      15.55900000
 O      29.11600000      10.86900000      20.64800000
 H      29.57100000      11.55000000      20.09200000
 H      28.34300000      11.39900000      21.04100000
 O      28.80400000      10.37400000      16.69400000
 H      28.67500000      10.97000000      17.45600000
 H      29.73700000      10.61100000      16.32000000
 O      26.10900000       5.87800000      23.75400000
 H      26.07900000       6.63800000      23.14500000
 H      27.04600000       5.82100000      24.03100000
 O      28.92100000      10.78300000      23.85100000
 H      28.15000000      11.13600000      23.30200000
 H      28.52900000      10.49300000      24.73300000
 O      28.98000000       6.04000000      23.12900000
 H      29.46700000       5.33900000      22.59800000
 H      29.01100000       6.82700000      22.54600000
 O      29.52100000       7.07700000      18.68700000
 H      30.33300000       7.56900000      18.53900000
 H      29.27800000       7.17600000      19.63200000
 O      26.78900000       4.96400000      20.75200000
 H      26.18000000       5.48900000      21.28900000
 H      27.54200000       4.73900000      21.37400000
 O      28.34400000      12.91700000      26.26500000
 H      29.29700000      12.81900000      26.08300000
 H      28.37100000      13.49300000      27.04800000
 O      26.57400000      14.65100000      21.38200000
 H      26.01800000      15.29500000      21.87300000
 H      26.32400000      14.92400000      20.52100000
 O      27.25200000      15.75100000      16.23000000
 H      27.75300000      14.94400000      16.60700000
 H      27.63300000      15.69800000      15.39000000
 O      30.57100000       6.57600000      26.21300000
 H      30.84900000       5.71700000      25.79900000
 H      29.85100000       6.89900000      25.62200000
 O      27.15000000      10.56600000      25.72200000
 H      27.33500000      10.15400000      26.60600000
 H      27.40900000      11.54900000      25.74400000
 O      28.53300000      13.37800000      17.16100000
 H      28.69300000      12.94400000      16.35500000
 H      29.48600000      13.61900000      17.37000000
 O      26.57900000      11.80000000      22.30700000
 H      26.54100000      12.45300000      21.54600000
 H      26.28000000      12.15500000      23.13000000
 O      30.10700000      13.78800000      23.34500000
 H      31.11200000      13.73000000      23.55800000
 H      29.61400000      13.14600000      23.84000000
 O      28.74500000       8.24600000      21.30800000
 H      28.87900000       9.23400000      21.21400000
 H      27.84100000       8.11100000      20.99700000
 O      26.91900000      15.21000000      25.52600000
 H      26.02300000      14.96900000      25.40400000
 H      27.45600000      14.35800000      25.65000000
 O      26.60700000      12.72300000      19.15500000
 H      25.94500000      13.26000000      19.65100000
 H      26.99200000      13.29800000      18.47800000
 O      28.11700000       7.88100000      25.08100000
 H      27.53200000       8.61000000      25.10800000
 H      28.11600000       7.61100000      24.12000000
 O      30.73500000      15.17300000      26.20200000
 H      31.52900000      14.81900000      26.59800000
 H      30.09400000      15.22800000      26.88700000
 O      35.35200000      11.23800000      17.80300000
 H      35.37300000      10.38600000      18.29800000
 H      34.59000000      11.65700000      18.22600000
 O      36.96800000      13.60400000      17.68200000
 H      36.43900000      12.82200000      17.51400000
 H      36.72700000      13.71400000      18.58200000
 O      32.75100000      14.75000000      17.81500000
 H      33.56700000      15.16400000      17.43300000
 H      32.33400000      15.46300000      18.33200000
 O      32.95000000      12.18900000      19.10000000
 H      33.06100000      13.12000000      18.77000000
 H      33.44800000      12.11000000      19.92800000
 O      35.01400000       8.43200000      26.61900000
 H      35.14300000       8.45500000      25.64500000
 H      34.44200000       7.66300000      26.87800000
 O      35.14900000       8.52000000      23.59600000
 H      35.04100000       7.57000000      23.39900000
 H      34.25600000       8.98600000      23.39700000
 O      36.36400000       5.35300000      15.81700000
 H      36.42300000       5.43900000      16.77600000
 H      37.30500000       5.27400000      15.60300000
 O      36.71800000       4.84900000      26.20400000
 H      36.80900000       5.83700000      26.20200000
 H      36.71100000       4.59000000      27.13800000
 O      36.19800000      14.51600000      15.01000000
 H      37.10600000      14.81300000      14.89900000
 H      36.28900000      14.08200000      15.86100000
 O      36.35000000       7.01700000      19.08100000
 H      36.09900000       7.54100000      18.26800000
 H      35.94200000       6.06900000      18.92900000
 O      33.95300000      14.48100000      21.16200000
 H      32.97500000      14.61100000      21.13500000
 H      33.91300000      13.48400000      21.37000000
 O      33.45700000       5.78300000      20.64800000
 H      32.69200000       5.28900000      20.87800000
 H      34.07200000       5.90400000      21.44300000
 O      33.26800000       9.04200000      18.59700000
 H      32.37400000       9.35000000      18.82300000
 H      33.74600000       9.45800000      19.30200000
 O      34.31200000       8.03400000      16.07300000
 H      35.18700000       8.55900000      16.10600000
 H      34.08600000       8.09500000      17.03100000
 O      33.56900000      11.88000000      21.79800000
 H      32.65300000      11.71400000      22.13900000
 H      34.12200000      11.12800000      22.01500000
 O      36.74800000      14.23200000      20.32600000
 H      35.97100000      13.82300000      20.78200000
 H      37.02800000      14.88000000      21.07100000
 O      35.52600000       9.63700000      20.53400000
 H      36.41200000       9.93700000      20.20900000
 H      35.66300000       9.16800000      21.36400000
 O      36.81500000      15.74200000      22.85100000
 H      36.99100000      14.86200000      23.24000000
 H      36.45700000      16.27600000      23.59500000
 O      36.21000000      12.73300000      23.13000000
 H      37.05100000      12.56800000      23.56200000
 H      35.46600000      12.61600000      23.73500000
 O      34.71800000       5.76500000      22.95900000
 H      35.42200000       5.14000000      23.18000000
 H      34.11900000       5.50100000      23.73200000
 O      34.61100000      13.08300000      25.54400000
 H      33.95200000      12.69900000      26.21000000
 H      35.49500000      13.06900000      25.95800000
