99
XYZ file of cluster: frame_1000_c8b4c.28c3.99b1b - created by MolEdiTo
 O      26.66800000       2.38300000      28.71900000
 H      27.35700000       1.87700000      29.12100000
 H      26.19700000       1.75500000      28.20200000
 O      26.72500000       6.81300000      24.93900000
 H      27.20200000       6.24600000      24.29200000
 H      26.65200000       6.29800000      25.74900000
 O      29.17300000       9.80700000      20.51800000
 H      29.00600000       9.15100000      19.83200000
 H      29.66600000       9.30800000      21.17300000
 O      27.41200000       8.62000000      30.20800000
 H      27.03000000       7.75300000      30.24000000
 H      26.71400000       9.18600000      29.75900000
 O      29.88300000       8.56200000      22.69300000
 H      30.39800000       8.65400000      23.56900000
 H      29.22200000       7.86700000      22.86400000
 O      27.27700000       9.19500000      26.95000000
 H      26.60100000       9.90700000      26.85400000
 H      27.04500000       8.55000000      26.24200000
 O      30.18700000       2.99800000      23.83300000
 H      29.38900000       3.16600000      24.42500000
 H      30.06800000       2.20100000      23.28600000
 O      30.22400000       5.57200000      25.31800000
 H      29.96000000       6.45700000      25.66400000
 H      29.60200000       4.96800000      25.75600000
 O      28.29000000       3.68700000      25.92400000
 H      28.35600000       3.46100000      26.87000000
 H      27.34600000       3.75400000      25.84200000
 O      26.76800000       9.36600000      23.29500000
 H      26.29800000       9.37800000      22.50200000
 H      26.48200000       8.53500000      23.73400000
 O      29.87000000       8.96800000      28.16100000
 H      29.88300000       8.04500000      28.38300000
 H      28.94900000       9.19600000      28.08700000
 O      26.93500000       2.83700000      22.79400000
 H      26.16800000       3.49100000      22.88300000
 H      27.07300000       2.62300000      21.84200000
 O      27.95600000       5.72800000      22.39800000
 H      28.21700000       5.74400000      21.47600000
 H      28.11200000       4.81300000      22.60300000
 O      29.29700000       6.13400000      27.91000000
 H      29.85000000       5.28100000      28.05600000
 H      28.38300000       5.85900000      27.66500000
 O      30.54000000       3.51500000      28.17500000
 H      30.98200000       2.84700000      27.65900000
 H      31.26900000       4.06400000      28.45500000
 O      36.59500000       0.76200000      29.53800000
 H      37.29000000       0.32900000      28.94700000
 H      36.88800000       0.71100000      30.44900000
 O      37.08800000       5.33100000      24.32000000
 H      36.16500000       5.05600000      24.55500000
 H      37.47200000       4.53400000      23.86200000
 O      34.70400000       2.32800000      23.48000000
 H      33.70800000       2.54700000      23.77500000
 H      34.75100000       2.39900000      22.50400000
 O      33.04400000       8.39500000      25.40200000
 H      32.87300000       8.41200000      26.37100000
 H      33.88200000       8.90600000      25.25500000
 O      34.31300000       4.60700000      20.69400000
 H      33.97900000       5.01400000      21.52100000
 H      33.65300000       3.93400000      20.50400000
 O      33.97300000       8.00100000      20.53400000
 H      33.72800000       8.43400000      19.71000000
 H      33.34000000       8.20700000      21.21800000
 O      37.23400000       4.43100000      21.19900000
 H      36.42300000       4.44700000      20.55900000
 H      37.11900000       5.28000000      21.69500000
 O      35.42300000       6.93100000      29.81000000
 H      35.31600000       7.78200000      30.29600000
 H      35.57000000       7.25200000      28.93200000
 O      34.56400000       5.05800000      26.36600000
 H      34.89100000       5.94000000      26.25800000
 H      33.78700000       4.86100000      25.79200000
 O      33.90400000       5.12100000      23.28400000
 H      33.05100000       5.37900000      23.76500000
 H      33.98400000       4.16800000      23.49800000
 O      35.08200000       3.12300000      28.08300000
 H      35.56900000       2.53800000      27.64100000
 H      34.81100000       3.91200000      27.48600000
 O      35.56500000       7.66700000      27.03500000
 H      35.54100000       8.66900000      26.81700000
 H      36.47100000       7.65400000      27.47500000
 O      35.19200000       7.48700000      23.70900000
 H      35.86400000       6.77300000      23.72300000
 H      34.30600000       7.08500000      23.97200000
 O      34.71900000       9.64600000      30.65900000
 H      33.78400000       9.72400000      30.83600000
 H      34.99200000      10.57800000      30.81700000
 O      36.37600000       1.31300000      25.40800000
 H      36.87800000       2.11300000      25.81900000
 H      35.92900000       1.79500000      24.77600000
 O      36.35300000       7.02100000      21.09900000
 H      36.20200000       7.69300000      21.74500000
 H      35.43200000       7.07500000      20.73900000
 O      36.91400000      10.17400000      22.98100000
 H      36.14900000      10.71600000      22.97600000
 H      36.67500000       9.32600000      23.37200000
 O      34.95600000      10.33600000      26.26100000
 H      34.80800000      10.81900000      25.45800000
 H      34.60600000      10.94100000      26.95200000
