114
XYZ file of cluster: frame_1000_4b0cd.c72b2.1c52 - created by MolEdiTo
 O      21.19100000      27.57200000       3.23600000
 H      21.64300000      27.59700000       2.41800000
 H      21.48100000      26.72300000       3.65400000
 O      10.73100000      29.04800000       9.66100000
 H      10.99300000      29.68900000       8.93000000
 H       9.78500000      29.23200000       9.76300000
 O      11.29900000      27.09400000       5.71900000
 H      11.85200000      26.33900000       6.05300000
 H      11.02400000      27.49900000       6.58100000
 O      17.04600000      30.14300000       5.68300000
 H      17.02100000      30.51600000       4.74900000
 H      17.22400000      29.27400000       5.48900000
 O      15.36800000      27.58200000       4.57300000
 H      14.88500000      27.64000000       3.67400000
 H      16.28900000      27.50300000       4.33200000
 O      11.21100000      27.01300000       1.41800000
 H      10.56400000      26.85000000       0.69800000
 H      10.46100000      27.27300000       1.99900000
 O      18.50700000      28.54900000       8.23000000
 H      18.85800000      28.61200000       7.32400000
 H      17.77300000      27.99300000       8.08800000
 O      14.02200000      26.71300000       7.76600000
 H      14.59100000      26.29600000       8.53200000
 H      14.57300000      27.46300000       7.45000000
 O      20.06600000      29.09900000       5.91200000
 H      20.56000000      29.93500000       6.07500000
 H      20.54600000      28.85900000       5.09000000
 O      17.97000000      27.42600000       3.81800000
 H      18.68700000      27.66000000       4.35000000
 H      18.32800000      26.74300000       3.15100000
 O      16.17500000      30.49100000      10.82300000
 H      16.04600000      30.51900000       9.88700000
 H      16.21100000      29.44800000      10.87900000
 O      15.03600000      30.03800000       1.13400000
 H      14.64100000      30.10500000       0.26600000
 H      14.38400000      29.86500000       1.84800000
 O      18.89200000      29.80100000       1.40300000
 H      19.02600000      30.18600000       0.53500000
 H      18.61900000      28.92400000       1.20400000
 O      16.98200000      26.18500000       6.96700000
 H      17.04200000      26.72000000       6.16600000
 H      17.77500000      25.72200000       7.04100000
 O      13.36500000      29.49000000       5.77500000
 H      12.49200000      29.13500000       5.44900000
 H      14.03600000      28.77100000       5.53800000
 O      15.42900000      29.86000000       8.11600000
 H      16.20800000      29.70600000       7.50400000
 H      14.75100000      30.39900000       7.60200000
 O      20.92400000      27.32800000       9.82600000
 H      20.20400000      27.40800000       9.15600000
 H      21.31600000      28.24700000       9.76100000
 O      10.69200000      30.42000000       5.55200000
 H      10.47700000      31.08500000       6.23200000
 H      11.24500000      30.97000000       4.86500000
 O      12.85800000      30.50300000       3.05000000
 H      12.85500000      31.45500000       3.34200000
 H      13.16500000      30.08900000       3.88100000
 O      12.00400000      34.60400000       4.72800000
 H      11.12100000      34.92900000       5.08700000
 H      12.16200000      35.11600000       3.88700000
 O      18.79000000      36.62900000       7.62200000
 H      19.67000000      36.11100000       7.58500000
 H      19.18300000      37.50300000       8.02500000
 O      14.28300000      36.30800000      10.57900000
 H      14.06700000      35.72700000       9.80100000
 H      15.19300000      36.13900000      10.66500000
 O      21.03300000      32.45000000       2.84900000
 H      20.63600000      31.53000000       2.56400000
 H      20.68400000      33.03500000       2.17500000
 O      16.48400000      34.02200000       8.45300000
 H      16.56600000      34.96700000       8.68600000
 H      17.37000000      33.85500000       7.94500000
 O      12.78300000      36.06200000       8.37900000
 H      13.12600000      37.01200000       8.34200000
 H      11.91200000      35.97500000       7.96300000
 O      16.56200000      36.85000000       2.45300000
 H      15.86500000      36.52000000       1.80700000
 H      17.35000000      37.02600000       1.87600000
 O      16.56400000      32.91100000       3.29800000
 H      16.38600000      32.17200000       2.71300000
 H      16.86700000      33.67300000       2.71300000
 O      11.63100000      32.80100000       8.02900000
 H      12.44500000      32.45300000       7.56400000
 H      11.95900000      33.13800000       8.92600000
 O      19.85600000      36.32100000       2.46100000
 H      19.50800000      36.86600000       1.68700000
 H      18.99300000      36.25200000       2.93600000
 O      21.78700000      35.53300000       4.27400000
 H      20.99000000      35.76900000       3.69600000
 H      22.55500000      36.12600000       4.03400000
 O      19.25600000      32.47900000       9.78000000
 H      18.50400000      31.89400000       9.87800000
 H      19.05400000      32.97700000       8.99200000
 O      18.33400000      35.68400000       5.06500000
 H      17.41800000      35.41200000       5.09000000
 H      18.57800000      35.67100000       6.00100000
 O      14.31200000      35.84200000       0.74500000
 H      13.51300000      35.62700000       0.22700000
 H      13.98600000      36.15600000       1.58700000
 O      18.20000000      34.84500000      10.64800000
 H      18.73200000      34.09400000      10.34300000
 H      17.32700000      34.65200000      10.30300000
 O      18.93400000      33.22500000       7.31000000
 H      19.70900000      33.35000000       6.71600000
 H      18.34900000      32.60500000       6.90900000
 O      13.37800000      36.86600000       3.12500000
 H      14.05800000      36.76500000       3.88600000
 H      12.86700000      37.66000000       3.34800000
 O      16.49500000      37.02400000       8.65300000
 H      16.51900000      37.95500000       8.56700000
 H      17.35600000      36.69800000       8.28300000
 O      15.40200000      35.42900000       5.57400000
 H      15.28200000      34.91600000       4.74400000
 H      14.68200000      35.06900000       6.11300000
