294
XYZ file of cluster: frame_8000_28b4.4bda7.48bd8 - created by MolEdiTo
 O      12.66600000      25.11200000      23.56200000
 H      11.80300000      24.75200000      23.77800000
 H      12.52500000      25.35000000      22.59200000
 O       6.40600000      24.93400000      15.78900000
 H       6.73200000      24.31200000      16.44000000
 H       5.46900000      24.71300000      15.68400000
 O       9.52000000      18.43500000      19.35400000
 H       9.69700000      18.03200000      20.24700000
 H       9.15600000      17.63200000      18.86100000
 O       8.94400000      22.09000000      15.15300000
 H       9.23200000      21.18500000      14.99400000
 H       8.25800000      22.21900000      14.42700000
 O       3.88900000      19.14500000      22.95000000
 H       3.81300000      18.17300000      22.72500000
 H       4.79600000      19.30200000      22.99900000
 O       3.05200000      25.58600000      25.22800000
 H       3.94300000      25.23100000      24.96900000
 H       2.54100000      24.72000000      25.16800000
 O       6.23700000      16.75500000      23.65900000
 H       6.90300000      17.39000000      24.06600000
 H       6.85500000      16.34100000      23.02800000
 O      12.84100000      16.13200000      19.20300000
 H      12.93000000      16.61400000      20.03800000
 H      13.14100000      16.80300000      18.55300000
 O       7.65600000      26.38400000      22.15200000
 H       7.40000000      27.15700000      21.63600000
 H       7.86800000      25.75600000      21.41600000
 O      10.14500000      18.52900000      24.31600000
 H       9.15500000      18.41500000      24.49600000
 H      10.31600000      19.24400000      24.97600000
 O      12.37800000      23.72900000      16.27300000
 H      11.62000000      23.31700000      16.80600000
 H      13.00500000      22.97200000      16.34500000
 O      13.74000000      25.96600000      18.46100000
 H      14.40000000      25.19900000      18.54200000
 H      14.26800000      26.50600000      17.86800000
 O       6.78300000      17.79300000      14.04200000
 H       7.30500000      18.19800000      14.81600000
 H       7.25900000      16.90900000      14.06800000
 O       5.00100000      16.35900000      17.56800000
 H       4.13800000      16.31900000      17.95700000
 H       4.79700000      16.69500000      16.68000000
 O       6.33100000      19.73200000      22.26400000
 H       7.29400000      19.70200000      22.31400000
 H       6.12600000      20.67700000      22.24700000
 O      13.30800000      21.23500000      23.56100000
 H      13.62700000      20.62500000      24.24800000
 H      12.90700000      20.60200000      22.92800000
 O       4.78600000      20.77000000      17.71700000
 H       4.38700000      20.40200000      16.92500000
 H       4.19200000      20.50400000      18.44800000
 O       6.29600000      13.97400000      14.12000000
 H       7.15900000      14.46000000      13.91900000
 H       6.42600000      13.86400000      15.06500000
 O      13.72400000      25.83900000      14.24100000
 H      14.35600000      25.73600000      14.97600000
 H      12.97900000      25.36400000      14.68800000
 O       9.76600000      24.31800000      20.92400000
 H      10.54900000      24.80800000      20.71000000
 H       9.58100000      24.60100000      21.80800000
 O       5.64300000      27.71800000      16.26500000
 H       5.66800000      28.31800000      15.48500000
 H       6.05000000      26.94200000      15.85700000
 O      10.58700000      25.85000000      17.42500000
 H      11.47800000      25.69100000      17.09800000
 H      10.30400000      24.95700000      17.61600000
 O       9.85800000      27.80700000      19.75600000
 H      10.27600000      28.64500000      19.54700000
 H       9.96100000      27.35000000      18.83000000
 O      11.90600000      19.39800000      22.26500000
 H      11.21700000      19.26100000      22.97700000
 H      12.37700000      18.53800000      22.40900000
 O       7.82100000      16.45200000      18.78000000
 H       7.13300000      16.90600000      18.36400000
 H       7.95200000      15.67300000      18.26200000
 O       4.37800000      23.02900000      15.98700000
 H       3.71500000      23.54700000      16.42400000
 H       4.30500000      22.16200000      16.48100000
 O       7.69200000      20.91000000      26.52300000
 H       7.41700000      21.81000000      26.59000000
 H       8.56100000      20.95200000      26.11800000
 O       3.76100000      13.07300000      25.64800000
 H       4.39500000      12.86900000      26.37200000
 H       4.08900000      13.89200000      25.34900000
 O       2.05300000      20.89700000      23.69600000
 H       2.69800000      20.16500000      23.53100000
 H       1.53500000      20.84200000      22.86800000
 O       1.53700000      15.68600000      23.03500000
 H       2.41300000      15.86800000      22.56700000
 H       1.86100000      15.81500000      23.97400000
 O      11.91500000      19.15900000      17.47800000
 H      11.15000000      18.89300000      17.98900000
 H      11.96700000      20.10300000      17.81500000
 O      14.00100000      19.59300000      25.61400000
 H      13.91700000      20.34400000      26.23700000
 H      13.56500000      18.89300000      26.12700000
 O       3.01100000      15.16600000      14.29000000
 H       2.27800000      15.43100000      14.89100000
 H       3.59400000      15.97300000      14.47300000
 O       7.34700000      26.39200000      28.12100000
 H       8.10800000      26.72300000      27.67100000
 H       7.44800000      25.44600000      28.04500000
 O       2.19200000      17.38200000      18.66400000
 H       2.17800000      17.20800000      17.70400000
 H       2.09700000      16.51300000      19.04900000
 O      13.87700000      20.53200000      20.17700000
 H      13.25100000      19.99600000      20.72800000
 H      13.28800000      21.19300000      19.74300000
 O       1.02400000      18.92000000      26.78700000
 H       0.43500000      19.62800000      26.34700000
 H       1.74200000      18.90700000      26.08400000
 O       2.77900000      25.05300000      17.35000000
 H       2.75700000      25.41500000      16.38600000
 H       2.90500000      25.92900000      17.77500000
 O       8.89900000      20.58000000      22.21700000
 H       9.04700000      21.33400000      22.81300000
 H       9.74400000      20.52500000      21.71600000
 O      13.78100000      17.50300000      16.85200000
 H      14.56200000      18.09500000      16.98100000
 H      13.05800000      18.20600000      16.96700000
 O       6.48200000      26.33000000      13.29700000
 H       5.80800000      25.77800000      12.90100000
 H       6.80400000      25.68800000      14.03600000
 O       1.21200000      21.75200000      20.42700000
 H       1.75000000      21.11700000      19.85200000
 H       0.95700000      22.39700000      19.74200000
 O       2.83900000      14.88800000      19.28100000
 H       2.67400000      14.26100000      18.48900000
 H       3.05600000      14.21200000      19.91600000
 O       6.11300000      22.76700000      22.55600000
 H       5.34700000      23.39200000      22.44700000
 H       6.55800000      23.14000000      23.31800000
 O      11.45800000      15.71400000      23.71100000
 H      12.44900000      15.76100000      23.56600000
 H      11.35000000      14.80000000      23.29300000
 O       9.64000000      22.69800000      24.04200000
 H       9.76000000      23.62500000      23.70300000
 H      10.49000000      22.63400000      24.55300000
 O      13.13000000      19.74200000      14.05700000
 H      13.23800000      20.72900000      13.91000000
 H      13.64900000      19.34200000      13.37300000
 O      10.51700000      19.76600000      14.51400000
 H      10.25300000      19.83600000      13.58000000
 H      11.47600000      19.70400000      14.42500000
 O       3.32200000      19.62500000      19.86600000
 H       2.99500000      18.78200000      19.56400000
 H       3.63900000      19.46200000      20.75400000
 O       2.59100000      26.41700000      22.18400000
 H       3.05600000      27.28800000      22.18800000
 H       2.41900000      26.22500000      23.09400000
 O       7.75500000      18.41700000      25.41400000
 H       7.55800000      19.22400000      25.86200000
 H       7.90900000      17.80400000      26.17000000
 O       3.09900000      25.88400000      14.36600000
 H       3.91800000      25.85100000      13.85800000
 H       2.50600000      25.35200000      13.85900000
 O       7.29200000      23.91900000      25.02700000
 H       7.99100000      23.23800000      24.92900000
 H       6.83700000      23.64500000      25.87800000
 O       9.66000000      25.40700000      23.45700000
 H       9.95200000      25.99600000      24.18800000
 H       9.05600000      25.93900000      22.93300000
 O      11.40400000      14.17800000      17.53500000
 H      11.98600000      14.67500000      18.21000000
 H      11.06800000      14.91200000      17.02000000
 O       1.84300000      15.14200000      25.70200000
 H       2.06500000      14.21700000      25.62800000
 H       2.72400000      15.49500000      26.01100000
 O       1.13900000      24.29700000      13.11300000
 H       0.62300000      24.48200000      13.93400000
 H       0.55600000      24.79000000      12.41800000
 O      12.12600000      17.20000000      14.45800000
 H      12.39500000      18.01200000      14.02300000
 H      12.84700000      17.05500000      15.09700000
 O      10.38800000      28.05200000      14.08500000
 H      10.12500000      28.15700000      13.14400000
 H       9.79100000      27.38100000      14.39300000
 O       6.86500000      14.18800000      17.39300000
 H       6.80100000      13.50400000      18.10100000
 H       6.00400000      14.63400000      17.43700000
 O       7.24200000      24.44800000      19.01500000
 H       8.24300000      24.39400000      19.15700000
 H       7.05800000      23.49200000      19.07400000
 O       2.40700000      27.76700000      26.81800000
 H       2.35800000      26.92400000      26.38100000
 H       3.29000000      28.07500000      26.55700000
 O       3.55700000      23.89300000      21.61000000
 H       2.74200000      23.39100000      21.45100000
 H       3.25800000      24.74000000      21.86900000
 O       4.18000000      17.55400000      15.04100000
 H       5.18400000      17.65200000      14.76800000
 H       3.89300000      18.47900000      14.99900000
 O       5.00300000      28.32500000      18.69100000
 H       5.16800000      28.02000000      17.76100000
 H       4.95900000      27.49400000      19.16800000
 O       9.40000000      20.97200000      19.05500000
 H       8.53500000      21.30800000      19.39900000
 H       9.23700000      19.98600000      19.20800000
 O      10.42400000      20.57100000      26.20300000
 H      10.74100000      19.93700000      26.87400000
 H      11.14400000      21.21700000      26.19400000
 O       1.24700000      16.10700000      16.18600000
 H       0.87800000      16.67500000      15.46300000
 H       0.50900000      15.47400000      16.33700000
 O       3.49800000      18.49000000      25.77000000
 H       3.61800000      18.27600000      24.81900000
 H       4.16400000      17.97800000      26.20900000
 O       4.75400000      27.96800000      25.73400000
 H       4.85600000      28.48200000      24.86300000
 H       5.06000000      27.07400000      25.37600000
 O      12.00500000      26.24200000      20.64000000
 H      11.29400000      26.86100000      20.36100000
 H      12.54000000      26.31700000      19.78400000
 O       6.67200000      14.96800000      21.01200000
 H       7.01300000      15.63700000      20.35800000
 H       7.46100000      14.32800000      20.92400000
 O       7.02000000      22.55700000      13.50000000
 H       6.56000000      22.26200000      12.67000000
 H       6.23900000      22.54900000      14.09100000
 O       5.78100000      25.89800000      24.13700000
 H       6.37100000      25.13000000      24.43800000
 H       6.35100000      26.19600000      23.37300000
 O      11.09200000      14.75200000      26.14400000
 H      10.17700000      14.40300000      25.97800000
 H      11.30200000      15.21900000      25.30500000
 O       9.92300000      16.59700000      16.22100000
 H      10.66600000      16.89800000      15.65200000
 H       9.42100000      17.46600000      16.26300000
 O       3.57800000      20.41300000      14.95100000
 H       3.37900000      21.32300000      14.72600000
 H       3.38500000      19.98000000      14.12200000
 O       6.90800000      21.94600000      19.67000000
 H       6.55500000      22.29400000      20.47000000
 H       6.17300000      21.50300000      19.24200000
 O       4.82200000      25.81000000      19.73900000
 H       5.58000000      25.27600000      19.55300000
 H       4.24600000      25.26900000      20.20700000
 O       8.41800000      19.11400000      15.98500000
 H       9.30300000      19.27400000      15.71900000
 H       8.04900000      19.94200000      16.37900000
 O      13.51500000      17.48600000      21.72300000
 H      14.32800000      17.70500000      21.24700000
 H      13.91300000      16.76800000      22.29800000
 O       5.87700000      23.10300000      27.12700000
 H       5.57500000      22.21200000      27.37500000
 H       5.07600000      23.57300000      27.51400000
 O      11.93700000      22.11600000      19.37500000
 H      11.13500000      21.62700000      19.13400000
 H      11.63600000      23.01900000      19.48600000
 O       9.57700000      14.49700000      20.86600000
 H      10.21200000      14.11300000      21.44900000
 H       9.58000000      15.42300000      21.23300000
 O      13.72500000      24.19700000      27.24700000
 H      12.87700000      24.07700000      27.78500000
 H      14.04400000      25.00700000      27.66600000
 O       8.52500000      15.59700000      14.10900000
 H       9.24800000      15.13500000      13.61900000
 H       9.04500000      15.72000000      14.96700000
 O       4.68600000      15.66400000      25.45000000
 H       4.87800000      16.07700000      26.29100000
 H       5.45200000      16.04500000      24.90700000
 O      10.49500000      26.86700000      25.62200000
 H      10.63500000      26.34300000      26.42900000
 H      11.36300000      27.31500000      25.49400000
 O       8.28200000      16.61300000      27.61200000
 H       8.59900000      16.68900000      28.57100000
 H       8.68500000      15.75800000      27.43600000
 O      10.91000000      24.09100000      14.10100000
 H      11.44900000      24.13600000      14.90500000
 H      10.15100000      23.64300000      14.50400000
 O      12.09500000      22.84100000      25.46800000
 H      12.95300000      23.20000000      25.85400000
 H      12.49500000      22.52700000      24.64600000
 O       1.51000000      23.22500000      24.75000000
 H       0.72000000      23.23500000      24.13800000
 H       1.94800000      22.42700000      24.44800000
 O       9.81700000      22.91100000      17.40800000
 H       9.51900000      22.18800000      18.03200000
 H       9.36700000      22.51500000      16.58700000
 O       8.89200000      26.26000000      15.39600000
 H       9.41800000      26.08100000      16.22500000
 H       8.07600000      25.76000000      15.65300000
 O       4.85300000      20.44900000      26.85300000
 H       4.17100000      19.88600000      26.45600000
 H       5.66300000      20.22800000      26.41200000
 O       9.78800000      17.00900000      22.03000000
 H       9.69900000      17.91600000      22.50300000
 H      10.38900000      16.59400000      22.74100000
 O      13.39300000      14.44700000      14.14100000
 H      13.62000000      15.16600000      13.50400000
 H      12.44900000      14.37900000      13.95200000
 O       4.01400000      16.30000000      22.16000000
 H       4.57400000      15.77400000      21.54400000
 H       4.71500000      16.62600000      22.73400000
