711
XYZ file of cluster: frame_8000_c5501.9b792.20fe - created by MolEdiTo
 O      37.79900000      30.09000000      28.82100000
 H      36.95300000      29.98600000      29.28100000
 H      38.32200000      30.57500000      29.53400000
 O      40.46900000      30.59100000      23.70200000
 H      41.33100000      30.73400000      24.19400000
 H      39.90000000      30.34600000      24.48600000
 O      39.94800000      31.39600000      15.19600000
 H      40.82800000      31.09400000      14.80400000
 H      40.26300000      32.18900000      15.70600000
 O      35.41300000      35.35700000       9.36400000
 H      35.67600000      34.63200000      10.00400000
 H      34.45500000      35.27000000       9.42900000
 O      39.69800000      32.19500000      26.08300000
 H      39.28600000      33.01600000      26.42500000
 H      40.35200000      32.68600000      25.46800000
 O      36.67100000      31.75800000      21.46200000
 H      37.51900000      32.21600000      21.69600000
 H      36.83600000      30.92200000      21.93000000
 O      38.39100000      36.22200000       7.69100000
 H      38.45100000      35.85500000       8.64100000
 H      38.60100000      37.14900000       7.90600000
 O      38.77900000      39.72200000      16.24900000
 H      39.05200000      40.66100000      16.30200000
 H      38.51700000      39.67200000      15.31800000
 O      37.07200000      33.96300000      23.80400000
 H      37.12700000      34.62300000      23.11500000
 H      37.84900000      33.45000000      23.52300000
 O      36.09700000      37.42500000      18.22400000
 H      35.32900000      36.81900000      18.34700000
 H      35.79400000      38.16000000      18.78500000
 O      39.51000000      33.18800000       4.35800000
 H      39.15500000      33.26000000       5.33400000
 H      40.43900000      33.27700000       4.62200000
 O      38.56600000      40.56400000      18.90100000
 H      37.79200000      40.20100000      19.31600000
 H      38.55600000      40.07800000      18.04700000
 O      40.09700000      37.78800000      25.25800000
 H      40.56400000      37.65900000      26.07500000
 H      39.14200000      37.51900000      25.54000000
 O      36.37200000      39.83800000      36.61800000
 H      37.00300000      39.15700000      36.86700000
 H      36.52500000      40.56100000      37.33000000
 O      39.85300000      28.02900000      12.76000000
 H      39.67400000      27.17700000      12.31900000
 H      40.10500000      27.72800000      13.63300000
 O      36.06700000      40.12500000       5.12400000
 H      35.76900000      40.47700000       4.22300000
 H      36.03700000      40.97400000       5.64800000
 O      36.37600000      33.15400000       1.05500000
 H      35.61500000      32.82600000       1.54300000
 H      35.86300000      33.72000000       0.35200000
 O      37.56500000      27.90600000      25.06900000
 H      38.33800000      28.48000000      25.29400000
 H      37.21100000      27.79700000      26.01100000
 O      40.15200000      28.27900000       1.17400000
 H      40.36100000      29.15700000       0.78500000
 H      40.13100000      28.53000000       2.09500000
 O      37.85700000      37.26000000      26.47900000
 H      37.68000000      37.48300000      27.43800000
 H      36.94800000      36.84400000      26.26800000
 O      38.94600000      40.65100000       3.51000000
 H      38.61600000      39.74500000       3.24400000
 H      39.84400000      40.41300000       3.85200000
 O      34.74700000      27.35400000      36.94500000
 H      34.87300000      28.29200000      36.86500000
 H      34.08300000      27.28500000      37.64600000
 O      35.56700000      36.15700000      36.75600000
 H      35.82400000      35.39200000      37.25400000
 H      34.70700000      35.83700000      36.34400000
 O      40.50100000      33.54300000      20.50100000
 H      39.86200000      33.76800000      19.78100000
 H      40.96800000      34.34200000      20.67000000
 O      37.28800000      33.70900000      15.30600000
 H      36.95000000      34.59300000      15.15600000
 H      38.16000000      33.66800000      14.85100000
 O      34.61100000      37.36700000      27.13600000
 H      34.83500000      37.64500000      28.01900000
 H      34.12000000      36.56300000      27.25800000
 O      39.94000000      30.04100000      21.02700000
 H      39.62200000      29.15700000      21.13400000
 H      40.24000000      30.33100000      21.84200000
 O      40.24300000      38.87200000      40.52600000
 H      40.59000000      39.74500000      40.39200000
 H      40.95800000      38.48100000      41.08800000
 O      34.10600000      28.64200000       0.89700000
 H      34.96400000      29.03500000       0.72100000
 H      34.40500000      27.79600000       1.35900000
 O      36.60400000      36.20300000      15.71100000
 H      36.38300000      36.79000000      16.46300000
 H      35.66000000      35.97800000      15.44900000
 O      40.44300000      35.77500000       5.40600000
 H      39.66600000      35.77100000       5.99800000
 H      40.74300000      36.66300000       5.52900000
 O      36.63800000      26.91300000      34.93500000
 H      35.87200000      26.86600000      35.53300000
 H      37.00700000      27.76900000      35.27400000
 O      37.74000000      34.41000000      34.35500000
 H      37.68000000      34.30700000      33.36600000
 H      37.96700000      35.34000000      34.41600000
 O      36.17300000      39.89100000      19.92600000
 H      35.49900000      40.50000000      19.60000000
 H      35.94400000      39.90000000      20.88500000
 O      38.53400000      33.60300000       6.79300000
 H      38.33100000      33.28400000       7.66500000
 H      38.13100000      34.45500000       6.80600000
 O      37.36000000      38.39900000      29.22000000
 H      36.47600000      38.75000000      29.44000000
 H      37.26700000      37.54000000      29.72600000
 O      38.54800000      36.95800000      34.11300000
 H      38.18300000      37.71200000      33.65500000
 H      39.42400000      37.32500000      34.37800000
 O      38.16100000      40.46500000      22.50600000
 H      38.90200000      40.63300000      23.14400000
 H      38.50100000      40.92100000      21.71400000
 O      36.31900000      28.81600000      30.89700000
 H      36.61100000      27.89300000      30.83400000
 H      35.39900000      28.72000000      30.67000000
 O      37.35000000      35.89300000      30.36000000
 H      38.21600000      35.59000000      30.69700000
 H      36.83900000      35.10400000      30.61700000
 O      37.50800000      40.31200000      11.64700000
 H      38.23300000      40.50300000      12.35400000
 H      36.93100000      41.06700000      11.95900000
 O      40.15200000      31.08100000       8.53400000
 H      39.53700000      31.68800000       8.97600000
 H      40.98200000      31.60900000       8.57400000
 O      39.12200000      29.63600000      26.19300000
 H      38.84700000      29.47300000      27.12500000
 H      39.29500000      30.57400000      26.16600000
 O      38.74300000      35.63200000      10.29000000
 H      39.72600000      35.76900000      10.35400000
 H      38.42500000      36.34700000      10.90000000
 O      37.19100000      29.95500000      17.63100000
 H      37.94900000      30.39000000      18.01000000
 H      37.03400000      30.43700000      16.76000000
 O      35.49400000      35.44500000       6.45000000
 H      35.87700000      35.27700000       7.34300000
 H      35.27300000      36.42000000       6.64700000
 O      40.58800000      32.50100000      33.14100000
 H      40.67000000      31.56600000      32.86000000
 H      40.93900000      32.40700000      34.08500000
 O      40.54100000      39.05700000       9.69500000
 H      40.72000000      39.94300000      10.09800000
 H      39.63000000      39.00600000       9.72500000
 O      37.05100000      29.63900000      40.61900000
 H      37.66700000      30.02000000      41.30100000
 H      37.52400000      29.96900000      39.83500000
 O      36.85700000      29.18300000      22.72200000
 H      37.54700000      28.82200000      22.24100000
 H      36.95000000      28.75200000      23.58000000
 O      37.56800000      37.91300000       3.65400000
 H      36.91000000      37.19500000       3.76500000
 H      37.16800000      38.51700000       4.35500000
 O      36.24900000      33.49000000      31.72300000
 H      36.73200000      32.71700000      32.10500000
 H      35.73600000      33.04100000      31.01000000
 O      35.15500000      40.61200000      22.84300000
 H      35.87900000      40.06400000      23.21700000
 H      34.49900000      40.65900000      23.50800000
 O      34.85100000      29.14700000      25.20500000
 H      35.15700000      29.90800000      25.70500000
 H      35.44000000      28.46100000      25.61300000
 O      38.16700000      35.37700000       1.72500000
 H      37.61600000      35.88100000       2.37400000
 H      37.48200000      34.76200000       1.40200000
 O      39.65700000      28.41000000      34.58100000
 H      39.60300000      27.51900000      35.04300000
 H      38.85500000      28.78500000      35.00800000
 O      38.39500000      33.14400000       9.49200000
 H      38.54300000      34.06900000       9.78000000
 H      37.58200000      32.99100000      10.09200000
 O      38.91100000      32.56600000      22.51700000
 H      39.56000000      32.86400000      21.84200000
 H      39.44700000      31.79500000      22.83100000
 O      39.01400000      34.64300000      27.53100000
 H      38.58400000      34.76300000      28.38200000
 H      39.14800000      35.59000000      27.28900000
 O      33.97500000      38.37000000      24.66600000
 H      34.93000000      38.12700000      24.36000000
 H      34.10300000      38.19100000      25.63000000
 O      38.89500000      34.35900000      18.17200000
 H      38.60400000      35.13800000      17.65200000
 H      38.27900000      33.66700000      17.81400000
 O      39.18500000      31.36500000      18.62500000
 H      40.12400000      31.63900000      18.44400000
 H      39.45900000      30.68900000      19.31700000
 O      34.92600000      38.03600000       7.31000000
 H      35.54300000      38.65500000       6.89700000
 H      35.12600000      38.21000000       8.25400000
 O      37.42700000      30.65600000       5.12300000
 H      36.84300000      31.31800000       5.50600000
 H      37.67900000      31.09800000       4.27400000
 O      39.49100000      34.22000000      13.79300000
 H      38.91300000      34.76900000      13.19900000
 H      40.10500000      33.88800000      13.07900000
 O      40.78100000      40.08500000      37.22600000
 H      41.36500000      40.32200000      37.95200000
 H      39.95500000      39.81400000      37.63400000
 O      38.42200000      27.64500000      21.13500000
 H      39.02300000      26.91800000      20.95400000
 H      37.76600000      27.16300000      21.75900000
 O      38.28300000      35.75600000      21.83700000
 H      37.81300000      35.52300000      20.96600000
 H      39.12200000      36.04100000      21.52600000
 O      38.82800000      37.37200000      17.81100000
 H      38.76900000      37.97400000      17.00400000
 H      37.84500000      37.38900000      18.01700000
 O      35.86000000      32.80100000       5.69100000
 H      35.76400000      32.89400000       4.71300000
 H      35.57400000      33.78300000       5.92300000
 O      35.65800000      27.68900000       7.79300000
 H      35.17800000      28.47100000       8.09500000
 H      36.24000000      28.12500000       7.10600000
 O      39.32300000      34.36400000      31.45500000
 H      40.16500000      34.23800000      30.90300000
 H      39.34700000      33.48900000      31.89600000
 O      39.77000000      36.51900000      39.47000000
 H      39.83100000      37.36200000      39.96900000
 H      39.70600000      35.90100000      40.29600000
 O      37.24600000      38.97000000       9.26800000
 H      37.37900000      39.46800000      10.10700000
 H      36.70500000      38.21000000       9.67300000
 O      39.46500000      31.02300000      30.78000000
 H      40.03400000      31.31000000      29.97300000
 H      40.06300000      30.34800000      31.12400000
 O      40.62400000      35.20400000       2.54200000
 H      39.65000000      35.08000000       2.26300000
 H      40.42600000      35.07600000       3.50000000
 O      40.18800000      28.53800000       9.41200000
 H      40.11300000      29.47400000       9.02400000
 H      40.21000000      28.76100000      10.34600000
 O      37.27600000      38.36300000       1.03100000
 H      37.70700000      38.19700000       1.89900000
 H      38.07500000      38.52500000       0.45000000
 O      35.92900000      39.80000000      33.76500000
 H      35.81100000      39.89900000      34.77100000
 H      36.90700000      39.69800000      33.78700000
 O      38.21000000      33.10400000      36.66300000
 H      38.87600000      33.81000000      36.79600000
 H      37.90600000      33.33000000      35.76800000
 O      40.40000000      36.77400000      19.95600000
 H      40.00800000      37.11800000      19.10800000
 H      40.86200000      37.58200000      20.21600000
 O      37.43800000      29.47600000      35.98600000
 H      37.27200000      29.99100000      36.82700000
 H      36.70600000      29.82700000      35.47000000
 O      37.59900000      28.09600000       5.79800000
 H      37.53300000      29.08200000       5.65500000
 H      37.14000000      27.82700000       4.96300000
 O      35.59200000      30.27200000      37.74200000
 H      35.22200000      31.13900000      37.51100000
 H      36.03100000      30.50300000      38.59800000
 O      36.88600000      38.07500000      22.97700000
 H      37.47700000      38.79500000      22.77600000
 H      37.32800000      37.30200000      22.64200000
 O      36.19500000      37.77500000      11.65100000
 H      35.28000000      37.52100000      12.01600000
 H      36.13800000      38.73700000      11.80500000
 O      38.46000000      38.13900000      37.74600000
 H      39.20700000      37.68300000      38.16100000
 H      37.83500000      37.35500000      37.50100000
 O      35.05600000      31.16900000      18.14300000
 H      35.18300000      31.69800000      19.01700000
 H      35.96300000      30.78700000      18.07700000
 O      38.54200000      39.91800000      32.90800000
 H      39.12900000      40.40600000      33.54400000
 H      39.06900000      39.97100000      32.09500000
 O      35.68500000      30.98700000      34.89700000
 H      35.97900000      31.13200000      33.96200000
 H      35.87600000      31.91900000      35.19400000
 O      36.66900000      26.99200000      13.80800000
 H      36.51900000      26.37700000      13.02600000
 H      36.99000000      27.79200000      13.28200000
 O      37.14800000      30.92600000      14.87200000
 H      37.13800000      31.86800000      15.16000000
 H      38.13200000      30.87600000      14.68100000
 O      34.85100000      33.05400000      19.96800000
 H      35.56200000      32.53900000      20.47900000
 H      34.55400000      33.56600000      20.78200000
 O      36.67600000      29.48800000      11.56600000
 H      36.19400000      29.49900000      12.47100000
 H      35.91800000      29.55200000      10.93100000
 O      37.16100000      31.17200000      32.61700000
 H      38.00600000      31.31300000      32.18500000
 H      36.90900000      30.32600000      32.23700000
 O      37.79000000      31.64500000      38.99500000
 H      37.55300000      32.36300000      39.60700000
 H      38.10600000      32.10800000      38.21100000
 O      39.19100000      30.61900000      11.97400000
 H      38.34500000      30.32500000      11.67900000
 H      39.61900000      29.80500000      12.35200000
 O      35.13800000      29.73100000      13.72500000
 H      34.80800000      30.52600000      13.36500000
 H      35.94500000      30.09900000      14.21400000
 O      35.13200000      37.38900000      39.73300000
 H      35.92400000      37.81900000      40.20100000
 H      35.13300000      37.97200000      38.94000000
 O      38.41100000      36.88300000      12.95600000
 H      37.63100000      37.30900000      12.49800000
 H      38.02200000      37.00600000      13.88600000
 O      40.10500000      30.60400000       5.79500000
 H      39.97700000      30.77800000       6.79800000
 H      39.25400000      31.07700000       5.57200000
 O      35.82500000      35.90500000       3.64300000
 H      34.87100000      35.82600000       3.32100000
 H      35.63300000      35.53400000       4.53500000
 O      36.42100000      27.50800000      18.70600000
 H      36.52500000      26.90300000      17.96800000
 H      36.85400000      28.31200000      18.33600000
 O      36.03800000      33.12400000      11.02400000
 H      35.15500000      33.51000000      11.13200000
 H      36.11800000      32.43000000      11.69200000
 O      36.34700000      27.95500000      27.41700000
 H      35.81000000      27.63000000      28.20100000
 H      36.87300000      28.67100000      27.85600000
 O      40.18700000      40.61900000      24.28200000
 H      40.07300000      39.71400000      24.68100000
 H      41.12800000      40.76200000      24.60400000
 O      36.34900000      34.07200000      26.40900000
 H      37.22200000      34.33200000      26.71100000
 H      36.51500000      34.11800000      25.43100000
 O      40.60300000      28.83200000       3.72000000
 H      41.40900000      29.30300000       3.51800000
 H      40.18100000      29.41000000       4.40900000
 O      35.03600000      27.61800000      21.23600000
 H      35.46700000      28.34700000      21.75500000
 H      35.54000000      27.72900000      20.40100000
 O      38.40900000      39.62300000       6.95100000
 H      37.85400000      39.54300000       7.77900000
 H      37.72400000      39.97800000       6.37600000
 O      38.13400000      31.63200000       2.64300000
 H      38.71500000      32.40200000       2.95700000
 H      37.35400000      32.20500000       2.35600000
 O      34.36200000      31.36600000       8.08700000
 H      33.73800000      30.86300000       7.49500000
 H      34.85900000      31.87300000       7.43600000
 O      47.70800000      27.47100000      35.31000000
 H      47.20500000      27.11500000      36.10000000
 H      47.53700000      28.44100000      35.53300000
 O      46.04000000      28.44400000       5.21900000
 H      45.58200000      28.18000000       4.42100000
 H      45.55100000      29.29700000       5.32300000
 O      45.49700000      38.21400000      18.79800000
 H      46.22900000      38.15100000      18.07100000
 H      44.79800000      37.82700000      18.18100000
 O      47.31800000      38.24600000      16.96000000
 H      47.45600000      38.04900000      16.01800000
 H      48.21700000      38.30100000      17.25000000
 O      44.34200000      30.59100000       2.57000000
 H      45.10500000      31.18000000       2.81600000
 H      43.70700000      31.20500000       2.19300000
 O      45.12600000      35.47100000      11.84000000
 H      44.43500000      35.87400000      11.27000000
 H      44.68000000      35.46800000      12.70700000
 O      47.40200000      36.96500000      20.26700000
 H      46.62400000      37.53000000      19.93200000
 H      47.46200000      36.36600000      19.50300000
 O      48.20400000      28.81200000       1.74400000
 H      48.13800000      29.79700000       1.60300000
 H      48.18600000      28.54500000       0.79600000
 O      44.85500000      29.61400000      20.30600000
 H      44.11300000      29.64300000      19.67700000
 H      45.59500000      29.30100000      19.72900000
 O      42.85000000      32.84800000      17.45200000
 H      42.10200000      33.48200000      17.64300000
 H      43.57500000      33.35500000      17.86600000
 O      45.60000000      31.17700000      30.84800000
 H      46.02600000      30.30700000      31.02900000
 H      44.84100000      30.89700000      30.37700000
 O      47.33200000      37.35000000      14.27600000
 H      47.68300000      38.25600000      14.24300000
 H      47.74700000      36.91600000      13.53300000
 O      47.45400000      34.90200000      17.87200000
 H      48.36400000      35.26200000      17.81400000
 H      47.43600000      34.49800000      18.80100000
 O      47.18000000      39.13500000       3.73700000
 H      47.02700000      40.03100000       3.46600000
 H      48.00700000      39.21500000       4.26100000
 O      47.51800000      29.77100000      27.42100000
 H      46.73100000      30.25800000      27.57100000
 H      47.33900000      29.15900000      26.73700000
 O      47.73600000      37.03700000      25.48000000
 H      48.12700000      36.39100000      26.08500000
 H      47.69700000      36.52500000      24.66900000
 O      48.67600000      32.39900000      10.54000000
 H      48.45500000      32.05400000       9.64300000
 H      48.63100000      33.39400000      10.33300000
 O      44.10500000      31.87900000      37.86800000
 H      43.79000000      32.60700000      37.23200000
 H      43.90000000      31.09500000      37.27100000
 O      46.92000000      37.48000000      37.90700000
 H      46.64600000      38.17800000      38.56500000
 H      46.19000000      37.53900000      37.29700000
 O      42.66300000      38.20000000       6.60500000
 H      43.10600000      39.04900000       6.36100000
 H      41.74500000      38.48000000       6.29100000
 O      46.16200000      38.84100000      11.80800000
 H      46.79400000      38.07500000      11.92600000
 H      45.71200000      38.85500000      12.67700000
 O      47.72200000      31.41200000      17.86500000
 H      48.20600000      30.72000000      17.38900000
 H      46.95200000      30.84900000      18.22200000
 O      45.77900000      29.11900000       8.82600000
 H      46.02300000      28.75100000       7.96400000
 H      45.22400000      29.89900000       8.54300000
 O      44.64000000      30.84400000      24.82500000
 H      44.95600000      30.03700000      24.36500000
 H      45.39200000      31.09100000      25.37200000
 O      48.15800000      31.08100000      34.25900000
 H      47.32800000      30.81800000      33.78800000
 H      48.80300000      30.46100000      33.90200000
 O      44.94200000      35.28400000      16.38700000
 H      44.71700000      35.57500000      17.30400000
 H      45.89900000      35.16300000      16.50900000
 O      46.34800000      28.68700000      31.66200000
 H      47.02200000      28.01900000      31.32500000
 H      45.61300000      28.12100000      31.93400000
 O      48.10400000      29.68100000      23.40600000
 H      48.96200000      29.27600000      23.67800000
 H      48.22300000      29.76200000      22.41900000
 O      48.63900000      38.57500000      34.83900000
 H      47.77200000      38.22200000      34.51800000
 H      48.98300000      37.71600000      35.19100000
 O      43.13300000      36.52000000      10.21600000
 H      43.64000000      36.49400000       9.38800000
 H      42.86200000      37.41500000      10.29800000
 O      46.24200000      37.50600000      34.02500000
 H      45.98300000      37.01800000      34.83300000
 H      46.59900000      36.79000000      33.50000000
 O      48.46900000      40.09600000       9.85800000
 H      49.26500000      40.51800000      10.22900000
 H      47.93000000      39.91100000      10.66200000
 O      45.20300000      32.55400000      20.12900000
 H      44.77200000      31.67100000      20.11500000
 H      44.50800000      33.08100000      20.45200000
 O      48.79700000      30.31400000      29.76900000
 H      47.87700000      30.34900000      30.14100000
 H      48.55200000      30.22500000      28.80400000
 O      44.31100000      36.67700000       7.95000000
 H      43.63600000      37.29600000       7.59100000
 H      45.01500000      36.89600000       7.24700000
 O      45.78800000      29.15100000      11.78200000
 H      44.95800000      28.69400000      11.94200000
 H      45.85900000      28.98700000      10.80100000
 O      47.38800000      27.71800000      16.26500000
 H      47.41300000      28.31800000      15.48500000
 H      47.79500000      26.94200000      15.85700000
 O      46.31000000      33.18600000      36.99100000
 H      45.59800000      32.80800000      37.60800000
 H      46.77800000      33.79600000      37.57500000
 O      43.75400000      27.96400000      17.91200000
 H      43.26800000      27.78100000      17.03700000
 H      44.36100000      28.68800000      17.51000000
 O      42.81700000      26.79500000       5.16400000
 H      42.53100000      27.66400000       4.77500000
 H      42.22700000      26.80800000       5.97600000
 O      43.42500000      33.42200000       6.07400000
 H      43.58700000      33.48200000       7.03900000
 H      43.25600000      34.33100000       5.84700000
 O      44.99800000      39.55900000       9.29100000
 H      44.07200000      39.42400000       9.59000000
 H      45.49400000      39.13600000      10.02400000
 O      44.69300000      38.28700000      14.68600000
 H      45.57700000      38.18600000      15.04600000
 H      44.46400000      37.41600000      14.34700000
 O      43.12100000      34.27100000      29.83100000
 H      43.70400000      34.29200000      29.06600000
 H      43.73400000      34.64000000      30.51600000
 O      44.41500000      30.89900000      16.67600000
 H      43.76700000      31.55900000      16.92900000
 H      44.80500000      31.23900000      15.81200000
 O      45.78900000      34.17300000       8.30300000
 H      45.57500000      35.10800000       8.09800000
 H      46.57400000      34.30800000       8.86200000
 O      45.36400000      28.09900000       2.33000000
 H      45.17500000      29.03500000       2.40600000
 H      46.21200000      28.05500000       1.95400000
 O      44.03400000      33.39200000       1.35100000
 H      44.76000000      33.97600000       1.00100000
 H      43.34400000      34.09100000       1.55600000
 O      47.46600000      28.89000000      13.84300000
 H      47.81400000      28.08500000      13.44000000
 H      46.88200000      29.17100000      13.11900000
 O      42.66200000      31.85400000      28.70900000
 H      42.88600000      32.74100000      29.08600000
 H      42.15200000      32.08600000      27.90800000
 O      46.43600000      39.45700000      24.71300000
 H      46.69500000      38.53900000      24.77000000
 H      46.71900000      39.70600000      23.83100000
 O      48.83900000      35.35800000       5.94700000
 H      48.56100000      35.58100000       5.01800000
 H      48.54300000      36.09100000       6.47100000
 O      46.34700000      32.27300000       3.16200000
 H      46.18900000      33.21900000       3.03800000
 H      46.49100000      32.25000000       4.16100000
 O      43.46800000      35.35300000      32.88500000
 H      43.63700000      34.41900000      33.19000000
 H      42.51000000      35.31200000      32.77700000
 O      47.68400000      34.97600000      38.46200000
 H      47.59100000      35.92600000      38.27400000
 H      48.62600000      34.82100000      38.60100000
 O      48.52000000      28.27200000      39.05700000
 H      48.81500000      29.19300000      38.97100000
 H      47.89400000      28.28700000      38.27800000
 O      46.12400000      31.58600000      39.76700000
 H      45.72900000      32.12500000      40.49400000
 H      45.34700000      31.31100000      39.27900000
 O      47.97700000      33.26300000      19.93000000
 H      47.05800000      33.02300000      20.11700000
 H      48.11900000      32.85300000      19.07100000
 O      45.41500000      33.35200000      23.86000000
 H      45.23900000      32.44100000      24.15500000
 H      46.38800000      33.44500000      24.04400000
 O      49.53800000      40.26300000      27.64900000
 H      48.69100000      40.23000000      28.07100000
 H      49.39400000      39.79300000      26.79800000
 O      44.25000000      37.23500000       2.82000000
 H      45.01600000      36.84900000       3.27200000
 H      43.69400000      36.38700000       2.73300000
 O      47.35600000      33.12300000      15.28000000
 H      47.52400000      34.06100000      15.31000000
 H      47.30500000      32.93700000      16.26600000
 O      47.26200000      37.49100000       1.56800000
 H      48.16600000      37.79900000       1.39900000
 H      46.99000000      38.17400000       2.20900000
 O      49.01900000      28.93400000       4.61100000
 H      48.11900000      29.13500000       5.07800000
 H      48.61300000      28.59400000       3.80500000
 O      44.24500000      34.51100000      27.44200000
 H      44.03000000      35.47600000      27.61800000
 H      43.67800000      34.37700000      26.65200000
 O      48.61500000      33.20200000      35.70400000
 H      47.79800000      33.03200000      36.22000000
 H      48.63500000      32.49100000      35.08800000
 O      47.31600000      29.86300000      36.78400000
 H      47.42300000      30.52300000      37.54400000
 H      47.21800000      30.47800000      36.05300000
 O      43.58400000      27.76900000      31.50800000
 H      43.37100000      26.87200000      31.22600000
 H      43.54900000      28.22700000      30.65900000
 O      48.16700000      35.67800000      23.20100000
 H      48.78300000      34.99200000      23.00400000
 H      48.07000000      36.19700000      22.38400000
 O      45.86100000      31.96200000      10.98100000
 H      46.83500000      32.09100000      11.00700000
 H      45.75800000      31.08000000      11.36100000
 O      45.85200000      33.57300000      34.13100000
 H      45.57200000      32.67200000      34.15100000
 H      46.53900000      33.56900000      34.85900000
 O      42.83300000      32.74900000      11.95600000
 H      43.43800000      32.47600000      11.31200000
 H      42.23900000      32.00100000      12.04800000
 O      43.21600000      39.02200000      16.91100000
 H      42.35600000      38.74300000      16.50800000
 H      43.82000000      38.84100000      16.17500000
 O      48.88500000      33.41500000      29.74400000
 H      48.95100000      32.37400000      29.88000000
 H      48.15000000      33.52200000      30.40800000
 O      45.62500000      38.35700000      27.67100000
 H      46.26200000      37.98400000      27.01700000
 H      46.23800000      38.93600000      28.19300000
 O      43.66000000      33.64200000      35.90000000
 H      43.29200000      34.54000000      35.98600000
 H      44.50500000      33.89500000      35.51700000
 O      46.32500000      33.79100000      31.32900000
 H      45.88800000      32.95300000      31.21400000
 H      46.48300000      33.81600000      32.30700000
 O      44.70100000      32.43400000      14.39400000
 H      44.12000000      32.46100000      13.62100000
 H      45.45300000      33.06200000      14.11100000
 O      48.72300000      29.16400000      20.51600000
 H      48.09000000      28.96200000      19.85500000
 H      49.49600000      29.48300000      19.96700000
 O      48.34500000      39.11200000      31.37300000
 H      49.13100000      38.68900000      30.99700000
 H      47.80400000      38.32200000      31.57400000
 O      46.50900000      36.04800000       3.76700000
 H      47.29300000      35.42000000       3.65900000
 H      46.67600000      36.57600000       2.91600000
 O      44.15100000      40.36400000      26.08100000
 H      44.88300000      40.02600000      25.46900000
 H      44.44700000      39.95000000      26.93400000
 O      45.86800000      35.14200000      40.57400000
 H      46.54400000      34.84000000      39.90200000
 H      46.34000000      35.90300000      40.96600000
 O      44.15200000      27.76700000      26.81800000
 H      44.10300000      26.92400000      26.38100000
 H      45.03500000      28.07500000      26.55700000
 O      48.56900000      31.14300000      39.11000000
 H      47.55700000      31.38100000      39.09600000
 H      48.76700000      31.42300000      40.01400000
 O      43.53500000      40.58700000      14.19400000
 H      43.98400000      39.75700000      14.15800000
 H      43.99900000      41.14200000      14.78500000
 O      48.96100000      31.18800000      14.56200000
 H      48.36700000      32.01100000      14.62900000
 H      48.26500000      30.59000000      14.16300000
 O      46.74800000      28.32500000      18.69100000
 H      46.91300000      28.02000000      17.76100000
 H      46.70400000      27.49400000      19.16800000
 O      48.63000000      34.79600000       9.34200000
 H      49.65000000      34.93100000       9.31100000
 H      48.44400000      35.51000000       8.68400000
 O      43.58700000      35.87200000      14.23900000
 H      42.79100000      35.33800000      14.45700000
 H      44.21800000      35.51000000      14.88600000
 O      44.53600000      37.03300000      30.90400000
 H      44.18000000      36.39500000      31.55700000
 H      45.50300000      36.91200000      30.99800000
 O      42.68100000      38.31100000      35.26800000
 H      42.63500000      38.97900000      35.99800000
 H      43.45700000      38.73700000      34.77900000
 O      46.05800000      37.37000000       6.05200000
 H      46.00700000      36.82400000       5.18600000
 H      46.33800000      38.22200000       5.61700000
 O      46.49900000      27.96800000      25.73400000
 H      46.60100000      28.48200000      24.86300000
 H      46.80500000      27.07400000      25.37600000
 O      45.44000000      39.66400000      38.85000000
 H      44.64200000      39.89400000      39.40300000
 H      45.10500000      40.16500000      38.01200000
 O      48.13500000      37.26000000       8.06700000
 H      48.39400000      38.13400000       8.40800000
 H      47.28000000      37.43600000       7.61800000
 O      44.08100000      32.44500000       8.93200000
 H      44.65000000      33.28300000       8.69600000
 H      44.73100000      32.12500000       9.61000000
 O      43.55600000      29.63100000      36.24000000
 H      42.72300000      29.39300000      35.80700000
 H      43.73900000      28.76600000      36.73200000
 O      47.10300000      36.29600000      31.18600000
 H      47.97400000      36.15300000      30.75700000
 H      46.78600000      35.37600000      31.18300000
 O      43.46700000      36.86500000      28.02300000
 H      43.60300000      37.02700000      29.03800000
 H      44.22500000      37.43100000      27.69300000
 O      42.86800000      30.76700000      40.17100000
 H      42.82700000      31.72200000      40.27400000
 H      43.38100000      30.71800000      39.33500000
 O      45.93400000      32.15800000      27.46200000
 H      46.48900000      32.33100000      26.75700000
 H      45.31800000      32.93500000      27.46400000
 O      47.40600000      31.91800000      25.03300000
 H      47.54900000      31.12400000      24.52300000
 H      48.30400000      32.22700000      25.09600000
 O      44.68500000      39.61700000      31.39100000
 H      43.82800000      39.98200000      31.03900000
 H      44.70000000      38.70500000      30.98900000
 O      43.51900000      39.83600000       2.97200000
 H      43.81200000      38.86100000       2.96400000
 H      43.66100000      40.07100000       3.90000000
 O      43.69100000      40.51300000       5.67000000
 H      43.30600000      41.23200000       6.22200000
 H      44.62700000      40.61800000       5.99200000
 O      43.98100000      35.24000000      18.95600000
 H      43.16700000      35.72300000      19.31300000
 H      44.54400000      35.25200000      19.76000000
 O      47.28600000      40.02600000      29.00200000
 H      47.36000000      39.97600000      30.02400000
 H      47.16100000      41.03000000      28.94600000
 O      45.01000000      35.29500000      21.70600000
 H      45.23400000      34.54000000      22.27900000
 H      44.67500000      35.90700000      22.33800000
 O      45.38900000      30.96800000      34.37300000
 H      44.91100000      30.57600000      35.12800000
 H      44.86200000      30.57800000      33.64100000
 O      43.97600000      35.92700000      38.51900000
 H      43.07200000      36.18700000      38.85300000
 H      44.33800000      35.45000000      39.27600000
 O      44.58800000      30.64200000       5.70400000
 H      43.61100000      30.70600000       5.90600000
 H      44.77000000      31.61300000       5.52000000
 O      43.47400000      29.12800000      29.15500000
 H      43.54500000      28.48900000      28.42900000
 H      43.07900000      29.89100000      28.65500000
 O      48.53800000      31.57700000       1.99500000
 H      47.69600000      31.99200000       2.34000000
 H      49.18900000      32.04600000       2.43900000
 O      43.05100000      29.94200000      33.03400000
 H      43.46000000      29.16500000      32.62300000
 H      42.27500000      29.47800000      33.50400000
 O      47.96000000      39.75200000      22.38700000
 H      48.24600000      40.36300000      21.62600000
 H      47.74100000      38.94900000      21.91700000
 O      42.88900000      34.18700000      24.19200000
 H      42.79200000      35.10700000      23.79300000
 H      43.85100000      34.11000000      24.01000000
 O      49.09800000      34.86900000      26.66200000
 H      49.47700000      34.12800000      26.16700000
 H      48.54300000      34.37500000      27.32600000
 O      47.80400000      36.11000000      11.84300000
 H      46.92100000      35.62700000      11.95700000
 H      48.07000000      35.78100000      10.97000000
 O      44.67100000      36.57800000      36.09200000
 H      44.56300000      36.32200000      37.01900000
 H      43.93400000      37.11300000      35.92400000
 O      43.21500000      36.72900000      23.25600000
 H      43.37700000      37.51500000      22.68500000
 H      42.71200000      37.10900000      24.00300000
 O      45.37400000      28.92700000      23.01200000
 H      45.11000000      29.42700000      22.18300000
 H      46.35500000      29.07600000      22.97900000
 O      46.78500000      32.52300000       5.85000000
 H      47.38000000      32.18300000       6.57800000
 H      46.33400000      33.21300000       6.20300000
 O      43.88900000      38.43700000      21.52300000
 H      44.44500000      38.36500000      20.66500000
 H      43.89200000      39.42000000      21.54900000
 O      44.79400000      39.73200000      34.18500000
 H      44.91700000      39.79300000      33.21300000
 H      45.35800000      38.82900000      34.26100000
