1572
XYZ file of cluster: frame_8000_9a345.24f68.20b10 - created by MolEdiTo
 O      37.79900000      30.09000000      28.82100000
 H      36.95300000      29.98600000      29.28100000
 H      38.32200000      30.57500000      29.53400000
 O      40.46900000      30.59100000      23.70200000
 H      41.33100000      30.73400000      24.19400000
 H      39.90000000      30.34600000      24.48600000
 O      39.94800000      31.39600000      15.19600000
 H      40.82800000      31.09400000      14.80400000
 H      40.26300000      32.18900000      15.70600000
 O      33.62400000      19.68000000      11.77600000
 H      33.51600000      18.72100000      11.79900000
 H      33.90900000      19.88700000      12.70200000
 O      33.01000000       8.06800000      35.03400000
 H      32.38900000       8.57200000      34.53100000
 H      32.38300000       7.45400000      35.50700000
 O      39.51000000      26.95900000       7.36900000
 H      38.74700000      27.33900000       6.94500000
 H      39.73600000      27.58900000       8.05000000
 O      38.04700000      23.70300000      20.79800000
 H      37.17200000      23.98500000      20.43800000
 H      38.23500000      24.42800000      21.40000000
 O      38.77900000      39.72200000      16.24900000
 H      39.05200000      40.66100000      16.30200000
 H      38.51700000      39.67200000      15.31800000
 O      33.29500000      40.55100000      30.22200000
 H      33.75000000      39.69400000      30.35400000
 H      34.02800000      41.15800000      30.52500000
 O      36.13400000      20.45900000      19.38400000
 H      36.38300000      20.71500000      20.29100000
 H      35.42900000      21.09500000      19.21400000
 O      37.91700000      22.68700000      35.95100000
 H      37.94000000      22.53100000      34.99700000
 H      37.50700000      21.82300000      36.26000000
 O      36.09700000      37.42500000      18.22400000
 H      35.32900000      36.81900000      18.34700000
 H      35.79400000      38.16000000      18.78500000
 O      40.09700000      37.78800000      25.25800000
 H      40.56400000      37.65900000      26.07500000
 H      39.14200000      37.51900000      25.54000000
 O      27.99900000       7.23900000      21.57600000
 H      27.33900000       7.49300000      20.85500000
 H      28.31600000       8.10300000      21.87900000
 O      35.77100000      10.73000000      18.91800000
 H      35.82000000      11.63300000      18.53800000
 H      36.66700000      10.44800000      18.68700000
 O      31.86700000      16.70700000       9.38900000
 H      31.19700000      16.28800000       9.89800000
 H      31.62000000      17.66200000       9.40500000
 O      35.76000000      23.98700000      25.15700000
 H      36.40700000      24.37800000      25.77600000
 H      34.93400000      24.34100000      25.53100000
 O      28.18700000      18.55100000      10.76400000
 H      28.86200000      17.84100000      10.87100000
 H      27.39500000      18.08900000      11.08900000
 O      30.12500000      10.96000000      15.02800000
 H      30.27100000      11.57800000      15.77800000
 H      30.10300000      10.13300000      15.51900000
 O      36.37200000      39.83800000      36.61800000
 H      37.00300000      39.15700000      36.86700000
 H      36.52500000      40.56100000      37.33000000
 O      33.34800000       6.69300000      39.83700000
 H      33.08600000       7.61100000      40.04400000
 H      33.91900000       6.80700000      39.04000000
 O      30.43900000      18.89500000      14.42700000
 H      29.53800000      19.12300000      14.62900000
 H      30.58200000      19.24300000      13.51400000
 O      28.60200000      15.24400000      17.20000000
 H      29.03500000      15.86800000      17.81600000
 H      28.14800000      15.96500000      16.61200000
 O      28.56800000      22.51300000      37.68700000
 H      28.26900000      21.69400000      38.05000000
 H      29.20400000      22.23200000      37.01500000
 O      27.77300000      12.07400000      26.99700000
 H      28.06600000      11.16400000      26.86600000
 H      27.36200000      11.95400000      27.94300000
 O      31.42700000      31.35000000       7.58800000
 H      31.90600000      31.07900000       6.80000000
 H      30.56600000      30.93100000       7.65600000
 O      31.91700000      38.36500000      35.68300000
 H      32.44900000      38.52400000      36.48100000
 H      32.57900000      38.24800000      34.98200000
 O      34.36500000      16.28300000      28.06500000
 H      34.16400000      17.22500000      27.87600000
 H      33.47600000      15.92700000      28.33700000
 O      34.26400000      23.25200000      34.36200000
 H      35.21900000      23.31900000      34.17600000
 H      33.90400000      24.03000000      33.86100000
 O      37.74000000      34.41000000      34.35500000
 H      37.68000000      34.30700000      33.36600000
 H      37.96700000      35.34000000      34.41600000
 O      36.17300000      39.89100000      19.92600000
 H      35.49900000      40.50000000      19.60000000
 H      35.94400000      39.90000000      20.88500000
 O      32.60500000       7.07600000      26.72500000
 H      32.83600000       6.27100000      26.33500000
 H      32.93000000       7.78100000      26.04000000
 O      38.75100000      17.66100000      27.30000000
 H      39.70200000      17.92800000      27.11900000
 H      38.86600000      16.73300000      27.38600000
 O      38.53400000      33.60300000       6.79300000
 H      38.33100000      33.28400000       7.66500000
 H      38.13100000      34.45500000       6.80600000
 O      29.19800000      26.80000000      21.70800000
 H      28.59500000      27.30300000      21.11200000
 H      30.02400000      27.31800000      21.63200000
 O      28.20700000      34.15000000      28.53700000
 H      27.93000000      33.52000000      27.81800000
 H      27.38700000      34.18000000      29.07700000
 O      32.93300000      29.42300000      32.30800000
 H      32.35200000      28.94600000      31.63900000
 H      32.49400000      30.29800000      32.22000000
 O      30.26300000       8.44300000      29.85800000
 H      29.90500000       7.79400000      29.24200000
 H      31.20300000       8.50400000      29.59200000
 O      39.53700000      26.14100000      35.83900000
 H      39.74200000      25.47500000      35.13700000
 H      38.81500000      25.64400000      36.29800000
 O      37.37000000      11.16200000       7.83900000
 H      37.71200000      10.50500000       8.50700000
 H      37.70400000      12.02400000       8.17300000
 O      30.22200000      39.39200000      18.92100000
 H      30.68400000      39.80300000      19.64900000
 H      29.89600000      40.16100000      18.37600000
 O      32.84000000      21.05500000      34.96800000
 H      33.53700000      21.70900000      34.74000000
 H      32.76700000      20.53400000      34.14300000
 O      28.33700000      29.72200000      17.18700000
 H      28.79700000      30.50500000      16.79100000
 H      29.04500000      29.42100000      17.78400000
 O      40.14000000      14.87700000      20.19800000
 H      40.39300000      15.42100000      20.99300000
 H      41.10300000      14.83500000      19.79700000
 O      32.26800000      32.64700000      17.09100000
 H      31.71100000      32.33100000      17.85800000
 H      33.13500000      32.48600000      17.38100000
 O      30.31000000      35.16100000      13.53400000
 H      29.68700000      34.39300000      13.37100000
 H      30.94500000      34.68600000      14.12400000
 O      30.88600000      22.35700000      13.10900000
 H      29.96100000      22.67000000      13.06400000
 H      30.75200000      21.43400000      12.74700000
 O      37.35000000      35.89300000      30.36000000
 H      38.21600000      35.59000000      30.69700000
 H      36.83900000      35.10400000      30.61700000
 O      37.03300000      14.97400000       7.26200000
 H      36.68200000      14.37700000       6.54400000
 H      36.83300000      15.82700000       6.78700000
 O      38.74300000      35.63200000      10.29000000
 H      39.72600000      35.76900000      10.35400000
 H      38.42500000      36.34700000      10.90000000
 O      38.85700000      11.78000000      25.58000000
 H      38.75400000      12.65800000      25.26500000
 H      38.42600000      11.77600000      26.43900000
 O      31.94700000      25.01000000      24.50100000
 H      32.33200000      25.84200000      24.11500000
 H      32.36300000      25.06800000      25.39700000
 O      39.30900000      25.55800000      11.50200000
 H      38.35400000      25.34900000      11.44700000
 H      39.48500000      25.45200000      10.52100000
 O      36.49800000      16.16600000      11.09100000
 H      36.67200000      16.92700000      10.47200000
 H      35.68800000      16.53800000      11.56300000
 O      34.39000000      17.91300000      35.35700000
 H      33.69500000      17.22300000      35.40300000
 H      34.87600000      17.71400000      34.60100000
 O      40.58800000      32.50100000      33.14100000
 H      40.67000000      31.56600000      32.86000000
 H      40.93900000      32.40700000      34.08500000
 O      27.80600000      13.75000000      35.29300000
 H      26.93200000      13.28700000      35.44700000
 H      28.41700000      12.97700000      35.54300000
 O      27.53000000      24.44000000      26.12200000
 H      28.07500000      24.32300000      25.28200000
 H      27.95000000      23.74300000      26.66200000
 O      36.14800000       9.38100000      39.25200000
 H      35.58900000       9.37700000      40.10600000
 H      36.97200000       9.07200000      39.74200000
 O      29.44600000      12.88600000       8.40400000
 H      30.26200000      13.27200000       7.87500000
 H      30.03200000      12.59100000       9.12400000
 O      38.45800000      12.52800000      35.58400000
 H      38.70500000      11.87300000      36.23900000
 H      38.62700000      12.17000000      34.70700000
 O      28.74400000      22.37400000      27.42000000
 H      28.85000000      21.43200000      27.36500000
 H      28.19700000      22.45000000      28.19100000
 O      35.03100000      18.23100000      23.33300000
 H      35.84000000      18.10300000      23.79100000
 H      34.61100000      18.98000000      23.77000000
 O      35.89600000       8.14400000      15.96300000
 H      35.63300000       7.47900000      16.57700000
 H      35.42600000       7.79500000      15.15300000
 O      39.46900000       8.72700000      34.96800000
 H      39.20800000       7.95500000      35.54300000
 H      38.70700000       8.79000000      34.42100000
 O      40.21600000       8.28800000      26.15800000
 H      39.42200000       8.73500000      25.74700000
 H      39.86100000       7.35000000      26.01100000
 O      30.87800000      19.58300000      38.86900000
 H      30.36000000      18.97200000      38.29300000
 H      31.78500000      19.44500000      38.53100000
 O      37.68200000      17.00600000      17.19400000
 H      38.33500000      17.37500000      17.80900000
 H      36.80300000      17.26000000      17.57400000
 O      33.40100000      34.82700000      11.70600000
 H      32.50100000      34.52100000      11.91200000
 H      33.41800000      35.76600000      11.96100000
 O      29.69600000      24.15500000      16.07000000
 H      29.44800000      24.61700000      16.91100000
 H      30.68300000      24.09800000      16.16100000
 O      35.15500000      40.61200000      22.84300000
 H      35.87900000      40.06400000      23.21700000
 H      34.49900000      40.65900000      23.50800000
 O      36.97300000      17.90500000       9.13300000
 H      36.18700000      18.43100000       9.18100000
 H      37.42200000      18.34300000       8.34300000
 O      33.07400000      29.60100000      35.23200000
 H      33.15100000      29.24600000      34.35400000
 H      33.82600000      30.25700000      35.23300000
 O      29.76800000      29.74700000      14.39100000
 H      30.67100000      29.46400000      14.78500000
 H      29.67600000      30.61100000      14.80500000
 O      31.62800000      15.75700000      28.20200000
 H      31.03300000      15.00600000      28.08900000
 H      31.50200000      16.27100000      27.37900000
 O      33.12800000      19.79100000      32.60200000
 H      33.15600000      18.84300000      32.87300000
 H      32.17600000      19.87200000      32.36900000
 O      36.68000000      21.55700000      24.78700000
 H      36.28000000      22.47700000      24.90100000
 H      36.01200000      21.13300000      25.44600000
 O      39.01400000      34.64300000      27.53100000
 H      38.58400000      34.76300000      28.38200000
 H      39.14800000      35.59000000      27.28900000
 O      33.97500000      38.37000000      24.66600000
 H      34.93000000      38.12700000      24.36000000
 H      34.10300000      38.19100000      25.63000000
 O      38.89500000      34.35900000      18.17200000
 H      38.60400000      35.13800000      17.65200000
 H      38.27900000      33.66700000      17.81400000
 O      39.18500000      31.36500000      18.62500000
 H      40.12400000      31.63900000      18.44400000
 H      39.45900000      30.68900000      19.31700000
 O      38.90100000      16.38900000      39.45200000
 H      38.92500000      15.85100000      38.64800000
 H      38.04000000      16.25300000      39.79900000
 O      36.78000000       8.18800000      29.31200000
 H      37.00600000       8.95600000      29.89200000
 H      36.67100000       7.52900000      30.02800000
 O      33.40100000      34.78100000      27.16800000
 H      32.84800000      34.34600000      27.80800000
 H      34.21200000      34.32400000      27.15900000
 O      31.97500000      13.63400000       7.49700000
 H      32.83400000      14.07400000       7.51500000
 H      32.05000000      13.14100000       8.38200000
 O      31.06600000      35.82300000      35.47800000
 H      31.34900000      36.69400000      35.87500000
 H      30.38200000      36.21400000      34.84000000
 O      34.34200000       7.39100000      13.63600000
 H      33.93100000       6.45500000      13.53500000
 H      34.16000000       7.73600000      12.75100000
 O      38.47300000      19.24500000      13.02000000
 H      37.70300000      19.70000000      13.05900000
 H      38.11300000      18.33000000      13.04900000
 O      34.75600000      13.13800000      17.59200000
 H      34.31500000      12.72200000      16.75500000
 H      33.92300000      13.46100000      18.03400000
 O      28.86800000      19.93200000       8.41000000
 H      28.90600000      20.84300000       8.73600000
 H      28.42300000      19.50100000       9.14200000
 O      28.27900000      40.61900000      10.12500000
 H      28.64500000      40.98200000       9.25300000
 H      27.58600000      41.25900000      10.29500000
 O      29.24000000      37.01000000      38.58600000
 H      30.01800000      36.41800000      38.55100000
 H      29.59600000      37.84900000      38.99200000
 O      31.27900000       9.10800000      32.79000000
 H      30.83600000       8.55800000      32.12000000
 H      31.79400000       9.72500000      32.22400000
 O      29.71800000      13.91300000      28.37500000
 H      29.72300000      13.22600000      29.07500000
 H      29.17300000      13.50700000      27.70900000
 O      37.24600000      38.97000000       9.26800000
 H      37.37900000      39.46800000      10.10700000
 H      36.70500000      38.21000000       9.67300000
 O      28.02100000      35.96300000      19.63000000
 H      28.18600000      35.04200000      19.90800000
 H      28.83700000      36.41400000      19.93100000
 O      34.50200000      31.98800000      29.75400000
 H      34.42200000      31.35700000      29.01800000
 H      33.69600000      31.81500000      30.27500000
 O      29.10800000      35.95600000      23.65400000
 H      29.03500000      36.48800000      24.41100000
 H      28.77300000      36.49300000      22.91200000
 O      32.62900000      24.71800000      16.44600000
 H      33.07500000      24.74600000      17.29600000
 H      33.24400000      25.17900000      15.80200000
 O      40.14000000      23.93200000      34.66800000
 H      41.04300000      24.13900000      34.34300000
 H      40.12000000      22.99500000      34.77500000
 O      30.32300000       8.65700000      22.41400000
 H      30.50300000       9.20600000      21.66700000
 H      31.20100000       8.32000000      22.70200000
 O      35.92900000      39.80000000      33.76500000
 H      35.81100000      39.89900000      34.77100000
 H      36.90700000      39.69800000      33.78700000
 O      39.27300000      10.86300000      39.59700000
 H      40.05600000      11.47700000      39.65600000
 H      39.27500000      10.57300000      38.66100000
 O      30.94900000      36.06100000      18.48600000
 H      31.02300000      36.46400000      19.38800000
 H      30.34400000      36.74800000      18.09200000
 O      32.66500000      40.56800000      11.88200000
 H      33.15500000      40.45600000      12.74900000
 H      32.08000000      41.29800000      12.22700000
 O      27.66000000      12.64000000      11.03900000
 H      27.80700000      12.92200000      11.92900000
 H      28.21400000      11.84200000      10.97800000
 O      27.46800000       9.80000000      35.70000000
 H      28.18800000      10.13300000      36.30800000
 H      26.68700000       9.93100000      36.25400000
 O      36.47700000      26.43400000      39.51500000
 H      36.86300000      27.35500000      39.55800000
 H      36.15000000      26.49000000      38.55800000
 O      30.61700000      15.94800000      15.15300000
 H      30.58300000      16.89900000      14.98500000
 H      31.22700000      15.93200000      15.93200000
 O      37.89200000      26.59200000      30.55700000
 H      38.06600000      26.22000000      29.68000000
 H      38.56300000      26.14800000      31.12200000
 O      30.96000000      33.65900000      28.84800000
 H      31.14500000      32.80000000      28.34500000
 H      29.99000000      33.55500000      28.92400000
 O      33.96200000       9.84700000      21.19100000
 H      34.66600000      10.09200000      20.59200000
 H      33.71400000      10.76000000      21.52400000
 O      31.53500000      20.18900000      24.89500000
 H      30.79200000      20.81800000      25.12600000
 H      31.00000000      19.56200000      24.30200000
 O      32.51000000      16.40600000      17.21800000
 H      32.15700000      17.30600000      17.01100000
 H      33.48100000      16.64300000      17.30000000
 O      33.54800000      14.93800000      35.95900000
 H      34.49000000      14.86400000      36.01700000
 H      33.32500000      14.24200000      35.28700000
 O      37.16100000      31.17200000      32.61700000
 H      38.00600000      31.31300000      32.18500000
 H      36.90900000      30.32600000      32.23700000
 O      32.08200000      34.04700000      40.17900000
 H      31.20300000      34.39600000      40.61800000
 H      31.64800000      33.58300000      39.41300000
 O      39.54400000      18.37000000      18.59300000
 H      40.44400000      17.99700000      18.65200000
 H      39.58100000      18.80000000      19.51500000
 O      39.85200000      15.16200000      27.75800000
 H      40.18500000      14.42200000      28.35300000
 H      40.43300000      14.91900000      26.97900000
 O      37.60500000      24.58100000      33.80600000
 H      37.31800000      25.52500000      34.12800000
 H      38.39600000      24.51100000      34.35800000
 O      34.27700000      37.94400000      29.89100000
 H      34.55400000      37.16300000      30.29700000
 H      33.31600000      37.96900000      30.00700000
 O      39.21700000       6.76200000      28.73600000
 H      38.42900000       7.23600000      28.85200000
 H      39.76900000       7.46900000      28.34300000
 O      36.88000000      21.31500000      22.05200000
 H      36.28300000      22.11900000      22.09000000
 H      36.98400000      21.23000000      23.10300000
 O      29.20700000      36.95300000       7.04500000
 H      29.37300000      37.67100000       6.45700000
 H      29.01800000      37.44800000       7.88500000
 O      38.10300000      20.60700000      17.69100000
 H      38.66900000      19.86900000      17.94600000
 H      37.51700000      20.62700000      18.44800000
 O      34.32400000      13.18600000      13.17600000
 H      33.63700000      13.82800000      12.96600000
 H      33.91000000      12.82200000      14.01400000
 O      29.21000000      24.56900000      39.45300000
 H      29.08300000      23.88100000      38.78900000
 H      30.17300000      24.72600000      39.37700000
 O      39.07500000      13.98300000      24.20800000
 H      39.64700000      14.75200000      23.99700000
 H      39.77900000      13.25100000      24.22600000
 O      36.42100000      27.50800000      18.70600000
 H      36.52500000      26.90300000      17.96800000
 H      36.85400000      28.31200000      18.33600000
 O      33.53600000      15.87700000       7.42100000
 H      34.07900000      16.67500000       7.16900000
 H      33.17000000      16.17300000       8.25300000
 O      28.33100000      29.55400000      26.86600000
 H      28.25900000      28.70400000      26.41400000
 H      28.68500000      29.26600000      27.74700000
 O      39.16000000      16.18800000       8.89600000
 H      38.53200000      16.75700000       9.44500000
 H      38.51100000      15.72700000       8.35500000
 O      36.34700000      27.95500000      27.41700000
 H      35.81000000      27.63000000      28.20100000
 H      36.87300000      28.67100000      27.85600000
 O      38.30100000      22.94300000      13.35600000
 H      38.62300000      23.16600000      12.50500000
 H      37.37100000      22.69000000      13.19900000
 O      36.31300000      10.93400000      15.81800000
 H      36.24000000       9.97100000      15.96600000
 H      37.35900000      10.97400000      15.70700000
 O      30.34800000      36.85400000      21.17200000
 H      29.89200000      37.53700000      21.74100000
 H      30.76400000      36.31600000      21.84500000
 O      31.24000000      24.59100000      35.75900000
 H      30.98300000      25.56100000      35.86000000
 H      31.70400000      24.47800000      36.58000000
 O      34.28800000      18.34000000       6.51200000
 H      34.30500000      18.79000000       7.34000000
 H      35.00100000      18.77200000       5.99400000
 O      37.17400000       7.57000000       7.67100000
 H      36.99800000       7.02300000       8.50600000
 H      36.84200000       6.93100000       7.02100000
 O      29.94500000      26.10800000      29.40200000
 H      30.05000000      25.69300000      28.51800000
 H      29.53000000      25.33700000      29.87900000
 O      33.81400000      32.01100000      12.79200000
 H      33.78100000      32.90400000      13.13600000
 H      32.91600000      31.70100000      12.96200000
 O      38.40900000      39.62300000       6.95100000
 H      37.85400000      39.54300000       7.77900000
 H      37.72400000      39.97800000       6.37600000
 O      34.36200000      31.36600000       8.08700000
 H      33.73800000      30.86300000       7.49500000
 H      34.85900000      31.87300000       7.43600000
 O      28.71100000      36.36900000      34.04100000
 H      28.31200000      36.92500000      33.36600000
 H      27.87500000      36.05800000      34.49300000
 O      29.81900000      26.57000000      26.50900000
 H      30.11500000      25.65800000      26.43900000
 H      29.12700000      26.63100000      25.83800000
 O      37.55400000       6.36900000      12.32500000
 H      38.43100000       6.74100000      12.25600000
 H      37.03200000       7.11600000      12.73700000
 O      32.17400000      29.44500000      15.20900000
 H      32.66900000      30.05700000      14.62200000
 H      32.86000000      29.35200000      15.90100000
 O      30.06100000      27.13800000      35.64400000
 H      29.17400000      26.94200000      35.95700000
 H      29.85800000      27.83800000      34.96700000
 O      36.74100000      18.15600000      25.60300000
 H      36.23700000      17.27800000      25.62000000
 H      37.51000000      17.95500000      26.13200000
 O      38.89300000      12.12100000      10.27400000
 H      38.89300000      11.14900000      10.25800000
 H      37.91500000      12.29000000      10.41400000
 O      32.47800000      26.02600000      10.10400000
 H      32.53800000      26.63100000      10.79000000
 H      31.81600000      26.44900000       9.50000000
 O      33.58900000      32.58100000      37.48800000
 H      33.97600000      33.29500000      38.02500000
 H      33.12700000      33.10300000      36.80400000
 O      28.39700000      23.95200000      31.16300000
 H      27.56400000      23.61300000      31.50500000
 H      28.87000000      24.34300000      31.88200000
 O      28.71600000      11.28300000      19.84500000
 H      27.75300000      11.20800000      20.07900000
 H      28.54900000      11.70400000      18.91200000
 O      30.15100000      15.83900000       7.03200000
 H      30.76600000      15.04400000       6.87700000
 H      30.58300000      16.20900000       7.81000000
 O      30.39000000      26.92000000       8.35600000
 H      30.52200000      27.84300000       8.05600000
 H      29.65000000      27.06100000       9.00800000
 O      27.85300000      27.10600000      24.58200000
 H      27.89700000      28.07600000      24.34800000
 H      26.99300000      26.85900000      24.30400000
 O      29.55500000      15.82400000      11.15300000
 H      29.05100000      15.72700000      12.00700000
 H      29.36600000      14.93000000      10.81900000
 O      35.56700000      36.15700000      36.75600000
 H      35.82400000      35.39200000      37.25400000
 H      34.70700000      35.83700000      36.34400000
 O      40.50100000      33.54300000      20.50100000
 H      39.86200000      33.76800000      19.78100000
 H      40.96800000      34.34200000      20.67000000
 O      39.94000000      30.04100000      21.02700000
 H      39.62200000      29.15700000      21.13400000
 H      40.24000000      30.33100000      21.84200000
 O      40.24300000      38.87200000      40.52600000
 H      40.59000000      39.74500000      40.39200000
 H      40.95800000      38.48100000      41.08800000
 O      32.90900000      27.20500000      39.00500000
 H      33.28800000      27.70100000      39.79500000
 H      32.32800000      27.94200000      38.56800000
 O      32.80400000       8.23900000      22.80400000
 H      33.41900000       7.50900000      22.47900000
 H      33.13100000       8.98100000      22.25800000
 O      31.74000000      27.97600000      21.15700000
 H      31.91700000      28.78500000      20.68000000
 H      32.50500000      27.43900000      20.90900000
 O      37.72600000       9.01800000      25.51100000
 H      37.13900000       9.75200000      25.32500000
 H      37.00400000       8.42800000      25.89200000
 O      32.20000000      19.10500000      16.21100000
 H      31.41100000      19.09800000      15.57100000
 H      32.91700000      19.31000000      15.53600000
 O      40.10700000      18.45000000      23.76700000
 H      40.05000000      17.56700000      23.39800000
 H      39.95200000      18.97500000      22.95100000
 O      27.90700000      20.56900000      17.72000000
 H      27.53900000      21.36000000      17.34500000
 H      27.11200000      20.04600000      17.96400000
 O      40.26400000      20.89000000      11.43600000
 H      39.67000000      20.33500000      11.96500000
 H      39.62100000      21.41300000      10.90000000
 O      36.31900000      28.81600000      30.89700000
 H      36.61100000      27.89300000      30.83400000
 H      35.39900000      28.72000000      30.67000000
 O      30.23600000      22.10200000      35.43800000
 H      30.62300000      22.95000000      35.60100000
 H      31.02500000      21.54900000      35.35800000
 O      40.82400000      23.96700000      18.89600000
 H      41.50000000      24.40200000      18.32100000
 H      40.58800000      24.68100000      19.51000000
 O      28.00000000      27.33600000      15.77000000
 H      28.86800000      27.08400000      16.10000000
 H      27.98700000      28.27700000      16.10100000
 O      39.12200000      29.63600000      26.19300000
 H      38.84700000      29.47300000      27.12500000
 H      39.29500000      30.57400000      26.16600000
 O      40.79300000       8.15700000      32.43200000
 H      40.30100000       8.60900000      33.19900000
 H      41.62300000       7.97500000      33.03600000
 O      40.82700000      26.48100000      20.01100000
 H      41.53200000      26.52700000      20.65900000
 H      41.18200000      27.16100000      19.39200000
 O      33.91500000      12.58300000      28.52300000
 H      33.01600000      12.19500000      28.25500000
 H      33.67000000      13.07800000      29.30900000
 O      28.22100000      18.82700000      35.14100000
 H      28.75600000      18.81000000      35.96900000
 H      27.82700000      17.96600000      35.25700000
 O      33.61600000      35.80000000      15.29100000
 H      33.44000000      35.78200000      16.27400000
 H      32.99800000      36.48400000      15.03200000
 O      33.29500000      19.48800000      37.31700000
 H      33.61800000      18.84500000      36.60100000
 H      33.28600000      20.26400000      36.71400000
 O      28.03000000      19.91700000      14.02900000
 H      27.05300000      19.97800000      13.96100000
 H      28.23200000      20.88600000      14.09500000
 O      33.60500000      28.80400000      17.22600000
 H      33.95900000      29.73900000      17.37500000
 H      34.36200000      28.24100000      17.41200000
 O      27.57400000      32.32300000      26.55700000
 H      28.05900000      31.52600000      26.69700000
 H      27.95900000      32.74900000      25.80100000
 O      32.81700000      20.08400000      18.59400000
 H      33.29100000      20.92000000      18.55000000
 H      32.61100000      19.85500000      17.70100000
 O      31.89900000      11.13700000      40.46500000
 H      31.62400000      10.79400000      41.36100000
 H      31.82700000      12.08700000      40.63500000
 O      37.05100000      29.63900000      40.61900000
 H      37.66700000      30.02000000      41.30100000
 H      37.52400000      29.96900000      39.83500000
 O      28.44600000      33.61600000      36.40300000
 H      27.92000000      34.26700000      35.78200000
 H      27.83600000      33.70300000      37.13400000
 O      35.97900000      13.19100000      26.52100000
 H      36.73200000      12.91600000      27.06100000
 H      35.23500000      12.89900000      27.02700000
 O      40.58600000      12.66200000      29.16300000
 H      41.10300000      12.26800000      29.93400000
 H      40.55100000      11.76900000      28.64200000
 O      28.00600000      29.74800000      23.77800000
 H      28.61900000      30.39000000      23.44000000
 H      27.22200000      30.30900000      23.98600000
 O      37.51700000       8.22200000      33.14800000
 H      36.85500000       8.33200000      33.86000000
 H      37.03300000       7.55000000      32.63600000
 O      36.24900000      33.49000000      31.72300000
 H      36.73200000      32.71700000      32.10500000
 H      35.73600000      33.04100000      31.01000000
 O      38.97100000      10.44200000      15.26100000
 H      39.57500000       9.74700000      15.42900000
 H      39.33400000      10.87900000      14.46000000
 O      30.64600000       8.38600000      17.11200000
 H      30.45800000       7.58300000      17.65100000
 H      31.16800000       8.92400000      17.77100000
 O      27.72500000      12.46900000      14.18800000
 H      28.48500000      11.91900000      14.44000000
 H      27.10200000      12.09800000      14.84200000
 O      36.09500000       8.46600000      35.35300000
 H      35.17600000       8.34700000      35.05300000
 H      36.08800000       9.38600000      35.61700000
 O      30.30500000      17.22500000      40.74500000
 H      30.78600000      17.76500000      41.45800000
 H      31.01100000      17.31100000      40.01800000
 O      30.94500000      17.75200000      26.25500000
 H      30.02200000      18.14400000      26.43700000
 H      31.47900000      18.53800000      26.10800000
 O      37.59600000      25.43700000      27.15000000
 H      38.46200000      25.94600000      27.15400000
 H      37.06400000      26.26400000      27.20300000
 O      30.81800000      14.87300000      33.07300000
 H      31.33500000      15.14000000      32.24000000
 H      31.48300000      14.23000000      33.47200000
 O      30.41400000      19.79900000      31.95700000
 H      30.36500000      20.72600000      31.54700000
 H      29.40900000      19.61300000      31.94400000
 O      33.77500000      12.27000000       9.60100000
 H      34.54900000      12.82600000       9.38900000
 H      34.11200000      11.36600000       9.25500000
 O      34.92600000      38.03600000       7.31000000
 H      35.54300000      38.65500000       6.89700000
 H      35.12600000      38.21000000       8.25400000
 O      32.57700000      12.05300000      22.00500000
 H      32.63800000      12.97500000      21.74900000
 H      32.03500000      12.08900000      22.85500000
 O      35.57600000      15.67300000      25.50500000
 H      35.79200000      14.72700000      25.65700000
 H      35.16800000      15.82500000      26.42700000
 O      39.49100000      34.22000000      13.79300000
 H      38.91300000      34.76900000      13.19900000
 H      40.10500000      33.88800000      13.07900000
 O      38.42200000      27.64500000      21.13500000
 H      39.02300000      26.91800000      20.95400000
 H      37.76600000      27.16300000      21.75900000
 O      39.87300000       7.73500000      13.12200000
 H      39.86400000       8.72000000      13.17600000
 H      40.79600000       7.59000000      13.33900000
 O      28.76100000      34.30000000       6.92400000
 H      29.04700000      34.00800000       7.82000000
 H      28.97900000      35.27100000       7.00400000
 O      27.77800000      30.68400000      35.45500000
 H      28.23300000      30.03600000      34.88900000
 H      28.11400000      31.50500000      35.11100000
 O      27.79700000       8.36200000       7.86700000
 H      27.92000000       7.38900000       7.64400000
 H      26.99700000       8.60600000       7.40000000
 O      28.95600000      32.56300000      30.91600000
 H      28.52300000      33.25800000      31.52100000
 H      28.45100000      32.74700000      30.07100000
 O      27.58300000      24.61200000      22.20600000
 H      28.12700000      25.44400000      21.94700000
 H      28.24600000      24.21600000      22.81700000
 O      40.60100000      21.00600000       6.94100000
 H      40.94900000      20.17000000       6.65700000
 H      41.25700000      21.44400000       7.38900000
 O      33.63400000      11.95000000      15.48800000
 H      33.15400000      11.12500000      15.27400000
 H      34.56200000      11.51300000      15.54800000
 O      29.05600000      30.66500000      10.78800000
 H      29.16900000      30.45800000       9.80700000
 H      28.10000000      30.74700000      10.77400000
 O      30.92500000      15.26300000      24.77700000
 H      31.79400000      15.44000000      24.37900000
 H      30.66500000      16.08400000      25.18700000
 O      32.86900000       9.67600000      14.33400000
 H      33.53100000       9.02900000      14.42200000
 H      32.07900000       9.25100000      14.73800000
 O      40.18800000      28.53800000       9.41200000
 H      40.11300000      29.47400000       9.02400000
 H      40.21000000      28.76100000      10.34600000
 O      38.33700000      13.07200000      19.93100000
 H      38.88600000      13.88400000      20.13800000
 H      38.22300000      13.20600000      18.93500000
 O      28.03900000      37.43900000      25.97400000
 H      28.01000000      38.39900000      26.18100000
 H      28.50000000      37.16700000      26.83300000
 O      40.24300000       9.96800000      23.68900000
 H      40.86100000      10.65300000      23.37300000
 H      39.84200000      10.46400000      24.44900000
 O      31.72100000      24.83500000      38.62000000
 H      32.04500000      25.72300000      38.94100000
 H      32.51600000      24.61000000      38.08200000
 O      38.86300000       9.85300000      31.57000000
 H      39.63100000       9.22700000      31.40300000
 H      38.29600000       9.24800000      32.04100000
 O      30.23100000      21.76900000      22.38600000
 H      29.74700000      21.11600000      22.95100000
 H      30.00200000      21.40500000      21.48700000
 O      29.54700000      34.83200000       9.93000000
 H      29.24900000      34.31900000      10.70600000
 H      28.78700000      35.33000000       9.71400000
 O      32.64700000      24.23200000       7.42200000
 H      33.25200000      24.82700000       6.88600000
 H      32.52400000      24.89000000       8.20400000
 O      31.61300000      28.79700000      26.55300000
 H      31.49900000      28.98600000      25.58900000
 H      31.19600000      27.89700000      26.63200000
 O      40.01800000      22.52600000      38.16300000
 H      39.53500000      23.14400000      37.53400000
 H      40.90100000      22.65900000      37.88200000
 O      27.61800000      17.29800000      15.80000000
 H      26.64700000      17.32400000      15.76000000
 H      27.83400000      18.02000000      15.14500000
 O      38.54200000      39.91800000      32.90800000
 H      39.12900000      40.40600000      33.54400000
 H      39.06900000      39.97100000      32.09500000
 O      35.57600000      11.39500000      24.49300000
 H      35.66000000      12.05900000      25.21300000
 H      35.88700000      11.94000000      23.76600000
 O      29.69500000      40.43900000      34.78800000
 H      30.02400000      39.54200000      34.71900000
 H      30.37500000      40.93500000      34.27100000
 O      38.04000000       9.33300000      18.28800000
 H      38.82900000       9.16000000      17.74400000
 H      37.61000000       8.43500000      18.33300000
 O      40.61000000      17.64800000      13.64200000
 H      39.94500000      18.39200000      13.71700000
 H      39.97700000      16.97900000      13.32000000
 O      37.05200000      21.06500000      15.20100000
 H      37.93500000      21.05000000      14.74000000
 H      37.34300000      20.68500000      16.09000000
 O      35.68500000      30.98700000      34.89700000
 H      35.97900000      31.13200000      33.96200000
 H      35.87600000      31.91900000      35.19400000
 O      32.70500000      35.20900000      30.33700000
 H      32.08400000      35.92100000      30.11600000
 H      32.16700000      34.46000000      29.94800000
 O      35.90300000      22.55400000      38.92000000
 H      36.77900000      22.76300000      39.27100000
 H      36.05700000      21.63100000      38.66500000
 O      36.66900000      26.99200000      13.80800000
 H      36.51900000      26.37700000      13.02600000
 H      36.99000000      27.79200000      13.28200000
 O      28.77500000      10.18400000      24.03200000
 H      28.78100000      10.96600000      23.47100000
 H      29.27900000       9.56300000      23.47700000
 O      30.71900000      31.38400000      27.39500000
 H      30.82500000      31.25100000      26.45700000
 H      30.20400000      30.58700000      27.64900000
 O      37.29400000       9.21600000      22.47600000
 H      36.80300000      10.02300000      22.66200000
 H      38.01000000       9.61500000      21.91700000
 O      36.67600000      29.48800000      11.56600000
 H      36.19400000      29.49900000      12.47100000
 H      35.91800000      29.55200000      10.93100000
 O      40.65700000       7.47200000      40.13200000
 H      40.92600000       6.65400000      40.60300000
 H      41.19200000       8.17200000      40.48100000
 O      38.10000000      12.69000000      28.16400000
 H      39.02100000      12.61800000      28.49800000
 H      37.65300000      12.70000000      29.01800000
 O      36.25900000      25.07600000       8.90800000
 H      35.81900000      25.96900000       8.76600000
 H      36.81500000      25.18200000       8.11000000
 O      31.20700000      23.27900000      10.03100000
 H      30.69900000      23.31600000      10.86900000
 H      31.58400000      24.14400000      10.02100000
 O      31.15700000      10.08100000      20.01100000
 H      30.30800000      10.53000000      19.91700000
 H      31.74700000      10.78900000      20.36500000
 O      32.20400000       7.15600000      10.73700000
 H      31.61700000       7.74900000      11.29800000
 H      33.08600000       7.66900000      10.89800000
 O      39.19100000      30.61900000      11.97400000
 H      38.34500000      30.32500000      11.67900000
 H      39.61900000      29.80500000      12.35200000
 O      32.26300000      33.49100000      14.50000000
 H      33.02900000      34.12700000      14.69700000
 H      32.15100000      33.18100000      15.42500000
 O      35.13200000      37.38900000      39.73300000
 H      35.92400000      37.81900000      40.20100000
 H      35.13300000      37.97200000      38.94000000
 O      39.97400000      10.76900000      36.75700000
 H      40.77400000      11.28900000      36.53000000
 H      40.02200000      10.02000000      36.13400000
 O      36.24500000      22.84000000      27.88800000
 H      36.94500000      23.27600000      27.38100000
 H      36.48000000      21.90000000      27.89800000
 O      38.41100000      36.88300000      12.95600000
 H      37.63100000      37.30900000      12.49800000
 H      38.02200000      37.00600000      13.88600000
 O      40.48600000       7.54800000      10.22600000
 H      41.10400000       6.85400000       9.95800000
 H      40.03700000       7.10400000      10.98400000
 O      31.38100000      11.88500000      12.77300000
 H      32.03300000      11.19300000      13.08000000
 H      30.74100000      11.68700000      13.50700000
 O      36.64100000      26.19300000      16.49100000
 H      36.74700000      25.20900000      16.42300000
 H      36.57000000      26.37700000      15.52400000
 O      36.03800000      33.12400000      11.02400000
 H      35.15500000      33.51000000      11.13200000
 H      36.11800000      32.43000000      11.69200000
 O      40.62900000      10.86600000      12.96700000
 H      41.17500000      10.58900000      12.26300000
 H      40.58900000      11.86400000      12.84500000
 O      31.07600000      31.42800000      32.12400000
 H      30.43500000      31.96700000      31.60500000
 H      30.89100000      31.90300000      32.97400000
 O      36.54100000      13.87800000      32.97400000
 H      36.49400000      14.11600000      32.03900000
 H      37.32100000      13.27600000      32.95900000
 O      30.13300000      18.61300000      23.27600000
 H      29.19500000      18.49400000      23.10400000
 H      30.54100000      18.30700000      22.46700000
 O      34.13500000      30.29500000      10.60200000
 H      34.10700000      30.75600000       9.73100000
 H      34.09200000      31.06200000      11.18300000
 O      32.05300000      14.66400000      21.48300000
 H      32.46000000      15.03700000      22.26000000
 H      31.09600000      14.94700000      21.58100000
 O      31.32300000      37.22400000      29.93200000
 H      31.00600000      37.87300000      30.63800000
 H      30.40900000      36.91500000      29.64300000
 O      29.84000000      21.14400000      19.48300000
 H      29.13600000      21.00800000      18.74500000
 H      30.62900000      20.83300000      18.91900000
 O      36.67100000      31.75800000      21.46200000
 H      37.51900000      32.21600000      21.69600000
 H      36.83600000      30.92200000      21.93000000
 O      38.76300000      21.36400000      40.37300000
 H      38.62200000      20.66400000      39.67100000
 H      39.30800000      21.95200000      39.72700000
 O      39.44600000      20.63700000      25.46200000
 H      38.48000000      20.64100000      25.48200000
 H      39.68200000      19.96300000      24.76600000
 O      33.27600000      22.92300000      27.87800000
 H      34.27400000      23.05800000      27.81300000
 H      33.33900000      22.43200000      28.73200000
 O      27.66100000      22.32700000      20.85500000
 H      27.84700000      23.22200000      21.30500000
 H      28.45500000      22.32200000      20.29100000
 O      30.64700000      22.24100000      30.63900000
 H      31.32200000      22.90800000      30.63000000
 H      29.88500000      22.81900000      30.85700000
 O      33.36200000       6.97700000      32.13400000
 H      33.28000000       7.67800000      32.86600000
 H      32.72200000       6.35800000      32.47500000
 O      35.74200000       7.26900000      26.23900000
 H      35.04100000       7.67400000      26.71000000
 H      35.91000000       6.44600000      26.80300000
 O      38.50900000      16.26500000      12.72500000
 H      38.14300000      15.70500000      13.44000000
 H      37.83600000      16.05300000      12.00500000
 O      31.34000000      37.29800000      15.11500000
 H      30.68800000      36.73700000      14.62300000
 H      30.84300000      37.37800000      15.96300000
 O      32.81700000      21.72000000       8.78800000
 H      32.14400000      22.14700000       9.36800000
 H      32.94000000      22.46700000       8.13400000
 O      39.85300000      28.02900000      12.76000000
 H      39.67400000      27.17700000      12.31900000
 H      40.10500000      27.72800000      13.63300000
 O      35.05300000      19.64800000      14.21100000
 H      35.47800000      18.76500000      14.42100000
 H      35.55400000      20.23200000      14.78200000
 O      27.07100000      35.26000000      38.80100000
 H      27.84500000      35.84000000      38.84100000
 H      26.36700000      35.89000000      38.45600000
 O      36.40000000      14.61900000      35.98700000
 H      36.82500000      14.35400000      35.16600000
 H      36.79100000      13.92100000      36.55700000
 O      32.55500000      11.12400000      37.84400000
 H      31.70400000      10.82200000      37.49700000
 H      32.48700000      10.91800000      38.80300000
 O      37.28800000      33.70900000      15.30600000
 H      36.95000000      34.59300000      15.15600000
 H      38.16000000      33.66800000      14.85100000
 O      34.61100000      37.36700000      27.13600000
 H      34.83500000      37.64500000      28.01900000
 H      34.12000000      36.56300000      27.25800000
 O      36.60400000      36.20300000      15.71100000
 H      36.38300000      36.79000000      16.46300000
 H      35.66000000      35.97800000      15.44900000
 O      34.58500000      34.57100000      39.39300000
 H      34.52000000      35.54100000      39.48600000
 H      33.78000000      34.35100000      39.94700000
 O      33.29800000      34.42800000      35.59700000
 H      32.69700000      35.21100000      35.51900000
 H      33.60800000      34.37700000      34.67500000
 O      36.63800000      26.91300000      34.93500000
 H      35.87200000      26.86600000      35.53300000
 H      37.00700000      27.76900000      35.27400000
 O      35.47900000      24.54100000      19.92000000
 H      35.24800000      25.45200000      19.85900000
 H      35.08900000      24.23700000      20.69400000
 O      37.01200000       7.00500000      19.22200000
 H      37.88600000       7.03800000      19.70800000
 H      36.42500000       6.94900000      20.01900000
 O      37.36000000      38.39900000      29.22000000
 H      36.47600000      38.75000000      29.44000000
 H      37.26700000      37.54000000      29.72600000
 O      38.54800000      36.95800000      34.11300000
 H      38.18300000      37.71200000      33.65500000
 H      39.42400000      37.32500000      34.37800000
 O      29.17500000      38.64700000      22.75300000
 H      28.36300000      39.14300000      23.00200000
 H      29.64700000      38.69300000      23.62500000
 O      31.07100000      29.21800000      23.89600000
 H      31.74200000      28.78600000      23.30500000
 H      30.21500000      28.84300000      23.69500000
 O      28.06700000      17.23200000      28.89800000
 H      28.50300000      16.38300000      28.93800000
 H      27.92200000      17.39700000      29.80300000
 O      36.49900000      23.57000000      31.25600000
 H      36.93000000      22.83800000      30.90000000
 H      36.90900000      23.70200000      32.13500000
 O      39.68800000      24.17300000      15.41000000
 H      39.08300000      23.78200000      14.69900000
 H      39.28600000      23.73400000      16.21600000
 O      34.00200000      35.57400000      32.59400000
 H      33.45400000      35.31200000      31.83200000
 H      34.59400000      34.82000000      32.55500000
 O      37.50800000      40.31200000      11.64700000
 H      38.23300000      40.50300000      12.35400000
 H      36.93100000      41.06700000      11.95900000
 O      40.15200000      31.08100000       8.53400000
 H      39.53700000      31.68800000       8.97600000
 H      40.98200000      31.60900000       8.57400000
 O      36.53000000      25.29600000      11.63800000
 H      36.34300000      25.58800000      10.73500000
 H      36.11200000      24.42400000      11.66300000
 O      27.79100000      32.68800000      21.31500000
 H      28.22300000      32.67300000      22.23600000
 H      27.04000000      33.28400000      21.43000000
 O      37.16400000      12.58500000      22.70900000
 H      37.49200000      12.71300000      21.80200000
 H      37.92000000      13.06400000      23.19500000
 O      29.65100000      15.59000000      21.84700000
 H      28.91400000      14.89200000      21.66600000
 H      29.11600000      16.21300000      22.31900000
 O      39.90900000      13.84700000      16.09800000
 H      39.02500000      13.67700000      16.54300000
 H      39.64100000      13.61400000      15.18400000
 O      35.69000000      22.43900000      12.08200000
 H      35.02900000      22.50600000      12.78800000
 H      35.38700000      21.73700000      11.53300000
 O      36.77500000      14.69200000      30.35100000
 H      36.60700000      14.34000000      29.44600000
 H      36.28200000      15.54200000      30.27700000
 O      35.24700000       7.26300000      37.80100000
 H      35.69300000       8.02100000      38.30000000
 H      35.16100000       7.67200000      36.93100000
 O      30.78000000      38.81700000      11.37900000
 H      31.27200000      39.56500000      11.76200000
 H      30.14300000      39.31500000      10.80800000
 O      40.01000000      25.07200000      31.89000000
 H      39.78200000      24.70100000      32.72300000
 H      40.86600000      24.60300000      31.67500000
 O      29.57200000       9.59600000      39.56000000
 H      29.26000000      10.05700000      40.35900000
 H      30.43800000       9.23500000      39.94900000
 O      35.49400000      35.44500000       6.45000000
 H      35.87700000      35.27700000       7.34300000
 H      35.27300000      36.42000000       6.64700000
 O      30.26200000      11.35900000      29.06700000
 H      30.35200000      11.19900000      28.09200000
 H      30.04300000      10.41200000      29.36000000
 O      32.82000000       8.34800000      29.10400000
 H      33.67000000       7.93500000      29.34500000
 H      32.67800000       7.95900000      28.20400000
 O      40.19600000      10.41100000      28.09900000
 H      39.94900000       9.86600000      27.33000000
 H      40.65800000       9.73600000      28.63900000
 O      40.35000000      26.77500000      15.76500000
 H      40.46400000      25.83500000      15.89100000
 H      39.33500000      26.81500000      15.93100000
 O      36.77700000       9.02500000      12.79700000
 H      37.08300000       9.79700000      12.22500000
 H      36.79600000       9.34400000      13.66300000
 O      29.78600000      31.86000000      15.89200000
 H      30.71900000      31.93100000      16.02200000
 H      29.46400000      32.58300000      16.54200000
 O      29.38200000      37.73300000      16.94800000
 H      29.19200000      38.44000000      17.65600000
 H      28.66900000      38.04400000      16.30500000
 O      35.07900000      16.95900000      31.32100000
 H      35.59000000      17.52300000      30.76900000
 H      35.67700000      16.96700000      32.10900000
 O      28.43700000       9.90800000      10.38000000
 H      28.78200000       9.70100000       9.47000000
 H      27.57300000       9.50400000      10.31100000
 O      36.89800000      19.97100000      28.22300000
 H      36.26800000      19.27000000      28.41200000
 H      37.39100000      19.55800000      27.46400000
 O      36.47800000      20.42500000      36.03400000
 H      36.06000000      19.55200000      36.20600000
 H      36.48600000      20.33600000      35.04200000
 O      36.54900000      16.78800000      33.63700000
 H      36.72300000      15.80500000      33.59600000
 H      37.42800000      17.00900000      34.08300000
 O      36.85700000      29.18300000      22.72200000
 H      37.54700000      28.82200000      22.24100000
 H      36.95000000      28.75200000      23.58000000
 O      33.26500000      23.06000000      13.76500000
 H      32.91900000      23.97800000      13.99500000
 H      32.48500000      22.64800000      13.46900000
 O      28.43500000      15.13300000      40.17300000
 H      28.52100000      14.50700000      40.93900000
 H      29.09900000      15.82900000      40.48000000
 O      30.45400000      32.63800000      34.53500000
 H      31.36000000      32.55000000      34.83200000
 H      30.04100000      33.21200000      35.21400000
 O      32.52500000      35.95700000      23.84600000
 H      33.08300000      36.79100000      24.00700000
 H      31.81100000      36.12300000      24.49300000
 O      38.19500000      19.85500000       7.55000000
 H      39.01000000      20.20800000       7.28500000
 H      37.81200000      20.76500000       7.80500000
 O      34.85100000      29.14700000      25.20500000
 H      35.15700000      29.90800000      25.70500000
 H      35.44000000      28.46100000      25.61300000
 O      28.48700000       9.23800000      26.59400000
 H      28.82900000       9.48700000      25.73900000
 H      28.96400000       8.45200000      26.80100000
 O      33.92500000      18.88700000      27.74600000
 H      34.06300000      19.63900000      27.17800000
 H      33.11800000      19.08600000      28.24800000
 O      32.09600000      14.19300000      18.54700000
 H      32.30900000      14.99000000      18.04700000
 H      32.22700000      14.47400000      19.46000000
 O      37.57500000      13.73800000      17.36400000
 H      36.59900000      13.62500000      17.57200000
 H      37.49100000      14.72400000      17.17300000
 O      39.65700000      28.41000000      34.58100000
 H      39.60300000      27.51900000      35.04300000
 H      38.85500000      28.78500000      35.00800000
 O      38.39500000      33.14400000       9.49200000
 H      38.54300000      34.06900000       9.78000000
 H      37.58200000      32.99100000      10.09200000
 O      34.90700000       9.94500000       8.52000000
 H      34.69500000       9.22500000       7.90000000
 H      35.66700000      10.33000000       7.96600000
 O      32.20500000      15.66100000      31.04300000
 H      32.13100000      15.72100000      30.03300000
 H      33.10900000      16.00000000      31.15300000
 O      29.21700000      33.06800000      12.09300000
 H      28.22700000      33.12700000      12.07200000
 H      29.21300000      32.11800000      11.66400000
 O      27.83100000      34.21900000      32.43900000
 H      28.55500000      34.79500000      32.80400000
 H      27.05300000      34.49900000      32.91000000
 O      32.74600000      30.29100000      20.12300000
 H      33.13500000      30.41700000      21.00500000
 H      33.51000000      30.32600000      19.53400000
 O      33.16900000       9.11200000      18.28500000
 H      33.97500000       9.66400000      18.32200000
 H      32.89500000       9.38500000      19.23200000
 O      27.23700000      32.22400000      14.67000000
 H      28.06400000      32.07100000      15.17700000
 H      26.72000000      32.77400000      15.34300000
 O      28.75200000      20.94300000      24.72700000
 H      27.79400000      21.22200000      24.66500000
 H      28.67300000      20.26200000      25.40200000
 O      32.93600000      16.77800000      39.68900000
 H      32.92400000      17.31300000      38.89200000
 H      33.90500000      16.70000000      39.91700000
 O      35.65800000      27.68900000       7.79300000
 H      35.17800000      28.47100000       8.09500000
 H      36.24000000      28.12500000       7.10600000
 O      39.32300000      34.36400000      31.45500000
 H      40.16500000      34.23800000      30.90300000
 H      39.34700000      33.48900000      31.89600000
 O      33.47800000       9.48400000      25.26700000
 H      33.02700000       9.23200000      24.42200000
 H      34.01300000      10.21300000      24.99700000
 O      31.19100000      17.53600000      34.14400000
 H      30.46400000      18.08100000      33.75100000
 H      30.91100000      16.63900000      33.79100000
 O      40.77300000      19.10800000      29.66200000
 H      40.42000000      19.32300000      28.79400000
 H      41.74500000      19.12100000      29.42400000
 O      39.79300000      17.40900000      31.55900000
 H      40.35700000      17.97000000      30.95300000
 H      39.95100000      16.54900000      31.13100000
 O      36.40300000      19.48800000      39.79200000
 H      36.33700000      18.78100000      39.12700000
 H      35.99800000      19.15900000      40.58500000
 O      40.50300000      15.00400000      30.75600000
 H      40.27500000      14.30100000      30.10300000
 H      40.89900000      14.44300000      31.43900000
 O      28.95600000      20.72700000      40.68400000
 H      29.30000000      20.53800000      39.78800000
 H      29.66900000      21.18200000      41.07900000
 O      32.22400000      33.99900000       8.37500000
 H      31.55700000      34.30700000       9.03700000
 H      31.79100000      33.10400000       8.24400000
 O      39.14100000      19.91700000      21.25400000
 H      38.19000000      20.00700000      21.44500000
 H      39.35900000      20.83300000      20.97800000
 O      40.40000000      36.77400000      19.95600000
 H      40.00800000      37.11800000      19.10800000
 H      40.86200000      37.58200000      20.21600000
 O      33.88000000      23.88200000      37.24100000
 H      33.80000000      23.35200000      36.39100000
 H      34.51500000      23.28700000      37.73300000
 O      29.28000000      39.85000000      26.23300000
 H      29.73400000      40.65500000      26.47400000
 H      29.97500000      39.31500000      25.79000000
 O      39.10000000      24.83800000       8.85100000
 H      38.51600000      24.51600000       8.13800000
 H      39.25100000      25.74300000       8.52800000
 O      38.46000000      38.13900000      37.74600000
 H      39.20700000      37.68300000      38.16100000
 H      37.83500000      37.35500000      37.50100000
 O      36.08600000      17.16600000      14.99200000
 H      36.78400000      17.25100000      15.68800000
 H      36.06500000      16.15200000      14.97500000
 O      28.87200000      24.28600000      11.59800000
 H      28.12200000      24.74100000      12.03600000
 H      28.79900000      24.77200000      10.70600000
 O      32.01400000      14.67000000      13.20900000
 H      31.62400000      13.78600000      13.00400000
 H      31.39500000      14.92800000      13.92000000
 O      33.94100000      27.57500000      29.30500000
 H      33.11800000      27.81600000      29.82200000
 H      33.85500000      26.60100000      29.37900000
 O      34.36400000      19.58200000       9.17600000
 H      34.05500000      20.52800000       8.93100000
 H      34.02700000      19.48600000      10.12500000
 O      34.58900000      23.34400000      22.60900000
 H      33.63200000      23.20800000      22.68200000
 H      34.90100000      23.46200000      23.52500000
 O      28.57600000      28.37700000      29.46800000
 H      29.03100000      27.48200000      29.45100000
 H      27.63300000      28.00400000      29.36800000
 O      37.14800000      30.92600000      14.87200000
 H      37.13800000      31.86800000      15.16000000
 H      38.13200000      30.87600000      14.68100000
 O      33.79500000      25.63900000      33.06700000
 H      34.57500000      25.99700000      32.55000000
 H      33.85700000      26.29800000      33.80200000
 O      32.61200000      28.21000000      11.98100000
 H      32.86900000      28.82100000      11.22800000
 H      33.45400000      28.26500000      12.49800000
 O      36.41600000      14.45400000      14.75800000
 H      36.77700000      13.74800000      15.30300000
 H      35.79800000      13.93800000      14.15200000
 O      38.79900000       9.27900000       9.20600000
 H      38.30500000       8.72800000       8.58900000
 H      39.45000000       8.62800000       9.54600000
 O      33.35300000      27.11200000      23.80900000
 H      33.78000000      27.10500000      22.90400000
 H      33.86400000      27.86500000      24.16300000
 O      36.75300000      22.05300000       8.10100000
 H      35.99400000      22.00300000       7.49100000
 H      36.66400000      23.03700000       8.37200000
 O      27.40300000      39.68300000      37.83500000
 H      27.84200000      38.80100000      37.64000000
 H      28.16100000      40.08300000      38.34500000
 O      27.10000000      40.63700000      15.78300000
 H      26.99700000      39.68900000      15.87400000
 H      28.03900000      40.72100000      15.88600000
 O      37.58600000      12.96300000      40.02200000
 H      37.95600000      12.11100000      39.77200000
 H      38.20300000      13.26000000      40.68100000
 O      28.91600000      36.65600000      28.34800000
 H      28.25200000      37.10400000      28.80600000
 H      28.70100000      35.68000000      28.58400000
 O      28.14600000      14.60200000      32.77800000
 H      27.79000000      14.11400000      33.51800000
 H      29.11500000      14.63100000      32.95100000
 O      28.56600000      19.30900000      27.06700000
 H      28.54900000      18.50100000      27.57100000
 H      27.99800000      19.83500000      27.72200000
 O      28.89200000      22.38800000       9.00600000
 H      28.70400000      23.09600000       8.36200000
 H      29.66000000      22.74900000       9.39800000
 O      36.33300000      11.72900000      11.56200000
 H      36.10000000      12.44500000      10.94100000
 H      35.64100000      11.87200000      12.23500000
 O      31.69300000      28.09800000      30.35000000
 H      30.82000000      28.54500000      30.18900000
 H      31.31900000      27.15600000      30.30700000
 O      40.18700000      40.61900000      24.28200000
 H      40.07300000      39.71400000      24.68100000
 H      41.12800000      40.76200000      24.60400000
 O      37.19900000      25.89000000      22.86100000
 H      37.10700000      24.99200000      23.07700000
 H      37.24800000      26.27900000      23.83200000
 O      36.34900000      34.07200000      26.40900000
 H      37.22200000      34.33200000      26.71100000
 H      36.51500000      34.11800000      25.43100000
 O      39.78800000      26.76500000      27.58400000
 H      40.23400000      26.10700000      28.14900000
 H      40.50400000      27.23800000      27.10400000
 O      28.79200000      30.03600000       8.29000000
 H      28.43900000      30.28800000       7.36700000
 H      28.10000000      29.28500000       8.40000000
 O      35.03600000      27.61800000      21.23600000
 H      35.46700000      28.34700000      21.75500000
 H      35.54000000      27.72900000      20.40100000
 O      38.71700000      12.81300000      13.48100000
 H      38.19000000      12.79800000      12.63000000
 H      39.44600000      13.40800000      13.24800000
 O      31.42300000      29.01100000      37.23200000
 H      31.99100000      29.40500000      36.48400000
 H      31.00000000      28.28700000      36.71600000
 O      29.82600000      39.93600000      39.32000000
 H      29.99700000      40.73200000      38.82300000
 H      30.16700000      40.24200000      40.23300000
 O      34.09100000      20.98400000      26.04400000
 H      33.35200000      20.60700000      25.52700000
 H      33.60800000      21.58600000      26.71200000
 O      31.15300000      38.66900000      32.32400000
 H      31.61100000      38.03800000      32.83200000
 H      31.58400000      39.50100000      32.65100000
 O      35.41300000      35.35700000       9.36400000
 H      35.67600000      34.63200000      10.00400000
 H      34.45500000      35.27000000       9.42900000
 O      30.33300000      30.66100000      18.94900000
 H      31.17900000      30.44900000      19.37900000
 H      29.85300000      30.90400000      19.78400000
 O      28.75000000      33.13000000      23.72200000
 H      29.65300000      32.78200000      23.60000000
 H      28.90400000      34.09400000      23.69600000
 O      33.04500000      39.41900000      14.53400000
 H      32.35700000      38.72400000      14.72000000
 H      33.14400000      39.67600000      15.50700000
 O      39.69800000      32.19500000      26.08300000
 H      39.28600000      33.01600000      26.42500000
 H      40.35200000      32.68600000      25.46800000
 O      37.39400000      18.47100000      31.13400000
 H      38.25400000      18.03200000      31.34800000
 H      37.82600000      19.28000000      30.69300000
 O      29.64600000      16.76200000      19.26200000
 H      29.96200000      16.28900000      20.09800000
 H      30.31700000      17.53000000      19.34500000
 O      39.55000000       7.03500000      20.09700000
 H      39.80300000       7.05400000      21.07300000
 H      40.36300000       7.43800000      19.71700000
 O      38.39100000      36.22200000       7.69100000
 H      38.45100000      35.85500000       8.64100000
 H      38.60100000      37.14900000       7.90600000
 O      39.72000000      22.96600000      29.61100000
 H      39.79100000      23.94800000      29.67100000
 H      40.05300000      22.88300000      28.66000000
 O      37.07200000      33.96300000      23.80400000
 H      37.12700000      34.62300000      23.11500000
 H      37.84900000      33.45000000      23.52300000
 O      38.56600000      40.56400000      18.90100000
 H      37.79200000      40.20100000      19.31600000
 H      38.55600000      40.07800000      18.04700000
 O      35.65600000      23.26500000      15.94900000
 H      34.98500000      23.35800000      15.25300000
 H      36.40800000      22.72400000      15.56500000
 O      39.21300000      19.05100000      35.85600000
 H      38.71800000      18.68700000      36.59600000
 H      39.03600000      18.32400000      35.24400000
 O      37.56500000      27.90600000      25.06900000
 H      38.33800000      28.48000000      25.29400000
 H      37.21100000      27.79700000      26.01100000
 O      37.85700000      37.26000000      26.47900000
 H      37.68000000      37.48300000      27.43800000
 H      36.94800000      36.84400000      26.26800000
 O      37.99300000      21.22600000      30.37700000
 H      37.75600000      20.81100000      29.53200000
 H      38.50400000      22.02400000      29.98900000
 O      30.35100000       8.63600000      12.06900000
 H      29.96300000       8.53700000      12.99700000
 H      29.72600000       9.26000000      11.62600000
 O      27.55900000       7.37600000      39.96600000
 H      28.12600000       8.18700000      40.01200000
 H      26.65500000       7.78000000      40.06100000
 O      28.44500000      22.61000000      14.19000000
 H      27.93700000      23.30500000      13.77700000
 H      29.00800000      23.17600000      14.79900000
 O      34.74700000      27.35400000      36.94500000
 H      34.87300000      28.29200000      36.86500000
 H      34.08300000      27.28500000      37.64600000
 O      33.66000000      37.94500000      33.65500000
 H      34.30200000      38.57600000      33.32600000
 H      34.00500000      37.11200000      33.28400000
 O      33.63900000      39.23500000      37.67300000
 H      33.31000000      40.17600000      37.66500000
 H      34.56000000      39.43800000      37.35200000
 O      33.75500000      33.63100000      22.93400000
 H      33.22100000      34.31200000      23.38200000
 H      34.59800000      33.77600000      23.35600000
 O      29.06200000      31.70000000      39.37500000
 H      29.98700000      31.56600000      39.17300000
 H      29.11000000      31.88600000      40.34700000
 O      32.64200000      22.96700000      40.34800000
 H      33.49600000      22.64500000      39.91600000
 H      32.34200000      23.54100000      39.62800000
 O      28.47500000      24.97300000       8.53800000
 H      29.16100000      25.56800000       8.23400000
 H      27.66900000      25.43600000       8.38300000
 O      36.24900000      20.00000000      33.18100000
 H      36.43700000      19.50200000      32.35100000
 H      35.31900000      19.99100000      33.06100000
 O      38.16100000      40.46500000      22.50600000
 H      38.90200000      40.63300000      23.14400000
 H      38.50100000      40.92100000      21.71400000
 O      30.00100000      26.90200000      11.92700000
 H      30.15900000      25.97200000      12.00200000
 H      30.83400000      27.34300000      12.16700000
 O      33.27000000      37.43900000      12.42400000
 H      33.17000000      38.15400000      13.16000000
 H      32.48200000      37.73500000      11.91600000
 O      38.66100000      22.59800000      10.27300000
 H      38.86100000      23.34600000       9.65500000
 H      37.85300000      22.21500000       9.87400000
 O      31.25400000      19.38400000       9.18600000
 H      31.80000000      20.07800000       8.81200000
 H      30.36500000      19.67100000       8.84600000
 O      37.19100000      29.95500000      17.63100000
 H      37.94900000      30.39000000      18.01000000
 H      37.03400000      30.43700000      16.76000000
 O      29.62700000      10.54000000      37.09400000
 H      29.67000000       9.88900000      37.82600000
 H      29.55800000      11.39100000      37.51700000
 O      34.19500000      21.59300000      30.31700000
 H      33.81300000      20.98100000      31.00800000
 H      34.61400000      22.23300000      30.91700000
 O      39.99900000      18.53100000      40.38400000
 H      39.20500000      18.81600000      40.84700000
 H      39.57700000      17.69700000      39.97000000
 O      39.66900000      25.31900000      39.22200000
 H      39.19200000      25.40600000      40.06200000
 H      38.92500000      25.39100000      38.59100000
 O      40.79300000      19.93200000      32.33700000
 H      40.67800000      19.88300000      31.33500000
 H      40.85300000      19.00300000      32.55300000
 O      30.70200000      17.39100000      36.70800000
 H      30.88000000      16.44600000      36.64600000
 H      30.90500000      17.73700000      35.83600000
 O      30.54000000      34.47100000      37.90500000
 H      29.64800000      34.10200000      37.70900000
 H      30.62700000      35.04200000      37.10400000
 O      29.36900000       8.00900000      14.56700000
 H      28.64800000       7.31400000      14.62500000
 H      29.86300000       7.96900000      15.41000000
 O      29.55700000      24.06200000      23.91700000
 H      30.37600000      24.56700000      24.18800000
 H      29.94100000      23.18300000      23.74200000
 O      27.60500000      37.84700000       9.26500000
 H      27.28600000      37.47800000      10.13100000
 H      27.84700000      38.77600000       9.54400000
 O      40.54100000      39.05700000       9.69500000
 H      40.72000000      39.94300000      10.09800000
 H      39.63000000      39.00600000       9.72500000
 O      30.00700000      12.88700000      16.87300000
 H      30.81000000      13.24000000      17.31200000
 H      29.54100000      13.79200000      16.69500000
 O      31.47800000      19.66300000      28.98500000
 H      31.25300000      19.22600000      29.81800000
 H      30.85500000      20.37400000      28.93100000
 O      31.35400000      36.39900000      26.49400000
 H      30.62800000      36.39100000      27.11900000
 H      32.01100000      35.84300000      26.98600000
 O      36.34300000      13.75100000       9.53900000
 H      36.56600000      14.27900000       8.71300000
 H      36.11100000      14.55200000      10.09300000
 O      32.92100000      12.97600000      34.00700000
 H      33.55000000      12.29000000      34.39000000
 H      33.48100000      13.24300000      33.23000000
 O      32.20300000      37.14700000      38.79100000
 H      32.50500000      37.88600000      38.24800000
 H      33.05500000      36.80800000      39.12900000
 O      29.44900000      28.85200000      33.79000000
 H      28.93200000      29.03300000      32.93300000
 H      30.24400000      29.35000000      33.63000000
 O      36.04200000      15.01500000      39.44600000
 H      35.14200000      14.64400000      39.63500000
 H      36.58300000      14.21700000      39.82400000
 O      29.45600000      12.91500000      38.20000000
 H      29.00800000      13.60000000      38.72000000
 H      30.37900000      13.18700000      38.08600000
 O      29.18000000      24.99200000      33.54400000
 H      28.34500000      24.65500000      33.89100000
 H      29.72300000      25.17300000      34.34000000
 O      38.91100000      32.56600000      22.51700000
 H      39.56000000      32.86400000      21.84200000
 H      39.44700000      31.79500000      22.83100000
 O      28.73800000      12.35900000      22.57600000
 H      28.13000000      13.11100000      22.33300000
 H      28.92700000      12.06200000      21.63900000
 O      40.78100000      40.08500000      37.22600000
 H      41.36500000      40.32200000      37.95200000
 H      39.95500000      39.81400000      37.63400000
 O      32.28600000      13.80600000      38.43900000
 H      32.45600000      12.87100000      38.13400000
 H      32.72600000      14.31200000      37.76300000
 O      27.94900000      21.49200000      34.39700000
 H      27.87400000      20.51900000      34.65800000
 H      28.86500000      21.68200000      34.82700000
 O      31.41200000      30.91700000      12.46900000
 H      31.19000000      30.95000000      11.57100000
 H      30.63300000      30.54800000      12.92700000
 O      36.52400000       6.87200000      23.55400000
 H      36.03400000       6.97600000      24.39200000
 H      36.87800000       7.77200000      23.42300000
 O      38.28300000      35.75600000      21.83700000
 H      37.81300000      35.52300000      20.96600000
 H      39.12200000      36.04100000      21.52600000
 O      38.82800000      37.37200000      17.81100000
 H      38.76900000      37.97400000      17.00400000
 H      37.84500000      37.38900000      18.01700000
 O      33.34800000      15.96200000      23.54700000
 H      34.00800000      15.83000000      24.26400000
 H      33.76800000      16.76300000      23.10900000
 O      33.61300000      26.35800000       6.32800000
 H      33.67200000      27.01800000       5.58100000
 H      34.16700000      26.69900000       7.02800000
 O      31.69500000      30.87200000      39.06900000
 H      32.19800000      31.49100000      38.50400000
 H      31.54600000      30.16500000      38.39200000
 O      31.70800000      11.10400000      26.75400000
 H      31.69400000      11.66700000      25.92900000
 H      32.32700000      10.41400000      26.32900000
 O      39.77000000      36.51900000      39.47000000
 H      39.83100000      37.36200000      39.96900000
 H      39.70600000      35.90100000      40.29600000
 O      27.83900000       7.19800000      34.82900000
 H      28.50800000       7.01300000      35.54000000
 H      27.63500000       8.17100000      35.01300000
 O      33.58400000      30.61600000      22.76800000
 H      34.18500000      31.38500000      22.88700000
 H      33.92000000      29.95200000      23.37300000
 O      39.46500000      31.02300000      30.78000000
 H      40.03400000      31.31000000      29.97300000
 H      40.06300000      30.34800000      31.12400000
 O      35.55000000      17.94000000      18.45900000
 H      34.87900000      17.67000000      19.10100000
 H      35.66100000      18.88500000      18.66000000
 O      38.21000000      33.10400000      36.66300000
 H      38.87600000      33.81000000      36.79600000
 H      37.90600000      33.33000000      35.76800000
 O      33.26800000       6.79400000      16.87000000
 H      33.21100000       7.62700000      17.45500000
 H      32.62000000       7.02300000      16.22700000
 O      32.55800000      10.68900000      31.02900000
 H      31.88400000      10.76300000      30.36400000
 H      33.30000000      10.29100000      30.59100000
 O      28.03100000      30.08400000      31.48900000
 H      28.22100000      29.77900000      30.60500000
 H      28.52100000      30.95900000      31.52500000
 O      28.66200000      25.29200000      18.54200000
 H      27.86000000      25.56500000      19.01300000
 H      29.33300000      25.85200000      19.00400000
 O      37.43800000      29.47600000      35.98600000
 H      37.27200000      29.99100000      36.82700000
 H      36.70600000      29.82700000      35.47000000
 O      33.74000000      35.60500000      18.19200000
 H      33.90000000      34.67200000      18.39500000
 H      32.78500000      35.62400000      18.48200000
 O      35.21900000      10.91600000      36.66900000
 H      34.34900000      10.94300000      37.10900000
 H      35.73600000      10.48200000      37.34100000
 O      35.59200000      30.27200000      37.74200000
 H      35.22200000      31.13900000      37.51100000
 H      36.03100000      30.50300000      38.59800000
 O      36.88600000      38.07500000      22.97700000
 H      37.47700000      38.79500000      22.77600000
 H      37.32800000      37.30200000      22.64200000
 O      36.19500000      37.77500000      11.65100000
 H      35.28000000      37.52100000      12.01600000
 H      36.13800000      38.73700000      11.80500000
 O      39.66200000       7.41700000      23.09300000
 H      38.88100000       7.37400000      23.65700000
 H      39.74500000       8.38500000      22.97500000
 O      35.05600000      31.16900000      18.14300000
 H      35.18300000      31.69800000      19.01700000
 H      35.96300000      30.78700000      18.07700000
 O      31.31400000      12.87000000      10.38700000
 H      31.32500000      12.57700000      11.36700000
 H      32.29400000      12.66100000      10.20300000
 O      32.82100000      39.86600000      17.28000000
 H      32.22800000      39.41600000      17.93600000
 H      33.41200000      40.33300000      17.83000000
 O      33.22400000      16.97700000      11.61900000
 H      32.96500000      16.83500000      10.71000000
 H      32.68400000      16.38000000      12.13300000
 O      38.65500000      12.31700000      32.60700000
 H      39.62800000      12.57000000      32.58300000
 H      38.73000000      11.46200000      32.22600000
 O      27.68200000      37.81000000      14.90600000
 H      27.46600000      36.90500000      15.11100000
 H      28.12500000      37.76500000      14.06000000
 O      28.86800000      36.96100000      12.51400000
 H      29.43000000      37.38400000      11.85000000
 H      29.59500000      36.36700000      12.86700000
 O      39.24600000      17.09700000      34.05800000
 H      40.10400000      16.67400000      34.27000000
 H      39.42100000      17.40300000      33.15500000
 O      28.89300000      10.16900000      33.31400000
 H      29.79400000       9.86400000      33.49800000
 H      28.45500000       9.93900000      34.14400000
 O      35.21100000      24.94300000      29.36600000
 H      35.45800000      24.14800000      28.85900000
 H      35.40600000      24.65100000      30.28600000
 O      31.33300000      24.66400000      31.81900000
 H      30.61200000      24.90200000      32.46300000
 H      32.12500000      25.15000000      32.18100000
 O      27.39800000      39.91800000      24.09300000
 H      28.06600000      40.03200000      24.77300000
 H      26.66800000      40.50100000      24.42900000
 O      33.47700000      26.25300000      14.51600000
 H      34.42500000      26.46500000      14.36800000
 H      33.03800000      26.83000000      13.88800000
 O      27.79500000      28.83700000      12.91800000
 H      28.27800000      28.31400000      12.27000000
 H      28.53300000      29.13600000      13.52700000
 O      34.85100000      33.05400000      19.96800000
 H      35.56200000      32.53900000      20.47900000
 H      34.55400000      33.56600000      20.78200000
 O      36.39800000      17.31400000      37.83000000
 H      35.84100000      17.05700000      37.09800000
 H      36.47400000      16.50900000      38.31600000
 O      34.17200000       8.67900000      11.18800000
 H      34.37800000       9.07700000      10.28100000
 H      34.83300000       9.21600000      11.70400000
 O      37.79000000      31.64500000      38.99500000
 H      37.55300000      32.36300000      39.60700000
 H      38.10600000      32.10800000      38.21100000
 O      38.40000000       8.76100000      40.73800000
 H      38.65300000       9.69400000      40.41200000
 H      39.20000000       8.27600000      40.44000000
 O      38.35400000      21.61100000      33.35900000
 H      38.86500000      21.52000000      32.55000000
 H      37.64100000      20.93600000      33.21200000
 O      35.13800000      29.73100000      13.72500000
 H      34.80800000      30.52600000      13.36500000
 H      35.94500000      30.09900000      14.21400000
 O      29.14600000      33.77300000      17.37300000
 H      29.77000000      34.31200000      17.94000000
 H      28.47800000      34.47400000      17.20200000
 O      37.67500000      24.76400000      37.58700000
 H      37.47700000      24.18600000      36.81900000
 H      36.79000000      24.82200000      37.96400000
 O      31.30300000      18.54100000      20.48100000
 H      30.80800000      19.35300000      20.58400000
 H      32.15500000      18.87000000      20.12600000
 O      40.13800000      14.50500000      37.13900000
 H      39.40100000      13.93800000      37.13200000
 H      40.07700000      14.95800000      36.33200000
 O      30.89200000      19.93900000      11.97100000
 H      31.78900000      19.64100000      11.64700000
 H      30.40700000      19.71900000      11.12800000
 O      39.12300000       7.72300000      37.72500000
 H      39.69300000       8.45400000      37.65100000
 H      39.55900000       7.16500000      38.41300000
 O      33.74500000      29.87600000      28.21600000
 H      33.07900000      29.52400000      27.56300000
 H      33.79800000      29.00600000      28.68400000
 O      31.17400000      38.46800000      24.82400000
 H      31.28300000      37.73200000      25.52900000
 H      32.09200000      38.58000000      24.49700000
 O      30.73500000      24.12700000      27.42800000
 H      30.17900000      23.33600000      27.38900000
 H      31.64100000      23.73700000      27.52300000
 O      34.38200000      22.39900000      18.31100000
 H      34.62500000      22.68300000      17.35500000
 H      34.81500000      23.12700000      18.80800000
 O      30.74800000      26.93100000      16.44500000
 H      31.42700000      27.63000000      16.27800000
 H      31.23700000      26.16400000      16.24100000
 O      33.97600000      25.82500000      26.83100000
 H      34.15100000      25.40900000      27.68100000
 H      33.78000000      26.72300000      27.08700000
 O      38.31500000      23.39000000      17.56200000
 H      38.45600000      23.66700000      18.50000000
 H      38.21200000      22.41600000      17.64900000
 O      39.39700000      10.20100000      20.52900000
 H      38.71400000       9.85000000      19.88000000
 H      39.24300000      11.15400000      20.39900000
 O      40.58300000      22.68200000      27.16000000
 H      40.95000000      23.22800000      26.43900000
 H      40.27000000      21.91900000      26.68600000
 O      27.33400000      11.83100000      32.04600000
 H      27.66900000      12.68000000      32.21900000
 H      27.98000000      11.24100000      32.48800000
 O      30.88000000      12.53300000      24.62000000
 H      31.18600000      13.50200000      24.50200000
 H      30.17300000      12.50300000      23.97400000
 O      31.22700000      32.04700000      23.43400000
 H      32.07900000      32.52700000      23.16000000
 H      31.63000000      31.14300000      23.59700000
 O      28.34200000      15.02500000      13.51800000
 H      28.97700000      15.37400000      14.18400000
 H      28.25100000      14.09600000      13.88000000
