945
XYZ file of cluster: frame_8000_20a6d.9bd53.726c5 - created by MolEdiTo
 O      37.79900000      30.09000000      28.82100000
 H      36.95300000      29.98600000      29.28100000
 H      38.32200000      30.57500000      29.53400000
 O      40.46900000      30.59100000      23.70200000
 H      41.33100000      30.73400000      24.19400000
 H      39.90000000      30.34600000      24.48600000
 O      33.29500000      40.55100000      30.22200000
 H      33.75000000      39.69400000      30.35400000
 H      34.02800000      41.15800000      30.52500000
 O      40.09700000      37.78800000      25.25800000
 H      40.56400000      37.65900000      26.07500000
 H      39.14200000      37.51900000      25.54000000
 O      36.37200000      39.83800000      36.61800000
 H      37.00300000      39.15700000      36.86700000
 H      36.52500000      40.56100000      37.33000000
 O      20.08000000      36.59900000      22.38200000
 H      20.89000000      37.05800000      21.99600000
 H      20.67700000      35.91800000      22.89200000
 O      17.18500000      38.09600000      38.89000000
 H      16.59200000      38.91100000      38.91700000
 H      16.64200000      37.65400000      38.23800000
 O      10.73300000      38.16900000      27.93100000
 H      10.03500000      37.88600000      27.31900000
 H      11.50100000      37.66100000      27.61700000
 O      17.14000000      37.70400000      31.65700000
 H      17.42500000      36.88500000      31.24300000
 H      16.71600000      37.35600000      32.45800000
 O       8.28700000      32.73500000      25.73700000
 H       8.95200000      32.83900000      25.04600000
 H       8.48200000      31.87400000      26.11300000
 O      17.20300000      29.65400000      23.42500000
 H      17.60400000      28.77700000      23.22200000
 H      16.62000000      29.40200000      24.17300000
 O      31.91700000      38.36500000      35.68300000
 H      32.44900000      38.52400000      36.48100000
 H      32.57900000      38.24800000      34.98200000
 O      22.10300000      35.05400000      23.32700000
 H      22.54700000      34.20600000      23.72900000
 H      22.81400000      35.65100000      23.57300000
 O      25.58600000      30.56800000      32.18000000
 H      26.57200000      30.56100000      32.03500000
 H      25.27200000      30.94500000      31.31900000
 O      37.74000000      34.41000000      34.35500000
 H      37.68000000      34.30700000      33.36600000
 H      37.96700000      35.34000000      34.41600000
 O      36.17300000      39.89100000      19.92600000
 H      35.49900000      40.50000000      19.60000000
 H      35.94400000      39.90000000      20.88500000
 O      13.13100000      27.45600000      37.35000000
 H      13.23000000      26.43800000      37.20400000
 H      13.55600000      27.71300000      36.51600000
 O      17.52400000      40.63800000      23.41000000
 H      16.82800000      39.99700000      23.39100000
 H      17.30400000      41.09900000      22.53600000
 O      28.20700000      34.15000000      28.53700000
 H      27.93000000      33.52000000      27.81800000
 H      27.38700000      34.18000000      29.07700000
 O      32.93300000      29.42300000      32.30800000
 H      32.35200000      28.94600000      31.63900000
 H      32.49400000      30.29800000      32.22000000
 O       6.89400000      38.57500000      34.83900000
 H       6.02700000      38.22200000      34.51800000
 H       7.23800000      37.71600000      35.19100000
 O      21.39000000      31.97600000      23.74100000
 H      20.69500000      31.35500000      23.99100000
 H      22.11100000      31.75100000      24.37600000
 O      37.35000000      35.89300000      30.36000000
 H      38.21600000      35.59000000      30.69700000
 H      36.83900000      35.10400000      30.61700000
 O      17.78700000      35.16000000      22.81000000
 H      18.49000000      35.85300000      22.71800000
 H      18.34500000      34.39700000      22.69500000
 O       8.60900000      28.01900000      30.60200000
 H       8.71400000      28.97200000      30.85800000
 H       7.62300000      27.92300000      30.74200000
 O      24.05700000      39.03800000      35.58500000
 H      24.63900000      38.66400000      34.92700000
 H      23.25800000      38.47800000      35.45500000
 O      14.93100000      34.16000000      34.35500000
 H      15.44100000      33.53600000      33.76700000
 H      14.20300000      33.58200000      34.60800000
 O      18.20200000      29.06700000      33.85800000
 H      18.35600000      29.98400000      34.00800000
 H      18.82900000      28.61800000      34.39900000
 O      15.73400000      36.67400000      33.76200000
 H      16.60700000      36.73700000      34.15500000
 H      15.45800000      35.81900000      34.10100000
 O      20.94100000      28.96200000      29.79400000
 H      20.57900000      28.44900000      30.54700000
 H      20.41000000      28.49300000      29.12100000
 O      40.58800000      32.50100000      33.14100000
 H      40.67000000      31.56600000      32.86000000
 H      40.93900000      32.40700000      34.08500000
 O      35.15500000      40.61200000      22.84300000
 H      35.87900000      40.06400000      23.21700000
 H      34.49900000      40.65900000      23.50800000
 O      33.07400000      29.60100000      35.23200000
 H      33.15100000      29.24600000      34.35400000
 H      33.82600000      30.25700000      35.23300000
 O      22.21000000      31.15100000      28.70800000
 H      21.47400000      31.27900000      27.98600000
 H      21.86700000      30.33500000      29.07600000
 O      15.27400000      31.93100000      25.44000000
 H      15.84600000      32.47200000      24.79800000
 H      14.78900000      31.43300000      24.68500000
 O       8.71100000      28.80200000      24.82200000
 H       8.44500000      29.17100000      25.76300000
 H       9.28700000      28.06500000      25.17300000
 O      10.75500000      30.71500000      32.92700000
 H      10.81300000      31.63400000      32.64000000
 H       9.90400000      30.60700000      33.30600000
 O      39.01400000      34.64300000      27.53100000
 H      38.58400000      34.76300000      28.38200000
 H      39.14800000      35.59000000      27.28900000
 O      33.97500000      38.37000000      24.66600000
 H      34.93000000      38.12700000      24.36000000
 H      34.10300000      38.19100000      25.63000000
 O      15.20600000      28.97400000      39.60300000
 H      15.16200000      29.58800000      38.83500000
 H      15.65300000      29.56200000      40.26800000
 O      33.40100000      34.78100000      27.16800000
 H      32.84800000      34.34600000      27.80800000
 H      34.21200000      34.32400000      27.15900000
 O      17.84800000      39.91400000      27.07100000
 H      17.33800000      40.57400000      26.58300000
 H      18.14700000      39.38700000      26.29600000
 O       6.42200000      35.67800000      23.20100000
 H       7.03800000      34.99200000      23.00400000
 H       6.32500000      36.19700000      22.38400000
 O      31.06600000      35.82300000      35.47800000
 H      31.34900000      36.69400000      35.87500000
 H      30.38200000      36.21400000      34.84000000
 O       9.00600000      38.77500000      29.78600000
 H       8.58500000      39.31400000      29.07100000
 H       9.83700000      38.49100000      29.30200000
 O      16.81300000      32.22800000      23.24800000
 H      17.14200000      31.33200000      23.32400000
 H      17.65800000      32.78400000      23.10800000
 O      29.24000000      37.01000000      38.58600000
 H      30.01800000      36.41800000      38.55100000
 H      29.59600000      37.84900000      38.99200000
 O      34.50200000      31.98800000      29.75400000
 H      34.42200000      31.35700000      29.01800000
 H      33.69600000      31.81500000      30.27500000
 O      29.10800000      35.95600000      23.65400000
 H      29.03500000      36.48800000      24.41100000
 H      28.77300000      36.49300000      22.91200000
 O      35.92900000      39.80000000      33.76500000
 H      35.81100000      39.89900000      34.77100000
 H      36.90700000      39.69800000      33.78700000
 O      11.43000000      36.02400000      36.51100000
 H      11.13000000      35.05300000      36.47600000
 H      11.08600000      36.33800000      35.65400000
 O       6.82400000      31.14300000      39.11000000
 H       5.81200000      31.38100000      39.09600000
 H       7.02200000      31.42300000      40.01400000
 O       9.06500000      36.72200000      21.45100000
 H       8.67200000      35.87300000      21.60300000
 H       9.35900000      36.94700000      22.38200000
 O      23.02000000      30.27200000      35.51300000
 H      22.18900000      30.09200000      36.09100000
 H      23.45700000      29.39700000      35.71900000
 O       8.09600000      34.12400000      21.84000000
 H       7.47900000      33.73200000      21.19900000
 H       8.65900000      33.35200000      22.01400000
 O      30.96000000      33.65900000      28.84800000
 H      31.14500000      32.80000000      28.34500000
 H      29.99000000      33.55500000      28.92400000
 O      13.25900000      37.17800000      27.21700000
 H      13.74300000      36.29600000      27.24100000
 H      13.99400000      37.77800000      27.10300000
 O      17.90000000      29.62200000      20.62100000
 H      17.69700000      29.74600000      21.63000000
 H      18.25100000      28.69000000      20.72200000
 O      17.25700000      31.36200000      27.16200000
 H      17.06200000      30.47500000      27.34500000
 H      16.50700000      31.69700000      26.59800000
 O      20.16300000      29.86400000      24.68800000
 H      20.78300000      29.18500000      24.35900000
 H      19.55200000      29.26100000      25.16700000
 O      26.21900000      27.34100000      29.42700000
 H      26.03500000      27.00000000      28.46700000
 H      25.37900000      27.87100000      29.56600000
 O      37.16100000      31.17200000      32.61700000
 H      38.00600000      31.31300000      32.18500000
 H      36.90900000      30.32600000      32.23700000
 O      32.08200000      34.04700000      40.17900000
 H      31.20300000      34.39600000      40.61800000
 H      31.64800000      33.58300000      39.41300000
 O      34.27700000      37.94400000      29.89100000
 H      34.55400000      37.16300000      30.29700000
 H      33.31600000      37.96900000      30.00700000
 O      19.27300000      32.21800000      40.35300000
 H      18.92500000      32.80100000      41.04100000
 H      20.21300000      32.62900000      40.27800000
 O      13.92100000      33.32600000      37.56500000
 H      13.46000000      32.78200000      38.27200000
 H      13.41100000      33.00300000      36.77700000
 O      28.33100000      29.55400000      26.86600000
 H      28.25900000      28.70400000      26.41400000
 H      28.68500000      29.26600000      27.74700000
 O      36.34700000      27.95500000      27.41700000
 H      35.81000000      27.63000000      28.20100000
 H      36.87300000      28.67100000      27.85600000
 O      30.34800000      36.85400000      21.17200000
 H      29.89200000      37.53700000      21.74100000
 H      30.76400000      36.31600000      21.84500000
 O      13.72000000      30.94200000      23.30700000
 H      13.39000000      30.03000000      23.05900000
 H      14.23500000      31.19300000      22.52600000
 O      14.41800000      29.98100000      31.80400000
 H      14.40500000      30.91100000      31.47400000
 H      15.20700000      29.64800000      31.32600000
 O       7.84000000      40.30100000      36.88500000
 H       7.21800000      40.47500000      37.57400000
 H       7.38100000      39.55400000      36.42200000
 O      28.71100000      36.36900000      34.04100000
 H      28.31200000      36.92500000      33.36600000
 H      27.87500000      36.05800000      34.49300000
 O      14.88500000      29.95800000      34.74700000
 H      15.45200000      30.14200000      33.96200000
 H      14.42800000      30.85700000      34.87900000
 O      16.53200000      34.19500000      36.95400000
 H      16.82400000      33.27200000      36.74300000
 H      15.59900000      34.07500000      36.68700000
 O       8.97400000      40.02900000      33.86800000
 H       9.62700000      39.48700000      34.45000000
 H       8.14300000      39.61600000      34.14000000
 O      30.06100000      27.13800000      35.64400000
 H      29.17400000      26.94200000      35.95700000
 H      29.85800000      27.83800000      34.96700000
 O      33.58900000      32.58100000      37.48800000
 H      33.97600000      33.29500000      38.02500000
 H      33.12700000      33.10300000      36.80400000
 O      16.26900000      35.03300000      39.52300000
 H      15.50500000      34.67700000      39.14400000
 H      16.80600000      35.01100000      38.68400000
 O      22.68900000      35.12500000      20.58100000
 H      22.52700000      36.07400000      20.73000000
 H      22.34200000      34.67500000      21.34900000
 O      14.34900000      38.62500000      21.11000000
 H      15.26000000      38.32800000      21.02000000
 H      13.91600000      37.76200000      20.82300000
 O      10.89100000      35.45700000      30.81400000
 H      10.98700000      36.45900000      30.72300000
 H      11.78600000      35.25800000      31.18700000
 O      27.85300000      27.10600000      24.58200000
 H      27.89700000      28.07600000      24.34800000
 H      26.99300000      26.85900000      24.30400000
 O      13.94400000      36.13900000      24.29400000
 H      13.86900000      37.06400000      23.92000000
 H      13.04100000      35.85200000      24.42600000
 O      35.56700000      36.15700000      36.75600000
 H      35.82400000      35.39200000      37.25400000
 H      34.70700000      35.83700000      36.34400000
 O      39.94000000      30.04100000      21.02700000
 H      39.62200000      29.15700000      21.13400000
 H      40.24000000      30.33100000      21.84200000
 O      40.24300000      38.87200000      40.52600000
 H      40.59000000      39.74500000      40.39200000
 H      40.95800000      38.48100000      41.08800000
 O      32.90900000      27.20500000      39.00500000
 H      33.28800000      27.70100000      39.79500000
 H      32.32800000      27.94200000      38.56800000
 O      12.63900000      32.16500000      39.95500000
 H      12.03300000      32.71700000      40.32700000
 H      13.35500000      32.13600000      40.61100000
 O      31.74000000      27.97600000      21.15700000
 H      31.91700000      28.78500000      20.68000000
 H      32.50500000      27.43900000      20.90900000
 O      13.26800000      35.85800000      38.60000000
 H      12.86100000      35.01300000      38.88300000
 H      12.77500000      36.04200000      37.74900000
 O      10.97400000      29.89200000      23.59400000
 H      10.19100000      29.30700000      23.78700000
 H      10.56500000      30.63600000      23.12500000
 O      21.73900000      36.80600000      31.70500000
 H      21.09100000      36.10600000      32.04700000
 H      21.08700000      37.48000000      31.56100000
 O      11.64700000      36.51800000      33.47700000
 H      11.44900000      37.22100000      32.86700000
 H      12.39700000      36.90000000      33.99200000
 O      36.31900000      28.81600000      30.89700000
 H      36.61100000      27.89300000      30.83400000
 H      35.39900000      28.72000000      30.67000000
 O       7.05200000      30.31400000      29.76900000
 H       6.13200000      30.34900000      30.14100000
 H       6.80700000      30.22500000      28.80400000
 O      21.41500000      27.93500000      23.45000000
 H      22.18700000      28.39100000      23.10200000
 H      21.52400000      27.05700000      23.05900000
 O      39.12200000      29.63600000      26.19300000
 H      38.84700000      29.47300000      27.12500000
 H      39.29500000      30.57400000      26.16600000
 O       9.80400000      31.94600000      21.74800000
 H      10.68300000      32.30700000      21.57900000
 H       9.62600000      31.49000000      20.91600000
 O      22.31900000      37.87800000      20.96500000
 H      23.08700000      37.74700000      21.48900000
 H      22.40600000      38.80000000      20.69600000
 O      19.80100000      35.61200000      35.98500000
 H      19.29500000      35.74000000      36.86400000
 H      20.25800000      34.73600000      36.23800000
 O      22.87700000      31.42000000      32.98600000
 H      23.86000000      31.34600000      32.91500000
 H      22.69700000      30.75300000      33.64300000
 O      16.83400000      40.50400000      32.21900000
 H      17.02400000      39.58100000      32.09900000
 H      15.89500000      40.53200000      32.32500000
 O       7.92700000      39.20900000      24.87200000
 H       7.60500000      39.53600000      24.04800000
 H       7.29300000      38.47200000      25.07100000
 O      18.72800000      31.86100000      33.52300000
 H      17.86700000      32.01500000      33.05700000
 H      19.32300000      31.81200000      32.71100000
 O      27.57400000      32.32300000      26.55700000
 H      28.05900000      31.52600000      26.69700000
 H      27.95900000      32.74900000      25.80100000
 O      19.18200000      27.38500000      38.38900000
 H      18.91200000      26.58300000      37.89000000
 H      18.32900000      27.74100000      38.61600000
 O      37.05100000      29.63900000      40.61900000
 H      37.66700000      30.02000000      41.30100000
 H      37.52400000      29.96900000      39.83500000
 O      28.44600000      33.61600000      36.40300000
 H      27.92000000      34.26700000      35.78200000
 H      27.83600000      33.70300000      37.13400000
 O      22.87100000      29.09500000      39.60900000
 H      23.47100000      29.90900000      39.63800000
 H      23.53800000      28.34600000      39.75500000
 O      24.78100000      35.07800000      33.12200000
 H      24.03100000      34.64500000      33.54000000
 H      24.41700000      35.11400000      32.19900000
 O      28.00600000      29.74800000      23.77800000
 H      28.61900000      30.39000000      23.44000000
 H      27.22200000      30.30900000      23.98600000
 O       6.77500000      28.27200000      39.05700000
 H       7.07000000      29.19300000      38.97100000
 H       6.14900000      28.28700000      38.27800000
 O      36.24900000      33.49000000      31.72300000
 H      36.73200000      32.71700000      32.10500000
 H      35.73600000      33.04100000      31.01000000
 O       7.79300000      40.26300000      27.64900000
 H       6.94600000      40.23000000      28.07100000
 H       7.64900000      39.79300000      26.79800000
 O      14.93500000      37.14300000      40.42700000
 H      15.60700000      36.63400000      39.94700000
 H      14.15800000      37.02100000      39.87900000
 O      38.42200000      27.64500000      21.13500000
 H      39.02300000      26.91800000      20.95400000
 H      37.76600000      27.16300000      21.75900000
 O      27.77800000      30.68400000      35.45500000
 H      28.23300000      30.03600000      34.88900000
 H      28.11400000      31.50500000      35.11100000
 O      20.07100000      34.97700000      32.74400000
 H      19.83000000      35.21000000      33.67000000
 H      19.18800000      34.71300000      32.37300000
 O      28.95600000      32.56300000      30.91600000
 H      28.52300000      33.25800000      31.52100000
 H      28.45100000      32.74700000      30.07100000
 O      27.27300000      38.63100000      29.28500000
 H      27.25800000      39.57000000      28.91300000
 H      26.37500000      38.35600000      28.96500000
 O       8.05900000      36.42300000      30.56400000
 H       8.91400000      35.85700000      30.54400000
 H       8.53800000      37.30100000      30.38000000
 O      25.89000000      34.03900000      29.97700000
 H      25.08600000      34.59800000      29.84000000
 H      25.46700000      33.18500000      30.06000000
 O      16.04400000      39.98700000      35.82500000
 H      16.95000000      39.89100000      36.11500000
 H      16.11200000      40.58300000      35.07100000
 O      28.03900000      37.43900000      25.97400000
 H      28.01000000      38.39900000      26.18100000
 H      28.50000000      37.16700000      26.83300000
 O      31.61300000      28.79700000      26.55300000
 H      31.49900000      28.98600000      25.58900000
 H      31.19600000      27.89700000      26.63200000
 O      23.47200000      35.26300000      30.38500000
 H      23.00100000      36.01100000      30.84300000
 H      22.80100000      34.99100000      29.74300000
 O      38.54200000      39.91800000      32.90800000
 H      39.12900000      40.40600000      33.54400000
 H      39.06900000      39.97100000      32.09500000
 O      19.14500000      30.95900000      30.38100000
 H      19.73200000      31.60100000      30.83200000
 H      19.81400000      30.26300000      30.25800000
 O      27.11800000      29.42300000      38.14900000
 H      27.22200000      29.60500000      37.21700000
 H      27.62900000      30.18500000      38.53000000
 O      29.69500000      40.43900000      34.78800000
 H      30.02400000      39.54200000      34.71900000
 H      30.37500000      40.93500000      34.27100000
 O      35.68500000      30.98700000      34.89700000
 H      35.97900000      31.13200000      33.96200000
 H      35.87600000      31.91900000      35.19400000
 O      32.70500000      35.20900000      30.33700000
 H      32.08400000      35.92100000      30.11600000
 H      32.16700000      34.46000000      29.94800000
 O      22.22800000      28.05400000      26.42800000
 H      21.35300000      27.70400000      26.45300000
 H      22.70700000      27.30200000      25.94600000
 O      30.71900000      31.38400000      27.39500000
 H      30.82500000      31.25100000      26.45700000
 H      30.20400000      30.58700000      27.64900000
 O      12.21300000      40.30000000      29.29900000
 H      11.72200000      39.83800000      28.62900000
 H      12.76800000      40.86900000      28.78000000
 O      15.22100000      39.07700000      23.70400000
 H      14.86700000      38.98600000      22.77500000
 H      14.37900000      39.43500000      24.18100000
 O      35.13200000      37.38900000      39.73300000
 H      35.92400000      37.81900000      40.20100000
 H      35.13300000      37.97200000      38.94000000
 O      21.96700000      39.68800000      25.14100000
 H      21.67100000      40.64500000      25.19200000
 H      21.07800000      39.27100000      25.02800000
 O      24.84800000      38.03600000      28.35200000
 H      24.13700000      38.42800000      28.87600000
 H      24.58600000      37.16100000      28.14700000
 O      26.70000000      35.28100000      35.22800000
 H      26.03200000      34.73900000      34.81600000
 H      26.19500000      35.70800000      35.95100000
 O      10.97600000      39.20500000      35.76200000
 H      11.73500000      38.64200000      35.96200000
 H      10.99600000      39.76600000      36.55800000
 O      25.31700000      30.77200000      26.99100000
 H      26.14400000      31.27600000      26.80800000
 H      25.73700000      29.87600000      27.03600000
 O       7.35300000      34.86900000      26.66200000
 H       7.73200000      34.12800000      26.16700000
 H       6.79800000      34.37500000      27.32600000
 O      19.31800000      32.94000000      22.37900000
 H      19.65600000      32.74900000      21.44200000
 H      20.18800000      32.80100000      22.86200000
 O      31.07600000      31.42800000      32.12400000
 H      30.43500000      31.96700000      31.60500000
 H      30.89100000      31.90300000      32.97400000
 O      31.32300000      37.22400000      29.93200000
 H      31.00600000      37.87300000      30.63800000
 H      30.40900000      36.91500000      29.64300000
 O      23.70400000      28.28800000      29.01000000
 H      23.59600000      28.08700000      27.99900000
 H      22.69600000      28.31800000      29.18300000
 O      36.67100000      31.75800000      21.46200000
 H      37.51900000      32.21600000      21.69600000
 H      36.83600000      30.92200000      21.93000000
 O      20.10400000      31.48500000      27.02000000
 H      19.14000000      31.63500000      27.25800000
 H      20.00000000      30.92800000      26.22600000
 O       8.31500000      33.15200000      38.13300000
 H       7.96700000      33.32400000      37.25400000
 H       7.71900000      32.36100000      38.37900000
 O      17.05900000      27.28000000      32.14900000
 H      17.68700000      27.81500000      32.74200000
 H      16.54900000      26.83900000      32.82900000
 O      24.90900000      38.46200000      22.09700000
 H      25.46100000      37.70800000      22.36400000
 H      24.55800000      38.74000000      22.95700000
 O      27.07100000      35.26000000      38.80100000
 H      27.84500000      35.84000000      38.84100000
 H      26.36700000      35.89000000      38.45600000
 O      21.78200000      33.52700000      39.44400000
 H      21.44300000      34.41100000      39.82600000
 H      22.64400000      33.89500000      39.08500000
 O      34.61100000      37.36700000      27.13600000
 H      34.83500000      37.64500000      28.01900000
 H      34.12000000      36.56300000      27.25800000
 O      34.58500000      34.57100000      39.39300000
 H      34.52000000      35.54100000      39.48600000
 H      33.78000000      34.35100000      39.94700000
 O      33.29800000      34.42800000      35.59700000
 H      32.69700000      35.21100000      35.51900000
 H      33.60800000      34.37700000      34.67500000
 O      36.63800000      26.91300000      34.93500000
 H      35.87200000      26.86600000      35.53300000
 H      37.00700000      27.76900000      35.27400000
 O       6.41300000      31.08100000      34.25900000
 H       5.58300000      30.81800000      33.78800000
 H       7.05800000      30.46100000      33.90200000
 O      24.72200000      39.81200000      38.25700000
 H      25.68000000      39.72500000      38.32900000
 H      24.67900000      39.89700000      37.27700000
 O      18.77000000      28.26900000      26.34000000
 H      18.22300000      27.67800000      25.83600000
 H      18.78700000      27.84700000      27.23200000
 O      37.36000000      38.39900000      29.22000000
 H      36.47600000      38.75000000      29.44000000
 H      37.26700000      37.54000000      29.72600000
 O       6.35900000      29.68100000      23.40600000
 H       7.21700000      29.27600000      23.67800000
 H       6.47800000      29.76200000      22.41900000
 O      38.54800000      36.95800000      34.11300000
 H      38.18300000      37.71200000      33.65500000
 H      39.42400000      37.32500000      34.37800000
 O      29.17500000      38.64700000      22.75300000
 H      28.36300000      39.14300000      23.00200000
 H      29.64700000      38.69300000      23.62500000
 O      22.79900000      31.34500000      21.25600000
 H      23.72300000      31.45500000      21.03200000
 H      22.79000000      31.04300000      22.17500000
 O      31.07100000      29.21800000      23.89600000
 H      31.74200000      28.78600000      23.30500000
 H      30.21500000      28.84300000      23.69500000
 O      12.65200000      28.60100000      25.21700000
 H      13.48900000      28.75600000      24.89000000
 H      12.05100000      29.03800000      24.58900000
 O      34.00200000      35.57400000      32.59400000
 H      33.45400000      35.31200000      31.83200000
 H      34.59400000      34.82000000      32.55500000
 O      27.79100000      32.68800000      21.31500000
 H      28.22300000      32.67300000      22.23600000
 H      27.04000000      33.28400000      21.43000000
 O      22.71200000      39.54600000      29.13000000
 H      22.78300000      40.44300000      28.73600000
 H      22.83400000      39.73800000      30.04900000
 O      27.69000000      38.13800000      32.08200000
 H      27.31400000      38.94600000      32.50400000
 H      27.60400000      38.36900000      31.15300000
 O      21.64500000      37.44900000      27.20000000
 H      21.92300000      37.85400000      26.38200000
 H      21.92600000      38.09500000      27.89000000
 O      22.00500000      37.04200000      35.49900000
 H      21.94700000      36.75900000      34.58500000
 H      21.30200000      36.55500000      35.94500000
 O      10.92600000      34.35900000      26.31200000
 H      10.41400000      33.84100000      26.94100000
 H      11.34500000      33.65700000      25.73000000
 O      36.85700000      29.18300000      22.72200000
 H      37.54700000      28.82200000      22.24100000
 H      36.95000000      28.75200000      23.58000000
 O      30.45400000      32.63800000      34.53500000
 H      31.36000000      32.55000000      34.83200000
 H      30.04100000      33.21200000      35.21400000
 O      32.52500000      35.95700000      23.84600000
 H      33.08300000      36.79100000      24.00700000
 H      31.81100000      36.12300000      24.49300000
 O      13.94800000      28.37600000      22.09100000
 H      14.78000000      27.90000000      22.16600000
 H      13.38200000      27.71400000      21.65400000
 O      34.85100000      29.14700000      25.20500000
 H      35.15700000      29.90800000      25.70500000
 H      35.44000000      28.46100000      25.61300000
 O       7.44300000      35.89400000      35.54900000
 H       7.12200000      35.03600000      35.82800000
 H       7.90300000      35.63100000      34.71400000
 O       9.46600000      36.52800000      26.29800000
 H       9.98200000      35.68900000      26.41000000
 H       8.66000000      36.19200000      26.70800000
 O      39.65700000      28.41000000      34.58100000
 H      39.60300000      27.51900000      35.04300000
 H      38.85500000      28.78500000      35.00800000
 O      18.27600000      37.49400000      34.47600000
 H      18.74900000      36.88900000      35.18200000
 H      18.26500000      38.33400000      34.94900000
 O      26.57000000      32.70800000      39.48100000
 H      26.90400000      33.64900000      39.70200000
 H      27.47600000      32.29700000      39.34600000
 O      15.17900000      30.26200000      37.26700000
 H      14.92600000      29.92200000      36.39100000
 H      15.88100000      30.93300000      37.00700000
 O      27.83100000      34.21900000      32.43900000
 H      28.55500000      34.79500000      32.80400000
 H      27.05300000      34.49900000      32.91000000
 O      14.28200000      40.28000000      33.00500000
 H      14.41200000      39.54800000      33.60500000
 H      13.30700000      40.31000000      32.79500000
 O      32.74600000      30.29100000      20.12300000
 H      33.13500000      30.41700000      21.00500000
 H      33.51000000      30.32600000      19.53400000
 O      15.25200000      39.20800000      27.84800000
 H      15.03500000      40.10900000      28.12700000
 H      16.11100000      39.38500000      27.43600000
 O      13.17900000      40.18600000      24.57300000
 H      12.84500000      40.67600000      23.75800000
 H      12.47900000      40.43300000      25.19400000
 O      25.20800000      30.98000000      23.78700000
 H      24.54100000      31.03700000      24.48400000
 H      24.96400000      30.11500000      23.36600000
 O      39.32300000      34.36400000      31.45500000
 H      40.16500000      34.23800000      30.90300000
 H      39.34700000      33.48900000      31.89600000
 O      10.18900000      27.24100000      40.06200000
 H       9.46200000      26.70300000      39.61600000
 H       9.68900000      27.73700000      40.73400000
 O      10.06000000      39.64700000      23.25100000
 H      10.32700000      38.72700000      23.35600000
 H       9.30600000      39.63000000      23.90100000
 O      25.17200000      27.84100000      32.92200000
 H      24.97800000      28.81100000      32.88100000
 H      25.78000000      27.70000000      32.18600000
 O       6.60000000      39.11200000      31.37300000
 H       7.38600000      38.68900000      30.99700000
 H       6.05900000      38.32200000      31.57400000
 O      15.50600000      28.58300000      25.31300000
 H      15.43200000      28.61000000      26.28800000
 H      15.98000000      27.74600000      25.23900000
 O      19.76000000      35.91000000      28.15400000
 H      20.36300000      35.14500000      28.45700000
 H      20.40300000      36.33900000      27.54700000
 O       9.11500000      30.48000000      27.14200000
 H      10.03100000      30.71700000      27.26500000
 H       8.76800000      30.51100000      28.03400000
 O      21.51700000      33.91100000      28.93400000
 H      21.27600000      33.11300000      29.50200000
 H      21.76300000      33.46700000      28.10100000
 O      24.34300000      33.62500000      24.33900000
 H      24.86200000      32.88000000      24.08000000
 H      24.80100000      33.95300000      25.12400000
 O      29.28000000      39.85000000      26.23300000
 H      29.73400000      40.65500000      26.47400000
 H      29.97500000      39.31500000      25.79000000
 O      38.46000000      38.13900000      37.74600000
 H      39.20700000      37.68300000      38.16100000
 H      37.83500000      37.35500000      37.50100000
 O      19.95300000      38.94500000      31.41900000
 H      19.96900000      38.93800000      30.42200000
 H      19.07700000      38.53800000      31.59600000
 O      33.94100000      27.57500000      29.30500000
 H      33.11800000      27.81600000      29.82200000
 H      33.85500000      26.60100000      29.37900000
 O      20.79100000      27.86100000      40.47900000
 H      20.26400000      27.65100000      39.67400000
 H      21.45900000      28.42300000      40.05800000
 O      28.57600000      28.37700000      29.46800000
 H      29.03100000      27.48200000      29.45100000
 H      27.63300000      28.00400000      29.36800000
 O      23.05900000      30.46700000      25.44900000
 H      23.69400000      30.74900000      26.15000000
 H      22.74500000      29.63800000      25.95900000
 O      33.35300000      27.11200000      23.80900000
 H      33.78000000      27.10500000      22.90400000
 H      33.86400000      27.86500000      24.16300000
 O       9.00300000      37.32400000      37.98500000
 H       9.87400000      37.09200000      37.69400000
 H       8.42600000      36.90900000      37.35100000
 O      27.40300000      39.68300000      37.83500000
 H      27.84200000      38.80100000      37.64000000
 H      28.16100000      40.08300000      38.34500000
 O      17.54100000      32.73700000      29.53700000
 H      18.09700000      31.94000000      29.67000000
 H      17.10600000      32.43100000      28.65600000
 O       8.26000000      28.97500000      33.43600000
 H       9.11700000      28.58600000      33.52800000
 H       7.71500000      28.36300000      33.96400000
 O      16.83000000      29.52000000      30.68600000
 H      17.67900000      29.90300000      30.41900000
 H      17.10800000      28.67800000      31.12800000
 O      15.36000000      32.04100000      21.11200000
 H      14.93300000      32.91500000      21.50300000
 H      15.94400000      31.87700000      21.89600000
 O      28.91600000      36.65600000      28.34800000
 H      28.25200000      37.10400000      28.80600000
 H      28.70100000      35.68000000      28.58400000
 O      11.84200000      28.80400000      28.24000000
 H      12.36400000      28.95000000      27.38100000
 H      11.84800000      29.77300000      28.51600000
 O      25.71100000      36.15400000      26.01000000
 H      26.58500000      36.47900000      26.15600000
 H      25.26100000      36.95800000      25.80000000
 O      19.30200000      30.74900000      37.97500000
 H      20.06900000      30.14300000      37.87500000
 H      19.45000000      31.20700000      38.81900000
 O      14.24200000      32.67700000      27.83500000
 H      14.46900000      33.59400000      27.56400000
 H      14.46800000      32.24900000      26.96800000
 O      31.69300000      28.09800000      30.35000000
 H      30.82000000      28.54500000      30.18900000
 H      31.31900000      27.15600000      30.30700000
 O      40.18700000      40.61900000      24.28200000
 H      40.07300000      39.71400000      24.68100000
 H      41.12800000      40.76200000      24.60400000
 O      36.34900000      34.07200000      26.40900000
 H      37.22200000      34.33200000      26.71100000
 H      36.51500000      34.11800000      25.43100000
 O      35.03600000      27.61800000      21.23600000
 H      35.46700000      28.34700000      21.75500000
 H      35.54000000      27.72900000      20.40100000
 O      29.82600000      39.93600000      39.32000000
 H      29.99700000      40.73200000      38.82300000
 H      30.16700000      40.24200000      40.23300000
 O      31.42300000      29.01100000      37.23200000
 H      31.99100000      29.40500000      36.48400000
 H      31.00000000      28.28700000      36.71600000
 O      31.15300000      38.66900000      32.32400000
 H      31.61100000      38.03800000      32.83200000
 H      31.58400000      39.50100000      32.65100000
 O      11.34900000      29.27900000      38.94100000
 H      12.18800000      28.85900000      38.75700000
 H      10.85200000      28.47900000      39.29600000
 O      28.75000000      33.13000000      23.72200000
 H      29.65300000      32.78200000      23.60000000
 H      28.90400000      34.09400000      23.69600000
 O      25.53300000      27.90200000      39.47000000
 H      26.33400000      28.37100000      39.04300000
 H      25.78100000      28.02400000      40.39300000
 O      39.69800000      32.19500000      26.08300000
 H      39.28600000      33.01600000      26.42500000
 H      40.35200000      32.68600000      25.46800000
 O      21.39700000      29.15100000      37.24200000
 H      20.89500000      28.30800000      37.30300000
 H      21.80400000      29.09100000      38.12000000
 O       8.73700000      35.41900000      33.37500000
 H       8.44800000      35.78300000      32.53800000
 H       9.65100000      35.73400000      33.47400000
 O      15.68700000      28.32600000      27.85500000
 H      15.01300000      27.59700000      28.17900000
 H      15.78600000      28.82000000      28.68500000
 O      11.52900000      34.73700000      23.17600000
 H      11.84600000      34.38400000      22.30800000
 H      11.55700000      33.91100000      23.71700000
 O      37.07200000      33.96300000      23.80400000
 H      37.12700000      34.62300000      23.11500000
 H      37.84900000      33.45000000      23.52300000
 O      10.29800000      40.64300000      38.11600000
 H       9.52500000      40.24600000      37.73900000
 H       9.92200000      41.42000000      38.53000000
 O      11.55100000      38.05800000      31.17200000
 H      11.27100000      38.90900000      31.64800000
 H      11.96700000      38.44100000      30.36100000
 O      15.81000000      40.44300000      38.54800000
 H      14.94500000      40.94400000      38.52500000
 H      15.76700000      40.11400000      37.58100000
 O      16.95300000      37.04900000      24.81000000
 H      16.98200000      36.26400000      24.21000000
 H      16.49600000      37.69800000      24.23900000
 O      14.78500000      37.06400000      29.85000000
 H      14.45900000      37.56400000      29.11000000
 H      15.60100000      37.51500000      30.07100000
 O      20.87700000      33.13900000      36.44100000
 H      20.39600000      32.50300000      36.99000000
 H      21.75700000      33.14900000      36.77800000
 O      37.56500000      27.90600000      25.06900000
 H      38.33800000      28.48000000      25.29400000
 H      37.21100000      27.79700000      26.01100000
 O      37.85700000      37.26000000      26.47900000
 H      37.68000000      37.48300000      27.43800000
 H      36.94800000      36.84400000      26.26800000
 O      18.75200000      35.90500000      38.74200000
 H      18.46000000      36.78700000      38.91700000
 H      18.58900000      35.42800000      39.58000000
 O      10.96600000      33.52500000      33.23400000
 H      11.66300000      34.19000000      33.07200000
 H      10.22900000      33.81000000      32.68400000
 O      34.74700000      27.35400000      36.94500000
 H      34.87300000      28.29200000      36.86500000
 H      34.08300000      27.28500000      37.64600000
 O      15.00500000      35.18400000      26.69200000
 H      15.80500000      35.66700000      27.03800000
 H      14.95100000      35.49900000      25.80700000
 O      20.72000000      32.63600000      31.44200000
 H      21.65300000      32.44500000      31.52900000
 H      20.72500000      33.52400000      31.93600000
 O      33.66000000      37.94500000      33.65500000
 H      34.30200000      38.57600000      33.32600000
 H      34.00500000      37.11200000      33.28400000
 O      33.63900000      39.23500000      37.67300000
 H      33.31000000      40.17600000      37.66500000
 H      34.56000000      39.43800000      37.35200000
 O      33.75500000      33.63100000      22.93400000
 H      33.22100000      34.31200000      23.38200000
 H      34.59800000      33.77600000      23.35600000
 O      29.06200000      31.70000000      39.37500000
 H      29.98700000      31.56600000      39.17300000
 H      29.11000000      31.88600000      40.34700000
 O      15.58100000      36.96000000      37.10300000
 H      16.18000000      36.18200000      36.94900000
 H      14.81100000      36.52600000      37.41700000
 O      38.16100000      40.46500000      22.50600000
 H      38.90200000      40.63300000      23.14400000
 H      38.50100000      40.92100000      21.71400000
 O      16.44800000      32.78000000      32.01600000
 H      16.90900000      32.75800000      31.13500000
 H      15.56300000      32.44200000      31.68600000
 O      11.87600000      32.32400000      24.76300000
 H      12.45900000      31.84100000      24.10400000
 H      11.56000000      31.54700000      25.28400000
 O      14.15400000      32.35800000      30.65500000
 H      14.15100000      32.53200000      29.64500000
 H      14.02300000      33.31600000      30.90200000
 O      24.59200000      31.58300000      29.79500000
 H      24.76000000      31.40200000      28.80700000
 H      23.62500000      31.56200000      29.81500000
 O       9.63600000      33.79900000      28.83200000
 H      10.07400000      34.33900000      29.52000000
 H       8.74100000      33.75700000      29.28500000
 O      25.08200000      36.58000000      37.17100000
 H      24.18300000      36.71200000      37.56100000
 H      25.29300000      37.56000000      37.22300000
 O      24.67800000      27.95100000      35.92400000
 H      25.61600000      27.77200000      35.64900000
 H      24.67400000      27.34200000      36.69300000
 O      18.17800000      35.16600000      30.63300000
 H      18.68400000      35.42800000      29.81400000
 H      17.64800000      34.44000000      30.29300000
 O      25.42000000      32.19400000      36.18200000
 H      26.37700000      31.93800000      36.07900000
 H      24.99900000      31.50600000      35.63100000
 O      30.54000000      34.47100000      37.90500000
 H      29.64800000      34.10200000      37.70900000
 H      30.62700000      35.04200000      37.10400000
 O      11.79400000      40.46000000      32.08200000
 H      11.36800000      41.28800000      32.25700000
 H      11.87400000      40.50000000      31.10500000
 O      24.45200000      38.39700000      25.17900000
 H      23.59300000      38.80400000      24.99000000
 H      24.94300000      39.27900000      25.30700000
 O      12.50100000      28.60700000      32.71200000
 H      11.82000000      29.31900000      32.77700000
 H      13.29800000      29.08400000      32.43700000
 O      17.52200000      31.85100000      36.04000000
 H      18.15600000      31.35800000      36.67300000
 H      18.09500000      31.96200000      35.28300000
 O      22.52000000      33.70100000      34.50200000
 H      22.72800000      32.81800000      34.09000000
 H      21.75000000      33.48300000      35.00900000
 O      31.35400000      36.39900000      26.49400000
 H      30.62800000      36.39100000      27.11900000
 H      32.01100000      35.84300000      26.98600000
 O      32.20300000      37.14700000      38.79100000
 H      32.50500000      37.88600000      38.24800000
 H      33.05500000      36.80800000      39.12900000
 O      25.19100000      37.85900000      33.28800000
 H      24.81800000      36.95500000      33.33500000
 H      25.83700000      37.68500000      32.54400000
 O      29.44900000      28.85200000      33.79000000
 H      28.93200000      29.03300000      32.93300000
 H      30.24400000      29.35000000      33.63000000
 O      19.02700000      38.49100000      28.93100000
 H      18.80600000      37.60600000      28.76300000
 H      18.47000000      39.01600000      28.25500000
 O      13.65800000      37.87900000      34.92200000
 H      14.24500000      37.29900000      34.48900000
 H      14.26200000      38.38200000      35.46500000
 O      38.91100000      32.56600000      22.51700000
 H      39.56000000      32.86400000      21.84200000
 H      39.44700000      31.79500000      22.83100000
 O      15.11700000      34.53000000      22.15200000
 H      14.83600000      34.94800000      22.98100000
 H      16.03900000      34.51000000      22.26300000
 O      40.78100000      40.08500000      37.22600000
 H      41.36500000      40.32200000      37.95200000
 H      39.95500000      39.81400000      37.63400000
 O      38.28300000      35.75600000      21.83700000
 H      37.81300000      35.52300000      20.96600000
 H      39.12200000      36.04100000      21.52600000
 O      31.69500000      30.87200000      39.06900000
 H      32.19800000      31.49100000      38.50400000
 H      31.54600000      30.16500000      38.39200000
 O      39.77000000      36.51900000      39.47000000
 H      39.83100000      37.36200000      39.96900000
 H      39.70600000      35.90100000      40.29600000
 O       7.14000000      33.41500000      29.74400000
 H       7.20600000      32.37400000      29.88000000
 H       6.40500000      33.52200000      30.40800000
 O      33.58400000      30.61600000      22.76800000
 H      34.18500000      31.38500000      22.88700000
 H      33.92000000      29.95200000      23.37300000
 O      39.46500000      31.02300000      30.78000000
 H      40.03400000      31.31000000      29.97300000
 H      40.06300000      30.34800000      31.12400000
 O      38.21000000      33.10400000      36.66300000
 H      38.87600000      33.81000000      36.79600000
 H      37.90600000      33.33000000      35.76800000
 O      11.27200000      30.84700000      36.58900000
 H      11.72200000      30.56100000      37.40400000
 H      11.12600000      29.94700000      36.15300000
 O      28.03100000      30.08400000      31.48900000
 H      28.22100000      29.77900000      30.60500000
 H      28.52100000      30.95900000      31.52500000
 O      37.43800000      29.47600000      35.98600000
 H      37.27200000      29.99100000      36.82700000
 H      36.70600000      29.82700000      35.47000000
 O      35.59200000      30.27200000      37.74200000
 H      35.22200000      31.13900000      37.51100000
 H      36.03100000      30.50300000      38.59800000
 O      12.94700000      32.27800000      34.81100000
 H      12.39300000      31.49900000      35.14500000
 H      12.25400000      32.85300000      34.45900000
 O      36.88600000      38.07500000      22.97700000
 H      37.47700000      38.79500000      22.77600000
 H      37.32800000      37.30200000      22.64200000
 O      24.18500000      31.42500000      40.02700000
 H      25.12800000      31.80100000      40.12100000
 H      23.84300000      32.02500000      39.31700000
 O      24.61400000      28.05800000      22.91200000
 H      24.64400000      27.14500000      23.04000000
 H      24.40700000      28.14800000      21.94200000
 O      11.96000000      38.72900000      39.73100000
 H      11.43900000      37.94800000      39.59200000
 H      11.58300000      39.41000000      39.19800000
 O      27.39800000      39.91800000      24.09300000
 H      28.06600000      40.03200000      24.77300000
 H      26.66800000      40.50100000      24.42900000
 O      19.44800000      38.87200000      24.65900000
 H      18.82200000      39.27600000      24.03300000
 H      19.46500000      37.94800000      24.36000000
 O      10.18000000      37.00700000      23.74100000
 H       9.94300000      36.88200000      24.67800000
 H      10.67900000      36.17300000      23.50300000
 O      17.22200000      36.60200000      27.37600000
 H      17.28900000      36.77200000      26.39300000
 H      18.07900000      36.28700000      27.59600000
 O      37.79000000      31.64500000      38.99500000
 H      37.55300000      32.36300000      39.60700000
 H      38.10600000      32.10800000      38.21100000
 O      11.01700000      28.25400000      35.87700000
 H      10.80900000      27.49000000      35.39600000
 H      11.70500000      27.91500000      36.51000000
 O      23.10400000      39.27900000      31.98100000
 H      22.33500000      38.69500000      32.06300000
 H      23.76700000      38.77800000      32.37800000
 O      13.61700000      34.98000000      31.23200000
 H      13.98300000      35.47800000      30.44400000
 H      13.85700000      35.58100000      31.95700000
 O      18.73800000      39.93500000      35.93100000
 H      19.10600000      40.28200000      35.09400000
 H      19.35000000      40.39700000      36.54200000
 O      11.81300000      31.80400000      27.77600000
 H      11.19400000      32.30800000      28.30400000
 H      12.63200000      32.27500000      27.80100000
 O      33.74500000      29.87600000      28.21600000
 H      33.07900000      29.52400000      27.56300000
 H      33.79800000      29.00600000      28.68400000
 O      31.17400000      38.46800000      24.82400000
 H      31.28300000      37.73200000      25.52900000
 H      32.09200000      38.58000000      24.49700000
 O      24.08000000      33.53600000      38.15400000
 H      24.28500000      33.22600000      37.22800000
 H      24.92300000      34.10300000      38.22100000
 O      12.44300000      33.00400000      21.18000000
 H      12.42900000      33.50600000      20.32000000
 H      13.02800000      32.28300000      20.98800000
 O      14.00400000      27.60600000      34.84600000
 H      13.56000000      27.76300000      33.91300000
 H      14.38100000      28.60400000      34.83600000
 O      25.80800000      36.23600000      23.18200000
 H      25.29400000      35.42500000      23.07900000
 H      26.06300000      36.18700000      24.13200000
 O      10.82800000      33.50400000      37.03800000
 H      10.99700000      32.59000000      36.78400000
 H      10.04100000      33.33500000      37.63100000
 O      31.22700000      32.04700000      23.43400000
 H      32.07900000      32.52700000      23.16000000
 H      31.63000000      31.14300000      23.59700000
