459
XYZ file of cluster: frame_8000_4a972.c6f91.c5c88 - created by MolEdiTo
 O      29.69500000      40.43900000      34.78800000
 H      30.02400000      39.54200000      34.71900000
 H      30.37500000      40.93500000      34.27100000
 O      13.65800000      37.87900000      34.92200000
 H      14.24500000      37.29900000      34.48900000
 H      14.26200000      38.38200000      35.46500000
 O      18.27600000      37.49400000      34.47600000
 H      18.74900000      36.88900000      35.18200000
 H      18.26500000      38.33400000      34.94900000
 O      14.93500000      37.14300000      40.42700000
 H      15.60700000      36.63400000      39.94700000
 H      14.15800000      37.02100000      39.87900000
 O      19.80100000      35.61200000      35.98500000
 H      19.29500000      35.74000000      36.86400000
 H      20.25800000      34.73600000      36.23800000
 O      24.05700000      39.03800000      35.58500000
 H      24.63900000      38.66400000      34.92700000
 H      23.25800000      38.47800000      35.45500000
 O      16.26900000      35.03300000      39.52300000
 H      15.50500000      34.67700000      39.14400000
 H      16.80600000      35.01100000      38.68400000
 O      40.78100000      40.08500000      37.22600000
 H      41.36500000      40.32200000      37.95200000
 H      39.95500000      39.81400000      37.63400000
 O      31.06600000      35.82300000      35.47800000
 H      31.34900000      36.69400000      35.87500000
 H      30.38200000      36.21400000      34.84000000
 O      27.40300000      39.68300000      37.83500000
 H      27.84200000      38.80100000      37.64000000
 H      28.16100000      40.08300000      38.34500000
 O      25.08200000      36.58000000      37.17100000
 H      24.18300000      36.71200000      37.56100000
 H      25.29300000      37.56000000      37.22300000
 O      35.13200000      37.38900000      39.73300000
 H      35.92400000      37.81900000      40.20100000
 H      35.13300000      37.97200000      38.94000000
 O      36.37200000      39.83800000      36.61800000
 H      37.00300000      39.15700000      36.86700000
 H      36.52500000      40.56100000      37.33000000
 O      29.24000000      37.01000000      38.58600000
 H      30.01800000      36.41800000      38.55100000
 H      29.59600000      37.84900000      38.99200000
 O      30.54000000      34.47100000      37.90500000
 H      29.64800000      34.10200000      37.70900000
 H      30.62700000      35.04200000      37.10400000
 O      18.73800000      39.93500000      35.93100000
 H      19.10600000      40.28200000      35.09400000
 H      19.35000000      40.39700000      36.54200000
 O      15.81000000      40.44300000      38.54800000
 H      14.94500000      40.94400000      38.52500000
 H      15.76700000      40.11400000      37.58100000
 O      39.77000000      36.51900000      39.47000000
 H      39.83100000      37.36200000      39.96900000
 H      39.70600000      35.90100000      40.29600000
 O      17.18500000      38.09600000      38.89000000
 H      16.59200000      38.91100000      38.91700000
 H      16.64200000      37.65400000      38.23800000
 O      27.07100000      35.26000000      38.80100000
 H      27.84500000      35.84000000      38.84100000
 H      26.36700000      35.89000000      38.45600000
 O      26.70000000      35.28100000      35.22800000
 H      26.03200000      34.73900000      34.81600000
 H      26.19500000      35.70800000      35.95100000
 O      18.75200000      35.90500000      38.74200000
 H      18.46000000      36.78700000      38.91700000
 H      18.58900000      35.42800000      39.58000000
 O      35.56700000      36.15700000      36.75600000
 H      35.82400000      35.39200000      37.25400000
 H      34.70700000      35.83700000      36.34400000
 O      16.04400000      39.98700000      35.82500000
 H      16.95000000      39.89100000      36.11500000
 H      16.11200000      40.58300000      35.07100000
 O      35.92900000      39.80000000      33.76500000
 H      35.81100000      39.89900000      34.77100000
 H      36.90700000      39.69800000      33.78700000
 O      40.24300000      38.87200000      40.52600000
 H      40.59000000      39.74500000      40.39200000
 H      40.95800000      38.48100000      41.08800000
 O      34.58500000      34.57100000      39.39300000
 H      34.52000000      35.54100000      39.48600000
 H      33.78000000      34.35100000      39.94700000
 O      31.91700000      38.36500000      35.68300000
 H      32.44900000      38.52400000      36.48100000
 H      32.57900000      38.24800000      34.98200000
 O      22.00500000      37.04200000      35.49900000
 H      21.94700000      36.75900000      34.58500000
 H      21.30200000      36.55500000      35.94500000
 O      33.29800000      34.42800000      35.59700000
 H      32.69700000      35.21100000      35.51900000
 H      33.60800000      34.37700000      34.67500000
 O      33.63900000      39.23500000      37.67300000
 H      33.31000000      40.17600000      37.66500000
 H      34.56000000      39.43800000      37.35200000
 O      24.72200000      39.81200000      38.25700000
 H      25.68000000      39.72500000      38.32900000
 H      24.67900000      39.89700000      37.27700000
 O      15.58100000      36.96000000      37.10300000
 H      16.18000000      36.18200000      36.94900000
 H      14.81100000      36.52600000      37.41700000
 O      38.46000000      38.13900000      37.74600000
 H      39.20700000      37.68300000      38.16100000
 H      37.83500000      37.35500000      37.50100000
 O      32.20300000      37.14700000      38.79100000
 H      32.50500000      37.88600000      38.24800000
 H      33.05500000      36.80800000      39.12900000
 O      29.82600000      39.93600000      39.32000000
 H      29.99700000      40.73200000      38.82300000
 H      30.16700000      40.24200000      40.23300000
 O      38.16700000      35.37700000      43.40400000
 H      37.61600000      35.88100000      44.05300000
 H      37.48200000      34.76200000      43.08100000
 O      15.75500000      40.49900000      44.36900000
 H      15.28500000      41.37800000      44.42700000
 H      15.01100000      39.94100000      44.04900000
 O      13.47100000      39.40000000      47.35300000
 H      12.75400000      38.98800000      47.86300000
 H      13.98400000      38.57000000      47.09200000
 O      30.92800000      39.92300000      45.61000000
 H      31.55600000      39.59900000      46.27600000
 H      30.45500000      39.11000000      45.39600000
 O      34.92600000      38.03600000      48.98900000
 H      35.54300000      38.65500000      48.57600000
 H      35.12600000      38.21000000      49.93300000
 O      21.86800000      38.09600000      45.42700000
 H      21.48400000      38.93800000      45.81100000
 H      21.07500000      37.63700000      45.20900000
 O      20.06600000      40.07800000      43.53600000
 H      19.24400000      40.41800000      43.15200000
 H      19.84700000      39.23300000      43.88000000
 O      19.50900000      36.63100000      44.23900000
 H      18.81500000      37.35400000      44.01900000
 H      19.07400000      35.85300000      43.90800000
 O      28.76100000      34.30000000      48.60300000
 H      29.04700000      34.00800000      49.49900000
 H      28.97900000      35.27100000      48.68300000
 O      27.59300000      35.49800000      44.05400000
 H      26.83600000      35.85600000      43.63800000
 H      27.21500000      35.51600000      45.01000000
 O      30.81400000      37.33100000      42.86200000
 H      31.24700000      37.05500000      42.01400000
 H      30.34200000      36.54100000      43.13300000
 O      21.82100000      35.86300000      42.66600000
 H      21.18100000      36.07300000      43.36600000
 H      22.29200000      36.70600000      42.57200000
 O      31.11300000      36.76800000      46.26000000
 H      31.62600000      37.42900000      46.74100000
 H      31.48800000      35.91300000      46.60500000
 O      28.73100000      38.37100000      44.72200000
 H      28.26600000      37.91500000      44.01700000
 H      29.55900000      37.85600000      44.78900000
 O      35.49400000      35.44500000      48.12900000
 H      35.87700000      35.27700000      49.02200000
 H      35.27300000      36.42000000      48.32600000
 O      24.99200000      36.09600000      43.18300000
 H      24.33700000      36.81100000      43.30100000
 H      24.52200000      35.53300000      42.54100000
 O      27.02500000      35.69700000      46.63100000
 H      26.47100000      36.22700000      47.20200000
 H      27.81100000      35.60700000      47.17300000
 O      32.34400000      38.59900000      47.74000000
 H      33.14200000      38.19200000      48.13800000
 H      32.16100000      39.29700000      48.37400000
 O      14.84400000      37.11300000      46.60400000
 H      15.38300000      36.71900000      45.86300000
 H      14.16100000      36.39200000      46.62200000
 O      35.82500000      35.90500000      45.32200000
 H      34.87100000      35.82600000      45.00000000
 H      35.63300000      35.53400000      46.21400000
 O      19.61800000      39.14400000      46.53600000
 H      18.72200000      39.57300000      46.60900000
 H      20.17400000      39.82400000      46.89600000
 O      36.06700000      40.12500000      46.80300000
 H      35.76900000      40.47700000      45.90200000
 H      36.03700000      40.97400000      47.32700000
 O      13.61300000      38.90900000      43.59400000
 H      14.22500000      38.23900000      43.14700000
 H      12.93100000      39.01000000      42.89300000
 O      29.20700000      36.95300000      48.72400000
 H      29.37300000      37.67100000      48.13600000
 H      29.01800000      37.44800000      49.56400000
 O      29.95700000      34.73900000      43.34300000
 H      30.22800000      34.27500000      44.12200000
 H      29.01800000      34.96000000      43.52300000
 O      38.94600000      40.65100000      45.18900000
 H      38.61600000      39.74500000      44.92300000
 H      39.84400000      40.41300000      45.53100000
 O      22.88700000      37.08000000      47.91200000
 H      22.77700000      36.11900000      47.82200000
 H      22.74400000      37.40100000      47.02700000
 O      40.62400000      35.20400000      44.22100000
 H      39.65000000      35.08000000      43.94200000
 H      40.42600000      35.07600000      45.17900000
 O      37.27600000      38.36300000      42.71000000
 H      37.70700000      38.19700000      43.57800000
 H      38.07500000      38.52500000      42.12900000
 O      19.47100000      36.88200000      48.50000000
 H      19.90000000      36.02600000      48.12700000
 H      19.80100000      37.50900000      47.88200000
 O      33.04300000      35.76800000      44.52200000
 H      32.59800000      36.40500000      45.07700000
 H      32.33400000      35.42800000      43.96800000
 O      32.68200000      34.70900000      47.42700000
 H      33.61800000      35.01600000      47.54500000
 H      32.54900000      34.36400000      48.37800000
 O      23.30400000      39.66700000      48.79800000
 H      23.31800000      38.67600000      48.52200000
 H      22.79000000      39.56200000      49.65400000
 O      32.69800000      39.50700000      43.25600000
 H      33.40500000      38.83800000      43.02700000
 H      31.93900000      38.88700000      43.21500000
 O      40.44300000      35.77500000      47.08500000
 H      39.66600000      35.77100000      47.67700000
 H      40.74300000      36.66300000      47.20800000
 O      17.58200000      38.27100000      43.14000000
 H      16.71800000      38.54200000      43.42000000
 H      17.50800000      38.26200000      42.12300000
 O      23.75500000      34.53100000      48.01400000
 H      24.68300000      34.53600000      47.59700000
 H      23.37000000      33.75700000      47.53900000
 O      37.56800000      37.91300000      45.33300000
 H      36.91000000      37.19500000      45.44400000
 H      37.16800000      38.51700000      46.03400000
 O      20.70000000      35.18600000      46.80100000
 H      21.33800000      34.46900000      46.65400000
 H      20.35600000      35.41300000      45.94700000
 O      16.74900000      37.21100000      49.02600000
 H      16.46300000      37.35900000      48.08700000
 H      17.67600000      36.99100000      48.85200000
 O      23.33800000      38.24000000      43.30000000
 H      23.30700000      39.15400000      43.05200000
 H      22.81700000      38.23400000      44.14300000
 O      38.40900000      39.62300000      48.63000000
 H      37.85400000      39.54300000      49.45800000
 H      37.72400000      39.97800000      48.05500000
 O      15.63900000      35.59200000      44.41100000
 H      15.33500000      36.13600000      43.60500000
 H      14.80600000      35.06800000      44.59600000
 O      24.33700000      44.52300000      39.60800000
 H      25.05600000      45.11300000      39.94500000
 H      24.48500000      44.71200000      38.63900000
 O      17.20800000      47.45400000      36.18900000
 H      17.60500000      46.99700000      35.42400000
 H      17.07900000      46.74900000      36.85500000
 O      27.59900000      43.47400000      39.99900000
 H      26.87800000      42.92900000      39.54900000
 H      27.06700000      44.10200000      40.55400000
 O      29.78200000      43.83800000      38.04500000
 H      30.15800000      44.68800000      38.37100000
 H      28.98500000      43.78600000      38.57300000
 O      27.22100000      42.87800000      35.59400000
 H      27.24100000      42.34400000      36.37000000
 H      28.07000000      42.66100000      35.15700000
 O      21.76600000      46.05200000      36.33000000
 H      21.67500000      46.91600000      35.97400000
 H      21.07800000      45.54800000      35.88700000
 O      40.65700000      48.89200000      40.13200000
 H      40.92600000      48.07400000      40.60300000
 H      41.19200000      49.59200000      40.48100000
 O      19.90200000      44.37700000      35.24900000
 H      19.26400000      44.86700000      34.74500000
 H      20.04000000      43.59700000      34.67300000
 O      18.36300000      44.63800000      37.29400000
 H      18.82200000      44.22300000      38.01200000
 H      18.96600000      44.37300000      36.51400000
 O      36.93000000      43.03600000      38.41500000
 H      36.17900000      43.63600000      38.51600000
 H      37.43900000      43.22200000      39.25900000
 O      31.86700000      47.41300000      36.41600000
 H      32.58400000      46.80900000      36.68000000
 H      31.29700000      46.78800000      35.94900000
 O      40.26500000      44.86100000      38.49000000
 H      39.87000000      44.80400000      37.62200000
 H      39.50400000      45.18600000      39.06500000
 O      21.47900000      48.57700000      38.02700000
 H      21.29900000      47.57700000      37.91500000
 H      22.34300000      48.74200000      37.63200000
 O      21.96100000      45.85100000      40.33200000
 H      21.31100000      45.19300000      40.68000000
 H      22.76300000      45.34200000      40.19700000
 O      28.57100000      47.00600000      37.69300000
 H      28.04800000      46.24200000      37.50100000
 H      28.17500000      47.32700000      38.51800000
 O      24.96800000      47.58300000      35.12600000
 H      25.13300000      46.62500000      34.88800000
 H      25.93000000      47.85400000      35.16500000
 O      38.86900000      45.82800000      40.50800000
 H      38.04500000      46.32100000      40.55800000
 H      39.39600000      46.28500000      41.19700000
 O      31.24300000      45.93200000      38.87200000
 H      30.62200000      46.62300000      38.64700000
 H      31.94500000      46.46000000      39.28900000
 O      33.89800000      45.64500000      36.57300000
 H      34.77300000      45.71900000      37.02900000
 H      34.18800000      45.25700000      35.77000000
 O      33.34800000      48.11300000      39.83700000
 H      33.08600000      49.03100000      40.04400000
 H      33.91900000      48.22700000      39.04000000
 O      14.74600000      46.46800000      35.22700000
 H      15.26000000      46.07500000      35.94900000
 H      13.90900000      45.89500000      35.34000000
 O      35.44400000      45.06000000      39.15500000
 H      35.28200000      45.02700000      40.09100000
 H      35.21300000      46.00600000      38.95800000
 O      26.44100000      46.19100000      40.49700000
 H      27.17700000      46.87700000      40.26900000
 H      26.20100000      46.57900000      41.33800000
 O      15.73300000      45.15800000      37.38000000
 H      16.68900000      44.87900000      37.42800000
 H      15.27900000      44.36900000      37.67500000
 O      23.24900000      48.55700000      40.71400000
 H      23.51300000      48.67600000      39.80800000
 H      22.90400000      47.66200000      40.74000000
 O      24.47500000      48.06400000      37.98000000
 H      24.57400000      47.02100000      38.03300000
 H      24.57000000      48.03400000      36.96900000
 O      32.71600000      43.09900000      37.16900000
 H      32.98000000      43.95300000      36.85900000
 H      31.98900000      43.29200000      37.79000000
 O      15.13100000      46.28100000      39.84200000
 H      15.42300000      46.27500000      38.92900000
 H      14.50200000      47.01000000      39.80400000
 O      17.73100000      42.82300000      40.76300000
 H      17.09600000      42.72600000      41.52900000
 H      17.21600000      42.41800000      40.02600000
 O      20.52000000      42.40700000      38.12800000
 H      21.47700000      42.49100000      38.20900000
 H      20.17400000      42.25700000      39.01200000
 O      19.67000000      47.69600000      40.18000000
 H      20.20100000      48.06700000      39.41600000
 H      20.06200000      46.83800000      40.28600000
 O      39.86500000      42.68100000      34.83300000
 H      39.49800000      43.48100000      35.33900000
 H      39.91400000      42.06600000      35.56900000
 O      37.18700000      46.83800000      36.84000000
 H      36.43200000      47.45400000      37.12600000
 H      37.92100000      47.42400000      37.07100000
 O      24.33500000      45.35500000      37.10300000
 H      23.36900000      45.50500000      36.77100000
 H      24.64400000      44.87600000      36.26400000
 O      38.54600000      44.37000000      36.40900000
 H      38.44600000      45.28000000      36.18100000
 H      37.84600000      44.12300000      37.01500000
 O      30.85400000      44.84600000      35.56500000
 H      31.33800000      43.98000000      35.59900000
 H      30.02500000      44.59000000      36.04500000
 O      25.60300000      44.82500000      34.68200000
 H      26.40900000      45.24100000      34.27000000
 H      26.00900000      43.97100000      34.99600000
 O      22.72000000      42.39300000      40.01900000
 H      23.27400000      43.19400000      39.89700000
 H      23.23100000      41.73500000      39.50900000
 O      19.69500000      44.60000000      42.71400000
 H      19.14200000      43.80700000      42.60800000
 H      19.73100000      44.65300000      43.68300000
 O      33.31100000      48.32100000      45.48000000
 H      34.08000000      48.74400000      45.83700000
 H      33.60000000      47.36600000      45.62400000
 O      21.04100000      47.13200000      46.43000000
 H      20.09500000      47.03900000      46.20300000
 H      21.44300000      47.18300000      45.56600000
 O      28.44700000      42.37600000      49.16500000
 H      28.41000000      43.12600000      48.51000000
 H      27.49600000      42.09200000      49.13600000
 O      25.88600000      44.25700000      44.82900000
 H      26.40100000      43.43800000      44.98500000
 H      26.41900000      44.93400000      45.35300000
 O      15.55400000      47.07600000      46.51400000
 H      14.92200000      46.33800000      46.74000000
 H      14.97100000      47.85000000      46.32500000
 O      23.72700000      44.38100000      46.20500000
 H      22.96900000      43.99300000      45.64500000
 H      24.49700000      44.05800000      45.69300000
 O      30.84800000      42.91900000      43.43000000
 H      31.57900000      42.29800000      43.51600000
 H      30.35200000      42.69200000      44.24900000
 O      31.82200000      44.88200000      47.27100000
 H      32.43200000      45.14800000      46.59100000
 H      32.49600000      44.67600000      48.03000000
 O      39.23400000      46.46800000      45.32600000
 H      38.95300000      47.40600000      45.31100000
 H      40.12100000      46.44100000      45.50300000
 O      19.46700000      44.20900000      45.68700000
 H      19.11100000      45.06900000      46.10500000
 H      18.75400000      43.62900000      45.89900000
 O      13.57000000      45.02200000      46.41000000
 H      13.05100000      45.79500000      46.21000000
 H      13.94500000      44.75500000      45.53700000
 O      37.80000000      43.60400000      42.82000000
 H      38.22000000      44.41100000      42.48700000
 H      38.28800000      43.36300000      43.60100000
 O      18.32300000      46.90500000      45.83600000
 H      17.49100000      46.95400000      46.30400000
 H      17.95400000      46.49900000      44.96300000
 O      27.19500000      46.11000000      46.21600000
 H      27.80600000      46.75500000      45.73100000
 H      27.49900000      46.24000000      47.13300000
 O      24.46100000      47.05800000      46.07500000
 H      25.43200000      46.99600000      46.05400000
 H      24.31000000      46.11300000      46.21700000
 O      17.43400000      42.37300000      46.48600000
 H      16.88500000      42.08200000      45.74400000
 H      16.74600000      42.68900000      47.09900000
 O      36.60500000      43.90700000      48.52900000
 H      37.04800000      44.38200000      49.22600000
 H      37.18200000      44.06800000      47.77500000
 O      15.19900000      43.15900000      47.89300000
 H      14.43500000      42.51600000      47.71500000
 H      14.84200000      43.93400000      47.42500000
 O      28.21500000      42.64900000      44.70300000
 H      28.68900000      43.04400000      43.96600000
 H      28.33500000      41.69300000      44.60400000
 O      32.65900000      44.85500000      42.89700000
 H      31.87400000      44.31400000      43.20800000
 H      32.26200000      45.11100000      42.05700000
 O      21.99400000      43.31000000      44.56900000
 H      21.79100000      42.78500000      43.76000000
 H      21.09200000      43.42000000      44.97700000
 O      23.00300000      48.78400000      47.75800000
 H      23.49700000      48.18700000      47.18600000
 H      22.14200000      48.65200000      47.36200000
 O      36.33800000      47.42900000      46.73400000
 H      36.64900000      46.61000000      46.43700000
 H      36.79600000      48.09300000      46.28400000
 O      38.03000000      44.19300000      46.34700000
 H      38.32900000      43.44000000      45.78400000
 H      38.58600000      44.91800000      45.94500000
 O      31.32300000      42.30600000      48.98900000
 H      30.32700000      42.43700000      48.96200000
 H      31.58500000      42.99300000      48.34600000
 O      16.46800000      47.57900000      49.55500000
 H      16.60700000      47.62400000      48.59500000
 H      16.92300000      46.71300000      49.71300000
 O      35.47100000      42.88400000      44.64800000
 H      34.73800000      42.58600000      44.10700000
 H      36.16300000      43.12600000      43.99900000
 O      14.65900000      44.44200000      43.76300000
 H      13.93600000      44.36900000      43.15400000
 H      15.29700000      44.96400000      43.24200000
 O      21.15600000      42.28400000      47.47400000
 H      21.86300000      41.71000000      47.87100000
 H      21.62600000      43.07700000      47.33700000
 O      40.17100000      45.75500000      48.52300000
 H      40.46500000      44.82300000      48.64400000
 H      39.62400000      45.80700000      49.35100000
 O      22.10900000      45.15800000      48.37000000
 H      22.92100000      44.97900000      47.82000000
 H      21.58500000      45.69500000      47.73000000
 O      29.08000000      44.27200000      47.17100000
 H      28.74900000      43.91900000      46.34400000
 H      30.00200000      44.47500000      46.95700000
 O      17.34900000      46.04800000      43.40700000
 H      16.73800000      46.50100000      42.75200000
 H      18.13100000      45.81300000      42.78500000
 O      36.47700000      47.18000000      43.06600000
 H      35.84100000      47.94900000      43.07500000
 H      36.91300000      47.35500000      43.93100000
 O      33.96400000      45.54400000      45.29200000
 H      33.66300000      45.60200000      44.34600000
 H      34.33400000      44.58800000      45.27700000
