1608
XYZ file of cluster: frame_8000_20a6d.244a8.9a895 - created by MolEdiTo
 O      37.79900000      30.09000000      28.82100000
 H      36.95300000      29.98600000      29.28100000
 H      38.32200000      30.57500000      29.53400000
 O      33.01000000       8.06800000      35.03400000
 H      32.38900000       8.57200000      34.53100000
 H      32.38300000       7.45400000      35.50700000
 O      19.52200000      11.70200000      29.58200000
 H      19.14900000      11.47000000      30.45700000
 H      18.81900000      11.51200000      28.93900000
 O      18.04900000      16.76700000      36.41200000
 H      18.46800000      17.39900000      36.98200000
 H      18.40600000      15.91100000      36.71400000
 O      33.29500000      40.55100000      30.22200000
 H      33.75000000      39.69400000      30.35400000
 H      34.02800000      41.15800000      30.52500000
 O      37.91700000      22.68700000      35.95100000
 H      37.94000000      22.53100000      34.99700000
 H      37.50700000      21.82300000      36.26000000
 O      15.23700000      11.09900000      29.38200000
 H      15.39300000      10.31800000      28.77800000
 H      15.75000000      11.77400000      28.78700000
 O      36.37200000      39.83800000      36.61800000
 H      37.00300000      39.15700000      36.86700000
 H      36.52500000      40.56100000      37.33000000
 O       8.40200000      16.57400000      35.38500000
 H       8.99700000      15.88200000      35.78700000
 H       8.38600000      16.16400000      34.48600000
 O      33.34800000       6.69300000      39.83700000
 H      33.08600000       7.61100000      40.04400000
 H      33.91900000       6.80700000      39.04000000
 O      18.34200000      21.38300000      38.31400000
 H      17.78400000      22.22000000      38.26500000
 H      18.73500000      21.47200000      39.21600000
 O      12.74200000      21.13200000      36.40400000
 H      12.71500000      20.68100000      37.24600000
 H      13.57400000      21.67300000      36.54300000
 O      17.18500000      38.09600000      38.89000000
 H      16.59200000      38.91100000      38.91700000
 H      16.64200000      37.65400000      38.23800000
 O      10.73300000      38.16900000      27.93100000
 H      10.03500000      37.88600000      27.31900000
 H      11.50100000      37.66100000      27.61700000
 O      17.14000000      37.70400000      31.65700000
 H      17.42500000      36.88500000      31.24300000
 H      16.71600000      37.35600000      32.45800000
 O      28.56800000      22.51300000      37.68700000
 H      28.26900000      21.69400000      38.05000000
 H      29.20400000      22.23200000      37.01500000
 O      27.77300000      12.07400000      26.99700000
 H      28.06600000      11.16400000      26.86600000
 H      27.36200000      11.95400000      27.94300000
 O      25.30300000      18.51700000      32.37600000
 H      25.29000000      17.63400000      32.81800000
 H      24.57200000      18.95800000      32.94300000
 O      31.91700000      38.36500000      35.68300000
 H      32.44900000      38.52400000      36.48100000
 H      32.57900000      38.24800000      34.98200000
 O      34.36500000      16.28300000      28.06500000
 H      34.16400000      17.22500000      27.87600000
 H      33.47600000      15.92700000      28.33700000
 O      34.26400000      23.25200000      34.36200000
 H      35.21900000      23.31900000      34.17600000
 H      33.90400000      24.03000000      33.86100000
 O      25.58600000      30.56800000      32.18000000
 H      26.57200000      30.56100000      32.03500000
 H      25.27200000      30.94500000      31.31900000
 O      37.74000000      34.41000000      34.35500000
 H      37.68000000      34.30700000      33.36600000
 H      37.96700000      35.34000000      34.41600000
 O      13.13100000      27.45600000      37.35000000
 H      13.23000000      26.43800000      37.20400000
 H      13.55600000      27.71300000      36.51600000
 O      13.71800000       7.82500000      36.31000000
 H      14.14200000       7.13300000      35.74600000
 H      12.76600000       7.58600000      36.15100000
 O      25.98100000       6.38200000      28.56600000
 H      26.64600000       6.54800000      29.25500000
 H      25.98400000       7.29900000      28.13800000
 O      28.20700000      34.15000000      28.53700000
 H      27.93000000      33.52000000      27.81800000
 H      27.38700000      34.18000000      29.07700000
 O      11.05500000      21.64100000      34.26600000
 H      11.45600000      21.21500000      35.06500000
 H      11.54800000      22.48700000      34.37900000
 O      32.93300000      29.42300000      32.30800000
 H      32.35200000      28.94600000      31.63900000
 H      32.49400000      30.29800000      32.22000000
 O       6.89400000      38.57500000      34.83900000
 H       6.02700000      38.22200000      34.51800000
 H       7.23800000      37.71600000      35.19100000
 O      30.26300000       8.44300000      29.85800000
 H      29.90500000       7.79400000      29.24200000
 H      31.20300000       8.50400000      29.59200000
 O      39.53700000      26.14100000      35.83900000
 H      39.74200000      25.47500000      35.13700000
 H      38.81500000      25.64400000      36.29800000
 O      13.33300000      10.35000000      38.06700000
 H      12.56400000      10.72300000      37.55700000
 H      13.20000000       9.40100000      37.81400000
 O      32.84000000      21.05500000      34.96800000
 H      33.53700000      21.70900000      34.74000000
 H      32.76700000      20.53400000      34.14300000
 O      37.35000000      35.89300000      30.36000000
 H      38.21600000      35.59000000      30.69700000
 H      36.83900000      35.10400000      30.61700000
 O       8.60900000      28.01900000      30.60200000
 H       8.71400000      28.97200000      30.85800000
 H       7.62300000      27.92300000      30.74200000
 O      24.05700000      39.03800000      35.58500000
 H      24.63900000      38.66400000      34.92700000
 H      23.25800000      38.47800000      35.45500000
 O      19.89600000      21.95800000      36.14600000
 H      19.54000000      21.68400000      37.01400000
 H      20.55300000      22.64600000      36.43800000
 O      10.03600000      19.12200000      38.66900000
 H       9.81600000      18.86800000      37.76600000
 H      10.99000000      19.33500000      38.64900000
 O      14.93100000      34.16000000      34.35500000
 H      15.44100000      33.53600000      33.76700000
 H      14.20300000      33.58200000      34.60800000
 O      25.15200000       8.86300000      40.29100000
 H      25.12700000       9.67100000      40.82500000
 H      24.41000000       8.33200000      40.67600000
 O      24.44600000      11.21600000      30.79300000
 H      23.65600000      11.03200000      30.39800000
 H      24.29900000      11.02500000      31.76200000
 O      18.20200000      29.06700000      33.85800000
 H      18.35600000      29.98400000      34.00800000
 H      18.82900000      28.61800000      34.39900000
 O      15.73400000      36.67400000      33.76200000
 H      16.60700000      36.73700000      34.15500000
 H      15.45800000      35.81900000      34.10100000
 O      20.94100000      28.96200000      29.79400000
 H      20.57900000      28.44900000      30.54700000
 H      20.41000000      28.49300000      29.12100000
 O      34.39000000      17.91300000      35.35700000
 H      33.69500000      17.22300000      35.40300000
 H      34.87600000      17.71400000      34.60100000
 O      40.58800000      32.50100000      33.14100000
 H      40.67000000      31.56600000      32.86000000
 H      40.93900000      32.40700000      34.08500000
 O      27.80600000      13.75000000      35.29300000
 H      26.93200000      13.28700000      35.44700000
 H      28.41700000      12.97700000      35.54300000
 O      25.15000000      13.88100000      28.77400000
 H      25.23400000      14.78400000      28.36800000
 H      26.03500000      13.55300000      28.68200000
 O      36.14800000       9.38100000      39.25200000
 H      35.58900000       9.37700000      40.10600000
 H      36.97200000       9.07200000      39.74200000
 O      21.62200000      23.92500000      37.02400000
 H      21.82000000      23.73200000      37.93300000
 H      22.46200000      23.63400000      36.56300000
 O      18.28600000      23.06600000      34.51100000
 H      18.64100000      22.82300000      33.71400000
 H      18.72300000      22.50700000      35.19200000
 O      38.45800000      12.52800000      35.58400000
 H      38.70500000      11.87300000      36.23900000
 H      38.62700000      12.17000000      34.70700000
 O      28.74400000      22.37400000      27.42000000
 H      28.85000000      21.43200000      27.36500000
 H      28.19700000      22.45000000      28.19100000
 O      39.46900000       8.72700000      34.96800000
 H      39.20800000       7.95500000      35.54300000
 H      38.70700000       8.79000000      34.42100000
 O      18.80700000      24.94200000      36.58400000
 H      18.45800000      24.38800000      35.85500000
 H      19.75000000      24.61200000      36.61600000
 O      15.15900000      12.81100000      39.50800000
 H      15.93100000      13.25700000      39.06000000
 H      15.49500000      11.85700000      39.54900000
 O      30.87800000      19.58300000      38.86900000
 H      30.36000000      18.97200000      38.29300000
 H      31.78500000      19.44500000      38.53100000
 O      26.08300000       9.08900000      27.89700000
 H      26.44100000       9.86800000      28.34200000
 H      26.84700000       8.86100000      27.30000000
 O      11.42600000      17.78800000      31.75000000
 H      11.87100000      16.92100000      31.77400000
 H      10.50000000      17.53800000      31.50800000
 O      33.07400000      29.60100000      35.23200000
 H      33.15100000      29.24600000      34.35400000
 H      33.82600000      30.25700000      35.23300000
 O      22.21000000      31.15100000      28.70800000
 H      21.47400000      31.27900000      27.98600000
 H      21.86700000      30.33500000      29.07600000
 O      31.62800000      15.75700000      28.20200000
 H      31.03300000      15.00600000      28.08900000
 H      31.50200000      16.27100000      27.37900000
 O      33.12800000      19.79100000      32.60200000
 H      33.15600000      18.84300000      32.87300000
 H      32.17600000      19.87200000      32.36900000
 O      23.02600000       9.71300000      36.06800000
 H      23.17900000      10.65700000      35.78700000
 H      23.81700000       9.56600000      36.59700000
 O      10.75500000      30.71500000      32.92700000
 H      10.81300000      31.63400000      32.64000000
 H       9.90400000      30.60700000      33.30600000
 O      18.32500000      10.77400000      36.12300000
 H      17.70100000      10.01200000      36.06500000
 H      19.12900000      10.25400000      36.56800000
 O      39.01400000      34.64300000      27.53100000
 H      38.58400000      34.76300000      28.38200000
 H      39.14800000      35.59000000      27.28900000
 O      15.20600000      28.97400000      39.60300000
 H      15.16200000      29.58800000      38.83500000
 H      15.65300000      29.56200000      40.26800000
 O      38.90100000      16.38900000      39.45200000
 H      38.92500000      15.85100000      38.64800000
 H      38.04000000      16.25300000      39.79900000
 O      25.20900000       9.58300000      37.46500000
 H      25.20700000       8.83200000      38.04500000
 H      25.15500000      10.33200000      38.09900000
 O      11.57800000      13.37900000      38.44700000
 H      11.00600000      12.62600000      38.69300000
 H      11.92800000      13.61300000      39.33800000
 O       8.80100000      14.38100000      30.79600000
 H       8.58300000      13.86800000      31.58200000
 H       8.13500000      13.95400000      30.12600000
 O      36.78000000       8.18800000      29.31200000
 H      37.00600000       8.95600000      29.89200000
 H      36.67100000       7.52900000      30.02800000
 O      12.76200000       9.46200000      28.15700000
 H      12.71900000       9.54100000      29.17600000
 H      13.69900000       9.68700000      27.98200000
 O      33.40100000      34.78100000      27.16800000
 H      32.84800000      34.34600000      27.80800000
 H      34.21200000      34.32400000      27.15900000
 O      31.06600000      35.82300000      35.47800000
 H      31.34900000      36.69400000      35.87500000
 H      30.38200000      36.21400000      34.84000000
 O       9.00600000      38.77500000      29.78600000
 H       8.58500000      39.31400000      29.07100000
 H       9.83700000      38.49100000      29.30200000
 O      15.25300000      22.45400000      31.44600000
 H      15.45600000      22.87100000      32.32600000
 H      14.29100000      22.55800000      31.46700000
 O      29.24000000      37.01000000      38.58600000
 H      30.01800000      36.41800000      38.55100000
 H      29.59600000      37.84900000      38.99200000
 O      31.27900000       9.10800000      32.79000000
 H      30.83600000       8.55800000      32.12000000
 H      31.79400000       9.72500000      32.22400000
 O      29.71800000      13.91300000      28.37500000
 H      29.72300000      13.22600000      29.07500000
 H      29.17300000      13.50700000      27.70900000
 O       7.51000000      19.66000000      39.62400000
 H       8.38300000      19.35400000      39.32200000
 H       7.60700000      20.62100000      39.49300000
 O       8.93700000      19.47200000      29.68800000
 H       8.00400000      19.60500000      30.03800000
 H       9.01500000      18.50200000      29.90700000
 O      23.24900000       7.13700000      40.71400000
 H      23.51300000       7.25600000      39.80800000
 H      22.90400000       6.24200000      40.74000000
 O      18.58600000      25.39700000      31.04900000
 H      17.94600000      26.07200000      31.41800000
 H      19.44400000      25.80200000      31.34400000
 O      34.50200000      31.98800000      29.75400000
 H      34.42200000      31.35700000      29.01800000
 H      33.69600000      31.81500000      30.27500000
 O      15.89100000      17.05500000      34.93700000
 H      16.61100000      17.02000000      35.66900000
 H      16.26900000      17.82800000      34.46400000
 O      40.14000000      23.93200000      34.66800000
 H      41.04300000      24.13900000      34.34300000
 H      40.12000000      22.99500000      34.77500000
 O      11.43000000      36.02400000      36.51100000
 H      11.13000000      35.05300000      36.47600000
 H      11.08600000      36.33800000      35.65400000
 O      35.92900000      39.80000000      33.76500000
 H      35.81100000      39.89900000      34.77100000
 H      36.90700000      39.69800000      33.78700000
 O      39.27300000      10.86300000      39.59700000
 H      40.05600000      11.47700000      39.65600000
 H      39.27500000      10.57300000      38.66100000
 O      13.74900000      24.74900000      39.84800000
 H      12.87900000      24.66100000      40.38200000
 H      13.37100000      24.87900000      38.95800000
 O       6.82400000      31.14300000      39.11000000
 H       5.81200000      31.38100000      39.09600000
 H       7.02200000      31.42300000      40.01400000
 O       8.46200000      21.44100000      37.18800000
 H       8.73200000      20.54600000      36.87900000
 H       7.55400000      21.52000000      36.72300000
 O      27.46800000       9.80000000      35.70000000
 H      28.18800000      10.13300000      36.30800000
 H      26.68700000       9.93100000      36.25400000
 O      36.47700000      26.43400000      39.51500000
 H      36.86300000      27.35500000      39.55800000
 H      36.15000000      26.49000000      38.55800000
 O      23.02000000      30.27200000      35.51300000
 H      22.18900000      30.09200000      36.09100000
 H      23.45700000      29.39700000      35.71900000
 O      37.89200000      26.59200000      30.55700000
 H      38.06600000      26.22000000      29.68000000
 H      38.56300000      26.14800000      31.12200000
 O      30.96000000      33.65900000      28.84800000
 H      31.14500000      32.80000000      28.34500000
 H      29.99000000      33.55500000      28.92400000
 O      17.76600000       7.76500000      29.56600000
 H      17.85800000       6.95800000      29.97700000
 H      18.61300000       7.91300000      29.09100000
 O      33.54800000      14.93800000      35.95900000
 H      34.49000000      14.86400000      36.01700000
 H      33.32500000      14.24200000      35.28700000
 O      26.21900000      27.34100000      29.42700000
 H      26.03500000      27.00000000      28.46700000
 H      25.37900000      27.87100000      29.56600000
 O      22.85100000      15.46200000      35.64100000
 H      22.78300000      14.59400000      35.35900000
 H      22.52100000      15.39200000      36.57100000
 O      24.81700000      10.68800000      33.51300000
 H      24.32100000      10.82300000      34.36400000
 H      25.60900000      11.20000000      33.81500000
 O      37.16100000      31.17200000      32.61700000
 H      38.00600000      31.31300000      32.18500000
 H      36.90900000      30.32600000      32.23700000
 O      32.08200000      34.04700000      40.17900000
 H      31.20300000      34.39600000      40.61800000
 H      31.64800000      33.58300000      39.41300000
 O      39.85200000      15.16200000      27.75800000
 H      40.18500000      14.42200000      28.35300000
 H      40.43300000      14.91900000      26.97900000
 O      23.24500000      21.43400000      31.28800000
 H      23.74600000      20.92200000      30.61500000
 H      22.58000000      20.71300000      31.47000000
 O      34.27700000      37.94400000      29.89100000
 H      34.55400000      37.16300000      30.29700000
 H      33.31600000      37.96900000      30.00700000
 O      37.60500000      24.58100000      33.80600000
 H      37.31800000      25.52500000      34.12800000
 H      38.39600000      24.51100000      34.35800000
 O      17.15800000      15.70700000      40.69300000
 H      17.36200000      16.64600000      40.45800000
 H      17.08500000      15.83800000      41.67900000
 O      39.21700000       6.76200000      28.73600000
 H      38.42900000       7.23600000      28.85200000
 H      39.76900000       7.46900000      28.34300000
 O      29.21000000      24.56900000      39.45300000
 H      29.08300000      23.88100000      38.78900000
 H      30.17300000      24.72600000      39.37700000
 O      19.27300000      32.21800000      40.35300000
 H      18.92500000      32.80100000      41.04100000
 H      20.21300000      32.62900000      40.27800000
 O       7.10900000      16.42800000      32.86100000
 H       6.97200000      16.09400000      31.91600000
 H       6.70400000      15.66400000      33.32500000
 O       9.85800000       9.00700000      28.48400000
 H      10.77800000       9.23100000      28.11400000
 H       9.73300000       8.11900000      27.97600000
 O      18.97600000      22.62300000      31.92100000
 H      19.90200000      22.69100000      31.45400000
 H      18.64200000      23.50100000      31.61800000
 O       8.28200000      16.61300000      27.61200000
 H       8.59900000      16.68900000      28.57100000
 H       8.68500000      15.75800000      27.43600000
 O      13.92100000      33.32600000      37.56500000
 H      13.46000000      32.78200000      38.27200000
 H      13.41100000      33.00300000      36.77700000
 O      36.34700000      27.95500000      27.41700000
 H      35.81000000      27.63000000      28.20100000
 H      36.87300000      28.67100000      27.85600000
 O      22.49000000       7.22600000      34.97700000
 H      23.44700000       6.99300000      35.05900000
 H      22.50900000       8.21100000      35.06400000
 O      31.24000000      24.59100000      35.75900000
 H      30.98300000      25.56100000      35.86000000
 H      31.70400000      24.47800000      36.58000000
 O      20.48800000      13.90900000      34.32000000
 H      20.95100000      14.30700000      33.57300000
 H      19.75400000      14.56400000      34.43200000
 O      24.70600000      21.46600000      33.64000000
 H      24.36700000      20.70000000      34.20600000
 H      24.07600000      21.47100000      32.93900000
 O      29.94500000      26.10800000      29.40200000
 H      30.05000000      25.69300000      28.51800000
 H      29.53000000      25.33700000      29.87900000
 O      23.64100000      19.34600000      34.52600000
 H      23.82500000      18.66300000      35.20400000
 H      22.69700000      19.47600000      34.74200000
 O      14.41800000      29.98100000      31.80400000
 H      14.40500000      30.91100000      31.47400000
 H      15.20700000      29.64800000      31.32600000
 O       7.84000000      40.30100000      36.88500000
 H       7.21800000      40.47500000      37.57400000
 H       7.38100000      39.55400000      36.42200000
 O      28.71100000      36.36900000      34.04100000
 H      28.31200000      36.92500000      33.36600000
 H      27.87500000      36.05800000      34.49300000
 O      27.50700000      20.17700000      38.44200000
 H      27.10600000      19.30400000      38.30700000
 H      27.20300000      20.43100000      39.33700000
 O      14.88500000      29.95800000      34.74700000
 H      15.45200000      30.14200000      33.96200000
 H      14.42800000      30.85700000      34.87900000
 O      16.53200000      34.19500000      36.95400000
 H      16.82400000      33.27200000      36.74300000
 H      15.59900000      34.07500000      36.68700000
 O      18.12000000      25.11700000      40.39500000
 H      18.61300000      25.34300000      41.24400000
 H      18.34600000      25.93700000      39.92900000
 O       8.97400000      40.02900000      33.86800000
 H       9.62700000      39.48700000      34.45000000
 H       8.14300000      39.61600000      34.14000000
 O      30.06100000      27.13800000      35.64400000
 H      29.17400000      26.94200000      35.95700000
 H      29.85800000      27.83800000      34.96700000
 O      10.87200000      12.39900000      31.05800000
 H      10.30200000      13.08600000      30.66000000
 H      11.68900000      12.83200000      31.25400000
 O       8.28200000      13.06200000      33.19100000
 H       8.29800000      12.12300000      33.20200000
 H       9.13300000      13.28100000      33.57900000
 O      22.55200000      23.24100000      39.32900000
 H      22.46300000      23.29900000      40.27100000
 H      23.45800000      22.87100000      39.22600000
 O      33.58900000      32.58100000      37.48800000
 H      33.97600000      33.29500000      38.02500000
 H      33.12700000      33.10300000      36.80400000
 O      28.39700000      23.95200000      31.16300000
 H      27.56400000      23.61300000      31.50500000
 H      28.87000000      24.34300000      31.88200000
 O      16.26900000      35.03300000      39.52300000
 H      15.50500000      34.67700000      39.14400000
 H      16.80600000      35.01100000      38.68400000
 O      14.53600000      21.71700000      27.51500000
 H      14.42900000      22.69200000      27.47100000
 H      14.71600000      21.62300000      28.44300000
 O      20.60800000       6.39900000      33.15500000
 H      21.46600000       6.62100000      33.57800000
 H      20.24400000       7.35400000      33.05700000
 O       6.72400000      23.66600000      33.59700000
 H       7.37200000      22.96600000      33.30300000
 H       6.52300000      23.21000000      34.49100000
 O      13.23100000       7.43200000      39.87100000
 H      12.42900000       7.85000000      39.40200000
 H      13.70100000       8.27700000      40.03000000
 O      10.89100000      35.45700000      30.81400000
 H      10.98700000      36.45900000      30.72300000
 H      11.78600000      35.25800000      31.18700000
 O       7.93500000      24.22400000      30.67000000
 H       8.02900000      23.92900000      31.60500000
 H       7.84800000      23.39200000      30.20900000
 O      27.62300000      16.99000000      31.68100000
 H      26.75600000      17.18400000      32.14900000
 H      27.80300000      16.15800000      32.08600000
 O      35.56700000      36.15700000      36.75600000
 H      35.82400000      35.39200000      37.25400000
 H      34.70700000      35.83700000      36.34400000
 O       7.16600000      19.06700000      33.66100000
 H       7.10600000      18.14700000      33.44700000
 H       8.11200000      19.22700000      33.54200000
 O      40.24300000      38.87200000      40.52600000
 H      40.59000000      39.74500000      40.39200000
 H      40.95800000      38.48100000      41.08800000
 O      32.90900000      27.20500000      39.00500000
 H      33.28800000      27.70100000      39.79500000
 H      32.32800000      27.94200000      38.56800000
 O      12.63900000      32.16500000      39.95500000
 H      12.03300000      32.71700000      40.32700000
 H      13.35500000      32.13600000      40.61100000
 O      24.34200000      17.79600000      36.69400000
 H      24.08900000      16.93500000      36.41500000
 H      25.13200000      17.62500000      37.22200000
 O      10.63800000      14.79400000      34.05800000
 H      11.03300000      14.76300000      34.93200000
 H      11.44700000      14.77300000      33.47400000
 O      26.36100000      24.01800000      39.87100000
 H      25.84900000      24.16800000      40.65800000
 H      27.23500000      24.34100000      40.16400000
 O      13.26800000      35.85800000      38.60000000
 H      12.86100000      35.01300000      38.88300000
 H      12.77500000      36.04200000      37.74900000
 O      14.69700000      14.82100000      34.48500000
 H      14.44400000      14.21200000      35.25500000
 H      14.98300000      15.63100000      35.11400000
 O      13.04200000       6.69400000      27.81700000
 H      12.89600000       7.61200000      28.07000000
 H      12.68400000       6.24900000      28.60700000
 O      21.73900000      36.80600000      31.70500000
 H      21.09100000      36.10600000      32.04700000
 H      21.08700000      37.48000000      31.56100000
 O      11.64700000      36.51800000      33.47700000
 H      11.44900000      37.22100000      32.86700000
 H      12.39700000      36.90000000      33.99200000
 O      36.31900000      28.81600000      30.89700000
 H      36.61100000      27.89300000      30.83400000
 H      35.39900000      28.72000000      30.67000000
 O      30.23600000      22.10200000      35.43800000
 H      30.62300000      22.95000000      35.60100000
 H      31.02500000      21.54900000      35.35800000
 O       7.05200000      30.31400000      29.76900000
 H       6.13200000      30.34900000      30.14100000
 H       6.80700000      30.22500000      28.80400000
 O       7.18400000       8.69900000      30.00400000
 H       7.38400000       8.40900000      29.08600000
 H       8.03300000       9.00000000      30.30900000
 O      16.72300000      19.01600000      38.24400000
 H      16.95900000      19.97400000      38.36000000
 H      17.28300000      18.68000000      38.97700000
 O      10.97800000       9.44500000      33.75000000
 H      11.36900000      10.25600000      34.01400000
 H      11.36400000       8.80100000      34.39700000
 O      19.80100000      35.61200000      35.98500000
 H      19.29500000      35.74000000      36.86400000
 H      20.25800000      34.73600000      36.23800000
 O      40.79300000       8.15700000      32.43200000
 H      40.30100000       8.60900000      33.19900000
 H      41.62300000       7.97500000      33.03600000
 O      22.87700000      31.42000000      32.98600000
 H      23.86000000      31.34600000      32.91500000
 H      22.69700000      30.75300000      33.64300000
 O      33.91500000      12.58300000      28.52300000
 H      33.01600000      12.19500000      28.25500000
 H      33.67000000      13.07800000      29.30900000
 O      25.81000000      21.39300000      36.16600000
 H      26.33100000      21.48200000      35.31100000
 H      26.43000000      20.84700000      36.67300000
 O       7.92800000      23.94200000      40.68000000
 H       7.89100000      24.56100000      39.98200000
 H       7.79600000      24.51300000      41.45100000
 O      22.10400000      12.14600000      37.64700000
 H      22.24300000      12.20400000      38.57700000
 H      21.49700000      11.33700000      37.60200000
 O      16.83400000      40.50400000      32.21900000
 H      17.02400000      39.58100000      32.09900000
 H      15.89500000      40.53200000      32.32500000
 O      28.22100000      18.82700000      35.14100000
 H      28.75600000      18.81000000      35.96900000
 H      27.82700000      17.96600000      35.25700000
 O      14.00200000      14.71100000      28.48100000
 H      14.50800000      15.50300000      28.26300000
 H      14.14100000      14.18400000      27.68200000
 O      33.29500000      19.48800000      37.31700000
 H      33.61800000      18.84500000      36.60100000
 H      33.28600000      20.26400000      36.71400000
 O      18.72800000      31.86100000      33.52300000
 H      17.86700000      32.01500000      33.05700000
 H      19.32300000      31.81200000      32.71100000
 O      19.18200000      27.38500000      38.38900000
 H      18.91200000      26.58300000      37.89000000
 H      18.32900000      27.74100000      38.61600000
 O      13.54000000      13.03900000      30.66300000
 H      13.64800000      13.45200000      29.76800000
 H      14.06200000      12.21200000      30.55500000
 O      31.89900000      11.13700000      40.46500000
 H      31.62400000      10.79400000      41.36100000
 H      31.82700000      12.08700000      40.63500000
 O      37.05100000      29.63900000      40.61900000
 H      37.66700000      30.02000000      41.30100000
 H      37.52400000      29.96900000      39.83500000
 O      28.44600000      33.61600000      36.40300000
 H      27.92000000      34.26700000      35.78200000
 H      27.83600000      33.70300000      37.13400000
 O      22.87100000      29.09500000      39.60900000
 H      23.47100000      29.90900000      39.63800000
 H      23.53800000      28.34600000      39.75500000
 O      24.78100000      35.07800000      33.12200000
 H      24.03100000      34.64500000      33.54000000
 H      24.41700000      35.11400000      32.19900000
 O      40.58600000      12.66200000      29.16300000
 H      41.10300000      12.26800000      29.93400000
 H      40.55100000      11.76900000      28.64200000
 O      22.04600000      14.64300000      32.02600000
 H      22.84000000      14.18800000      31.65400000
 H      21.52700000      14.63700000      31.18300000
 O       6.77500000      28.27200000      39.05700000
 H       7.07000000      29.19300000      38.97100000
 H       6.14900000      28.28700000      38.27800000
 O      37.51700000       8.22200000      33.14800000
 H      36.85500000       8.33200000      33.86000000
 H      37.03300000       7.55000000      32.63600000
 O      36.24900000      33.49000000      31.72300000
 H      36.73200000      32.71700000      32.10500000
 H      35.73600000      33.04100000      31.01000000
 O       7.79300000      40.26300000      27.64900000
 H       6.94600000      40.23000000      28.07100000
 H       7.64900000      39.79300000      26.79800000
 O      23.05500000      26.17200000      32.50400000
 H      23.84400000      26.61400000      32.78500000
 H      22.95200000      25.48600000      33.19900000
 O      36.09500000       8.46600000      35.35300000
 H      35.17600000       8.34700000      35.05300000
 H      36.08800000       9.38600000      35.61700000
 O      30.30500000      17.22500000      40.74500000
 H      30.78600000      17.76500000      41.45800000
 H      31.01100000      17.31100000      40.01800000
 O       6.46600000      15.55100000      40.42900000
 H       6.90700000      15.64400000      41.27600000
 H       7.24000000      15.75000000      39.85100000
 O      30.81800000      14.87300000      33.07300000
 H      31.33500000      15.14000000      32.24000000
 H      31.48300000      14.23000000      33.47200000
 O      30.41400000      19.79900000      31.95700000
 H      30.36500000      20.72600000      31.54700000
 H      29.40900000      19.61300000      31.94400000
 O      20.40100000      16.87100000      31.54100000
 H      19.58000000      16.39200000      31.77100000
 H      21.14000000      16.25700000      31.71800000
 O      14.93500000      37.14300000      40.42700000
 H      15.60700000      36.63400000      39.94700000
 H      14.15800000      37.02100000      39.87900000
 O      27.77800000      30.68400000      35.45500000
 H      28.23300000      30.03600000      34.88900000
 H      28.11400000      31.50500000      35.11100000
 O      20.07100000      34.97700000      32.74400000
 H      19.83000000      35.21000000      33.67000000
 H      19.18800000      34.71300000      32.37300000
 O      28.95600000      32.56300000      30.91600000
 H      28.52300000      33.25800000      31.52100000
 H      28.45100000      32.74700000      30.07100000
 O      24.75600000      23.32600000      27.32100000
 H      25.24900000      24.17600000      27.21400000
 H      24.72000000      23.21500000      28.28300000
 O       9.79200000      19.29200000      33.45100000
 H      10.30800000      20.11300000      33.60100000
 H      10.41200000      18.85100000      32.82300000
 O      27.27300000      38.63100000      29.28500000
 H      27.25800000      39.57000000      28.91300000
 H      26.37500000      38.35600000      28.96500000
 O       8.05900000      36.42300000      30.56400000
 H       8.91400000      35.85700000      30.54400000
 H       8.53800000      37.30100000      30.38000000
 O      25.89000000      34.03900000      29.97700000
 H      25.08600000      34.59800000      29.84000000
 H      25.46700000      33.18500000      30.06000000
 O      16.04400000      39.98700000      35.82500000
 H      16.95000000      39.89100000      36.11500000
 H      16.11200000      40.58300000      35.07100000
 O      31.72100000      24.83500000      38.62000000
 H      32.04500000      25.72300000      38.94100000
 H      32.51600000      24.61000000      38.08200000
 O      38.86300000       9.85300000      31.57000000
 H      39.63100000       9.22700000      31.40300000
 H      38.29600000       9.24800000      32.04100000
 O      23.25900000      12.22400000      27.68900000
 H      23.02800000      11.85600000      28.57100000
 H      23.92200000      12.87700000      28.02300000
 O      23.47200000      35.26300000      30.38500000
 H      23.00100000      36.01100000      30.84300000
 H      22.80100000      34.99100000      29.74300000
 O       8.19900000      10.09900000      33.30200000
 H       9.10100000       9.78400000      33.61500000
 H       8.41000000      10.07800000      32.31300000
 O       8.57700000      15.90700000      39.01600000
 H       9.45400000      16.20500000      39.47400000
 H       9.01800000      15.47900000      38.25900000
 O      19.57500000       7.99700000      27.48200000
 H      19.76900000       7.16500000      27.00200000
 H      20.17800000       7.90000000      28.23700000
 O      40.01800000      22.52600000      38.16300000
 H      39.53500000      23.14400000      37.53400000
 H      40.90100000      22.65900000      37.88200000
 O      20.48600000       9.68900000      37.27600000
 H      20.68200000       8.84000000      37.72000000
 H      21.16000000       9.66000000      36.57200000
 O      38.54200000      39.91800000      32.90800000
 H      39.12900000      40.40600000      33.54400000
 H      39.06900000      39.97100000      32.09500000
 O      19.14500000      30.95900000      30.38100000
 H      19.73200000      31.60100000      30.83200000
 H      19.81400000      30.26300000      30.25800000
 O      20.32000000      22.97600000      27.96800000
 H      20.16500000      22.10600000      27.59800000
 H      20.65100000      22.74100000      28.88100000
 O      25.56500000      16.53000000      28.03200000
 H      24.89700000      17.06600000      28.41100000
 H      26.41700000      16.91000000      28.19600000
 O      27.11800000      29.42300000      38.14900000
 H      27.22200000      29.60500000      37.21700000
 H      27.62900000      30.18500000      38.53000000
 O      29.69500000      40.43900000      34.78800000
 H      30.02400000      39.54200000      34.71900000
 H      30.37500000      40.93500000      34.27100000
 O      22.27300000      14.88500000      40.41600000
 H      23.17900000      14.56400000      40.51800000
 H      22.38500000      15.83700000      40.64700000
 O      35.68500000      30.98700000      34.89700000
 H      35.97900000      31.13200000      33.96200000
 H      35.87600000      31.91900000      35.19400000
 O      32.70500000      35.20900000      30.33700000
 H      32.08400000      35.92100000      30.11600000
 H      32.16700000      34.46000000      29.94800000
 O      35.90300000      22.55400000      38.92000000
 H      36.77900000      22.76300000      39.27100000
 H      36.05700000      21.63100000      38.66500000
 O      12.21300000      40.30000000      29.29900000
 H      11.72200000      39.83800000      28.62900000
 H      12.76800000      40.86900000      28.78000000
 O      40.65700000       7.47200000      40.13200000
 H      40.92600000       6.65400000      40.60300000
 H      41.19200000       8.17200000      40.48100000
 O      38.10000000      12.69000000      28.16400000
 H      39.02100000      12.61800000      28.49800000
 H      37.65300000      12.70000000      29.01800000
 O      26.61500000      14.39800000      38.21900000
 H      27.23700000      14.81100000      38.88200000
 H      26.90300000      14.88400000      37.41700000
 O      15.40900000      23.21100000      34.06300000
 H      15.55800000      22.60800000      34.80300000
 H      16.17300000      23.80500000      34.10200000
 O      35.13200000      37.38900000      39.73300000
 H      35.92400000      37.81900000      40.20100000
 H      35.13300000      37.97200000      38.94000000
 O      24.84800000      38.03600000      28.35200000
 H      24.13700000      38.42800000      28.87600000
 H      24.58600000      37.16100000      28.14700000
 O      39.97400000      10.76900000      36.75700000
 H      40.77400000      11.28900000      36.53000000
 H      40.02200000      10.02000000      36.13400000
 O      17.18400000      13.74100000      33.51300000
 H      17.29400000      13.59300000      34.45100000
 H      16.22900000      14.09100000      33.50600000
 O      10.04200000      25.84600000      34.57100000
 H      10.85800000      25.31700000      34.77900000
 H      10.01700000      25.69100000      33.59100000
 O      36.24500000      22.84000000      27.88800000
 H      36.94500000      23.27600000      27.38100000
 H      36.48000000      21.90000000      27.89800000
 O      26.70000000      35.28100000      35.22800000
 H      26.03200000      34.73900000      34.81600000
 H      26.19500000      35.70800000      35.95100000
 O      17.73200000      11.17000000      31.70500000
 H      17.32500000      11.95200000      32.12700000
 H      17.28300000      10.42300000      32.09500000
 O      10.97600000      39.20500000      35.76200000
 H      11.73500000      38.64200000      35.96200000
 H      10.99600000      39.76600000      36.55800000
 O      10.22200000      14.87100000      36.89500000
 H       9.64100000      14.09600000      36.68900000
 H      10.86800000      14.37200000      37.44900000
 O      16.43900000       8.68700000      36.21400000
 H      16.83300000       7.74400000      36.22600000
 H      15.51000000       8.38900000      36.02700000
 O      10.49500000       8.87200000      39.07600000
 H      10.52000000       9.80800000      38.83800000
 H      10.41700000       8.93800000      40.06600000
 O      31.07600000      31.42800000      32.12400000
 H      30.43500000      31.96700000      31.60500000
 H      30.89100000      31.90300000      32.97400000
 O      36.54100000      13.87800000      32.97400000
 H      36.49400000      14.11600000      32.03900000
 H      37.32100000      13.27600000      32.95900000
 O      17.44400000       9.25100000      40.62000000
 H      16.98000000       9.55200000      39.83400000
 H      17.65800000       8.33600000      40.42000000
 O       9.68900000      16.74900000      30.04900000
 H       9.38100000      15.88700000      30.47900000
 H      10.44200000      16.25700000      29.51900000
 O      15.78500000      19.83900000      30.93200000
 H      16.78600000      19.88900000      31.00400000
 H      15.54800000      20.77600000      31.16900000
 O      20.89900000      14.25800000      29.60800000
 H      20.26300000      13.52900000      29.71300000
 H      20.92600000      14.29900000      28.66100000
 O      31.32300000      37.22400000      29.93200000
 H      31.00600000      37.87300000      30.63800000
 H      30.40900000      36.91500000      29.64300000
 O      25.16200000       8.45400000      32.38500000
 H      25.19300000       9.46700000      32.55600000
 H      25.31500000       8.15500000      33.29400000
 O      20.62500000      25.54200000      27.62300000
 H      20.55600000      24.53100000      27.68900000
 H      21.39900000      25.54900000      28.26700000
 O      23.70400000      28.28800000      29.01000000
 H      23.59600000      28.08700000      27.99900000
 H      22.69600000      28.31800000      29.18300000
 O      15.92300000       9.03200000      27.98700000
 H      16.57800000       8.68800000      28.64100000
 H      15.98800000       8.33200000      27.31600000
 O      38.76300000      21.36400000      40.37300000
 H      38.62200000      20.66400000      39.67100000
 H      39.30800000      21.95200000      39.72700000
 O      16.17100000      26.65500000      38.57500000
 H      15.39400000      26.08500000      38.80100000
 H      15.76800000      27.51100000      38.77200000
 O      33.27600000      22.92300000      27.87800000
 H      34.27400000      23.05800000      27.81300000
 H      33.33900000      22.43200000      28.73200000
 O       8.31500000      33.15200000      38.13300000
 H       7.96700000      33.32400000      37.25400000
 H       7.71900000      32.36100000      38.37900000
 O      21.47900000       7.15700000      38.02700000
 H      21.29900000       6.15700000      37.91500000
 H      22.34300000       7.32200000      37.63200000
 O      17.05900000      27.28000000      32.14900000
 H      17.68700000      27.81500000      32.74200000
 H      16.54900000      26.83900000      32.82900000
 O      13.12700000      24.59800000      37.09300000
 H      12.35800000      24.06400000      36.76400000
 H      13.85800000      24.06300000      36.82000000
 O      30.64700000      22.24100000      30.63900000
 H      31.32200000      22.90800000      30.63000000
 H      29.88500000      22.81900000      30.85700000
 O      33.36200000       6.97700000      32.13400000
 H      33.28000000       7.67800000      32.86600000
 H      32.72200000       6.35800000      32.47500000
 O      12.19400000      19.08300000      27.78700000
 H      12.52100000      19.64900000      28.53100000
 H      11.48300000      18.67100000      28.18200000
 O      27.07100000      35.26000000      38.80100000
 H      27.84500000      35.84000000      38.84100000
 H      26.36700000      35.89000000      38.45600000
 O      21.07900000      15.12600000      37.81300000
 H      21.20600000      15.24900000      38.78200000
 H      21.07800000      14.17700000      37.67600000
 O      21.78200000      33.52700000      39.44400000
 H      21.44300000      34.41100000      39.82600000
 H      22.64400000      33.89500000      39.08500000
 O      17.90400000      13.94500000      38.82600000
 H      17.62600000      14.65400000      39.42900000
 H      18.56200000      13.50500000      39.43600000
 O      36.40000000      14.61900000      35.98700000
 H      36.82500000      14.35400000      35.16600000
 H      36.79100000      13.92100000      36.55700000
 O      13.67000000      26.71600000      28.81600000
 H      13.55100000      26.40600000      29.74300000
 H      12.84800000      27.25500000      28.66300000
 O      32.55500000      11.12400000      37.84400000
 H      31.70400000      10.82200000      37.49700000
 H      32.48700000      10.91800000      38.80300000
 O      27.38000000       7.61600000      30.83800000
 H      26.48600000       7.82600000      31.13300000
 H      27.80700000       8.50800000      30.95700000
 O      34.61100000      37.36700000      27.13600000
 H      34.83500000      37.64500000      28.01900000
 H      34.12000000      36.56300000      27.25800000
 O      34.58500000      34.57100000      39.39300000
 H      34.52000000      35.54100000      39.48600000
 H      33.78000000      34.35100000      39.94700000
 O      23.43000000      22.66800000      35.84300000
 H      23.66900000      22.55700000      34.90500000
 H      24.24300000      22.25800000      36.24200000
 O      33.29800000      34.42800000      35.59700000
 H      32.69700000      35.21100000      35.51900000
 H      33.60800000      34.37700000      34.67500000
 O      36.63800000      26.91300000      34.93500000
 H      35.87200000      26.86600000      35.53300000
 H      37.00700000      27.76900000      35.27400000
 O       6.41300000      31.08100000      34.25900000
 H       5.58300000      30.81800000      33.78800000
 H       7.05800000      30.46100000      33.90200000
 O      24.72200000      39.81200000      38.25700000
 H      25.68000000      39.72500000      38.32900000
 H      24.67900000      39.89700000      37.27700000
 O      16.18600000      17.09900000      30.62000000
 H      16.27600000      18.05600000      30.66700000
 H      15.24300000      17.01700000      30.74900000
 O       8.06800000       7.53000000      36.30100000
 H       7.23700000       8.04700000      36.38100000
 H       7.73900000       6.96000000      35.51300000
 O      18.57800000      20.08500000      31.00700000
 H      18.78600000      21.01000000      31.04100000
 H      19.48200000      19.73500000      30.83000000
 O      37.36000000      38.39900000      29.22000000
 H      36.47600000      38.75000000      29.44000000
 H      37.26700000      37.54000000      29.72600000
 O      16.14000000      20.12300000      35.97300000
 H      16.76800000      19.67500000      35.36800000
 H      16.35400000      19.68100000      36.81700000
 O      38.54800000      36.95800000      34.11300000
 H      38.18300000      37.71200000      33.65500000
 H      39.42400000      37.32500000      34.37800000
 O      22.66700000      25.18000000      29.66400000
 H      22.77100000      25.83600000      30.34800000
 H      23.63300000      24.84600000      29.65700000
 O      10.53800000      17.06200000      40.36300000
 H      11.50300000      17.11700000      40.29000000
 H      10.21000000      17.94800000      40.09800000
 O      20.65400000      27.17200000      31.93200000
 H      20.43900000      27.24800000      32.86800000
 H      21.64100000      26.93400000      32.08600000
 O      28.06700000      17.23200000      28.89800000
 H      28.50300000      16.38300000      28.93800000
 H      27.92200000      17.39700000      29.80300000
 O      36.49900000      23.57000000      31.25600000
 H      36.93000000      22.83800000      30.90000000
 H      36.90900000      23.70200000      32.13500000
 O      14.24500000      17.45000000      37.64100000
 H      15.15200000      17.66300000      37.81900000
 H      14.17100000      17.55000000      36.66300000
 O      16.64200000      23.70000000      29.52300000
 H      16.15600000      23.16300000      30.17000000
 H      16.83600000      24.43800000      30.09100000
 O      34.00200000      35.57400000      32.59400000
 H      33.45400000      35.31200000      31.83200000
 H      34.59400000      34.82000000      32.55500000
 O      22.71200000      39.54600000      29.13000000
 H      22.78300000      40.44300000      28.73600000
 H      22.83400000      39.73800000      30.04900000
 O      17.85800000      17.01300000      28.57300000
 H      17.23600000      17.50600000      28.01500000
 H      17.31700000      16.89800000      29.33800000
 O      27.69000000      38.13800000      32.08200000
 H      27.31400000      38.94600000      32.50400000
 H      27.60400000      38.36900000      31.15300000
 O      36.77500000      14.69200000      30.35100000
 H      36.60700000      14.34000000      29.44600000
 H      36.28200000      15.54200000      30.27700000
 O      35.24700000       7.26300000      37.80100000
 H      35.69300000       8.02100000      38.30000000
 H      35.16100000       7.67200000      36.93100000
 O      40.01000000      25.07200000      31.89000000
 H      39.78200000      24.70100000      32.72300000
 H      40.86600000      24.60300000      31.67500000
 O      22.37200000      26.60300000      35.34400000
 H      23.13600000      27.25400000      35.32000000
 H      22.61800000      26.11300000      36.13800000
 O      29.57200000       9.59600000      39.56000000
 H      29.26000000      10.05700000      40.35900000
 H      30.43800000       9.23500000      39.94900000
 O      30.26200000      11.35900000      29.06700000
 H      30.35200000      11.19900000      28.09200000
 H      30.04300000      10.41200000      29.36000000
 O      27.22800000      27.08000000      36.42500000
 H      26.93000000      26.23500000      36.82000000
 H      27.59900000      27.54200000      37.16800000
 O      10.73100000      21.40400000      30.54900000
 H      11.56900000      20.88500000      30.34900000
 H      10.09400000      20.86300000      30.01700000
 O      32.82000000       8.34800000      29.10400000
 H      33.67000000       7.93500000      29.34500000
 H      32.67800000       7.95900000      28.20400000
 O      40.19600000      10.41100000      28.09900000
 H      39.94900000       9.86600000      27.33000000
 H      40.65800000       9.73600000      28.63900000
 O      20.98200000      19.28300000      35.18000000
 H      20.51600000      20.04400000      35.59000000
 H      20.75700000      18.56200000      35.80200000
 O      10.01600000      26.78000000      28.55200000
 H       9.37100000      27.29400000      29.11600000
 H      10.65400000      27.51800000      28.49700000
 O      21.64500000      37.44900000      27.20000000
 H      21.92300000      37.85400000      26.38200000
 H      21.92600000      38.09500000      27.89000000
 O      22.00500000      37.04200000      35.49900000
 H      21.94700000      36.75900000      34.58500000
 H      21.30200000      36.55500000      35.94500000
 O      25.51700000      12.48900000      35.71400000
 H      24.59100000      12.34000000      35.45600000
 H      25.45900000      12.55300000      36.71700000
 O      35.07900000      16.95900000      31.32100000
 H      35.59000000      17.52300000      30.76900000
 H      35.67700000      16.96700000      32.10900000
 O      19.02800000      27.36700000      28.74200000
 H      19.60700000      26.71400000      28.27900000
 H      18.38400000      26.66400000      29.02700000
 O      36.89800000      19.97100000      28.22300000
 H      36.26800000      19.27000000      28.41200000
 H      37.39100000      19.55800000      27.46400000
 O      36.47800000      20.42500000      36.03400000
 H      36.06000000      19.55200000      36.20600000
 H      36.48600000      20.33600000      35.04200000
 O      36.54900000      16.78800000      33.63700000
 H      36.72300000      15.80500000      33.59600000
 H      37.42800000      17.00900000      34.08300000
 O      28.43500000      15.13300000      40.17300000
 H      28.52100000      14.50700000      40.93900000
 H      29.09900000      15.82900000      40.48000000
 O      14.96100000      22.19500000      36.85200000
 H      15.70400000      22.52300000      37.48000000
 H      15.41700000      21.35400000      36.57200000
 O      30.45400000      32.63800000      34.53500000
 H      31.36000000      32.55000000      34.83200000
 H      30.04100000      33.21200000      35.21400000
 O      33.92500000      18.88700000      27.74600000
 H      34.06300000      19.63900000      27.17800000
 H      33.11800000      19.08600000      28.24800000
 O      11.50100000      24.19600000      28.49100000
 H      10.68300000      23.70700000      28.72600000
 H      11.36400000      25.05100000      28.87500000
 O       7.44300000      35.89400000      35.54900000
 H       7.12200000      35.03600000      35.82800000
 H       7.90300000      35.63100000      34.71400000
 O       8.27100000      11.01400000      27.19700000
 H       7.92800000      10.11400000      26.86300000
 H       8.46900000      10.70000000      28.15700000
 O      24.82200000      16.13600000      33.48700000
 H      24.08800000      15.91100000      34.10600000
 H      24.65100000      15.39100000      32.85200000
 O      39.65700000      28.41000000      34.58100000
 H      39.60300000      27.51900000      35.04300000
 H      38.85500000      28.78500000      35.00800000
 O      18.27600000      37.49400000      34.47600000
 H      18.74900000      36.88900000      35.18200000
 H      18.26500000      38.33400000      34.94900000
 O      26.57000000      32.70800000      39.48100000
 H      26.90400000      33.64900000      39.70200000
 H      27.47600000      32.29700000      39.34600000
 O      23.39600000       7.59400000      30.52600000
 H      23.50500000       6.60500000      30.58000000
 H      23.96400000       7.94500000      31.22000000
 O      15.17900000      30.26200000      37.26700000
 H      14.92600000      29.92200000      36.39100000
 H      15.88100000      30.93300000      37.00700000
 O      32.20500000      15.66100000      31.04300000
 H      32.13100000      15.72100000      30.03300000
 H      33.10900000      16.00000000      31.15300000
 O      25.34500000      11.95800000      38.59100000
 H      25.00600000      11.76900000      39.47400000
 H      25.89500000      12.74300000      38.73700000
 O      26.28700000      17.73900000      38.40800000
 H      25.98200000      17.80200000      39.34900000
 H      27.02800000      17.10100000      38.65400000
 O      27.83100000      34.21900000      32.43900000
 H      28.55500000      34.79500000      32.80400000
 H      27.05300000      34.49900000      32.91000000
 O      14.28200000      40.28000000      33.00500000
 H      14.41200000      39.54800000      33.60500000
 H      13.30700000      40.31000000      32.79500000
 O       8.73500000      22.22200000      32.48800000
 H       9.25500000      21.70400000      31.89700000
 H       9.14500000      22.07600000      33.35500000
 O      15.25200000      39.20800000      27.84800000
 H      15.03500000      40.10900000      28.12700000
 H      16.11100000      39.38500000      27.43600000
 O      32.93600000      16.77800000      39.68900000
 H      32.92400000      17.31300000      38.89200000
 H      33.90500000      16.70000000      39.91700000
 O      19.76600000      27.33200000      34.73600000
 H      19.45400000      26.78700000      35.50700000
 H      20.73800000      27.31400000      34.93400000
 O      39.32300000      34.36400000      31.45500000
 H      40.16500000      34.23800000      30.90300000
 H      39.34700000      33.48900000      31.89600000
 O      12.43700000      11.61100000      34.50400000
 H      13.15600000      11.26300000      33.89600000
 H      12.96100000      12.14800000      35.12900000
 O      31.19100000      17.53600000      34.14400000
 H      30.46400000      18.08100000      33.75100000
 H      30.91100000      16.63900000      33.79100000
 O      10.18900000      27.24100000      40.06200000
 H       9.46200000      26.70300000      39.61600000
 H       9.68900000      27.73700000      40.73400000
 O      25.33800000      24.55400000      29.86200000
 H      25.88500000      25.36800000      29.81800000
 H      25.38800000      24.32100000      30.81000000
 O      40.77300000      19.10800000      29.66200000
 H      40.42000000      19.32300000      28.79400000
 H      41.74500000      19.12100000      29.42400000
 O      39.79300000      17.40900000      31.55900000
 H      40.35700000      17.97000000      30.95300000
 H      39.95100000      16.54900000      31.13100000
 O      36.40300000      19.48800000      39.79200000
 H      36.33700000      18.78100000      39.12700000
 H      35.99800000      19.15900000      40.58500000
 O      40.50300000      15.00400000      30.75600000
 H      40.27500000      14.30100000      30.10300000
 H      40.89900000      14.44300000      31.43900000
 O      28.95600000      20.72700000      40.68400000
 H      29.30000000      20.53800000      39.78800000
 H      29.66900000      21.18200000      41.07900000
 O       8.85900000       6.57300000      38.65700000
 H       8.38400000       6.87200000      37.83700000
 H       9.51500000       7.32900000      38.71800000
 O      25.17200000      27.84100000      32.92200000
 H      24.97800000      28.81100000      32.88100000
 H      25.78000000      27.70000000      32.18600000
 O       6.60000000      39.11200000      31.37300000
 H       7.38600000      38.68900000      30.99700000
 H       6.05900000      38.32200000      31.57400000
 O      21.95700000      10.88400000      29.88500000
 H      21.52900000      10.05000000      29.55900000
 H      21.16800000      11.49400000      29.71000000
 O      13.85700000      21.73400000      40.72100000
 H      14.30800000      22.52100000      40.37500000
 H      12.98600000      21.78100000      40.31400000
 O      11.03800000      10.90600000      36.73700000
 H      10.28800000      11.54100000      36.82800000
 H      11.36200000      11.15500000      35.87700000
 O      11.10700000       7.23500000      35.93400000
 H      11.24400000       6.55200000      36.60500000
 H      10.09600000       7.24200000      35.98100000
 O      13.14400000      15.41100000      32.27600000
 H      13.74400000      15.23400000      33.04100000
 H      13.25700000      14.70500000      31.68400000
 O      10.36700000      11.71900000      40.36100000
 H      10.04100000      10.99700000      40.99300000
 H      10.01400000      12.50400000      40.79800000
 O      19.76000000      35.91000000      28.15400000
 H      20.36300000      35.14500000      28.45700000
 H      20.40300000      36.33900000      27.54700000
 O      33.88000000      23.88200000      37.24100000
 H      33.80000000      23.35200000      36.39100000
 H      34.51500000      23.28700000      37.73300000
 O       9.11500000      30.48000000      27.14200000
 H      10.03100000      30.71700000      27.26500000
 H       8.76800000      30.51100000      28.03400000
 O      21.51700000      33.91100000      28.93400000
 H      21.27600000      33.11300000      29.50200000
 H      21.76300000      33.46700000      28.10100000
 O      38.46000000      38.13900000      37.74600000
 H      39.20700000      37.68300000      38.16100000
 H      37.83500000      37.35500000      37.50100000
 O      19.95300000      38.94500000      31.41900000
 H      19.96900000      38.93800000      30.42200000
 H      19.07700000      38.53800000      31.59600000
 O      20.57900000      20.21200000      27.51800000
 H      20.47900000      19.51400000      28.20800000
 H      21.54700000      20.14000000      27.36900000
 O      33.94100000      27.57500000      29.30500000
 H      33.11800000      27.81600000      29.82200000
 H      33.85500000      26.60100000      29.37900000
 O      20.79100000      27.86100000      40.47900000
 H      20.26400000      27.65100000      39.67400000
 H      21.45900000      28.42300000      40.05800000
 O      28.57600000      28.37700000      29.46800000
 H      29.03100000      27.48200000      29.45100000
 H      27.63300000      28.00400000      29.36800000
 O      33.79500000      25.63900000      33.06700000
 H      34.57500000      25.99700000      32.55000000
 H      33.85700000      26.29800000      33.80200000
 O      21.23200000      23.06600000      30.61300000
 H      22.09400000      22.59300000      30.86600000
 H      21.58500000      23.84700000      30.17000000
 O       9.00300000      37.32400000      37.98500000
 H       9.87400000      37.09200000      37.69400000
 H       8.42600000      36.90900000      37.35100000
 O      27.40300000      39.68300000      37.83500000
 H      27.84200000      38.80100000      37.64000000
 H      28.16100000      40.08300000      38.34500000
 O      17.54100000      32.73700000      29.53700000
 H      18.09700000      31.94000000      29.67000000
 H      17.10600000      32.43100000      28.65600000
 O      37.58600000      12.96300000      40.02200000
 H      37.95600000      12.11100000      39.77200000
 H      38.20300000      13.26000000      40.68100000
 O       8.26000000      28.97500000      33.43600000
 H       9.11700000      28.58600000      33.52800000
 H       7.71500000      28.36300000      33.96400000
 O      16.83000000      29.52000000      30.68600000
 H      17.67900000      29.90300000      30.41900000
 H      17.10800000      28.67800000      31.12800000
 O      28.91600000      36.65600000      28.34800000
 H      28.25200000      37.10400000      28.80600000
 H      28.70100000      35.68000000      28.58400000
 O      11.84200000      28.80400000      28.24000000
 H      12.36400000      28.95000000      27.38100000
 H      11.84800000      29.77300000      28.51600000
 O       8.18800000      26.04100000      38.86400000
 H       7.44000000      26.64800000      38.93700000
 H       8.12900000      25.84100000      37.89100000
 O      24.49400000      19.50000000      29.89300000
 H      23.81700000      18.87500000      29.66600000
 H      24.83900000      19.03900000      30.68000000
 O      12.54600000      19.77600000      38.91400000
 H      13.16300000      18.98100000      38.79100000
 H      13.00500000      20.08300000      39.77400000
 O      28.14600000      14.60200000      32.77800000
 H      27.79000000      14.11400000      33.51800000
 H      29.11500000      14.63100000      32.95100000
 O      19.30200000      30.74900000      37.97500000
 H      20.06900000      30.14300000      37.87500000
 H      19.45000000      31.20700000      38.81900000
 O      14.24200000      32.67700000      27.83500000
 H      14.46900000      33.59400000      27.56400000
 H      14.46800000      32.24900000      26.96800000
 O      31.69300000      28.09800000      30.35000000
 H      30.82000000      28.54500000      30.18900000
 H      31.31900000      27.15600000      30.30700000
 O      39.78800000      26.76500000      27.58400000
 H      40.23400000      26.10700000      28.14900000
 H      40.50400000      27.23800000      27.10400000
 O      11.38100000      22.54700000      39.47900000
 H      11.11100000      23.00600000      38.64100000
 H      11.23200000      21.64200000      39.22100000
 O      31.42300000      29.01100000      37.23200000
 H      31.99100000      29.40500000      36.48400000
 H      31.00000000      28.28700000      36.71600000
 O      29.82600000      39.93600000      39.32000000
 H      29.99700000      40.73200000      38.82300000
 H      30.16700000      40.24200000      40.23300000
 O      15.99300000      10.35900000      38.42500000
 H      16.20400000       9.66000000      37.75600000
 H      15.07900000      10.60600000      38.13900000
 O      31.15300000      38.66900000      32.32400000
 H      31.61100000      38.03800000      32.83200000
 H      31.58400000      39.50100000      32.65100000
 O      11.34900000      29.27900000      38.94100000
 H      12.18800000      28.85900000      38.75700000
 H      10.85200000      28.47900000      39.29600000
 O      13.26000000      16.70900000      40.04600000
 H      13.44100000      15.76400000      40.17600000
 H      13.61400000      16.81500000      39.14000000
 O      25.53300000      27.90200000      39.47000000
 H      26.33400000      28.37100000      39.04300000
 H      25.78100000      28.02400000      40.39300000
 O      21.39700000      29.15100000      37.24200000
 H      20.89500000      28.30800000      37.30300000
 H      21.80400000      29.09100000      38.12000000
 O      14.11700000      12.99400000      36.91100000
 H      13.31500000      13.13600000      37.46600000
 H      14.73100000      12.68100000      37.63500000
 O      37.39400000      18.47100000      31.13400000
 H      38.25400000      18.03200000      31.34800000
 H      37.82600000      19.28000000      30.69300000
 O       8.73700000      35.41900000      33.37500000
 H       8.44800000      35.78300000      32.53800000
 H       9.65100000      35.73400000      33.47400000
 O      14.34000000      10.59400000      32.19400000
 H      14.92000000       9.87300000      32.49900000
 H      14.73000000      10.75000000      31.32500000
 O      15.68700000      28.32600000      27.85500000
 H      15.01300000      27.59700000      28.17900000
 H      15.78600000      28.82000000      28.68500000
 O      39.72000000      22.96600000      29.61100000
 H      39.79100000      23.94800000      29.67100000
 H      40.05300000      22.88300000      28.66000000
 O      10.29800000      40.64300000      38.11600000
 H       9.52500000      40.24600000      37.73900000
 H       9.92200000      41.42000000      38.53000000
 O      16.66200000       8.85400000      33.29000000
 H      16.39200000       7.96200000      32.97000000
 H      16.34700000       8.81100000      34.20200000
 O      19.99000000      11.32400000      33.99600000
 H      19.30000000      11.18400000      34.72800000
 H      19.86000000      12.29200000      33.85100000
 O      13.17000000      19.86500000      30.47600000
 H      14.13400000      19.75100000      30.71300000
 H      12.75600000      19.10600000      31.00900000
 O      11.55100000      38.05800000      31.17200000
 H      11.27100000      38.90900000      31.64800000
 H      11.96700000      38.44100000      30.36100000
 O      15.81000000      40.44300000      38.54800000
 H      14.94500000      40.94400000      38.52500000
 H      15.76700000      40.11400000      37.58100000
 O      27.58800000      20.60500000      31.86200000
 H      27.01700000      19.86200000      32.16100000
 H      27.44800000      21.32000000      32.44900000
 O      14.78500000      37.06400000      29.85000000
 H      14.45900000      37.56400000      29.11000000
 H      15.60100000      37.51500000      30.07100000
 O      39.21300000      19.05100000      35.85600000
 H      38.71800000      18.68700000      36.59600000
 H      39.03600000      18.32400000      35.24400000
 O      20.87700000      33.13900000      36.44100000
 H      20.39600000      32.50300000      36.99000000
 H      21.75700000      33.14900000      36.77800000
 O      37.99300000      21.22600000      30.37700000
 H      37.75600000      20.81100000      29.53200000
 H      38.50400000      22.02400000      29.98900000
 O      27.55900000       7.37600000      39.96600000
 H      28.12600000       8.18700000      40.01200000
 H      26.65500000       7.78000000      40.06100000
 O      18.75200000      35.90500000      38.74200000
 H      18.46000000      36.78700000      38.91700000
 H      18.58900000      35.42800000      39.58000000
 O      10.96600000      33.52500000      33.23400000
 H      11.66300000      34.19000000      33.07200000
 H      10.22900000      33.81000000      32.68400000
 O      18.04200000      16.26000000      32.43500000
 H      17.60400000      15.49900000      32.83900000
 H      17.40000000      16.50700000      31.72000000
 O      34.74700000      27.35400000      36.94500000
 H      34.87300000      28.29200000      36.86500000
 H      34.08300000      27.28500000      37.64600000
 O      20.72000000      32.63600000      31.44200000
 H      21.65300000      32.44500000      31.52900000
 H      20.72500000      33.52400000      31.93600000
 O      33.66000000      37.94500000      33.65500000
 H      34.30200000      38.57600000      33.32600000
 H      34.00500000      37.11200000      33.28400000
 O      33.63900000      39.23500000      37.67300000
 H      33.31000000      40.17600000      37.66500000
 H      34.56000000      39.43800000      37.35200000
 O      22.93900000      17.61200000      28.50100000
 H      21.98300000      17.66500000      28.70300000
 H      22.91700000      17.47100000      27.56700000
 O      29.06200000      31.70000000      39.37500000
 H      29.98700000      31.56600000      39.17300000
 H      29.11000000      31.88600000      40.34700000
 O      32.64200000      22.96700000      40.34800000
 H      33.49600000      22.64500000      39.91600000
 H      32.34200000      23.54100000      39.62800000
 O      36.24900000      20.00000000      33.18100000
 H      36.43700000      19.50200000      32.35100000
 H      35.31900000      19.99100000      33.06100000
 O      15.58100000      36.96000000      37.10300000
 H      16.18000000      36.18200000      36.94900000
 H      14.81100000      36.52600000      37.41700000
 O      26.92400000      24.52500000      37.38000000
 H      27.55100000      23.75300000      37.40500000
 H      26.45200000      24.35700000      38.21000000
 O      20.85100000       8.37300000      30.20100000
 H      20.76000000       8.70500000      31.14000000
 H      21.64200000       7.87600000      30.36800000
 O      16.44800000      32.78000000      32.01600000
 H      16.90900000      32.75800000      31.13500000
 H      15.56300000      32.44200000      31.68600000
 O      14.15400000      32.35800000      30.65500000
 H      14.15100000      32.53200000      29.64500000
 H      14.02300000      33.31600000      30.90200000
 O      11.26600000      15.39100000      28.66900000
 H      12.21300000      15.27600000      28.45000000
 H      10.88200000      15.13000000      27.78600000
 O       7.76000000      25.49900000      36.01000000
 H       8.48000000      25.57400000      35.34100000
 H       7.15500000      26.19900000      35.68300000
 O      24.59200000      31.58300000      29.79500000
 H      24.76000000      31.40200000      28.80700000
 H      23.62500000      31.56200000      29.81500000
 O       9.63600000      33.79900000      28.83200000
 H      10.07400000      34.33900000      29.52000000
 H       8.74100000      33.75700000      29.28500000
 O      10.36300000      23.35700000      37.02100000
 H       9.87000000      22.51600000      37.13600000
 H       9.60000000      23.85300000      36.63800000
 O       6.41800000      26.48700000      30.61700000
 H       6.62000000      26.54700000      29.68100000
 H       6.97900000      25.61900000      30.82300000
 O      29.62700000      10.54000000      37.09400000
 H      29.67000000       9.88900000      37.82600000
 H      29.55800000      11.39100000      37.51700000
 O      34.19500000      21.59300000      30.31700000
 H      33.81300000      20.98100000      31.00800000
 H      34.61400000      22.23300000      30.91700000
 O      39.99900000      18.53100000      40.38400000
 H      39.20500000      18.81600000      40.84700000
 H      39.57700000      17.69700000      39.97000000
 O      39.66900000      25.31900000      39.22200000
 H      39.19200000      25.40600000      40.06200000
 H      38.92500000      25.39100000      38.59100000
 O      25.08200000      36.58000000      37.17100000
 H      24.18300000      36.71200000      37.56100000
 H      25.29300000      37.56000000      37.22300000
 O      24.67800000      27.95100000      35.92400000
 H      25.61600000      27.77200000      35.64900000
 H      24.67400000      27.34200000      36.69300000
 O      40.79300000      19.93200000      32.33700000
 H      40.67800000      19.88300000      31.33500000
 H      40.85300000      19.00300000      32.55300000
 O      30.70200000      17.39100000      36.70800000
 H      30.88000000      16.44600000      36.64600000
 H      30.90500000      17.73700000      35.83600000
 O      18.17800000      35.16600000      30.63300000
 H      18.68400000      35.42800000      29.81400000
 H      17.64800000      34.44000000      30.29300000
 O      25.42000000      32.19400000      36.18200000
 H      26.37700000      31.93800000      36.07900000
 H      24.99900000      31.50600000      35.63100000
 O      30.54000000      34.47100000      37.90500000
 H      29.64800000      34.10200000      37.70900000
 H      30.62700000      35.04200000      37.10400000
 O      11.79400000      40.46000000      32.08200000
 H      11.36800000      41.28800000      32.25700000
 H      11.87400000      40.50000000      31.10500000
 O      12.50100000      28.60700000      32.71200000
 H      11.82000000      29.31900000      32.77700000
 H      13.29800000      29.08400000      32.43700000
 O       9.48900000      10.27400000      30.80500000
 H      10.02100000      11.09700000      30.83900000
 H       9.87000000       9.87600000      29.99900000
 O      17.52200000      31.85100000      36.04000000
 H      18.15600000      31.35800000      36.67300000
 H      18.09500000      31.96200000      35.28300000
 O      22.52000000      33.70100000      34.50200000
 H      22.72800000      32.81800000      34.09000000
 H      21.75000000      33.48300000      35.00900000
 O      27.05000000      16.36900000      35.60900000
 H      27.45200000      15.52500000      35.36900000
 H      26.17500000      16.28300000      35.17700000
 O      31.47800000      19.66300000      28.98500000
 H      31.25300000      19.22600000      29.81800000
 H      30.85500000      20.37400000      28.93100000
 O      12.52700000      23.21700000      31.45300000
 H      11.68100000      22.70900000      31.29100000
 H      12.23400000      24.10500000      31.21100000
 O      22.95200000      12.19200000      35.07000000
 H      22.59200000      12.22900000      36.01400000
 H      22.18900000      12.50200000      34.58800000
 O      17.89700000      23.97800000      27.26100000
 H      18.72100000      23.82700000      27.78300000
 H      17.22800000      23.88900000      28.03800000
 O       7.34700000      26.39200000      28.12100000
 H       8.10800000      26.72300000      27.67100000
 H       7.44800000      25.44600000      28.04500000
 O      32.92100000      12.97600000      34.00700000
 H      33.55000000      12.29000000      34.39000000
 H      33.48100000      13.24300000      33.23000000
 O      16.87700000      23.73200000      38.28700000
 H      16.87800000      24.29400000      39.11300000
 H      17.58700000      24.21100000      37.72300000
 O      32.20300000      37.14700000      38.79100000
 H      32.50500000      37.88600000      38.24800000
 H      33.05500000      36.80800000      39.12900000
 O      21.53000000      19.39000000      31.93100000
 H      21.30700000      18.42100000      31.78000000
 H      21.33300000      19.43300000      32.90600000
 O      25.19100000      37.85900000      33.28800000
 H      24.81800000      36.95500000      33.33500000
 H      25.83700000      37.68500000      32.54400000
 O      29.44900000      28.85200000      33.79000000
 H      28.93200000      29.03300000      32.93300000
 H      30.24400000      29.35000000      33.63000000
 O      36.04200000      15.01500000      39.44600000
 H      35.14200000      14.64400000      39.63500000
 H      36.58300000      14.21700000      39.82400000
 O      29.45600000      12.91500000      38.20000000
 H      29.00800000      13.60000000      38.72000000
 H      30.37900000      13.18700000      38.08600000
 O      26.77100000      24.14300000      34.68900000
 H      26.59700000      24.37700000      35.63400000
 H      27.14600000      23.23600000      34.79200000
 O      13.03800000      14.07800000      40.41400000
 H      13.12000000      13.57000000      41.26900000
 H      13.91500000      13.78900000      40.02000000
 O      19.02700000      38.49100000      28.93100000
 H      18.80600000      37.60600000      28.76300000
 H      18.47000000      39.01600000      28.25500000
 O      23.36300000       8.45700000      28.02300000
 H      23.46600000       8.36900000      28.99300000
 H      24.27200000       8.89900000      27.84100000
 O      13.65800000      37.87900000      34.92200000
 H      14.24500000      37.29900000      34.48900000
 H      14.26200000      38.38200000      35.46500000
 O      29.18000000      24.99200000      33.54400000
 H      28.34500000      24.65500000      33.89100000
 H      29.72300000      25.17300000      34.34000000
 O      40.78100000      40.08500000      37.22600000
 H      41.36500000      40.32200000      37.95200000
 H      39.95500000      39.81400000      37.63400000
 O      32.28600000      13.80600000      38.43900000
 H      32.45600000      12.87100000      38.13400000
 H      32.72600000      14.31200000      37.76300000
 O      27.94900000      21.49200000      34.39700000
 H      27.87400000      20.51900000      34.65800000
 H      28.86500000      21.68200000      34.82700000
 O       9.28800000      18.91600000      36.15400000
 H       9.61400000      19.16800000      35.26000000
 H       8.85900000      18.04300000      35.93100000
 O       9.68300000      26.07300000      31.99800000
 H       9.44000000      26.99400000      31.64600000
 H       8.94600000      25.59200000      31.52400000
 O      24.02100000      25.99500000      38.18000000
 H      24.40100000      26.58400000      38.77100000
 H      24.08800000      25.12800000      38.48900000
 O      26.87200000      11.42400000      29.46400000
 H      25.92100000      11.22900000      29.68800000
 H      27.15500000      11.90900000      30.29700000
 O      31.69500000      30.87200000      39.06900000
 H      32.19800000      31.49100000      38.50400000
 H      31.54600000      30.16500000      38.39200000
 O      39.77000000      36.51900000      39.47000000
 H      39.83100000      37.36200000      39.96900000
 H      39.70600000      35.90100000      40.29600000
 O       7.14000000      33.41500000      29.74400000
 H       7.20600000      32.37400000      29.88000000
 H       6.40500000      33.52200000      30.40800000
 O      27.83900000       7.19800000      34.82900000
 H      28.50800000       7.01300000      35.54000000
 H      27.63500000       8.17100000      35.01300000
 O      39.46500000      31.02300000      30.78000000
 H      40.03400000      31.31000000      29.97300000
 H      40.06300000      30.34800000      31.12400000
 O      25.61200000      23.72100000      32.42500000
 H      25.23100000      22.87800000      32.79000000
 H      26.17500000      23.95300000      33.18800000
 O      18.20300000      18.34700000      40.47700000
 H      18.65100000      19.09200000      40.97400000
 H      19.02200000      17.90400000      40.17500000
 O      38.21000000      33.10400000      36.66300000
 H      38.87600000      33.81000000      36.79600000
 H      37.90600000      33.33000000      35.76800000
 O       9.00500000      12.52800000      37.30200000
 H       8.09900000      12.27400000      36.91500000
 H       8.69800000      12.42100000      38.23900000
 O      12.09700000       9.16800000      30.85100000
 H      12.71200000       9.61800000      31.49400000
 H      11.28400000       9.21000000      31.33000000
 O      11.27200000      30.84700000      36.58900000
 H      11.72200000      30.56100000      37.40400000
 H      11.12600000      29.94700000      36.15300000
 O      32.55800000      10.68900000      31.02900000
 H      31.88400000      10.76300000      30.36400000
 H      33.30000000      10.29100000      30.59100000
 O      28.03100000      30.08400000      31.48900000
 H      28.22100000      29.77900000      30.60500000
 H      28.52100000      30.95900000      31.52500000
 O      37.43800000      29.47600000      35.98600000
 H      37.27200000      29.99100000      36.82700000
 H      36.70600000      29.82700000      35.47000000
 O      35.21900000      10.91600000      36.66900000
 H      34.34900000      10.94300000      37.10900000
 H      35.73600000      10.48200000      37.34100000
 O      35.59200000      30.27200000      37.74200000
 H      35.22200000      31.13900000      37.51100000
 H      36.03100000      30.50300000      38.59800000
 O      12.94700000      32.27800000      34.81100000
 H      12.39300000      31.49900000      35.14500000
 H      12.25400000      32.85300000      34.45900000
 O      22.95900000      17.43500000      40.50100000
 H      22.70100000      18.06800000      39.76500000
 H      22.12100000      17.49500000      41.01000000
 O      24.86500000      13.72300000      31.73700000
 H      24.72500000      12.85300000      31.30600000
 H      25.64900000      14.05800000      31.24000000
 O      24.18500000      31.42500000      40.02700000
 H      25.12800000      31.80100000      40.12100000
 H      23.84300000      32.02500000      39.31700000
 O      16.30700000      26.26700000      34.37300000
 H      17.05100000      26.81200000      34.71200000
 H      15.54100000      26.65500000      34.87900000
 O      11.96000000      38.72900000      39.73100000
 H      11.43900000      37.94800000      39.59200000
 H      11.58300000      39.41000000      39.19800000
 O      38.65500000      12.31700000      32.60700000
 H      39.62800000      12.57000000      32.58300000
 H      38.73000000      11.46200000      32.22600000
 O      17.97400000      18.90200000      33.75900000
 H      18.30600000      17.99900000      33.63700000
 H      18.08000000      19.33300000      32.89100000
 O      39.24600000      17.09700000      34.05800000
 H      40.10400000      16.67400000      34.27000000
 H      39.42100000      17.40300000      33.15500000
 O      28.89300000      10.16900000      33.31400000
 H      29.79400000       9.86400000      33.49800000
 H      28.45500000       9.93900000      34.14400000
 O      35.21100000      24.94300000      29.36600000
 H      35.45800000      24.14800000      28.85900000
 H      35.40600000      24.65100000      30.28600000
 O      31.33300000      24.66400000      31.81900000
 H      30.61200000      24.90200000      32.46300000
 H      32.12500000      25.15000000      32.18100000
 O      36.39800000      17.31400000      37.83000000
 H      35.84100000      17.05700000      37.09800000
 H      36.47400000      16.50900000      38.31600000
 O      37.79000000      31.64500000      38.99500000
 H      37.55300000      32.36300000      39.60700000
 H      38.10600000      32.10800000      38.21100000
 O      38.40000000       8.76100000      40.73800000
 H      38.65300000       9.69400000      40.41200000
 H      39.20000000       8.27600000      40.44000000
 O      38.35400000      21.61100000      33.35900000
 H      38.86500000      21.52000000      32.55000000
 H      37.64100000      20.93600000      33.21200000
 O      24.99500000      21.74900000      39.42900000
 H      25.38100000      21.09600000      40.12200000
 H      25.70500000      22.42700000      39.47600000
 O      37.67500000      24.76400000      37.58700000
 H      37.47700000      24.18600000      36.81900000
 H      36.79000000      24.82200000      37.96400000
 O      20.41800000      17.79000000      37.56100000
 H      20.65500000      16.84100000      37.48400000
 H      21.19600000      18.04500000      38.19600000
 O      23.10400000      39.27900000      31.98100000
 H      22.33500000      38.69500000      32.06300000
 H      23.76700000      38.77800000      32.37800000
 O      13.61700000      34.98000000      31.23200000
 H      13.98300000      35.47800000      30.44400000
 H      13.85700000      35.58100000      31.95700000
 O      18.73800000      39.93500000      35.93100000
 H      19.10600000      40.28200000      35.09400000
 H      19.35000000      40.39700000      36.54200000
 O      11.01700000      28.25400000      35.87700000
 H      10.80900000      27.49000000      35.39600000
 H      11.70500000      27.91500000      36.51000000
 O      11.81300000      31.80400000      27.77600000
 H      11.19400000      32.30800000      28.30400000
 H      12.63200000      32.27500000      27.80100000
 O      40.13800000      14.50500000      37.13900000
 H      39.40100000      13.93800000      37.13200000
 H      40.07700000      14.95800000      36.33200000
 O      39.12300000       7.72300000      37.72500000
 H      39.69300000       8.45400000      37.65100000
 H      39.55900000       7.16500000      38.41300000
 O      33.74500000      29.87600000      28.21600000
 H      33.07900000      29.52400000      27.56300000
 H      33.79800000      29.00600000      28.68400000
 O      22.00700000      11.70100000      40.42100000
 H      21.88100000      10.76600000      40.82600000
 H      22.86300000      11.86400000      40.95100000
 O      27.18800000      20.32600000      29.15200000
 H      26.21200000      20.16600000      29.19200000
 H      27.32500000      20.50400000      30.09000000
 O      19.90200000      13.42800000      40.42400000
 H      20.40700000      12.58600000      40.51000000
 H      20.66700000      14.03800000      40.45800000
 O      24.08000000      33.53600000      38.15400000
 H      24.28500000      33.22600000      37.22800000
 H      24.92300000      34.10300000      38.22100000
 O      14.00400000      27.60600000      34.84600000
 H      13.56000000      27.76300000      33.91300000
 H      14.38100000      28.60400000      34.83600000
 O      17.79500000      13.46300000      36.11400000
 H      17.92500000      12.51100000      36.33600000
 H      17.72700000      13.89200000      36.98100000
 O      20.09400000       9.04300000      32.79600000
 H      19.20900000       9.18000000      32.44400000
 H      20.21800000       9.91700000      33.19300000
 O      22.51700000      19.18900000      38.66100000
 H      23.38100000      18.95900000      38.23600000
 H      22.68000000      20.17200000      38.76000000
 O      20.24900000      18.23400000      29.04300000
 H      19.29100000      18.03600000      28.92400000
 H      20.37700000      17.69300000      29.81900000
 O      12.30400000      26.32600000      31.21500000
 H      12.43800000      27.15300000      31.77200000
 H      11.39900000      26.02200000      31.60100000
 O      10.82800000      33.50400000      37.03800000
 H      10.99700000      32.59000000      36.78400000
 H      10.04100000      33.33500000      37.63100000
 O      27.33400000      11.83100000      32.04600000
 H      27.66900000      12.68000000      32.21900000
 H      27.98000000      11.24100000      32.48800000
 O      12.43700000      24.35300000      34.19900000
 H      12.83100000      23.92300000      33.42000000
 H      13.12800000      24.50000000      34.77800000
