42
XYZ file of cluster: frame_9000_c84bc.4c0ff.276c2 - created by MolEdiTo
 O      19.54300000       8.68400000      10.11500000
 H      18.90600000       9.15700000      10.72400000
 H      18.87400000       8.48800000       9.43200000
 O      20.04300000      13.07200000       4.85000000
 H      19.19300000      12.70100000       5.04300000
 H      20.58500000      13.24400000       5.65300000
 O      18.39000000       6.80600000       4.79100000
 H      18.12800000       7.07600000       5.68200000
 H      17.52400000       6.82500000       4.19100000
 O      20.23300000       9.86600000       7.30600000
 H      20.68500000       8.93800000       7.23100000
 H      20.11000000      10.19800000       6.37700000
 O      18.68900000      12.61100000       7.38200000
 H      17.78400000      12.35900000       7.34100000
 H      19.07100000      12.06200000       8.17800000
 O      23.10200000      11.85700000       8.61900000
 H      22.42900000      11.22600000       8.31200000
 H      24.00400000      11.42400000       8.61400000
 O      24.85200000      10.09900000       7.60200000
 H      24.80700000       9.26200000       8.08200000
 H      24.45300000       9.80000000       6.74700000
 O      25.64900000      10.15000000      10.81500000
 H      24.89100000       9.64600000      10.37900000
 H      25.34600000      10.53500000      11.65000000
 O      22.93300000      14.23700000       7.12500000
 H      22.95100000      13.27900000       7.56000000
 H      23.66400000      14.70400000       7.53700000
 O      22.85300000       7.49900000       6.80100000
 H      23.10000000       7.69600000       5.82500000
 H      22.48300000       6.58900000       6.75300000
 O      23.55600000      10.01500000       4.83600000
 H      22.76900000      10.18300000       4.20600000
 H      24.27900000      10.55500000       4.40300000
 O      22.82200000      13.79100000      10.78800000
 H      22.72500000      13.49100000       9.83700000
 H      22.04600000      14.31000000      11.05800000
 O      25.23600000      12.34700000       3.41000000
 H      26.07300000      12.80100000       3.83500000
 H      24.60000000      13.00600000       3.42800000
 O      23.80600000       8.40900000       9.29200000
 H      23.86900000       7.40600000       9.15300000
 H      22.81300000       8.60300000       9.46800000
