24
XYZ file of cluster: frame_9000_67e0.a01fe.7047 - created by MolEdiTo
 O       2.24000000      18.81900000       4.00700000
 H       3.21400000      19.01900000       4.11300000
 H       2.20700000      18.10200000       3.31800000
 O       5.12100000      18.97800000       2.86300000
 H       5.93200000      19.55500000       3.19200000
 H       5.72400000      18.34600000       2.33500000
 O       6.82100000      15.68600000       3.05800000
 H       6.30100000      15.94400000       2.24300000
 H       6.60900000      16.31200000       3.68100000
 O       1.18400000      16.16800000       4.07900000
 H       0.56800000      16.90000000       3.97600000
 H       1.33100000      16.01300000       5.09700000
 O       4.98900000      13.87100000       5.28600000
 H       5.76900000      14.36200000       5.71900000
 H       4.25200000      14.46200000       5.59400000
 O       3.69800000      15.17300000       2.93300000
 H       2.80000000      15.47600000       3.22300000
 H       3.79600000      15.71100000       2.10200000
 O       4.04100000      16.43900000       6.27300000
 H       3.58200000      17.03800000       6.91900000
 H       4.35900000      17.06300000       5.53800000
 O       2.59800000      17.70200000       1.28500000
 H       2.16200000      18.31100000       0.60700000
 H       3.51600000      18.04300000       1.25100000
