39
XYZ file of cluster: frame_7000_2377b.c58b5.72af - created by MolEdiTo
 O       3.96100000      20.61100000       3.75600000
 H       4.58800000      20.64100000       4.56400000
 H       3.09900000      20.57900000       4.12000000
 O       5.74800000      18.24900000       5.18300000
 H       6.63200000      18.63200000       4.78700000
 H       5.98300000      17.33100000       5.33800000
 O       7.66900000      19.94000000       3.76200000
 H       7.16900000      20.34700000       3.04400000
 H       8.38900000      19.36700000       3.33700000
 O       6.05800000      18.92400000       1.37600000
 H       6.63700000      18.45000000       2.05400000
 H       5.25800000      18.40300000       1.28200000
 O      10.13500000      19.85400000       2.28800000
 H      10.09800000      19.78700000       1.27100000
 H      10.87200000      19.34900000       2.59200000
 O       3.61300000      17.79900000       3.39500000
 H       3.51600000      18.76900000       3.43900000
 H       4.21000000      17.53600000       4.17800000
 O      10.73900000      17.85800000       4.96600000
 H      11.18700000      18.76300000       5.08900000
 H       9.83900000      17.95500000       5.41400000
 O       8.22500000      24.88700000       2.95300000
 H       7.43600000      25.13900000       2.53700000
 H       8.82200000      25.56500000       2.65100000
 O       6.04700000      24.22700000       4.84400000
 H       7.01000000      24.00700000       4.85300000
 H       5.72000000      23.87100000       3.94600000
 O       6.02300000      23.49600000       1.79200000
 H       5.16400000      23.05400000       1.81900000
 H       6.35200000      23.49700000       0.89900000
 O       8.66000000      23.55000000       5.35500000
 H       8.51500000      22.86500000       4.67300000
 H       8.71100000      24.36900000       4.79800000
 O       4.61300000      24.57900000       7.26000000
 H       5.23200000      23.97400000       6.76200000
 H       3.79900000      24.38300000       6.78900000
 O      10.70500000      24.02100000       1.36100000
 H      10.84300000      23.09300000       1.67500000
 H      10.07600000      24.01000000       0.62600000
