42
XYZ file of cluster: frame_7000_e340.2b18e.4cda8 - created by MolEdiTo
 O       7.19200000       7.33800000       8.23900000
 H       6.90300000       6.71900000       7.44400000
 H       7.33800000       6.68700000       8.96900000
 O       7.14000000       7.34200000      12.24900000
 H       8.05600000       7.70300000      11.95700000
 H       6.59600000       8.05600000      12.53600000
 O       3.66700000       6.19900000      13.49800000
 H       2.97600000       6.47500000      12.80200000
 H       3.90600000       5.24700000      13.33500000
 O       2.00300000       4.58200000       9.41600000
 H       2.46600000       3.78100000       9.05200000
 H       1.24100000       4.22500000       9.91800000
 O       6.32600000       9.87900000      13.33100000
 H       6.99200000       9.68400000      14.05600000
 H       6.33700000      10.87700000      13.34200000
 O       7.08800000       9.99500000       7.87300000
 H       6.39500000      10.24900000       8.43800000
 H       7.00300000       8.96800000       7.88700000
 O       2.30300000      10.98400000      12.28600000
 H       1.73600000      11.76100000      11.93500000
 H       2.58700000      10.50300000      11.48700000
 O       1.51600000      10.07200000      14.84500000
 H       1.99400000      10.51100000      14.10300000
 H       2.26500000       9.39700000      15.07800000
 O       1.98000000       6.95800000      11.15900000
 H       2.14500000       7.99200000      11.26300000
 H       2.37800000       6.69800000      10.27300000
 O       4.14200000       8.71300000      14.41500000
 H       4.97800000       8.99700000      13.98800000
 H       3.88900000       7.78400000      14.03100000
 O       3.86500000       7.37200000       9.30400000
 H       3.59200000       7.81800000       8.45900000
 H       4.12500000       8.12300000       9.84900000
 O       1.66700000       8.71000000       7.51100000
 H       1.69100000       9.15600000       6.71200000
 H       1.62300000       9.44700000       8.14400000
 O       4.46700000       9.52100000      10.66400000
 H       4.94300000       9.51500000      11.54500000
 H       4.43200000      10.45700000      10.40500000
 O       5.80800000       5.00300000      10.05100000
 H       5.11100000       5.69100000       9.93800000
 H       5.74500000       4.52100000       9.18600000
