114
XYZ file of cluster: frame_12000_9bfab.9fac8.c6983 - created by MolEdiTo
 O      29.27200000      26.68000000      28.72600000
 H      29.03500000      27.27100000      27.90600000
 H      28.41800000      26.39700000      29.16400000
 O      26.32600000      26.32600000      29.39200000
 H      26.30900000      26.05400000      30.35100000
 H      25.73800000      27.05700000      29.34600000
 O      28.70600000      23.09600000      29.79300000
 H      28.01700000      22.73100000      30.29500000
 H      29.15300000      22.46900000      29.18800000
 O      30.09400000      24.43200000      26.82000000
 H      29.85100000      25.06800000      27.54600000
 H      29.41100000      24.39900000      26.08900000
 O      22.94100000      22.08700000      29.07700000
 H      23.77300000      21.53800000      29.00300000
 H      22.42200000      21.50900000      29.64300000
 O      27.31000000      30.57500000      28.76600000
 H      28.17200000      30.35400000      28.33400000
 H      27.07600000      29.75200000      29.28700000
 O      21.75500000      25.36100000      29.70800000
 H      20.99800000      25.86600000      30.02200000
 H      22.11400000      25.88500000      28.96600000
 O      30.55700000      29.34100000      28.51000000
 H      30.33000000      29.58100000      27.60400000
 H      30.61200000      28.37000000      28.46700000
 O      25.69200000      23.40900000      30.63400000
 H      26.29800000      24.11600000      30.37900000
 H      25.37500000      22.76600000      29.92900000
 O      21.25900000      26.90200000      26.51400000
 H      20.56000000      27.56300000      26.51200000
 H      21.65000000      27.00200000      25.56000000
 O      24.40900000      28.37300000      29.81200000
 H      24.08900000      28.92500000      30.55700000
 H      23.83100000      28.71800000      29.10700000
 O      23.39100000      29.85700000      27.65600000
 H      22.43400000      29.59300000      27.58100000
 H      23.61800000      30.10700000      26.74500000
 O      28.27700000      28.67200000      30.58500000
 H      29.04500000      28.98400000      30.10600000
 H      28.65600000      28.34700000      31.39900000
 O      27.39200000      21.00900000      27.10000000
 H      28.27900000      20.92900000      27.50000000
 H      26.87700000      21.81300000      27.40600000
 O      24.84200000      27.01200000      26.52900000
 H      24.23000000      26.80400000      27.24900000
 H      24.77600000      27.98200000      26.48600000
 O      21.19800000      29.00300000      29.62100000
 H      20.71200000      29.79200000      29.89600000
 H      20.57400000      28.53800000      29.08800000
 O      26.56200000      23.76200000      27.74200000
 H      27.49500000      23.76600000      28.00700000
 H      26.24800000      24.72900000      27.74100000
 O      23.70700000      24.50600000      27.60600000
 H      24.24900000      23.70000000      27.40800000
 H      23.19000000      24.16800000      28.29100000
 O      30.11100000      21.37400000      28.19600000
 H      30.59700000      21.65600000      27.40500000
 H      30.43200000      20.48600000      28.42900000
 O      23.62100000      25.34100000      33.60800000
 H      24.14300000      24.94400000      32.89400000
 H      22.85100000      25.85400000      33.15300000
 O      25.84200000      22.59200000      34.72100000
 H      25.98300000      23.11100000      33.85300000
 H      26.76300000      22.46900000      34.97700000
 O      23.53300000      21.43800000      34.68700000
 H      23.01000000      22.18500000      34.45000000
 H      24.32400000      21.82800000      35.08900000
 O      26.18100000      27.83800000      37.40700000
 H      26.54600000      28.02400000      36.50600000
 H      25.66600000      27.05100000      37.11800000
 O      25.25200000      25.84100000      35.72300000
 H      24.55100000      26.22400000      35.18100000
 H      25.34100000      24.95000000      35.20500000
 O      21.14000000      27.10000000      33.60000000
 H      20.24900000      27.47400000      33.87300000
 H      21.55300000      27.92200000      33.32800000
 O      21.60400000      21.57900000      36.93200000
 H      21.07500000      22.37100000      36.66500000
 H      22.45500000      21.75900000      36.52000000
 O      21.98200000      28.03900000      37.14000000
 H      22.27300000      27.40000000      36.55300000
 H      21.20100000      28.47800000      36.68100000
 O      21.54000000      23.27100000      33.12700000
 H      22.25000000      23.50900000      32.48200000
 H      20.76800000      23.43800000      32.49500000
 O      28.83000000      22.13400000      36.80800000
 H      29.53800000      21.47200000      36.53500000
 H      28.35300000      21.63500000      37.43700000
 O      23.14700000      29.46000000      34.00800000
 H      22.21500000      29.65000000      34.25200000
 H      23.50800000      30.36500000      33.77100000
 O      22.35700000      24.08800000      35.73200000
 H      22.87400000      24.41700000      34.94000000
 H      23.03200000      23.95600000      36.41200000
 O      26.20100000      28.56400000      34.05800000
 H      26.19600000      28.72300000      33.04100000
 H      25.32200000      28.92100000      34.37600000
 O      30.68100000      24.81500000      32.81000000
 H      31.47800000      24.99100000      32.27900000
 H      30.04300000      24.24800000      32.20800000
 O      28.58500000      23.28600000      34.37800000
 H      29.08800000      23.31600000      33.54300000
 H      29.16600000      22.75700000      34.91400000
 O      28.50100000      25.99400000      36.14100000
 H      28.19000000      25.09600000      36.33000000
 H      28.60300000      26.32700000      36.99700000
 O      27.13500000      25.60000000      33.50000000
 H      27.69300000      25.27100000      34.21200000
 H      26.60900000      26.29300000      33.97500000
 O      29.80400000      27.28800000      34.07500000
 H      29.42200000      26.94000000      34.88400000
 H      30.00800000      26.41700000      33.63300000
 O      29.21000000      30.15800000      37.00000000
 H      29.03800000      30.77100000      37.67900000
 H      28.83000000      30.53400000      36.18600000
