93
XYZ file of cluster: frame_7000_a148e.9f52d.9b25a - created by MolEdiTo
 O      26.74400000      21.30400000      22.53100000
 H      26.29600000      21.43900000      23.43900000
 H      27.08800000      20.36600000      22.61900000
 O      21.51600000      22.12900000      26.52900000
 H      21.57200000      21.97000000      25.57400000
 H      21.70600000      23.08000000      26.67800000
 O      21.98100000      21.92100000      23.90000000
 H      21.22700000      21.88700000      23.20100000
 H      22.71800000      22.36200000      23.39200000
 O      29.23000000      27.33600000      29.03300000
 H      28.39800000      27.75700000      28.82300000
 H      29.62300000      27.30000000      28.13500000
 O      28.21900000      24.38600000      26.74900000
 H      28.62100000      23.80900000      26.05400000
 H      27.47100000      24.83300000      26.33700000
 O      28.18100000      29.96200000      25.12300000
 H      28.25200000      30.74600000      25.75700000
 H      27.31700000      29.59000000      25.18800000
 O      21.87100000      25.72800000      22.18400000
 H      22.39600000      26.00500000      21.39500000
 H      20.94700000      25.63600000      21.90100000
 O      24.64000000      23.81100000      22.53800000
 H      24.94000000      24.30700000      21.72700000
 H      24.20400000      24.43000000      23.14900000
 O      26.61300000      28.17400000      27.71500000
 H      26.04000000      28.95000000      27.46200000
 H      26.13400000      27.96500000      28.49000000
 O      25.35400000      24.11400000      27.80200000
 H      24.81700000      24.60700000      27.14300000
 H      24.75100000      23.57300000      28.43400000
 O      25.92800000      29.26000000      30.28200000
 H      25.33600000      30.00000000      30.51100000
 H      26.75400000      29.81700000      30.14300000
 O      27.46300000      21.37200000      27.77100000
 H      27.83700000      21.93600000      28.46200000
 H      27.75400000      21.88700000      26.93600000
 O      24.07600000      29.23800000      21.73200000
 H      23.72600000      28.50300000      21.18100000
 H      23.29300000      29.51700000      22.29500000
 O      29.40500000      26.57700000      24.39200000
 H      29.21200000      25.72800000      24.86200000
 H      28.61800000      27.17900000      24.60500000
 O      30.64100000      27.62700000      26.70800000
 H      30.31900000      27.37500000      25.74100000
 H      31.59200000      27.93800000      26.55500000
 O      29.77000000      23.06400000      24.80600000
 H      30.45900000      22.45400000      24.41500000
 H      29.34800000      23.41900000      23.98800000
 O      22.62000000      24.81700000      26.88800000
 H      21.69900000      25.15600000      27.11100000
 H      23.11200000      24.98200000      27.72800000
 O      30.46800000      30.22100000      29.36000000
 H      29.95200000      29.43600000      29.34800000
 H      29.97600000      30.76600000      28.70000000
 O      27.09000000      26.74600000      22.19700000
 H      27.30800000      25.86100000      22.57900000
 H      26.23100000      26.49400000      21.62000000
 O      21.59800000      28.15800000      20.56600000
 H      21.00500000      28.34000000      21.32900000
 H      21.25800000      27.41000000      20.05900000
 O      26.68100000      26.22300000      25.32400000
 H      26.14400000      26.66700000      26.02200000
 H      26.27400000      26.75700000      24.58200000
 O      23.56400000      28.16200000      26.42500000
 H      23.61800000      27.47300000      27.14000000
 H      23.51300000      27.78000000      25.50300000
 O      25.40800000      22.49700000      25.42400000
 H      25.00000000      21.64200000      25.22000000
 H      25.19200000      22.73800000      26.38300000
 O      28.60800000      21.97100000      20.60000000
 H      28.04900000      21.54900000      21.31100000
 H      28.02000000      22.61600000      20.06900000
 O      23.35000000      26.78400000      28.86000000
 H      24.00600000      26.68500000      29.54100000
 H      22.66000000      26.50200000      29.50200000
 O      27.53300000      24.90000000      29.69400000
 H      28.26000000      25.48500000      29.43100000
 H      27.04400000      24.43300000      28.87300000
 O      23.34000000      22.75000000      29.13100000
 H      22.59500000      23.28700000      29.55000000
 H      23.46200000      21.92500000      29.71700000
 O      25.61900000      28.59200000      23.72600000
 H      26.33000000      28.29900000      23.13200000
 H      24.92000000      28.93300000      23.05400000
 O      29.68600000      28.96500000      21.67700000
 H      30.28100000      28.58100000      22.37200000
 H      28.73300000      28.54500000      21.69600000
 O      27.64600000      23.91600000      22.95200000
 H      27.25400000      23.08000000      22.53600000
 H      27.12900000      23.93100000      23.72000000
 O      23.61300000      25.85500000      24.33300000
 H      22.83000000      25.92900000      23.71200000
 H      23.22700000      25.58700000      25.18300000
