117
XYZ file of cluster: frame_7000_35d6.46b65.965c - created by MolEdiTo
 O       1.57900000      18.54800000       8.57600000
 H       1.16800000      17.71600000       8.18100000
 H       1.22900000      19.18300000       7.89100000
 O       8.73800000      13.59900000       2.63600000
 H       8.94000000      14.40600000       3.21800000
 H       9.17300000      12.73600000       2.94500000
 O       2.49400000      19.13500000       2.80400000
 H       2.55600000      20.00500000       2.39100000
 H       1.59900000      18.83500000       2.55300000
 O       4.35900000      20.26900000      10.81800000
 H       4.46500000      20.21300000       9.83900000
 H       5.32100000      20.05100000      11.04700000
 O       8.73300000      10.19700000       3.35700000
 H       9.51400000      10.20300000       2.78400000
 H       9.15700000      10.40400000       4.22600000
 O      10.22900000      15.95900000       4.09000000
 H      10.83800000      15.74400000       4.84900000
 H       9.82300000      16.84300000       4.28000000
 O       9.19000000      18.37000000       4.83800000
 H       9.22000000      18.66500000       5.72300000
 H       9.53400000      19.17000000       4.41800000
 O       1.23500000      14.26100000      10.24600000
 H       0.43700000      14.52800000       9.77700000
 H       1.73900000      15.08700000      10.21300000
 O       6.73000000      19.81100000       2.40000000
 H       7.08100000      19.92800000       1.55100000
 H       7.52500000      19.45100000       2.91100000
 O       4.76200000      14.20800000       7.35600000
 H       5.42100000      13.56600000       6.89500000
 H       3.98200000      13.90500000       6.80200000
 O       6.10400000      14.90100000       2.51900000
 H       5.67600000      14.08700000       2.25800000
 H       6.98100000      14.88600000       2.04400000
 O       6.37700000      11.66300000       3.08400000
 H       7.15300000      11.14800000       3.38900000
 H       6.69300000      11.87400000       2.21200000
 O       8.80000000      17.03700000       8.75600000
 H       9.72200000      17.14200000       8.41000000
 H       8.79700000      16.03900000       8.60100000
 O       6.19800000      12.66700000       5.59300000
 H       6.60400000      11.75400000       5.58500000
 H       6.03700000      12.77900000       4.61200000
 O       1.93800000      11.90400000       8.59900000
 H       2.07800000      11.89500000       7.64000000
 H       1.24100000      12.62900000       8.81900000
 O       4.09600000      17.21500000       1.24800000
 H       3.65700000      18.05900000       1.63700000
 H       4.70300000      16.85000000       1.98800000
 O      10.58600000      12.65200000      10.64400000
 H      10.90300000      12.16500000      11.46400000
 H       9.84000000      12.14500000      10.17900000
 O       7.25400000      20.46500000      11.08500000
 H       7.72500000      20.89300000      11.86200000
 H       7.28900000      21.15800000      10.41300000
 O       4.50300000      14.31800000      10.33100000
 H       5.15900000      15.03200000      10.07400000
 H       4.36700000      13.88900000       9.45300000
 O       9.67500000      14.33500000       8.09900000
 H       9.07600000      13.47500000       8.06400000
 H      10.38800000      14.08300000       8.66400000
 O       7.93500000      12.38200000       8.99400000
 H       7.55100000      11.80500000       8.31700000
 H       7.31700000      12.11500000       9.74000000
 O       2.77200000      17.21500000      10.80800000
 H       3.42600000      17.00800000      10.09800000
 H       2.33700000      18.00200000      10.32500000
 O       2.31200000      14.97600000       2.09300000
 H       2.72400000      15.84200000       1.74800000
 H       1.39700000      15.01600000       2.20800000
 O       3.38700000      14.27000000       4.84300000
 H       3.55300000      14.20200000       3.86600000
 H       2.65800000      14.89900000       4.93100000
 O       1.05300000      15.74300000       7.66700000
 H       1.99700000      15.77600000       7.49500000
 H       0.79600000      15.37800000       6.78500000
 O       5.95000000      11.79800000      10.71500000
 H       6.19700000      12.20300000      11.53700000
 H       5.08200000      12.14800000      10.41100000
 O       6.35900000      16.19200000       9.80000000
 H       7.21200000      16.34800000       9.41000000
 H       6.28900000      16.85100000      10.56600000
 O       4.66100000      10.95800000       8.21200000
 H       5.01700000      10.30500000       8.93000000
 H       3.76900000      11.22500000       8.53700000
 O       3.30500000      12.09500000      11.09900000
 H       3.51200000      13.09100000      11.18700000
 H       2.59900000      12.05500000      10.40800000
 O       3.89900000      16.92500000       7.48700000
 H       3.64600000      17.03300000       6.54300000
 H       4.39000000      16.10800000       7.51900000
 O       8.09500000      19.77300000       7.87200000
 H       8.34100000      18.91900000       8.13900000
 H       7.58500000      20.15600000       8.59200000
 O       3.80400000      20.17900000       7.88300000
 H       4.41700000      19.52800000       7.52000000
 H       2.89000000      19.74800000       8.12900000
 O       3.77500000      12.02700000       3.19600000
 H       3.37100000      11.84800000       4.06000000
 H       4.70000000      11.68600000       3.20300000
 O       5.53800000      16.35000000       4.91400000
 H       5.10100000      15.60300000       5.35300000
 H       6.15100000      15.83700000       4.28100000
 O       2.25100000      17.04100000       5.20100000
 H       2.76800000      17.59700000       4.59400000
 H       1.27700000      17.13800000       4.95000000
 O       2.00400000      11.64800000       5.57400000
 H       1.30900000      11.30300000       4.93300000
 H       1.86200000      12.59100000       5.46500000
 O       3.95100000       9.60300000       5.55000000
 H       3.31300000       9.03900000       5.03800000
 H       3.52100000      10.41300000       5.91100000
 O       6.40100000      20.28500000       5.53500000
 H       6.10900000      19.37400000       5.29600000
 H       7.38700000      20.20800000       5.93400000
 O       1.68700000      12.33600000       1.21500000
 H       2.30000000      13.11300000       1.31600000
 H       2.15800000      11.66900000       1.81500000
