93
XYZ file of cluster: frame_7000_1b59.20eb.c42dc - created by MolEdiTo
 O       2.32600000       8.96700000      30.39900000
 H       2.05200000       8.25000000      30.98200000
 H       2.84700000       8.49200000      29.67600000
 O      10.71900000       6.76600000      29.89800000
 H      11.66800000       6.61200000      29.78600000
 H      10.30500000       6.41700000      29.07700000
 O       8.62700000       1.26300000      28.13500000
 H       8.12000000       1.61500000      27.34900000
 H       8.57700000       0.26300000      28.15000000
 O       5.91300000       5.85800000      26.29100000
 H       6.15500000       5.05700000      25.64900000
 H       5.63200000       5.43300000      27.06700000
 O      10.32900000       9.78900000      26.22200000
 H      10.25600000       8.80500000      26.38700000
 H       9.86200000       9.97900000      25.36400000
 O       9.91800000       3.58000000      28.18600000
 H      10.65400000       3.77500000      28.78400000
 H      10.17000000       2.80600000      27.65100000
 O       5.97100000       8.81500000      30.72300000
 H       5.72100000       8.43600000      29.85000000
 H       6.28800000       9.69300000      30.46800000
 O       2.31400000       2.47500000      30.52900000
 H       1.34500000       2.30800000      30.39500000
 H       2.61700000       1.51500000      30.56800000
 O       1.03200000       5.88300000      30.31100000
 H       1.54100000       5.54000000      29.54500000
 H       1.15100000       5.23900000      31.03200000
 O       9.48800000       5.63900000      26.41300000
 H       9.43600000       4.81100000      26.90400000
 H       8.67600000       5.71000000      25.88800000
 O       2.69100000       7.55200000      28.21400000
 H       2.64500000       6.60700000      27.92800000
 H       1.77100000       7.89600000      27.96200000
 O       6.49600000       3.53200000      28.92300000
 H       7.44700000       3.52400000      28.87800000
 H       6.31200000       2.58900000      28.64200000
 O       9.31000000       2.29600000      30.65900000
 H       8.95700000       2.02500000      29.74000000
 H       8.69900000       1.94500000      31.39000000
 O       5.46000000       5.53800000      30.58900000
 H       6.19800000       5.48100000      31.23200000
 H       5.75600000       4.89600000      29.85200000
 O       2.61600000       4.64400000      28.07700000
 H       2.68000000       4.10800000      28.85600000
 H       2.64100000       4.16600000      27.23700000
 O       5.72100000       8.51800000      27.72700000
 H       4.74400000       8.54200000      27.41400000
 H       6.06000000       7.69300000      27.25900000
 O       6.21600000      11.24900000      27.99600000
 H       5.96200000      10.32300000      27.77200000
 H       7.17600000      11.13800000      28.02600000
 O       9.67300000       5.02600000      34.96500000
 H       9.73200000       5.81500000      35.49500000
 H       8.74200000       5.13700000      34.82200000
 O       1.37500000       4.80300000      34.30900000
 H       1.89600000       4.02100000      34.62500000
 H       2.16700000       5.37900000      34.36500000
 O       3.87200000       7.00800000      33.76000000
 H       4.62800000       7.28400000      34.27000000
 H       4.14500000       6.31600000      33.16400000
 O       8.87300000       7.30500000      36.65400000
 H       8.30900000       7.31000000      37.43200000
 H       8.36300000       7.77400000      35.96600000
 O       0.96700000      10.21000000      34.61600000
 H       0.22200000       9.50900000      34.46500000
 H       1.63800000       9.97500000      33.88900000
 O       4.81800000       3.07500000      33.36000000
 H       3.91200000       2.99700000      32.91800000
 H       4.98600000       4.01000000      33.12600000
 O       8.21000000       6.69300000      32.94600000
 H       7.71700000       7.49800000      32.67400000
 H       9.02200000       6.76100000      32.50200000
 O       9.18800000       2.01600000      35.38900000
 H       9.40200000       2.95500000      35.16400000
 H       8.52900000       1.89900000      36.18500000
 O       6.72100000       8.40200000      34.85600000
 H       7.44900000       8.99100000      34.70900000
 H       6.20300000       8.49000000      34.00800000
 O       8.73300000      10.19700000      34.92200000
 H       9.51400000      10.20300000      34.34900000
 H       9.15700000      10.40400000      35.79100000
 O       3.95100000       9.60300000      37.11500000
 H       3.31300000       9.03900000      36.60300000
 H       3.52100000      10.41300000      37.47600000
 O       2.58900000       2.74900000      35.57100000
 H       3.35900000       2.31400000      35.15100000
 H       2.57200000       2.56200000      36.52100000
 O       6.84600000       4.12100000      35.37700000
 H       6.41600000       4.76100000      36.00400000
 H       6.13000000       3.79700000      34.73200000
 O       2.09300000       7.90200000      35.87600000
 H       1.15700000       7.57000000      35.71000000
 H       2.60100000       7.58400000      35.16200000
