105
XYZ file of cluster: frame_7000_774c6.9c87e.9b25a - created by MolEdiTo
 O      20.07500000      28.09500000      29.33900000
 H      20.90300000      28.46400000      29.68500000
 H      19.41700000      28.43700000      29.99000000
 O      26.74400000      21.30400000      22.53100000
 H      26.29600000      21.43900000      23.43900000
 H      27.08800000      20.36600000      22.61900000
 O      21.51600000      22.12900000      26.52900000
 H      21.57200000      21.97000000      25.57400000
 H      21.70600000      23.08000000      26.67800000
 O      20.41600000      20.84300000      21.89900000
 H      20.73000000      20.00900000      21.91500000
 H      19.46400000      20.84700000      22.17500000
 O      21.98100000      21.92100000      23.90000000
 H      21.22700000      21.88700000      23.20100000
 H      22.71800000      22.36200000      23.39200000
 O      20.92800000      24.00100000      29.68500000
 H      20.63800000      24.49800000      30.49300000
 H      20.14500000      23.50200000      29.31000000
 O      17.30600000      21.54400000      22.84000000
 H      17.12800000      22.23000000      22.19100000
 H      16.51800000      21.42300000      23.38100000
 O      21.87100000      25.72800000      22.18400000
 H      22.39600000      26.00500000      21.39500000
 H      20.94700000      25.63600000      21.90100000
 O      24.64000000      23.81100000      22.53800000
 H      24.94000000      24.30700000      21.72700000
 H      24.20400000      24.43000000      23.14900000
 O      18.46100000      23.17000000      28.69900000
 H      17.94100000      22.33600000      28.78800000
 H      18.87300000      23.02800000      27.77400000
 O      26.61300000      28.17400000      27.71500000
 H      26.04000000      28.95000000      27.46200000
 H      26.13400000      27.96500000      28.49000000
 O      25.35400000      24.11400000      27.80200000
 H      24.81700000      24.60700000      27.14300000
 H      24.75100000      23.57300000      28.43400000
 O      25.92800000      29.26000000      30.28200000
 H      25.33600000      30.00000000      30.51100000
 H      26.75400000      29.81700000      30.14300000
 O      24.07600000      29.23800000      21.73200000
 H      23.72600000      28.50300000      21.18100000
 H      23.29300000      29.51700000      22.29500000
 O      16.22600000      21.74000000      27.08300000
 H      15.90900000      20.98500000      26.47900000
 H      15.49400000      21.63500000      27.80500000
 O      20.01100000      25.57900000      27.66700000
 H      19.74300000      26.48300000      27.95800000
 H      20.09000000      24.95600000      28.45800000
 O      20.06300000      29.25200000      26.54800000
 H      20.24300000      28.80200000      27.37000000
 H      20.02600000      28.39000000      25.90200000
 O      22.62000000      24.81700000      26.88800000
 H      21.69900000      25.15600000      27.11100000
 H      23.11200000      24.98200000      27.72800000
 O      27.09000000      26.74600000      22.19700000
 H      27.30800000      25.86100000      22.57900000
 H      26.23100000      26.49400000      21.62000000
 O      21.59800000      28.15800000      20.56600000
 H      21.00500000      28.34000000      21.32900000
 H      21.25800000      27.41000000      20.05900000
 O      18.93700000      27.02300000      25.54300000
 H      18.33400000      26.62800000      24.86000000
 H      19.06100000      26.30200000      26.20100000
 O      26.68100000      26.22300000      25.32400000
 H      26.14400000      26.66700000      26.02200000
 H      26.27400000      26.75700000      24.58200000
 O      23.56400000      28.16200000      26.42500000
 H      23.61800000      27.47300000      27.14000000
 H      23.51300000      27.78000000      25.50300000
 O      25.40800000      22.49700000      25.42400000
 H      25.00000000      21.64200000      25.22000000
 H      25.19200000      22.73800000      26.38300000
 O      16.26200000      25.01400000      28.60600000
 H      16.97100000      24.33200000      28.69300000
 H      16.71100000      25.91700000      28.54000000
 O      23.35000000      26.78400000      28.86000000
 H      24.00600000      26.68500000      29.54100000
 H      22.66000000      26.50200000      29.50200000
 O      23.34000000      22.75000000      29.13100000
 H      22.59500000      23.28700000      29.55000000
 H      23.46200000      21.92500000      29.71700000
 O      17.25300000      26.32000000      23.58600000
 H      16.56400000      25.60500000      23.58800000
 H      16.68500000      27.12000000      23.35400000
 O      25.61900000      28.59200000      23.72600000
 H      26.33000000      28.29900000      23.13200000
 H      24.92000000      28.93300000      23.05400000
 O      20.06200000      28.10300000      23.04900000
 H      20.23400000      27.77700000      23.95000000
 H      19.47200000      27.36000000      22.78700000
 O      17.12300000      28.10600000      27.96200000
 H      16.75000000      28.22300000      27.10600000
 H      18.05800000      28.27500000      27.70900000
 O      18.64900000      22.92700000      26.11700000
 H      18.97800000      22.36200000      25.33100000
 H      17.70700000      22.63300000      26.10500000
 O      23.61300000      25.85500000      24.33300000
 H      22.83000000      25.92900000      23.71200000
 H      23.22700000      25.58700000      25.18300000
 O      17.59400000      30.23400000      25.78600000
 H      18.40200000      29.77800000      25.46300000
 H      17.12700000      30.46300000      25.00100000
 O      16.86400000      29.29700000      22.32400000
 H      17.59300000      29.95700000      22.24600000
 H      16.43100000      29.50000000      21.46800000
