927
XYZ file of cluster: frame_1000_2592c.c59bf.73069 - created by MolEdiTo
 O      14.28300000      39.36700000      38.59300000
 H      14.19700000      40.20000000      38.05600000
 H      15.27700000      39.51100000      38.81400000
 O      23.10100000      36.85000000      32.08500000
 H      23.93900000      37.24800000      32.45700000
 H      23.26100000      35.90800000      32.32500000
 O      16.21300000      35.25900000      37.28800000
 H      17.11100000      35.27900000      37.70300000
 H      15.70900000      35.42600000      38.12100000
 O      38.43800000      36.05400000      40.45600000
 H      38.49300000      36.96200000      40.69600000
 H      37.46200000      35.89500000      40.52400000
 O      19.45000000      38.02800000      22.18400000
 H      20.34700000      38.32000000      22.20400000
 H      19.18900000      38.30600000      23.13200000
 O      24.58000000      35.78500000      35.55500000
 H      24.06800000      34.99800000      35.21000000
 H      25.43900000      35.40600000      35.61900000
 O      22.57300000      37.85200000      40.28200000
 H      23.27400000      38.44000000      40.55000000
 H      23.09400000      37.35000000      39.56700000
 O      17.55600000      38.11700000      31.82900000
 H      17.04900000      37.49100000      32.44300000
 H      18.43700000      38.10400000      32.22700000
 O       6.89300000      36.68400000      24.46600000
 H       6.35500000      36.25100000      23.76500000
 H       6.66500000      37.63400000      24.35700000
 O      35.45100000      37.84700000      30.91000000
 H      35.46500000      37.98900000      31.88500000
 H      34.57900000      37.37000000      30.84700000
 O      27.34800000      39.36800000      29.54000000
 H      27.90100000      38.60800000      29.29500000
 H      26.46600000      39.01600000      29.45800000
 O      21.21100000      38.16100000      28.74900000
 H      21.51300000      37.40200000      29.37500000
 H      20.26400000      37.86500000      28.64500000
 O      25.30600000      35.36200000      40.71800000
 H      25.98400000      34.83400000      41.20300000
 H      25.10100000      34.73300000      39.99400000
 O      15.76800000      38.32100000      22.86800000
 H      16.38500000      38.94100000      22.51700000
 H      16.20000000      37.44900000      22.73900000
 O       6.91200000      37.01500000      29.14500000
 H       7.87200000      37.15000000      29.47500000
 H       6.69400000      37.92600000      28.92400000
 O      11.70200000      40.63200000      38.13500000
 H      12.11400000      41.25200000      38.79000000
 H      11.59800000      39.84000000      38.70600000
 O      20.47200000      37.63700000      37.67700000
 H      20.10000000      37.65300000      38.55500000
 H      21.19700000      38.39200000      37.71800000
 O      21.56100000      36.74800000      23.87200000
 H      21.32000000      37.24500000      24.60600000
 H      22.41700000      36.35700000      24.15000000
 O      35.27000000      38.72300000      33.47400000
 H      36.14700000      38.78700000      33.80200000
 H      34.73000000      38.97500000      34.25100000
 O      15.15500000      34.48900000      22.12800000
 H      15.93400000      35.05900000      22.30800000
 H      15.42600000      33.62600000      22.50600000
 O      32.24100000      40.53200000      29.85900000
 H      32.77700000      40.47700000      30.67300000
 H      31.34500000      40.66400000      30.22100000
 O      23.00900000      39.80900000      23.53100000
 H      23.68100000      39.49400000      24.15700000
 H      23.16700000      39.28100000      22.72800000
 O      40.25900000      38.62000000      37.24100000
 H      40.43300000      39.61600000      37.23700000
 H      39.39600000      38.54100000      37.63700000
 O      40.10900000      35.51000000      27.10400000
 H      40.88800000      35.19300000      27.47300000
 H      40.21200000      35.39100000      26.13500000
 O      34.01300000      39.17900000      28.21800000
 H      33.33600000      39.60700000      28.75000000
 H      34.80300000      39.30900000      28.71300000
 O      37.08600000      38.62100000      28.82000000
 H      36.66100000      38.03300000      28.17600000
 H      36.50600000      38.38300000      29.60700000
 O      25.76700000      38.54500000      37.19500000
 H      24.95700000      38.40800000      37.68500000
 H      26.27100000      37.73000000      37.38300000
 O      39.43100000      38.23100000      25.91300000
 H      38.89800000      37.44300000      25.69300000
 H      38.78300000      38.96500000      25.59700000
 O      10.21400000      36.81900000      26.34100000
 H      10.14900000      36.68600000      27.30600000
 H      10.66200000      36.07500000      26.01400000
 O      36.01800000      39.39300000      23.08400000
 H      35.17800000      39.29100000      22.64600000
 H      36.47000000      40.01400000      22.46100000
 O      33.66700000      37.63100000      40.13400000
 H      33.39000000      38.48300000      39.67500000
 H      32.89700000      37.08700000      39.88700000
 O       8.62600000      36.71800000      35.10900000
 H       8.66000000      37.62400000      34.74600000
 H       9.33000000      36.80700000      35.80900000
 O      33.87500000      40.71100000      31.95500000
 H      33.02100000      40.54300000      32.40400000
 H      34.37700000      39.91700000      32.36400000
 O      38.24400000      40.26600000      21.57000000
 H      38.78300000      39.48000000      21.71000000
 H      38.19900000      40.23900000      20.56900000
 O      30.70900000      37.23500000      25.04900000
 H      30.79700000      36.27800000      24.84300000
 H      30.91900000      37.63100000      24.14000000
 O      20.19000000      38.40900000      32.46000000
 H      20.87200000      37.93900000      32.94400000
 H      20.72000000      38.90800000      31.79400000
 O      19.85600000      36.82700000      35.03200000
 H      20.09500000      37.10500000      35.97300000
 H      18.90000000      37.08000000      35.12400000
 O      34.31600000      37.72300000      24.81900000
 H      34.72900000      38.41200000      24.31000000
 H      33.93500000      37.08900000      24.21500000
 O      27.43500000      38.45000000      40.13600000
 H      27.69200000      38.38900000      41.11100000
 H      26.44500000      38.26200000      40.27400000
 O      32.01400000      40.45200000      25.40700000
 H      32.56500000      41.27900000      25.25000000
 H      32.60300000      39.76700000      25.00700000
 O      18.49400000      36.81300000      28.71900000
 H      18.51400000      35.90800000      28.31800000
 H      17.97600000      36.67400000      29.51000000
 O      33.23900000      36.56500000      30.96700000
 H      32.40500000      36.93600000      31.42600000
 H      33.02300000      35.63600000      31.04200000
 O      37.61800000      36.47900000      24.57700000
 H      38.25000000      35.73200000      24.33400000
 H      36.96700000      36.33600000      23.88800000
 O      28.29500000      40.82200000      23.54100000
 H      27.31100000      41.04300000      23.48800000
 H      28.25800000      40.19100000      24.27300000
 O       9.36300000      38.23600000      24.35200000
 H       9.80400000      37.81200000      25.16000000
 H       8.76000000      37.42500000      24.13600000
 O      19.19500000      34.89600000      31.45500000
 H      18.83600000      34.03700000      31.22900000
 H      18.42000000      35.47200000      31.56600000
 O      11.33700000      38.40200000      39.67900000
 H      11.52300000      37.46600000      39.69500000
 H      11.05400000      38.54900000      40.61100000
 O       8.51800000      34.45600000      33.36900000
 H       8.56000000      35.44500000      33.57100000
 H       7.87500000      34.19600000      34.03000000
 O      27.46900000      40.38000000      35.66300000
 H      27.13700000      39.52800000      35.90300000
 H      27.96000000      40.65900000      36.45700000
 O      14.06200000      36.12300000      29.37700000
 H      13.43500000      35.38900000      29.08000000
 H      14.42200000      36.33500000      28.46200000
 O      35.86000000      36.15600000      40.56600000
 H      35.26100000      35.35800000      40.39900000
 H      35.20700000      36.84000000      40.37600000
 O      29.37200000      37.80500000      28.70700000
 H      29.02100000      36.86100000      28.62600000
 H      30.24500000      37.64600000      28.20400000
 O      23.68700000      40.67800000      40.63700000
 H      23.34900000      41.54400000      40.91600000
 H      24.05400000      40.83100000      39.75700000
 O      37.55300000      39.45800000      38.65100000
 H      38.00600000      40.28100000      38.36700000
 H      36.61800000      39.73300000      38.34600000
 O      26.20700000      34.97800000      31.85400000
 H      26.88800000      34.37500000      31.46800000
 H      26.85200000      35.70300000      32.14600000
 O      37.44500000      39.81400000      25.46100000
 H      36.91900000      39.68900000      24.65000000
 H      36.85100000      40.45200000      25.95800000
 O      29.68100000      40.85900000      31.28800000
 H      28.96400000      40.51200000      30.71200000
 H      29.59400000      40.32400000      32.10800000
 O      24.18300000      35.79100000      24.51700000
 H      24.76700000      35.66200000      25.32800000
 H      24.75000000      36.51100000      24.10500000
 O      31.12500000      37.25200000      32.71900000
 H      31.04900000      38.26300000      32.67700000
 H      30.64800000      37.14900000      33.58400000
 O      19.24500000      40.18000000      34.34000000
 H      20.09900000      40.10600000      34.76700000
 H      19.34900000      39.37800000      33.75800000
 O      17.36500000      37.76500000      35.84400000
 H      16.96600000      36.86100000      36.04100000
 H      16.59300000      38.21100000      35.48200000
 O      23.90100000      36.34400000      38.12600000
 H      24.84400000      36.12200000      38.40000000
 H      23.97200000      36.02300000      37.18800000
 O      10.94000000      38.50600000      33.90100000
 H      11.32800000      39.02400000      34.61600000
 H      11.31500000      38.92800000      33.10800000
 O      34.16400000      39.21900000      36.01300000
 H      34.05700000      38.27600000      36.39500000
 H      34.51000000      39.66500000      36.80900000
 O      31.50200000      35.10400000      39.08600000
 H      30.89000000      34.38500000      38.82700000
 H      30.89400000      35.82400000      39.34200000
 O      33.61200000      36.76200000      22.32300000
 H      32.66600000      36.93800000      22.35500000
 H      33.79100000      37.01000000      21.40200000
 O      25.45600000      37.44200000      22.74200000
 H      25.29800000      36.86400000      21.95900000
 H      26.21700000      37.93900000      22.43200000
 O      16.72400000      40.23300000      39.39400000
 H      17.20400000      40.71400000      40.09100000
 H      17.28700000      40.40400000      38.63400000
 O      22.30100000      39.72700000      37.40900000
 H      22.37700000      39.52600000      36.41100000
 H      23.13200000      40.24500000      37.52700000
 O      19.71300000      38.58900000      40.17200000
 H      20.50500000      38.36700000      40.69300000
 H      19.75400000      39.52200000      40.21100000
 O      15.14800000      39.42700000      34.76800000
 H      14.48000000      40.11400000      35.05800000
 H      14.96600000      39.42200000      33.79100000
 O      31.76600000      37.68200000      27.57300000
 H      32.63900000      38.18300000      27.57600000
 H      31.50500000      37.81500000      26.67600000
 O      21.40000000      35.93200000      30.36300000
 H      20.66200000      35.44800000      30.77000000
 H      21.88300000      36.25100000      31.17800000
 O      28.00200000      36.90900000      32.94500000
 H      28.65600000      37.58300000      33.28000000
 H      27.17000000      37.38100000      33.20500000
 O      13.69600000      38.82300000      26.98300000
 H      13.48100000      38.94700000      26.02800000
 H      14.34900000      38.08800000      26.85300000
 O      11.12300000      36.86200000      20.70400000
 H      11.43500000      37.06800000      21.61000000
 H      10.85000000      35.94800000      20.76800000
 O      23.53300000      40.66700000      28.23400000
 H      23.59300000      41.24100000      27.45800000
 H      22.67200000      40.24700000      28.13700000
 O      13.04600000      35.99300000      23.13400000
 H      13.77700000      35.45800000      22.65000000
 H      12.40100000      35.31200000      23.27000000
 O      32.44300000      40.04400000      39.46800000
 H      32.19100000      40.62700000      38.75700000
 H      32.25400000      40.57700000      40.28100000
 O      22.65400000      39.80100000      34.75900000
 H      23.36400000      39.86900000      34.06600000
 H      22.55600000      40.77300000      34.92900000
 O      18.73500000      35.52800000      38.49700000
 H      18.99500000      35.20100000      39.36400000
 H      19.55900000      35.40200000      37.97500000
 O      36.22000000      35.71900000      22.33700000
 H      36.95200000      36.07300000      21.71300000
 H      35.47200000      36.18000000      22.01900000
 O      13.37000000      36.95500000      37.84400000
 H      13.64400000      36.50000000      38.69200000
 H      13.39200000      37.85200000      38.10000000
 O      28.88700000      35.87400000      40.68400000
 H      29.40400000      36.71700000      40.64700000
 H      28.93200000      35.74800000      41.65600000
 O      31.79400000      34.30900000      34.63800000
 H      31.41800000      34.08900000      35.54900000
 H      31.81500000      35.28900000      34.74500000
 O      38.19900000      36.21500000      20.34700000
 H      38.79200000      36.55400000      21.08700000
 H      38.38800000      36.76800000      19.62600000
 O      34.14000000      36.72500000      37.16500000
 H      34.33600000      35.88700000      36.62700000
 H      33.72700000      36.29200000      37.93100000
 O      16.49200000      35.60600000      30.50500000
 H      15.69900000      35.99100000      30.04500000
 H      16.13800000      35.62600000      31.43100000
 O      30.64900000      37.83900000      39.52600000
 H      30.78600000      38.10200000      38.56500000
 H      30.82200000      38.72200000      39.95200000
 O      25.40600000      39.50000000      24.97300000
 H      25.06800000      39.04000000      25.77400000
 H      26.41500000      39.24800000      25.12200000
 O      19.27800000      39.01300000      24.62800000
 H      20.07200000      39.51600000      24.93100000
 H      18.85500000      38.85600000      25.48700000
 O      36.17600000      36.98600000      26.89500000
 H      36.59300000      36.79500000      26.03000000
 H      35.23000000      37.12700000      26.56400000
 O      14.80900000      35.73800000      39.82900000
 H      15.68800000      36.11800000      39.99900000
 H      14.79100000      34.97600000      40.40000000
 O      32.80500000      34.79500000      28.16700000
 H      33.58700000      34.59500000      28.68800000
 H      32.63000000      35.69400000      28.32400000
 O      39.55100000      33.82800000      39.91300000
 H      39.20900000      34.69900000      40.23100000
 H      39.33500000      33.96400000      38.95500000
 O      37.34100000      35.01800000      28.09400000
 H      36.90600000      35.63900000      27.44800000
 H      38.31100000      35.21900000      27.95400000
 O       6.75900000      36.84800000      36.82700000
 H       7.16000000      36.16800000      37.42400000
 H       7.38200000      36.70100000      36.05100000
 O      17.16200000      36.78200000      40.28700000
 H      17.96700000      36.49900000      39.74700000
 H      17.40500000      37.74600000      40.29900000
 O      16.71500000      38.75300000      29.44900000
 H      17.44300000      38.38600000      29.01100000
 H      16.83300000      38.36100000      30.39400000
 O      37.70400000      36.12700000      31.45900000
 H      36.86100000      36.07500000      31.00800000
 H      37.75500000      37.04700000      31.79200000
 O      30.38400000      36.80400000      35.33400000
 H      29.62500000      36.41300000      35.85100000
 H      30.64300000      37.53400000      35.91900000
 O      13.65500000      37.10800000      31.77400000
 H      13.01900000      36.38900000      32.04600000
 H      13.88700000      36.76400000      30.87300000
 O      21.08700000      34.75900000      22.19400000
 H      20.23600000      34.33200000      22.25200000
 H      21.02100000      35.43900000      22.85500000
 O       7.97800000      40.59000000      36.46900000
 H       8.69600000      40.58800000      35.80000000
 H       8.17500000      41.37100000      36.99300000
 O      29.73200000      35.01700000      32.07000000
 H      29.34400000      35.87400000      32.40700000
 H      30.64500000      35.15600000      32.36400000
 O      30.79700000      39.08300000      37.09800000
 H      30.07000000      39.65500000      37.47500000
 H      31.48900000      39.79800000      37.12400000
 O      40.41800000      38.10600000      21.75700000
 H      41.00300000      37.97100000      22.52300000
 H      40.87900000      38.88800000      21.34000000
 O      38.46400000      34.94300000      37.45800000
 H      38.02400000      35.80400000      37.38000000
 H      37.82800000      34.44300000      36.83500000
 O      28.17400000      39.00700000      25.62000000
 H      28.76000000      39.57900000      26.20900000
 H      28.76900000      38.30000000      25.46700000
 O      36.95700000      37.33400000      37.24000000
 H      37.27300000      37.90800000      38.02600000
 H      36.07800000      37.16700000      37.45700000
 O      24.73700000      37.29700000      29.94800000
 H      24.97800000      36.46700000      30.31100000
 H      24.19500000      37.75800000      30.57100000
 O      15.47600000      36.90600000      26.77600000
 H      15.99700000      37.73900000      26.87500000
 H      16.06300000      36.23600000      26.43100000
 O      26.54800000      35.48400000      25.84300000
 H      27.39500000      35.73200000      26.40000000
 H      27.00900000      35.11600000      25.01200000
 O       8.94100000      36.47100000      39.06700000
 H       9.53400000      35.75400000      38.83700000
 H       9.22700000      37.14800000      38.38600000
 O      13.51400000      38.46600000      24.25500000
 H      13.37200000      37.56400000      23.77200000
 H      14.36200000      38.62700000      23.73600000
 O      28.37900000      36.19800000      20.99800000
 H      28.10400000      37.11800000      21.01800000
 H      28.27600000      35.94100000      20.06500000
 O      26.91100000      36.27100000      38.24600000
 H      27.42100000      36.41900000      39.10900000
 H      27.62600000      35.87700000      37.67100000
 O      31.98400000      40.31500000      34.00700000
 H      31.83600000      41.23500000      34.12100000
 H      32.64600000      40.04600000      34.67000000
 O       9.52000000      37.38800000      29.81300000
 H       9.67200000      36.93300000      30.64000000
 H      10.35500000      37.85200000      29.65400000
 O       9.19800000      39.79700000      40.72700000
 H       8.97900000      40.32600000      41.57000000
 H       9.00300000      40.52800000      40.09600000
 O      10.10200000      34.88200000      31.18100000
 H      10.72200000      34.90300000      31.91100000
 H       9.24400000      34.74000000      31.63000000
 O      28.74500000      35.18000000      36.69100000
 H      28.14700000      34.76100000      36.05700000
 H      29.29400000      34.40200000      36.90200000
 O      12.16800000      35.05000000      33.09700000
 H      12.73500000      34.30800000      33.13000000
 H      12.49300000      35.65100000      33.77600000
 O      13.75000000      36.81700000      35.04700000
 H      14.28800000      37.63400000      35.09200000
 H      13.48600000      36.70000000      35.96100000
 O      37.79500000      39.12900000      34.88600000
 H      37.53800000      38.58000000      35.63200000
 H      38.46700000      39.72500000      35.20500000
 O      28.75900000      40.17900000      38.30100000
 H      28.46100000      39.47800000      38.91000000
 H      28.23400000      40.93500000      38.65900000
 O       9.43900000      38.39400000      37.32000000
 H      10.11600000      38.93900000      37.71100000
 H       8.89500000      39.07500000      36.87400000
 O       7.46500000      37.76700000      40.81500000
 H       8.02500000      37.20300000      40.25400000
 H       8.01500000      38.60200000      40.78400000
 O      37.99300000      39.07300000      32.16900000
 H      38.04000000      39.40800000      33.07500000
 H      37.13500000      39.42000000      31.84700000
 O      20.96500000      40.30800000      30.38300000
 H      21.11600000      39.49400000      29.82900000
 H      19.99400000      40.39900000      30.33100000
 O       8.39900000      38.87100000      33.60700000
 H       8.39600000      39.83500000      33.71700000
 H       9.38400000      38.75400000      33.40600000
 O      24.61600000      38.08100000      27.24800000
 H      23.83000000      38.31600000      27.75400000
 H      25.10500000      37.58200000      27.99100000
 O      10.93800000      39.52300000      28.36400000
 H      10.28700000      39.94500000      27.75600000
 H      11.70900000      39.43600000      27.78700000
 O      17.45800000      36.24700000      22.27200000
 H      18.27800000      36.75200000      22.55100000
 H      17.64000000      36.29200000      21.28000000
 O      14.25400000      39.69800000      32.07700000
 H      14.12900000      39.94300000      31.15000000
 H      13.85200000      38.79400000      32.05500000
 O      38.61800000      35.16700000      34.39700000
 H      38.59400000      35.24600000      33.48000000
 H      39.46800000      35.77500000      34.53200000
 O      39.54300000      37.75300000      28.99100000
 H      39.55200000      37.27100000      28.18100000
 H      38.66300000      38.20800000      28.90100000
 O      25.35100000      37.75700000      33.43500000
 H      24.99100000      37.32800000      34.26700000
 H      24.90800000      38.62800000      33.47400000
 O      23.13700000      34.96700000      28.48000000
 H      22.73400000      34.93400000      29.34000000
 H      23.15300000      35.92100000      28.25500000
 O      29.02600000      35.44700000      27.12400000
 H      29.68900000      36.03900000      26.75400000
 H      29.47300000      34.63200000      27.30700000
 O      30.10300000      40.46100000      27.38900000
 H      30.84500000      40.67400000      26.84200000
 H      30.31100000      39.71700000      27.92900000
 O      35.10800000      40.45500000      38.33100000
 H      35.33500000      41.39600000      38.12100000
 H      34.31200000      40.62700000      38.87800000
 O      24.41000000      40.27400000      33.08000000
 H      24.56700000      40.62000000      32.14100000
 H      24.79300000      41.03400000      33.58300000
 O      29.14700000      39.49400000      33.53200000
 H      29.94000000      39.73300000      34.09300000
 H      28.42200000      39.77200000      34.11200000
 O      18.11800000      40.14200000      36.97800000
 H      18.09600000      40.07700000      36.02700000
 H      18.07600000      39.21100000      37.24000000
 O       8.55000000      40.83900000      21.02600000
 H       7.57200000      40.83600000      21.34700000
 H       8.40200000      41.31400000      20.20800000
 O      33.39600000      33.93500000      22.73600000
 H      33.50000000      34.95800000      22.71100000
 H      34.16100000      33.75700000      23.32000000
 O      10.46900000      40.31300000      23.25900000
 H       9.70100000      40.51600000      22.73700000
 H      10.18500000      39.41600000      23.62100000
 O      16.21700000      36.01200000      33.34900000
 H      15.37700000      36.35900000      33.56900000
 H      16.25500000      35.21700000      33.81700000
 O      12.10900000      40.73500000      35.28700000
 H      11.12500000      41.02300000      35.33800000
 H      12.27100000      40.85700000      36.27800000
 O      21.17900000      34.96300000      37.10900000
 H      21.95900000      34.74000000      36.54800000
 H      21.30300000      35.94800000      37.17200000
 O      17.33000000      39.35200000      26.74900000
 H      17.03700000      40.07100000      26.19300000
 H      17.08200000      39.75200000      27.61800000
 O       7.68600000      35.32500000      26.93500000
 H       7.67700000      35.69800000      26.02700000
 H       7.60900000      36.16000000      27.46300000
 O      34.92300000      34.37800000      32.27000000
 H      34.04300000      33.94000000      32.16400000
 H      34.78700000      34.93200000      33.02200000
 O      27.88500000      34.68700000      23.60900000
 H      27.99500000      35.06100000      22.68500000
 H      28.83500000      34.76900000      23.93900000
 O      14.25100000      40.00300000      29.39800000
 H      15.17200000      39.66000000      29.32100000
 H      13.81300000      39.64000000      28.64500000
 O      10.64800000      40.04800000      31.08000000
 H      10.93300000      39.76900000      30.20200000
 H       9.80100000      40.51900000      30.84900000
 O      30.96500000      37.29900000      22.25300000
 H      30.86000000      38.03800000      21.66200000
 H      30.37300000      36.60600000      21.89900000
 O      20.77100000      34.48600000      33.78400000
 H      20.56400000      35.31600000      34.23500000
 H      20.02900000      34.42000000      33.14800000
 O      22.07500000      46.34500000      35.83800000
 H      22.71200000      46.73300000      36.49800000
 H      21.60800000      47.14500000      35.59100000
 O      13.92700000      43.16200000      26.93500000
 H      13.47900000      43.25700000      26.01200000
 H      13.79200000      42.18300000      27.00200000
 O      31.05500000      47.60700000      35.28200000
 H      30.29800000      47.42700000      34.64100000
 H      30.82700000      48.56400000      35.45600000
 O      20.77500000      48.35100000      34.69600000
 H      20.38400000      48.11300000      33.87300000
 H      21.04600000      49.27700000      34.52200000
 O      26.13200000      47.47400000      25.41500000
 H      26.00200000      46.60700000      25.94800000
 H      25.36600000      47.43500000      24.80600000
 O      23.71600000      47.43800000      20.66600000
 H      23.12000000      47.32900000      21.44000000
 H      23.31600000      46.75000000      20.06800000
 O      23.99900000      46.12100000      33.80500000
 H      24.54100000      45.44200000      34.27200000
 H      23.10800000      45.82500000      34.21800000
 O      38.88900000      46.50600000      31.73200000
 H      38.78300000      45.56600000      31.82200000
 H      38.60400000      46.72800000      30.87700000
 O      38.88500000      43.78800000      31.64800000
 H      39.72000000      43.37600000      31.87200000
 H      38.64100000      43.37700000      30.82300000
 O      12.68900000      43.76800000      40.38300000
 H      13.52100000      44.18000000      39.99000000
 H      12.08700000      44.52100000      40.31500000
 O      39.59400000      48.96200000      28.10800000
 H      39.74100000      48.36900000      27.25400000
 H      38.89700000      48.45100000      28.50200000
 O      37.28600000      44.05300000      23.82800000
 H      36.56900000      43.67800000      24.36800000
 H      37.56100000      43.32700000      23.23900000
 O      19.51000000      45.10400000      31.61600000
 H      20.40100000      44.72100000      31.41000000
 H      19.08100000      44.24200000      31.85700000
 O      24.16900000      44.84000000      24.78800000
 H      24.80400000      44.92000000      25.52300000
 H      23.47200000      45.42800000      25.25200000
 O      34.15300000      44.17100000      28.97100000
 H      33.55900000      44.76700000      28.57600000
 H      33.50200000      43.43500000      29.21100000
 O      19.84000000      45.72200000      40.91700000
 H      19.33300000      46.62700000      40.75200000
 H      19.91700000      45.40100000      40.01300000
 O      33.45300000      47.87700000      36.26000000
 H      33.78300000      46.95200000      36.12200000
 H      32.53500000      47.75000000      35.87100000
 O      13.65100000      48.98400000      34.53800000
 H      12.73100000      48.55200000      34.63600000
 H      14.13600000      48.19500000      34.25500000
 O      26.53600000      48.20000000      31.74400000
 H      26.01200000      48.38200000      30.91200000
 H      25.87200000      48.53400000      32.37100000
 O      17.08900000      47.34400000      32.38800000
 H      16.14100000      47.26600000      32.71400000
 H      17.18300000      48.30400000      32.70800000
 O      24.40100000      43.04000000      30.62700000
 H      24.75500000      43.87700000      30.30300000
 H      24.19100000      42.59600000      29.75600000
 O      36.88300000      44.93500000      28.17700000
 H      35.91300000      44.73600000      27.98400000
 H      37.08900000      44.14900000      28.74200000
 O      29.31400000      45.44200000      29.36800000
 H      28.62400000      45.86100000      28.79100000
 H      28.72500000      44.94300000      29.96700000
 O      20.46200000      47.96900000      25.26100000
 H      21.15800000      47.26500000      25.53400000
 H      19.65600000      47.55800000      25.68900000
 O       6.97000000      46.50300000      23.14000000
 H       6.82200000      47.39200000      22.68200000
 H       7.78600000      46.29600000      22.69100000
 O      34.18900000      45.28800000      35.38200000
 H      33.41800000      44.77600000      35.08300000
 H      34.84700000      44.58300000      35.41500000
 O      35.50200000      43.19300000      25.95200000
 H      34.86700000      42.82700000      26.64000000
 H      35.07500000      44.08000000      25.84800000
 O      14.91000000      43.84600000      22.79800000
 H      15.33200000      43.39700000      21.97100000
 H      15.67000000      44.29100000      23.20400000
 O      22.02100000      43.96600000      34.97100000
 H      22.24100000      44.29700000      34.06700000
 H      21.84200000      44.85200000      35.40700000
 O      22.05000000      43.26400000      20.15100000
 H      21.87400000      43.50100000      21.06300000
 H      23.05200000      43.38000000      20.13800000
 O      34.15000000      48.99800000      31.31800000
 H      33.58600000      48.60000000      32.04800000
 H      34.30500000      48.20700000      30.80800000
 O      18.78800000      47.40400000      36.62600000
 H      18.74300000      46.81500000      35.82400000
 H      19.33900000      48.10500000      36.21800000
 O      37.28200000      44.27700000      33.63100000
 H      36.47900000      44.51300000      33.13000000
 H      37.84800000      43.91300000      33.03200000
 O      10.81800000      44.17400000      32.15500000
 H      10.99700000      43.32700000      31.70600000
 H      10.06800000      44.49600000      31.73000000
 O      31.83100000      43.16600000      37.19700000
 H      31.07400000      43.75500000      37.11200000
 H      32.49600000      43.69700000      36.77100000
 O      24.57500000      48.03100000      29.77900000
 H      23.57300000      47.82300000      29.71300000
 H      24.63200000      48.75700000      29.12000000
 O      19.15300000      45.28500000      34.62600000
 H      19.54900000      45.80200000      33.99800000
 H      19.14900000      44.39100000      34.23800000
 O      31.81600000      44.57500000      34.38500000
 H      31.87000000      45.13600000      33.58600000
 H      30.83200000      44.56600000      34.50400000
 O      25.76800000      43.20900000      23.48800000
 H      25.49200000      42.35200000      23.99200000
 H      25.10500000      43.83100000      23.90200000
 O      10.11100000      45.25400000      24.84100000
 H       9.66500000      45.35800000      23.98300000
 H       9.53800000      45.91200000      25.33200000
 O      37.29500000      48.71200000      36.78000000
 H      36.90200000      48.21500000      35.99000000
 H      38.21000000      48.40100000      36.75000000
 O      22.05400000      47.52400000      23.10700000
 H      21.38500000      47.07600000      22.56000000
 H      21.44700000      47.86200000      23.80100000
 O      10.74200000      47.73400000      28.19400000
 H      10.28500000      46.94500000      27.80000000
 H      10.19300000      48.44200000      27.80200000
 O      25.27100000      45.43100000      29.88900000
 H      24.83400000      46.34800000      29.88900000
 H      25.97800000      45.62300000      30.53000000
 O       9.41000000      45.46500000      22.19900000
 H      10.33900000      45.72900000      21.99600000
 H       9.22300000      44.85800000      21.49300000
 O      16.37900000      46.28100000      24.01100000
 H      16.99500000      46.51900000      23.34500000
 H      15.76000000      47.01000000      24.02400000
 O      19.71700000      47.65700000      32.18400000
 H      18.75700000      47.61100000      32.45200000
 H      19.74900000      46.71700000      31.75900000
 O      31.64000000      47.27600000      32.04700000
 H      30.76700000      47.60900000      31.86200000
 H      31.54500000      46.34200000      31.85000000
 O      35.37300000      45.45600000      22.75000000
 H      35.40600000      46.31600000      23.19300000
 H      36.33600000      45.20700000      22.89000000
 O      18.00600000      46.83200000      26.41500000
 H      17.54800000      46.24400000      25.84400000
 H      17.37400000      47.52700000      26.66200000
 O       6.60000000      43.97300000      32.81000000
 H       7.16800000      43.76100000      33.62900000
 H       6.61800000      44.95600000      32.91900000
 O      39.11100000      46.91900000      23.01500000
 H      39.25100000      47.41000000      23.85200000
 H      40.01500000      46.70100000      22.75200000
 O      38.22100000      42.46400000      29.56600000
 H      37.98300000      41.54400000      29.23800000
 H      38.94800000      42.69300000      28.93700000
 O      14.55700000      46.70000000      33.28400000
 H      13.96300000      46.63700000      32.42900000
 H      14.43000000      45.70000000      33.46100000
 O      37.93500000      45.35300000      38.06900000
 H      38.56300000      46.07200000      37.83500000
 H      37.70400000      45.59500000      38.99000000
 O      22.15600000      43.74800000      23.15900000
 H      22.76700000      44.29800000      23.76200000
 H      22.62000000      42.85300000      23.26300000
 O      11.56300000      48.41400000      30.68400000
 H      11.26700000      48.09600000      29.81500000
 H      12.06200000      47.63000000      31.02700000
 O       9.17900000      43.43800000      38.98300000
 H      10.02700000      43.16700000      38.59800000
 H       9.28900000      44.40200000      38.86400000
 O      15.85000000      48.03300000      39.96400000
 H      16.59200000      47.68200000      40.49900000
 H      16.34400000      48.27600000      39.12300000
 O      31.80200000      45.53000000      28.25300000
 H      30.95400000      45.27100000      28.49300000
 H      31.69800000      46.52800000      28.09400000
 O      31.23400000      44.68000000      31.40200000
 H      30.56000000      44.01900000      31.38800000
 H      31.32000000      44.82600000      30.43000000
 O      26.84800000      43.91800000      39.19200000
 H      27.02900000      43.59200000      40.12500000
 H      26.75200000      44.93800000      39.38300000
 O      36.83200000      46.98600000      34.76200000
 H      37.21000000      46.11300000      34.61200000
 H      35.87900000      46.82700000      34.74200000
 O      37.60400000      47.48400000      29.34200000
 H      37.31400000      46.60600000      28.92100000
 H      36.69500000      47.75600000      29.65900000
 O       8.45800000      47.87500000      35.63000000
 H       8.29200000      48.52700000      34.87300000
 H       7.73300000      48.21000000      36.21700000
 O      19.68900000      47.48800000      28.49400000
 H      19.07400000      47.07200000      27.84700000
 H      19.01000000      47.72400000      29.19400000
 O      36.51600000      48.02300000      22.89300000
 H      36.42800000      48.24700000      21.95100000
 H      37.45600000      47.70500000      22.88300000
 O      15.88500000      48.53100000      26.56200000
 H      15.32700000      48.98000000      25.84100000
 H      15.17900000      48.03600000      27.02900000
 O      16.86500000      44.22300000      36.96700000
 H      17.62000000      44.83200000      37.06700000
 H      17.36100000      43.40400000      36.85600000
 O      26.47400000      47.81100000      36.59800000
 H      26.54500000      48.70400000      36.15900000
 H      27.06800000      47.92100000      37.36400000
 O      27.56200000      45.41400000      31.62000000
 H      26.93600000      46.19600000      31.70700000
 H      28.12600000      45.55500000      32.43000000
 O      30.26700000      48.24300000      23.41200000
 H      30.92600000      47.50700000      23.24700000
 H      29.56700000      47.97700000      22.75200000
 O      26.31200000      47.20900000      21.36500000
 H      26.17500000      46.21700000      21.46500000
 H      25.43200000      47.46900000      21.04900000
 O      25.44400000      43.59600000      35.04000000
 H      25.88200000      44.29800000      35.48900000
 H      25.94100000      42.77300000      35.35700000
 O      38.11000000      48.92900000      32.86200000
 H      38.51300000      48.06100000      32.59000000
 H      37.47400000      48.67800000      33.55100000
 O      26.48200000      44.42200000      20.97400000
 H      27.44400000      44.31800000      20.91600000
 H      26.23500000      43.75900000      21.60800000
 O      12.79600000      43.18600000      24.51800000
 H      13.48900000      42.65300000      23.98500000
 H      11.99100000      42.68700000      24.22400000
 O      20.05300000      45.18700000      38.08600000
 H      19.60600000      46.04100000      37.93400000
 H      20.85900000      45.24000000      37.62800000
 O       9.53300000      42.95000000      34.26000000
 H       9.30000000      43.94000000      34.36100000
 H      10.20800000      43.10400000      33.53600000
 O      28.75200000      47.59500000      33.93400000
 H      28.14700000      48.09800000      34.55000000
 H      28.52900000      48.01800000      33.09900000
 O      20.78800000      42.73800000      39.39000000
 H      20.34600000      43.43700000      38.91700000
 H      21.40900000      42.34600000      38.75700000
 O      15.73400000      44.80800000      31.32000000
 H      16.34400000      45.57100000      31.46800000
 H      16.20800000      44.16700000      31.88000000
 O      12.84500000      46.62600000      20.04100000
 H      12.22300000      47.36600000      19.92200000
 H      12.77200000      46.45300000      21.03100000
 O      16.42400000      43.23100000      27.76300000
 H      15.49700000      43.22200000      27.50700000
 H      16.82000000      43.68700000      26.94400000
 O       7.60600000      43.14200000      27.40800000
 H       8.54600000      43.04000000      27.20800000
 H       7.33900000      43.72500000      26.65400000
 O      18.87900000      47.99600000      39.70500000
 H      18.52700000      48.90300000      39.68100000
 H      19.65300000      48.08600000      39.07300000
 O      31.23600000      46.42100000      40.20200000
 H      31.20900000      45.69300000      39.51400000
 H      30.54700000      45.99300000      40.75100000
 O      23.82800000      47.64200000      37.22900000
 H      24.80700000      47.65200000      37.42300000
 H      23.77200000      48.39400000      36.61300000
 O      31.42100000      45.79700000      22.75000000
 H      30.86700000      45.09400000      23.14800000
 H      32.32700000      45.51900000      23.00400000
 O      30.04000000      44.11300000      24.21200000
 H      29.24700000      43.54600000      23.95800000
 H      30.61500000      43.39000000      24.48300000
 O      34.97200000      46.74100000      30.16300000
 H      34.68700000      46.09700000      30.84300000
 H      34.86200000      46.19700000      29.32400000
 O      12.83200000      45.39500000      22.81600000
 H      12.41600000      44.99300000      23.59000000
 H      13.52900000      44.73700000      22.59000000
 O      33.25800000      43.09300000      22.95100000
 H      34.09800000      43.47000000      22.63800000
 H      32.87100000      42.78200000      22.09000000
 O      13.65600000      47.42200000      27.63400000
 H      13.40300000      47.24400000      28.56000000
 H      12.82500000      47.63200000      27.23200000
 O      17.34700000      44.12700000      25.40200000
 H      16.91100000      44.69500000      24.67900000
 H      18.23500000      43.98300000      24.91500000
 O       8.69100000      45.65700000      33.86900000
 H       8.60500000      46.25500000      34.62800000
 H       8.96200000      46.24700000      33.11800000
 O      13.63000000      46.16600000      39.01300000
 H      14.30300000      46.90400000      39.04100000
 H      13.66300000      45.97900000      38.05700000
 O      18.48500000      42.56400000      29.82200000
 H      17.96900000      41.71000000      29.89000000
 H      17.77900000      43.16600000      29.50700000
 O      13.59300000      48.12900000      23.66700000
 H      12.70900000      48.50200000      23.89300000
 H      13.46500000      47.18000000      23.64500000
 O      40.27700000      47.62000000      25.91200000
 H      39.69300000      46.81100000      25.83400000
 H      41.16000000      47.16600000      26.05100000
 O       9.12700000      45.65900000      30.27100000
 H       9.06500000      44.73800000      30.01700000
 H       8.77300000      46.15000000      29.46900000
 O      17.03200000      48.36900000      29.73900000
 H      17.11700000      48.08900000      30.67800000
 H      16.68300000      47.54200000      29.34600000
 O      26.96200000      46.51100000      39.83300000
 H      26.35300000      47.25400000      39.64200000
 H      27.17600000      46.62500000      40.78300000
 O      10.32800000      45.81500000      37.96600000
 H      10.07000000      46.61600000      37.40400000
 H      10.33200000      46.21700000      38.85600000
 O      13.80700000      45.64800000      36.49100000
 H      13.10700000      46.04900000      35.98600000
 H      14.59400000      45.81900000      35.95300000
 O      33.93300000      45.38000000      26.26900000
 H      33.09500000      45.37100000      26.74200000
 H      33.98400000      46.26800000      25.88200000
 O      28.98400000      43.16200000      20.77900000
 H      29.17900000      43.04100000      21.75000000
 H      29.45000000      42.33100000      20.50400000
 O      21.25600000      48.31300000      38.34700000
 H      22.15000000      48.10500000      38.02200000
 H      21.37700000      48.10000000      39.31500000
 O      10.02500000      42.70500000      26.31300000
 H      10.01900000      42.15500000      25.55100000
 H      10.41600000      43.51300000      25.94200000
 O      27.45200000      45.33200000      36.16400000
 H      27.62100000      45.21000000      37.09400000
 H      27.13300000      46.21600000      36.15400000
 O      33.92100000      46.49600000      39.05600000
 H      33.34400000      46.70700000      38.33500000
 H      33.43300000      46.97000000      39.81100000
 O      29.46800000      46.94400000      26.20400000
 H      28.87200000      47.26700000      25.45500000
 H      30.07500000      46.40800000      25.68900000
 O      17.18600000      42.61100000      32.78600000
 H      17.98400000      42.47200000      33.29200000
 H      16.88900000      41.68300000      32.72500000
 O      30.51100000      45.71300000      37.46500000
 H      29.92900000      46.39500000      37.75100000
 H      30.90700000      46.07000000      36.62600000
 O       8.23600000      43.08700000      30.25000000
 H       7.47000000      43.47300000      30.70700000
 H       7.85100000      42.92000000      29.34000000
 O       6.70100000      44.48700000      25.17700000
 H       6.73200000      44.90400000      24.29700000
 H       7.30600000      45.14200000      25.63900000
 O      32.43600000      48.27900000      27.79100000
 H      33.29200000      48.82900000      27.73000000
 H      32.02400000      48.62700000      26.94500000
 O      35.21900000      44.59200000      31.78500000
 H      35.67300000      44.37400000      30.96300000
 H      34.55400000      43.87400000      31.87900000
 O      24.34400000      48.77400000      33.28800000
 H      24.18200000      47.81500000      33.35800000
 H      23.62800000      48.94200000      32.66600000
 O      29.18800000      44.32100000      34.26000000
 H      28.52700000      43.62700000      34.13700000
 H      28.77500000      44.88600000      34.92700000
 O      19.93500000      46.27700000      21.44400000
 H      19.01100000      46.31200000      21.16500000
 H      20.31000000      45.87600000      20.64100000
 O       7.66200000      46.95600000      28.58600000
 H       6.81100000      46.62900000      28.99400000
 H       7.61300000      47.88900000      28.88300000
 O      19.73500000      44.44600000      23.88100000
 H      20.49100000      43.93900000      23.62600000
 H      19.81000000      45.14700000      23.22000000
 O      12.68500000      45.85900000      31.33000000
 H      11.82800000      45.46000000      31.38200000
 H      13.09200000      45.43900000      30.52200000
 O      20.86300000      43.36000000      26.72300000
 H      20.04500000      43.34500000      27.21800000
 H      20.64900000      43.92700000      25.95300000
 O      40.43600000      47.18600000      37.84500000
 H      41.13500000      47.09100000      37.15400000
 H      40.95500000      47.76900000      38.44300000
 O      14.52400000      43.23400000      37.17000000
 H      13.94700000      43.90700000      36.79100000
 H      15.42100000      43.63600000      37.01400000
 O      28.79900000      47.62800000      38.41200000
 H      28.74500000      48.50500000      38.87300000
 H      28.37700000      47.02900000      39.07700000
 O      27.60100000      43.21400000      28.11300000
 H      27.34400000      42.55000000      28.80100000
 H      28.53500000      42.92200000      27.96900000
 O      29.70700000      48.72500000      28.22200000
 H      30.71900000      48.65300000      28.20400000
 H      29.51800000      48.23100000      27.39300000
 O      10.15500000      47.54600000      40.22100000
 H       9.49500000      47.87200000      39.54000000
 H       9.74100000      47.89300000      41.03100000
 O      14.03200000      44.05600000      33.75800000
 H      14.19500000      43.34100000      33.18600000
 H      13.51400000      43.68700000      34.46900000
 O      13.54400000      44.46600000      29.15000000
 H      14.09800000      43.77700000      29.50700000
 H      13.48400000      44.24100000      28.21000000
 O      24.88500000      42.48300000      38.01500000
 H      25.34600000      41.81700000      37.47800000
 H      25.69800000      42.99700000      38.32200000
 O      21.94300000      44.17600000      31.20800000
 H      22.88100000      44.12900000      30.96300000
 H      21.61500000      43.36600000      30.80900000
 O       9.32000000      47.85700000      32.00000000
 H      10.20700000      48.17300000      31.80900000
 H       9.22500000      47.21900000      31.34100000
 O      39.04500000      42.74200000      37.20200000
 H      38.73200000      43.66800000      37.37000000
 H      39.87100000      43.01000000      36.66900000
 O      11.30000000      47.81200000      35.19700000
 H      11.64700000      47.96700000      36.09600000
 H      10.31100000      47.93900000      35.36900000
 O      35.34300000      44.55200000      37.90600000
 H      36.29200000      44.87200000      37.90200000
 H      34.87100000      45.36000000      38.06400000
 O      12.17300000      48.53700000      37.79800000
 H      12.67500000      49.26500000      38.26200000
 H      11.80700000      48.16300000      38.60600000
 O       8.12300000      46.72600000      25.94200000
 H       7.93300000      47.64500000      25.69100000
 H       8.00800000      46.75100000      26.89600000
 O      22.38000000      46.30100000      26.16400000
 H      22.85400000      47.13500000      26.34500000
 H      22.14300000      45.98500000      27.05200000
 O      22.13800000      46.85000000      29.82200000
 H      21.90600000      46.06700000      30.22800000
 H      21.28600000      47.12900000      29.36600000
 O      34.48300000      47.53800000      24.68700000
 H      33.85700000      48.24500000      24.48100000
 H      35.28500000      47.77000000      24.16400000
 O      28.87700000      47.64200000      20.72600000
 H      29.09400000      46.86400000      20.16300000
 H      27.93600000      47.46000000      20.93300000
 O      25.29300000      45.07700000      27.16400000
 H      25.19400000      45.39700000      28.11400000
 H      25.98900000      44.45500000      27.31100000
 O      38.07600000      45.76500000      25.86800000
 H      37.28800000      45.46000000      26.43300000
 H      37.99400000      45.20700000      25.07400000
 O      37.92200000      45.93900000      40.65600000
 H      38.83100000      46.08100000      41.05400000
 H      37.61200000      46.85800000      40.65000000
 O      16.06400000      46.17000000      28.71800000
 H      16.01800000      45.45100000      29.33000000
 H      15.34700000      46.07600000      28.11300000
 O      36.05800000      47.79700000      39.38100000
 H      35.25800000      47.20800000      39.21400000
 H      36.08200000      48.27300000      38.51900000
