957
XYZ file of cluster: frame_1000_728d8.203bd.c597f - created by MolEdiTo
 O      20.25000000      24.24400000      38.63200000
 H      19.46600000      24.50000000      38.02200000
 H      21.00800000      24.62700000      38.12600000
 O      25.58000000      31.34500000      35.84500000
 H      26.41900000      30.79300000      35.98800000
 H      25.44200000      31.10300000      34.89500000
 O      38.43800000      36.05400000      40.45600000
 H      38.49300000      36.96200000      40.69600000
 H      37.46200000      35.89500000      40.52400000
 O      32.23100000      26.62400000      35.50900000
 H      32.14200000      27.24100000      36.27800000
 H      32.47300000      25.81500000      36.02800000
 O      31.05500000       6.06300000      35.28200000
 H      30.29800000       5.88300000      34.64100000
 H      30.82700000       7.02000000      35.45600000
 O      24.58000000      35.78500000      35.55500000
 H      24.06800000      34.99800000      35.21000000
 H      25.43900000      35.40600000      35.61900000
 O      22.57300000      37.85200000      40.28200000
 H      23.27400000      38.44000000      40.55000000
 H      23.09400000      37.35000000      39.56700000
 O      26.89900000      22.15000000      34.63300000
 H      27.18000000      22.24000000      33.71400000
 H      27.69800000      22.54800000      35.10000000
 O      38.97000000      25.11600000      35.68300000
 H      39.42500000      24.43700000      35.15400000
 H      38.61800000      25.63600000      34.92300000
 O      28.48900000      17.71600000      40.57700000
 H      27.93500000      16.92500000      40.44400000
 H      28.10600000      18.25400000      39.86400000
 O      40.33900000      26.88100000      40.52900000
 H      40.11600000      26.20300000      39.86500000
 H      40.74100000      27.53900000      39.92200000
 O      34.42900000       9.20300000      35.87000000
 H      35.31000000       8.82000000      36.01000000
 H      33.91600000       8.33200000      36.14100000
 O      27.86000000      17.02500000      34.84600000
 H      27.55800000      17.98600000      34.85900000
 H      27.90700000      16.82200000      35.80300000
 O      37.02300000      23.93700000      39.19400000
 H      36.88900000      23.53900000      38.25800000
 H      36.13400000      24.28800000      39.34600000
 O      25.30600000      35.36200000      40.71800000
 H      25.98400000      34.83400000      41.20300000
 H      25.10100000      34.73300000      39.99400000
 O      23.32400000      28.81900000      37.78900000
 H      23.65000000      28.63200000      36.88300000
 H      23.20300000      29.78200000      37.72400000
 O      23.22900000      21.47300000      39.77500000
 H      22.25700000      21.45500000      39.55300000
 H      23.17000000      21.57000000      40.73300000
 O      20.47200000      37.63700000      37.67700000
 H      20.10000000      37.65300000      38.55500000
 H      21.19700000      38.39200000      37.71800000
 O      21.62600000      25.03100000      36.16000000
 H      21.92900000      24.60200000      35.29700000
 H      21.23800000      25.84900000      35.75200000
 O      40.00800000      11.50300000      34.87100000
 H      40.61100000      11.48300000      34.10600000
 H      39.53600000      12.39600000      34.66100000
 O      40.25900000      38.62000000      37.24100000
 H      40.43300000      39.61600000      37.23700000
 H      39.39600000      38.54100000      37.63700000
 O      24.40000000      22.47700000      35.04700000
 H      24.60800000      23.25700000      35.62900000
 H      25.33900000      22.15100000      34.89300000
 O      25.67700000      12.61800000      38.23500000
 H      25.56900000      12.41000000      39.19100000
 H      26.12400000      11.75900000      37.89800000
 O      25.76700000      38.54500000      37.19500000
 H      24.95700000      38.40800000      37.68500000
 H      26.27100000      37.73000000      37.38300000
 O      30.60100000      30.78200000      38.69700000
 H      31.43500000      30.74600000      39.18400000
 H      30.00300000      31.25900000      39.24100000
 O      34.37600000      14.01200000      37.02000000
 H      33.88200000      13.14300000      37.01800000
 H      34.70100000      14.06400000      37.91400000
 O      39.66800000      17.10500000      37.24400000
 H      40.13100000      17.93400000      37.01300000
 H      40.22100000      16.43600000      36.88100000
 O      27.17800000      26.50700000      40.52300000
 H      26.83100000      25.61700000      40.60800000
 H      26.65200000      26.93600000      39.82900000
 O      33.66700000      37.63100000      40.13400000
 H      33.39000000      38.48300000      39.67500000
 H      32.89700000      37.08700000      39.88700000
 O      20.72800000      21.64700000      39.39200000
 H      20.36600000      22.55500000      39.18500000
 H      19.84300000      21.20800000      39.32100000
 O      22.66000000      20.55500000      35.56100000
 H      23.45400000      19.97400000      35.81700000
 H      23.15800000      21.26700000      35.13600000
 O      37.40700000      10.51600000      37.77100000
 H      38.02400000      10.69100000      38.47300000
 H      37.50400000       9.57400000      37.60000000
 O      27.43500000      38.45000000      40.13600000
 H      27.69200000      38.38900000      41.11100000
 H      26.44500000      38.26200000      40.27400000
 O      36.83800000      33.58200000      35.40000000
 H      37.41500000      32.79500000      35.58500000
 H      37.50400000      34.12200000      34.92200000
 O      24.08200000      18.58900000      39.05700000
 H      23.75600000      19.48000000      39.17100000
 H      24.18100000      18.19100000      39.91200000
 O      23.59200000       8.95000000      35.65900000
 H      23.95800000       8.51900000      34.85900000
 H      22.70700000       9.22000000      35.24900000
 O      24.12300000       9.55600000      38.13600000
 H      25.07300000       9.86700000      38.04700000
 H      23.96700000       9.32300000      37.18100000
 O      36.30900000      18.41600000      37.07000000
 H      35.72500000      17.69300000      36.88300000
 H      37.11300000      18.08100000      36.65000000
 O      32.93800000      24.24700000      37.17100000
 H      32.53300000      24.44300000      38.02900000
 H      32.28800000      23.55100000      36.83100000
 O      27.46900000      40.38000000      35.66300000
 H      27.13700000      39.52800000      35.90300000
 H      27.96000000      40.65900000      36.45700000
 O      34.78800000      25.20400000      39.58600000
 H      34.75800000      26.03700000      40.16200000
 H      33.82000000      25.14500000      39.46000000
 O      30.12000000      30.27000000      35.97000000
 H      30.20000000      30.01700000      36.89400000
 H      29.17000000      30.18300000      35.82000000
 O      23.57000000      24.52100000      40.17600000
 H      23.49700000      23.65800000      39.78800000
 H      23.92100000      25.08900000      39.45800000
 O      26.75700000      33.88300000      35.43900000
 H      26.53100000      33.03300000      35.78900000
 H      27.25500000      33.64400000      34.65200000
 O      37.53500000      20.66000000      39.15800000
 H      36.70200000      21.11200000      39.06400000
 H      37.54300000      20.12200000      38.37300000
 O      37.29500000       7.16800000      36.78000000
 H      36.90200000       6.67100000      35.99000000
 H      38.21000000       6.85700000      36.75000000
 O      35.86000000      36.15600000      40.56600000
 H      35.26100000      35.35800000      40.39900000
 H      35.20700000      36.84000000      40.37600000
 O      23.68700000      40.67800000      40.63700000
 H      23.34900000      41.54400000      40.91600000
 H      24.05400000      40.83100000      39.75700000
 O      33.70700000      20.84000000      38.22400000
 H      34.31700000      20.93600000      37.41600000
 H      33.53900000      19.87400000      38.21200000
 O      31.34000000      27.68600000      38.15200000
 H      31.43500000      28.63000000      38.36900000
 H      30.64900000      27.45400000      38.77900000
 O      31.53000000      17.85900000      36.20400000
 H      31.51200000      17.28100000      35.36000000
 H      30.96600000      18.57900000      35.86100000
 O      28.84900000      27.62900000      36.73900000
 H      29.67400000      27.79200000      37.20200000
 H      28.94600000      26.63800000      36.57200000
 O      24.13400000      16.30600000      35.25700000
 H      24.78100000      15.62300000      35.47400000
 H      23.37600000      15.72700000      34.91900000
 O      37.55300000      39.45800000      38.65100000
 H      38.00600000      40.28100000      38.36700000
 H      36.61800000      39.73300000      38.34600000
 O      27.39700000      15.50700000      39.61600000
 H      27.22800000      15.92500000      38.71900000
 H      26.67600000      14.81100000      39.65900000
 O      37.63700000      31.68900000      39.72500000
 H      38.06600000      32.35100000      40.29700000
 H      38.19100000      30.87200000      39.99500000
 O      30.11900000       8.93000000      35.53200000
 H      30.19600000       9.68900000      34.92300000
 H      29.14200000       8.86600000      35.59500000
 O      38.31900000      13.21100000      37.23100000
 H      37.91000000      12.29600000      37.07900000
 H      38.02600000      13.66700000      36.45100000
 O      31.19800000      22.10900000      36.40800000
 H      30.61000000      21.40200000      36.05300000
 H      32.05300000      21.65700000      36.23300000
 O      23.90100000      36.34400000      38.12600000
 H      24.84400000      36.12200000      38.40000000
 H      23.97200000      36.02300000      37.18800000
 O      28.69000000      11.35900000      36.60300000
 H      29.38100000      11.69000000      35.87200000
 H      29.29800000      11.51900000      37.33900000
 O      29.93800000      20.10500000      35.30500000
 H      29.92700000      20.19000000      34.35100000
 H      28.97500000      20.12800000      35.44300000
 O      33.63000000      31.92300000      37.18600000
 H      33.62400000      31.45700000      36.32400000
 H      34.42900000      31.55800000      37.57200000
 O      20.61700000      27.38500000      34.87900000
 H      20.42000000      28.08300000      35.51200000
 H      20.76300000      27.82000000      34.03300000
 O      30.29400000      14.60100000      38.03100000
 H      30.39400000      14.82400000      37.12800000
 H      29.92300000      13.69800000      37.94300000
 O      34.81600000      31.83500000      40.52500000
 H      34.50600000      32.70900000      40.49800000
 H      35.74000000      31.92800000      40.17700000
 O      20.83200000      12.32500000      40.57700000
 H      21.79200000      12.68900000      40.61800000
 H      21.09800000      11.46800000      40.16700000
 O      34.16400000      39.21900000      36.01300000
 H      34.05700000      38.27600000      36.39500000
 H      34.51000000      39.66500000      36.80900000
 O      31.50200000      35.10400000      39.08600000
 H      30.89000000      34.38500000      38.82700000
 H      30.89400000      35.82400000      39.34200000
 O      26.25100000      21.84000000      39.28800000
 H      25.39000000      21.49800000      39.34400000
 H      26.33200000      22.35900000      40.16600000
 O      22.30100000      39.72700000      37.40900000
 H      22.37700000      39.52600000      36.41100000
 H      23.13200000      40.24500000      37.52700000
 O      25.17700000      26.62000000      38.41800000
 H      24.46200000      27.24600000      38.37200000
 H      25.24700000      26.19800000      37.56500000
 O      31.14000000      18.86100000      40.54900000
 H      30.27300000      18.39300000      40.66400000
 H      31.45900000      18.46900000      39.72800000
 O      21.18800000      32.82900000      38.79000000
 H      21.19000000      33.53300000      38.15900000
 H      21.76000000      32.18700000      38.36700000
 O      28.44300000      23.52600000      38.38700000
 H      28.65200000      23.45700000      37.42700000
 H      27.79500000      22.85600000      38.52400000
 O      35.44800000      24.54200000      35.17300000
 H      35.51400000      25.46700000      34.94600000
 H      34.58600000      24.48700000      35.58300000
 O      29.71100000      27.36200000      40.14600000
 H      30.04200000      27.10000000      41.07800000
 H      28.79400000      27.14600000      40.30000000
 O      21.51900000      18.11600000      34.24000000
 H      21.95300000      18.50300000      35.00400000
 H      21.06800000      19.01800000      33.94100000
 O      38.57200000      29.04900000      38.99100000
 H      37.60800000      28.99600000      38.69000000
 H      38.56800000      28.52900000      39.77800000
 O      32.44300000      40.04400000      39.46800000
 H      32.19100000      40.62700000      38.75700000
 H      32.25400000      40.57700000      40.28100000
 O      22.65400000      39.80100000      34.75900000
 H      23.36400000      39.86900000      34.06600000
 H      22.55600000      40.77300000      34.92900000
 O      22.14500000      10.27400000      39.81300000
 H      22.56300000       9.78100000      40.53800000
 H      22.89400000      10.31800000      39.13300000
 O      28.88700000      35.87400000      40.68400000
 H      29.40400000      36.71700000      40.64700000
 H      28.93200000      35.74800000      41.65600000
 O      31.79400000      34.30900000      34.63800000
 H      31.41800000      34.08900000      35.54900000
 H      31.81500000      35.28900000      34.74500000
 O      28.92700000      23.43400000      35.67900000
 H      29.69000000      22.95800000      35.99900000
 H      29.24600000      24.06700000      35.07100000
 O      26.47400000       6.26700000      36.59800000
 H      26.54500000       7.16000000      36.15900000
 H      27.06800000       6.37700000      37.36400000
 O      34.14000000      36.72500000      37.16500000
 H      34.33600000      35.88700000      36.62700000
 H      33.72700000      36.29200000      37.93100000
 O      33.39400000      21.06400000      35.11700000
 H      33.60600000      21.38800000      34.16500000
 H      33.63000000      20.11700000      35.00600000
 O      30.81100000      15.77100000      40.60800000
 H      30.50600000      15.45500000      39.71800000
 H      29.97500000      16.10500000      40.90900000
 O      30.64900000      37.83900000      39.52600000
 H      30.78600000      38.10200000      38.56500000
 H      30.82200000      38.72200000      39.95200000
 O      24.79100000      25.45500000      35.94200000
 H      25.35700000      25.76600000      35.20400000
 H      23.87900000      25.68400000      35.55900000
 O      24.29700000      32.57800000      40.08500000
 H      23.60500000      33.25800000      40.12800000
 H      24.82800000      32.83500000      39.29000000
 O      30.78800000      12.23300000      35.23500000
 H      30.56800000      13.24700000      35.11100000
 H      31.01700000      12.03800000      34.25900000
 O      39.55100000      33.82800000      39.91300000
 H      39.20900000      34.69900000      40.23100000
 H      39.33500000      33.96400000      38.95500000
 O      33.94400000      22.49000000      40.40400000
 H      34.26600000      21.88000000      39.74900000
 H      34.26700000      23.35900000      40.06300000
 O      30.84300000      33.14500000      36.98400000
 H      31.72700000      32.82300000      36.96700000
 H      30.29300000      32.35300000      37.12400000
 O      30.38400000      36.80400000      35.33400000
 H      29.62500000      36.41300000      35.85100000
 H      30.64300000      37.53400000      35.91900000
 O      37.78700000      15.53400000      38.99700000
 H      38.22900000      16.17800000      38.44400000
 H      38.24600000      14.72900000      38.78700000
 O      25.48100000       7.66800000      39.62300000
 H      26.00100000       8.05800000      40.31800000
 H      24.94200000       8.45200000      39.29800000
 O      30.26600000      11.53200000      38.63800000
 H      31.07500000      10.99700000      38.72900000
 H      29.91200000      11.54100000      39.56700000
 O      34.18800000      18.53200000      34.45000000
 H      34.22000000      17.75500000      35.05500000
 H      33.47800000      18.36400000      33.83600000
 O      30.79700000      39.08300000      37.09800000
 H      30.07000000      39.65500000      37.47500000
 H      31.48900000      39.79800000      37.12400000
 O      24.50000000      18.70200000      36.34300000
 H      24.21000000      17.83900000      36.03200000
 H      24.34500000      18.58700000      37.33400000
 O      38.46400000      34.94300000      37.45800000
 H      38.02400000      35.80400000      37.38000000
 H      37.82800000      34.44300000      36.83500000
 O      34.39500000      34.39700000      36.21400000
 H      34.03200000      33.49600000      36.37200000
 H      35.28100000      34.15400000      35.95500000
 O      36.95700000      37.33400000      37.24000000
 H      37.27300000      37.90800000      38.02600000
 H      36.07800000      37.16700000      37.45700000
 O      25.81500000      14.47100000      36.05300000
 H      25.92600000      13.73300000      35.41600000
 H      25.68500000      13.93800000      36.88300000
 O      33.42200000      12.44200000      39.98800000
 H      34.20400000      12.92600000      39.62100000
 H      33.69900000      11.50400000      39.78900000
 O      26.91100000      36.27100000      38.24600000
 H      27.42100000      36.41900000      39.10900000
 H      27.62600000      35.87700000      37.67100000
 O      27.56400000      19.40600000      38.76400000
 H      27.72900000      19.28500000      37.80300000
 H      27.20500000      20.31400000      38.77700000
 O      35.45100000      14.15000000      39.52700000
 H      35.81500000      13.41500000      40.03200000
 H      36.24300000      14.78300000      39.47700000
 O      39.11600000      20.54200000      35.68000000
 H      39.48400000      19.82300000      35.10500000
 H      38.47100000      20.84900000      35.03200000
 O      32.49300000      17.35100000      38.53200000
 H      31.94000000      16.56700000      38.70200000
 H      32.18800000      17.60300000      37.68300000
 O      28.69400000      33.23500000      40.09100000
 H      27.78700000      33.08900000      40.14900000
 H      28.74900000      34.22200000      40.15400000
 O      36.04300000      29.70000000      34.74500000
 H      36.43900000      29.99200000      35.61100000
 H      35.14000000      30.06400000      34.95900000
 O      28.74500000      35.18000000      36.69100000
 H      28.14700000      34.76100000      36.05700000
 H      29.29400000      34.40200000      36.90200000
 O      23.64400000      15.12000000      38.41300000
 H      23.29400000      14.70900000      37.59000000
 H      24.08100000      14.31600000      38.77300000
 O      36.50700000      22.56300000      36.88600000
 H      35.88000000      23.07600000      36.33600000
 H      36.91200000      22.02200000      36.15700000
 O      22.00500000      16.31700000      40.25800000
 H      22.86400000      16.66300000      40.65900000
 H      22.47600000      15.88600000      39.43700000
 O      37.79500000      39.12900000      34.88600000
 H      37.53800000      38.58000000      35.63200000
 H      38.46700000      39.72500000      35.20500000
 O      30.04100000      14.76900000      35.20000000
 H      30.57600000      15.37400000      34.64100000
 H      29.12100000      15.07500000      34.99700000
 O      28.75900000      40.17900000      38.30100000
 H      28.46100000      39.47800000      38.91000000
 H      28.23400000      40.93500000      38.65900000
 O      27.61600000      29.67400000      35.78500000
 H      27.42200000      29.22000000      34.92700000
 H      27.94200000      28.90200000      36.33500000
 O      21.13600000       9.85200000      34.61500000
 H      20.68900000      10.22400000      33.82600000
 H      20.51800000      10.14000000      35.28000000
 O      22.97500000      33.61600000      34.79100000
 H      22.10100000      33.98400000      34.41800000
 H      23.31600000      33.31800000      33.85000000
 O      22.19500000      14.25600000      36.13900000
 H      22.59000000      13.41800000      35.73300000
 H      21.75800000      14.61300000      35.34500000
 O      23.90900000      28.37900000      35.17500000
 H      24.19600000      28.98300000      34.46800000
 H      23.62800000      27.57100000      34.63800000
 O      20.50900000       9.96200000      37.44600000
 H      20.73900000       8.99200000      37.56500000
 H      21.21500000      10.29600000      38.09200000
 O      32.91100000      11.45300000      36.74400000
 H      32.16200000      11.68100000      36.17700000
 H      33.08300000      10.51400000      36.48400000
 O      25.23100000      33.55200000      37.71200000
 H      24.79700000      32.77100000      37.33700000
 H      25.90400000      33.77200000      37.07900000
 O      28.62100000       8.94000000      39.42600000
 H      29.52900000       8.83500000      39.11900000
 H      28.71700000       9.41000000      40.27000000
 O      31.36300000      21.44900000      40.74900000
 H      32.16100000      21.82400000      40.25500000
 H      31.48500000      20.46900000      40.54700000
 O      38.99400000      31.78900000      35.71000000
 H      39.03500000      31.10800000      35.03100000
 H      39.50200000      31.35800000      36.41000000
 O      22.87900000      31.59600000      36.85500000
 H      22.58200000      32.17800000      36.06900000
 H      23.78300000      31.38900000      36.51200000
 O      33.10500000      30.42100000      35.11100000
 H      32.94300000      30.81300000      34.24200000
 H      32.22200000      29.98400000      35.26400000
 O      40.25000000      10.15700000      39.27800000
 H      40.69800000       9.29500000      38.96800000
 H      40.53000000      10.70800000      38.46600000
 O      27.10800000      19.60900000      36.07000000
 H      26.21100000      19.18100000      35.92400000
 H      26.92800000      20.49800000      35.78500000
 O      31.01800000       8.41000000      38.18600000
 H      31.57200000       7.59300000      38.06500000
 H      30.77700000       8.63200000      37.25500000
 O      27.30500000       8.81300000      35.36100000
 H      27.44900000       9.57200000      34.72600000
 H      26.92700000       9.31900000      36.11500000
 O      28.79900000       6.08400000      38.41200000
 H      28.74500000       6.96100000      38.87300000
 H      28.37700000       5.48500000      39.07700000
 O      34.80300000      18.33600000      39.43000000
 H      34.01600000      17.95900000      38.97500000
 H      35.48800000      18.26100000      38.74200000
 O      40.61500000      20.37800000      38.20600000
 H      39.75200000      20.47700000      38.72200000
 H      40.27900000      20.56500000      37.32700000
 O      25.88000000      11.81800000      40.84500000
 H      26.64400000      12.30300000      41.20300000
 H      26.06300000      10.89900000      41.15700000
 O      34.79600000      10.02800000      38.45100000
 H      34.45800000      10.27500000      37.57600000
 H      35.75300000      10.03100000      38.19700000
 O      26.60200000      16.67500000      37.37600000
 H      26.38500000      15.92400000      36.76100000
 H      25.73100000      16.93200000      37.73700000
 O      35.91400000      28.69400000      39.45600000
 H      36.34000000      28.25200000      40.23500000
 H      34.97300000      28.45100000      39.59000000
 O      33.67900000      14.01400000      34.24200000
 H      33.67200000      13.03100000      34.35700000
 H      34.07800000      14.26300000      35.12400000
 O      35.10800000      40.45500000      38.33100000
 H      35.33500000      41.39600000      38.12100000
 H      34.31200000      40.62700000      38.87800000
 O      31.91400000      25.04600000      39.57100000
 H      32.01400000      26.03500000      39.63600000
 H      31.33700000      24.92900000      40.36100000
 O      34.51600000      16.50700000      36.33800000
 H      34.67600000      15.53300000      36.61500000
 H      33.79500000      16.68100000      36.98400000
 O      20.84500000      29.51200000      38.98300000
 H      20.66400000      29.91400000      38.10700000
 H      21.67300000      29.05000000      38.80000000
 O      33.86200000      34.36100000      40.48200000
 H      33.59200000      34.36400000      41.45000000
 H      33.00300000      34.47900000      40.02800000
 O      20.94100000      19.24800000      37.41800000
 H      21.35600000      19.73600000      36.68200000
 H      20.87700000      20.01200000      38.04600000
 O      36.04100000      30.73300000      37.63000000
 H      36.66700000      31.14400000      38.25900000
 H      36.06300000      29.82700000      38.01000000
 O      26.73400000      10.01700000      37.72200000
 H      27.36500000       9.59900000      38.36900000
 H      27.41200000      10.58600000      37.24800000
 O      39.03800000      25.31100000      38.32800000
 H      38.14600000      24.89900000      38.55800000
 H      38.91100000      25.28400000      37.37600000
 O      21.17900000      34.96300000      37.10900000
 H      21.95900000      34.74000000      36.54800000
 H      21.30300000      35.94800000      37.17200000
 O      32.71500000      30.25400000      40.59700000
 H      33.54300000      30.66800000      40.26700000
 H      32.75400000      30.61700000      41.48700000
 O      33.76800000      21.44500000      46.94900000
 H      33.19600000      21.60000000      47.72100000
 H      33.39000000      22.05400000      46.28500000
 O      32.52300000      26.73200000      45.05700000
 H      31.91300000      26.13000000      44.47600000
 H      32.59400000      26.15700000      45.82900000
 O      38.36000000      35.05400000      47.06400000
 H      37.47200000      34.98800000      46.64300000
 H      38.86600000      34.44400000      46.53300000
 O      39.12000000      14.53500000      44.40100000
 H      38.54100000      15.17300000      43.96000000
 H      39.97200000      14.72900000      43.94200000
 O      26.63400000      40.29000000      46.33400000
 H      25.71500000      40.45400000      46.20500000
 H      26.69500000      40.32600000      47.36900000
 O      25.38000000      10.96400000      46.27000000
 H      26.16300000      11.21100000      46.81500000
 H      24.83500000      10.38800000      46.78900000
 O      27.75300000      16.94900000      47.37800000
 H      27.49500000      17.87400000      47.27400000
 H      28.70500000      17.00200000      47.60700000
 O      39.47900000      40.55000000      45.91400000
 H      39.88600000      39.69200000      45.61400000
 H      39.30700000      40.30300000      46.84100000
 O      39.11200000      19.55500000      43.92600000
 H      38.28600000      19.05100000      43.58300000
 H      39.44600000      19.78600000      43.02600000
 O      21.28100000      21.23100000      48.78300000
 H      21.11400000      20.26800000      48.72500000
 H      20.69600000      21.54800000      48.09300000
 O      25.07900000      27.04500000      45.58700000
 H      24.99800000      26.34900000      44.85300000
 H      24.83100000      26.47900000      46.34500000
 O      21.16900000      39.13600000      44.78800000
 H      21.07900000      39.83700000      44.12700000
 H      20.16400000      38.88900000      44.92400000
 O      30.80100000      32.69900000      47.13200000
 H      30.82500000      31.75400000      47.56000000
 H      30.78600000      32.36800000      46.21200000
 O      20.29900000      14.88700000      43.48200000
 H      21.01000000      15.35700000      42.86200000
 H      20.28100000      14.02000000      43.10100000
 O      26.35600000       9.67400000      43.86500000
 H      27.19900000       9.19500000      44.13300000
 H      26.15700000      10.00000000      44.76900000
 O      29.76500000      14.50700000      47.71200000
 H      30.25900000      15.37800000      47.90800000
 H      30.27900000      14.19900000      46.93900000
 O      34.55000000       6.67600000      46.92600000
 H      33.80200000       7.30700000      46.96200000
 H      34.04900000       5.85000000      47.09600000
 O      32.10300000      36.17500000      45.92100000
 H      31.83400000      36.15600000      46.89400000
 H      31.17500000      35.89000000      45.59400000
 O      34.10700000       9.29500000      42.65600000
 H      33.70000000       8.45200000      42.76700000
 H      34.27500000       9.26900000      41.65600000
 O      20.52600000      30.39700000      46.28100000
 H      21.08600000      29.60700000      46.52400000
 H      20.62900000      30.32100000      45.33300000
 O      22.71700000      40.43100000      48.05500000
 H      22.96800000      40.60500000      48.97600000
 H      21.81100000      40.24900000      48.16800000
 O      38.44100000      13.07700000      49.20400000
 H      38.48300000      13.24600000      48.20600000
 H      37.44100000      12.78900000      49.21800000
 O      34.43200000      12.90400000      46.57700000
 H      34.86600000      13.67600000      46.20600000
 H      34.64000000      12.22100000      45.86100000
 O      39.31800000      30.57800000      43.45300000
 H      38.44400000      30.65700000      43.90600000
 H      39.70100000      29.81200000      43.87600000
 O      26.64500000      33.64200000      43.97400000
 H      26.07200000      32.90900000      44.32700000
 H      27.22400000      33.61800000      44.78400000
 O      34.50300000      19.02100000      45.87100000
 H      34.13500000      19.08600000      45.01500000
 H      34.35400000      19.90900000      46.26000000
 O      23.27400000      23.50700000      46.62000000
 H      23.71500000      24.25900000      47.13400000
 H      23.65300000      22.77200000      47.19500000
 O      34.14400000      26.58900000      48.96300000
 H      34.33000000      27.23900000      48.21800000
 H      35.11800000      26.47100000      49.20200000
 O      29.61200000      23.97000000      46.39500000
 H      28.67200000      23.67300000      46.41500000
 H      30.02100000      23.33200000      45.81000000
 O      37.22100000      18.09700000      46.88900000
 H      36.37200000      18.48700000      46.52300000
 H      36.99000000      17.12200000      46.79600000
 O      22.56000000      32.96400000      47.91000000
 H      22.84300000      33.44700000      47.11400000
 H      22.42200000      33.71100000      48.54100000
 O      40.37400000      38.47400000      42.63700000
 H      39.48200000      38.73400000      43.00000000
 H      40.63000000      39.33700000      42.36800000
 O      34.49800000      28.72700000      47.25600000
 H      34.65200000      29.58800000      46.77600000
 H      35.44500000      28.68900000      47.59200000
 O      37.11300000      10.15400000      47.72300000
 H      36.57500000       9.75500000      47.00300000
 H      37.93000000      10.40300000      47.24100000
 O      33.01600000      16.23600000      45.29800000
 H      32.91400000      15.53200000      44.62800000
 H      33.25500000      16.99200000      44.73100000
 O      23.92100000      21.72300000      44.54500000
 H      23.20500000      21.11800000      44.72200000
 H      23.65900000      22.49900000      45.07400000
 O      24.09700000      17.31600000      43.18500000
 H      24.53800000      17.95600000      43.81900000
 H      24.61700000      16.48000000      43.48500000
 O      25.49400000      14.76600000      43.65500000
 H      26.38400000      14.88800000      43.36300000
 H      25.55900000      14.72300000      44.60500000
 O      24.55800000      13.19500000      47.84600000
 H      24.17800000      13.44200000      46.96300000
 H      24.96000000      12.30800000      47.60100000
 O      32.43600000      11.32000000      47.80400000
 H      32.06300000      11.62400000      48.67700000
 H      33.15200000      11.98600000      47.68300000
 O      38.21700000      27.43300000      45.44600000
 H      39.08200000      27.66500000      45.00200000
 H      38.49900000      26.63600000      45.94500000
 O      28.06300000      30.33000000      44.94300000
 H      27.12300000      30.50900000      44.85500000
 H      28.12300000      29.36500000      44.97400000
 O      21.23000000      37.09900000      47.07400000
 H      21.27500000      37.87800000      46.55100000
 H      22.15900000      36.81400000      47.14900000
 O      35.80400000      14.87800000      45.40000000
 H      36.67200000      14.79200000      44.95500000
 H      35.37200000      15.47200000      44.78500000
 O      23.54000000      13.14500000      42.93500000
 H      24.25500000      13.75900000      43.13700000
 H      23.97300000      12.24700000      43.07900000
 O      27.64700000      13.02100000      44.68000000
 H      28.36000000      12.71000000      45.24400000
 H      27.19500000      13.65700000      45.22500000
 O      28.17300000      39.03000000      44.41100000
 H      29.01600000      39.12900000      44.89200000
 H      27.58500000      39.40100000      45.11400000
 O      36.47000000      37.64100000      47.94100000
 H      36.34900000      37.92100000      47.02200000
 H      36.13100000      36.72900000      47.96400000
 O      20.84600000      23.64400000      45.72700000
 H      21.77400000      23.66400000      46.06200000
 H      21.01200000      24.14700000      44.90100000
 O      30.40500000      25.38800000      44.04200000
 H      29.83800000      24.65400000      43.66800000
 H      30.22400000      25.23200000      44.98900000
 O      24.85600000      25.84400000      48.03700000
 H      24.69300000      26.26700000      48.89000000
 H      25.83600000      25.87300000      47.96200000
 O      20.72700000       6.57000000      46.48100000
 H      20.58100000       6.86300000      45.55000000
 H      20.12800000       7.20400000      46.94100000
 O      37.73400000      22.90800000      46.21000000
 H      38.26000000      22.09000000      46.19500000
 H      37.43300000      22.84100000      45.22700000
 O      35.75700000      13.37600000      48.92700000
 H      34.97600000      13.81100000      49.29900000
 H      35.36400000      13.26800000      47.98800000
 O      24.16100000      36.67500000      47.19300000
 H      24.72300000      36.48800000      46.42300000
 H      24.71100000      36.34600000      47.93500000
 O      27.74400000      34.11400000      46.67500000
 H      27.69100000      33.21100000      47.11800000
 H      27.31100000      34.57300000      47.43900000
 O      29.49600000      38.97600000      47.78300000
 H      28.84100000      39.65600000      47.67600000
 H      29.00000000      38.14200000      47.68400000
 O      30.76100000      39.13100000      45.40800000
 H      31.43600000      39.78200000      45.76600000
 H      30.36600000      38.79300000      46.26700000
 O      28.40500000      19.67500000      44.62300000
 H      28.30700000      18.82000000      44.12200000
 H      27.81500000      20.23000000      44.11400000
 O      35.81200000      23.45600000      48.05500000
 H      35.35200000      22.60000000      47.79400000
 H      36.61200000      23.31100000      47.51000000
 O      37.33400000      39.06900000      43.07500000
 H      37.59500000      39.94600000      43.26200000
 H      36.96400000      39.09300000      42.15000000
 O      29.48700000      23.32900000      42.76800000
 H      29.35800000      23.59300000      41.84100000
 H      30.04500000      22.53000000      42.61300000
 O      33.13400000      14.53900000      43.34000000
 H      33.39900000      13.80900000      42.78900000
 H      32.44200000      14.96800000      42.77500000
 O      37.22600000      28.73100000      47.99600000
 H      37.97400000      29.03400000      48.46300000
 H      37.53600000      28.56900000      47.10000000
 O      25.26800000      19.41300000      44.77000000
 H      25.41200000      19.66400000      45.73700000
 H      24.67300000      20.14900000      44.51000000
 O      37.03100000      18.61100000      42.64700000
 H      37.14300000      19.37700000      42.07300000
 H      36.07200000      18.48400000      42.61400000
 O      38.34400000       8.14500000      45.20600000
 H      37.68900000       7.82700000      44.50600000
 H      38.26500000       7.35700000      45.77400000
 O      25.82300000      29.21200000      47.04100000
 H      25.61400000      28.66600000      46.30800000
 H      24.99600000      29.73400000      47.17100000
 O      24.83300000      31.83200000      45.01900000
 H      24.50200000      31.10200000      44.47900000
 H      24.04200000      32.37400000      45.10500000
 O      31.75200000      11.27700000      44.62900000
 H      32.73900000      11.41800000      44.62800000
 H      31.50800000      12.02100000      45.19000000
 O      21.80900000      25.81000000      48.32200000
 H      21.68700000      25.09400000      47.72800000
 H      22.38500000      25.42300000      48.99900000
 O      35.00800000      25.44600000      44.47100000
 H      35.07300000      26.00800000      43.69100000
 H      34.75400000      26.06300000      45.15700000
 O      30.66600000      17.13100000      48.58500000
 H      30.86100000      17.94100000      48.03100000
 H      31.43800000      17.20700000      49.14100000
 O      35.05200000      19.87000000      49.05000000
 H      35.58300000      20.34100000      49.68200000
 H      35.32200000      20.20800000      48.19400000
 O      22.06100000      19.84600000      45.40700000
 H      21.09500000      19.87300000      45.38600000
 H      22.24700000      18.92300000      45.03600000
 O      32.69100000      25.05300000      47.21100000
 H      33.00800000      24.17200000      47.25800000
 H      33.12100000      25.41800000      48.04400000
 O      29.44100000      11.69300000      46.73300000
 H      30.11400000      12.24800000      47.15500000
 H      29.62900000      10.82800000      47.19500000
 O      26.00100000      36.49300000      45.11100000
 H      25.90000000      35.63600000      44.74600000
 H      25.97800000      37.02600000      44.29400000
 O      27.45200000      27.58700000      44.56300000
 H      27.28600000      27.23800000      43.66700000
 H      26.50500000      27.41200000      44.93200000
 O      28.32200000      20.37500000      48.10000000
 H      29.12800000      20.21200000      47.56000000
 H      28.68700000      20.63100000      48.96200000
 O      26.26200000      14.99400000      46.37300000
 H      25.75300000      14.67600000      47.05300000
 H      26.86400000      15.66000000      46.72300000
 O      22.42500000      11.70500000      45.22600000
 H      22.97800000      12.47800000      44.97400000
 H      22.02300000      11.99200000      46.07700000
 O      38.72600000       7.57700000      49.48500000
 H      38.98300000       8.49600000      49.37100000
 H      38.87500000       7.23300000      48.57100000
 O      22.56000000      33.42100000      45.20900000
 H      22.11200000      32.73500000      44.76500000
 H      22.34600000      34.18800000      44.64300000
 O      39.13100000      25.25500000      46.87100000
 H      38.74100000      24.45100000      46.38600000
 H      39.95200000      24.83600000      47.17200000
 O      32.15200000      31.66600000      44.70600000
 H      31.33700000      32.02600000      44.48600000
 H      31.96600000      30.71900000      44.87100000
 O      27.08100000      22.79200000      43.74000000
 H      27.99800000      23.01400000      43.48900000
 H      27.13800000      22.57700000      44.67600000
 O      28.25900000       8.26200000      45.08800000
 H      29.12900000       8.44600000      44.81100000
 H      28.37200000       8.23600000      46.08500000
 O      36.60000000      30.82900000      44.37800000
 H      36.01000000      30.93800000      45.15500000
 H      36.08900000      31.03000000      43.61200000
 O      37.07200000      26.91800000      42.88400000
 H      37.83000000      26.29300000      42.97400000
 H      37.00900000      27.29100000      43.80800000
 O      34.27900000      35.45200000      48.35800000
 H      34.41900000      34.59200000      48.85800000
 H      34.46800000      35.09400000      47.44700000
 O      21.10900000      31.96400000      43.18500000
 H      20.16600000      32.20400000      43.28900000
 H      21.19800000      32.13700000      42.24200000
 O      23.22000000      10.25600000      48.73300000
 H      23.72000000       9.46500000      48.34900000
 H      22.30300000       9.95200000      48.66400000
 O      19.99200000      28.13900000      44.71300000
 H      20.80000000      28.09300000      44.14700000
 H      19.37500000      28.32800000      44.04800000
 O      22.43700000      35.46200000      43.36200000
 H      22.05200000      36.32900000      43.32800000
 H      23.37300000      35.61800000      43.04300000
 O      34.72300000      11.25300000      44.56500000
 H      34.86400000      10.42600000      45.08900000
 H      34.47300000      10.77300000      43.71900000
 O      24.41000000      30.02700000      42.77400000
 H      24.17500000      30.83200000      42.21800000
 H      25.16600000      29.64800000      42.33900000
 O      22.04600000      28.42500000      43.00400000
 H      22.77300000      29.12900000      43.09600000
 H      21.61800000      28.76000000      42.20700000
 O      29.39800000      11.39100000      42.79200000
 H      30.21200000      11.20400000      43.37400000
 H      28.77300000      11.79100000      43.45500000
 O      33.69300000      23.04600000      44.81400000
 H      33.87000000      22.61300000      43.98600000
 H      34.37000000      23.78400000      44.73000000
 O      24.94600000      24.85500000      44.06600000
 H      25.44700000      24.04900000      44.05000000
 H      24.32100000      24.73900000      43.31400000
 O      39.06000000      20.01800000      46.49700000
 H      39.19100000      19.86800000      45.55000000
 H      38.28200000      19.35000000      46.67700000
 O      34.84500000      32.61600000      48.85800000
 H      34.45500000      33.13500000      49.67100000
 H      35.50700000      33.22100000      48.57400000
 O      36.98100000      15.81800000      48.92000000
 H      36.15500000      16.02200000      48.39100000
 H      36.89800000      14.81100000      48.90000000
 O      31.59300000      29.20200000      45.16200000
 H      30.69800000      29.05100000      45.54900000
 H      32.06000000      28.35100000      45.41400000
 O      25.01900000      38.76900000      43.49000000
 H      24.50000000      39.50500000      43.01300000
 H      24.68100000      38.83100000      44.40200000
 O      36.96100000      23.46000000      43.55700000
 H      36.22700000      24.03800000      43.87800000
 H      37.02600000      23.81000000      42.64200000
 O      28.57700000       9.00000000      47.92600000
 H      28.84600000       8.67200000      48.74600000
 H      27.98100000       9.73200000      48.11900000
 O      33.73200000      27.50600000      42.72300000
 H      33.19700000      28.26700000      42.45100000
 H      33.25500000      27.35300000      43.60600000
 O      39.24900000      32.64500000      45.64900000
 H      39.09700000      32.15000000      44.76400000
 H      40.20600000      32.54400000      45.75800000
 O      29.64400000      28.15900000      46.78200000
 H      29.89600000      27.30000000      47.21100000
 H      28.69400000      27.94900000      46.55300000
 O      36.12400000      37.41400000      44.73300000
 H      36.75800000      38.18300000      44.59100000
 H      36.08400000      37.01300000      43.82900000
 O      29.93900000      34.15200000      49.10800000
 H      30.16800000      33.60100000      48.35900000
 H      30.48500000      34.93900000      48.98300000
 O      23.59900000       9.53400000      43.81000000
 H      24.42800000       9.92900000      43.98300000
 H      23.09600000       9.78000000      44.64300000
 O      24.64500000       8.40100000      47.26400000
 H      25.34500000       7.79800000      47.68100000
 H      24.12600000       7.69700000      46.76700000
 O      30.20300000      26.01400000      48.36200000
 H      30.39300000      25.59400000      49.19800000
 H      30.51400000      25.30100000      47.74000000
 O      37.25300000      16.12800000      43.41500000
 H      37.38500000      15.72400000      42.53500000
 H      37.14100000      17.08300000      43.12800000
 O      19.81700000      32.92900000      46.50700000
 H      20.74900000      32.97200000      46.84300000
 H      19.79100000      31.93800000      46.36700000
 O      27.65000000      37.21000000      47.18900000
 H      27.11200000      37.20200000      46.36900000
 H      27.33800000      36.40800000      47.63400000
 O      22.24200000      28.21500000      47.13500000
 H      22.74900000      27.86600000      46.41000000
 H      22.16900000      27.41400000      47.69700000
 O      40.51200000      22.88400000      42.67800000
 H      39.70100000      22.46100000      42.99000000
 H      40.52400000      23.73200000      43.27900000
 O      35.59700000       9.05100000      45.63600000
 H      35.28700000       8.35100000      46.24100000
 H      35.79600000       8.66000000      44.79300000
 O      21.45600000      12.95900000      47.71000000
 H      22.39900000      13.19700000      47.78400000
 H      21.34600000      12.27500000      48.44200000
 O      32.48300000       8.69200000      46.84500000
 H      31.68000000       8.80500000      46.28900000
 H      32.70300000       9.65700000      47.02200000
 O      31.23800000      21.70900000      45.12000000
 H      30.95800000      21.68600000      44.12700000
 H      32.02200000      22.27100000      45.05400000
 O      38.60700000      39.26000000      48.11800000
 H      37.83100000      38.61600000      48.09700000
 H      39.29000000      38.55900000      48.24600000
 O      30.55200000      19.56000000      46.63700000
 H      30.04500000      19.72800000      45.86700000
 H      31.33700000      20.13900000      46.47300000
 O      39.52600000      36.88900000      48.72400000
 H      39.78100000      36.14200000      49.29600000
 H      39.13300000      36.39800000      47.97900000
 O      33.97600000      40.61300000      47.89700000
 H      33.84000000      40.03000000      47.16800000
 H      33.04500000      41.00300000      47.86100000
 O      20.06500000      10.80700000      44.36100000
 H      20.26000000      11.32700000      43.47600000
 H      20.95800000      10.96900000      44.75600000
 O      27.61200000      31.76200000      48.18500000
 H      27.44300000      31.00900000      47.54600000
 H      28.21500000      31.30700000      48.82200000
 O      21.26800000      18.49600000      48.41200000
 H      20.60600000      18.56100000      47.70300000
 H      21.63600000      17.58600000      48.23100000
 O      33.62600000      38.88700000      45.45300000
 H      32.78900000      38.49300000      45.36500000
 H      34.20100000      38.09300000      45.48900000
 O      22.83300000       6.58900000      42.77700000
 H      23.22400000       7.46200000      42.95900000
 H      21.92500000       6.63900000      43.18000000
 O      30.27800000      30.21600000      48.39400000
 H      29.96500000      29.56000000      47.72600000
 H      30.81400000      29.58100000      48.92200000
 O      29.76900000      32.31900000      44.04800000
 H      29.12000000      31.57100000      44.16000000
 H      29.55200000      32.54400000      43.10300000
 O      23.59600000      39.85600000      45.71300000
 H      22.69900000      39.57100000      45.38500000
 H      23.33500000      40.09000000      46.65200000
 O      23.12600000      14.43000000      45.80200000
 H      23.05200000      15.04400000      45.06000000
 H      22.70300000      14.99600000      46.49000000
 O      19.81300000      34.93200000      42.74400000
 H      19.55000000      35.22000000      43.68100000
 H      20.75800000      35.01000000      42.79000000
 O      33.55500000      34.30800000      45.00700000
 H      33.00600000      33.55700000      45.19300000
 H      33.02500000      35.04700000      45.31600000
 O      34.84900000      16.59200000      47.45800000
 H      34.29300000      17.13000000      46.82800000
 H      34.92100000      15.79400000      46.92700000
 O      36.55700000       7.02400000      43.44800000
 H      35.97500000       6.31600000      43.79800000
 H      36.32800000       7.01000000      42.50700000
 O      31.43400000      13.74000000      45.69300000
 H      32.14300000      14.33200000      46.04200000
 H      31.51500000      13.82100000      44.68200000
 O      29.90900000      34.94200000      45.01500000
 H      29.91300000      34.02600000      44.73300000
 H      29.34600000      34.95200000      45.81600000
 O      36.03200000      34.97800000      45.89200000
 H      36.10200000      35.84900000      45.45400000
 H      35.39000000      34.50100000      45.37300000
 O      20.64900000       9.45900000      49.20700000
 H      19.94300000       9.20400000      48.52000000
 H      20.64100000       8.55300000      49.69100000
 O      20.94400000      24.82900000      43.01300000
 H      20.53700000      24.34400000      42.19500000
 H      21.84000000      24.93800000      42.65200000
 O      25.68500000      19.57800000      47.68200000
 H      26.44700000      20.03800000      48.06200000
 H      24.95900000      20.17200000      47.97400000
 O      31.70200000      36.23100000      48.53900000
 H      31.62500000      37.04900000      49.11000000
 H      32.72300000      36.13400000      48.60500000
 O      23.54900000      30.44200000      48.47300000
 H      22.84100000      29.84800000      48.16800000
 H      23.09000000      31.30000000      48.33900000
 O      40.64000000      16.59900000      46.38700000
 H      39.85800000      17.14700000      46.53100000
 H      40.57600000      16.38700000      45.43200000
 O      27.07900000      22.14500000      46.31800000
 H      27.61400000      21.47500000      46.84300000
 H      26.69800000      22.70800000      47.04600000
 O      34.74200000      31.25000000      46.38800000
 H      34.69500000      31.63700000      47.26200000
 H      33.75700000      31.33400000      46.08900000
 O      30.84100000       8.79600000      44.57900000
 H      31.15400000       9.69300000      44.27300000
 H      31.49100000       8.16700000      44.30000000
 O      38.31700000      10.75200000      44.87200000
 H      38.27900000       9.83700000      45.12400000
 H      39.25100000      10.89300000      44.60100000
 O      38.80600000      13.02500000      46.60100000
 H      38.50600000      12.27500000      45.97400000
 H      38.95100000      13.71800000      45.88600000
 O      36.67400000      12.28400000      42.96700000
 H      37.36000000      11.67800000      43.34100000
 H      35.95100000      12.10700000      43.57100000
 O      21.98900000      15.85400000      47.82200000
 H      21.09500000      15.63300000      47.44200000
 H      21.83500000      15.40200000      48.70100000
 O      37.49400000      32.02700000      47.78400000
 H      36.80800000      31.49600000      47.36700000
 H      38.05300000      32.31600000      47.02400000
 O      20.93700000      18.52800000      42.88200000
 H      19.98200000      18.20000000      42.75900000
 H      21.40000000      17.91700000      42.32600000
 O      33.64300000      18.86000000      43.42800000
 H      32.67600000      18.89100000      43.12200000
 H      34.06900000      18.80600000      42.54500000
