324
XYZ file of cluster: frame_1000_728d8.757b1.1159 - created by MolEdiTo
 O      33.76800000      21.44500000       5.29300000
 H      33.19600000      21.60000000       6.06500000
 H      33.39000000      22.05400000       4.62900000
 O      24.04000000      29.26700000      11.37200000
 H      23.79200000      29.20700000      12.33300000
 H      23.15300000      29.02000000      10.95700000
 O      33.10600000      34.22900000      12.69600000
 H      32.67400000      35.11900000      12.72000000
 H      33.39400000      34.14400000      13.61200000
 O      32.52300000      26.73200000       3.40100000
 H      31.91300000      26.13000000       2.82000000
 H      32.59400000      26.15700000       4.17300000
 O      31.39300000      29.69300000      12.94700000
 H      31.63200000      29.80200000      12.02300000
 H      30.44400000      29.41900000      12.85100000
 O      26.26700000      28.47300000       8.17800000
 H      25.53500000      27.91200000       8.45500000
 H      25.80500000      29.06100000       7.50300000
 O      27.45600000      26.01000000       7.42600000
 H      27.23300000      26.89900000       7.78500000
 H      28.37500000      26.16700000       7.14900000
 O      21.28100000      21.23100000       7.12700000
 H      21.11400000      20.26800000       7.06900000
 H      20.69600000      21.54800000       6.43700000
 O      25.07900000      27.04500000       3.93100000
 H      24.99800000      26.34900000       3.19700000
 H      24.83100000      26.47900000       4.68900000
 O      30.80100000      32.69900000       5.47600000
 H      30.82500000      31.75400000       5.90400000
 H      30.78600000      32.36800000       4.55600000
 O      20.34500000      34.89400000      11.60200000
 H      20.72400000      34.22100000      12.16000000
 H      19.54200000      34.39300000      11.24800000
 O      32.75900000      24.33800000      13.31400000
 H      33.61700000      23.87000000      13.25900000
 H      32.95000000      25.13200000      12.72500000
 O      25.35000000      23.62400000      10.55700000
 H      26.27500000      23.46200000      10.61100000
 H      25.20000000      24.39100000      11.18700000
 O      20.52600000      30.39700000       4.62500000
 H      21.08600000      29.60700000       4.86800000
 H      20.62900000      30.32100000       3.67700000
 O      21.75100000      22.22900000       9.81300000
 H      21.94700000      21.28200000      10.02300000
 H      21.42800000      22.09300000       8.87300000
 O      28.03700000      22.79300000      10.54400000
 H      28.34700000      23.08500000      11.41700000
 H      28.04100000      23.62700000      10.06700000
 O      21.92100000      28.59300000      13.38100000
 H      22.60000000      27.92200000      13.69900000
 H      21.30100000      27.94000000      12.88500000
 O      26.64500000      33.64200000       2.31800000
 H      26.07200000      32.90900000       2.67100000
 H      27.22400000      33.61800000       3.12800000
 O      23.27400000      23.50700000       4.96400000
 H      23.71500000      24.25900000       5.47800000
 H      23.65300000      22.77200000       5.53900000
 O      34.14400000      26.58900000       7.30700000
 H      34.33000000      27.23900000       6.56200000
 H      35.11800000      26.47100000       7.54600000
 O      29.61200000      23.97000000       4.73900000
 H      28.67200000      23.67300000       4.75900000
 H      30.02100000      23.33200000       4.15400000
 O      27.45200000      26.62800000      13.45500000
 H      27.20900000      27.37300000      14.08900000
 H      28.25100000      26.97100000      13.10100000
 O      22.56000000      32.96400000       6.25400000
 H      22.84300000      33.44700000       5.45800000
 H      22.42200000      33.71100000       6.88500000
 O      23.01900000      24.61700000       9.11200000
 H      23.80400000      24.14200000       9.37400000
 H      22.35100000      23.97500000       9.38400000
 O      24.82900000      20.85700000       9.66600000
 H      25.58300000      20.22800000       9.77100000
 H      25.03400000      21.64500000      10.19800000
 O      23.92100000      21.72300000       2.88900000
 H      23.20500000      21.11800000       3.06600000
 H      23.65900000      22.49900000       3.41800000
 O      28.06300000      30.33000000       3.28700000
 H      27.12300000      30.50900000       3.19900000
 H      28.12300000      29.36500000       3.31800000
 O      23.06000000      26.17400000      14.14100000
 H      22.75100000      25.98300000      15.04300000
 H      23.33000000      25.32000000      13.84600000
 O      20.84600000      23.64400000       4.07100000
 H      21.77400000      23.66400000       4.40600000
 H      21.01200000      24.14700000       3.24500000
 O      21.65800000      34.53800000       8.20700000
 H      21.27800000      33.86500000       8.84900000
 H      20.81800000      35.08400000       8.07500000
 O      22.13600000      31.09800000      13.89200000
 H      22.13300000      30.12100000      13.73300000
 H      21.63700000      31.16900000      14.76100000
 O      31.21800000      30.16700000      10.33600000
 H      30.89700000      31.04200000      10.06100000
 H      31.96400000      30.04500000       9.68900000
 O      26.76500000      20.65900000      13.79600000
 H      26.62700000      21.42900000      13.22700000
 H      26.14600000      19.99100000      13.37900000
 O      30.40500000      25.38800000       2.38600000
 H      29.83800000      24.65400000       2.01200000
 H      30.22400000      25.23200000       3.33300000
 O      26.85100000      24.01300000      13.31400000
 H      27.31600000      23.82600000      14.18700000
 H      27.07400000      24.98300000      13.28000000
 O      24.85600000      25.84400000       6.38100000
 H      24.69300000      26.26700000       7.23400000
 H      25.83600000      25.87300000       6.30600000
 O      26.75900000      23.18300000       7.36200000
 H      26.23500000      23.06100000       8.13700000
 H      27.35000000      23.92500000       7.69800000
 O      24.22700000      27.15400000       9.02700000
 H      23.53400000      27.82500000       9.32200000
 H      23.76400000      26.33300000       9.31600000
 O      27.91000000      25.48000000      10.33900000
 H      28.31100000      26.27200000       9.88500000
 H      28.06500000      25.70300000      11.24300000
 O      23.98500000      21.42000000       7.01400000
 H      24.17400000      21.16900000       7.95400000
 H      23.01200000      21.48600000       7.02500000
 O      30.49200000      24.45000000       9.11400000
 H      30.31700000      25.39500000       9.35700000
 H      30.35700000      24.02900000       9.95000000
 O      32.00200000      28.48200000       7.85900000
 H      32.78800000      29.00700000       8.17000000
 H      32.51400000      27.74000000       7.47000000
 O      27.02400000      32.83700000      10.17400000
 H      26.66000000      32.69500000       9.27900000
 H      27.27600000      31.90800000      10.40800000
 O      30.45500000      23.72200000      11.63300000
 H      30.09000000      23.05100000      12.22800000
 H      31.28200000      24.02600000      12.03400000
 O      27.74400000      34.11400000       5.01900000
 H      27.69100000      33.21100000       5.46200000
 H      27.31100000      34.57300000       5.78300000
 O      33.29300000      33.86100000       8.87300000
 H      32.52200000      33.36900000       8.83800000
 H      32.98400000      34.70400000       9.24900000
 O      29.48700000      23.32900000       1.11200000
 H      29.35800000      23.59300000       0.18500000
 H      30.04500000      22.53000000       0.95700000
 O      25.61800000      31.70300000       8.25000000
 H      26.24800000      31.87200000       7.49800000
 H      24.82700000      31.38300000       7.70400000
 O      20.73300000      23.67300000      11.91700000
 H      19.91100000      23.94800000      11.39200000
 H      21.12100000      23.03700000      11.29300000
 O      28.46100000      33.42500000      13.29200000
 H      29.02200000      33.67900000      12.51900000
 H      29.04900000      33.81400000      13.98500000
 O      25.82300000      29.21200000       5.38500000
 H      25.61400000      28.66600000       4.65200000
 H      24.99600000      29.73400000       5.51500000
 O      24.83300000      31.83200000       3.36300000
 H      24.50200000      31.10200000       2.82300000
 H      24.04200000      32.37400000       3.44900000
 O      21.80900000      25.81000000       6.66600000
 H      21.68700000      25.09400000       6.07200000
 H      22.38500000      25.42300000       7.34300000
 O      31.91800000      22.57600000       7.15600000
 H      31.19400000      23.20800000       7.36100000
 H      32.08200000      22.14800000       8.01700000
 O      32.69100000      25.05300000       5.55500000
 H      33.00800000      24.17200000       5.60200000
 H      33.12100000      25.41800000       6.38800000
 O      28.95600000      20.70700000       9.09400000
 H      28.46000000      20.16100000       9.69600000
 H      28.79800000      21.58100000       9.46700000
 O      27.45200000      27.58700000       2.90700000
 H      27.28600000      27.23800000       2.01100000
 H      26.50500000      27.41200000       3.27600000
 O      32.87400000      27.57500000      14.04500000
 H      32.60200000      27.14600000      13.21500000
 H      32.46500000      28.47700000      13.91600000
 O      22.56000000      33.42100000       3.55300000
 H      22.11200000      32.73500000       3.10900000
 H      22.34600000      34.18800000       2.98700000
 O      34.27900000      35.45200000       6.70200000
 H      34.41900000      34.59200000       7.20200000
 H      34.46800000      35.09400000       5.79100000
 O      32.15200000      31.66600000       3.05000000
 H      31.33700000      32.02600000       2.83000000
 H      31.96600000      30.71900000       3.21500000
 O      27.08100000      22.79200000       2.08400000
 H      27.99800000      23.01400000       1.83300000
 H      27.13800000      22.57700000       3.02000000
 O      33.61800000      24.81000000       9.46600000
 H      32.72800000      25.14900000       9.66700000
 H      33.83200000      25.27000000       8.62900000
 O      21.10900000      31.96400000       1.52900000
 H      20.16600000      32.20400000       1.63300000
 H      21.19800000      32.13700000       0.58600000
 O      19.99200000      28.13900000       3.05700000
 H      20.80000000      28.09300000       2.49100000
 H      19.37500000      28.32800000       2.39200000
 O      24.41000000      30.02700000       1.11800000
 H      24.17500000      30.83200000       0.56200000
 H      25.16600000      29.64800000       0.68300000
 O      26.75200000      29.70800000      10.65000000
 H      25.83100000      29.61600000      11.05500000
 H      26.57000000      29.12300000       9.85800000
 O      20.84200000      31.17300000      11.35800000
 H      21.22900000      31.48500000      12.21600000
 H      20.78100000      30.19900000      11.60200000
 O      22.04600000      28.42500000       1.34800000
 H      22.77300000      29.12900000       1.44000000
 H      21.61800000      28.76000000       0.55100000
 O      24.57700000      34.90000000       8.40700000
 H      23.65900000      35.10700000       8.03200000
 H      24.27400000      34.16400000       9.01700000
 O      30.59000000      34.28300000      11.73700000
 H      30.72300000      35.22300000      11.92700000
 H      31.45200000      33.94300000      12.08300000
 O      33.69300000      23.04600000       3.15800000
 H      33.87000000      22.61300000       2.33000000
 H      34.37000000      23.78400000       3.07400000
 O      24.94600000      24.85500000       2.41000000
 H      25.44700000      24.04900000       2.39400000
 H      24.32100000      24.73900000       1.65800000
 O      23.63100000      23.20700000      13.08500000
 H      24.28600000      23.41500000      12.45400000
 H      22.81500000      23.58500000      12.68800000
 O      31.59300000      29.20200000       3.50600000
 H      30.69800000      29.05100000       3.89300000
 H      32.06000000      28.35100000       3.75800000
 O      31.55200000      21.68900000       9.85500000
 H      31.18900000      22.16500000      10.68900000
 H      30.78700000      21.23000000       9.54600000
 O      33.73200000      27.50600000       1.06700000
 H      33.19700000      28.26700000       0.79500000
 H      33.25500000      27.35300000       1.95000000
 O      29.64400000      28.15900000       5.12600000
 H      29.89600000      27.30000000       5.55500000
 H      28.69400000      27.94900000       4.89700000
 O      25.85600000      32.61900000      12.55000000
 H      25.93800000      32.85800000      11.62000000
 H      26.74800000      33.06100000      12.83000000
 O      29.93900000      34.15200000       7.45200000
 H      30.16800000      33.60100000       6.70300000
 H      30.48500000      34.93900000       7.32700000
 O      30.20300000      26.01400000       6.70600000
 H      30.39300000      25.59400000       7.54200000
 H      30.51400000      25.30100000       6.08400000
 O      19.81700000      32.92900000       4.85100000
 H      20.74900000      32.97200000       5.18700000
 H      19.79100000      31.93800000       4.71100000
 O      22.24200000      28.21500000       5.47900000
 H      22.74900000      27.86600000       4.75400000
 H      22.16900000      27.41400000       6.04100000
 O      31.23800000      21.70900000       3.46400000
 H      30.95800000      21.68600000       2.47100000
 H      32.02200000      22.27100000       3.39800000
 O      34.47400000      30.36600000      12.56800000
 H      34.78900000      30.98500000      11.90500000
 H      33.61600000      30.74700000      12.84100000
 O      27.87000000      35.33700000       9.78300000
 H      27.76800000      34.34800000       9.83800000
 H      27.04200000      35.66100000      10.12500000
 O      29.40000000      21.42000000      13.02700000
 H      29.90000000      20.63800000      13.28800000
 H      28.44600000      21.06700000      13.12600000
 O      27.61200000      31.76200000       6.52900000
 H      27.44300000      31.00900000       5.89000000
 H      28.21500000      31.30700000       7.16600000
 O      22.47800000      33.64500000      13.22900000
 H      23.27300000      33.55600000      12.68300000
 H      22.33500000      32.73700000      13.54400000
 O      30.27800000      30.21600000       6.73800000
 H      29.96500000      29.56000000       6.07000000
 H      30.81400000      29.58100000       7.26600000
 O      29.76900000      32.31900000       2.39200000
 H      29.12000000      31.57100000       2.50400000
 H      29.55200000      32.54400000       1.44700000
 O      21.70400000      28.26000000       9.98300000
 H      21.20800000      27.64100000      10.59700000
 H      21.01400000      28.53100000       9.39000000
 O      28.74500000      28.97100000      12.72800000
 H      28.49300000      29.39900000      13.54600000
 H      27.95700000      29.12900000      12.14100000
 O      24.86800000      30.46900000      14.04300000
 H      23.96300000      30.86000000      14.19800000
 H      25.30700000      31.23400000      13.68500000
 O      33.55500000      34.30800000       3.35100000
 H      33.00600000      33.55700000       3.53700000
 H      33.02500000      35.04700000       3.66000000
 O      32.51200000      26.37300000      11.59200000
 H      33.29000000      26.78600000      11.23300000
 H      31.83500000      26.93000000      11.12900000
 O      34.22600000      22.07800000      10.47700000
 H      34.18800000      22.95800000       9.99300000
 H      33.24900000      21.84300000      10.24800000
 O      23.56900000      32.64300000       9.95600000
 H      22.78100000      32.05300000       9.79800000
 H      24.23200000      31.96600000      10.09200000
 O      22.83600000      21.11600000      14.29100000
 H      23.25200000      21.83900000      13.74300000
 H      21.95900000      21.07900000      13.84400000
 O      29.90900000      34.94200000       3.35900000
 H      29.91300000      34.02600000       3.07700000
 H      29.34600000      34.95200000       4.16000000
 O      33.61200000      30.64300000       8.87100000
 H      33.74000000      31.28500000       8.16900000
 H      34.56700000      30.41700000       9.03400000
 O      24.66600000      25.88900000      11.75800000
 H      25.07000000      25.98600000      12.66000000
 H      24.95300000      26.72800000      11.39000000
 O      20.94400000      24.82900000       1.35700000
 H      20.53700000      24.34400000       0.53900000
 H      21.84000000      24.93800000       0.99600000
 O      23.54900000      30.44200000       6.81700000
 H      22.84100000      29.84800000       6.51200000
 H      23.09000000      31.30000000       6.68300000
 O      27.07900000      22.14500000       4.66200000
 H      27.61400000      21.47500000       5.18700000
 H      26.69800000      22.70800000       5.39000000
 O      30.60400000      32.64700000       9.48900000
 H      30.09500000      33.07200000       8.79200000
 H      30.51800000      33.21100000      10.30100000
 O      34.74200000      31.25000000       4.73200000
 H      34.69500000      31.63700000       5.60600000
 H      33.75700000      31.33400000       4.43300000
 O      30.32400000      27.39200000       9.70000000
 H      30.43600000      28.23000000      10.23100000
 H      30.70800000      27.77400000       8.87000000
