354
XYZ file of cluster: frame_1000_c6cc6.72230.c82da - created by MolEdiTo
 O      35.44800000      24.54200000      35.17300000
 H      35.51400000      25.46700000      34.94600000
 H      34.58600000      24.48700000      35.58300000
 O      38.57200000      29.04900000      38.99100000
 H      37.60800000      28.99600000      38.69000000
 H      38.56800000      28.52900000      39.77800000
 O      38.43800000      36.05400000      40.45600000
 H      38.49300000      36.96200000      40.69600000
 H      37.46200000      35.89500000      40.52400000
 O      38.97000000      25.11600000      35.68300000
 H      39.42500000      24.43700000      35.15400000
 H      38.61800000      25.63600000      34.92300000
 O      34.78800000      25.20400000      39.58600000
 H      34.75800000      26.03700000      40.16200000
 H      33.82000000      25.14500000      39.46000000
 O      40.33900000      26.88100000      40.52900000
 H      40.11600000      26.20300000      39.86500000
 H      40.74100000      27.53900000      39.92200000
 O      38.99400000      31.78900000      35.71000000
 H      39.03500000      31.10800000      35.03100000
 H      39.50200000      31.35800000      36.41000000
 O      35.86000000      36.15600000      40.56600000
 H      35.26100000      35.35800000      40.39900000
 H      35.20700000      36.84000000      40.37600000
 O      37.53500000      20.66000000      39.15800000
 H      36.70200000      21.11200000      39.06400000
 H      37.54300000      20.12200000      38.37300000
 O      37.02300000      23.93700000      39.19400000
 H      36.88900000      23.53900000      38.25800000
 H      36.13400000      24.28800000      39.34600000
 O      39.55100000      33.82800000      39.91300000
 H      39.20900000      34.69900000      40.23100000
 H      39.33500000      33.96400000      38.95500000
 O      37.55300000      39.45800000      38.65100000
 H      38.00600000      40.28100000      38.36700000
 H      36.61800000      39.73300000      38.34600000
 O      37.63700000      31.68900000      39.72500000
 H      38.06600000      32.35100000      40.29700000
 H      38.19100000      30.87200000      39.99500000
 O      40.25900000      38.62000000      37.24100000
 H      40.43300000      39.61600000      37.23700000
 H      39.39600000      38.54100000      37.63700000
 O      38.46400000      34.94300000      37.45800000
 H      38.02400000      35.80400000      37.38000000
 H      37.82800000      34.44300000      36.83500000
 O      34.39500000      34.39700000      36.21400000
 H      34.03200000      33.49600000      36.37200000
 H      35.28100000      34.15400000      35.95500000
 O      36.95700000      37.33400000      37.24000000
 H      37.27300000      37.90800000      38.02600000
 H      36.07800000      37.16700000      37.45700000
 O      35.91400000      28.69400000      39.45600000
 H      36.34000000      28.25200000      40.23500000
 H      34.97300000      28.45100000      39.59000000
 O      35.10800000      40.45500000      38.33100000
 H      35.33500000      41.39600000      38.12100000
 H      34.31200000      40.62700000      38.87800000
 O      33.63000000      31.92300000      37.18600000
 H      33.62400000      31.45700000      36.32400000
 H      34.42900000      31.55800000      37.57200000
 O      34.81600000      31.83500000      40.52500000
 H      34.50600000      32.70900000      40.49800000
 H      35.74000000      31.92800000      40.17700000
 O      34.16400000      39.21900000      36.01300000
 H      34.05700000      38.27600000      36.39500000
 H      34.51000000      39.66500000      36.80900000
 O      36.04100000      30.73300000      37.63000000
 H      36.66700000      31.14400000      38.25900000
 H      36.06300000      29.82700000      38.01000000
 O      39.11600000      20.54200000      35.68000000
 H      39.48400000      19.82300000      35.10500000
 H      38.47100000      20.84900000      35.03200000
 O      39.03800000      25.31100000      38.32800000
 H      38.14600000      24.89900000      38.55800000
 H      38.91100000      25.28400000      37.37600000
 O      36.04300000      29.70000000      34.74500000
 H      36.43900000      29.99200000      35.61100000
 H      35.14000000      30.06400000      34.95900000
 O      36.50700000      22.56300000      36.88600000
 H      35.88000000      23.07600000      36.33600000
 H      36.91200000      22.02200000      36.15700000
 O      36.83800000      33.58200000      35.40000000
 H      37.41500000      32.79500000      35.58500000
 H      37.50400000      34.12200000      34.92200000
 O      37.79500000      39.12900000      34.88600000
 H      37.53800000      38.58000000      35.63200000
 H      38.46700000      39.72500000      35.20500000
 O      38.36000000      35.05400000      47.06400000
 H      37.47200000      34.98800000      46.64300000
 H      38.86600000      34.44400000      46.53300000
 O      38.60700000      39.26000000      48.11800000
 H      37.83100000      38.61600000      48.09700000
 H      39.29000000      38.55900000      48.24600000
 O      38.21700000      27.43300000      45.44600000
 H      39.08200000      27.66500000      45.00200000
 H      38.49900000      26.63600000      45.94500000
 O      39.52600000      36.88900000      48.72400000
 H      39.78100000      36.14200000      49.29600000
 H      39.13300000      36.39800000      47.97900000
 O      39.13100000      25.25500000      46.87100000
 H      38.74100000      24.45100000      46.38600000
 H      39.95200000      24.83600000      47.17200000
 O      34.27900000      35.45200000      48.35800000
 H      34.41900000      34.59200000      48.85800000
 H      34.46800000      35.09400000      47.44700000
 O      36.60000000      30.82900000      44.37800000
 H      36.01000000      30.93800000      45.15500000
 H      36.08900000      31.03000000      43.61200000
 O      36.47000000      37.64100000      47.94100000
 H      36.34900000      37.92100000      47.02200000
 H      36.13100000      36.72900000      47.96400000
 O      39.47900000      40.55000000      45.91400000
 H      39.88600000      39.69200000      45.61400000
 H      39.30700000      40.30300000      46.84100000
 O      37.07200000      26.91800000      42.88400000
 H      37.83000000      26.29300000      42.97400000
 H      37.00900000      27.29100000      43.80800000
 O      37.73400000      22.90800000      46.21000000
 H      38.26000000      22.09000000      46.19500000
 H      37.43300000      22.84100000      45.22700000
 O      35.81200000      23.45600000      48.05500000
 H      35.35200000      22.60000000      47.79400000
 H      36.61200000      23.31100000      47.51000000
 O      37.33400000      39.06900000      43.07500000
 H      37.59500000      39.94600000      43.26200000
 H      36.96400000      39.09300000      42.15000000
 O      34.84500000      32.61600000      48.85800000
 H      34.45500000      33.13500000      49.67100000
 H      35.50700000      33.22100000      48.57400000
 O      39.31800000      30.57800000      43.45300000
 H      38.44400000      30.65700000      43.90600000
 H      39.70100000      29.81200000      43.87600000
 O      34.49800000      28.72700000      47.25600000
 H      34.65200000      29.58800000      46.77600000
 H      35.44500000      28.68900000      47.59200000
 O      37.22600000      28.73100000      47.99600000
 H      37.97400000      29.03400000      48.46300000
 H      37.53600000      28.56900000      47.10000000
 O      36.03200000      34.97800000      45.89200000
 H      36.10200000      35.84900000      45.45400000
 H      35.39000000      34.50100000      45.37300000
 O      36.96100000      23.46000000      43.55700000
 H      36.22700000      24.03800000      43.87800000
 H      37.02600000      23.81000000      42.64200000
 O      39.24900000      32.64500000      45.64900000
 H      39.09700000      32.15000000      44.76400000
 H      40.20600000      32.54400000      45.75800000
 O      36.12400000      37.41400000      44.73300000
 H      36.75800000      38.18300000      44.59100000
 H      36.08400000      37.01300000      43.82900000
 O      34.74200000      31.25000000      46.38800000
 H      34.69500000      31.63700000      47.26200000
 H      33.75700000      31.33400000      46.08900000
 O      34.14400000      26.58900000      48.96300000
 H      34.33000000      27.23900000      48.21800000
 H      35.11800000      26.47100000      49.20200000
 O      35.00800000      25.44600000      44.47100000
 H      35.07300000      26.00800000      43.69100000
 H      34.75400000      26.06300000      45.15700000
 O      37.49400000      32.02700000      47.78400000
 H      36.80800000      31.49600000      47.36700000
 H      38.05300000      32.31600000      47.02400000
 O      40.37400000      38.47400000      42.63700000
 H      39.48200000      38.73400000      43.00000000
 H      40.63000000      39.33700000      42.36800000
 O      40.51200000      22.88400000      42.67800000
 H      39.70100000      22.46100000      42.99000000
 H      40.52400000      23.73200000      43.27900000
 O      44.95900000      35.16700000      38.09400000
 H      44.23000000      35.09900000      37.44500000
 H      44.59400000      35.96000000      38.62800000
 O      42.76600000      40.86300000      40.32000000
 H      43.31000000      40.63600000      39.50400000
 H      43.48900000      41.26700000      40.82600000
 O      47.62800000      33.80600000      35.08400000
 H      48.19800000      33.77800000      35.88000000
 H      46.79200000      33.43100000      35.41400000
 O      45.39400000      24.67100000      39.41000000
 H      44.82800000      25.39100000      39.05700000
 H      44.84400000      23.86600000      39.25300000
 O      42.46300000      29.05400000      37.37500000
 H      41.90800000      28.83700000      36.60100000
 H      41.81900000      28.92100000      38.10100000
 O      46.90500000      28.08000000      36.39700000
 H      46.19500000      28.15200000      37.04400000
 H      46.55300000      28.67200000      35.71600000
 O      43.66000000      21.86100000      35.44500000
 H      43.80600000      22.68400000      34.90200000
 H      42.72800000      21.78000000      35.50200000
 O      46.32000000      21.65800000      39.98600000
 H      46.23400000      21.18400000      39.09100000
 H      46.30100000      22.56300000      39.66700000
 O      47.99700000      22.78200000      35.03800000
 H      47.81200000      23.71600000      35.12000000
 H      47.38300000      22.43900000      35.72800000
 O      48.94900000      28.93700000      37.86100000
 H      48.63300000      28.79700000      38.75800000
 H      48.16400000      28.75300000      37.37300000
 O      46.14700000      37.48500000      34.88100000
 H      45.41000000      36.97400000      35.28600000
 H      46.86000000      37.21200000      35.58100000
 O      48.05200000      36.84800000      36.82700000
 H      48.45300000      36.16800000      37.42400000
 H      48.67500000      36.70100000      36.05100000
 O      46.81700000      40.76100000      35.39000000
 H      46.51100000      41.21500000      36.15500000
 H      47.76000000      40.53500000      35.67100000
 O      45.32800000      31.38400000      39.28600000
 H      45.79800000      30.82000000      39.90800000
 H      44.60200000      31.75100000      39.89600000
 O      44.41300000      40.19900000      38.37500000
 H      44.32300000      40.79600000      37.62800000
 H      45.06200000      39.56900000      38.13400000
 O      48.80700000      28.86300000      40.45100000
 H      48.07500000      29.50100000      40.66100000
 H      48.60200000      28.16700000      41.08600000
 O      46.83800000      38.59900000      38.69500000
 H      47.40400000      38.38300000      39.50400000
 H      47.25800000      37.99800000      38.03500000
 O      42.69300000      34.36900000      36.61600000
 H      41.85500000      34.72000000      37.06100000
 H      42.33100000      33.54600000      36.27000000
 O      44.96300000      32.73800000      35.11300000
 H      44.25000000      32.58800000      34.44900000
 H      44.40400000      32.56600000      35.91400000
 O      46.24100000      30.19200000      34.70800000
 H      45.45100000      30.43900000      34.15500000
 H      46.38900000      31.04200000      35.11800000
 O      43.64100000      31.57400000      37.09200000
 H      43.45900000      30.66200000      37.11300000
 H      44.02500000      31.73700000      37.94700000
 O      42.56900000      36.62200000      35.10900000
 H      42.24500000      37.22700000      35.81200000
 H      42.75400000      35.79700000      35.69400000
 O      44.67800000      27.96500000      37.84900000
 H      44.25100000      27.18100000      37.38900000
 H      43.97100000      28.62000000      37.82800000
 O      46.12800000      21.95100000      36.74300000
 H      45.54000000      22.69600000      37.08000000
 H      45.48600000      21.59000000      36.08900000
 O      43.11700000      31.95500000      40.66100000
 H      42.55800000      31.25000000      41.05800000
 H      42.44300000      32.53600000      40.23800000
 O      43.33200000      25.49200000      37.29400000
 H      43.19700000      25.55100000      36.33200000
 H      42.38500000      25.39500000      37.57800000
 O      46.92600000      33.70600000      39.07800000
 H      46.26400000      34.30500000      38.67100000
 H      46.46000000      32.83500000      39.00000000
 O      43.53700000      37.26800000      39.26100000
 H      42.67800000      37.55700000      39.66500000
 H      43.98100000      38.15000000      39.23600000
 O      43.47900000      22.59300000      38.91300000
 H      42.75600000      22.76100000      39.54300000
 H      43.10000000      21.88200000      38.31500000
 O      46.56600000      25.25400000      36.52500000
 H      45.66900000      25.19300000      36.27400000
 H      46.75000000      26.18400000      36.51900000
 O      48.30400000      31.22200000      48.44500000
 H      47.84100000      32.10700000      48.30500000
 H      49.24500000      31.62800000      48.40900000
 O      43.81800000      27.35900000      47.41200000
 H      43.15800000      28.07300000      47.20000000
 H      44.20700000      27.75700000      48.24900000
 O      47.21000000      33.40700000      48.20000000
 H      47.62800000      34.27000000      47.95700000
 H      46.55200000      33.36300000      47.45100000
 O      48.24600000      20.04100000      47.30700000
 H      48.45400000      19.42200000      48.02600000
 H      47.85000000      20.81200000      47.77800000
 O      44.34000000      21.69000000      46.00100000
 H      44.21700000      20.80900000      46.34100000
 H      43.99100000      21.59000000      45.04300000
 O      42.16700000      25.04500000      44.09200000
 H      43.12900000      25.28900000      44.16700000
 H      41.88700000      25.65800000      43.41900000
 O      45.59300000      39.24100000      45.03600000
 H      44.83200000      38.69500000      45.33200000
 H      45.19500000      40.10600000      44.90400000
 O      46.31700000      33.27200000      45.52900000
 H      46.59900000      34.16500000      45.29700000
 H      47.01200000      32.73600000      45.10400000
 O      46.75400000      26.16100000      43.22000000
 H      46.24700000      25.74000000      42.47300000
 H      46.06400000      26.17400000      43.88700000
 O      48.26900000      39.05100000      45.14600000
 H      47.33000000      39.36000000      45.11700000
 H      48.24300000      38.61300000      44.25100000
 O      44.46900000      26.04600000      45.07600000
 H      45.03800000      25.43700000      45.58800000
 H      44.34900000      26.74700000      45.78200000
 O      43.42200000      22.20800000      48.55200000
 H      43.88300000      21.95700000      47.75800000
 H      43.52900000      23.22000000      48.49000000
 O      48.10800000      20.24800000      43.09500000
 H      48.68500000      19.65200000      42.52100000
 H      47.66300000      20.80400000      42.40300000
 O      47.61300000      35.95400000      44.52300000
 H      47.78800000      36.29400000      43.61300000
 H      48.52700000      35.93000000      44.85300000
 O      44.79000000      35.86800000      45.10500000
 H      44.32100000      35.50700000      44.28900000
 H      45.69200000      35.99000000      44.68200000
 O      42.25200000      28.49900000      44.43900000
 H      42.82100000      28.56700000      45.24800000
 H      43.03300000      28.48600000      43.74100000
 O      47.82700000      28.99300000      46.92300000
 H      47.50200000      29.51300000      47.71300000
 H      48.79100000      29.03600000      47.05600000
 O      45.92700000      29.84700000      45.25400000
 H      46.72000000      29.47800000      45.66800000
 H      45.41200000      30.13200000      46.01100000
 O      47.06200000      37.88200000      47.86000000
 H      47.26200000      38.58900000      47.23900000
 H      47.76800000      37.20200000      47.61100000
 O      44.67000000      36.61600000      47.60300000
 H      45.63400000      36.84800000      47.81000000
 H      44.75000000      36.35700000      46.66000000
 O      43.22100000      24.90100000      48.50300000
 H      43.69000000      25.62100000      48.06900000
 H      42.60300000      25.37100000      49.08700000
 O      43.66600000      32.24100000      45.53200000
 H      44.51100000      32.62600000      45.89200000
 H      43.83400000      32.42900000      44.58900000
 O      44.03400000      21.45200000      43.35000000
 H      43.16900000      21.81600000      42.99900000
 H      44.60200000      21.57000000      42.54600000
 O      47.90200000      26.34300000      46.76400000
 H      47.74600000      27.35100000      46.93800000
 H      47.24100000      25.92500000      47.24500000
 O      42.56300000      29.73100000      46.77600000
 H      42.81900000      30.62800000      46.54900000
 H      42.05000000      29.88800000      47.59200000
 O      43.29900000      35.31700000      42.93100000
 H      42.78300000      34.66400000      42.45500000
 H      43.27000000      36.06100000      42.28700000
 O      45.63400000      24.27100000      46.72200000
 H      45.12300000      23.38500000      46.54100000
 H      46.16300000      23.99900000      47.45400000
 O      42.57100000      38.11500000      45.37100000
 H      43.00500000      37.35300000      45.79600000
 H      42.91200000      38.12400000      44.48400000
 O      44.28600000      28.67700000      42.64500000
 H      45.06300000      28.72200000      43.21500000
 H      44.54400000      28.94100000      41.74800000
 O      46.89900000      30.52000000      42.93300000
 H      46.94700000      31.45500000      43.19200000
 H      46.46300000      30.16700000      43.77400000
 O      48.38700000      24.24400000      43.62000000
 H      47.84900000      25.08300000      43.56900000
 H      47.68700000      23.64800000      44.06900000
 O      46.86000000      22.38700000      44.87400000
 H      46.55100000      21.77600000      44.20000000
 H      46.30000000      22.10400000      45.63900000
