246
XYZ file of cluster: frame_1000_9c5a7.c5342.c812a - created by MolEdiTo
 O      28.75900000      40.17900000      38.30100000
 H      28.46100000      39.47800000      38.91000000
 H      28.23400000      40.93500000      38.65900000
 O      38.43800000      36.05400000      40.45600000
 H      38.49300000      36.96200000      40.69600000
 H      37.46200000      35.89500000      40.52400000
 O      32.44300000      40.04400000      39.46800000
 H      32.19100000      40.62700000      38.75700000
 H      32.25400000      40.57700000      40.28100000
 O      28.88700000      35.87400000      40.68400000
 H      29.40400000      36.71700000      40.64700000
 H      28.93200000      35.74800000      41.65600000
 O      31.79400000      34.30900000      34.63800000
 H      31.41800000      34.08900000      35.54900000
 H      31.81500000      35.28900000      34.74500000
 O      34.14000000      36.72500000      37.16500000
 H      34.33600000      35.88700000      36.62700000
 H      33.72700000      36.29200000      37.93100000
 O      27.46900000      40.38000000      35.66300000
 H      27.13700000      39.52800000      35.90300000
 H      27.96000000      40.65900000      36.45700000
 O      30.64900000      37.83900000      39.52600000
 H      30.78600000      38.10200000      38.56500000
 H      30.82200000      38.72200000      39.95200000
 O      35.86000000      36.15600000      40.56600000
 H      35.26100000      35.35800000      40.39900000
 H      35.20700000      36.84000000      40.37600000
 O      39.55100000      33.82800000      39.91300000
 H      39.20900000      34.69900000      40.23100000
 H      39.33500000      33.96400000      38.95500000
 O      37.55300000      39.45800000      38.65100000
 H      38.00600000      40.28100000      38.36700000
 H      36.61800000      39.73300000      38.34600000
 O      30.38400000      36.80400000      35.33400000
 H      29.62500000      36.41300000      35.85100000
 H      30.64300000      37.53400000      35.91900000
 O      40.25900000      38.62000000      37.24100000
 H      40.43300000      39.61600000      37.23700000
 H      39.39600000      38.54100000      37.63700000
 O      30.79700000      39.08300000      37.09800000
 H      30.07000000      39.65500000      37.47500000
 H      31.48900000      39.79800000      37.12400000
 O      38.46400000      34.94300000      37.45800000
 H      38.02400000      35.80400000      37.38000000
 H      37.82800000      34.44300000      36.83500000
 O      36.95700000      37.33400000      37.24000000
 H      37.27300000      37.90800000      38.02600000
 H      36.07800000      37.16700000      37.45700000
 O      33.66700000      37.63100000      40.13400000
 H      33.39000000      38.48300000      39.67500000
 H      32.89700000      37.08700000      39.88700000
 O      35.10800000      40.45500000      38.33100000
 H      35.33500000      41.39600000      38.12100000
 H      34.31200000      40.62700000      38.87800000
 O      34.16400000      39.21900000      36.01300000
 H      34.05700000      38.27600000      36.39500000
 H      34.51000000      39.66500000      36.80900000
 O      31.50200000      35.10400000      39.08600000
 H      30.89000000      34.38500000      38.82700000
 H      30.89400000      35.82400000      39.34200000
 O      26.91100000      36.27100000      38.24600000
 H      27.42100000      36.41900000      39.10900000
 H      27.62600000      35.87700000      37.67100000
 O      28.74500000      35.18000000      36.69100000
 H      28.14700000      34.76100000      36.05700000
 H      29.29400000      34.40200000      36.90200000
 O      27.43500000      38.45000000      40.13600000
 H      27.69200000      38.38900000      41.11100000
 H      26.44500000      38.26200000      40.27400000
 O      37.79500000      39.12900000      34.88600000
 H      37.53800000      38.58000000      35.63200000
 H      38.46700000      39.72500000      35.20500000
 O      38.36000000      35.05400000      47.06400000
 H      37.47200000      34.98800000      46.64300000
 H      38.86600000      34.44400000      46.53300000
 O      38.60700000      39.26000000      48.11800000
 H      37.83100000      38.61600000      48.09700000
 H      39.29000000      38.55900000      48.24600000
 O      39.52600000      36.88900000      48.72400000
 H      39.78100000      36.14200000      49.29600000
 H      39.13300000      36.39800000      47.97900000
 O      34.27900000      35.45200000      48.35800000
 H      34.41900000      34.59200000      48.85800000
 H      34.46800000      35.09400000      47.44700000
 O      28.17300000      39.03000000      44.41100000
 H      29.01600000      39.12900000      44.89200000
 H      27.58500000      39.40100000      45.11400000
 O      33.97600000      40.61300000      47.89700000
 H      33.84000000      40.03000000      47.16800000
 H      33.04500000      41.00300000      47.86100000
 O      36.47000000      37.64100000      47.94100000
 H      36.34900000      37.92100000      47.02200000
 H      36.13100000      36.72900000      47.96400000
 O      39.47900000      40.55000000      45.91400000
 H      39.88600000      39.69200000      45.61400000
 H      39.30700000      40.30300000      46.84100000
 O      33.62600000      38.88700000      45.45300000
 H      32.78900000      38.49300000      45.36500000
 H      34.20100000      38.09300000      45.48900000
 O      33.55500000      34.30800000      45.00700000
 H      33.00600000      33.55700000      45.19300000
 H      33.02500000      35.04700000      45.31600000
 O      29.49600000      38.97600000      47.78300000
 H      28.84100000      39.65600000      47.67600000
 H      29.00000000      38.14200000      47.68400000
 O      32.10300000      36.17500000      45.92100000
 H      31.83400000      36.15600000      46.89400000
 H      31.17500000      35.89000000      45.59400000
 O      30.76100000      39.13100000      45.40800000
 H      31.43600000      39.78200000      45.76600000
 H      30.36600000      38.79300000      46.26700000
 O      29.90900000      34.94200000      45.01500000
 H      29.91300000      34.02600000      44.73300000
 H      29.34600000      34.95200000      45.81600000
 O      37.33400000      39.06900000      43.07500000
 H      37.59500000      39.94600000      43.26200000
 H      36.96400000      39.09300000      42.15000000
 O      36.03200000      34.97800000      45.89200000
 H      36.10200000      35.84900000      45.45400000
 H      35.39000000      34.50100000      45.37300000
 O      31.70200000      36.23100000      48.53900000
 H      31.62500000      37.04900000      49.11000000
 H      32.72300000      36.13400000      48.60500000
 O      36.12400000      37.41400000      44.73300000
 H      36.75800000      38.18300000      44.59100000
 H      36.08400000      37.01300000      43.82900000
 O      29.93900000      34.15200000      49.10800000
 H      30.16800000      33.60100000      48.35900000
 H      30.48500000      34.93900000      48.98300000
 O      40.37400000      38.47400000      42.63700000
 H      39.48200000      38.73400000      43.00000000
 H      40.63000000      39.33700000      42.36800000
 O      27.65000000      37.21000000      47.18900000
 H      27.11200000      37.20200000      46.36900000
 H      27.33800000      36.40800000      47.63400000
 O      33.45300000      47.87700000      36.26000000
 H      33.78300000      46.95200000      36.12200000
 H      32.53500000      47.75000000      35.87100000
 O      37.93500000      45.35300000      38.06900000
 H      38.56300000      46.07200000      37.83500000
 H      37.70400000      45.59500000      38.99000000
 O      29.18800000      44.32100000      34.26000000
 H      28.52700000      43.62700000      34.13700000
 H      28.77500000      44.88600000      34.92700000
 O      31.23600000      46.42100000      40.20200000
 H      31.20900000      45.69300000      39.51400000
 H      30.54700000      45.99300000      40.75100000
 O      34.18900000      45.28800000      35.38200000
 H      33.41800000      44.77600000      35.08300000
 H      34.84700000      44.58300000      35.41500000
 O      31.05500000      47.60700000      35.28200000
 H      30.29800000      47.42700000      34.64100000
 H      30.82700000      48.56400000      35.45600000
 O      27.45200000      45.33200000      36.16400000
 H      27.62100000      45.21000000      37.09400000
 H      27.13300000      46.21600000      36.15400000
 O      33.92100000      46.49600000      39.05600000
 H      33.34400000      46.70700000      38.33500000
 H      33.43300000      46.97000000      39.81100000
 O      37.92200000      45.93900000      40.65600000
 H      38.83100000      46.08100000      41.05400000
 H      37.61200000      46.85800000      40.65000000
 O      31.83100000      43.16600000      37.19700000
 H      31.07400000      43.75500000      37.11200000
 H      32.49600000      43.69700000      36.77100000
 O      39.04500000      42.74200000      37.20200000
 H      38.73200000      43.66800000      37.37000000
 H      39.87100000      43.01000000      36.66900000
 O      36.05800000      47.79700000      39.38100000
 H      35.25800000      47.20800000      39.21400000
 H      36.08200000      48.27300000      38.51900000
 O      35.34300000      44.55200000      37.90600000
 H      36.29200000      44.87200000      37.90200000
 H      34.87100000      45.36000000      38.06400000
 O      30.51100000      45.71300000      37.46500000
 H      29.92900000      46.39500000      37.75100000
 H      30.90700000      46.07000000      36.62600000
 O      40.43600000      47.18600000      37.84500000
 H      41.13500000      47.09100000      37.15400000
 H      40.95500000      47.76900000      38.44300000
 O      28.79900000      47.62800000      38.41200000
 H      28.74500000      48.50500000      38.87300000
 H      28.37700000      47.02900000      39.07700000
 O      37.29500000      48.71200000      36.78000000
 H      36.90200000      48.21500000      35.99000000
 H      38.21000000      48.40100000      36.75000000
 O      36.83200000      46.98600000      34.76200000
 H      37.21000000      46.11300000      34.61200000
 H      35.87900000      46.82700000      34.74200000
 O      34.79900000      46.27300000      44.04500000
 H      34.57400000      46.06700000      45.02700000
 H      34.50800000      45.44500000      43.64900000
 O      37.98100000      44.96200000      46.99100000
 H      38.34100000      44.43500000      47.72000000
 H      37.59600000      44.18200000      46.45600000
 O      31.45900000      42.98800000      47.10000000
 H      31.32200000      43.70300000      46.43900000
 H      30.62200000      43.02900000      47.60300000
 O      39.24800000      47.23300000      47.11700000
 H      38.62600000      46.43000000      47.18300000
 H      39.97800000      46.82900000      47.62200000
 O      33.76200000      45.37400000      46.59100000
 H      32.96900000      45.41000000      46.03300000
 H      34.04900000      44.47100000      46.30700000
 O      38.14500000      43.20200000      43.10900000
 H      37.94300000      44.06800000      42.73400000
 H      39.09400000      43.09600000      42.85500000
 O      29.11000000      44.03100000      48.37200000
 H      29.04800000      44.93900000      48.71100000
 H      28.18200000      43.98500000      47.95900000
 O      34.55000000      48.22000000      46.92600000
 H      33.80200000      48.85100000      46.96200000
 H      34.04900000      47.39400000      47.09600000
 O      31.34200000      45.24300000      45.04500000
 H      31.10200000      45.95300000      45.69100000
 H      30.61300000      45.29800000      44.38700000
 O      27.85000000      46.61700000      48.70800000
 H      27.27900000      47.38600000      49.02000000
 H      27.38500000      46.56300000      47.81700000
 O      34.36400000      43.12900000      45.10900000
 H      34.05600000      42.20700000      45.14300000
 H      35.34300000      43.00700000      45.28400000
 O      30.10100000      47.34500000      46.88300000
 H      29.45000000      47.17000000      47.55000000
 H      30.92000000      47.25000000      47.39700000
 O      36.55700000      48.56800000      43.44800000
 H      35.97500000      47.86000000      43.79800000
 H      36.32800000      48.55400000      42.50700000
 O      27.87500000      46.71100000      44.16800000
 H      27.14600000      46.55300000      44.86700000
 H      28.05600000      47.64300000      44.50900000
 O      36.95800000      42.82800000      45.39100000
 H      37.70800000      42.37900000      45.76000000
 H      37.26900000      42.85800000      44.44200000
 O      32.32300000      43.14500000      43.27400000
 H      31.62800000      43.51400000      43.87900000
 H      33.14700000      43.44600000      43.73000000
 O      27.53300000      42.88200000      43.30500000
 H      26.70900000      42.93100000      43.81200000
 H      27.78100000      41.94400000      43.38500000
 O      32.79300000      48.04900000      43.19600000
 H      32.08100000      47.51300000      42.73000000
 H      33.15200000      47.41600000      43.81000000
 O      29.33500000      44.85800000      43.16100000
 H      28.79200000      44.08700000      43.27300000
 H      28.76400000      45.55400000      43.57200000
