 Entering Gaussian System, Link 0=g16
 Input=G98.INP
 Output=G98.OUT
 Initial command:
 /usr/local/g16-A.03/sse4/g16/l1.exe "/scratch/zronyj/scripted/p2/cluster_323_i/Gau-10462.inp" -scrdir="/scratch/zronyj/scripted/p2/cluster_323_i/"
 Entering Link 1 = /usr/local/g16-A.03/sse4/g16/l1.exe PID=     10463.
  
 Copyright (c) 1988,1990,1992,1993,1995,1998,2003,2009,2016,
            Gaussian, Inc.  All Rights Reserved.
  
 This is part of the Gaussian(R) 16 program.  It is based on
 the Gaussian(R) 09 system (copyright 2009, Gaussian, Inc.),
 the Gaussian(R) 03 system (copyright 2003, Gaussian, Inc.),
 the Gaussian(R) 98 system (copyright 1998, Gaussian, Inc.),
 the Gaussian(R) 94 system (copyright 1995, Gaussian, Inc.),
 the Gaussian 92(TM) system (copyright 1992, Gaussian, Inc.),
 the Gaussian 90(TM) system (copyright 1990, Gaussian, Inc.),
 the Gaussian 88(TM) system (copyright 1988, Gaussian, Inc.),
 the Gaussian 86(TM) system (copyright 1986, Carnegie Mellon
 University), and the Gaussian 82(TM) system (copyright 1983,
 Carnegie Mellon University). Gaussian is a federally registered
 trademark of Gaussian, Inc.
  
 This software contains proprietary and confidential information,
 including trade secrets, belonging to Gaussian, Inc.
  
 This software is provided under written license and may be
 used, copied, transmitted, or stored only in accord with that
 written license.
  
 The following legend is applicable only to US Government
 contracts under FAR:
  
                    RESTRICTED RIGHTS LEGEND
  
 Use, reproduction and disclosure by the US Government is
 subject to restrictions as set forth in subparagraphs (a)
 and (c) of the Commercial Computer Software - Restricted
 Rights clause in FAR 52.227-19.
  
 Gaussian, Inc.
 340 Quinnipiac St., Bldg. 40, Wallingford CT 06492
  
  
 ---------------------------------------------------------------
 Warning -- This program may not be used in any manner that
 competes with the business of Gaussian, Inc. or will provide
 assistance to any competitor of Gaussian, Inc.  The licensee
 of this program is prohibited from giving any competitor of
 Gaussian, Inc. access to this program.  By using this program,
 the user acknowledges that Gaussian, Inc. is engaged in the
 business of creating and licensing software in the field of
 computational chemistry and represents and warrants to the
 licensee that it is not a competitor of Gaussian, Inc. and that
 it will not use this program in any manner prohibited above.
 ---------------------------------------------------------------
  

 Cite this work as:
 Gaussian 16, Revision A.03,
 M. J. Frisch, G. W. Trucks, H. B. Schlegel, G. E. Scuseria, 
 M. A. Robb, J. R. Cheeseman, G. Scalmani, V. Barone, 
 G. A. Petersson, H. Nakatsuji, X. Li, M. Caricato, A. V. Marenich, 
 J. Bloino, B. G. Janesko, R. Gomperts, B. Mennucci, H. P. Hratchian, 
 J. V. Ortiz, A. F. Izmaylov, J. L. Sonnenberg, D. Williams-Young, 
 F. Ding, F. Lipparini, F. Egidi, J. Goings, B. Peng, A. Petrone, 
 T. Henderson, D. Ranasinghe, V. G. Zakrzewski, J. Gao, N. Rega, 
 G. Zheng, W. Liang, M. Hada, M. Ehara, K. Toyota, R. Fukuda, 
 J. Hasegawa, M. Ishida, T. Nakajima, Y. Honda, O. Kitao, H. Nakai, 
 T. Vreven, K. Throssell, J. A. Montgomery, Jr., J. E. Peralta, 
 F. Ogliaro, M. J. Bearpark, J. J. Heyd, E. N. Brothers, K. N. Kudin, 
 V. N. Staroverov, T. A. Keith, R. Kobayashi, J. Normand, 
 K. Raghavachari, A. P. Rendell, J. C. Burant, S. S. Iyengar, 
 J. Tomasi, M. Cossi, J. M. Millam, M. Klene, C. Adamo, R. Cammi, 
 J. W. Ochterski, R. L. Martin, K. Morokuma, O. Farkas, 
 J. B. Foresman, and D. J. Fox, Gaussian, Inc., Wallingford CT, 2016.
 
 ******************************************
 Gaussian 16:  ES64L-G16RevA.03 25-Dec-2016
                14-Aug-2023 
 ******************************************
 %chk=cluster_323_i.chk
 %mem=1GB
 %nproc=4
 Will use up to    4 processors via shared memory.
 ----------------------------------------------------------------------
 #b3lyp/6-311++G** scrf=(cpcm,Solvent=Water) nosymm force iop(2/11=1) G
 eom=(NoDistance,NoAngle)
 ----------------------------------------------------------------------
 1/10=7,30=1,38=1/1,3;
 2/9=11,11=1,12=2,15=1,17=6,18=5,40=1/2;
 3/5=4,6=6,7=1111,11=2,25=1,30=1,70=2101,71=1,72=1,74=-5/1,2,3;
 4//1;
 5/5=2,38=5,53=1/2;
 6/7=2,8=2,9=2,10=2,28=1/1;
 7/29=1,30=1/1,2,3,16;
 1/10=7,30=1/3;
 99//99;
 -------------
 cluster_323_i
 -------------
 Symbolic Z-matrix:
 Charge =  0 Multiplicity = 1
 O                     16.58     9.981     13.238 
 H                     16.265    9.699     14.099 
 H                     15.953    9.512     12.655 
 O                     16.984    13.846    14.379 
 H                     17.365    14.662    14.003 
 H                     16.885    14.066    15.333 
 O                     14.836    11.166    11.216 
 H                     15.083    10.398    10.629 
 H                     15.591    11.882    11.153 
 O                     12.711    6.559     11.371 
 H                     13.024    7.405     11.732 
 H                     13.274    5.888     11.744 
 O                     15.401    7.281     12.828 
 H                     15.907    7.588     13.661 
 H                     15.036    6.343     12.979 
 O                     10.8      14.43     14.635 
 H                     10.262    13.65     14.408 
 H                     11.656    14.07     14.779 
 O                     13.363    11.107    13.699 
 H                     13.615    10.821    12.803 
 H                     12.805    10.385    13.962 
 O                     12.845    10.764    17.578 
 H                     12.204    10.646    16.813 
 H                     12.219    10.86     18.281 
 C                     10.266    12.334    11.125 
 C                     11.293    11.217    10.789 
 C                     9.379     9.459     11.003 
 H                     10.177    10.333    9.276 
 H                     10.975    14.026    10.485 
 O                     11.609    8.877     9.989 
 O                     9.385     12.549    10.013 
 O                     10.806    13.585    11.319 
 C                     10.609    9.984     10.185 
 O                     12.386    11.646    9.959 
 H                     11.793    10.896    11.72 
 O                     9.663     9.527     12.395 
 O                     9.118     8.026     10.767 
 H                     8.257     8.043     11.129 
 H                     13.212    11.338    10.346 
 H                     10.984    8.118     10.125 
 O                     16.433    13.657    11.232 
 H                     17.384    13.526    11.492 
 H                     15.91     13.705    12.07 
 O                     17.711    7.822     11.167 
 H                     16.801    8.004     11.64 
 H                     18.226    7.354     11.847 
 O                     14.873    12.437    15.758 
 H                     14.849    11.506    15.447 
 H                     14.517    12.879    14.927 
 O                     15.4      8.615     15.517 
 H                     15.111    8.787     16.456 
 H                     14.889    7.808     15.276 
 O                     10.595    9.126     16.713 
 H                     9.609     8.904     16.534 
 H                     10.836    8.498     17.423 
 O                     11.894    8.851     13.858 
 H                     11.072    9.215     13.381 
 H                     11.391    8.48      14.608 
 

 GradGradGradGradGradGradGradGradGradGradGradGradGradGradGradGradGradGrad
 Berny optimization.
 Initialization pass.
 Trust Radius=3.00D-01 FncErr=1.00D-07 GrdErr=1.00D-07 EigMax=2.50D+02 EigMin=1.00D-04
 Number of steps in this run=      2 maximum allowed number of steps=      2.
 GradGradGradGradGradGradGradGradGradGradGradGradGradGradGradGradGradGrad

                          Input orientation:                          
 ---------------------------------------------------------------------
 Center     Atomic      Atomic             Coordinates (Angstroms)
 Number     Number       Type             X           Y           Z
 ---------------------------------------------------------------------
      1          8           0       16.580000    9.981000   13.238000
      2          1           0       16.265000    9.699000   14.099000
      3          1           0       15.953000    9.512000   12.655000
      4          8           0       16.984000   13.846000   14.379000
      5          1           0       17.365000   14.662000   14.003000
      6          1           0       16.885000   14.066000   15.333000
      7          8           0       14.836000   11.166000   11.216000
      8          1           0       15.083000   10.398000   10.629000
      9          1           0       15.591000   11.882000   11.153000
     10          8           0       12.711000    6.559000   11.371000
     11          1           0       13.024000    7.405000   11.732000
     12          1           0       13.274000    5.888000   11.744000
     13          8           0       15.401000    7.281000   12.828000
     14          1           0       15.907000    7.588000   13.661000
     15          1           0       15.036000    6.343000   12.979000
     16          8           0       10.800000   14.430000   14.635000
     17          1           0       10.262000   13.650000   14.408000
     18          1           0       11.656000   14.070000   14.779000
     19          8           0       13.363000   11.107000   13.699000
     20          1           0       13.615000   10.821000   12.803000
     21          1           0       12.805000   10.385000   13.962000
     22          8           0       12.845000   10.764000   17.578000
     23          1           0       12.204000   10.646000   16.813000
     24          1           0       12.219000   10.860000   18.281000
     25          6           0       10.266000   12.334000   11.125000
     26          6           0       11.293000   11.217000   10.789000
     27          6           0        9.379000    9.459000   11.003000
     28          1           0       10.177000   10.333000    9.276000
     29          1           0       10.975000   14.026000   10.485000
     30          8           0       11.609000    8.877000    9.989000
     31          8           0        9.385000   12.549000   10.013000
     32          8           0       10.806000   13.585000   11.319000
     33          6           0       10.609000    9.984000   10.185000
     34          8           0       12.386000   11.646000    9.959000
     35          1           0       11.793000   10.896000   11.720000
     36          8           0        9.663000    9.527000   12.395000
     37          8           0        9.118000    8.026000   10.767000
     38          1           0        8.257000    8.043000   11.129000
     39          1           0       13.212000   11.338000   10.346000
     40          1           0       10.984000    8.118000   10.125000
     41          8           0       16.433000   13.657000   11.232000
     42          1           0       17.384000   13.526000   11.492000
     43          1           0       15.910000   13.705000   12.070000
     44          8           0       17.711000    7.822000   11.167000
     45          1           0       16.801000    8.004000   11.640000
     46          1           0       18.226000    7.354000   11.847000
     47          8           0       14.873000   12.437000   15.758000
     48          1           0       14.849000   11.506000   15.447000
     49          1           0       14.517000   12.879000   14.927000
     50          8           0       15.400000    8.615000   15.517000
     51          1           0       15.111000    8.787000   16.456000
     52          1           0       14.889000    7.808000   15.276000
     53          8           0       10.595000    9.126000   16.713000
     54          1           0        9.609000    8.904000   16.534000
     55          1           0       10.836000    8.498000   17.423000
     56          8           0       11.894000    8.851000   13.858000
     57          1           0       11.072000    9.215000   13.381000
     58          1           0       11.391000    8.480000   14.608000
 ---------------------------------------------------------------------
 Symmetry turned off by external request.
 Stoichiometry    C4H34O20
 Framework group  C1[X(C4H34O20)]
 Deg. of freedom   168
 Full point group                 C1      NOp   1
                          Input orientation:                          
 ---------------------------------------------------------------------
 Center     Atomic      Atomic             Coordinates (Angstroms)
 Number     Number       Type             X           Y           Z
 ---------------------------------------------------------------------
      1          8           0       16.580000    9.981000   13.238000
      2          1           0       16.265000    9.699000   14.099000
      3          1           0       15.953000    9.512000   12.655000
      4          8           0       16.984000   13.846000   14.379000
      5          1           0       17.365000   14.662000   14.003000
      6          1           0       16.885000   14.066000   15.333000
      7          8           0       14.836000   11.166000   11.216000
      8          1           0       15.083000   10.398000   10.629000
      9          1           0       15.591000   11.882000   11.153000
     10          8           0       12.711000    6.559000   11.371000
     11          1           0       13.024000    7.405000   11.732000
     12          1           0       13.274000    5.888000   11.744000
     13          8           0       15.401000    7.281000   12.828000
     14          1           0       15.907000    7.588000   13.661000
     15          1           0       15.036000    6.343000   12.979000
     16          8           0       10.800000   14.430000   14.635000
     17          1           0       10.262000   13.650000   14.408000
     18          1           0       11.656000   14.070000   14.779000
     19          8           0       13.363000   11.107000   13.699000
     20          1           0       13.615000   10.821000   12.803000
     21          1           0       12.805000   10.385000   13.962000
     22          8           0       12.845000   10.764000   17.578000
     23          1           0       12.204000   10.646000   16.813000
     24          1           0       12.219000   10.860000   18.281000
     25          6           0       10.266000   12.334000   11.125000
     26          6           0       11.293000   11.217000   10.789000
     27          6           0        9.379000    9.459000   11.003000
     28          1           0       10.177000   10.333000    9.276000
     29          1           0       10.975000   14.026000   10.485000
     30          8           0       11.609000    8.877000    9.989000
     31          8           0        9.385000   12.549000   10.013000
     32          8           0       10.806000   13.585000   11.319000
     33          6           0       10.609000    9.984000   10.185000
     34          8           0       12.386000   11.646000    9.959000
     35          1           0       11.793000   10.896000   11.720000
     36          8           0        9.663000    9.527000   12.395000
     37          8           0        9.118000    8.026000   10.767000
     38          1           0        8.257000    8.043000   11.129000
     39          1           0       13.212000   11.338000   10.346000
     40          1           0       10.984000    8.118000   10.125000
     41          8           0       16.433000   13.657000   11.232000
     42          1           0       17.384000   13.526000   11.492000
     43          1           0       15.910000   13.705000   12.070000
     44          8           0       17.711000    7.822000   11.167000
     45          1           0       16.801000    8.004000   11.640000
     46          1           0       18.226000    7.354000   11.847000
     47          8           0       14.873000   12.437000   15.758000
     48          1           0       14.849000   11.506000   15.447000
     49          1           0       14.517000   12.879000   14.927000
     50          8           0       15.400000    8.615000   15.517000
     51          1           0       15.111000    8.787000   16.456000
     52          1           0       14.889000    7.808000   15.276000
     53          8           0       10.595000    9.126000   16.713000
     54          1           0        9.609000    8.904000   16.534000
     55          1           0       10.836000    8.498000   17.423000
     56          8           0       11.894000    8.851000   13.858000
     57          1           0       11.072000    9.215000   13.381000
     58          1           0       11.391000    8.480000   14.608000
 ---------------------------------------------------------------------
 Rotational constants (GHZ):           0.1352984           0.1054605           0.0991032
 Standard basis: 6-311++G(d,p) (5D, 7F)
   766 basis functions,  1170 primitive gaussians,   790 cartesian basis functions
   109 alpha electrons      109 beta electrons
       nuclear repulsion energy      2660.3000116723 Hartrees.
 NAtoms=   58 NActive=   58 NUniq=   58 SFac= 1.00D+00 NAtFMM=   60 NAOKFM=F Big=F
 Integral buffers will be    131072 words long.
 Raffenetti 2 integral format.
 Two-electron integral symmetry is turned off.
 ------------------------------------------------------------------------------
 Polarizable Continuum Model (PCM)
 =================================
 Model                : C-PCM.
 Atomic radii         : UFF (Universal Force Field).
 Polarization charges : Total charges.
 Charge compensation  : None.
 Solution method      : On-the-fly selection.
 Cavity type          : Scaled VdW (van der Waals Surface) (Alpha=1.100).
 Cavity algorithm     : GePol (No added spheres)
                        Default sphere list used, NSphG=   58.
                        Lebedev-Laikov grids with approx.  5.0 points / Ang**2.
                        Smoothing algorithm: York/Karplus (Gamma=1.0000).
                        Polarization charges: spherical gaussians, with
                                              point-specific exponents (IZeta= 3).
                        Self-potential: point-specific (ISelfS= 7).
                        Self-field    : sphere-specific E.n sum rule (ISelfD= 2).
 1st derivatives      : Analytical E(r).r(x)/FMM algorithm (CHGder, D1EAlg=3).
                        Cavity 1st derivative terms included.
 Solvent              : Water, Eps=  78.355300 Eps(inf)=   1.777849
 ------------------------------------------------------------------------------
 One-electron integrals computed using PRISM.
 NBasis=   766 RedAO= T EigKep=  5.38D-06  NBF=   766
 NBsUse=   766 1.00D-06 EigRej= -1.00D+00 NBFU=   766
 ExpMin= 3.60D-02 ExpMax= 8.59D+03 ExpMxC= 1.30D+03 IAcc=3 IRadAn=         5 AccDes= 0.00D+00
 Harris functional with IExCor=  402 and IRadAn=       5 diagonalized for initial guess.
 HarFok:  IExCor=  402 AccDes= 0.00D+00 IRadAn=         5 IDoV= 1 UseB2=F ITyADJ=14
 ICtDFT=  3500011 ScaDFX=  1.000000  1.000000  1.000000  1.000000
 FoFCou: FMM=F IPFlag=           0 FMFlag=      100000 FMFlg1=           0
         NFxFlg=           0 DoJE=T BraDBF=F KetDBF=T FulRan=T
         wScrn=  0.000000 ICntrl=       500 IOpCl=  0 I1Cent=   200000004 NGrid=           0
         NMat0=    1 NMatS0=      1 NMatT0=    0 NMatD0=    1 NMtDS0=    0 NMtDT0=    0
 Symmetry not used in FoFCou.
 Requested convergence on RMS density matrix=1.00D-08 within 128 cycles.
 Requested convergence on MAX density matrix=1.00D-06.
 Requested convergence on             energy=1.00D-06.
 No special actions if energy rises.
 Inv3:  Mode=1 IEnd=    73418427.
 Iteration    1 A*A^-1 deviation from unit magnitude is 1.47D-14 for   2447.
 Iteration    1 A*A^-1 deviation from orthogonality  is 4.19D-15 for   2616   1406.
 Iteration    1 A^-1*A deviation from unit magnitude is 1.47D-14 for   2447.
 Iteration    1 A^-1*A deviation from orthogonality  is 5.18D-15 for   4940   1537.
 EnCoef did     5 forward-backward iterations
 EnCoef did     3 forward-backward iterations
 Error on total polarization charges =  0.01942
 SCF Done:  E(RB3LYP) =  -1677.85487144     A.U. after   20 cycles
            NFock= 20  Conv=0.32D-08     -V/T= 2.0044

 **********************************************************************

            Population analysis using the SCF density.

 **********************************************************************

 Alpha  occ. eigenvalues --  -19.20490 -19.18304 -19.18059 -19.17285 -19.16409
 Alpha  occ. eigenvalues --  -19.15885 -19.15859 -19.15695 -19.15408 -19.15279
 Alpha  occ. eigenvalues --  -19.15127 -19.13945 -19.13623 -19.13191 -19.13186
 Alpha  occ. eigenvalues --  -19.12569 -19.12542 -19.12229 -19.11539 -19.10772
 Alpha  occ. eigenvalues --  -10.38561 -10.36362 -10.29216 -10.28835  -1.11437
 Alpha  occ. eigenvalues --   -1.11056  -1.06094  -1.04083  -1.03664  -1.02844
 Alpha  occ. eigenvalues --   -1.02542  -1.02463  -1.02436  -1.02007  -1.01975
 Alpha  occ. eigenvalues --   -1.01646  -1.01554  -1.01058  -1.00967  -1.00340
 Alpha  occ. eigenvalues --   -0.99858  -0.99350  -0.98922  -0.96949  -0.81001
 Alpha  occ. eigenvalues --   -0.72549  -0.66052  -0.61205  -0.57017  -0.56751
 Alpha  occ. eigenvalues --   -0.55895  -0.55491  -0.55345  -0.54459  -0.54199
 Alpha  occ. eigenvalues --   -0.53900  -0.53714  -0.53371  -0.53151  -0.52942
 Alpha  occ. eigenvalues --   -0.52418  -0.51670  -0.51630  -0.51062  -0.50974
 Alpha  occ. eigenvalues --   -0.49610  -0.49577  -0.48221  -0.47206  -0.45589
 Alpha  occ. eigenvalues --   -0.44257  -0.43706  -0.43656  -0.42669  -0.42380
 Alpha  occ. eigenvalues --   -0.42282  -0.41884  -0.41301  -0.40652  -0.40404
 Alpha  occ. eigenvalues --   -0.40048  -0.39970  -0.39564  -0.39456  -0.39291
 Alpha  occ. eigenvalues --   -0.38881  -0.38535  -0.37322  -0.35487  -0.35014
 Alpha  occ. eigenvalues --   -0.34772  -0.34504  -0.34254  -0.34202  -0.33998
 Alpha  occ. eigenvalues --   -0.33735  -0.33240  -0.32977  -0.32716  -0.32502
 Alpha  occ. eigenvalues --   -0.32248  -0.31978  -0.31801  -0.31730  -0.31479
 Alpha  occ. eigenvalues --   -0.30716  -0.30370  -0.29810  -0.29494
 Alpha virt. eigenvalues --   -0.17813  -0.15910  -0.04778  -0.02839  -0.02759
 Alpha virt. eigenvalues --   -0.01601  -0.00613  -0.00401   0.00263   0.00751
 Alpha virt. eigenvalues --    0.01128   0.01570   0.02095   0.02589   0.03242
 Alpha virt. eigenvalues --    0.03314   0.03779   0.04216   0.04322   0.04779
 Alpha virt. eigenvalues --    0.04985   0.05286   0.05875   0.05979   0.06545
 Alpha virt. eigenvalues --    0.06689   0.06866   0.07153   0.07489   0.07757
 Alpha virt. eigenvalues --    0.08005   0.08148   0.08549   0.08879   0.09138
 Alpha virt. eigenvalues --    0.09425   0.09592   0.09781   0.09960   0.10623
 Alpha virt. eigenvalues --    0.10989   0.11217   0.11718   0.11751   0.11893
 Alpha virt. eigenvalues --    0.12139   0.12519   0.12590   0.12617   0.13089
 Alpha virt. eigenvalues --    0.13160   0.13309   0.13597   0.13859   0.13986
 Alpha virt. eigenvalues --    0.14205   0.14434   0.14609   0.14910   0.15011
 Alpha virt. eigenvalues --    0.15321   0.15586   0.16083   0.16496   0.16555
 Alpha virt. eigenvalues --    0.16730   0.16823   0.17305   0.17537   0.17756
 Alpha virt. eigenvalues --    0.18002   0.18064   0.18256   0.18501   0.18769
 Alpha virt. eigenvalues --    0.18959   0.19171   0.19374   0.19560   0.19837
 Alpha virt. eigenvalues --    0.20104   0.20408   0.20593   0.20719   0.21239
 Alpha virt. eigenvalues --    0.21413   0.21808   0.22076   0.22178   0.22660
 Alpha virt. eigenvalues --    0.22770   0.22983   0.23430   0.23568   0.23883
 Alpha virt. eigenvalues --    0.24113   0.24421   0.24613   0.24930   0.25113
 Alpha virt. eigenvalues --    0.25233   0.25569   0.25795   0.25863   0.25968
 Alpha virt. eigenvalues --    0.26395   0.26561   0.26662   0.26840   0.27168
 Alpha virt. eigenvalues --    0.27684   0.27950   0.28050   0.28331   0.28522
 Alpha virt. eigenvalues --    0.28753   0.29120   0.29164   0.29871   0.30095
 Alpha virt. eigenvalues --    0.30145   0.30497   0.30907   0.31042   0.31269
 Alpha virt. eigenvalues --    0.31373   0.31672   0.31743   0.32169   0.32555
 Alpha virt. eigenvalues --    0.32899   0.33072   0.33502   0.33757   0.33962
 Alpha virt. eigenvalues --    0.34212   0.34617   0.34945   0.35082   0.35488
 Alpha virt. eigenvalues --    0.35780   0.36045   0.36520   0.36632   0.36791
 Alpha virt. eigenvalues --    0.37412   0.37690   0.38026   0.38568   0.39104
 Alpha virt. eigenvalues --    0.39255   0.39864   0.40075   0.40601   0.41161
 Alpha virt. eigenvalues --    0.41636   0.41882   0.42335   0.42607   0.42746
 Alpha virt. eigenvalues --    0.43066   0.44322   0.44822   0.44915   0.45485
 Alpha virt. eigenvalues --    0.46112   0.46331   0.47294   0.47578   0.48651
 Alpha virt. eigenvalues --    0.49293   0.49732   0.51276   0.51604   0.52277
 Alpha virt. eigenvalues --    0.52540   0.53534   0.53968   0.54151   0.54812
 Alpha virt. eigenvalues --    0.54993   0.55380   0.56051   0.56402   0.57006
 Alpha virt. eigenvalues --    0.57184   0.57960   0.58330   0.58670   0.58969
 Alpha virt. eigenvalues --    0.59626   0.60215   0.60591   0.60633   0.61394
 Alpha virt. eigenvalues --    0.62031   0.62622   0.62794   0.63865   0.64092
 Alpha virt. eigenvalues --    0.64886   0.65766   0.66484   0.67384   0.67694
 Alpha virt. eigenvalues --    0.67849   0.68466   0.68943   0.70389   0.71055
 Alpha virt. eigenvalues --    0.71895   0.72222   0.72438   0.73021   0.74582
 Alpha virt. eigenvalues --    0.75839   0.78047   0.79607   0.79895   0.81894
 Alpha virt. eigenvalues --    0.83692   0.88890   0.91655   0.94283   0.97651
 Alpha virt. eigenvalues --    0.98603   0.98674   0.99689   0.99876   1.00342
 Alpha virt. eigenvalues --    1.00692   1.01043   1.02008   1.02330   1.02562
 Alpha virt. eigenvalues --    1.02930   1.03575   1.03787   1.04127   1.04389
 Alpha virt. eigenvalues --    1.04473   1.05035   1.05171   1.05409   1.05979
 Alpha virt. eigenvalues --    1.06382   1.06824   1.07039   1.07657   1.07744
 Alpha virt. eigenvalues --    1.08260   1.08738   1.09047   1.09695   1.10081
 Alpha virt. eigenvalues --    1.10312   1.10642   1.10979   1.11386   1.12038
 Alpha virt. eigenvalues --    1.12172   1.12879   1.13399   1.13873   1.14238
 Alpha virt. eigenvalues --    1.14266   1.15810   1.16062   1.16330   1.16923
 Alpha virt. eigenvalues --    1.17159   1.17658   1.17870   1.18140   1.18725
 Alpha virt. eigenvalues --    1.19175   1.20447   1.20880   1.21592   1.22413
 Alpha virt. eigenvalues --    1.23007   1.23689   1.24080   1.24220   1.24492
 Alpha virt. eigenvalues --    1.26231   1.26714   1.26939   1.27065   1.28011
 Alpha virt. eigenvalues --    1.28424   1.29284   1.29353   1.29993   1.30485
 Alpha virt. eigenvalues --    1.31164   1.31633   1.32210   1.32541   1.32889
 Alpha virt. eigenvalues --    1.33944   1.34560   1.35053   1.35320   1.36086
 Alpha virt. eigenvalues --    1.36562   1.36927   1.37437   1.38196   1.38881
 Alpha virt. eigenvalues --    1.39414   1.39975   1.40753   1.41624   1.41676
 Alpha virt. eigenvalues --    1.42175   1.42808   1.43264   1.43877   1.45128
 Alpha virt. eigenvalues --    1.45467   1.46114   1.46303   1.46846   1.47235
 Alpha virt. eigenvalues --    1.47931   1.48026   1.48808   1.49375   1.49918
 Alpha virt. eigenvalues --    1.50460   1.51408   1.52032   1.53013   1.53558
 Alpha virt. eigenvalues --    1.53864   1.54164   1.54767   1.55545   1.56497
 Alpha virt. eigenvalues --    1.56531   1.57370   1.57678   1.58636   1.59020
 Alpha virt. eigenvalues --    1.60055   1.60355   1.60614   1.61481   1.62165
 Alpha virt. eigenvalues --    1.62360   1.62985   1.63700   1.64306   1.64949
 Alpha virt. eigenvalues --    1.65824   1.66087   1.66201   1.67093   1.68055
 Alpha virt. eigenvalues --    1.68781   1.69187   1.69337   1.70043   1.71040
 Alpha virt. eigenvalues --    1.71261   1.72610   1.73786   1.73832   1.74483
 Alpha virt. eigenvalues --    1.75354   1.76214   1.76279   1.76697   1.77698
 Alpha virt. eigenvalues --    1.79318   1.79703   1.80135   1.80840   1.81988
 Alpha virt. eigenvalues --    1.84171   1.86158   1.88849   1.89772   1.91782
 Alpha virt. eigenvalues --    1.93354   1.94083   1.95465   1.97257   1.97666
 Alpha virt. eigenvalues --    1.98065   1.99066   1.99283   1.99930   2.02056
 Alpha virt. eigenvalues --    2.02669   2.03736   2.04518   2.05277   2.05660
 Alpha virt. eigenvalues --    2.07300   2.07554   2.08907   2.09153   2.09634
 Alpha virt. eigenvalues --    2.10971   2.11837   2.12736   2.13196   2.13374
 Alpha virt. eigenvalues --    2.13959   2.15546   2.16207   2.16567   2.17482
 Alpha virt. eigenvalues --    2.18117   2.19113   2.20111   2.20254   2.22524
 Alpha virt. eigenvalues --    2.24020   2.27609   2.28130   2.35082   2.42268
 Alpha virt. eigenvalues --    2.43044   2.44844   2.46660   2.46897   2.48395
 Alpha virt. eigenvalues --    2.49159   2.49638   2.53583   2.54819   2.57243
 Alpha virt. eigenvalues --    2.58057   2.59451   2.59752   2.60070   2.60584
 Alpha virt. eigenvalues --    2.61511   2.62230   2.63233   2.64554   2.65353
 Alpha virt. eigenvalues --    2.66249   2.67089   2.67329   2.69608   2.70311
 Alpha virt. eigenvalues --    2.70734   2.72273   2.73421   2.73854   2.74890
 Alpha virt. eigenvalues --    2.75490   2.75807   2.76439   2.78350   2.79278
 Alpha virt. eigenvalues --    2.80045   2.80484   2.81787   2.83483   2.84667
 Alpha virt. eigenvalues --    2.85441   2.87391   2.87927   2.90171   2.90613
 Alpha virt. eigenvalues --    2.92874   2.94394   2.96625   2.98870   3.02086
 Alpha virt. eigenvalues --    3.02953   3.04130   3.04324   3.05058   3.05625
 Alpha virt. eigenvalues --    3.06015   3.06500   3.06964   3.08077   3.08093
 Alpha virt. eigenvalues --    3.08728   3.09167   3.09409   3.09573   3.09793
 Alpha virt. eigenvalues --    3.09917   3.10179   3.10295   3.10478   3.10620
 Alpha virt. eigenvalues --    3.11043   3.11496   3.11675   3.12316   3.12628
 Alpha virt. eigenvalues --    3.12928   3.13308   3.14210   3.14346   3.14981
 Alpha virt. eigenvalues --    3.15264   3.15440   3.15730   3.16476   3.16700
 Alpha virt. eigenvalues --    3.17806   3.19882   3.21002   3.21206   3.22306
 Alpha virt. eigenvalues --    3.23695   3.25622   3.26161   3.26919   3.27282
 Alpha virt. eigenvalues --    3.27306   3.27714   3.28876   3.29636   3.31228
 Alpha virt. eigenvalues --    3.31277   3.33073   3.33262   3.33928   3.35745
 Alpha virt. eigenvalues --    3.36489   3.41756   3.51770   3.59289   3.65387
 Alpha virt. eigenvalues --    3.66620   3.66840   3.67698   3.67972   3.68611
 Alpha virt. eigenvalues --    3.69363   3.69615   3.70512   3.71950   3.75099
 Alpha virt. eigenvalues --    3.75648   3.76324   3.77350   3.79478   3.81623
 Alpha virt. eigenvalues --    3.84853   3.85794   3.86236   3.87033   3.89584
 Alpha virt. eigenvalues --    3.90633   3.91246   3.92010   3.92328   3.92750
 Alpha virt. eigenvalues --    3.94276   3.95555   3.95929   3.96664   3.97983
 Alpha virt. eigenvalues --    3.98640   4.00774   4.01722   4.04999   4.05501
 Alpha virt. eigenvalues --    4.07356   4.13122   4.21045   4.96543   4.97487
 Alpha virt. eigenvalues --    4.97699   4.98167   4.98981   4.99434   5.01605
 Alpha virt. eigenvalues --    5.02715   5.04369   5.04642   5.05674   5.06948
 Alpha virt. eigenvalues --    5.07922   5.08364   5.09370   5.10264   5.10914
 Alpha virt. eigenvalues --    5.12135   5.13772   5.15163   5.15872   5.20334
 Alpha virt. eigenvalues --    5.26895   5.28565   5.29203   5.33273   5.34312
 Alpha virt. eigenvalues --    5.35508   5.36215   5.36661   5.36951   5.37583
 Alpha virt. eigenvalues --    5.37949   5.38557   5.40248   5.41060   5.41419
 Alpha virt. eigenvalues --    5.42930   5.44361   5.47362   5.51055   5.51416
 Alpha virt. eigenvalues --    5.51710   5.53197   5.53596   5.53961   5.54172
 Alpha virt. eigenvalues --    5.54502   5.56155   5.57647   5.58295   5.58589
 Alpha virt. eigenvalues --    5.60252   5.60456   5.63667   5.66191   5.67226
 Alpha virt. eigenvalues --    5.68002   5.72607   5.77132  23.48342  23.53226
 Alpha virt. eigenvalues --   23.73569  23.76409  49.83943  49.84667  49.84991
 Alpha virt. eigenvalues --   49.85039  49.85590  49.86187  49.87129  49.87437
 Alpha virt. eigenvalues --   49.88098  49.88240  49.88765  49.89038  49.89792
 Alpha virt. eigenvalues --   49.89912  49.90304  49.90980  49.91436  49.93135
 Alpha virt. eigenvalues --   49.94725  49.98378
          Condensed to atoms (all electrons):
 Mulliken charges:
               1
     1  O   -0.515454
     2  H    0.352511
     3  H    0.181662
     4  O   -0.590744
     5  H    0.282695
     6  H    0.300616
     7  O   -0.579817
     8  H    0.298649
     9  H    0.359139
    10  O   -0.548071
    11  H    0.291668
    12  H    0.279810
    13  O   -0.627488
    14  H    0.265989
    15  H    0.327348
    16  O   -0.529664
    17  H    0.296521
    18  H    0.261222
    19  O   -0.533529
    20  H    0.203172
    21  H    0.230519
    22  O   -0.547878
    23  H    0.293061
    24  H    0.277189
    25  C   -0.404822
    26  C    0.556273
    27  C   -0.028845
    28  H    0.280250
    29  H    0.358693
    30  O   -0.156229
    31  O   -0.338530
    32  O   -0.218541
    33  C   -0.069758
    34  O   -0.180822
    35  H   -0.513236
    36  O   -0.279723
    37  O   -0.181446
    38  H    0.329508
    39  H    0.343539
    40  H    0.311883
    41  O   -0.539023
    42  H    0.302994
    43  H    0.303253
    44  O   -0.555370
    45  H    0.283603
    46  H    0.280159
    47  O   -0.497128
    48  H    0.254386
    49  H    0.282104
    50  O   -0.572206
    51  H    0.323798
    52  H    0.273472
    53  O   -0.621243
    54  H    0.312471
    55  H    0.296932
    56  O   -0.508382
    57  H    0.244236
    58  H    0.298623
 Sum of Mulliken charges =  -0.00000
 Mulliken charges with hydrogens summed into heavy atoms:
               1
     1  O    0.018719
     4  O   -0.007433
     7  O    0.077971
    10  O    0.023407
    13  O   -0.034151
    16  O    0.028079
    19  O   -0.099838
    22  O    0.022373
    25  C   -0.404822
    26  C    0.043038
    27  C   -0.028845
    30  O    0.155654
    31  O   -0.338530
    32  O    0.140152
    33  C    0.210493
    34  O    0.162717
    36  O   -0.279723
    37  O    0.148062
    41  O    0.067225
    44  O    0.008393
    47  O    0.039361
    50  O    0.025064
    53  O   -0.011841
    56  O    0.034476
 Electronic spatial extent (au):  <R**2>=         355516.7472
 Charge=             -0.0000 electrons
 Dipole moment (field-independent basis, Debye):
    X=             -5.3078    Y=            -10.7658    Z=              7.7032  Tot=             14.2623
 Quadrupole moment (field-independent basis, Debye-Ang):
   XX=           -278.6968   YY=           -360.8014   ZZ=             40.4961
   XY=           -162.5169   XZ=             26.2664   YZ=            -90.7978
 Traceless Quadrupole moment (field-independent basis, Debye-Ang):
   XX=            -79.0294   YY=           -161.1340   ZZ=            240.1635
   XY=           -162.5169   XZ=             26.2664   YZ=            -90.7978
 Octapole moment (field-independent basis, Debye-Ang**2):
  XXX=          -8256.6651  YYY=          -7943.3379  ZZZ=          -1988.0483  XYY=          -4388.3181
  XXY=          -3938.9299  XXZ=          -2301.4204  XZZ=           -568.6117  YZZ=          -2303.4137
  YYZ=          -4361.9383  XYZ=          -1539.0086
 Hexadecapole moment (field-independent basis, Debye-Ang**3):
 XXXX=        -199506.6279 YYYY=        -148940.3263 ZZZZ=         -81365.3142 XXXY=         -94712.3651
 XXXZ=         -87654.6884 YYYX=         -92016.0473 YYYZ=        -100702.9193 ZZZX=         -43735.3697
 ZZZY=         -64429.2625 XXYY=         -71263.6455 XXZZ=         -43528.6210 YYZZ=         -73470.7818
 XXYZ=         -43162.2262 YYXZ=         -53574.4342 ZZXY=         -35917.2502
 N-N= 2.660300011672D+03 E-N=-9.281587863853D+03  KE= 1.670529396493D+03
 D1PCM: C-PCM CHGder 1st derivatives, ID1Alg=3 FixD1E=F DoIter=F DoCFld=F I1PDM=0.
 Calling FoFJK, ICntrl=      2127 FMM=F ISym2X=0 I1Cent= 0 IOpClX= 0 NMat=1 NMatS=1 NMatT=0.
 -------------------------------------------------------------------
 Center     Atomic                   Forces (Hartrees/Bohr)
 Number     Number              X              Y              Z
 -------------------------------------------------------------------
      1        8          -0.003600074   -0.010137540   -0.011042816
      2        1          -0.001454183    0.000897477    0.013296158
      3        1           0.006263583    0.014748191    0.004241409
      4        8           0.004961800    0.018771108    0.009489171
      5        1          -0.002491541   -0.008539273    0.004392782
      6        1          -0.001524951   -0.008018319   -0.017380871
      7        8           0.030453262    0.004810178   -0.024595080
      8        1           0.000477666    0.025997870    0.016154209
      9        1          -0.033976226   -0.033030953   -0.001752280
     10        8          -0.006075282    0.011954433   -0.004184030
     11        1          -0.002016248   -0.006439006   -0.000862624
     12        1           0.004855801   -0.007169866    0.003596042
     13        8           0.003858417   -0.018168578    0.036668582
     14        1          -0.023386917   -0.024479115   -0.034983339
     15        1           0.023514622    0.041685376   -0.000026613
     16        8          -0.029365058   -0.000382493   -0.004556959
     17        1           0.004249989    0.009418917    0.001710395
     18        1           0.024973006   -0.008540379    0.004220420
     19        8           0.011117637    0.013878484   -0.016918046
     20        1           0.009891841    0.009848806    0.006164966
     21        1          -0.014471523   -0.018834631    0.013030668
     22        8          -0.015521794   -0.005204200   -0.038509243
     23        1           0.023849614    0.000656913    0.021701983
     24        1          -0.009151285    0.001790973    0.019911026
     25        6          -0.036912659    0.097762705   -0.211535638
     26        6           0.032445432   -0.039401952    0.049382632
     27        6           0.127850949   -0.090490024    0.169320394
     28        1           0.003676382   -0.002768550   -0.026445703
     29        1          -0.011046757    0.001450148   -0.007866321
     30        8          -0.063659605    0.019077747    0.016738480
     31        8           0.048475610   -0.055547760    0.114574793
     32        8           0.016190852   -0.028129492    0.063589929
     33        6          -0.005650947    0.008150106   -0.018602373
     34        8          -0.047488661    0.009780602   -0.008293932
     35        1          -0.011794425    0.001918283   -0.002088497
     36        8          -0.061128949    0.028334233   -0.130088025
     37        8           0.004922144    0.076663079   -0.035262793
     38        1          -0.039702112   -0.025521046    0.018092985
     39        1           0.011074415    0.003098739    0.011285818
     40        1           0.028254982    0.002324719   -0.007755969
     41        8           0.008417862   -0.010151824    0.019074737
     42        1          -0.027404752    0.003947918   -0.003054388
     43        1           0.017885647    0.002969976   -0.012884004
     44        8          -0.040142539    0.007556566    0.025050887
     45        1           0.050724004   -0.018751390   -0.025295897
     46        1          -0.005771327    0.004528636   -0.005503245
     47        8          -0.011450832    0.002174853   -0.035941494
     48        1          -0.002167418    0.012907142    0.007589502
     49        1           0.013904616   -0.013367476    0.030464401
     50        8          -0.018423237   -0.013247637    0.023739194
     51        1           0.010246686   -0.002590201   -0.026078569
     52        1           0.005797623    0.016575031    0.006518232
     53        8          -0.045580624   -0.020771268   -0.002691546
     54        1           0.046857166    0.011917040    0.008745711
     55        1          -0.002268816    0.007687598   -0.008498574
     56        8          -0.048401583    0.006383184   -0.007868065
     57        1           0.032432695   -0.009868655    0.005924528
     58        1           0.014406023   -0.000115403    0.005896899
 -------------------------------------------------------------------
 Cartesian Forces:  Max     0.211535638 RMS     0.035553504

 GradGradGradGradGradGradGradGradGradGradGradGradGradGradGradGradGradGrad
 Berny optimization.
 Search for a local minimum.
 Step number   1 out of a maximum of    2
 All quantities printed in internal units (Hartrees-Bohrs-Radians)
 Second derivative matrix not updated -- first step.
 ITU=  0
     Eigenvalues ---   -0.00000  -0.00000  -0.00000  -0.00000  -0.00000
     Eigenvalues ---   -0.00000  -0.00000  -0.00000  -0.00000  -0.00000
     Eigenvalues ---   -0.00000  -0.00000  -0.00000  -0.00000  -0.00000
     Eigenvalues ---   -0.00000  -0.00000  -0.00000  -0.00000  -0.00000
     Eigenvalues ---   -0.00000  -0.00000  -0.00000  -0.00000  -0.00000
     Eigenvalues ---   -0.00000  -0.00000  -0.00000  -0.00000  -0.00000
     Eigenvalues ---   -0.00000  -0.00000  -0.00000  -0.00000  -0.00000
     Eigenvalues ---   -0.00000  -0.00000  -0.00000  -0.00000   0.00000
     Eigenvalues ---    0.00000   0.00000   0.00000   0.00000   0.00000
     Eigenvalues ---    0.00000   0.00000   0.00000   0.00000   0.00000
     Eigenvalues ---    0.00000   0.00000   0.00000   0.00000   0.00000
     Eigenvalues ---    0.00000   0.00000   0.00000   0.00000   0.00000
     Eigenvalues ---    0.00000   0.00000   0.00000   0.00000   0.00000
     Eigenvalues ---    0.00000   0.00000   0.00000   0.00000   0.00000
     Eigenvalues ---    0.00000   0.00000   0.00000   0.00000   0.00000
     Eigenvalues ---    0.00000   0.00000   0.00000   0.00000   0.00000
     Eigenvalues ---    0.00000   0.00000   0.00000   0.00000   0.00072
     Eigenvalues ---    0.00093   0.00117   0.00348   0.00561   0.00801
     Eigenvalues ---    0.00918   0.01280   0.01516   0.01741   0.03081
     Eigenvalues ---    0.04304   0.04365   0.04605   0.05173   0.05541
     Eigenvalues ---    0.05770   0.06176   0.07728   0.07873   0.08633
     Eigenvalues ---    0.10961   0.13255   0.13529   0.13734   0.13822
     Eigenvalues ---    0.14034   0.14208   0.14277   0.14351   0.14413
     Eigenvalues ---    0.14707   0.14811   0.14866   0.15058   0.15576
     Eigenvalues ---    0.15736   0.16925   0.18584   0.20636   0.25341
     Eigenvalues ---    0.33046   0.48245   0.66983   0.73159   0.76687
     Eigenvalues ---    0.78083   0.80970   0.83933   0.85530   0.86931
     Eigenvalues ---    0.89104   0.89884   0.92025   0.92690   0.93095
     Eigenvalues ---    0.93406   0.94558   0.97340   0.98167   0.99237
     Eigenvalues ---    1.01056   1.01761   1.02887   1.03436   1.03728
     Eigenvalues ---    1.04452   1.04848   1.05184   1.06024   1.06689
     Eigenvalues ---    1.07197   1.08229   1.09191   1.10230   1.12572
     Eigenvalues ---    1.17206   1.20078   1.21528   1.22708   1.24058
     Eigenvalues ---    1.25207   1.26119   1.32180
 Eigenvalue     1 is  -3.33D-15 should be greater than     0.000000 Eigenvector:
                          X49       Y41       X42       X41       Z52
   1                    0.34535  -0.26877   0.23107   0.21921  -0.20830
                          X58       Y50       Y49       X43       Z42
   1                    0.19012   0.18965   0.18503   0.18189   0.17459
 Eigenvalue     2 is  -3.11D-15 should be greater than     0.000000 Eigenvector:
                          X24       X51       Y47       Z51       Z3
   1                    0.42437  -0.21737  -0.20575  -0.20441  -0.18932
                          X53       Z46       Y43       X49       X22
   1                   -0.18687   0.18231  -0.18214   0.17255   0.16947
 Eigenvalue     3 is  -2.89D-15 should be greater than     0.000000 Eigenvector:
                          Z21       Z19       Z17       Y44       X20
   1                    0.26281   0.25518  -0.21923  -0.20847  -0.19898
                          Z18       X17       Y18       X23       X19
   1                   -0.16993   0.16348   0.15080  -0.14652   0.14434
 Eigenvalue     4 is  -2.89D-15 should be greater than     0.000000 Eigenvector:
                          X49       Z50       Z51       Y53       X41
   1                    0.26457   0.26305   0.25285   0.24550  -0.22301
                          Z54       X52       Y54       Y55       Z43
   1                   -0.22250   0.21336   0.20260   0.18949   0.15363
 Eigenvalue     5 is  -2.44D-15 should be greater than     0.000000 Eigenvector:
                          X4        X46       Y51       Y22       Z51
   1                    0.21097   0.19812  -0.19672  -0.18183   0.16904
                          Y14       Y55       Z53       Y1        Y45
   1                    0.16844  -0.15832   0.15637   0.15549  -0.15130
 Eigenvalue     6 is  -2.44D-15 should be greater than     0.000000 Eigenvector:
                          X47       Y42       Y23       Y18       Y20
   1                    0.39240   0.26373  -0.24514  -0.22282   0.19731
                          X20       Z8        Y7        Y17       X48
   1                    0.18221   0.18196   0.18080   0.17544  -0.16865
 Eigenvalue     7 is  -2.44D-15 should be greater than     0.000000 Eigenvector:
                          X47       X49       X53       Y18       Y52
   1                    0.34869  -0.22862  -0.22548   0.22201   0.21345
                          X52       X54       Z47       Z17       Z8
   1                   -0.20859  -0.19494  -0.17493   0.16952   0.16816
 Eigenvalue     8 is  -2.00D-15 should be greater than     0.000000 Eigenvector:
                          Y14       Z14       X20       Z13       X15
   1                    0.36444  -0.31547  -0.23787  -0.22456   0.20153
                          Y42       Y54       X58       Z49       Y56
   1                   -0.19471   0.18184  -0.16552   0.15831   0.15500
 Eigenvalue     9 is  -2.00D-15 should be greater than     0.000000 Eigenvector:
                          Y45       Z54       X23       Z49       Y23
   1                    0.24215   0.23196   0.22176   0.21034  -0.20910
                          Y41       Z47       X22       Y56       Y43
   1                   -0.19568   0.18125   0.17683  -0.16658   0.16183
 Eigenvalue    10 is  -1.78D-15 should be greater than     0.000000 Eigenvector:
                          X20       Y9        Y22       Z18       Y18
   1                    0.27242   0.25770  -0.23317   0.21479   0.19216
                          X9        Z16       Y16       Z4        Y8
   1                   -0.18176  -0.18172   0.17744  -0.15949   0.15266
 Eigenvalue    11 is  -1.78D-15 should be greater than     0.000000 Eigenvector:
                          X49       X20       X51       Z11       X52
   1                    0.29042  -0.28525  -0.25673   0.24710  -0.20057
                          X24       Z17       Y52       Y47       X50
   1                    0.17725  -0.14888   0.14728   0.14487  -0.14306
 Eigenvalue    12 is  -1.78D-15 should be greater than     0.000000 Eigenvector:
                          Y41       X23       Y17       X22       Y57
   1                    0.40923   0.31862   0.20888   0.18779  -0.18623
                          Y58       Y16       X41       Z45       Y44
   1                   -0.18116   0.15485   0.14744   0.14113  -0.13391
 Eigenvalue    13 is  -1.78D-15 should be greater than     0.000000 Eigenvector:
                          Y43       X44       Z46       Y53       Z55
   1                    0.36704   0.27115   0.23984   0.21267  -0.20603
                          Z50       X45       Y52       X50       X3
   1                   -0.20387   0.18759  -0.18581  -0.15973  -0.15244
 Eigenvalue    14 is  -1.55D-15 should be greater than     0.000000 Eigenvector:
                          X3        Z9        Y3        Y24       X13
   1                    0.35043  -0.31778  -0.31540  -0.19119   0.17935
                          X14       X23       X5        X15       Y6
   1                    0.17346   0.15138   0.14834  -0.14653   0.14648
 Eigenvalue    15 is  -1.55D-15 should be greater than     0.000000 Eigenvector:
                          Y43       X47       Y22       Y6        X57
   1                    0.45794  -0.25167   0.19106   0.16582   0.15710
                          X1        Z7        X7        Y5        Y1
   1                    0.15649  -0.15209  -0.14822   0.14777  -0.14544
 Eigenvalue    16 is  -1.33D-15 should be greater than     0.000000 Eigenvector:
                          Z16       X21       X4        X15       Y22
   1                    0.41378   0.24594   0.22669  -0.20328   0.20046
                          Y14       Z53       Z52       Z23       X12
   1                   -0.16651  -0.16414  -0.15304  -0.14990  -0.14780
 Eigenvalue    17 is  -1.33D-15 should be greater than     0.000000 Eigenvector:
                          Z16       X4        Z8        X58       X19
   1                    0.49538  -0.21030  -0.19206   0.18647   0.17952
                          Y17       Y20       X49       X2        Y57
   1                    0.17792   0.15552   0.15325  -0.14361  -0.13825
 Eigenvalue    18 is  -1.33D-15 should be greater than     0.000000 Eigenvector:
                          Y44       X52       Y54       X49       Y22
   1                    0.35347   0.25001   0.23525  -0.21170  -0.17982
                          Y21       Z54       X23       X47       Z42
   1                   -0.17016   0.16391   0.14541  -0.14451  -0.14280
 Eigenvalue    19 is  -1.11D-15 should be greater than     0.000000 Eigenvector:
                          X8        Z10       X6        X10       X13
   1                    0.29550  -0.29267  -0.27612   0.25465  -0.19690
                          Z18       Y4        Y20       Y18       Y2
   1                   -0.18839  -0.18719  -0.16906   0.15962  -0.15082
 Eigenvalue    20 is  -1.11D-15 should be greater than     0.000000 Eigenvector:
                          X23       Y20       X20       X12       Y21
   1                    0.25119   0.23068  -0.22890  -0.19430   0.19197
                          Y18       X51       Z49       Z48       Y6
   1                   -0.18827  -0.18446  -0.17870  -0.17475  -0.17330
 Eigenvalue    21 is  -1.11D-15 should be greater than     0.000000 Eigenvector:
                          X52       X51       Y43       Z22       X2
   1                    0.31985  -0.26753   0.23047   0.20494   0.19933
                          X13       X12       X47       X24       Z8
   1                   -0.18415   0.18172   0.16427  -0.15839  -0.14263
 Eigenvalue    22 is  -8.88D-16 should be greater than     0.000000 Eigenvector:
                          Z17       Y13       Z16       Y15       Z13
   1                    0.30296  -0.25904  -0.20873  -0.20766  -0.19230
                          Y2        Z11       X11       Z14       Z21
   1                    0.18821  -0.17575   0.16683  -0.16632   0.15602
 Eigenvalue    23 is  -8.88D-16 should be greater than     0.000000 Eigenvector:
                          X49       X12       Y56       X48       Z48
   1                    0.30432  -0.24185   0.23062   0.18514   0.16441
                          X57       Y43       Y41       Z3        Z49
   1                   -0.16283   0.15879   0.15505  -0.15038  -0.14932
 Eigenvalue    24 is  -6.66D-16 should be greater than     0.000000 Eigenvector:
                          X5        Y3        X13       Y5        Y21
   1                    0.50910   0.26675  -0.26090  -0.17820  -0.14607
                          Y54       X14       Y8        Y49       Z15
   1                    0.14370  -0.13681   0.13558   0.13234   0.13054
 Eigenvalue    25 is  -6.66D-16 should be greater than     0.000000 Eigenvector:
                          Z8        Y55       X49       Z42       X24
   1                    0.22735   0.20190   0.20014  -0.18834  -0.17874
                          Z10       Z7        Z1        X15       Z11
   1                   -0.17427  -0.17357   0.17269   0.16957  -0.16657
 Eigenvalue    26 is  -6.66D-16 should be greater than     0.000000 Eigenvector:
                          Y22       Y43       Z9        Y2        Z46
   1                    0.21022  -0.20903  -0.19801  -0.19316   0.18905
                          Y53       X52       X10       Y3        X12
   1                   -0.17216   0.16632  -0.16063  -0.16015  -0.15780
 Eigenvalue    27 is  -6.66D-16 should be greater than     0.000000 Eigenvector:
                          Y3        Z14       Z15       Y42       X3
   1                    0.29859   0.25146  -0.23327   0.22046  -0.20846
                          Z11       Y44       Z42       Z12       Z17
   1                   -0.20054  -0.17864  -0.17406   0.16467   0.15286
 Eigenvalue    28 is  -6.66D-16 should be greater than     0.000000 Eigenvector:
                          X55       Z54       Y54       Y43       Y41
   1                    0.23766   0.23674   0.23097  -0.19988   0.19310
                          X2        X18       Y21       X17       Z3
   1                    0.16479  -0.16142   0.15557  -0.15509   0.15382
 Eigenvalue    29 is  -4.44D-16 should be greater than     0.000000 Eigenvector:
                          Z15       X24       X14       Y22       X19
   1                    0.22956   0.22149   0.21337  -0.19901   0.18744
                          Z3        Z2        Z17       Y18       X6
   1                    0.18460   0.17604   0.17102   0.16938  -0.16905
 Eigenvalue    30 is  -4.44D-16 should be greater than     0.000000 Eigenvector:
                          Y24       X5        X13       Y3        X14
   1                    0.32720  -0.30177   0.27632   0.26009   0.22912
                          Y2        Z17       X6        X19       Z3
   1                   -0.21370   0.20429   0.18493  -0.17737  -0.15910
 Eigenvalue    31 is  -4.44D-16 should be greater than     0.000000 Eigenvector:
                          Y2        X15       Y22       Y6        X9
   1                    0.21250   0.21006   0.18889  -0.18840   0.18009
                          X1        X7        X3        Y12       Y10
   1                    0.17938   0.17108   0.16844  -0.16672  -0.16518
 Eigenvalue    32 is  -4.44D-16 should be greater than     0.000000 Eigenvector:
                          X9        Y1        Z46       X7        X15
   1                    0.27988  -0.26052   0.25417   0.23379  -0.19543
                          Z53       X20       X8        X1        X46
   1                    0.19005  -0.18949   0.18511   0.18085  -0.18076
 Eigenvalue    33 is  -4.44D-16 should be greater than     0.000000 Eigenvector:
                          X15       Z9        X9        X3        X8
   1                    0.33101  -0.29188  -0.22811  -0.22650   0.21965
                          X2        Y14       X12       Z1        Y6
   1                    0.21049   0.20222  -0.16645  -0.15806   0.14325
 Eigenvalue    34 is  -4.44D-16 should be greater than     0.000000 Eigenvector:
                          X5        Z46       X53       X14       Z5
   1                    0.27936  -0.21314  -0.19104   0.17685   0.17427
                          Y58       X54       Z14       X17       Y18
   1                    0.16842  -0.16746  -0.16224  -0.16085  -0.15617
 Eigenvalue    35 is  -2.22D-16 should be greater than     0.000000 Eigenvector:
                          X58       Z56       Y57       Z58       Y56
   1                    0.52364  -0.50058   0.34587  -0.33812   0.23807
                          X57       Z55       Z57       X47       X13
   1                   -0.22038   0.09500   0.08854  -0.08001   0.07705
 Eigenvalue    36 is  -2.22D-16 should be greater than     0.000000 Eigenvector:
                          Z12       Z9        Z18       Y2        X12
   1                    0.27200   0.26520  -0.25056   0.24340  -0.22165
                          X15       Z8        Y44       X13       X47
   1                   -0.20261  -0.18107   0.17602   0.17311   0.16486
 Eigenvalue    37 is  -2.22D-16 should be greater than     0.000000 Eigenvector:
                          Y7        X8        Y18       X3        X21
   1                    0.26612  -0.25593   0.24162  -0.20915  -0.20236
                          X43       Y17       Y2        Z1        Z53
   1                    0.20092  -0.15815   0.15673  -0.15162   0.14657
 Eigenvalue    38 is  -2.22D-16 should be greater than     0.000000 Eigenvector:
                          Y22       Z23       X13       Z24       X52
   1                    0.23261  -0.21004   0.20791  -0.20535   0.20020
                          Z22       X5        Z8        X57       Y41
   1                   -0.19540   0.18110   0.17781  -0.17625  -0.16473
 Eigenvalue    39 is  -2.22D-16 should be greater than     0.000000 Eigenvector:
                          Z7        Z49       Z42       Z5        Y51
   1                    0.23512   0.22916  -0.19787  -0.17734   0.17472
                          Z19       Y21       Z10       Z4        X4
   1                    0.17275  -0.17141  -0.17066  -0.16527  -0.16191
 Eigenvalue    40 is   0.00D+00 Eigenvector:
                          X6        X2        Z9        X1        Z15
   1                    0.26343   0.23292   0.22888   0.20719   0.20182
                          Z4        Y55       X15       X7        X14
   1                   -0.18449  -0.18160   0.17854  -0.17501   0.17006
 Eigenvalue    41 is   0.00D+00 Eigenvector:
                          Y2        Y20       X52       X2        Z8
   1                    0.49698  -0.21055   0.19141  -0.17832   0.16884
                          X9        Z46       Y57       Y8        Y18
   1                   -0.16600   0.15993  -0.15633  -0.15238  -0.14755
 Eigenvalue    42 is   0.00D+00 Eigenvector:
                          X8        Z12       Z7        Y1        X1
   1                    0.36755  -0.29899  -0.29319   0.27579  -0.25572
                          Y6        X6        Z15       X10       Y55
   1                   -0.23445   0.23368  -0.16083  -0.15405  -0.15249
 Eigenvalue    43 is   0.00D+00 Eigenvector:
                          Y6        Z12       X6        Y5        X19
   1                    0.29925  -0.28368  -0.25401  -0.25355  -0.24724
                          Z9        Z22       Z5        Z17       Z11
   1                    0.19600   0.16291  -0.16254  -0.15849   0.15830
 Eigenvalue    44 is   0.00D+00 Eigenvector:
                          Z9        Z14       Z12       Y2        Y6
   1                    0.30023  -0.22283   0.21120  -0.19821   0.19731
                          X12       X8        Y24       Z15       Y42
   1                   -0.19643   0.19598   0.17837  -0.17109   0.15257
 Eigenvalue    45 is   0.00D+00 Eigenvector:
                          X19       Z45       Y42       Y18       Y1
   1                    0.25026   0.23783   0.23438   0.20517   0.20455
                          Y56       Y19       Z44       Y15       Z17
   1                   -0.19049  -0.18878   0.18200   0.16455  -0.16221
 Eigenvalue    46 is   0.00D+00 Eigenvector:
                          Y58       Y41       X3        Z5        Y5
   1                    0.26894  -0.22134  -0.22034   0.19402   0.17392
                          Y54       Y57       Z42       X43       Z48
   1                    0.15520  -0.14589   0.14458  -0.14398   0.14377
 Eigenvalue    47 is   2.22D-16 Eigenvector:
                          Y20       Z19       Y3        X3        X4
   1                    0.32424   0.29682  -0.27464   0.21505   0.20934
                          Z42       Z8        Z20       Z21       Z5
   1                   -0.20539  -0.19755   0.18095   0.16111   0.15108
 Eigenvalue    48 is   2.22D-16 Eigenvector:
                          Z15       X15       X14       Y24       X5
   1                    0.36939  -0.30416  -0.23924  -0.20612  -0.20140
                          Y23       Z10       Y14       X2        Y43
   1                   -0.19339  -0.18599   0.17720   0.16739  -0.16622
 Eigenvalue    49 is   4.44D-16 Eigenvector:
                          X11       Z8        Z4        Y6        Z6
   1                    0.29441  -0.28669   0.24540   0.22076   0.20918
                          X19       Y42       Z20       Z11       Y54
   1                    0.18634  -0.18425  -0.17753  -0.16815   0.16535
 Eigenvalue    50 is   4.44D-16 Eigenvector:
                          Z18       X14       X7        Y56       Z12
   1                    0.26186   0.23566  -0.18740   0.18476   0.17376
                          Y50       Z15       Y8        Y2        X6
   1                   -0.17009  -0.16849  -0.16484  -0.16121   0.16101
 Eigenvalue    51 is   4.44D-16 Eigenvector:
                          X11       Z18       X12       X19       Y57
   1                    0.34428   0.25734  -0.24768  -0.20670  -0.20463
                          Z20       Z48       Z9        X51       Z12
   1                    0.20407  -0.18065  -0.17840  -0.16027   0.14660
 Eigenvalue    52 is   4.44D-16 Eigenvector:
                          Y45       Y46       Z18       Z52       X21
   1                    0.31092  -0.25391   0.23925   0.22511   0.21673
                          X46       Z50       Z54       Y58       X43
   1                   -0.17379   0.17324  -0.16778   0.16033   0.14618
 Eigenvalue    53 is   6.66D-16 Eigenvector:
                          Z12       Z49       Z11       Y20       X20
   1                    0.26815   0.26114   0.21888   0.20713  -0.20356
                          Y22       Y51       Y15       Z52       X49
   1                   -0.18391   0.16533  -0.16197   0.15225  -0.14845
 Eigenvalue    54 is   6.66D-16 Eigenvector:
                          X11       X14       Z10       X5        X1
   1                    0.27936  -0.27519   0.27143   0.20638   0.18843
                          Y1        X13       Y2        X9        Z14
   1                   -0.17941   0.17585  -0.15351  -0.15130   0.14831
 Eigenvalue    55 is   6.66D-16 Eigenvector:
                          X6        Z18       X4        Z9        Y42
   1                    0.33985  -0.23560   0.23133  -0.22613   0.20549
                          Y22       Y17       X8        Y21       Z1
   1                    0.20088   0.17447  -0.16932   0.16461   0.16103
 Eigenvalue    56 is   6.66D-16 Eigenvector:
                          Y24       Y42       Z18       X21       X14
   1                    0.26647   0.24111  -0.22056   0.19722  -0.19372
                          Y46       Z12       Z49       X13       Y13
   1                    0.19288   0.19251  -0.19097   0.18835  -0.17776
 Eigenvalue    57 is   8.88D-16 Eigenvector:
                          X6        Z9        Y50       Z1        Y52
   1                    0.33381   0.21702   0.18216  -0.18189   0.17593
                          X8        Y3        Z17       Y44       Z7
   1                    0.17039  -0.16799   0.16415  -0.16232  -0.16226
 Eigenvalue    58 is   8.88D-16 Eigenvector:
                          Y42       X12       Z12       Z10       Z18
   1                    0.26806  -0.25835  -0.24544  -0.22282   0.20674
                          Y20       Y23       Y5        Y3        Z45
   1                   -0.20508  -0.20220   0.18395  -0.17600  -0.16741
 Eigenvalue    59 is   8.88D-16 Eigenvector:
                          Z45       Z54       Y56       Z46       X47
   1                    0.25309   0.23285  -0.19980  -0.19794   0.18953
                          X8        Y58       X21       X55       Z20
   1                    0.17996  -0.17114  -0.16267   0.15735   0.15055
 Eigenvalue    60 is   8.88D-16 Eigenvector:
                          Z43       Y17       Z17       Y53       Y1
   1                    0.22920   0.19872  -0.18900   0.18220   0.18027
                          Y19       Y20       X2        X15       Z41
   1                   -0.17351  -0.16726   0.16719   0.16704   0.14948
 Eigenvalue    61 is   8.88D-16 Eigenvector:
                          Y45       X52       Z42       Z48       X4
   1                    0.32676   0.25509   0.23712   0.22732   0.21137
                          Y52       Z49       Y55       Z5        X44
   1                   -0.20701  -0.20238   0.19791  -0.17203  -0.14642
 Eigenvalue    62 is   1.11D-15 Eigenvector:
                          X57       X4        Z11       X1        Y20
   1                    0.25272  -0.23869  -0.20717  -0.18057  -0.17989
                          Y22       Z42       Z22       Z12       X11
   1                    0.17047  -0.16973  -0.16909   0.16572   0.15989
 Eigenvalue    63 is   1.11D-15 Eigenvector:
                          Z12       Z45       Y23       Y3        Z9
   1                    0.29768  -0.25003  -0.20182   0.19900  -0.19226
                          X4        X6        X2        Y52       Y50
   1                    0.18495   0.17211  -0.17116   0.15862   0.15565
 Eigenvalue    64 is   1.11D-15 Eigenvector:
                          X10       X4        X11       Y56       Z8
   1                    0.25182   0.24606   0.23835  -0.22975   0.19213
                          Z7        Z9        X1        Y1        Y58
   1                    0.18003   0.17986  -0.17516   0.17078  -0.15498
 Eigenvalue    65 is   1.11D-15 Eigenvector:
                          Y23       X23       Y24       X51       Y45
   1                    0.47239   0.31719  -0.25252  -0.18923   0.17639
                          Y22       X52       Y57       X58       Y44
   1                    0.17496  -0.16707  -0.16358   0.15255  -0.15249
 Eigenvalue    66 is   1.11D-15 Eigenvector:
                          Y58       Y57       Y54       X23       Y46
   1                    0.46215   0.36029  -0.24272   0.23884   0.20701
                          Y23       X58       Z56       Z54       Z22
   1                    0.20018  -0.19370  -0.17938  -0.15485   0.13581
 Eigenvalue    67 is   1.33D-15 Eigenvector:
                          Z17       X2        Y14       X8        Y20
   1                    0.29797  -0.20693   0.20277   0.20213  -0.19911
                          Y24       Z7        Z15       Y3        Z5
   1                    0.18842  -0.18574   0.18454  -0.18177  -0.17698
 Eigenvalue    68 is   1.33D-15 Eigenvector:
                          Z18       X9        X21       Z45       X49
   1                    0.25361  -0.24020  -0.22362   0.21611  -0.20788
                          Z7        Y51       Y18       Y16       Y17
   1                   -0.19843  -0.17716  -0.17205  -0.16911  -0.16881
 Eigenvalue    69 is   1.33D-15 Eigenvector:
                          Z11       Y24       X12       Y10       X19
   1                    0.48564  -0.25654  -0.22471   0.20375   0.18787
                          Y43       Z8        X21       Z52       X48
   1                    0.15517  -0.14186   0.14133  -0.12546  -0.12289
 Eigenvalue    70 is   1.33D-15 Eigenvector:
                          X51       Z21       Y55       Y19       Y21
   1                    0.26787  -0.24147  -0.23762  -0.22584  -0.22544
                          X55       Y43       Z43       Y5        X21
   1                   -0.21498  -0.19814  -0.19002  -0.18864  -0.16423
 Eigenvalue    71 is   1.55D-15 Eigenvector:
                          X2        X14       Z15       X16       Z17
   1                    0.32109  -0.27445  -0.24078   0.23083   0.21414
                          Y17       Z11       Y49       X4        Z9
   1                    0.20330   0.20251  -0.18709  -0.14305  -0.14147
 Eigenvalue    72 is   1.55D-15 Eigenvector:
                          Y51       X21       X50       X48       Z46
   1                    0.29601  -0.23560   0.22406  -0.22271   0.20508
                          X17       Y17       Y24       Z47       Z8
   1                   -0.18149   0.17452   0.16791  -0.15418  -0.15397
 Eigenvalue    73 is   1.55D-15 Eigenvector:
                          X48       Y45       Y53       Z43       Y46
   1                    0.27380   0.26907   0.22930  -0.22709   0.21953
                          Y41       Y54       Z5        Z47       Z41
   1                   -0.19655  -0.17483   0.17192   0.17146  -0.16249
 Eigenvalue    74 is   1.78D-15 Eigenvector:
                          Z21       Z42       Y46       X48       Y20
   1                    0.27396  -0.25085   0.24976  -0.20837  -0.19775
                          X13       Z53       Z54       Z52       Z10
   1                   -0.19379  -0.18955  -0.18260   0.18040   0.16694
 Eigenvalue    75 is   1.78D-15 Eigenvector:
                          Y23       X51       Y22       Z45       Y55
   1                    0.33442   0.28030  -0.22793  -0.20010  -0.18190
                          Y41       Y46       Z48       X53       X46
   1                   -0.18064  -0.17479  -0.16926  -0.16452  -0.15801
 Eigenvalue    76 is   2.00D-15 Eigenvector:
                          Z18       Z17       Y18       Y44       Y24
   1                    0.22132   0.21434   0.20677   0.20570  -0.20489
                          X21       X43       Y5        Z43       Z45
   1                   -0.19276  -0.16309  -0.15892  -0.15565  -0.15428
 Eigenvalue    77 is   2.44D-15 Eigenvector:
                          X48       Z48       Y55       Z55       Y46
   1                    0.45065  -0.42254   0.25198   0.21530   0.21106
                          Z42       X50       X43       Y50       Y42
   1                    0.19468  -0.17856  -0.15921   0.15346   0.15287
 Eigenvalue    78 is   2.89D-15 Eigenvector:
                          Y45       X48       Y51       Z53       Z55
   1                    0.41281  -0.27548  -0.25478   0.24439   0.20305
                          X45       Y49       Y54       Y23       X55
   1                    0.18556   0.18023   0.17689  -0.17659  -0.16941
 Eigenvalue    79 is   3.11D-15 Eigenvector:
                          Y19       Y56       Y21       Z54       X20
   1                    0.35351  -0.30959   0.27330  -0.24254   0.22354
                          Y58       Y50       Z56       Y20       Y44
   1                   -0.20016   0.18998  -0.16949   0.16169  -0.14932
 Eigenvalue    80 is   3.11D-15 Eigenvector:
                          Z55       Z57       X55       Y55       Z58
   1                    0.39553   0.33657  -0.29314   0.26677   0.24331
                          Y56       Z48       X58       X44       Z22
   1                   -0.17460   0.17022   0.16460   0.15569  -0.13606
 Eigenvalue    81 is   4.22D-15 Eigenvector:
                          Y52       Y46       X57       X17       X18
   1                    0.27737   0.24915  -0.23705   0.23534   0.18510
                          X16       X50       X56       Y49       Y57
   1                    0.18337   0.18062  -0.17176  -0.16972  -0.16690
 Eigenvalue    82 is   5.68D-08 Eigenvector:
                          X29       Y39       X38       X37       X32
   1                    0.29890  -0.26199  -0.24969  -0.24414   0.24311
                          X40       Z29       Y35       Z38       Z32
   1                   -0.22338   0.22008  -0.21834  -0.19677   0.18995
 Eigenvalue    83 is   9.96D-08 Eigenvector:
                          Z29       Z38       Z37       Z32       Z40
   1                    0.31237  -0.29825  -0.27212   0.26835  -0.20424
                          Y36       X32       X29       Y38       Y39
   1                   -0.20350  -0.18033  -0.17696  -0.16745   0.16421
 Eigenvalue    84 is   3.01D-07 Eigenvector:
                          Z39       X36       Z30       Z31       Z34
   1                    0.42495  -0.30606   0.30341  -0.29485   0.26674
                          Z40       X28       Z38       Z35       X35
   1                    0.24384   0.21812  -0.21236   0.21210  -0.19675
 Quadratic step=2.735D+02 exceeds max=3.000D-01 adjusted using Lamda=-9.019D-01.
 Angle between NR and scaled steps=  83.92 degrees.
 Angle between quadratic step and forces=  14.05 degrees.
 Linear search not attempted -- first point.
 B after Tr=    -0.000181    0.005886   -0.006340
         Rot=    1.000000   -0.000008    0.000114    0.000106 Ang=  -0.02 deg.
 Variable       Old X    -DE/DX   Delta X   Delta X   Delta X     New X
                                 (Linear)    (Quad)   (Total)
    X1       31.33166  -0.00360   0.00000   0.00287   0.00100  31.33265
    Y1       18.86136  -0.01014   0.00000  -0.00669  -0.00786  18.85350
    Z1       25.01619  -0.01104   0.00000  -0.00483  -0.00373  25.01246
    X2       30.73640  -0.00145   0.00000   0.00125  -0.00111  30.73528
    Y2       18.32845   0.00090   0.00000   0.00301   0.00195  18.33041
    Z2       26.64325   0.01330   0.00000   0.00846   0.00942  26.65267
    X3       30.14680   0.00626   0.00000   0.00301   0.00120  30.14800
    Y3       17.97507   0.01475   0.00000   0.01313   0.01223  17.98731
    Z3       23.91448   0.00424   0.00000   0.00034   0.00116  23.91564
    X4       32.09511   0.00496   0.00000   0.00439   0.00357  32.09868
    Y4       26.16515   0.01877   0.00000   0.01303   0.01167  26.17682
    Z4       27.17237   0.00949   0.00000   0.00150   0.00289  27.17526
    X5       32.81509  -0.00249   0.00000   0.00056   0.00022  32.81532
    Y5       27.70716  -0.00854   0.00000  -0.00141  -0.00291  27.70425
    Z5       26.46183   0.00439   0.00000   0.00187   0.00344  26.46528
    X6       31.90803  -0.00152   0.00000  -0.00145  -0.00259  31.90544
    Y6       26.58089  -0.00802   0.00000  -0.00500  -0.00634  26.57454
    Z6       28.97517  -0.01738   0.00000  -0.01155  -0.01020  28.96497
    X7       28.03598   0.03045   0.00000   0.01480   0.01427  28.05025
    Y7       21.10068   0.00481   0.00000   0.00371   0.00330  21.10398
    Z7       21.19517  -0.02460   0.00000  -0.01711  -0.01673  21.17844
    X8       28.50274   0.00048   0.00000   0.00543   0.00485  28.50759
    Y8       19.64937   0.02600   0.00000   0.01798   0.01749  19.66687
    Z8       20.08590   0.01615   0.00000   0.00844   0.00891  20.09481
    X9       29.46272  -0.03398   0.00000  -0.02211  -0.02233  29.44039
    Y9       22.45373  -0.03303   0.00000  -0.02248  -0.02318  22.43055
    Z9       21.07612  -0.00175   0.00000  -0.00425  -0.00353  21.07259
   X10       24.02031  -0.00608   0.00000   0.00010  -0.00234  24.01796
   Y10       12.39471   0.01195   0.00000   0.00502   0.00546  12.40018
   Z10       21.48808  -0.00418   0.00000  -0.00252  -0.00319  21.48488
   X11       24.61179  -0.00202   0.00000   0.00024  -0.00203  24.60977
   Y11       13.99342  -0.00644   0.00000  -0.00384  -0.00353  13.98989
   Z11       22.17027  -0.00086   0.00000   0.00061   0.00009  22.17036
   X12       25.08422   0.00486   0.00000   0.00336   0.00048  25.08471
   Y12       11.12671  -0.00717   0.00000  -0.00378  -0.00357  11.12314
   Z12       22.19294   0.00360   0.00000   0.00166   0.00121  22.19415
   X13       29.10367   0.00386   0.00000   0.00517   0.00238  29.10606
   Y13       13.75910  -0.01817   0.00000  -0.00675  -0.00743  13.75167
   Z13       24.24141   0.03667   0.00000   0.01804   0.01855  24.25995
   X14       30.05987  -0.02339   0.00000  -0.01328  -0.01630  30.04357
   Y14       14.33924  -0.02448   0.00000  -0.02033  -0.02123  14.31801
   Z14       25.81555  -0.03498   0.00000  -0.02113  -0.02040  25.79515
   X15       28.41392   0.02351   0.00000   0.02106   0.01784  28.43176
   Y15       11.98653   0.04169   0.00000   0.02824   0.02770  12.01423
   Z15       24.52676  -0.00003   0.00000   0.00307   0.00339  24.53015
   X16       20.40904  -0.02937   0.00000  -0.01248  -0.01317  20.39587
   Y16       27.26875  -0.00038   0.00000  -0.00244  -0.00132  27.26743
   Z16       27.65614  -0.00456   0.00000   0.00119  -0.00007  27.65607
   X17       19.39237   0.00425   0.00000   0.00130   0.00039  19.39276
   Y17       25.79476   0.00942   0.00000   0.00380   0.00514  25.79990
   Z17       27.22717   0.00171   0.00000   0.00107  -0.00044  27.22673
   X18       22.02665   0.02497   0.00000   0.01347   0.01256  22.03921
   Y18       26.58845  -0.00854   0.00000  -0.00372  -0.00296  26.58549
   Z18       27.92826   0.00422   0.00000   0.00269   0.00179  27.93005
   X19       25.25241   0.01112   0.00000   0.00519   0.00356  25.25597
   Y19       20.98919   0.01388   0.00000   0.00634   0.00645  20.99564
   Z19       25.88736  -0.01692   0.00000  -0.00881  -0.00906  25.87830
   X20       25.72862   0.00989   0.00000   0.01268   0.01133  25.73995
   Y20       20.44873   0.00985   0.00000   0.00873   0.00876  20.45749
   Z20       24.19416   0.00616   0.00000   0.00219   0.00204  24.19621
   X21       24.19794  -0.01447   0.00000  -0.00571  -0.00774  24.19020
   Y21       19.62481  -0.01883   0.00000  -0.00982  -0.00949  19.61532
   Z21       26.38436   0.01303   0.00000   0.00971   0.00920  26.39355
   X22       24.27353  -0.01552   0.00000  -0.00589  -0.00932  24.26422
   Y22       20.34101  -0.00520   0.00000  -0.00253  -0.00232  20.33869
   Z22       33.21761  -0.03851   0.00000  -0.01832  -0.01881  33.19879
   X23       23.06222   0.02385   0.00000   0.01552   0.01237  23.07459
   Y23       20.11802   0.00066   0.00000  -0.00163  -0.00114  20.11688
   Z23       31.77197   0.02170   0.00000   0.01096   0.01020  31.78216
   X24       23.09056  -0.00915   0.00000  -0.00048  -0.00418  23.08639
   Y24       20.52243   0.00179   0.00000   0.00034   0.00078  20.52320
   Z24       34.54608   0.01991   0.00000   0.01228   0.01153  34.55761
   X25       19.39993  -0.03691   0.00000   0.00621   0.00623  19.40616
   Y25       23.30788   0.09776   0.00000   0.05802   0.05945  23.36733
   Z25       21.02320  -0.21154   0.00000  -0.14209  -0.14364  20.87956
   X26       21.34068   0.03245   0.00000   0.01587   0.01553  21.35621
   Y26       21.19706  -0.03940   0.00000  -0.02468  -0.02365  21.17341
   Z26       20.38826   0.04938   0.00000   0.02881   0.02768  20.41593
   X27       17.72374   0.12785   0.00000   0.10854   0.10738  17.83112
   Y27       17.87492  -0.09049   0.00000  -0.06719  -0.06542  17.80950
   Z27       20.79266   0.16932   0.00000   0.09899   0.09699  20.88965
   X28       19.23174   0.00368   0.00000   0.00123   0.00120  19.23295
   Y28       19.52654  -0.00277   0.00000  -0.00427  -0.00274  19.52380
   Z28       17.52910  -0.02645   0.00000  -0.02311  -0.02476  17.50434
   X29       20.73974  -0.01105   0.00000  -0.01156  -0.01063  20.72912
   Y29       26.50530   0.00145   0.00000  -0.00065   0.00052  26.50582
   Z29       19.81378  -0.00787   0.00000   0.01027   0.00907  19.82285
   X30       21.93783  -0.06366   0.00000  -0.04413  -0.04505  21.89278
   Y30       16.77510   0.01908   0.00000   0.02092   0.02186  16.79696
   Z30       18.87647   0.01674   0.00000   0.01295   0.01186  18.88834
   X31       17.73508   0.04848   0.00000   0.01023   0.01074  17.74582
   Y31       23.71417  -0.05555   0.00000  -0.04664  -0.04483  23.66935
   Z31       18.92183   0.11457   0.00000   0.06462   0.06270  18.98453
   X32       20.42038   0.01619   0.00000   0.01804   0.01842  20.43880
   Y32       25.67193  -0.02813   0.00000  -0.01080  -0.00959  25.66234
   Z32       21.38981   0.06359   0.00000   0.04149   0.04021  21.43002
   X33       20.04810  -0.00565   0.00000  -0.00443  -0.00499  20.04311
   Y33       18.86703   0.00815   0.00000   0.00609   0.00742  18.87444
   Z33       19.24686  -0.01860   0.00000  -0.00682  -0.00829  19.23857
   X34       23.40615  -0.04749   0.00000  -0.03156  -0.03136  23.37479
   Y34       22.00775   0.00978   0.00000  -0.00035   0.00027  22.00803
   Z34       18.81978  -0.00829   0.00000  -0.00102  -0.00169  18.81810
   X35       22.28554  -0.01179   0.00000  -0.00791  -0.00877  22.27677
   Y35       20.59046   0.00192   0.00000  -0.00058   0.00023  20.59068
   Z35       22.14759  -0.00209   0.00000   0.00971   0.00877  22.15636
   X36       18.26042  -0.06113   0.00000  -0.04220  -0.04388  18.21654
   Y36       18.00342   0.02833   0.00000   0.02616   0.02781  18.03123
   Z36       23.42316  -0.13009   0.00000  -0.05945  -0.06136  23.36180
   X37       17.23052   0.00492   0.00000  -0.00874  -0.01032  17.22020
   Y37       15.16694   0.07666   0.00000   0.04755   0.04945  15.21640
   Z37       20.34668  -0.03526   0.00000  -0.02715  -0.02933  20.31735
   X38       15.60347  -0.03970   0.00000  -0.02411  -0.02587  15.57760
   Y38       15.19907  -0.02552   0.00000  -0.02400  -0.02176  15.17731
   Z38       21.03076   0.01809   0.00000   0.01486   0.01231  21.04307
   X39       24.96706   0.01107   0.00000  -0.00058  -0.00067  24.96639
   Y39       21.42571   0.00310   0.00000   0.00909   0.00936  21.43508
   Z39       19.55111   0.01129   0.00000   0.00532   0.00500  19.55611
   X40       20.75675   0.02825   0.00000   0.02095   0.01966  20.77641
   Y40       15.34080   0.00232   0.00000  -0.00516  -0.00398  15.33681
   Z40       19.13348  -0.00776   0.00000  -0.00540  -0.00676  19.12672
   X41       31.05387   0.00842   0.00000   0.00184   0.00230  31.05617
   Y41       25.80799  -0.01015   0.00000  -0.00816  -0.00920  25.79879
   Z41       21.22540   0.01907   0.00000   0.00739   0.00853  21.23394
   X42       32.85100  -0.02740   0.00000  -0.01855  -0.01825  32.83275
   Y42       25.56044   0.00395   0.00000   0.00363   0.00220  25.56264
   Z42       21.71673  -0.00305   0.00000  -0.00104   0.00051  21.71724
   X43       30.06554   0.01789   0.00000   0.01461   0.01473  30.08027
   Y43       25.89870   0.00297   0.00000   0.00433   0.00347  25.90217
   Z43       22.80899  -0.01288   0.00000  -0.00650  -0.00557  22.80342
   X44       33.46894  -0.04014   0.00000  -0.01780  -0.01965  33.44929
   Y44       14.78144   0.00756   0.00000   0.00744   0.00589  14.78732
   Z44       21.10257   0.02505   0.00000   0.01018   0.01170  21.11427
   X45       31.74929   0.05072   0.00000   0.03356   0.03158  31.78087
   Y45       15.12537  -0.01875   0.00000  -0.01551  -0.01672  15.10865
   Z45       21.99641  -0.02530   0.00000  -0.01569  -0.01455  21.98186
   X46       34.44215  -0.00577   0.00000  -0.00463  -0.00697  34.43518
   Y46       13.89705   0.00453   0.00000   0.00534   0.00356  13.90061
   Z46       22.38759  -0.00550   0.00000  -0.00552  -0.00379  22.38379
   X47       28.10590  -0.01145   0.00000  -0.00143  -0.00340  28.10249
   Y47       23.50252   0.00217   0.00000   0.00257   0.00201  23.50454
   Z47       29.77830  -0.03594   0.00000  -0.02013  -0.01969  29.75861
   X48       28.06054  -0.00217   0.00000  -0.00175  -0.00396  28.05658
   Y48       21.74319   0.01291   0.00000   0.00811   0.00757  21.75076
   Z48       29.19060   0.00759   0.00000   0.00451   0.00491  29.19551
   X49       27.43315   0.01390   0.00000   0.00920   0.00775  27.44091
   Y49       24.33778  -0.01337   0.00000  -0.00712  -0.00751  24.33028
   Z49       28.20794   0.03046   0.00000   0.01658   0.01688  28.22482
   X50       29.10178  -0.01842   0.00000  -0.00417  -0.00758  29.09420
   Y50       16.27999  -0.01325   0.00000  -0.00725  -0.00800  16.27199
   Z50       29.32288   0.02374   0.00000   0.01234   0.01289  29.33577
   X51       28.55565   0.01025   0.00000   0.00861   0.00487  28.56052
   Y51       16.60502  -0.00259   0.00000  -0.00069  -0.00136  16.60367
   Z51       31.09733  -0.02608   0.00000  -0.01503  -0.01460  31.08273
   X52       28.13613   0.00580   0.00000   0.00323  -0.00040  28.13573
   Y52       14.75498   0.01658   0.00000   0.01091   0.01037  14.76535
   Z52       28.86746   0.00652   0.00000   0.00562   0.00592  28.87338
   X53       20.02165  -0.04558   0.00000  -0.01953  -0.02325  19.99840
   Y53       17.24564  -0.02077   0.00000  -0.01417  -0.01303  17.23261
   Z53       31.58299  -0.00269   0.00000  -0.00113  -0.00264  31.58035
   X54       18.15838   0.04686   0.00000   0.02974   0.02601  18.18439
   Y54       16.82612   0.01192   0.00000   0.00573   0.00726  16.83338
   Z54       31.24473   0.00875   0.00000   0.00742   0.00549  31.25023
   X55       20.47707  -0.00227   0.00000  -0.00009  -0.00436  20.47271
   Y55       16.05889   0.00769   0.00000   0.00389   0.00490  16.06379
   Z55       32.92470  -0.00850   0.00000  -0.00473  -0.00615  32.91855
   X56       22.47640  -0.04840   0.00000  -0.02596  -0.02856  22.44784
   Y56       16.72597   0.00638   0.00000   0.00091   0.00161  16.72758
   Z56       26.18782  -0.00787   0.00000  -0.00285  -0.00381  26.18401
   X57       20.92305   0.03243   0.00000   0.01944   0.01719  20.94024
   Y57       17.41383  -0.00987   0.00000  -0.00542  -0.00438  17.40945
   Z57       25.28643   0.00592   0.00000   0.00011  -0.00118  25.28525
   X58       21.52587   0.01441   0.00000   0.01248   0.00941  21.53528
   Y58       16.02488  -0.00012   0.00000  -0.00157  -0.00069  16.02418
   Z58       27.60512   0.00590   0.00000   0.00992   0.00874  27.61386
         Item               Value     Threshold  Converged?
 Maximum Force            0.211536     0.000450     NO 
 RMS     Force            0.035554     0.000300     NO 
 Maximum Displacement     0.143640     0.001800     NO 
 RMS     Displacement     0.022746     0.001200     NO 
 Predicted change in Energy=-1.091844D-01
 GradGradGradGradGradGradGradGradGradGradGradGradGradGradGradGradGradGrad


 Test job not archived.
 1\1\GINC-ELECTRA12\Force\RB3LYP\6-311++G(d,p)\C4H34O20\ZRONYJ\14-Aug-2
 023\0\\#b3lyp/6-311++G** scrf=(cpcm,Solvent=Water) nosymm force iop(2/
 11=1) Geom=(NoDistance,NoAngle)\\cluster_323_i\\0,1\O,16.58,9.981,13.2
 38\H,16.265,9.699,14.099\H,15.953,9.512,12.655\O,16.984,13.846,14.379\
 H,17.365,14.662,14.003\H,16.885,14.066,15.333\O,14.836,11.166,11.216\H
 ,15.083,10.398,10.629\H,15.591,11.882,11.153\O,12.711,6.559,11.371\H,1
 3.024,7.405,11.732\H,13.274,5.888,11.744\O,15.401,7.281,12.828\H,15.90
 7,7.588,13.661\H,15.036,6.343,12.979\O,10.8,14.43,14.635\H,10.262,13.6
 5,14.408\H,11.656,14.07,14.779\O,13.363,11.107,13.699\H,13.615,10.821,
 12.803\H,12.805,10.385,13.962\O,12.845,10.764,17.578\H,12.204,10.646,1
 6.813\H,12.219,10.86,18.281\C,10.266,12.334,11.125\C,11.293,11.217,10.
 789\C,9.379,9.459,11.003\H,10.177,10.333,9.276\H,10.975,14.026,10.485\
 O,11.609,8.877,9.989\O,9.385,12.549,10.013\O,10.806,13.585,11.319\C,10
 .609,9.984,10.185\O,12.386,11.646,9.959\H,11.793,10.896,11.72\O,9.663,
 9.527,12.395\O,9.118,8.026,10.767\H,8.257,8.043,11.129\H,13.212,11.338
 ,10.346\H,10.984,8.118,10.125\O,16.433,13.657,11.232\H,17.384,13.526,1
 1.492\H,15.91,13.705,12.07\O,17.711,7.822,11.167\H,16.801,8.004,11.64\
 H,18.226,7.354,11.847\O,14.873,12.437,15.758\H,14.849,11.506,15.447\H,
 14.517,12.879,14.927\O,15.4,8.615,15.517\H,15.111,8.787,16.456\H,14.88
 9,7.808,15.276\O,10.595,9.126,16.713\H,9.609,8.904,16.534\H,10.836,8.4
 98,17.423\O,11.894,8.851,13.858\H,11.072,9.215,13.381\H,11.391,8.48,14
 .608\\Version=ES64L-G16RevA.03\HF=-1677.8548714\RMSD=3.205e-09\RMSF=3.
 555e-02\Dipole=-2.0882387,-4.235583,3.0306717\Quadrupole=-58.7564513,-
 119.7992008,178.5556521,-120.8273435,19.52845,-67.5059113\PG=C01 [X(C4
 H34O20)]\\@


 A MAN SHOULD NEVER BE ASHAMED TO OWN HE HAS BEEN IN THE WRONG
 WHICH IS BUT SAYING IN OTHER WORDS,
 THAT HE IS WISER TODAY THAN HE WAS YESTERDAY.

                          -- JONATHAN SWIFT
 Job cpu time:       0 days  3 hours 26 minutes 34.0 seconds.
 Elapsed time:       0 days  0 hours 51 minutes 39.7 seconds.
 File lengths (MBytes):  RWF=    515 Int=      0 D2E=      0 Chk=     55 Scr=      1
 Normal termination of Gaussian 16 at Mon Aug 14 06:58:17 2023.
