24
XYZ file of cluster: frame_1500_9484.bffc1.9f3e9 - created by MolEdiTo
 O       6.79800000      17.98600000      16.98200000
 H       6.93000000      17.07600000      16.64900000
 H       7.45800000      18.51400000      16.51200000
 O       5.30900000      19.62900000      18.73300000
 H       5.61500000      19.27200000      19.59000000
 H       5.68700000      18.90200000      18.19100000
 O       3.96100000      19.01600000      15.50500000
 H       4.31300000      19.67900000      16.20200000
 H       3.70400000      18.24400000      15.97300000
 O       1.25300000      20.10300000      18.99100000
 H       0.79900000      19.34900000      19.51600000
 H       2.24000000      19.89600000      18.81700000
 O       1.88900000      24.13600000      17.04500000
 H       2.91000000      24.06400000      16.96900000
 H       1.63400000      23.49100000      17.71100000
 O       2.92200000      23.15300000      14.07000000
 H       3.74900000      22.71200000      14.20400000
 H       2.38300000      22.72700000      14.72000000
 O       4.47800000      23.31600000      16.91100000
 H       5.06200000      22.88400000      17.61900000
 H       4.98200000      23.94900000      16.43000000
 O       6.72400000      25.52500000      18.49600000
 H       7.65600000      25.51400000      18.25800000
 H       6.35700000      24.72900000      18.00800000
