42
XYZ file of cluster: frame_1500_49da2.c1aeb.cbd09 - created by MolEdiTo
 O      11.23300000      20.28700000      19.69900000
 H      12.13300000      19.96400000      19.61400000
 H      11.12600000      21.04800000      19.11100000
 O      13.29300000      18.39900000      18.56800000
 H      13.23200000      17.48300000      18.94700000
 H      14.04900000      18.88900000      19.01900000
 O       9.85500000      20.18200000      24.58600000
 H       9.60000000      19.56600000      23.85200000
 H       9.81800000      19.70000000      25.42700000
 O       6.88100000      18.33000000      22.57700000
 H       7.87500000      18.48700000      22.53500000
 H       6.73200000      17.35500000      22.75100000
 O      12.12000000      18.32000000      24.32400000
 H      11.44400000      19.05900000      24.31300000
 H      11.53000000      17.58300000      24.54300000
 O      13.91100000      19.64900000      22.72100000
 H      13.34600000      19.05500000      23.35900000
 H      14.17500000      20.37500000      23.26600000
 O       9.52600000      18.11400000      22.47100000
 H       9.99800000      18.44500000      21.64400000
 H       9.95100000      17.22700000      22.52200000
 O       6.61700000      19.00800000      25.15100000
 H       6.65400000      18.57700000      24.26300000
 H       7.06900000      18.37600000      25.75400000
 O       8.23000000      23.00800000      20.54600000
 H       7.33500000      23.02900000      20.26800000
 H       8.75000000      22.94000000      19.74400000
 O       6.72400000      25.52500000      18.49600000
 H       7.65600000      25.51400000      18.25800000
 H       6.35700000      24.72900000      18.00800000
 O      11.49200000      24.61000000      20.70800000
 H      10.89300000      24.72100000      21.51000000
 H      11.58200000      23.63300000      20.64800000
 O       9.29300000      25.35900000      24.21400000
 H       9.32600000      24.32100000      24.28200000
 H       8.84100000      25.54400000      25.05000000
 O      11.81000000      23.91700000      25.07900000
 H      11.15100000      23.30400000      24.62200000
 H      11.34900000      24.71800000      25.21800000
 O      14.67500000      23.30700000      24.51700000
 H      13.87600000      23.02800000      25.01900000
 H      14.83500000      24.26000000      24.47200000
