36
XYZ file of cluster: frame_1500_487e.9db75.7dacd - created by MolEdiTo
 O       3.73400000      19.19900000      11.45500000
 H       3.32700000      18.34600000      11.10400000
 H       4.67600000      19.05400000      11.39600000
 O       1.10600000      17.20600000      15.34100000
 H       0.39000000      16.49500000      15.16500000
 H       0.55800000      17.90600000      15.62500000
 O       1.97300000      15.89500000      17.85000000
 H       1.12200000      15.82400000      18.31500000
 H       1.80000000      16.16400000      16.89800000
 O       6.79800000      17.98600000      16.98200000
 H       6.93000000      17.07600000      16.64900000
 H       7.45800000      18.51400000      16.51200000
 O       0.94000000      20.15500000      11.65800000
 H       1.87600000      20.18000000      11.97100000
 H       0.80800000      21.02500000      11.23700000
 O       1.82800000      15.96500000      12.50900000
 H       2.70000000      15.74500000      12.14500000
 H       2.08200000      16.41200000      13.30200000
 O       3.96100000      19.01600000      15.50500000
 H       4.31300000      19.67900000      16.20200000
 H       3.70400000      18.24400000      15.97300000
 O       5.80300000      20.52800000      13.68300000
 H       5.34100000      19.65700000      13.81400000
 H       6.49900000      20.46300000      13.01500000
 O       5.87500000      17.60400000      13.28100000
 H       5.11500000      17.18700000      13.82900000
 H       5.75300000      17.17700000      12.45300000
 O       6.53900000      15.10700000      11.89300000
 H       6.84300000      14.65800000      12.73600000
 H       7.40900000      15.48000000      11.57200000
 O       4.20200000      15.79900000      14.70800000
 H       4.20700000      15.82200000      15.72100000
 H       4.16300000      14.85500000      14.37000000
 O       4.58700000      14.23100000      17.70400000
 H       3.75900000      14.02800000      18.22600000
 H       5.11000000      14.72300000      18.38000000
