67
XYZ file of cluster: frame_1500_46d4e.5c50e.4d8d1 - created by MolEdiTo
 O       6.56500000      18.58400000      10.21900000
 H       7.17200000      17.96700000      10.67800000
 H       6.09700000      18.00600000       9.61900000
 O      13.78600000      11.85100000       6.85200000
 H      12.89800000      11.49600000       7.06500000
 H      14.27600000      11.79700000       7.70200000
 O       7.44900000      10.44000000      14.31800000
 H       8.27500000       9.95200000      14.30400000
 H       7.67300000      11.28600000      14.71400000
 O       8.65200000      17.14400000      14.89300000
 H       8.02400000      16.75100000      14.23800000
 H       8.96300000      16.33800000      15.32400000
 O      11.47300000      16.61300000      15.19900000
 H      11.22400000      17.31900000      15.84500000
 H      10.95900000      16.81100000      14.36000000
 O      12.32100000      17.49300000      10.75500000
 H      12.58600000      17.39600000       9.82300000
 H      12.86000000      18.26700000      10.97800000
 O      14.66400000      16.17600000      11.97200000
 H      13.78900000      15.79000000      12.38700000
 H      15.32400000      15.41900000      12.14700000
 O       8.05900000      14.23200000      14.23500000
 H       8.66500000      13.57400000      13.79100000
 H       8.03500000      13.98800000      15.18300000
 O      12.95700000      14.87400000      13.86800000
 H      13.62800000      14.27600000      14.23500000
 H      13.12000000      15.59600000      14.52500000
 O      11.99300000      13.91900000       8.74000000
 H      12.86800000      13.55000000       8.81500000
 H      11.68600000      13.98000000       9.66000000
 O       6.51200000      15.59500000       8.12500000
 H       6.30800000      14.79300000       8.66000000
 H       7.53700000      15.57100000       7.97000000
 C      11.34000000      10.01400000       9.54500000
 C      11.34800000      10.75000000      10.98100000
 C       8.97500000      11.70800000      10.54700000
 H       9.46800000      10.04600000      11.73200000
 H      11.34900000       8.21100000       8.92400000
 O      10.11600000      11.73500000      12.77500000
 O      12.67200000       9.90300000       9.14100000
 O      10.83400000       8.71200000       9.63300000
 C       9.97800000      11.01600000      11.53500000
 O      12.11600000       9.91700000      11.89700000
 H      11.86900000      11.66200000      10.70600000
 O       9.55200000      12.98800000      10.37800000
 O       7.74400000      12.02200000      11.22900000
 H       7.56100000      12.95900000      11.03600000
 H      12.51100000       9.16400000      11.35200000
 H      10.56600000      12.57300000      12.54200000
 O      11.64900000      14.80300000      11.37700000
 H      11.84000000      15.70200000      11.06200000
 H      11.73200000      14.98600000      12.35700000
 O       9.17900000      15.41700000       8.31800000
 H       9.71900000      14.70300000       7.92800000
 H       9.53700000      15.45300000       9.22100000
 O      14.72100000      15.26800000       8.55600000
 H      15.22200000      15.72200000       7.85100000
 H      13.87300000      15.82000000       8.56500000
 O      12.86400000      11.15900000      14.25400000
 H      12.38000000      10.88600000      13.44300000
 H      13.76500000      10.91100000      14.11000000
 O       6.53900000      15.10700000      11.89300000
 H       6.84300000      14.65800000      12.73600000
 H       7.40900000      15.48000000      11.57200000
 O       9.16000000      16.26900000      11.26500000
 H       9.31700000      17.07700000      10.79900000
 H      10.02800000      15.87200000      11.40600000
