33
XYZ file of cluster: frame_1500_c0864.34ac5.bfeb6 - created by MolEdiTo
 O      18.61900000       7.61500000      20.56900000
 H      18.82700000       7.68300000      21.48700000
 H      17.71900000       7.53900000      20.37600000
 O      19.93600000      10.33400000      19.10000000
 H      19.41100000      10.58800000      18.33400000
 H      19.33000000       9.85800000      19.68300000
 O      17.31400000       5.33600000      18.77000000
 H      16.57200000       4.68500000      18.62500000
 H      17.62500000       4.99000000      19.63500000
 O      19.59900000       9.43600000      24.27900000
 H      18.65300000       9.73900000      24.24300000
 H      20.19100000      10.09600000      23.86700000
 O      17.31200000       4.84200000      23.73500000
 H      16.94200000       5.62800000      24.15500000
 H      18.30300000       5.04800000      23.60800000
 O      19.88400000       5.05200000      22.73000000
 H      19.93800000       5.36400000      21.75300000
 H      20.82000000       4.81200000      22.96600000
 O      21.86700000       5.23200000      18.56300000
 H      22.00900000       5.18400000      17.56900000
 H      22.75000000       4.99900000      18.88700000
 O      22.61200000       7.74200000      19.84600000
 H      22.83800000       7.43100000      20.73000000
 H      21.62700000       7.70900000      19.89000000
 O      23.20700000      10.67500000      20.59400000
 H      22.30700000      10.78900000      20.13800000
 H      23.45200000       9.89900000      20.04600000
 O      21.92500000       7.98600000      17.14400000
 H      22.00200000       7.90300000      18.11800000
 H      21.47300000       7.13000000      16.95700000
 O      22.86900000       8.02800000      25.24500000
 H      22.25900000       8.48000000      24.58200000
 H      23.02000000       8.67000000      25.98000000
