33
XYZ file of cluster: frame_1500_4021.a2c96.1e77d - created by MolEdiTo
 O       3.21700000      16.97600000       4.88900000
 H       2.80700000      17.83300000       4.81300000
 H       4.13000000      17.27300000       4.72500000
 O       6.56500000      18.58400000      10.21900000
 H       7.17200000      17.96700000      10.67800000
 H       6.09700000      18.00600000       9.61900000
 O       4.34200000      16.53900000      10.21300000
 H       4.83800000      15.88800000      10.72100000
 H       3.83800000      16.09200000       9.46100000
 O       5.69700000      19.75700000       6.81800000
 H       5.46900000      19.78200000       5.88900000
 H       5.11300000      20.40900000       7.28000000
 O       6.51200000      15.59500000       8.12500000
 H       6.30800000      14.79300000       8.66000000
 H       7.53700000      15.57100000       7.97000000
 O       2.49600000      19.65700000       4.22700000
 H       3.03900000      20.44500000       4.51800000
 H       3.01400000      19.27300000       3.44600000
 O       1.10200000      19.22000000       6.59500000
 H       0.34500000      19.81200000       6.37100000
 H       1.67000000      19.24200000       5.77900000
 O       3.30700000      15.67500000       7.66900000
 H       2.79500000      16.10900000       6.91500000
 H       4.21200000      15.45200000       7.36800000
 O       6.15000000      17.20800000       5.70500000
 H       6.11000000      18.07000000       6.15800000
 H       6.21500000      16.55900000       6.44000000
 O       3.62700000      14.47900000       4.00400000
 H       3.64500000      14.67300000       3.02100000
 H       3.27300000      15.20900000       4.53400000
 O       6.61700000      19.00800000       3.58000000
 H       6.65400000      18.57700000       2.69200000
 H       7.06900000      18.37600000       4.18300000
