114
XYZ file of cluster: frame_17500_c50a6.74e48.9d47f - created by MolEdiTo
 O      27.57000000      23.22900000      24.94700000
 H      26.93200000      22.70500000      25.50400000
 H      27.89600000      23.86500000      25.70800000
 O      27.45500000      25.90800000      22.83700000
 H      26.52600000      25.90700000      22.94500000
 H      27.55300000      25.96800000      21.81200000
 O      28.05600000      17.08100000      27.61600000
 H      28.96500000      16.71900000      27.27500000
 H      27.40900000      16.65300000      27.03800000
 O      28.53500000      20.01800000      29.78900000
 H      29.30800000      20.29300000      29.25500000
 H      27.92500000      19.68100000      29.09500000
 O      27.23500000      25.43200000      27.25400000
 H      28.04500000      25.87700000      26.91200000
 H      27.58500000      24.53800000      27.59300000
 O      29.19500000      17.22100000      23.90700000
 H      28.66400000      16.91500000      24.66800000
 H      30.12500000      17.09200000      24.19200000
 O      30.41900000      24.61300000      23.33100000
 H      30.69000000      24.33100000      22.44100000
 H      29.46000000      24.44000000      23.39300000
 O      29.34300000      20.43300000      21.50400000
 H      29.97700000      19.77000000      20.98800000
 H      29.59500000      21.29500000      21.21500000
 O      26.82000000      15.96700000      25.58400000
 H      26.96800000      15.27200000      26.28800000
 H      26.13800000      15.51600000      25.00100000
 O      29.90800000      21.45800000      24.02500000
 H      29.65200000      20.92900000      23.19800000
 H      29.00900000      21.95300000      24.19700000
 O      25.85000000      20.72100000      21.02200000
 H      26.37900000      21.58800000      21.23400000
 H      26.23200000      20.19400000      21.76600000
 O      26.00200000      18.62200000      29.11400000
 H      26.69400000      17.93000000      28.90600000
 H      25.33500000      18.31800000      29.79200000
 O      30.21100000      24.56600000      26.41700000
 H      31.02600000      24.23300000      25.93500000
 H      29.92500000      23.78500000      26.92900000
 O      27.16600000      22.81200000      21.97300000
 H      27.36400000      23.01300000      22.92800000
 H      27.02000000      23.75400000      21.66100000
 O      27.42900000      18.92500000      22.55400000
 H      27.94700000      18.16600000      22.93700000
 H      28.20000000      19.43300000      22.04800000
 O      28.87800000      26.69400000      25.42000000
 H      29.51600000      25.91700000      25.31000000
 H      28.05700000      26.55900000      24.79000000
 O      28.19700000      26.13800000      30.10300000
 H      27.51200000      25.49100000      29.97500000
 H      27.81800000      26.73600000      30.70400000
 O      28.34800000      22.96100000      27.97300000
 H      28.94000000      22.18200000      27.93600000
 H      27.46000000      22.62500000      28.27600000
 O      30.22200000      15.31400000      26.26600000
 H      30.73900000      15.04700000      27.05500000
 H      30.65400000      16.19100000      26.22700000
 O      30.35500000      23.98500000      30.50400000
 H      30.67000000      23.62000000      31.38600000
 H      29.71200000      24.65700000      30.58900000
 O      29.57100000      20.40200000      26.95200000
 H      29.68600000      19.46000000      26.88200000
 H      29.90100000      20.84500000      26.18000000
 O      33.25600000      17.35500000      24.79000000
 H      34.12800000      17.78100000      24.83600000
 H      33.36800000      16.78800000      24.03000000
 O      32.86600000      22.21100000      28.73200000
 H      33.72500000      21.90800000      29.12300000
 H      32.63200000      23.06200000      29.13300000
 O      36.85000000      18.92800000      21.19100000
 H      36.80100000      19.34500000      20.27500000
 H      35.95400000      19.08300000      21.53800000
 O      33.66200000      16.82500000      20.93900000
 H      33.25000000      16.42200000      21.68400000
 H      33.70900000      17.75500000      21.15700000
 O      34.58200000      20.20000000      22.01400000
 H      34.24600000      20.16600000      22.91900000
 H      34.60100000      21.21400000      21.99500000
 O      32.76600000      17.93900000      27.55800000
 H      33.00900000      17.91800000      26.63300000
 H      33.60300000      18.13000000      28.12900000
 O      34.99100000      25.44000000      25.61800000
 H      34.76400000      26.38000000      25.77500000
 H      35.22400000      25.40100000      24.72200000
 O      36.17900000      25.00500000      28.09300000
 H      35.61300000      25.18500000      27.36100000
 H      35.79000000      25.57500000      28.76700000
 O      36.04800000      26.07100000      22.75800000
 H      36.43100000      26.98500000      22.93000000
 H      35.09600000      26.33100000      22.54100000
 O      33.54800000      17.05400000      30.13700000
 H      34.36100000      16.88700000      29.55900000
 H      33.85700000      16.64200000      30.96600000
 O      35.54900000      21.50700000      26.35300000
 H      35.90700000      22.02700000      27.09500000
 H      34.86700000      22.10200000      25.90300000
 O      35.83700000      16.88600000      28.78700000
 H      36.61700000      16.27500000      28.97200000
 H      35.66900000      16.87700000      27.79900000
 O      35.31400000      23.22300000      22.11000000
 H      35.42800000      23.09100000      21.14000000
 H      35.11200000      24.20100000      22.12000000
 O      33.67800000      19.73800000      29.78000000
 H      33.05300000      20.13300000      29.09600000
 H      33.36200000      18.88600000      30.02300000
 O      33.64200000      22.92200000      24.50700000
 H      33.96500000      22.69800000      23.58900000
 H      32.84500000      23.48200000      24.32100000
 O      35.59700000      18.81000000      25.50900000
 H      35.36800000      19.64900000      26.04900000
 H      36.51800000      18.79600000      25.12400000
 O      33.09900000      26.07400000      28.80200000
 H      32.51900000      25.81500000      28.02100000
 H      33.03800000      25.18100000      29.23400000
