135
XYZ file of cluster: frame_17500_737ca.9ca0e.2335f - created by MolEdiTo
 O      19.44300000      29.56200000       7.49100000
 H      18.59300000      29.38700000       7.02400000
 H      20.02900000      29.88500000       6.76300000
 O      20.23300000      22.59200000      14.95200000
 H      20.52500000      22.22300000      14.03900000
 H      19.60600000      21.87500000      15.16900000
 O      22.13000000      28.49500000      12.69200000
 H      22.80700000      29.20200000      12.62900000
 H      21.38200000      28.82100000      12.17100000
 O      20.61100000      27.73300000      15.76800000
 H      21.52700000      28.07800000      15.83900000
 H      20.63200000      27.45700000      14.82200000
 O      22.89400000      22.29300000      11.61400000
 H      22.62900000      22.54400000      12.51100000
 H      22.54100000      23.00400000      11.02100000
 O      16.90600000      24.55300000      10.37800000
 H      16.61000000      23.87200000      11.11600000
 H      16.24100000      25.26700000      10.33400000
 O      22.77300000      27.38300000       9.94400000
 H      21.97200000      27.96100000      10.07000000
 H      23.48700000      28.07800000      10.07100000
 O      17.65000000      30.57900000       5.52400000
 H      16.99700000      30.31500000       4.86500000
 H      17.26600000      31.23600000       6.11500000
 O      16.43700000      22.41900000      12.22600000
 H      15.48000000      22.30900000      12.37600000
 H      16.89100000      21.57700000      12.24600000
 O      25.58500000      24.46700000      11.87500000
 H      25.89400000      24.59000000      12.83800000
 H      24.58600000      24.47200000      12.05700000
 O      16.12100000      27.21900000       5.99400000
 H      15.69100000      26.42000000       6.33700000
 H      16.91800000      27.25400000       6.62800000
 O      25.79000000      27.92400000       6.08700000
 H      25.94200000      28.73400000       5.58300000
 H      24.82700000      27.76200000       6.08100000
 O      22.70500000      29.98600000      15.98400000
 H      22.02700000      30.70000000      16.24200000
 H      22.98500000      30.27200000      15.09500000
 O      24.25100000      27.14000000      15.19800000
 H      24.75800000      27.19800000      14.35700000
 H      24.01400000      28.08400000      15.25400000
 O      17.53900000      28.51700000      14.47400000
 H      18.29900000      27.97200000      14.36000000
 H      17.83700000      29.42300000      14.40600000
 O      25.59800000      21.78200000       8.95200000
 H      26.42700000      22.33300000       8.84200000
 H      25.17500000      22.22800000       9.68700000
 O      24.45200000      30.14200000      13.21800000
 H      24.99700000      30.92200000      12.96300000
 H      25.15900000      29.39900000      13.29000000
 O      21.31300000      30.44100000       5.29700000
 H      20.92100000      29.90400000       4.53900000
 H      22.00300000      29.78200000       5.59400000
 O      26.25000000      20.56400000      13.32400000
 H      26.11900000      20.16200000      14.20400000
 H      25.94200000      21.53200000      13.44600000
 O      18.23900000      28.29800000      11.71600000
 H      17.90300000      27.39600000      11.81200000
 H      17.58200000      28.95600000      11.97700000
 O      19.61000000      23.72600000      11.89600000
 H      18.64600000      23.52700000      11.50200000
 H      20.17500000      23.47200000      11.19400000
 O      26.06800000      24.94700000       6.60800000
 H      26.16400000      25.12700000       7.59700000
 H      26.19700000      25.84700000       6.16700000
 O      22.81000000      25.42100000      12.15000000
 H      23.03100000      26.33400000      11.84000000
 H      21.95000000      25.53500000      12.59300000
 O      22.19100000      25.43800000      16.14100000
 H      23.00000000      25.84400000      15.81600000
 H      21.53600000      25.48800000      15.39800000
 O      25.98100000      23.35500000      14.67400000
 H      26.33700000      23.69600000      15.49500000
 H      25.03900000      23.06200000      14.78400000
 O      20.73300000      29.45400000      10.70200000
 H      19.77400000      29.26700000      10.91700000
 H      20.96300000      30.39700000      10.94600000
 O      20.54300000      25.08100000       8.83500000
 H      21.36100000      24.59200000       8.90800000
 H      20.68900000      26.02900000       9.01000000
 O      20.18100000      20.72900000       5.90200000
 H      19.68400000      21.52600000       6.35300000
 H      20.94300000      20.49700000       6.56500000
 O      17.51900000      22.51800000       8.45300000
 H      17.00700000      23.10400000       9.02200000
 H      18.43800000      22.81600000       8.62200000
 O      23.06600000      22.16300000      14.78300000
 H      22.86400000      21.19900000      14.83700000
 H      22.37700000      22.69700000      15.26800000
 O      23.46100000      22.89700000       6.79300000
 H      24.41100000      22.76300000       6.47600000
 H      23.06300000      22.01300000       6.99300000
 O      15.37000000      26.50200000      14.13600000
 H      16.25400000      26.03800000      14.24200000
 H      15.01900000      25.79500000      13.53300000
 O      25.67800000      28.68200000       9.88200000
 H      25.64100000      28.85500000      10.82300000
 H      26.66100000      28.84100000       9.70200000
 O      21.52400000      24.79900000       5.35800000
 H      22.14600000      24.42900000       6.07400000
 H      20.85900000      24.00200000       5.30900000
 O      19.28100000      26.70000000       5.57700000
 H      20.09300000      26.28300000       5.40300000
 H      19.09100000      26.56000000       6.48800000
 O      16.74800000      30.62300000      12.33000000
 H      17.66900000      30.94000000      12.25700000
 H      16.35700000      31.42700000      11.91300000
 O      23.11600000      24.08600000       9.29100000
 H      23.17900000      23.50200000       8.45900000
 H      23.95100000      24.50800000       9.34800000
 O      19.20000000      23.39500000       5.93100000
 H      19.03700000      23.67100000       6.87800000
 H      18.30500000      23.13100000       5.60900000
 O      22.64300000      30.02900000       8.18400000
 H      23.31800000      29.25200000       8.06600000
 H      21.68500000      29.73000000       8.14300000
 O      17.07400000      24.13900000      14.37400000
 H      17.90100000      24.18900000      14.87400000
 H      17.31700000      23.76100000      13.52400000
 O      16.34800000      21.69400000       5.69900000
 H      15.53900000      21.15000000       5.69000000
 H      16.46100000      21.94700000       6.68300000
 O      20.20700000      25.86100000      13.56900000
 H      20.13600000      25.02500000      13.02900000
 H      19.36200000      25.88800000      14.02700000
 O      18.32800000      26.15900000       8.06700000
 H      18.10500000      26.28100000       8.95100000
 H      18.98500000      25.46500000       8.08600000
 O      25.79400000      25.79000000       9.36500000
 H      26.06900000      25.62900000      10.30100000
 H      25.43400000      26.70700000       9.40800000
 O      15.59100000      29.27500000       7.65500000
 H      14.84900000      29.70100000       7.19200000
 H      15.86200000      28.68200000       6.93400000
