108
XYZ file of cluster: frame_17500_26ed1.98ca7.c6a2c - created by MolEdiTo
 O       8.77900000      30.60500000      26.95500000
 H       8.31700000      30.54200000      26.11200000
 H       8.29700000      31.20600000      27.61600000
 O      11.64100000      26.02600000      28.75400000
 H      10.82500000      26.23100000      29.24900000
 H      11.89600000      25.27200000      29.27200000
 O      13.59500000      22.59200000      26.51300000
 H      14.03900000      23.13800000      25.91000000
 H      13.09900000      23.14300000      27.14700000
 O      10.03400000      23.39900000      27.84500000
 H       9.72700000      24.03800000      28.47900000
 H       9.40000000      23.40200000      27.08300000
 O      13.14900000      25.99700000      26.66100000
 H      13.81200000      26.62500000      26.83100000
 H      12.62800000      25.96500000      27.48600000
 O      14.56800000      28.52100000      26.62700000
 H      14.41600000      29.20300000      27.33600000
 H      14.36000000      28.90700000      25.79600000
 O      16.42800000      24.63200000      30.12200000
 H      15.58700000      24.67000000      29.52800000
 H      15.97900000      24.88200000      31.00200000
 O       9.53000000      20.74500000      26.37800000
 H       9.54200000      21.66600000      26.23200000
 H       9.97100000      20.35800000      25.60600000
 O       8.88600000      21.69600000      29.83600000
 H       8.95400000      22.08200000      28.95400000
 H       9.76500000      21.96800000      30.29700000
 O      15.16500000      20.23700000      28.08500000
 H      14.66300000      19.66800000      27.47400000
 H      15.00800000      21.11300000      27.70200000
 O       8.73400000      28.33200000      29.09600000
 H       8.32000000      28.72300000      28.27000000
 H       8.23300000      28.76300000      29.78700000
 O       7.32100000      24.72300000      27.24100000
 H       6.39500000      25.14300000      27.43500000
 H       7.25100000      23.79700000      27.46100000
 O      10.02500000      26.28700000      26.36800000
 H       9.72900000      25.32700000      26.17600000
 H      10.61800000      26.28600000      27.10500000
 O       5.93700000      28.62400000      27.43300000
 H       6.46600000      28.38800000      26.65300000
 H       5.12400000      28.55700000      26.93800000
 O       9.53200000      26.15100000      30.35700000
 H       8.87600000      25.53100000      29.99200000
 H       9.18600000      26.97900000      29.92400000
 O       7.01300000      21.92900000      27.24600000
 H       7.67200000      21.17900000      27.36100000
 H       6.77700000      21.85500000      26.29200000
 O      13.60400000      28.46100000      29.58800000
 H      13.27700000      27.66500000      29.11700000
 H      14.54200000      28.24300000      29.79700000
 O      13.57700000      24.01500000      30.40800000
 H      13.44800000      24.82700000      30.94700000
 H      14.04200000      23.52200000      31.06900000
 O       6.29900000      23.68200000      30.23000000
 H       6.02400000      23.97500000      31.08100000
 H       5.72600000      24.20100000      29.58500000
 O       6.39900000      20.52300000      29.98500000
 H       6.14100000      21.15200000      29.28200000
 H       7.31900000      20.60500000      30.17300000
 O       7.29400000      29.21000000      35.14500000
 H       7.98100000      29.78200000      35.60900000
 H       7.19200000      28.47600000      35.93400000
 O      13.60000000      30.43300000      37.44300000
 H      12.84500000      30.98200000      37.66600000
 H      13.33200000      30.01300000      36.57200000
 O       6.78900000      29.08400000      32.28400000
 H       5.95400000      28.58400000      32.03100000
 H       6.65200000      29.19100000      33.29500000
 O      11.97800000      24.28900000      34.33400000
 H      11.18300000      24.69000000      34.73200000
 H      12.64500000      24.67700000      34.91600000
 O      11.17400000      27.54600000      36.60100000
 H      10.85800000      28.37100000      36.99900000
 H      10.29400000      27.05200000      36.34300000
 O      11.20900000      22.08300000      32.63700000
 H      11.57500000      22.90700000      33.14400000
 H      11.73800000      21.38200000      33.09100000
 O      14.36200000      26.44800000      33.83300000
 H      14.08700000      26.12200000      34.67200000
 H      14.03400000      27.37600000      33.90400000
 O      13.45600000      25.94500000      36.39800000
 H      13.62700000      25.57000000      37.26700000
 H      12.99400000      26.81900000      36.54200000
 O       5.95000000      24.72800000      34.33000000
 H       6.58900000      24.28900000      34.86800000
 H       5.96200000      25.66500000      34.78600000
 O      10.65800000      29.00800000      33.49900000
 H      10.64900000      28.03500000      33.68800000
 H      10.36400000      29.21700000      32.55000000
 O      10.28900000      21.67600000      35.78500000
 H      10.51100000      22.59600000      35.90600000
 H       9.61400000      21.75600000      35.00100000
 O       8.17100000      22.21500000      34.14200000
 H       7.54100000      21.51500000      34.31000000
 H       8.12700000      22.61800000      33.26500000
 O      13.99800000      21.45700000      35.25600000
 H      13.80500000      20.69900000      34.58500000
 H      13.18700000      21.62900000      35.76400000
 O       5.27300000      27.44600000      36.45700000
 H       5.11700000      27.97500000      37.22600000
 H       5.00500000      26.56200000      36.74100000
 O       9.99900000      25.13700000      35.95100000
 H       9.10300000      25.14400000      35.58400000
 H       9.69400000      25.05800000      36.88800000
 O      15.73700000      23.22700000      34.10600000
 H      16.16200000      23.53400000      34.92500000
 H      15.26400000      22.43300000      34.49000000
