102
XYZ file of cluster: frame_17500_99173.9f3b2.4e91 - created by MolEdiTo
 O      29.25600000      24.62500000       5.42900000
 H      29.42800000      25.26500000       4.69600000
 H      29.22400000      23.81200000       4.88900000
 O      22.77300000      27.38300000       9.94400000
 H      21.97200000      27.96100000      10.07000000
 H      23.48700000      28.07800000      10.07100000
 O      25.79000000      27.92400000       6.08700000
 H      25.94200000      28.73400000       5.58300000
 H      24.82700000      27.76200000       6.08100000
 O      24.42900000      21.76100000       1.37900000
 H      25.07300000      21.67000000       0.63300000
 H      24.23100000      22.73800000       1.33000000
 O      25.59800000      21.78200000       8.95200000
 H      26.42700000      22.33300000       8.84200000
 H      25.17500000      22.22800000       9.68700000
 O      24.21900000      28.08400000       2.86000000
 H      23.53500000      27.95700000       2.15400000
 H      24.71400000      27.22300000       2.81300000
 O      25.68800000      30.41000000       3.02800000
 H      25.02600000      30.88900000       3.63100000
 H      25.24900000      29.48300000       2.80700000
 O      27.53400000      30.06600000       5.40200000
 H      28.32900000      30.51500000       5.67400000
 H      27.60300000      30.16100000       4.41500000
 O      21.31300000      30.44100000       5.29700000
 H      20.92100000      29.90400000       4.53900000
 H      22.00300000      29.78200000       5.59400000
 O      26.06800000      24.94700000       6.60800000
 H      26.16400000      25.12700000       7.59700000
 H      26.19700000      25.84700000       6.16700000
 O      28.77200000      21.79400000       7.80400000
 H      28.68300000      22.53200000       8.41700000
 H      29.38600000      22.08700000       7.18900000
 O      23.38400000      20.88700000       3.74100000
 H      23.98500000      21.23200000       3.01400000
 H      22.46000000      21.15500000       3.38500000
 O      28.93900000      27.79100000       7.18800000
 H      28.98600000      26.80800000       6.91400000
 H      28.10300000      28.09700000       6.76600000
 O      30.15100000      21.60500000       2.20100000
 H      29.48300000      21.49300000       1.46400000
 H      30.38500000      20.66100000       2.19600000
 O      20.54300000      25.08100000       8.83500000
 H      21.36100000      24.59200000       8.90800000
 H      20.68900000      26.02900000       9.01000000
 O      27.55200000      23.66000000       9.48800000
 H      26.76700000      24.04300000      10.03800000
 H      28.25000000      23.64600000      10.22100000
 O      26.66500000      26.12400000       2.78700000
 H      27.30600000      26.42100000       3.33600000
 H      26.92700000      25.16600000       2.60800000
 O      20.18100000      20.72900000       5.90200000
 H      19.68400000      21.52600000       6.35300000
 H      20.94300000      20.49700000       6.56500000
 O      29.23200000      27.06100000      10.96900000
 H      29.59500000      26.23000000      10.87800000
 H      29.67500000      27.66300000      10.31300000
 O      23.46100000      22.89700000       6.79300000
 H      24.41100000      22.76300000       6.47600000
 H      23.06300000      22.01300000       6.99300000
 O      23.66500000      24.32500000       2.07400000
 H      23.20500000      24.46600000       2.94000000
 H      24.21400000      25.13200000       1.92000000
 O      25.67800000      28.68200000       9.88200000
 H      25.64100000      28.85500000      10.82300000
 H      26.66100000      28.84100000       9.70200000
 O      21.52400000      24.79900000       5.35800000
 H      22.14600000      24.42900000       6.07400000
 H      20.85900000      24.00200000       5.30900000
 O      27.22700000      23.41200000       2.49900000
 H      27.62700000      22.44600000       2.52700000
 H      26.36200000      23.06100000       2.38300000
 O      29.52400000      21.92400000       4.80800000
 H      29.78900000      21.98700000       3.86700000
 H      30.25800000      21.35900000       5.15400000
 O      29.38300000      29.53900000       2.84200000
 H      29.60300000      28.64300000       3.19500000
 H      29.21700000      29.43800000       1.91000000
 O      23.01700000      28.13000000       5.23900000
 H      22.23100000      27.52500000       5.21000000
 H      23.48600000      28.02500000       4.36300000
 O      23.11600000      24.08600000       9.29100000
 H      23.17900000      23.50200000       8.45900000
 H      23.95100000      24.50800000       9.34800000
 O      21.59600000      26.55800000       2.46000000
 H      21.88700000      26.39900000       1.47600000
 H      21.03900000      25.76900000       2.67200000
 O      26.58400000      22.38900000       5.96700000
 H      27.54100000      22.67700000       5.75700000
 H      26.35100000      23.31400000       6.39800000
 O      22.64300000      30.02900000       8.18400000
 H      23.31800000      29.25200000       8.06600000
 H      21.68500000      29.73000000       8.14300000
 O      30.07500000      26.96800000       2.96400000
 H      30.14600000      26.75000000       1.98900000
 H      31.02900000      26.95800000       3.23200000
 O      28.51800000      29.78800000       9.25300000
 H      28.28100000      30.31400000       8.45600000
 H      29.03600000      29.04400000       8.86000000
 O      25.79400000      25.79000000       9.36500000
 H      26.06900000      25.62900000      10.30100000
 H      25.43400000      26.70700000       9.40800000
