102
XYZ file of cluster: frame_17500_500f8.c5d33.fa4 - created by MolEdiTo
 O      19.44300000      29.56200000       7.49100000
 H      18.59300000      29.38700000       7.02400000
 H      20.02900000      29.88500000       6.76300000
 O      15.68300000      27.14400000      10.36500000
 H      14.88700000      26.64300000      10.58800000
 H      15.30600000      27.87700000       9.83200000
 O      17.65000000      30.57900000       5.52400000
 H      16.99700000      30.31500000       4.86500000
 H      17.26600000      31.23600000       6.11500000
 O      16.12100000      27.21900000       5.99400000
 H      15.69100000      26.42000000       6.33700000
 H      16.91800000      27.25400000       6.62800000
 O      15.86900000      29.50000000       3.48900000
 H      15.94600000      28.51800000       3.61700000
 H      15.89500000      29.65900000       2.49600000
 O      20.35000000      28.86200000       3.25500000
 H      20.89500000      28.03500000       3.09600000
 H      19.40800000      28.47900000       3.15600000
 O      12.59600000      25.65800000       8.85500000
 H      12.52000000      26.61700000       8.80900000
 H      12.11100000      25.57500000       9.66300000
 O      21.31300000      30.44100000       5.29700000
 H      20.92100000      29.90400000       4.53900000
 H      22.00300000      29.78200000       5.59400000
 O      10.65800000      29.00800000       2.02700000
 H      10.64900000      28.03500000       2.21600000
 H      10.36400000      29.21700000       1.07800000
 O      13.45600000      25.94500000       4.92600000
 H      13.62700000      25.57000000       5.79500000
 H      12.99400000      26.81900000       5.07000000
 O      16.38900000      28.02600000       1.00600000
 H      17.23000000      27.82100000       1.52900000
 H      15.74100000      27.37100000       1.39100000
 O      12.58400000      28.52800000       8.58700000
 H      11.60400000      28.60100000       8.58700000
 H      12.87400000      29.22100000       9.22600000
 O      18.21800000      27.17300000       3.12500000
 H      18.65100000      26.30600000       2.97200000
 H      18.27500000      27.16800000       4.12700000
 O      19.28100000      26.70000000       5.57700000
 H      20.09300000      26.28300000       5.40300000
 H      19.09100000      26.56000000       6.48800000
 O      13.60000000      30.43300000       5.97100000
 H      12.84500000      30.98200000       6.19400000
 H      13.33200000      30.01300000       5.10000000
 O      11.17400000      27.54600000       5.12900000
 H      10.85800000      28.37100000       5.52700000
 H      10.29400000      27.05200000       4.87100000
 O      14.36200000      26.44800000       2.36100000
 H      14.08700000      26.12200000       3.20000000
 H      14.03400000      27.37600000       2.43200000
 O      18.32800000      26.15900000       8.06700000
 H      18.10500000      26.28100000       8.95100000
 H      18.98500000      25.46500000       8.08600000
 O      15.59100000      29.27500000       7.65500000
 H      14.84900000      29.70100000       7.19200000
 H      15.86200000      28.68200000       6.93400000
 O      12.67100000      35.93500000       7.45400000
 H      13.13700000      36.70200000       7.75400000
 H      12.97300000      35.75700000       6.52700000
 O      20.04400000      36.50400000       0.74000000
 H      19.16400000      36.52100000       0.26400000
 H      19.80200000      36.86500000       1.71200000
 O      15.09900000      34.23700000       2.78800000
 H      14.34800000      34.28700000       2.15500000
 H      15.35600000      35.11600000       2.55200000
 O      18.06600000      34.37500000       3.11600000
 H      17.20200000      33.95300000       3.03700000
 H      18.00000000      35.26200000       2.78900000
 O      11.79000000      32.68900000       3.81200000
 H      12.45800000      32.55600000       3.07400000
 H      10.90000000      32.34800000       3.38600000
 O      16.33600000      34.40200000       7.76200000
 H      16.45300000      34.24300000       8.77300000
 H      15.34000000      34.15700000       7.60100000
 O      17.39800000      36.13500000       5.40800000
 H      17.16500000      35.72100000       6.28600000
 H      17.35700000      35.36800000       4.86400000
 O      20.08000000      32.89900000       2.04500000
 H      19.26200000      33.23700000       2.50800000
 H      20.16000000      31.98400000       2.29100000
 O      13.02800000      32.59300000      10.38600000
 H      12.24800000      33.12100000      10.21400000
 H      13.79200000      33.11700000      10.40200000
 O      13.17100000      33.51000000       0.82900000
 H      13.60100000      34.02900000       0.12600000
 H      12.91100000      32.64400000       0.36900000
 O      13.02000000      35.13000000       4.68900000
 H      12.40000000      34.48600000       4.33400000
 H      13.79000000      34.92100000       4.22400000
 O      19.96300000      34.89400000       7.60100000
 H      19.11600000      34.52200000       7.98600000
 H      19.76200000      34.96300000       6.62400000
 O      10.37000000      34.78500000       8.16800000
 H      10.45200000      34.83700000       9.12300000
 H      11.26800000      35.14100000       7.90600000
 O      18.10600000      32.86500000       9.65600000
 H      17.43700000      32.17000000       9.66700000
 H      18.85200000      32.37300000       9.33600000
 O      20.34500000      34.29100000       4.81000000
 H      20.62300000      33.33800000       4.95900000
 H      19.58500000      34.18400000       4.20200000
