129
XYZ file of cluster: frame_17500_76357.4ad98.c1f15 - created by MolEdiTo
 O      15.99500000      16.11800000      28.05600000
 H      16.39100000      15.36600000      27.57000000
 H      15.36800000      15.52700000      28.61000000
 O      25.94000000      21.70400000      28.59800000
 H      25.80100000      21.41300000      27.69400000
 H      25.73200000      20.83700000      29.01400000
 O      25.38100000      10.95600000      30.31800000
 H      24.73800000      11.09500000      29.63000000
 H      24.94200000      10.42000000      30.97700000
 O      17.85300000      13.93900000      27.34000000
 H      18.66300000      13.78900000      27.91600000
 H      17.58400000      13.08800000      26.93500000
 O      19.66600000      19.69300000      29.38400000
 H      19.48300000      20.16900000      28.52300000
 H      18.84800000      19.84100000      29.92900000
 O      26.82000000      15.96700000      25.58400000
 H      26.96800000      15.27200000      26.28800000
 H      26.13800000      15.51600000      25.00100000
 O      20.34200000      13.19500000      28.03100000
 H      20.84800000      12.68200000      27.29700000
 H      21.08600000      13.49200000      28.62000000
 O      17.23100000      20.34800000      30.32300000
 H      16.76500000      20.68100000      31.14800000
 H      16.50100000      19.93900000      29.69500000
 O      23.76300000      17.17800000      30.10100000
 H      23.79200000      16.56500000      30.89800000
 H      23.82400000      16.68700000      29.26200000
 O      26.00200000      18.62200000      29.11400000
 H      26.69400000      17.93000000      28.90600000
 H      25.33500000      18.31800000      29.79200000
 O      19.73100000      21.25900000      26.91400000
 H      19.09500000      21.14300000      26.21800000
 H      20.37600000      20.52400000      26.74200000
 O      20.99600000      17.45300000      28.98500000
 H      20.56500000      18.28600000      29.31600000
 H      21.88500000      17.60800000      29.34800000
 O      20.91400000      16.03500000      26.73900000
 H      21.60000000      15.47000000      27.09000000
 H      20.57800000      16.42500000      27.56200000
 O      17.52400000      10.91800000      25.56000000
 H      17.01400000      10.56100000      26.32600000
 H      18.44300000      10.51600000      25.62700000
 O      23.45500000      14.27100000      29.22400000
 H      23.63800000      13.54100000      28.56300000
 H      23.73600000      13.95800000      30.09900000
 O      26.50300000      14.46900000      28.02300000
 H      25.86700000      14.83700000      28.69000000
 H      27.39500000      14.62200000      28.37500000
 O      18.24100000      17.86000000      27.56400000
 H      17.78800000      18.64500000      27.96100000
 H      17.59800000      17.14400000      27.76100000
 O      23.87000000      18.22100000      27.30900000
 H      24.88600000      18.32900000      27.54600000
 H      23.42800000      18.76000000      27.98900000
 O      23.96800000      12.00100000      27.67700000
 H      24.87000000      11.74000000      27.39300000
 H      23.64300000      12.66000000      26.99800000
 O      22.36300000      10.59200000      30.25200000
 H      22.24100000       9.65700000      30.52200000
 H      22.55500000      10.43600000      29.27800000
 O      23.01600000      20.33000000      28.97800000
 H      22.63900000      20.95200000      28.32900000
 H      22.75900000      20.69600000      29.92800000
 O      18.50600000      11.80900000      29.99200000
 H      19.47200000      12.04900000      29.97300000
 H      18.19900000      12.32400000      29.31300000
 O      20.07800000      17.36000000      33.99800000
 H      20.94000000      17.71500000      34.32100000
 H      19.43500000      17.35900000      34.73800000
 O      26.09900000      15.76500000      32.30100000
 H      25.54300000      15.06100000      32.74500000
 H      26.50400000      16.22300000      33.06300000
 O      23.70700000      10.57300000      34.61500000
 H      23.72700000       9.63500000      34.69600000
 H      23.14200000      10.67200000      33.83400000
 O      19.11600000      15.19300000      32.15900000
 H      19.02100000      15.78700000      33.00100000
 H      19.45800000      15.79200000      31.47200000
 O      17.99100000      19.74600000      35.94900000
 H      17.25600000      20.33700000      36.39100000
 H      18.72900000      19.94600000      36.56600000
 O      23.38400000      20.88700000      35.21300000
 H      23.98500000      21.23200000      34.48600000
 H      22.46000000      21.15500000      34.85700000
 O      23.13900000      12.95000000      36.77700000
 H      22.70100000      12.08100000      36.38000000
 H      22.52900000      13.17300000      37.49900000
 O      15.94300000      13.93600000      33.30500000
 H      15.19900000      14.54700000      33.29600000
 H      16.70100000      14.33800000      32.73600000
 O      17.83000000      12.01600000      34.54600000
 H      17.53500000      11.95200000      33.61300000
 H      18.62400000      12.60000000      34.47400000
 O      17.43100000      16.96500000      35.76500000
 H      17.51900000      17.96600000      35.79200000
 H      16.86600000      16.83200000      36.61100000
 O      22.47900000      17.91400000      35.43300000
 H      22.08100000      17.99700000      36.33300000
 H      22.83800000      18.75600000      35.12800000
 O      16.76800000      17.23500000      32.99700000
 H      17.13000000      17.11600000      33.88000000
 H      17.46500000      17.68800000      32.48700000
 O      19.45600000      14.60800000      36.13000000
 H      18.63400000      15.10900000      35.81300000
 H      19.46100000      14.41100000      37.06800000
 O      22.30800000      16.16700000      37.58900000
 H      22.14100000      16.04300000      36.62700000
 H      23.29600000      16.29800000      37.75900000
 O      20.87000000      12.85800000      33.06900000
 H      20.89200000      13.80200000      33.31300000
 H      21.69200000      12.59500000      32.71000000
 O      20.77200000      21.30000000      34.65300000
 H      20.38600000      21.61200000      35.52500000
 H      20.31200000      20.41800000      34.55100000
 O      23.64400000      15.34300000      34.61600000
 H      23.74700000      14.71700000      35.34300000
 H      23.40800000      16.25700000      34.89100000
 O      20.76900000      10.07200000      34.36500000
 H      20.36300000      10.83900000      33.84900000
 H      20.93200000      10.57200000      35.26100000
 O      16.97600000      12.37400000      37.40900000
 H      17.28700000      12.12400000      36.57000000
 H      17.76300000      12.85400000      37.76300000
 O      26.04600000      11.83700000      35.02400000
 H      25.82200000      12.66400000      35.54800000
 H      25.13200000      11.50800000      34.74400000
 O      24.16000000      13.25600000      32.96800000
 H      24.61800000      12.55300000      33.45000000
 H      23.74600000      13.93300000      33.62300000
