108
XYZ file of cluster: frame_17500_9e156.c5db2.72fae - created by MolEdiTo
 O      28.87800000      26.69400000      25.42000000
 H      29.51600000      25.91700000      25.31000000
 H      28.05700000      26.55900000      24.79000000
 O      25.37600000      27.80600000      18.48200000
 H      24.79700000      27.88900000      17.74800000
 H      25.35700000      26.84000000      18.69800000
 O      25.78100000      29.01800000      24.88200000
 H      24.80900000      29.06200000      24.97300000
 H      25.91700000      29.89900000      24.50500000
 O      30.15400000      25.89600000      17.93600000
 H      29.74600000      26.63800000      17.37300000
 H      31.08400000      26.00100000      18.12700000
 O      28.66200000      29.73100000      24.47100000
 H      27.86100000      29.46800000      24.97000000
 H      29.21500000      28.94200000      24.53900000
 O      24.99000000      25.87800000      21.72700000
 H      24.72500000      26.82800000      21.69600000
 H      24.08400000      25.46900000      21.67700000
 O      26.41900000      30.14700000      19.57600000
 H      26.06100000      29.33400000      19.14700000
 H      25.68600000      30.84800000      19.62600000
 O      28.68200000      28.06900000      20.91600000
 H      28.39900000      29.06300000      20.99100000
 H      28.80100000      27.74700000      21.83500000
 O      20.61100000      27.73300000      15.76800000
 H      21.52700000      28.07800000      15.83900000
 H      20.63200000      27.45700000      14.82200000
 O      22.48500000      28.23500000      18.45300000
 H      22.77400000      27.85000000      19.29600000
 H      21.55500000      27.96600000      18.35100000
 O      21.79100000      28.71700000      23.90200000
 H      22.04900000      29.05600000      24.80500000
 H      22.00800000      27.78000000      23.92500000
 O      27.65400000      25.54700000      20.10600000
 H      28.18200000      26.35200000      20.08200000
 H      27.05500000      25.69900000      19.32500000
 O      28.99800000      28.83500000      17.91000000
 H      28.42400000      28.88100000      17.01800000
 H      28.35400000      28.46300000      18.51800000
 O      24.00900000      28.72000000      21.67600000
 H      23.92000000      29.33800000      20.87400000
 H      23.81200000      29.13300000      22.48300000
 O      24.23000000      26.43200000      24.59400000
 H      24.32000000      25.94600000      23.70800000
 H      23.43700000      26.01900000      25.04800000
 O      27.11500000      29.48400000      16.19700000
 H      26.23400000      29.68800000      16.45500000
 H      27.35300000      30.29900000      15.72600000
 O      22.70500000      29.98600000      15.98400000
 H      22.02700000      30.70000000      16.24200000
 H      22.98500000      30.27200000      15.09500000
 O      25.54200000      36.16400000      20.65000000
 H      25.27400000      36.48500000      19.72500000
 H      25.20900000      35.22000000      20.55600000
 O      27.86500000      33.67900000      21.14500000
 H      27.30900000      32.83700000      21.03900000
 H      27.75000000      34.06100000      20.23700000
 O      22.91000000      33.34100000      23.18700000
 H      23.28100000      33.54900000      24.04000000
 H      22.01700000      33.11000000      23.48700000
 O      24.57000000      34.61800000      25.18000000
 H      25.10100000      35.18000000      25.83200000
 H      25.27000000      33.98300000      24.84800000
 O      21.35100000      34.11600000      17.07800000
 H      20.51800000      33.67500000      16.90700000
 H      21.16500000      35.06100000      17.02600000
 O      30.24000000      36.68300000      25.05500000
 H      29.29500000      36.52800000      25.05600000
 H      30.34500000      36.78200000      26.05200000
 O      26.01700000      36.34900000      26.75200000
 H      26.48500000      36.84000000      26.06600000
 H      26.67100000      36.19700000      27.44200000
 O      24.46400000      33.73100000      20.94900000
 H      23.99600000      33.74600000      21.87300000
 H      23.89700000      33.17900000      20.42600000
 O      26.74100000      33.13400000      24.00000000
 H      26.98900000      33.66900000      23.21400000
 H      27.51000000      32.57600000      24.17200000
 O      22.92100000      32.40300000      19.18000000
 H      22.69900000      31.58300000      18.64000000
 H      22.34200000      33.21100000      18.87300000
 O      24.62100000      36.62600000      18.22000000
 H      23.92100000      36.96500000      17.58200000
 H      24.53200000      35.65300000      17.96900000
 O      21.18000000      33.54500000      26.06900000
 H      21.84700000      34.20500000      26.48700000
 H      20.32600000      34.03000000      26.04000000
 O      30.65100000      36.68600000      16.57200000
 H      31.39100000      37.28000000      16.56800000
 H      30.63400000      36.32500000      17.44200000
 O      23.76400000      37.17400000      24.43800000
 H      23.37900000      37.31800000      25.33000000
 H      24.09700000      36.23900000      24.46300000
 O      29.92600000      32.73200000      17.40200000
 H      29.27700000      33.28000000      17.83600000
 H      29.67200000      31.83300000      17.48000000
 O      24.28000000      34.11200000      16.88200000
 H      24.57700000      34.43500000      16.03900000
 H      23.43700000      33.63900000      16.76500000
 O      28.08600000      34.71900000      18.08700000
 H      27.10700000      34.70600000      17.85400000
 H      28.28300000      35.64600000      18.16500000
 O      21.39500000      34.45900000      20.80100000
 H      21.39400000      33.77000000      21.52700000
 H      22.00900000      35.18800000      21.10700000
 O      28.59300000      36.55700000      22.25800000
 H      28.86500000      35.63100000      21.94700000
 H      28.25100000      36.96000000      21.44000000
