156
XYZ file of cluster: frame_8000_7314c.7f7c.1ff06 - created by MolEdiTo
 O      18.81600000       8.35300000      10.96300000
 H      19.30100000       8.45300000      11.79000000
 H      17.87300000       8.19600000      11.26300000
 O      24.13600000       7.21800000      13.80800000
 H      23.40500000       6.56500000      13.64100000
 H      24.10600000       7.37800000      14.79400000
 O      23.97300000       6.61600000       4.56600000
 H      24.79200000       7.09500000       4.11800000
 H      24.47200000       6.31000000       5.36100000
 O      24.52400000       8.37900000       9.71800000
 H      23.61700000       8.78500000       9.54500000
 H      25.04000000       8.56400000       8.91200000
 O      23.44500000       1.66900000      12.34600000
 H      23.69000000       1.50500000      13.29000000
 H      22.49200000       1.81000000      12.46300000
 O      22.54700000       2.41400000      15.57600000
 H      21.78800000       3.08300000      15.65600000
 H      22.19400000       1.48400000      15.69400000
 O      24.03100000       4.18500000      13.93800000
 H      23.37000000       4.03200000      13.18000000
 H      24.87900000       4.35300000      13.38300000
 O      24.90900000       9.92400000       7.35200000
 H      25.51400000      10.34700000       6.72100000
 H      24.67900000       9.09700000       6.87400000
 O      22.27200000       2.22200000       7.37700000
 H      22.94700000       2.33400000       6.65100000
 H      21.82500000       3.11300000       7.34200000
 O      15.95000000       6.78600000      15.35600000
 H      15.32200000       6.93100000      14.67300000
 H      15.89000000       7.61200000      15.92500000
 O      18.46700000       7.04800000      14.63800000
 H      17.56800000       7.24700000      14.26700000
 H      18.57000000       6.11400000      14.35700000
 O      18.99300000       2.44700000      15.42800000
 H      19.39500000       3.13900000      14.91900000
 H      18.23600000       2.90700000      15.85000000
 O      22.81900000      10.47200000       6.13100000
 H      22.62000000       9.51600000       6.34700000
 H      22.75400000      10.52100000       5.11900000
 O      15.66100000       9.01900000      15.67000000
 H      15.80400000       9.11900000      16.57600000
 H      15.92700000       9.88200000      15.21500000
 O      16.97800000       1.21300000       7.87200000
 H      16.62400000       1.23800000       8.79800000
 H      17.81100000       1.67200000       7.96400000
 O      24.09100000       4.40100000       6.74200000
 H      24.24600000       4.14100000       7.65000000
 H      23.78600000       3.53500000       6.37400000
 O      16.50300000       8.08700000       8.50000000
 H      16.03600000       7.61100000       9.25400000
 H      16.46300000       7.55900000       7.67000000
 O      21.46900000       8.73900000      14.62700000
 H      20.92900000       8.88100000      15.45900000
 H      22.06700000       7.97500000      14.84600000
 O      20.48400000       4.60000000      14.82800000
 H      20.64700000       5.11600000      15.71100000
 H      19.93400000       3.84300000      15.05200000
 O      21.07100000       6.25900000      10.08300000
 H      20.15300000       6.22400000      10.40100000
 H      21.41600000       7.11900000      10.47300000
 O      22.88700000       1.98400000       5.15700000
 H      23.00100000       1.34400000       5.85700000
 H      23.52700000       1.53000000       4.53200000
 O      25.93300000       8.93100000      12.08900000
 H      25.34100000       8.81400000      11.27900000
 H      25.51600000       8.49300000      12.89400000
 O      24.52700000       1.24700000       8.51600000
 H      25.19900000       1.72300000       9.00700000
 H      23.76600000       1.53900000       9.07600000
 O      20.91500000       7.93400000       9.44100000
 H      20.73500000       8.85500000       8.96400000
 H      20.08800000       8.02900000      10.03100000
 O      22.56200000       7.91700000       7.25200000
 H      23.03200000       7.07300000       7.23500000
 H      22.21400000       7.93200000       8.27300000
 O      22.46200000       6.56300000       6.89100000
 H      22.64800000       6.70900000       5.91700000
 H      22.96900000       5.72900000       7.12400000
 O      19.51200000       8.32200000      13.70400000
 H      18.93500000       8.84000000      14.28100000
 H      20.28300000       8.09300000      14.25400000
 O      23.46300000      11.10400000      13.76400000
 H      24.09000000      11.74900000      13.28900000
 H      23.68700000      10.18000000      13.39000000
 O      22.47300000      10.36700000       9.37600000
 H      23.08000000      10.88600000       9.95800000
 H      23.05600000      10.33600000       8.62300000
 O      16.60300000       3.77400000      10.50900000
 H      16.09400000       3.30600000      11.22600000
 H      16.40800000       4.69600000      10.61300000
 O      26.45900000       7.23600000      10.64900000
 H      27.27600000       7.66900000      10.43800000
 H      25.83400000       7.81000000      11.17300000
 O      19.35200000       6.12000000       6.30200000
 H      19.03400000       7.01300000       6.41300000
 H      18.48300000       5.63700000       6.38300000
 O      20.56300000       3.79200000       4.91300000
 H      21.39800000       3.99600000       4.59300000
 H      20.42400000       4.48700000       5.58000000
 O      22.96700000       1.03100000      14.98300000
 H      23.70000000       1.59800000      15.23700000
 H      22.14400000       1.50300000      15.19900000
 O      17.02400000       5.00300000       6.55600000
 H      16.60000000       4.21800000       6.15400000
 H      16.36900000       5.43500000       7.24100000
 O      19.97100000       9.65200000       5.09700000
 H      19.50100000      10.09200000       4.36300000
 H      19.30600000       9.16300000       5.51800000
 O      25.73700000       3.66000000      11.87800000
 H      25.41900000       2.72100000      11.78200000
 H      25.69100000       4.10300000      10.96200000
 O      22.38200000       5.77400000      14.83300000
 H      22.45800000       5.22200000      15.64100000
 H      23.15300000       5.57200000      14.27300000
 O      23.78800000       6.26700000       9.73600000
 H      22.86800000       6.08000000       9.98600000
 H      23.66000000       6.68100000       8.84500000
 O      18.93900000       4.82900000      13.40300000
 H      18.48600000       5.52300000      12.87300000
 H      19.88100000       5.05800000      13.51800000
 O      24.58700000       8.94000000      15.03200000
 H      24.08900000       9.52600000      15.59400000
 H      24.91600000       9.58200000      14.30100000
 O      15.12500000       4.58700000      15.90800000
 H      14.74500000       4.03600000      15.15000000
 H      15.82800000       5.06800000      15.47900000
 O      20.33100000       4.05300000       8.37700000
 H      19.49000000       4.46800000       8.08400000
 H      20.65500000       4.57600000       9.16200000
 O      17.40000000       7.19700000       5.70900000
 H      17.02700000       7.95900000       5.22400000
 H      17.24600000       6.53300000       5.04900000
 O      19.48400000       2.69500000      11.15600000
 H      18.64200000       2.75700000      10.60800000
 H      19.15400000       3.09100000      11.99200000
 O      23.82600000       3.82500000       9.59900000
 H      23.62700000       4.77300000       9.83200000
 H      22.83700000       3.41500000       9.67400000
 O      24.29600000       8.38800000       5.20800000
 H      23.77800000       7.57200000       5.44700000
 H      23.56500000       8.92100000       4.72400000
 O      21.64300000       5.29500000      13.45300000
 H      22.24400000       6.03000000      13.16500000
 H      21.50700000       5.51300000      14.33300000
 O      22.50900000       2.78500000      10.15100000
 H      21.72300000       2.91400000      10.68400000
 H      22.23200000       2.45900000       9.27000000
 O      18.05000000      10.27300000       7.99000000
 H      17.60700000       9.44400000       8.29800000
 H      19.00900000      10.15600000       7.92800000
 O      23.20300000       7.53300000      12.48500000
 H      23.91700000       7.43000000      11.85600000
 H      23.09400000       8.55000000      12.59900000
 O      22.29800000       9.40200000      12.44200000
 H      21.57100000       9.35900000      13.02900000
 H      22.67000000      10.25100000      12.61400000
