117
XYZ file of cluster: frame_8000_205bd.2823e.5207 - created by MolEdiTo
 O       8.25300000       5.99000000       2.93200000
 H       9.03800000       6.15200000       2.44900000
 H       7.52200000       6.45200000       2.38200000
 O       8.27200000      10.27800000       3.36400000
 H       7.38000000      10.59100000       3.62000000
 H       8.65600000       9.94800000       4.27900000
 O      14.20400000      10.74300000       1.79500000
 H      15.17500000      10.81300000       1.51100000
 H      13.69400000      11.34100000       1.20600000
 O       6.48400000       7.43600000       9.07100000
 H       6.54700000       6.82700000       9.79400000
 H       7.45900000       7.50700000       8.89400000
 O      11.87700000       9.19900000       3.35200000
 H      12.31300000      10.07100000       3.24400000
 H      11.22400000       9.37000000       4.10200000
 O       9.61400000      12.47400000       6.93000000
 H       9.96200000      13.15700000       7.53200000
 H       8.66100000      12.53900000       7.21400000
 O       9.06800000       7.13300000       9.47400000
 H       8.77500000       7.33400000      10.37400000
 H       9.67500000       7.83200000       9.20000000
 O      15.34900000      15.55700000       9.90200000
 H      15.62100000      15.13300000       9.10300000
 H      14.36100000      15.31700000       9.80200000
 O      10.77400000       7.48100000       2.92900000
 H      11.15800000       8.40600000       2.77300000
 H      10.75700000       7.42000000       3.86600000
 O      12.36100000      15.82600000       6.42500000
 H      11.82000000      15.32800000       5.82300000
 H      13.27400000      15.73000000       6.01700000
 O      10.24200000       9.67500000       6.24900000
 H       9.45200000       9.57600000       6.87500000
 H      10.29800000      10.63800000       6.03800000
 O      15.80800000      11.14700000      10.67300000
 H      15.47000000      10.89900000       9.74000000
 H      16.80700000      11.09200000      10.53900000
 O      11.84400000       9.03000000      11.07700000
 H      11.37000000       9.62900000      10.42300000
 H      11.92400000       9.57700000      11.88600000
 O       5.85600000      14.85900000       5.79800000
 H       5.53000000      15.10800000       6.64200000
 H       6.33900000      14.01300000       6.00400000
 O      10.27900000      10.84300000       9.50500000
 H       9.39200000      10.68900000       9.75200000
 H      10.15000000      11.12000000       8.59800000
 O       4.68800000       7.74700000       7.32900000
 H       5.57200000       7.90800000       7.81800000
 H       4.14600000       7.53900000       8.08500000
 O       8.68900000      13.37200000       2.20800000
 H       9.40200000      13.25100000       2.85800000
 H       8.62600000      12.53400000       1.66800000
 O       8.09100000       6.73000000       5.56800000
 H       8.03700000       6.32200000       4.70900000
 H       8.95100000       7.18900000       5.64600000
 O      14.37300000       6.91900000       2.29500000
 H      14.21600000       6.55100000       1.43000000
 H      14.15700000       7.88500000       2.05200000
 O      12.72500000      15.65000000       9.40500000
 H      12.08000000      16.20300000       9.96100000
 H      12.18700000      15.45500000       8.62700000
 O       9.89500000      14.49200000       5.14000000
 H      10.20700000      13.68100000       4.56700000
 H       9.61300000      14.24500000       6.06100000
 O      15.92400000       9.20100000       4.69000000
 H      15.77200000      10.12500000       4.93700000
 H      15.06500000       9.10800000       4.19900000
 O      11.42500000       7.08900000       5.62500000
 H      12.36800000       6.94100000       5.30800000
 H      11.42700000       7.99000000       6.10300000
 O       7.50900000       9.02700000       6.60600000
 H       7.05100000       9.67600000       7.19900000
 H       6.97800000       8.19600000       6.55100000
 O      11.57300000       7.20800000       9.88600000
 H      10.57500000       7.36800000       9.69500000
 H      11.79400000       8.06900000      10.31200000
 O       7.04700000      12.88400000       7.70200000
 H       7.02000000      13.83500000       8.10100000
 H       6.55100000      12.30600000       8.37400000
 O      14.10800000       7.17700000       5.32400000
 H      14.60800000       6.78600000       5.97200000
 H      14.69800000       7.25500000       4.53600000
 O      15.08200000       6.08700000       8.12200000
 H      14.80900000       6.59700000       8.88400000
 H      14.88800000       5.19400000       8.38300000
 O      11.39400000      12.72900000       0.80600000
 H      10.60600000      13.31300000       0.66100000
 H      12.17300000      13.32600000       0.75600000
 O      11.18800000      12.60200000       3.57000000
 H      11.42300000      12.31200000       2.65300000
 H      12.01700000      13.01200000       3.75100000
 O       9.87900000      14.61200000       8.56900000
 H       9.37500000      15.53100000       8.52900000
 H       9.50100000      14.18200000       9.40600000
 O      12.14600000       5.75300000       7.22200000
 H      12.77400000       6.21800000       6.59000000
 H      12.21600000       6.23300000       8.05600000
 O       5.49100000       5.47800000       2.17900000
 H       6.02700000       6.15800000       1.69500000
 H       4.65600000       5.92300000       2.18700000
 O       7.64300000      15.90000000       1.73700000
 H       8.15700000      15.06900000       2.00200000
 H       7.79400000      16.41100000       2.54900000
 O       5.43500000      13.81900000       2.50400000
 H       6.36100000      13.94600000       2.23000000
 H       4.93900000      14.56000000       2.04500000
 O      14.01400000      14.27500000       3.17900000
 H      14.22600000      13.86300000       2.34000000
 H      14.76700000      14.37900000       3.71200000
 O       5.74200000       9.59600000       2.26200000
 H       6.57700000       9.30900000       2.76100000
 H       5.40200000       8.80900000       1.82600000
 O      16.18800000       6.44200000       3.40300000
 H      16.78100000       6.21100000       2.73600000
 H      15.60300000       7.04600000       2.91200000
 O       6.76700000      15.29100000       8.84600000
 H       7.32900000      16.12200000       8.66000000
 H       5.91700000      15.69900000       9.05900000
